Site Number,00008016,Unnamed: 2,Site Reference,00008016.1,Unnamed: 5,Unnamed: 6,Lat/Lng.,"52.03978,1.18630",Unnamed: 9
Radar 8016 Nacton Road,,,,,,,,,
Vehicle Count Report,,,,Week Begin: 03 February 2020,,,Channel:,Total Flow,
,,,,,,,,,
,,,,,,,,,
,2020-02-03 00:00:00,2020-02-04 00:00:00,2020-02-05 00:00:00,2020-02-06 00:00:00,2020-02-07 00:00:00,2020-02-08 00:00:00,2020-02-09 00:00:00,"5-Day
Ave.","7-Day
Ave."
00:00:00,0,0,0,1,5,1,1,1,1
00:01:00,0,1,1,3,1,2,1,1,1
00:02:00,0,2,1,2,1,1,1,1,1
00:03:00,1,1,1,3,2,3,2,2,2
00:04:00,3,3,2,0,0,2,3,2,2
00:05:00,3,1,2,1,2,3,5,2,2
00:06:00,1,0,1,3,2,1,1,1,1
00:07:00,2,0,1,3,2,3,1,2,2
00:08:00,1,1,0,2,1,1,3,1,1
00:09:00,1,4,0,0,3,2,0,2,1
00:10:00,0,2,0,0,2,5,3,1,2
00:11:00,0,1,0,3,2,0,6,1,2
00:12:00,3,1,1,2,0,2,3,1,2
00:13:00,1,2,0,2,0,1,1,1,1
00:14:00,2,1,1,1,1,2,4,1,2
00:15:00,0,2,1,1,2,5,4,1,2
00:16:00,0,2,1,1,0,1,3,1,1
00:17:00,4,0,1,0,0,2,2,1,1
00:18:00,0,1,0,3,1,1,1,1,1
00:19:00,0,1,0,1,0,2,4,0,1
00:20:00,3,1,1,1,2,1,1,2,1
00:21:00,2,0,0,1,1,0,0,1,1
00:22:00,0,2,1,2,2,1,4,1,2
00:23:00,1,1,1,0,0,2,0,1,1
00:24:00,0,0,1,1,4,0,2,1,1
00:25:00,1,0,0,4,0,5,2,1,2
00:26:00,0,0,0,1,3,1,1,1,1
00:27:00,1,0,0,0,2,4,2,1,1
00:28:00,2,1,0,0,0,3,4,1,1
00:29:00,0,0,0,0,2,3,1,0,1
00:30:00,0,1,2,1,2,1,1,1,1
00:31:00,0,0,0,1,2,2,1,1,1
00:32:00,0,1,0,0,1,2,1,0,1
00:33:00,0,0,0,0,0,1,1,0,0
00:34:00,0,0,1,2,2,3,0,1,1
00:35:00,0,1,0,0,1,2,3,0,1
00:36:00,1,0,1,0,0,1,2,0,1
00:37:00,0,0,1,0,1,2,1,0,1
00:38:00,0,0,1,1,0,3,2,0,1
00:39:00,2,1,0,0,1,0,1,1,1
00:40:00,1,1,1,0,0,1,2,1,1
00:41:00,0,0,1,0,2,2,4,1,1
00:42:00,0,1,0,2,0,2,0,1,1
00:43:00,0,3,0,0,0,2,1,1,1
00:44:00,1,1,0,0,2,3,0,1,1
00:45:00,1,0,0,1,2,0,1,1,1
00:46:00,1,1,0,1,0,2,1,1,1
00:47:00,0,1,0,0,0,1,6,0,1
00:48:00,1,1,2,0,0,1,0,1,1
00:49:00,0,1,1,0,0,5,1,0,1
00:50:00,0,1,1,0,0,1,1,0,1
00:51:00,1,1,1,0,1,1,1,1,1
00:52:00,0,1,1,0,1,0,2,1,1
00:53:00,0,0,3,1,1,0,1,1,1
00:54:00,0,1,2,0,0,0,2,1,1
00:55:00,0,1,1,0,1,1,2,1,1
00:56:00,1,0,0,2,0,2,4,1,1
00:57:00,2,0,2,0,0,0,2,1,1
00:58:00,0,1,0,1,1,0,2,1,1
00:59:00,0,1,0,0,3,1,0,1,1
01:00:00,0,0,1,0,1,1,1,0,1
01:01:00,0,1,1,0,1,0,4,1,1
01:02:00,0,0,1,0,2,0,1,1,1
01:03:00,0,0,1,0,2,0,2,1,1
01:04:00,1,0,1,1,0,1,2,1,1
01:05:00,1,0,2,0,0,0,1,1,1
01:06:00,0,1,0,0,0,1,0,0,0
01:07:00,1,0,0,2,1,0,0,1,1
01:08:00,1,1,2,2,0,0,2,1,1
01:09:00,1,0,0,0,0,2,3,0,1
01:10:00,0,0,2,0,0,2,2,0,1
01:11:00,1,1,0,0,0,1,0,0,0
01:12:00,1,0,0,0,1,1,1,0,1
01:13:00,0,0,0,0,0,1,5,0,1
01:14:00,0,0,0,2,1,2,1,1,1
01:15:00,2,2,0,0,2,0,2,1,1
01:16:00,0,0,1,0,1,3,4,0,1
01:17:00,1,0,0,1,0,0,0,0,0
01:18:00,1,1,0,2,0,3,1,1,1
01:19:00,0,1,0,1,3,0,1,1,1
01:20:00,0,0,1,1,0,1,1,0,1
01:21:00,0,0,0,0,2,1,0,0,0
01:22:00,1,0,3,2,0,1,2,1,1
01:23:00,3,0,0,0,0,0,5,1,1
01:24:00,0,1,1,2,1,3,4,1,2
01:25:00,0,0,1,0,4,1,2,1,1
01:26:00,0,0,0,0,1,0,0,0,0
01:27:00,0,0,1,1,1,1,0,1,1
01:28:00,0,2,0,0,0,1,1,0,1
01:29:00,2,1,0,1,0,1,0,1,1
01:30:00,0,2,0,1,1,2,1,1,1
01:31:00,0,0,0,0,1,2,2,0,1
01:32:00,0,1,1,1,2,0,0,1,1
01:33:00,0,2,1,0,0,1,0,1,1
01:34:00,3,2,0,0,0,3,0,1,1
01:35:00,0,2,0,0,0,1,1,0,1
01:36:00,0,0,0,0,0,0,2,0,0
01:37:00,0,2,1,0,2,0,0,1,1
01:38:00,0,1,0,0,1,0,2,0,1
01:39:00,1,1,0,1,0,2,1,1,1
01:40:00,1,1,0,1,0,2,2,1,1
01:41:00,1,0,1,0,0,1,1,0,1
01:42:00,0,0,1,0,0,2,0,0,0
01:43:00,0,1,0,0,0,0,1,0,0
01:44:00,0,1,0,0,1,2,3,0,1
01:45:00,0,0,1,0,1,1,1,0,1
01:46:00,0,0,0,0,2,1,4,0,1
01:47:00,1,0,1,0,0,0,2,0,1
01:48:00,0,1,0,0,0,0,0,0,0
01:49:00,1,0,0,0,1,0,2,0,1
01:50:00,0,0,0,1,1,1,0,0,0
01:51:00,0,1,1,2,0,1,3,1,1
01:52:00,1,1,0,0,3,0,0,1,1
01:53:00,1,0,0,0,1,1,1,0,1
01:54:00,1,0,0,1,0,1,1,0,1
01:55:00,0,0,1,1,1,2,2,1,1
01:56:00,1,0,0,0,2,0,2,1,1
01:57:00,0,1,0,0,0,3,1,0,1
01:58:00,0,0,4,1,0,0,3,1,1
01:59:00,0,1,2,2,0,0,1,1,1
02:00:00,0,2,0,0,0,0,0,0,0
02:01:00,0,2,1,0,0,2,0,1,1
02:02:00,0,0,1,0,1,1,1,0,1
02:03:00,1,0,0,1,0,0,2,0,1
02:04:00,3,1,0,0,0,2,0,1,1
02:05:00,0,2,0,1,0,0,2,1,1
02:06:00,0,0,1,1,4,0,0,1,1
02:07:00,1,4,2,0,0,0,0,1,1
02:08:00,0,0,0,2,1,1,0,1,1
02:09:00,1,1,2,0,1,0,1,1,1
02:10:00,0,0,0,0,0,0,1,0,0
02:11:00,0,2,2,0,0,0,2,1,1
02:12:00,0,0,2,0,2,4,4,1,2
02:13:00,2,0,0,1,2,0,2,1,1
02:14:00,0,0,1,0,0,1,0,0,0
02:15:00,0,0,0,0,0,2,2,0,1
02:16:00,2,0,1,1,0,0,0,1,1
02:17:00,0,0,0,0,0,1,4,0,1
02:18:00,0,0,0,0,2,5,4,0,2
02:19:00,2,0,0,1,1,0,2,1,1
02:20:00,1,0,0,2,1,0,0,1,1
02:21:00,1,2,1,0,0,1,2,1,1
02:22:00,0,0,2,0,1,1,0,1,1
02:23:00,0,0,0,2,0,1,1,0,1
02:24:00,0,0,1,0,0,1,1,0,0
02:25:00,0,0,2,0,0,0,2,0,1
02:26:00,1,1,1,1,0,0,1,1,1
02:27:00,1,3,1,0,1,1,1,1,1
02:28:00,0,1,0,0,0,1,1,0,0
02:29:00,1,0,0,0,1,0,1,0,0
02:30:00,0,0,0,0,0,1,4,0,1
02:31:00,3,1,0,0,0,0,1,1,1
02:32:00,1,0,0,1,0,1,1,0,1
02:33:00,1,0,0,1,0,0,0,0,0
02:34:00,0,1,0,0,2,1,0,1,1
02:35:00,0,1,0,0,0,1,0,0,0
02:36:00,0,0,0,0,0,0,1,0,0
02:37:00,1,0,0,2,0,1,1,1,1
02:38:00,0,0,0,0,0,0,0,0,0
02:39:00,0,0,0,1,0,0,3,0,1
02:40:00,1,0,1,0,0,1,1,0,1
02:41:00,0,0,1,1,0,2,0,0,1
02:42:00,0,0,1,0,0,0,0,0,0
02:43:00,1,1,0,0,0,0,0,0,0
02:44:00,0,1,0,0,0,0,4,0,1
02:45:00,0,0,0,1,0,0,1,0,0
02:46:00,0,1,2,0,0,1,2,1,1
02:47:00,0,0,0,1,0,0,0,0,0
02:48:00,0,1,0,0,0,1,2,0,1
02:49:00,0,3,0,0,0,1,2,1,1
02:50:00,0,0,0,0,1,1,2,0,1
02:51:00,0,0,0,0,1,0,3,0,1
02:52:00,1,1,1,0,1,0,0,1,1
02:53:00,0,0,0,0,0,1,2,0,0
02:54:00,2,0,0,0,0,0,2,0,1
02:55:00,1,0,0,0,0,2,0,0,0
02:56:00,0,0,0,0,0,0,3,0,0
02:57:00,0,0,0,0,1,1,1,0,0
02:58:00,0,0,0,0,0,1,0,0,0
02:59:00,2,0,0,1,1,0,0,1,1
03:00:00,1,0,0,0,0,0,1,0,0
03:01:00,1,0,0,0,1,0,3,0,1
03:02:00,1,0,0,0,0,2,2,0,1
03:03:00,0,0,1,1,2,1,3,1,1
03:04:00,0,0,0,1,0,1,0,0,0
03:05:00,0,1,0,0,0,0,0,0,0
03:06:00,0,0,0,0,1,0,1,0,0
03:07:00,0,0,1,1,0,0,0,0,0
03:08:00,0,0,0,0,0,1,1,0,0
03:09:00,0,0,1,0,0,1,2,0,1
03:10:00,0,0,0,0,0,0,0,0,0
03:11:00,0,0,0,1,0,1,1,0,0
03:12:00,0,0,0,0,0,0,0,0,0
03:13:00,1,0,0,0,0,1,2,0,1
03:14:00,0,0,0,0,0,0,0,0,0
03:15:00,0,0,0,0,0,0,0,0,0
03:16:00,0,0,0,0,0,0,0,0,0
03:17:00,0,0,0,0,0,0,2,0,0
03:18:00,0,0,0,1,0,1,1,0,0
03:19:00,0,0,1,0,0,1,0,0,0
03:20:00,1,0,0,0,1,0,0,0,0
03:21:00,0,0,0,0,0,0,2,0,0
03:22:00,0,0,0,0,0,0,1,0,0
03:23:00,3,0,0,1,0,0,1,1,1
03:24:00,0,0,0,0,0,0,0,0,0
03:25:00,0,0,0,0,0,1,1,0,0
03:26:00,0,0,0,0,1,0,0,0,0
03:27:00,1,0,0,0,0,0,0,0,0
03:28:00,0,1,2,1,0,1,1,1,1
03:29:00,2,0,1,2,0,0,1,1,1
03:30:00,0,1,0,0,0,0,0,0,0
03:31:00,0,1,0,0,1,2,0,0,1
03:32:00,1,0,0,0,0,1,3,0,1
03:33:00,0,0,0,1,1,0,1,0,0
03:34:00,1,0,1,1,0,1,1,1,1
03:35:00,0,0,0,0,0,0,2,0,0
03:36:00,1,1,1,2,0,1,1,1,1
03:37:00,0,1,1,0,2,0,1,1,1
03:38:00,1,0,1,1,1,0,1,1,1
03:39:00,0,0,0,0,1,0,0,0,0
03:40:00,1,1,0,0,2,0,1,1,1
03:41:00,0,0,0,0,0,0,1,0,0
03:42:00,0,0,0,0,0,0,1,0,0
03:43:00,0,0,1,2,0,0,4,1,1
03:44:00,0,0,0,1,0,0,0,0,0
03:45:00,0,2,0,1,0,1,0,1,1
03:46:00,1,0,1,0,0,0,2,0,1
03:47:00,1,2,0,0,0,0,1,1,1
03:48:00,0,0,0,1,2,2,2,1,1
03:49:00,0,0,0,0,0,0,2,0,0
03:50:00,0,0,1,1,0,0,0,0,0
03:51:00,0,0,0,0,0,1,4,0,1
03:52:00,0,0,0,0,1,1,2,0,1
03:53:00,0,0,0,1,0,0,0,0,0
03:54:00,1,0,2,0,0,0,1,1,1
03:55:00,0,0,0,0,1,0,0,0,0
03:56:00,1,0,0,1,1,0,1,1,1
03:57:00,0,0,1,2,1,1,0,1,1
03:58:00,1,0,0,0,2,1,0,1,1
03:59:00,0,1,1,0,1,0,2,1,1
04:00:00,0,0,0,0,1,0,0,0,0
04:01:00,0,0,0,1,0,1,0,0,0
04:02:00,1,0,0,0,0,1,3,0,1
04:03:00,0,1,0,0,0,1,1,0,0
04:04:00,0,0,0,0,0,1,2,0,0
04:05:00,0,1,0,0,0,1,0,0,0
04:06:00,0,0,0,0,0,0,1,0,0
04:07:00,1,0,0,0,0,0,7,0,1
04:08:00,1,0,0,0,0,0,3,0,1
04:09:00,0,0,0,0,0,0,1,0,0
04:10:00,1,0,1,1,1,0,1,1,1
04:11:00,0,0,2,0,0,0,3,0,1
04:12:00,1,0,0,1,0,0,3,0,1
04:13:00,0,0,0,0,1,0,1,0,0
04:14:00,1,1,0,0,0,1,2,0,1
04:15:00,0,0,0,0,2,1,3,0,1
04:16:00,0,0,0,1,0,0,2,0,0
04:17:00,0,0,0,0,0,1,1,0,0
04:18:00,1,1,1,2,2,0,4,1,2
04:19:00,0,0,3,1,1,0,1,1,1
04:20:00,0,1,1,1,1,0,1,1,1
04:21:00,0,0,0,0,2,2,0,0,1
04:22:00,1,1,0,0,1,0,3,1,1
04:23:00,0,0,0,1,4,0,0,1,1
04:24:00,2,0,0,3,0,0,0,1,1
04:25:00,0,0,3,1,1,0,2,1,1
04:26:00,0,1,0,1,0,0,3,0,1
04:27:00,0,1,0,0,0,0,1,0,0
04:28:00,1,0,0,1,1,0,1,1,1
04:29:00,0,1,1,1,1,0,2,1,1
04:30:00,1,0,0,0,1,0,3,0,1
04:31:00,2,1,0,0,1,1,1,1,1
04:32:00,0,0,1,0,1,2,0,0,1
04:33:00,0,0,0,0,0,0,0,0,0
04:34:00,0,0,1,0,1,0,1,0,0
04:35:00,0,1,2,1,1,1,1,1,1
04:36:00,1,1,0,3,0,1,1,1,1
04:37:00,0,1,0,0,1,0,2,0,1
04:38:00,1,1,0,1,0,1,1,1,1
04:39:00,0,0,1,0,1,0,0,0,0
04:40:00,1,4,1,0,0,0,0,1,1
04:41:00,1,2,1,2,3,2,2,2,2
04:42:00,0,0,0,0,2,2,1,0,1
04:43:00,0,1,1,2,2,0,0,1,1
04:44:00,1,0,0,0,1,1,5,0,1
04:45:00,2,1,1,2,4,1,2,2,2
04:46:00,2,1,0,0,1,1,0,1,1
04:47:00,1,3,2,2,0,1,2,2,2
04:48:00,1,0,0,0,0,1,4,0,1
04:49:00,0,3,1,1,1,1,0,1,1
04:50:00,3,0,3,1,5,1,2,2,2
04:51:00,0,3,3,0,2,0,1,2,1
04:52:00,1,1,1,1,4,1,1,2,1
04:53:00,0,1,0,1,2,1,3,1,1
04:54:00,2,2,1,4,1,0,0,2,1
04:55:00,3,1,2,0,1,0,0,1,1
04:56:00,1,1,0,1,1,0,2,1,1
04:57:00,3,0,3,1,0,1,4,1,2
04:58:00,3,1,0,1,1,1,0,1,1
04:59:00,2,1,0,2,2,0,2,1,1
05:00:00,0,2,2,1,1,0,1,1,1
05:01:00,0,2,2,0,1,1,0,1,1
05:02:00,0,0,1,1,2,0,2,1,1
05:03:00,1,0,0,2,1,0,1,1,1
05:04:00,0,0,0,1,2,0,1,1,1
05:05:00,4,3,2,0,2,2,0,2,2
05:06:00,2,1,0,2,0,2,0,1,1
05:07:00,2,1,1,0,1,0,0,1,1
05:08:00,1,1,1,4,3,1,1,2,2
05:09:00,1,1,0,1,0,0,0,1,0
05:10:00,1,1,1,1,2,1,1,1,1
05:11:00,2,0,1,1,3,1,0,1,1
05:12:00,1,0,2,1,3,0,0,1,1
05:13:00,0,2,0,2,3,0,2,1,1
05:14:00,2,1,0,0,1,1,1,1,1
05:15:00,3,0,3,1,0,3,1,1,2
05:16:00,2,1,0,2,3,1,3,2,2
05:17:00,1,3,3,1,1,0,2,2,2
05:18:00,3,6,6,4,3,3,0,4,4
05:19:00,6,2,5,9,2,1,0,5,4
05:20:00,3,5,1,4,0,0,0,3,2
05:21:00,7,5,0,4,2,2,2,4,3
05:22:00,1,0,0,1,1,4,0,1,1
05:23:00,2,3,1,1,0,0,1,1,1
05:24:00,2,1,4,2,3,1,0,2,2
05:25:00,2,1,2,1,0,1,0,1,1
05:26:00,0,0,2,4,4,2,3,2,2
05:27:00,1,1,1,0,0,1,0,1,1
05:28:00,4,4,1,2,1,0,0,2,2
05:29:00,2,0,2,0,3,2,1,1,1
05:30:00,2,1,0,5,1,1,1,2,2
05:31:00,3,2,1,1,2,0,2,2,2
05:32:00,3,1,2,3,2,2,2,2,2
05:33:00,2,4,0,1,2,2,1,2,2
05:34:00,3,2,3,1,2,2,4,2,2
05:35:00,3,1,2,1,2,0,1,2,1
05:36:00,0,7,2,3,2,0,1,3,2
05:37:00,3,1,2,4,4,4,2,3,3
05:38:00,6,2,6,4,1,2,1,4,3
05:39:00,4,3,6,3,3,0,1,4,3
05:40:00,3,5,1,3,2,1,0,3,2
05:41:00,2,0,5,1,2,1,2,2,2
05:42:00,4,4,4,5,3,2,3,4,4
05:43:00,5,3,3,2,2,2,1,3,3
05:44:00,7,3,0,3,6,2,1,4,3
05:45:00,2,6,7,4,1,0,0,4,3
05:46:00,3,1,8,1,3,2,3,3,3
05:47:00,6,5,4,4,3,1,0,4,3
05:48:00,2,3,4,5,9,1,3,5,4
05:49:00,5,3,2,3,3,3,1,3,3
05:50:00,4,6,3,6,4,2,1,5,4
05:51:00,6,3,7,1,2,2,0,4,3
05:52:00,6,5,1,3,4,3,2,4,3
05:53:00,2,11,2,5,2,3,3,4,4
05:54:00,8,2,7,4,6,2,1,5,4
05:55:00,7,3,7,7,7,2,0,6,5
05:56:00,5,3,5,2,3,1,2,4,3
05:57:00,4,6,2,5,2,1,2,4,3
05:58:00,2,0,3,6,2,3,3,3,3
05:59:00,2,1,3,3,5,2,1,3,2
06:00:00,3,5,1,3,1,5,3,3,3
06:01:00,3,1,0,2,1,4,0,1,2
06:02:00,7,5,4,3,2,2,1,4,3
06:03:00,1,4,2,2,4,4,2,3,3
06:04:00,2,4,5,3,7,4,1,4,4
06:05:00,7,0,6,1,3,2,3,3,3
06:06:00,1,3,0,4,2,2,2,2,2
06:07:00,0,1,2,5,2,2,2,2,2
06:08:00,8,2,1,2,5,0,5,4,3
06:09:00,4,4,5,0,3,8,1,3,4
06:10:00,8,3,2,4,7,0,7,5,4
06:11:00,2,3,6,3,7,3,1,4,4
06:12:00,4,4,4,2,3,0,1,3,3
06:13:00,2,4,2,2,6,2,3,3,3
06:14:00,4,3,3,2,3,2,2,3,3
06:15:00,10,7,4,6,1,1,3,6,5
06:16:00,5,1,4,6,3,4,1,4,3
06:17:00,2,6,3,5,1,1,2,3,3
06:18:00,4,3,4,6,6,2,2,5,4
06:19:00,5,4,4,3,2,2,5,4,4
06:20:00,7,3,2,4,6,2,0,4,3
06:21:00,2,6,3,2,1,3,2,3,3
06:22:00,1,7,2,4,3,3,6,3,4
06:23:00,4,6,4,7,3,4,2,5,4
06:24:00,3,2,5,0,7,2,3,3,3
06:25:00,2,5,6,6,3,1,0,4,3
06:26:00,7,6,9,2,6,1,3,6,5
06:27:00,1,8,4,8,3,2,6,5,5
06:28:00,4,6,3,1,7,0,2,4,3
06:29:00,7,7,3,7,10,1,2,7,5
06:30:00,4,3,6,3,6,2,2,4,4
06:31:00,6,6,2,5,4,3,1,5,4
06:32:00,5,3,8,8,7,2,1,6,5
06:33:00,9,8,6,4,8,0,1,7,5
06:34:00,7,12,7,7,4,3,2,7,6
06:35:00,2,3,9,4,5,6,5,5,5
06:36:00,4,5,8,10,10,2,2,7,6
06:37:00,7,5,4,5,7,3,2,6,5
06:38:00,12,8,5,6,6,5,3,7,6
06:39:00,4,7,10,10,6,2,3,7,6
06:40:00,9,4,6,6,1,5,6,5,5
06:41:00,5,6,10,7,7,2,4,7,6
06:42:00,5,6,6,8,7,1,2,6,5
06:43:00,6,4,8,4,6,4,2,6,5
06:44:00,4,13,8,4,3,5,1,6,5
06:45:00,3,14,6,4,5,2,2,6,5
06:46:00,14,9,10,1,8,2,6,8,7
06:47:00,14,8,4,16,7,4,4,10,8
06:48:00,4,6,3,6,5,4,2,5,4
06:49:00,7,5,12,1,1,7,5,5,5
06:50:00,10,12,4,4,5,0,1,7,5
06:51:00,8,5,1,5,2,3,5,4,4
06:52:00,7,5,9,8,6,3,4,7,6
06:53:00,6,8,8,7,11,1,4,8,6
06:54:00,6,6,5,10,8,1,4,7,6
06:55:00,6,5,7,8,6,9,3,6,6
06:56:00,5,3,8,5,7,5,4,6,5
06:57:00,7,5,5,4,2,3,0,5,4
06:58:00,5,2,3,8,9,2,5,5,5
06:59:00,5,5,5,8,7,0,2,6,5
07:00:00,8,3,4,7,5,4,3,5,5
07:01:00,8,9,6,5,8,0,2,7,5
07:02:00,9,9,7,4,6,2,0,7,5
07:03:00,6,4,6,4,7,2,1,5,4
07:04:00,2,7,4,5,4,2,1,4,4
07:05:00,4,4,6,10,4,2,1,6,4
07:06:00,9,3,6,8,5,1,2,6,5
07:07:00,3,5,6,5,7,0,3,5,4
07:08:00,12,7,14,5,4,3,1,8,7
07:09:00,13,8,7,7,8,6,8,9,8
07:10:00,7,8,12,8,8,10,1,9,8
07:11:00,10,10,5,7,6,2,2,8,6
07:12:00,7,7,12,11,6,8,7,9,8
07:13:00,5,9,9,4,7,0,2,7,5
07:14:00,6,13,6,14,9,3,2,10,8
07:15:00,10,12,4,8,11,2,6,9,8
07:16:00,9,9,8,15,7,3,4,10,8
07:17:00,9,5,5,10,8,7,1,7,6
07:18:00,9,10,8,8,9,0,4,9,7
07:19:00,5,9,6,10,13,3,2,9,7
07:20:00,11,7,12,10,16,3,3,11,9
07:21:00,9,8,6,6,11,7,5,8,7
07:22:00,6,14,6,10,7,4,3,9,7
07:23:00,8,7,10,8,6,4,5,8,7
07:24:00,5,13,10,8,12,5,2,10,8
07:25:00,8,13,12,10,8,5,3,10,8
07:26:00,8,9,9,11,15,4,7,10,9
07:27:00,12,6,16,7,3,8,3,9,8
07:28:00,21,15,5,11,10,5,0,12,10
07:29:00,9,9,12,10,10,8,3,10,9
07:30:00,6,7,9,7,11,4,2,8,7
07:31:00,5,8,4,8,14,2,2,8,6
07:32:00,6,8,10,8,7,1,0,8,6
07:33:00,13,7,8,12,0,7,4,8,7
07:34:00,10,5,13,6,10,6,3,9,8
07:35:00,6,15,11,10,8,6,3,10,8
07:36:00,9,11,14,6,8,5,4,10,8
07:37:00,12,9,14,10,7,4,7,10,9
07:38:00,8,11,17,9,11,8,2,11,9
07:39:00,7,15,8,7,10,5,5,9,8
07:40:00,9,17,7,20,9,3,7,12,10
07:41:00,4,8,7,4,11,5,3,7,6
07:42:00,10,16,8,7,10,5,4,10,9
07:43:00,7,10,14,12,11,8,3,11,9
07:44:00,9,16,13,14,7,5,3,12,10
07:45:00,8,2,5,15,14,4,6,9,8
07:46:00,7,12,5,15,11,10,2,10,9
07:47:00,12,12,11,8,5,6,3,10,8
07:48:00,10,12,14,14,12,3,5,12,10
07:49:00,11,10,7,11,9,9,4,10,9
07:50:00,11,10,7,10,8,4,8,9,8
07:51:00,10,8,12,10,10,6,5,10,9
07:52:00,11,15,15,7,9,3,2,11,9
07:53:00,10,6,13,4,10,8,8,9,8
07:54:00,11,8,9,17,10,3,4,11,9
07:55:00,9,5,16,16,12,8,2,12,10
07:56:00,11,8,11,8,7,9,3,9,8
07:57:00,9,10,17,16,9,7,3,12,10
07:58:00,15,10,8,7,13,10,1,11,9
07:59:00,13,16,7,13,10,4,2,12,9
08:00:00,2,12,11,14,9,2,5,10,8
08:01:00,11,13,9,8,13,1,3,11,8
08:02:00,7,8,14,5,8,7,2,8,7
08:03:00,17,12,16,8,4,11,6,11,11
08:04:00,11,10,14,4,9,10,3,10,9
08:05:00,9,9,12,13,7,6,5,10,9
08:06:00,8,9,6,8,13,3,5,9,7
08:07:00,8,11,10,10,10,7,9,10,9
08:08:00,10,5,10,9,10,10,2,9,8
08:09:00,9,15,6,7,9,9,0,9,8
08:10:00,9,9,12,9,9,6,4,10,8
08:11:00,8,10,6,14,15,6,8,11,10
08:12:00,9,8,16,11,6,8,5,10,9
08:13:00,12,14,8,9,8,17,4,10,10
08:14:00,12,13,13,14,10,6,0,12,10
08:15:00,14,6,13,8,9,7,4,10,9
08:16:00,6,8,11,10,11,6,6,9,8
08:17:00,10,11,12,9,9,5,5,10,9
08:18:00,10,5,10,13,10,8,6,10,9
08:19:00,12,14,11,6,10,4,6,11,9
08:20:00,7,10,15,12,10,3,3,11,9
08:21:00,8,14,4,8,8,9,5,8,8
08:22:00,8,14,12,10,10,13,6,11,10
08:23:00,10,13,11,14,11,9,3,12,10
08:24:00,9,8,18,12,14,6,5,12,10
08:25:00,11,9,9,8,12,6,4,10,8
08:26:00,11,5,5,6,6,6,6,7,6
08:27:00,20,14,5,18,12,10,7,14,12
08:28:00,5,7,10,12,9,12,5,9,9
08:29:00,10,10,14,11,13,7,3,12,10
08:30:00,16,11,9,8,15,3,9,12,10
08:31:00,14,11,14,6,9,9,9,11,10
08:32:00,4,15,8,5,16,11,5,10,9
08:33:00,5,10,8,7,10,7,7,8,8
08:34:00,10,8,3,13,8,10,8,8,9
08:35:00,11,4,8,15,17,7,2,11,9
08:36:00,12,7,9,8,12,12,8,10,10
08:37:00,13,7,12,19,7,6,9,12,10
08:38:00,5,9,9,15,9,10,6,9,9
08:39:00,10,16,9,8,10,11,6,11,10
08:40:00,13,10,6,16,13,5,4,12,10
08:41:00,9,8,7,7,7,6,6,8,7
08:42:00,10,15,11,11,10,8,5,11,10
08:43:00,8,10,16,9,8,4,15,10,10
08:44:00,14,10,13,18,14,14,2,14,12
08:45:00,9,10,12,9,13,15,4,11,10
08:46:00,17,12,9,12,7,13,4,11,11
08:47:00,9,17,8,10,11,14,10,11,11
08:48:00,8,17,17,10,6,8,3,12,10
08:49:00,13,9,10,13,14,12,3,12,11
08:50:00,9,11,14,9,8,9,6,10,9
08:51:00,9,12,8,10,15,8,3,11,9
08:52:00,10,7,13,13,8,9,4,10,9
08:53:00,11,16,6,11,13,12,6,11,11
08:54:00,17,9,13,8,9,5,8,11,10
08:55:00,7,10,15,11,18,5,11,12,11
08:56:00,11,11,15,10,13,8,8,12,11
08:57:00,11,14,6,12,11,9,3,11,9
08:58:00,12,14,21,10,8,6,7,13,11
08:59:00,26,13,15,10,13,4,9,15,13
09:00:00,10,11,7,11,10,14,11,10,11
09:01:00,14,10,11,14,14,12,4,13,11
09:02:00,8,7,8,11,9,7,15,9,9
09:03:00,9,7,9,22,10,5,2,11,9
09:04:00,13,12,9,19,12,10,7,13,12
09:05:00,13,14,17,11,5,4,8,12,10
09:06:00,10,9,12,13,12,9,8,11,10
09:07:00,9,13,9,11,7,9,2,10,9
09:08:00,8,9,10,9,12,11,6,10,9
09:09:00,5,16,12,8,12,15,5,11,10
09:10:00,11,6,17,20,16,11,4,14,12
09:11:00,9,11,17,9,12,6,6,12,10
09:12:00,20,20,12,16,13,7,4,16,13
09:13:00,10,8,6,7,11,17,6,8,9
09:14:00,8,5,6,16,14,9,7,10,9
09:15:00,15,15,13,13,11,14,8,13,13
09:16:00,14,9,8,11,3,12,8,9,9
09:17:00,7,11,9,12,8,5,5,9,8
09:18:00,13,13,16,12,15,7,6,14,12
09:19:00,12,10,14,18,9,8,7,13,11
09:20:00,14,6,11,11,10,11,3,10,9
09:21:00,14,10,12,10,15,11,12,12,12
09:22:00,6,7,10,7,8,8,7,8,8
09:23:00,15,21,12,7,14,15,2,14,12
09:24:00,12,9,17,12,7,15,6,11,11
09:25:00,13,9,9,9,14,10,17,11,12
09:26:00,6,4,8,7,12,9,6,7,7
09:27:00,9,8,17,6,11,13,10,10,11
09:28:00,12,13,15,11,18,11,6,14,12
09:29:00,7,10,8,23,6,7,6,11,10
09:30:00,11,4,10,14,8,9,5,9,9
09:31:00,8,10,10,6,10,12,10,9,9
09:32:00,8,9,19,11,9,5,8,11,10
09:33:00,5,10,9,12,8,9,14,9,10
09:34:00,19,13,11,13,17,12,13,15,14
09:35:00,5,14,6,8,8,13,11,8,9
09:36:00,10,7,11,6,13,13,4,9,9
09:37:00,12,8,5,15,8,10,13,10,10
09:38:00,13,8,12,11,7,11,11,10,10
09:39:00,7,7,11,10,13,8,7,10,9
09:40:00,10,13,6,9,6,12,14,9,10
09:41:00,3,10,17,16,10,15,7,11,11
09:42:00,12,10,12,9,9,14,8,10,11
09:43:00,10,18,15,12,11,12,9,13,12
09:44:00,16,13,7,14,10,12,7,12,11
09:45:00,13,19,11,9,12,16,5,13,12
09:46:00,8,14,11,7,8,13,7,10,10
09:47:00,5,7,10,8,15,18,9,9,10
09:48:00,12,6,6,14,12,17,15,10,12
09:49:00,9,9,7,11,8,15,13,9,10
09:50:00,12,10,10,12,13,13,5,11,11
09:51:00,9,9,19,15,14,10,12,13,13
09:52:00,8,8,11,15,9,12,13,10,11
09:53:00,9,10,7,14,10,18,18,10,12
09:54:00,12,7,17,16,17,9,8,14,12
09:55:00,10,9,6,12,13,18,11,10,11
09:56:00,15,17,10,6,14,10,12,12,12
09:57:00,15,20,14,14,10,11,18,15,15
09:58:00,16,6,11,4,15,14,8,10,11
09:59:00,10,6,10,17,8,14,8,10,10
10:00:00,9,10,11,12,11,11,11,11,11
10:01:00,6,15,9,13,15,16,7,12,12
10:02:00,10,9,7,13,17,12,18,11,12
10:03:00,15,12,8,9,15,15,10,12,12
10:04:00,12,11,9,14,5,10,7,10,10
10:05:00,4,4,15,8,4,18,6,7,8
10:06:00,9,11,10,8,11,11,15,10,11
10:07:00,8,11,12,9,15,16,10,11,12
10:08:00,11,12,14,18,10,19,7,13,13
10:09:00,9,9,8,19,5,19,11,10,11
10:10:00,14,9,16,19,11,10,8,14,12
10:11:00,7,6,12,8,11,13,12,9,10
10:12:00,11,12,14,7,12,10,10,11,11
10:13:00,8,14,12,11,18,10,13,13,12
10:14:00,13,12,8,11,7,16,7,10,11
10:15:00,19,18,17,15,17,13,11,17,16
10:16:00,5,10,13,10,13,18,11,10,11
10:17:00,10,11,10,15,12,17,19,12,13
10:18:00,12,10,10,14,12,15,15,12,13
10:19:00,8,13,15,6,9,15,12,10,11
10:20:00,5,10,16,16,11,17,7,12,12
10:21:00,17,13,8,22,7,6,7,13,11
10:22:00,4,7,10,12,12,17,9,9,10
10:23:00,13,15,7,18,16,23,16,14,15
10:24:00,14,6,8,10,8,10,10,9,9
10:25:00,14,9,8,16,11,17,10,12,12
10:26:00,9,10,17,8,7,12,12,10,11
10:27:00,16,7,13,7,10,14,5,11,10
10:28:00,10,7,13,8,7,9,12,9,9
10:29:00,11,11,16,11,8,18,15,11,13
10:30:00,14,13,8,9,6,10,8,10,10
10:31:00,5,13,13,16,10,18,9,11,12
10:32:00,15,15,13,11,12,10,12,13,13
10:33:00,11,14,9,11,5,17,12,10,11
10:34:00,13,11,10,10,9,11,15,11,11
10:35:00,7,13,15,19,10,16,12,13,13
10:36:00,13,8,11,19,11,12,8,12,12
10:37:00,13,12,12,13,8,5,10,12,10
10:38:00,18,16,10,11,17,17,13,14,15
10:39:00,8,9,12,8,12,20,14,10,12
10:40:00,10,5,12,7,11,17,12,9,11
10:41:00,15,16,7,11,9,14,13,12,12
10:42:00,11,11,5,12,17,12,10,11,11
10:43:00,9,8,7,10,17,14,11,10,11
10:44:00,10,13,15,12,10,17,6,12,12
10:45:00,11,12,15,13,13,14,7,13,12
10:46:00,9,10,12,8,10,19,12,10,11
10:47:00,6,16,11,12,16,11,22,12,13
10:48:00,5,5,13,9,18,12,11,10,10
10:49:00,12,17,16,6,14,13,13,13,13
10:50:00,12,4,10,11,15,10,11,10,10
10:51:00,15,6,8,13,8,17,11,10,11
10:52:00,4,10,13,10,11,12,9,10,10
10:53:00,12,15,11,9,12,15,12,12,12
10:54:00,12,12,11,11,17,8,11,13,12
10:55:00,11,4,12,9,15,10,16,10,11
10:56:00,10,15,13,7,9,18,14,11,12
10:57:00,12,15,11,11,9,17,9,12,12
10:58:00,10,14,14,8,11,18,16,11,13
10:59:00,6,19,13,12,10,11,6,12,11
11:00:00,8,6,13,11,11,10,10,10,10
11:01:00,12,8,8,18,17,14,12,13,13
11:02:00,6,10,10,10,6,12,5,8,8
11:03:00,9,6,5,11,3,13,9,7,8
11:04:00,20,13,13,9,19,16,13,15,15
11:05:00,9,9,9,10,7,9,15,9,10
11:06:00,13,12,8,7,12,17,9,10,11
11:07:00,9,13,12,8,6,11,16,10,11
11:08:00,9,17,12,11,9,14,9,12,12
11:09:00,13,13,12,12,15,11,12,13,13
11:10:00,11,18,10,17,8,17,8,13,13
11:11:00,14,14,8,13,12,10,6,12,11
11:12:00,14,14,14,8,10,20,5,12,12
11:13:00,9,11,13,15,14,13,12,12,12
11:14:00,8,11,11,11,4,14,12,9,10
11:15:00,13,15,7,15,17,12,9,13,13
11:16:00,13,7,17,16,4,19,14,11,13
11:17:00,16,10,10,16,15,15,15,13,14
11:18:00,14,18,11,11,8,11,14,12,12
11:19:00,11,12,14,8,17,11,19,12,13
11:20:00,15,9,10,12,14,15,8,12,12
11:21:00,4,11,10,13,25,15,5,13,12
11:22:00,14,11,9,8,15,13,14,11,12
11:23:00,13,21,13,17,10,10,8,15,13
11:24:00,12,8,17,12,12,14,13,12,13
11:25:00,10,9,10,8,15,18,9,10,11
11:26:00,8,10,9,11,8,19,10,9,11
11:27:00,11,11,15,16,11,24,12,13,14
11:28:00,10,11,17,10,10,20,12,12,13
11:29:00,8,10,8,12,10,11,18,10,11
11:30:00,16,12,8,13,19,12,18,14,14
11:31:00,7,12,9,3,10,12,14,8,10
11:32:00,8,12,10,10,22,11,13,12,12
11:33:00,9,13,4,18,15,12,12,12,12
11:34:00,10,7,12,9,15,15,13,11,12
11:35:00,11,12,11,10,14,14,10,12,12
11:36:00,11,10,14,9,17,14,20,12,14
11:37:00,9,10,11,8,10,17,12,10,11
11:38:00,11,7,11,12,13,10,14,11,11
11:39:00,11,12,13,11,12,16,12,12,12
11:40:00,8,12,9,14,10,15,10,11,11
11:41:00,7,9,11,8,13,11,11,10,10
11:42:00,17,9,8,9,4,18,15,9,11
11:43:00,9,12,15,8,21,17,12,13,13
11:44:00,8,11,11,15,9,24,10,11,13
11:45:00,11,6,9,14,12,13,12,10,11
11:46:00,16,11,15,11,14,16,16,13,14
11:47:00,11,14,12,18,16,16,12,14,14
11:48:00,22,14,11,9,16,21,9,14,15
11:49:00,10,13,10,11,9,11,22,11,12
11:50:00,5,7,17,6,5,23,9,8,10
11:51:00,14,12,6,10,13,18,15,11,13
11:52:00,9,18,8,10,12,15,23,11,14
11:53:00,13,18,6,11,18,11,13,13,13
11:54:00,8,5,17,17,15,13,10,12,12
11:55:00,10,7,20,21,7,20,16,13,14
11:56:00,11,9,9,12,17,12,14,12,12
11:57:00,12,13,15,13,13,7,10,13,12
11:58:00,15,17,9,14,18,12,14,15,14
11:59:00,12,9,14,12,10,15,16,11,13
12:00:00,13,13,16,15,11,12,13,14,13
12:01:00,4,16,12,5,11,10,10,10,10
12:02:00,13,8,15,14,17,10,19,13,14
12:03:00,8,11,11,18,2,16,7,10,10
12:04:00,10,17,17,13,17,20,12,15,15
12:05:00,12,11,12,12,19,9,20,13,14
12:06:00,21,15,9,14,22,19,16,16,17
12:07:00,10,6,16,14,13,16,11,12,12
12:08:00,13,11,13,12,17,27,15,13,15
12:09:00,14,10,16,13,11,31,14,13,16
12:10:00,9,10,13,12,13,21,12,11,13
12:11:00,14,17,18,11,24,16,18,17,17
12:12:00,8,7,4,7,10,15,7,7,8
12:13:00,12,12,20,6,18,15,12,14,14
12:14:00,11,13,9,11,8,21,8,10,12
12:15:00,10,14,6,15,11,16,15,11,12
12:16:00,10,10,12,6,4,20,13,8,11
12:17:00,20,17,12,13,14,14,19,15,16
12:18:00,17,7,13,15,14,16,9,13,13
12:19:00,11,15,9,7,17,13,12,12,12
12:20:00,9,11,15,12,14,11,10,12,12
12:21:00,10,5,11,14,13,19,14,11,12
12:22:00,16,15,16,7,9,12,13,13,13
12:23:00,9,4,8,11,12,13,10,9,10
12:24:00,11,10,8,8,10,12,13,9,10
12:25:00,9,16,11,8,9,14,17,11,12
12:26:00,11,10,12,10,11,15,19,11,13
12:27:00,11,10,7,12,14,22,16,11,13
12:28:00,8,11,11,11,15,9,16,11,12
12:29:00,21,8,8,8,11,9,8,11,10
12:30:00,15,15,12,9,10,12,15,12,13
12:31:00,13,9,11,10,6,20,10,10,11
12:32:00,7,11,12,14,14,19,9,12,12
12:33:00,10,13,8,9,12,12,16,10,11
12:34:00,14,10,12,10,24,21,15,14,15
12:35:00,4,21,12,12,16,14,15,13,13
12:36:00,14,5,12,13,11,18,16,11,13
12:37:00,17,9,11,15,19,16,13,14,14
12:38:00,11,15,12,16,18,16,10,14,14
12:39:00,8,18,13,1,13,17,15,11,12
12:40:00,10,11,9,1,22,20,16,11,13
12:41:00,7,9,10,11,14,20,12,10,12
12:42:00,12,7,10,20,10,16,19,12,13
12:43:00,9,11,14,26,16,17,15,15,15
12:44:00,8,14,11,12,13,23,13,12,13
12:45:00,12,11,13,11,14,13,11,12,12
12:46:00,13,15,13,7,16,11,12,13,12
12:47:00,10,8,12,16,17,16,13,13,13
12:48:00,7,13,9,9,9,15,14,9,11
12:49:00,9,9,9,10,14,23,14,10,13
12:50:00,12,6,15,11,12,23,11,11,13
12:51:00,6,14,11,6,11,22,6,10,11
12:52:00,5,13,19,15,7,20,17,12,14
12:53:00,14,13,11,7,10,10,9,11,11
12:54:00,11,14,18,18,11,17,10,14,14
12:55:00,12,6,5,12,9,11,19,9,11
12:56:00,14,13,18,10,16,14,15,14,14
12:57:00,7,13,15,13,7,16,8,11,11
12:58:00,11,16,12,10,11,22,12,12,13
12:59:00,10,12,18,14,11,9,8,13,12
13:00:00,13,6,6,12,8,14,9,9,10
13:01:00,15,11,4,12,9,16,13,10,11
13:02:00,13,8,17,11,16,14,13,13,13
13:03:00,13,17,17,16,14,15,9,15,14
13:04:00,6,12,14,8,13,16,8,11,11
13:05:00,21,16,14,7,19,14,14,15,15
13:06:00,12,16,17,12,19,13,11,15,14
13:07:00,9,14,12,17,14,16,11,13,13
13:08:00,26,13,25,7,8,22,15,16,17
13:09:00,11,12,9,12,21,24,14,13,15
13:10:00,5,14,10,15,13,17,13,11,12
13:11:00,10,21,11,13,15,13,13,14,14
13:12:00,9,11,7,14,8,18,18,10,12
13:13:00,12,10,23,11,11,13,11,13,13
13:14:00,8,11,15,18,12,20,14,13,14
13:15:00,9,10,8,12,18,17,11,11,12
13:16:00,14,11,18,17,13,8,9,15,13
13:17:00,9,16,11,8,11,18,15,11,13
13:18:00,9,7,14,15,12,8,18,11,12
13:19:00,7,12,8,8,12,13,9,9,10
13:20:00,16,11,14,12,6,21,13,12,13
13:21:00,14,21,18,17,12,21,10,16,16
13:22:00,12,15,16,18,15,24,19,15,17
13:23:00,12,14,16,12,13,9,13,13,13
13:24:00,15,14,12,10,15,16,8,13,13
13:25:00,13,12,8,13,5,12,16,10,11
13:26:00,11,12,13,12,17,12,14,13,13
13:27:00,14,11,7,10,7,15,8,10,10
13:28:00,11,9,11,12,8,14,5,10,10
13:29:00,16,17,14,12,16,14,14,15,15
13:30:00,15,14,18,10,9,26,15,13,15
13:31:00,10,7,13,8,16,19,12,11,12
13:32:00,18,9,6,12,10,26,13,11,13
13:33:00,12,14,10,12,9,19,12,11,13
13:34:00,18,13,7,9,16,18,12,13,13
13:35:00,6,11,14,10,10,13,17,10,12
13:36:00,8,13,12,16,18,10,12,13,13
13:37:00,13,15,12,11,21,20,12,14,15
13:38:00,11,15,13,6,19,12,10,13,12
13:39:00,14,14,16,5,15,13,10,13,12
13:40:00,17,14,14,7,6,21,12,12,13
13:41:00,14,17,13,15,11,18,12,14,14
13:42:00,18,9,6,8,13,17,12,11,12
13:43:00,12,14,9,9,11,14,9,11,11
13:44:00,12,10,20,10,12,20,5,13,13
13:45:00,8,13,12,9,12,15,18,11,12
13:46:00,12,9,13,15,11,19,16,12,14
13:47:00,15,8,10,8,15,16,6,11,11
13:48:00,14,15,12,13,13,17,8,13,13
13:49:00,15,22,16,13,11,14,7,15,14
13:50:00,11,10,10,10,21,19,19,12,14
13:51:00,11,10,13,12,13,12,12,12,12
13:52:00,19,7,8,11,4,13,13,10,11
13:53:00,5,16,10,12,18,21,7,12,13
13:54:00,7,10,6,14,19,11,8,11,11
13:55:00,16,16,8,11,13,8,13,13,12
13:56:00,6,10,18,16,22,7,18,14,14
13:57:00,12,9,18,10,11,9,15,12,12
13:58:00,9,12,7,12,12,14,15,10,12
13:59:00,15,19,10,11,10,15,17,13,14
14:00:00,11,11,8,4,9,16,13,9,10
14:01:00,10,17,9,15,13,10,18,13,13
14:02:00,11,7,15,12,16,12,10,12,12
14:03:00,14,16,10,6,12,11,15,12,12
14:04:00,7,11,13,5,16,16,26,10,13
14:05:00,12,18,11,14,11,21,19,13,15
14:06:00,18,14,15,8,17,17,15,14,15
14:07:00,12,11,19,18,16,7,10,15,13
14:08:00,17,13,16,6,16,18,15,14,14
14:09:00,12,12,16,15,11,15,10,13,13
14:10:00,10,10,14,12,8,14,12,11,11
14:11:00,9,11,14,11,13,25,10,12,13
14:12:00,8,10,10,10,9,11,13,9,10
14:13:00,24,10,19,12,16,17,18,16,17
14:14:00,12,14,13,12,8,17,11,12,12
14:15:00,16,14,16,14,12,15,15,14,15
14:16:00,10,17,15,7,14,23,16,13,15
14:17:00,8,12,6,10,15,10,8,10,10
14:18:00,24,15,10,12,13,16,15,15,15
14:19:00,14,7,11,15,18,18,15,13,14
14:20:00,13,13,8,10,10,14,24,11,13
14:21:00,13,15,14,10,15,9,15,13,13
14:22:00,11,13,14,8,19,12,16,13,13
14:23:00,9,6,9,12,16,16,12,10,11
14:24:00,17,8,8,7,8,19,9,10,11
14:25:00,18,7,12,6,16,19,13,12,13
14:26:00,10,5,16,16,16,18,13,13,13
14:27:00,7,17,18,8,14,11,10,13,12
14:28:00,11,18,12,12,20,7,13,15,13
14:29:00,9,14,11,9,14,13,11,11,12
14:30:00,7,13,7,4,15,8,10,9,9
14:31:00,16,11,8,7,17,14,11,12,12
14:32:00,5,10,8,14,7,12,5,9,9
14:33:00,13,10,9,12,10,12,7,11,10
14:34:00,13,11,15,8,8,18,13,11,12
14:35:00,11,12,13,10,20,14,14,13,13
14:36:00,12,7,11,7,8,8,14,9,10
14:37:00,12,20,16,8,17,19,24,15,17
14:38:00,11,13,10,19,12,15,11,13,13
14:39:00,11,10,11,18,17,11,10,13,13
14:40:00,10,10,16,12,13,12,9,12,12
14:41:00,16,19,13,14,15,5,18,15,14
14:42:00,9,18,9,11,21,5,12,14,12
14:43:00,12,11,23,8,6,16,5,12,12
14:44:00,19,6,17,12,18,15,10,14,14
14:45:00,11,9,12,10,11,19,3,11,11
14:46:00,14,18,6,14,13,12,10,13,12
14:47:00,10,12,14,15,9,7,12,12,11
14:48:00,9,15,5,8,11,9,6,10,9
14:49:00,13,13,13,12,23,16,10,15,14
14:50:00,13,18,13,11,16,11,6,14,13
14:51:00,12,17,17,12,13,11,6,14,13
14:52:00,13,11,6,22,18,9,7,14,12
14:53:00,10,9,12,14,16,17,8,12,12
14:54:00,18,9,19,17,7,6,13,14,13
14:55:00,15,14,15,10,17,16,20,14,15
14:56:00,12,17,16,16,11,19,8,14,14
14:57:00,11,15,9,9,17,11,10,12,12
14:58:00,8,3,19,13,14,9,8,11,11
14:59:00,9,12,11,13,10,11,16,11,12
15:00:00,8,11,14,9,9,10,11,10,10
15:01:00,7,13,14,11,12,16,18,11,13
15:02:00,9,6,11,19,12,14,9,11,11
15:03:00,11,7,16,14,18,20,8,13,13
15:04:00,13,17,10,14,16,10,14,14,13
15:05:00,12,14,15,13,14,10,7,14,12
15:06:00,7,13,9,7,21,9,17,11,12
15:07:00,18,19,11,11,14,16,11,15,14
15:08:00,9,18,18,15,12,15,10,14,14
15:09:00,12,14,10,9,9,13,12,11,11
15:10:00,14,10,12,12,17,12,7,13,12
15:11:00,15,19,12,11,10,16,14,13,14
15:12:00,7,8,13,9,18,15,12,11,12
15:13:00,9,9,18,10,16,17,19,12,14
15:14:00,11,16,13,5,9,6,16,11,11
15:15:00,10,11,5,10,9,20,9,9,11
15:16:00,15,19,9,5,12,14,11,12,12
15:17:00,7,7,10,9,10,7,16,9,9
15:18:00,9,16,9,15,9,17,13,12,13
15:19:00,13,14,7,4,9,7,8,9,9
15:20:00,5,11,12,6,12,12,9,9,10
15:21:00,19,10,13,14,19,17,8,15,14
15:22:00,9,13,10,21,15,7,7,14,12
15:23:00,16,19,18,10,23,19,9,17,16
15:24:00,17,12,13,17,7,17,9,13,13
15:25:00,16,11,8,18,12,5,14,13,12
15:26:00,16,12,17,16,19,11,10,16,14
15:27:00,12,12,16,17,16,21,10,15,15
15:28:00,12,13,19,13,13,14,14,14,14
15:29:00,10,15,11,11,10,9,9,11,11
15:30:00,10,14,13,17,25,12,6,16,14
15:31:00,13,16,17,16,12,16,14,15,15
15:32:00,17,11,9,14,13,12,10,13,12
15:33:00,14,16,16,17,22,7,6,17,14
15:34:00,15,11,7,16,20,10,10,14,13
15:35:00,16,9,16,14,21,14,8,15,14
15:36:00,14,13,19,10,21,15,12,15,15
15:37:00,19,17,11,6,13,14,13,13,13
15:38:00,10,11,17,15,9,13,14,12,13
15:39:00,12,21,18,8,17,9,6,15,13
15:40:00,14,13,15,18,10,13,9,14,13
15:41:00,10,19,9,18,14,16,21,14,15
15:42:00,12,12,11,18,16,16,8,14,13
15:43:00,8,11,17,15,10,12,6,12,11
15:44:00,11,12,20,17,11,9,10,14,13
15:45:00,9,14,12,7,14,13,10,11,11
15:46:00,12,12,14,7,13,17,3,12,11
15:47:00,14,16,12,15,18,10,16,15,14
15:48:00,9,11,12,11,15,17,13,12,13
15:49:00,14,12,20,15,17,15,10,16,15
15:50:00,9,19,10,13,16,10,16,13,13
15:51:00,18,13,13,9,10,9,12,13,12
15:52:00,13,5,12,14,6,12,10,10,10
15:53:00,16,14,15,10,14,21,11,14,14
15:54:00,11,6,14,11,12,18,13,11,12
15:55:00,15,16,14,19,14,9,14,16,14
15:56:00,13,7,16,13,10,15,15,12,13
15:57:00,9,14,15,20,18,12,10,15,14
15:58:00,13,10,10,15,8,11,15,11,12
15:59:00,12,15,12,9,13,8,15,12,12
16:00:00,8,9,16,18,21,11,4,14,12
16:01:00,21,8,6,13,20,15,9,14,13
16:02:00,11,12,9,19,20,14,10,14,14
16:03:00,14,15,17,12,13,6,8,14,12
16:04:00,19,15,16,8,6,14,14,13,13
16:05:00,12,21,11,14,14,12,12,14,14
16:06:00,14,20,17,9,18,11,9,16,14
16:07:00,21,8,14,21,10,10,14,15,14
16:08:00,24,12,19,9,13,7,10,15,13
16:09:00,13,17,15,16,14,9,12,15,14
16:10:00,14,15,13,8,21,9,19,14,14
16:11:00,11,16,13,13,19,11,6,14,13
16:12:00,12,17,8,14,19,12,12,14,13
16:13:00,16,7,14,6,18,9,19,12,13
16:14:00,12,9,16,12,14,17,13,13,13
16:15:00,16,19,9,13,14,9,6,14,12
16:16:00,18,8,17,10,8,8,6,12,11
16:17:00,7,25,16,15,19,10,15,16,15
16:18:00,17,9,13,21,17,16,8,15,14
16:19:00,10,10,17,13,8,10,13,12,12
16:20:00,15,17,21,14,13,12,6,16,14
16:21:00,11,11,13,6,12,12,7,11,10
16:22:00,15,15,20,14,12,13,4,15,13
16:23:00,18,18,18,14,13,8,18,16,15
16:24:00,14,11,12,13,17,15,11,13,13
16:25:00,20,10,15,10,12,13,7,13,12
16:26:00,15,14,15,8,19,10,9,14,13
16:27:00,14,14,20,4,12,13,15,13,13
16:28:00,13,17,12,11,16,11,6,14,12
16:29:00,13,16,21,25,20,11,15,19,17
16:30:00,17,17,17,14,15,14,9,16,15
16:31:00,7,14,16,11,14,4,7,12,10
16:32:00,19,11,12,17,14,13,10,15,14
16:33:00,10,11,15,13,13,15,15,12,13
16:34:00,22,16,11,13,15,8,5,15,13
16:35:00,16,13,13,16,16,16,11,15,14
16:36:00,14,17,12,12,20,9,17,15,14
16:37:00,18,18,11,11,16,14,9,15,14
16:38:00,11,14,10,20,17,8,16,14,14
16:39:00,15,8,16,13,17,6,8,14,12
16:40:00,13,17,16,19,18,12,4,17,14
16:41:00,19,12,10,12,9,11,11,12,12
16:42:00,16,21,11,13,16,8,13,15,14
16:43:00,17,8,16,19,17,12,13,15,15
16:44:00,12,17,15,22,15,7,11,16,14
16:45:00,13,14,10,12,13,17,11,12,13
16:46:00,11,16,10,10,14,5,11,12,11
16:47:00,15,11,20,13,14,15,12,15,14
16:48:00,11,8,12,12,12,5,9,11,10
16:49:00,9,16,14,20,17,15,14,15,15
16:50:00,14,15,16,15,6,8,5,13,11
16:51:00,17,8,13,8,20,20,6,13,13
16:52:00,12,12,14,9,16,9,6,13,11
16:53:00,18,13,18,13,23,10,10,17,15
16:54:00,13,9,8,11,18,10,11,12,11
16:55:00,14,19,15,14,14,9,7,15,13
16:56:00,11,18,11,10,9,12,6,12,11
16:57:00,10,10,12,22,15,7,12,14,13
16:58:00,18,14,14,11,14,14,11,14,14
16:59:00,18,11,22,11,16,16,3,16,14
17:00:00,9,14,14,16,13,16,9,13,13
17:01:00,10,12,12,11,12,13,9,11,11
17:02:00,16,11,18,5,6,11,12,11,11
17:03:00,9,21,14,24,15,6,11,17,14
17:04:00,11,12,18,14,11,11,9,13,12
17:05:00,20,13,14,25,15,14,6,17,15
17:06:00,9,12,16,14,16,10,12,13,13
17:07:00,13,21,11,14,9,17,8,14,13
17:08:00,12,15,15,16,18,17,2,15,14
17:09:00,15,10,22,10,15,13,16,14,14
17:10:00,11,14,19,19,17,9,13,16,15
17:11:00,13,15,16,17,19,17,7,16,15
17:12:00,20,13,16,12,9,10,9,14,13
17:13:00,8,14,18,17,13,20,8,14,14
17:14:00,11,19,17,11,17,11,12,15,14
17:15:00,15,19,8,13,17,9,11,14,13
17:16:00,12,17,14,8,12,16,12,13,13
17:17:00,5,14,14,11,9,13,9,11,11
17:18:00,12,15,14,6,16,19,12,13,13
17:19:00,12,20,8,14,9,12,10,13,12
17:20:00,17,22,12,16,16,21,4,17,15
17:21:00,20,13,21,15,19,18,9,18,16
17:22:00,12,19,10,18,8,9,6,13,12
17:23:00,12,11,18,14,16,9,8,14,13
17:24:00,8,11,9,13,12,16,9,11,11
17:25:00,13,9,12,7,14,8,5,11,10
17:26:00,11,13,11,15,18,14,12,14,13
17:27:00,11,18,11,11,12,14,4,13,12
17:28:00,11,14,19,20,15,9,5,16,13
17:29:00,6,13,12,11,18,9,13,12,12
17:30:00,14,10,19,16,13,14,5,14,13
17:31:00,16,13,16,18,16,7,13,16,14
17:32:00,17,15,13,16,12,9,8,15,13
17:33:00,22,17,8,11,17,8,13,15,14
17:34:00,11,10,13,20,17,20,7,14,14
17:35:00,13,15,18,13,15,19,12,15,15
17:36:00,13,18,10,11,17,13,4,14,12
17:37:00,8,15,17,18,12,9,7,14,12
17:38:00,18,13,24,7,13,7,5,15,12
17:39:00,10,16,11,15,13,9,11,13,12
17:40:00,15,17,19,8,18,13,15,15,15
17:41:00,18,12,15,18,15,17,8,16,15
17:42:00,14,9,21,12,11,18,8,13,13
17:43:00,17,16,17,12,11,11,10,15,13
17:44:00,14,7,15,11,21,15,7,14,13
17:45:00,14,16,14,11,19,16,10,15,14
17:46:00,12,14,14,15,14,17,13,14,14
17:47:00,15,20,21,17,13,13,7,17,15
17:48:00,18,13,12,5,14,6,9,12,11
17:49:00,13,16,11,18,12,8,10,14,13
17:50:00,17,18,20,13,15,13,6,17,15
17:51:00,12,13,9,16,13,12,12,13,12
17:52:00,14,14,15,15,8,16,7,13,13
17:53:00,7,11,15,17,16,7,5,13,11
17:54:00,10,17,16,17,10,8,14,14,13
17:55:00,9,10,12,13,7,12,11,10,11
17:56:00,13,12,19,13,20,17,10,15,15
17:57:00,14,16,19,15,20,11,14,17,16
17:58:00,11,16,12,8,11,14,11,12,12
17:59:00,13,10,13,14,14,8,6,13,11
18:00:00,11,14,12,6,9,12,15,10,11
18:01:00,7,10,12,15,13,18,9,11,12
18:02:00,14,15,9,18,10,7,11,13,12
18:03:00,9,16,12,14,11,16,11,12,13
18:04:00,23,15,20,10,15,8,11,17,15
18:05:00,15,13,14,12,20,15,4,15,13
18:06:00,11,6,16,13,14,12,12,12,12
18:07:00,11,10,10,12,15,6,10,12,11
18:08:00,7,20,7,17,9,10,11,12,12
18:09:00,14,14,13,18,16,8,10,15,13
18:10:00,12,15,13,16,14,5,8,14,12
18:11:00,19,17,6,15,13,12,12,14,13
18:12:00,19,19,18,11,19,15,7,17,15
18:13:00,11,10,16,19,19,11,14,15,14
18:14:00,12,5,21,13,14,12,10,13,12
18:15:00,11,10,18,12,20,10,4,14,12
18:16:00,8,16,17,26,12,10,7,16,14
18:17:00,18,13,12,19,15,15,13,15,15
18:18:00,12,13,22,15,14,10,10,15,14
18:19:00,14,9,12,10,25,11,6,14,12
18:20:00,15,9,10,10,19,6,18,13,12
18:21:00,18,8,15,9,16,7,6,13,11
18:22:00,10,11,8,18,11,15,5,12,11
18:23:00,10,10,19,15,13,11,10,13,13
18:24:00,22,6,15,16,15,12,4,15,13
18:25:00,12,17,19,15,6,15,10,14,13
18:26:00,11,8,9,13,12,9,15,11,11
18:27:00,9,11,18,15,19,9,11,14,13
18:28:00,8,11,14,10,17,9,7,12,11
18:29:00,10,9,11,14,14,12,9,12,11
18:30:00,12,12,10,13,9,9,5,11,10
18:31:00,6,7,14,9,12,16,15,10,11
18:32:00,12,14,18,8,11,7,5,13,11
18:33:00,13,3,17,14,12,10,13,12,12
18:34:00,20,10,11,9,10,8,3,12,10
18:35:00,8,6,12,16,13,6,3,11,9
18:36:00,7,7,11,11,15,8,8,10,10
18:37:00,16,14,17,11,15,10,13,15,14
18:38:00,6,10,12,16,8,9,12,10,10
18:39:00,11,8,13,11,15,9,9,12,11
18:40:00,6,7,13,11,9,11,5,9,9
18:41:00,12,17,3,13,11,10,7,11,10
18:42:00,12,8,9,7,7,16,8,9,10
18:43:00,14,11,14,12,13,14,3,13,12
18:44:00,12,11,16,15,14,7,7,14,12
18:45:00,4,14,13,13,12,7,9,11,10
18:46:00,11,8,15,5,14,6,8,11,10
18:47:00,9,11,16,14,10,8,4,12,10
18:48:00,8,12,19,6,12,7,10,11,11
18:49:00,13,7,16,16,8,11,13,12,12
18:50:00,14,8,8,11,10,7,12,10,10
18:51:00,13,7,9,18,15,11,10,12,12
18:52:00,10,11,20,11,18,6,7,14,12
18:53:00,11,15,7,6,5,10,7,9,9
18:54:00,10,9,16,11,9,10,12,11,11
18:55:00,9,13,22,12,8,8,9,13,12
18:56:00,12,11,14,11,9,8,11,11,11
18:57:00,13,13,14,13,10,9,6,13,11
18:58:00,17,10,10,11,16,9,9,13,12
18:59:00,10,14,13,8,18,6,10,13,11
19:00:00,8,9,13,13,9,5,7,10,9
19:01:00,8,12,11,13,18,7,8,12,11
19:02:00,15,9,7,11,13,8,11,11,11
19:03:00,11,14,14,10,15,15,10,13,13
19:04:00,7,12,13,16,12,18,9,12,12
19:05:00,8,14,12,11,8,12,4,11,10
19:06:00,11,8,12,15,15,6,8,12,11
19:07:00,11,10,19,16,15,8,15,14,13
19:08:00,14,11,8,10,13,10,11,11,11
19:09:00,11,13,17,6,14,5,4,12,10
19:10:00,9,7,20,14,12,9,10,12,12
19:11:00,9,11,15,14,13,12,7,12,12
19:12:00,10,11,10,10,9,13,11,10,11
19:13:00,20,10,19,13,9,15,17,14,15
19:14:00,13,16,14,17,15,10,6,15,13
19:15:00,12,6,15,14,7,13,7,11,11
19:16:00,10,11,11,10,16,6,7,12,10
19:17:00,7,14,15,15,16,8,6,13,12
19:18:00,13,11,20,8,10,8,13,12,12
19:19:00,11,10,20,10,16,7,7,13,12
19:20:00,7,6,5,6,12,9,10,7,8
19:21:00,12,13,15,11,9,12,7,12,11
19:22:00,9,18,12,12,9,8,8,12,11
19:23:00,9,12,6,8,15,8,8,10,9
19:24:00,9,7,17,9,14,6,8,11,10
19:25:00,12,4,16,3,8,6,10,9,8
19:26:00,9,12,6,10,9,8,5,9,8
19:27:00,9,11,7,5,6,13,6,8,8
19:28:00,13,7,6,10,7,4,13,9,9
19:29:00,8,11,14,7,11,7,4,10,9
19:30:00,9,10,14,7,19,6,5,12,10
19:31:00,10,14,7,11,12,14,7,11,11
19:32:00,10,6,16,6,11,11,8,10,10
19:33:00,6,14,10,6,10,5,6,9,8
19:34:00,11,8,10,10,12,7,12,10,10
19:35:00,8,13,9,16,13,8,12,12,11
19:36:00,10,9,14,6,16,6,6,11,10
19:37:00,16,12,20,7,5,10,8,12,11
19:38:00,8,7,14,7,8,14,5,9,9
19:39:00,8,6,14,12,11,5,2,10,8
19:40:00,11,6,17,10,11,5,12,11,10
19:41:00,4,11,10,9,13,6,3,9,8
19:42:00,7,9,3,8,11,10,3,8,7
19:43:00,6,4,11,7,11,9,13,8,9
19:44:00,8,5,10,4,7,12,11,7,8
19:45:00,2,6,9,1,12,8,15,6,8
19:46:00,8,4,10,8,7,11,6,7,8
19:47:00,6,6,9,16,10,8,6,9,9
19:48:00,11,12,4,12,9,8,6,10,9
19:49:00,9,6,9,11,6,7,7,8,8
19:50:00,11,8,10,8,9,14,12,9,10
19:51:00,4,4,10,7,9,6,9,7,7
19:52:00,7,12,6,7,6,10,8,8,8
19:53:00,9,13,9,9,5,8,4,9,8
19:54:00,6,8,15,9,9,5,2,9,8
19:55:00,8,10,13,9,7,8,7,9,9
19:56:00,10,8,8,11,7,6,6,9,8
19:57:00,2,8,8,7,10,8,4,7,7
19:58:00,5,7,14,9,5,9,9,8,8
19:59:00,14,6,8,11,5,7,7,9,8
20:00:00,5,7,13,6,9,4,2,8,7
20:01:00,6,7,8,12,8,7,8,8,8
20:02:00,12,10,12,5,10,11,9,10,10
20:03:00,5,8,10,6,17,9,6,9,9
20:04:00,9,10,13,8,8,7,8,10,9
20:05:00,10,7,8,13,7,8,5,9,8
20:06:00,7,15,13,7,10,3,10,10,9
20:07:00,8,5,10,18,15,6,12,11,11
20:08:00,7,9,8,9,8,14,7,8,9
20:09:00,11,7,6,5,9,8,9,8,8
20:10:00,6,5,12,11,8,10,7,8,8
20:11:00,7,9,10,5,10,7,10,8,8
20:12:00,10,5,15,4,4,5,4,8,7
20:13:00,9,5,10,10,6,3,8,8,7
20:14:00,9,7,6,6,12,13,5,8,8
20:15:00,10,7,4,14,8,6,6,9,8
20:16:00,5,9,6,7,5,16,7,6,8
20:17:00,9,7,6,5,10,9,5,7,7
20:18:00,2,6,5,9,10,13,8,6,8
20:19:00,13,5,11,7,6,8,7,8,8
20:20:00,7,9,9,3,7,6,7,7,7
20:21:00,7,5,5,8,7,6,2,6,6
20:22:00,4,4,3,10,9,6,6,6,6
20:23:00,7,12,16,3,9,6,4,9,8
20:24:00,4,9,12,12,7,10,6,9,9
20:25:00,8,6,5,2,8,8,3,6,6
20:26:00,3,5,5,7,4,7,4,5,5
20:27:00,4,9,7,6,6,9,7,6,7
20:28:00,9,4,2,5,7,5,7,5,6
20:29:00,8,6,10,10,7,7,5,8,8
20:30:00,5,10,6,4,9,9,7,7,7
20:31:00,3,4,9,2,10,8,8,6,6
20:32:00,6,5,5,7,2,3,7,5,5
20:33:00,1,4,7,9,11,5,2,6,6
20:34:00,9,5,6,9,17,11,6,9,9
20:35:00,7,6,7,4,8,3,7,6,6
20:36:00,10,11,11,6,8,4,6,9,8
20:37:00,6,4,5,4,12,4,7,6,6
20:38:00,5,11,6,5,9,5,3,7,6
20:39:00,4,12,6,4,8,9,3,7,7
20:40:00,5,7,5,7,10,8,9,7,7
20:41:00,5,6,8,7,7,4,7,7,6
20:42:00,8,4,5,5,11,6,9,7,7
20:43:00,3,2,4,6,11,3,4,5,5
20:44:00,6,8,11,4,4,6,5,7,6
20:45:00,5,4,10,4,8,6,3,6,6
20:46:00,5,5,11,8,9,5,7,8,7
20:47:00,1,6,4,6,5,11,1,4,5
20:48:00,3,4,5,6,3,6,1,4,4
20:49:00,7,5,9,13,8,6,5,8,8
20:50:00,11,4,0,4,7,3,2,5,4
20:51:00,6,8,7,8,9,5,3,8,7
20:52:00,2,5,8,11,7,7,7,7,7
20:53:00,7,2,5,3,8,3,2,5,4
20:54:00,8,4,9,6,3,1,8,6,6
20:55:00,2,8,5,8,7,7,2,6,6
20:56:00,6,5,3,7,6,9,7,5,6
20:57:00,11,9,6,5,2,6,7,7,7
20:58:00,4,4,7,4,8,3,6,5,5
20:59:00,6,4,6,3,5,7,3,5,5
21:00:00,2,5,7,8,2,3,3,5,4
21:01:00,1,6,6,8,2,3,6,5,5
21:02:00,5,5,6,1,8,4,6,5,5
21:03:00,7,2,9,4,9,8,8,6,7
21:04:00,9,7,9,5,4,5,4,7,6
21:05:00,4,4,4,5,7,5,3,5,5
21:06:00,4,6,6,4,8,4,5,6,5
21:07:00,4,3,7,4,7,5,5,5,5
21:08:00,3,7,2,9,3,8,4,5,5
21:09:00,6,7,10,9,8,2,6,8,7
21:10:00,6,5,10,5,2,5,4,6,5
21:11:00,4,2,7,10,7,11,4,6,6
21:12:00,4,4,5,4,7,5,5,5,5
21:13:00,12,5,9,7,7,3,5,8,7
21:14:00,6,6,4,3,8,8,1,5,5
21:15:00,3,5,6,4,8,7,6,5,6
21:16:00,4,4,8,5,7,8,8,6,6
21:17:00,2,5,2,8,3,3,8,4,4
21:18:00,7,7,3,6,4,5,6,5,5
21:19:00,7,4,7,0,7,2,6,5,5
21:20:00,6,6,5,6,10,3,8,7,6
21:21:00,5,6,5,5,5,6,7,5,6
21:22:00,4,5,7,8,7,5,2,6,5
21:23:00,1,7,1,4,4,9,3,3,4
21:24:00,4,5,3,9,5,1,3,5,4
21:25:00,2,3,7,1,3,6,6,3,4
21:26:00,2,1,4,5,2,5,2,3,3
21:27:00,3,3,8,3,2,5,6,4,4
21:28:00,8,4,6,1,11,4,4,6,5
21:29:00,5,8,7,3,2,4,7,5,5
21:30:00,1,4,5,6,11,7,8,5,6
21:31:00,4,5,3,2,3,5,9,3,4
21:32:00,7,7,4,7,4,2,7,6,5
21:33:00,3,5,9,7,5,3,4,6,5
21:34:00,3,6,4,5,7,4,1,5,4
21:35:00,3,5,6,6,5,2,5,5,5
21:36:00,4,5,10,6,4,7,1,6,5
21:37:00,0,10,6,3,6,4,5,5,5
21:38:00,4,5,4,5,9,3,8,5,5
21:39:00,5,2,9,9,8,4,8,7,6
21:40:00,10,4,4,5,5,2,5,6,5
21:41:00,4,4,4,7,8,3,1,5,4
21:42:00,3,7,1,5,5,9,3,4,5
21:43:00,9,6,2,8,2,6,4,5,5
21:44:00,4,6,9,8,4,5,5,6,6
21:45:00,5,3,8,6,3,4,5,5,5
21:46:00,1,6,3,5,5,7,4,4,4
21:47:00,4,5,3,1,2,3,6,3,3
21:48:00,2,1,3,2,7,3,3,3,3
21:49:00,2,2,4,6,9,10,8,5,6
21:50:00,3,5,2,2,4,7,2,3,4
21:51:00,5,8,5,5,4,1,5,5,5
21:52:00,3,2,5,7,4,5,3,4,4
21:53:00,6,2,5,3,5,12,6,4,6
21:54:00,3,2,6,4,6,8,5,4,5
21:55:00,5,5,4,2,3,7,3,4,4
21:56:00,4,5,4,7,4,5,4,5,5
21:57:00,4,1,4,4,2,7,1,3,3
21:58:00,3,1,3,7,4,5,2,4,4
21:59:00,5,9,3,8,5,4,5,6,6
22:00:00,3,6,4,3,2,4,3,4,4
22:01:00,4,1,5,3,12,3,4,5,5
22:02:00,7,5,4,4,4,3,5,5,5
22:03:00,3,1,5,2,5,5,0,3,3
22:04:00,5,3,4,2,7,4,2,4,4
22:05:00,7,7,3,7,1,4,2,5,4
22:06:00,3,7,4,7,10,3,6,6,6
22:07:00,6,1,11,11,5,6,3,7,6
22:08:00,5,2,8,3,6,3,8,5,5
22:09:00,5,7,5,6,12,4,4,7,6
22:10:00,1,3,1,9,5,7,7,4,5
22:11:00,7,8,8,4,4,11,7,6,7
22:12:00,12,6,4,7,5,5,1,7,6
22:13:00,5,5,6,4,8,3,4,6,5
22:14:00,4,6,9,6,6,3,1,6,5
22:15:00,2,5,7,3,11,6,4,6,5
22:16:00,4,4,4,3,5,1,6,4,4
22:17:00,6,3,3,3,6,6,4,4,4
22:18:00,7,3,2,5,2,1,7,4,4
22:19:00,4,1,10,4,3,2,1,4,4
22:20:00,2,13,4,7,6,7,2,6,6
22:21:00,2,2,6,4,7,3,6,4,4
22:22:00,5,6,0,5,5,2,3,4,4
22:23:00,1,3,7,1,3,5,2,3,3
22:24:00,2,4,5,6,4,6,2,4,4
22:25:00,3,2,8,2,3,3,2,4,3
22:26:00,1,8,4,5,7,1,5,5,4
22:27:00,3,3,2,5,1,4,4,3,3
22:28:00,0,3,4,5,3,2,3,3,3
22:29:00,1,6,2,4,6,5,3,4,4
22:30:00,2,5,6,2,3,2,2,4,3
22:31:00,1,3,2,4,7,6,0,3,3
22:32:00,5,3,2,2,5,4,3,3,3
22:33:00,3,6,5,3,3,4,3,4,4
22:34:00,4,4,1,2,3,2,2,3,3
22:35:00,6,1,1,2,2,5,8,2,4
22:36:00,5,2,4,8,7,7,5,5,5
22:37:00,0,1,5,1,3,6,2,2,3
22:38:00,1,3,4,4,4,3,0,3,3
22:39:00,1,1,4,4,4,11,3,3,4
22:40:00,3,1,4,4,1,2,1,3,2
22:41:00,1,5,5,1,8,4,0,4,3
22:42:00,1,4,4,4,3,5,2,3,3
22:43:00,5,1,2,2,2,2,6,2,3
22:44:00,3,4,5,1,2,3,7,3,4
22:45:00,6,2,4,3,5,7,0,4,4
22:46:00,4,2,1,2,5,1,2,3,2
22:47:00,3,4,3,3,3,7,2,3,4
22:48:00,3,3,4,0,4,6,0,3,3
22:49:00,2,0,1,2,6,7,1,2,3
22:50:00,2,5,5,3,5,4,2,4,4
22:51:00,2,1,3,1,2,6,1,2,2
22:52:00,2,3,0,3,2,3,5,2,3
22:53:00,2,5,4,2,1,2,2,3,3
22:54:00,1,3,2,3,6,3,3,3,3
22:55:00,4,2,3,1,3,6,2,3,3
22:56:00,1,0,7,3,7,3,3,4,3
22:57:00,8,4,9,5,1,3,1,5,4
22:58:00,0,2,1,2,5,2,2,2,2
22:59:00,2,4,2,3,4,0,1,3,2
23:00:00,1,4,4,2,3,4,1,3,3
23:01:00,3,1,3,4,3,3,2,3,3
23:02:00,3,2,5,6,5,7,5,4,5
23:03:00,2,4,4,4,1,0,0,3,2
23:04:00,7,5,5,3,4,3,0,5,4
23:05:00,2,1,0,3,0,2,3,1,2
23:06:00,4,4,4,5,1,3,2,4,3
23:07:00,1,6,0,1,4,2,3,2,2
23:08:00,4,3,2,2,6,3,1,3,3
23:09:00,1,4,3,1,3,4,3,2,3
23:10:00,3,0,3,5,4,1,0,3,2
23:11:00,2,0,1,0,0,6,4,1,2
23:12:00,3,1,3,4,4,1,2,3,3
23:13:00,0,3,1,1,5,5,1,2,2
23:14:00,0,5,1,4,5,2,0,3,2
23:15:00,2,0,1,3,3,6,2,2,2
23:16:00,2,1,1,2,3,3,2,2,2
23:17:00,4,0,2,2,2,1,2,2,2
23:18:00,2,0,2,1,2,3,1,1,2
23:19:00,2,4,1,2,3,1,3,2,2
23:20:00,1,1,2,1,6,0,2,2,2
23:21:00,1,1,2,2,3,2,1,2,2
23:22:00,2,2,2,1,3,3,1,2,2
23:23:00,3,2,5,3,3,2,1,3,3
23:24:00,1,3,1,2,1,3,2,2,2
23:25:00,2,3,2,2,2,4,0,2,2
23:26:00,1,4,0,0,3,3,0,2,2
23:27:00,0,0,0,1,1,1,1,0,1
23:28:00,0,1,1,2,5,6,2,2,2
23:29:00,5,1,1,2,3,4,2,2,3
23:30:00,2,0,1,3,2,3,4,2,2
23:31:00,0,3,2,1,2,1,2,2,2
23:32:00,0,3,0,1,2,0,1,1,1
23:33:00,4,1,0,3,3,3,0,2,2
23:34:00,2,0,2,0,5,0,2,2,2
23:35:00,3,1,2,1,4,1,3,2,2
23:36:00,3,0,0,2,2,4,1,1,2
23:37:00,1,2,0,1,2,2,2,1,1
23:38:00,1,2,3,1,4,4,1,2,2
23:39:00,2,0,1,1,0,5,4,1,2
23:40:00,4,0,1,1,2,2,1,2,2
23:41:00,0,1,1,0,4,5,0,1,2
23:42:00,0,2,0,4,3,2,1,2,2
23:43:00,0,3,2,2,6,5,1,3,3
23:44:00,1,0,0,6,1,2,0,2,1
23:45:00,3,0,1,2,1,4,1,1,2
23:46:00,2,2,1,5,3,2,1,3,2
23:47:00,0,0,2,0,1,3,0,1,1
23:48:00,1,1,0,4,1,4,1,1,2
23:49:00,1,2,0,2,3,2,1,2,2
23:50:00,2,0,2,5,1,4,4,2,3
23:51:00,2,1,0,1,2,4,0,1,1
23:52:00,1,0,1,2,2,1,1,1,1
23:53:00,1,1,0,1,4,5,2,1,2
23:54:00,0,0,0,1,4,2,0,1,1
23:55:00,0,2,0,0,1,0,3,1,1
23:56:00,3,1,2,1,2,2,2,2,2
23:57:00,1,0,1,4,2,3,1,2,2
23:58:00,0,1,0,4,1,5,1,1,2
23:59:00,0,1,2,2,3,3,0,2,2
,,,,,,,,,
Totals,,,,,,,,,
12H(7-19),8315,8493,8798,8498,8981,8689,7074,8617,8407
16H(6-22),9837,10059,10582,10101,10721,10092,8348,10260,9963
18H(6-24),10144,10373,10923,10453,11165,10511,8620,10612,10313
24H(0-24),10482,10686,11225,10778,11523,10846,9113,10939,10665
,,,,,,,,,
AM Peak,10:21:00,10:54:00,10:05:00,09:37:00,10:38:00,10:56:00,11:00:00,09:50:00,09:50:00
,673,700,693,732,747,887,740,678,698
,,,,,,,,,
PM Peak,16:01:00,16:55:00,16:58:00,16:38:00,16:00:00,12:34:00,13:29:00,16:17:00,16:22:00
,869,871,902,849,905,997,790,853,797
,,,,,,,,,
,,,,,,,,,
CA Traffic,,,,,,,,,VDA-net R2 22/05/2020
