Site Number,00008021,Unnamed: 2,Site Reference,00008021.1,Unnamed: 5,Unnamed: 6,Lat/Lng.,"52.05925,1.20006",Unnamed: 9
Radar 8021 Heath Road Ipswich,,,,,,,,,
Vehicle Count Report,,,,Week Begin: 03 February 2020,,,Channel:,Total Flow,
,,,,,,,,,
,,,,,,,,,
,2020-02-03 00:00:00,2020-02-04 00:00:00,2020-02-05 00:00:00,2020-02-06 00:00:00,2020-02-07 00:00:00,2020-02-08 00:00:00,2020-02-09 00:00:00,"5-Day
Ave.","7-Day
Ave."
00:00:00,1,0,0,3,3,6,3,1,2
00:01:00,1,1,1,3,1,4,2,1,2
00:02:00,1,2,1,0,0,2,1,1,1
00:03:00,1,4,1,4,3,3,2,3,3
00:04:00,0,2,1,2,4,2,2,2,2
00:05:00,2,1,0,1,2,0,6,1,2
00:06:00,1,1,7,3,2,3,6,3,3
00:07:00,2,2,4,1,0,4,3,2,2
00:08:00,3,1,1,1,3,2,4,2,2
00:09:00,1,4,2,0,2,2,7,2,3
00:10:00,0,0,2,1,0,1,5,1,1
00:11:00,0,1,0,2,0,3,3,1,1
00:12:00,1,1,1,1,1,3,4,1,2
00:13:00,1,1,0,3,1,2,4,1,2
00:14:00,0,4,1,2,1,2,5,2,2
00:15:00,1,2,1,2,2,1,2,2,2
00:16:00,3,0,0,3,1,2,5,1,2
00:17:00,2,2,2,0,1,2,6,1,2
00:18:00,0,1,0,0,1,2,8,0,2
00:19:00,1,2,4,0,0,3,3,1,2
00:20:00,1,0,1,1,2,4,2,1,2
00:21:00,0,0,0,1,2,4,4,1,2
00:22:00,1,2,3,0,0,4,6,1,2
00:23:00,1,2,1,1,2,0,3,1,1
00:24:00,0,2,1,1,0,3,3,1,1
00:25:00,1,0,1,0,1,5,1,1,1
00:26:00,0,2,1,1,1,3,0,1,1
00:27:00,1,1,3,3,2,2,4,2,2
00:28:00,1,2,0,1,0,3,2,1,1
00:29:00,0,0,0,0,2,2,4,0,1
00:30:00,1,1,0,1,1,4,3,1,2
00:31:00,1,0,1,0,2,0,0,1,1
00:32:00,0,4,2,1,2,4,5,2,3
00:33:00,1,0,3,1,1,1,3,1,1
00:34:00,1,3,1,3,1,2,0,2,2
00:35:00,1,0,1,0,2,2,1,1,1
00:36:00,2,0,1,2,2,2,4,1,2
00:37:00,1,0,0,1,0,5,3,0,1
00:38:00,0,0,2,1,0,3,2,1,1
00:39:00,0,1,0,1,0,5,2,0,1
00:40:00,0,2,0,1,3,3,1,1,1
00:41:00,1,1,0,2,3,0,6,1,2
00:42:00,1,1,2,2,1,0,1,1,1
00:43:00,1,2,3,0,1,2,4,1,2
00:44:00,0,0,0,2,2,2,3,1,1
00:45:00,2,2,2,2,1,2,1,2,2
00:46:00,0,0,2,2,4,3,1,2,2
00:47:00,0,1,1,0,2,5,1,1,1
00:48:00,1,1,1,1,0,0,5,1,1
00:49:00,0,1,0,0,2,1,0,1,1
00:50:00,0,1,2,2,1,3,2,1,2
00:51:00,0,0,1,2,1,2,2,1,1
00:52:00,1,1,1,1,0,3,2,1,1
00:53:00,1,0,0,0,0,3,0,0,1
00:54:00,1,1,0,1,0,2,3,1,1
00:55:00,1,2,2,1,0,2,1,1,1
00:56:00,1,0,1,2,0,2,1,1,1
00:57:00,1,1,0,1,0,1,3,1,1
00:58:00,1,0,0,1,0,2,3,0,1
00:59:00,1,2,3,0,0,1,5,1,2
01:00:00,0,1,0,0,0,2,1,0,1
01:01:00,4,0,1,2,1,2,1,2,2
01:02:00,1,0,1,0,1,1,1,1,1
01:03:00,0,1,0,1,0,0,6,0,1
01:04:00,1,2,3,0,2,1,0,2,1
01:05:00,0,3,0,1,0,2,1,1,1
01:06:00,2,0,1,0,2,0,0,1,1
01:07:00,1,1,2,0,2,1,2,1,1
01:08:00,0,0,1,3,0,2,2,1,1
01:09:00,1,2,0,2,1,1,3,1,1
01:10:00,1,0,2,2,0,1,6,1,2
01:11:00,0,0,1,2,1,2,2,1,1
01:12:00,2,1,1,0,1,2,0,1,1
01:13:00,0,0,0,0,1,1,1,0,0
01:14:00,1,0,0,3,1,1,0,1,1
01:15:00,1,1,0,2,1,0,2,1,1
01:16:00,0,0,0,2,0,1,2,0,1
01:17:00,1,0,1,0,0,1,2,0,1
01:18:00,1,0,1,0,0,1,3,0,1
01:19:00,0,0,0,0,2,1,4,0,1
01:20:00,0,1,1,0,0,1,0,0,0
01:21:00,0,1,1,0,0,1,2,0,1
01:22:00,0,0,1,0,0,0,0,0,0
01:23:00,1,0,1,0,0,2,2,0,1
01:24:00,0,2,1,0,1,1,1,1,1
01:25:00,0,0,0,2,0,0,0,0,0
01:26:00,1,0,0,0,1,3,3,0,1
01:27:00,0,1,1,2,0,0,2,1,1
01:28:00,0,1,1,1,0,1,0,1,1
01:29:00,1,0,0,2,0,1,2,1,1
01:30:00,2,0,2,1,0,3,1,1,1
01:31:00,0,0,2,3,0,2,0,1,1
01:32:00,0,1,1,0,0,1,1,0,1
01:33:00,0,0,0,0,1,0,3,0,1
01:34:00,0,0,0,0,0,1,1,0,0
01:35:00,0,0,1,1,2,1,0,1,1
01:36:00,0,0,0,0,0,1,0,0,0
01:37:00,1,2,1,0,1,1,0,1,1
01:38:00,2,2,0,0,1,0,0,1,1
01:39:00,0,1,0,0,0,0,2,0,0
01:40:00,0,0,0,0,1,0,2,0,0
01:41:00,1,1,0,0,0,0,0,0,0
01:42:00,1,1,0,0,1,1,1,1,1
01:43:00,1,2,0,0,0,0,6,1,1
01:44:00,1,1,0,1,1,1,1,1,1
01:45:00,0,0,1,1,0,1,0,0,0
01:46:00,0,0,0,1,0,0,1,0,0
01:47:00,0,0,0,0,0,2,2,0,1
01:48:00,0,0,1,0,0,1,3,0,1
01:49:00,0,1,1,0,1,0,0,1,0
01:50:00,0,0,0,0,0,0,3,0,0
01:51:00,0,1,1,1,2,1,2,1,1
01:52:00,1,0,1,0,0,1,2,0,1
01:53:00,1,0,0,0,0,1,1,0,0
01:54:00,1,0,2,0,3,0,0,1,1
01:55:00,0,1,1,1,0,1,4,1,1
01:56:00,1,1,0,1,2,1,0,1,1
01:57:00,0,0,0,2,0,0,1,0,0
01:58:00,1,2,0,0,2,1,1,1,1
01:59:00,2,0,1,1,1,2,1,1,1
02:00:00,1,0,0,2,1,0,1,1,1
02:01:00,0,1,1,1,0,1,0,1,1
02:02:00,2,1,0,0,0,1,2,1,1
02:03:00,1,2,1,1,1,2,2,1,1
02:04:00,0,0,1,1,0,0,0,0,0
02:05:00,0,1,0,1,1,1,0,1,1
02:06:00,0,0,0,0,2,1,3,0,1
02:07:00,0,0,3,0,1,1,3,1,1
02:08:00,0,1,2,1,1,2,0,1,1
02:09:00,0,1,1,1,1,0,1,1,1
02:10:00,0,1,0,1,1,1,3,1,1
02:11:00,1,0,0,0,2,0,0,1,0
02:12:00,0,0,0,1,1,0,0,0,0
02:13:00,0,1,0,1,0,0,0,0,0
02:14:00,1,0,0,1,1,2,1,1,1
02:15:00,2,1,0,2,1,1,1,1,1
02:16:00,0,1,2,1,1,0,0,1,1
02:17:00,0,0,0,0,1,1,0,0,0
02:18:00,0,1,2,0,1,1,2,1,1
02:19:00,1,0,0,1,1,3,2,1,1
02:20:00,0,0,2,1,1,1,3,1,1
02:21:00,0,0,0,1,0,2,2,0,1
02:22:00,0,0,0,0,0,0,1,0,0
02:23:00,0,0,0,0,0,0,1,0,0
02:24:00,0,0,0,1,1,2,1,0,1
02:25:00,0,0,1,0,0,0,1,0,0
02:26:00,0,0,0,0,0,3,1,0,1
02:27:00,1,1,1,1,0,1,1,1,1
02:28:00,0,0,0,2,0,0,0,0,0
02:29:00,0,0,2,0,0,1,0,0,0
02:30:00,0,0,0,0,0,0,1,0,0
02:31:00,0,1,0,2,1,1,2,1,1
02:32:00,1,0,1,0,1,0,1,1,1
02:33:00,0,0,0,0,0,0,0,0,0
02:34:00,1,0,0,0,2,0,0,1,0
02:35:00,2,0,0,0,0,1,2,0,1
02:36:00,1,3,0,0,1,1,0,1,1
02:37:00,0,1,1,1,0,1,0,1,1
02:38:00,2,0,2,2,1,0,0,1,1
02:39:00,1,0,0,0,1,0,0,0,0
02:40:00,1,0,1,0,1,1,1,1,1
02:41:00,0,0,1,0,0,0,2,0,0
02:42:00,0,0,0,1,1,0,3,0,1
02:43:00,0,0,0,0,2,1,0,0,0
02:44:00,1,0,0,0,1,2,1,0,1
02:45:00,0,1,0,1,0,0,0,0,0
02:46:00,0,0,1,0,2,0,0,1,0
02:47:00,1,1,0,1,0,0,0,1,0
02:48:00,0,0,0,1,0,1,0,0,0
02:49:00,2,1,0,2,2,2,3,1,2
02:50:00,0,0,1,2,1,0,0,1,1
02:51:00,0,1,1,1,2,0,0,1,1
02:52:00,0,2,2,1,0,1,2,1,1
02:53:00,0,1,0,0,1,2,0,0,1
02:54:00,0,1,1,0,1,1,0,1,1
02:55:00,1,0,0,0,3,0,1,1,1
02:56:00,0,2,1,1,1,0,1,1,1
02:57:00,0,0,0,0,0,0,2,0,0
02:58:00,0,1,1,1,0,1,0,1,1
02:59:00,0,1,0,0,0,1,1,0,0
03:00:00,2,1,1,0,0,1,0,1,1
03:01:00,2,0,0,0,0,2,2,0,1
03:02:00,0,1,1,1,0,0,0,1,0
03:03:00,0,1,1,1,1,1,0,1,1
03:04:00,0,2,0,2,0,0,1,1,1
03:05:00,0,0,1,1,2,0,0,1,1
03:06:00,1,0,0,1,2,1,0,1,1
03:07:00,1,0,1,0,2,0,0,1,1
03:08:00,0,0,0,0,1,2,0,0,0
03:09:00,0,1,1,0,0,1,1,0,1
03:10:00,0,0,2,0,0,0,0,0,0
03:11:00,1,0,0,0,0,0,0,0,0
03:12:00,0,1,1,2,0,1,2,1,1
03:13:00,0,0,0,0,0,0,1,0,0
03:14:00,1,2,0,0,1,1,1,1,1
03:15:00,0,0,0,0,1,1,0,0,0
03:16:00,0,0,1,0,0,0,0,0,0
03:17:00,0,0,1,1,2,0,0,1,1
03:18:00,0,3,0,1,0,2,2,1,1
03:19:00,0,1,0,1,1,0,1,1,1
03:20:00,2,0,1,2,0,1,1,1,1
03:21:00,1,0,1,0,1,0,0,1,0
03:22:00,0,1,0,2,0,0,1,1,1
03:23:00,0,2,0,0,1,0,1,1,1
03:24:00,1,0,0,1,0,0,0,0,0
03:25:00,1,0,0,0,1,0,0,0,0
03:26:00,0,1,1,1,0,0,1,1,1
03:27:00,0,0,1,1,1,0,3,1,1
03:28:00,0,0,1,2,0,4,2,1,1
03:29:00,0,1,1,0,0,1,2,0,1
03:30:00,0,0,2,3,2,0,4,1,2
03:31:00,0,0,0,1,0,0,1,0,0
03:32:00,2,1,0,0,1,1,0,1,1
03:33:00,0,0,0,0,1,1,3,0,1
03:34:00,1,0,0,0,0,2,2,0,1
03:35:00,0,3,2,1,1,0,1,1,1
03:36:00,0,1,2,0,0,0,1,1,1
03:37:00,0,1,1,1,1,1,2,1,1
03:38:00,1,1,1,0,1,0,1,1,1
03:39:00,2,0,1,1,0,0,1,1,1
03:40:00,0,2,1,0,0,0,1,1,1
03:41:00,0,1,0,1,0,2,2,0,1
03:42:00,1,1,1,1,0,0,1,1,1
03:43:00,0,0,1,0,0,1,1,0,0
03:44:00,0,0,0,0,0,0,0,0,0
03:45:00,0,0,0,0,1,0,1,0,0
03:46:00,1,0,0,0,0,1,1,0,0
03:47:00,0,1,2,1,0,1,0,1,1
03:48:00,0,0,0,0,0,0,0,0,0
03:49:00,0,0,0,0,3,0,2,1,1
03:50:00,2,2,2,0,1,0,1,1,1
03:51:00,1,0,1,0,0,2,0,0,1
03:52:00,1,0,1,0,0,1,1,0,1
03:53:00,2,2,0,0,2,1,2,1,1
03:54:00,0,0,1,1,0,0,1,0,0
03:55:00,0,2,0,2,1,0,4,1,1
03:56:00,1,0,0,0,0,0,3,0,1
03:57:00,0,0,0,1,1,0,4,0,1
03:58:00,0,1,4,1,0,1,1,1,1
03:59:00,0,2,0,0,1,0,1,1,1
04:00:00,1,0,0,0,2,0,2,1,1
04:01:00,0,2,1,0,0,0,1,1,1
04:02:00,1,0,0,0,1,0,0,0,0
04:03:00,1,0,0,0,1,2,2,0,1
04:04:00,2,0,0,1,0,0,0,1,0
04:05:00,0,0,1,0,0,1,1,0,0
04:06:00,0,0,1,0,1,0,0,0,0
04:07:00,2,2,0,1,0,0,0,1,1
04:08:00,0,1,0,0,1,1,1,0,1
04:09:00,0,0,1,0,0,1,1,0,0
04:10:00,0,1,1,0,1,0,2,1,1
04:11:00,0,1,1,1,1,0,1,1,1
04:12:00,1,0,0,0,1,0,2,0,1
04:13:00,0,0,1,1,1,0,0,1,0
04:14:00,1,1,2,1,3,1,2,2,2
04:15:00,1,1,0,2,0,0,0,1,1
04:16:00,0,2,0,2,0,1,2,1,1
04:17:00,1,2,2,0,2,1,0,1,1
04:18:00,1,0,1,0,1,1,1,1,1
04:19:00,0,1,0,1,1,1,1,1,1
04:20:00,0,0,1,1,2,2,0,1,1
04:21:00,1,1,0,0,0,0,4,0,1
04:22:00,1,1,1,0,0,0,0,1,0
04:23:00,0,0,0,0,0,1,2,0,0
04:24:00,2,0,3,2,0,1,2,1,1
04:25:00,1,0,0,0,3,2,1,1,1
04:26:00,0,0,0,0,0,1,1,0,0
04:27:00,0,2,2,1,0,1,0,1,1
04:28:00,0,2,1,1,0,0,1,1,1
04:29:00,1,0,0,0,0,0,0,0,0
04:30:00,0,1,2,0,3,0,0,1,1
04:31:00,1,0,4,0,1,1,0,1,1
04:32:00,3,2,1,5,0,0,1,2,2
04:33:00,0,3,2,2,1,0,1,2,1
04:34:00,3,0,1,1,1,1,1,1,1
04:35:00,1,1,1,4,1,0,2,2,1
04:36:00,1,1,1,2,1,0,1,1,1
04:37:00,1,0,0,0,0,0,2,0,0
04:38:00,1,1,1,1,0,2,1,1,1
04:39:00,5,1,2,0,1,2,1,2,2
04:40:00,0,1,1,4,2,2,1,2,2
04:41:00,3,1,2,1,0,2,2,1,2
04:42:00,1,0,1,1,0,1,1,1,1
04:43:00,1,2,1,2,1,0,0,1,1
04:44:00,1,2,1,1,4,1,2,2,2
04:45:00,5,1,0,1,2,2,2,2,2
04:46:00,3,1,0,4,1,0,7,2,2
04:47:00,0,0,3,1,3,2,6,1,2
04:48:00,3,2,0,2,5,1,2,2,2
04:49:00,1,0,0,2,1,1,4,1,1
04:50:00,1,2,1,1,1,0,2,1,1
04:51:00,4,1,3,3,2,5,1,3,3
04:52:00,4,1,3,1,2,1,0,2,2
04:53:00,1,3,1,1,1,1,1,1,1
04:54:00,3,1,1,1,0,2,2,1,1
04:55:00,1,2,0,2,3,0,2,2,1
04:56:00,1,0,3,1,3,0,3,2,2
04:57:00,1,2,1,1,1,0,1,1,1
04:58:00,1,1,1,1,0,0,1,1,1
04:59:00,0,0,0,2,0,0,1,0,0
05:00:00,2,0,0,1,2,1,0,1,1
05:01:00,0,2,0,1,1,1,1,1,1
05:02:00,0,1,1,0,0,2,1,0,1
05:03:00,1,3,1,0,0,1,1,1,1
05:04:00,1,0,1,1,3,2,1,1,1
05:05:00,2,3,1,2,1,0,1,2,1
05:06:00,2,1,0,0,1,1,3,1,1
05:07:00,2,0,1,1,1,2,1,1,1
05:08:00,5,1,1,1,2,0,1,2,2
05:09:00,5,0,1,0,2,2,1,2,2
05:10:00,2,0,0,2,3,0,0,1,1
05:11:00,2,2,3,3,1,0,0,2,2
05:12:00,2,0,1,0,2,3,0,1,1
05:13:00,2,4,1,0,1,0,1,2,1
05:14:00,0,1,4,2,0,2,2,1,2
05:15:00,0,2,3,2,5,2,0,2,2
05:16:00,4,2,0,1,0,3,0,1,1
05:17:00,1,1,0,1,0,1,1,1,1
05:18:00,1,0,1,4,4,0,0,2,1
05:19:00,2,0,0,2,2,2,3,1,2
05:20:00,4,3,0,1,2,2,3,2,2
05:21:00,1,1,1,1,3,3,0,1,1
05:22:00,3,2,4,3,2,0,3,3,2
05:23:00,0,2,3,2,3,1,1,2,2
05:24:00,0,2,1,2,2,1,2,1,1
05:25:00,3,2,4,2,1,1,2,2,2
05:26:00,4,0,3,2,0,1,2,2,2
05:27:00,1,1,0,7,2,0,1,2,2
05:28:00,4,1,1,0,2,0,2,2,1
05:29:00,5,4,3,5,2,1,0,4,3
05:30:00,1,3,3,2,1,2,0,2,2
05:31:00,2,1,0,3,2,1,3,2,2
05:32:00,3,2,4,2,2,2,0,3,2
05:33:00,3,4,3,3,0,1,2,3,2
05:34:00,1,0,1,3,3,0,2,2,1
05:35:00,2,3,2,3,2,3,0,2,2
05:36:00,3,2,2,3,2,2,2,2,2
05:37:00,3,1,7,4,3,0,0,4,3
05:38:00,6,3,3,2,3,4,1,3,3
05:39:00,4,3,3,5,0,1,1,3,2
05:40:00,2,4,3,1,1,1,2,2,2
05:41:00,1,7,1,2,3,4,0,3,3
05:42:00,2,5,8,3,5,0,0,5,3
05:43:00,5,1,6,1,3,2,1,3,3
05:44:00,4,5,4,1,2,2,0,3,3
05:45:00,6,4,2,2,3,0,1,3,3
05:46:00,4,3,4,6,3,1,4,4,4
05:47:00,4,6,3,2,5,3,0,4,3
05:48:00,3,2,6,8,2,1,3,4,4
05:49:00,5,6,4,5,3,3,1,5,4
05:50:00,4,3,7,4,3,1,2,4,3
05:51:00,6,5,1,3,2,1,1,3,3
05:52:00,1,4,7,6,4,0,0,4,3
05:53:00,2,5,5,4,3,2,0,4,3
05:54:00,6,2,3,2,6,2,0,4,3
05:55:00,2,4,6,2,3,2,1,3,3
05:56:00,5,3,3,5,3,2,2,4,3
05:57:00,5,4,6,1,2,1,2,4,3
05:58:00,9,5,8,4,5,3,3,6,5
05:59:00,3,6,5,8,4,1,4,5,4
06:00:00,7,5,8,2,8,1,4,6,5
06:01:00,5,7,2,3,4,1,1,4,3
06:02:00,4,5,3,5,5,3,2,4,4
06:03:00,5,5,4,4,6,2,3,5,4
06:04:00,3,7,5,4,2,2,3,4,4
06:05:00,2,3,6,9,1,3,0,4,3
06:06:00,1,4,4,3,3,2,5,3,3
06:07:00,7,7,6,3,5,3,5,6,5
06:08:00,5,7,3,4,2,2,1,4,3
06:09:00,4,6,5,1,7,2,0,5,4
06:10:00,10,2,1,5,2,2,5,4,4
06:11:00,4,1,2,6,3,1,1,3,3
06:12:00,3,5,8,2,2,4,2,4,4
06:13:00,3,3,4,5,6,3,1,4,4
06:14:00,4,6,6,3,2,4,3,4,4
06:15:00,9,7,5,2,5,5,3,6,5
06:16:00,5,8,8,5,3,2,4,6,5
06:17:00,8,2,7,5,9,4,2,6,5
06:18:00,7,7,4,6,10,3,0,7,5
06:19:00,7,8,5,8,5,4,3,7,6
06:20:00,11,5,7,4,3,5,2,6,5
06:21:00,6,5,4,2,4,2,6,4,4
06:22:00,8,2,8,10,2,3,7,6,6
06:23:00,4,5,7,4,4,2,1,5,4
06:24:00,5,9,8,10,7,3,2,8,6
06:25:00,3,6,3,5,5,5,3,4,4
06:26:00,3,4,6,4,3,2,5,4,4
06:27:00,5,4,9,4,4,2,1,5,4
06:28:00,4,9,8,5,9,2,5,7,6
06:29:00,6,7,5,7,6,2,7,6,6
06:30:00,5,4,6,6,7,0,4,6,5
06:31:00,8,13,8,10,5,4,3,9,7
06:32:00,8,8,7,3,6,2,5,6,6
06:33:00,6,4,7,6,6,4,2,6,5
06:34:00,10,11,12,7,4,4,2,9,7
06:35:00,8,9,6,7,2,5,3,6,6
06:36:00,10,11,9,11,4,7,4,9,8
06:37:00,8,8,8,5,13,5,7,8,8
06:38:00,11,9,16,10,10,2,5,11,9
06:39:00,12,5,4,5,3,1,5,6,5
06:40:00,9,8,9,10,10,7,2,9,8
06:41:00,8,8,12,5,7,1,7,8,7
06:42:00,6,8,9,8,7,3,7,8,7
06:43:00,9,12,8,7,9,6,4,9,8
06:44:00,12,16,8,14,5,7,2,11,9
06:45:00,13,11,11,12,10,4,3,11,9
06:46:00,11,5,21,14,2,8,7,11,10
06:47:00,12,12,7,13,10,7,3,11,9
06:48:00,13,10,11,10,8,5,5,10,9
06:49:00,12,14,6,12,9,4,7,11,9
06:50:00,16,11,10,15,12,5,4,13,10
06:51:00,14,9,14,10,9,3,8,11,10
06:52:00,15,13,10,21,9,6,6,14,11
06:53:00,14,13,17,9,9,2,5,12,10
06:54:00,8,15,4,10,7,5,4,9,8
06:55:00,8,11,16,13,7,3,2,11,9
06:56:00,8,14,11,18,10,7,7,12,11
06:57:00,16,8,7,4,10,5,4,9,8
06:58:00,6,11,8,12,4,3,1,8,6
06:59:00,5,16,7,8,9,5,4,9,8
07:00:00,14,9,18,15,6,2,6,12,10
07:01:00,11,10,7,14,9,5,5,10,9
07:02:00,10,12,12,8,19,2,3,12,9
07:03:00,13,8,6,14,12,4,1,11,8
07:04:00,9,15,6,14,10,3,4,11,9
07:05:00,13,16,25,16,10,1,2,16,12
07:06:00,12,7,14,4,16,10,6,11,10
07:07:00,19,18,19,19,14,6,7,18,15
07:08:00,24,11,15,10,13,8,5,15,12
07:09:00,21,11,12,15,16,4,6,15,12
07:10:00,17,21,16,20,18,6,4,18,15
07:11:00,8,20,18,15,10,7,12,14,13
07:12:00,12,17,22,13,11,4,5,15,12
07:13:00,17,12,16,17,10,7,6,14,12
07:14:00,19,20,17,15,15,10,3,17,14
07:15:00,20,9,18,18,13,7,3,16,13
07:16:00,17,23,26,17,13,5,7,19,15
07:17:00,18,22,17,18,14,10,8,18,15
07:18:00,14,19,23,13,15,9,9,17,15
07:19:00,15,11,21,14,12,9,3,15,12
07:20:00,16,20,24,26,18,3,6,21,16
07:21:00,22,18,17,12,21,4,3,18,14
07:22:00,20,14,24,18,19,13,9,19,17
07:23:00,15,25,18,21,21,9,4,20,16
07:24:00,18,15,23,15,17,7,6,18,14
07:25:00,14,18,23,16,15,8,8,17,15
07:26:00,23,23,10,24,19,9,8,20,17
07:27:00,16,18,15,28,12,6,1,18,14
07:28:00,26,26,23,17,15,6,1,21,16
07:29:00,26,21,25,29,17,8,5,24,19
07:30:00,22,18,22,23,18,8,3,21,16
07:31:00,19,18,28,14,18,6,5,19,15
07:32:00,25,21,18,18,25,3,5,21,16
07:33:00,30,27,22,24,11,5,5,23,18
07:34:00,17,21,25,24,15,8,9,20,17
07:35:00,18,26,20,23,19,5,9,21,17
07:36:00,24,28,16,24,18,14,7,22,19
07:37:00,23,27,23,20,16,5,6,22,17
07:38:00,27,23,24,11,21,4,6,21,17
07:39:00,26,22,22,28,21,7,7,24,19
07:40:00,27,18,20,21,18,8,9,21,17
07:41:00,21,26,21,26,14,6,3,22,17
07:42:00,19,30,23,19,26,9,4,23,19
07:43:00,20,23,20,16,21,13,8,20,17
07:44:00,19,23,25,17,27,13,7,22,19
07:45:00,23,19,18,21,24,11,7,21,18
07:46:00,26,23,20,28,18,11,6,23,19
07:47:00,22,27,24,20,22,7,4,23,18
07:48:00,22,17,20,14,15,11,8,18,15
07:49:00,22,27,19,16,15,11,5,20,16
07:50:00,18,20,32,25,27,12,3,24,20
07:51:00,28,35,24,23,24,4,6,27,21
07:52:00,22,18,16,22,18,11,8,19,16
07:53:00,15,20,20,18,15,7,9,18,15
07:54:00,28,30,25,19,24,7,9,25,20
07:55:00,29,23,30,20,27,10,4,26,20
07:56:00,25,28,30,18,22,7,4,25,19
07:57:00,21,16,27,26,16,8,7,21,17
07:58:00,18,21,19,27,21,14,7,21,18
07:59:00,30,26,26,26,25,5,5,27,20
08:00:00,24,19,32,11,20,6,3,21,16
08:01:00,29,17,21,20,26,13,6,23,19
08:02:00,27,30,29,19,13,3,9,24,19
08:03:00,22,26,17,15,20,7,7,20,16
08:04:00,21,21,18,20,17,10,5,19,16
08:05:00,22,19,24,21,23,9,4,22,17
08:06:00,19,27,22,19,15,10,8,20,17
08:07:00,22,26,17,21,19,10,9,21,18
08:08:00,23,20,29,18,13,7,7,21,17
08:09:00,28,15,27,19,15,8,4,21,17
08:10:00,22,15,19,25,18,13,3,20,16
08:11:00,13,23,27,21,13,2,3,19,15
08:12:00,20,20,22,23,15,15,6,20,17
08:13:00,23,25,27,27,19,9,7,24,20
08:14:00,23,21,29,21,17,11,6,22,18
08:15:00,14,16,18,24,21,10,3,19,15
08:16:00,20,23,27,24,13,6,2,21,16
08:17:00,27,12,19,24,16,9,9,20,17
08:18:00,25,22,29,16,18,8,3,22,17
08:19:00,20,27,23,15,21,7,5,21,17
08:20:00,17,22,23,20,17,7,6,20,16
08:21:00,18,22,25,17,27,8,2,22,17
08:22:00,16,20,30,21,26,16,14,23,20
08:23:00,30,19,20,16,20,13,1,21,17
08:24:00,22,28,26,23,19,12,9,24,20
08:25:00,21,18,17,14,24,10,6,19,16
08:26:00,27,20,24,23,12,11,10,21,18
08:27:00,22,21,18,12,5,7,4,16,13
08:28:00,24,17,23,24,19,5,7,21,17
08:29:00,28,18,12,16,22,17,7,19,17
08:30:00,17,29,18,16,25,10,3,21,17
08:31:00,23,23,22,27,18,11,7,23,19
08:32:00,14,28,18,17,25,13,5,20,17
08:33:00,21,18,21,22,14,13,9,19,17
08:34:00,24,15,26,19,25,12,6,22,18
08:35:00,30,22,24,24,22,11,3,24,19
08:36:00,14,19,33,23,21,16,4,22,19
08:37:00,22,23,30,20,25,6,7,24,19
08:38:00,21,18,19,22,13,9,5,19,15
08:39:00,24,19,24,23,16,12,5,21,18
08:40:00,21,24,22,12,21,15,7,20,17
08:41:00,16,23,16,29,20,24,8,21,19
08:42:00,22,18,23,22,14,15,2,20,17
08:43:00,19,24,22,22,18,14,8,21,18
08:44:00,29,18,24,20,24,16,2,23,19
08:45:00,30,27,32,20,19,16,6,26,21
08:46:00,22,29,20,22,17,13,8,22,19
08:47:00,25,23,24,18,22,17,3,22,19
08:48:00,17,24,22,21,18,18,6,20,18
08:49:00,16,30,26,22,23,18,8,23,20
08:50:00,18,19,25,29,19,20,8,22,20
08:51:00,24,25,27,26,21,21,8,25,22
08:52:00,27,19,17,21,21,15,11,21,19
08:53:00,24,25,26,21,14,15,6,22,19
08:54:00,26,30,20,20,28,17,11,25,22
08:55:00,18,28,26,26,22,10,10,24,20
08:56:00,29,25,15,22,16,17,8,21,19
08:57:00,18,22,24,27,26,14,6,23,20
08:58:00,26,18,22,26,24,19,5,23,20
08:59:00,26,29,34,16,20,11,6,25,20
09:00:00,13,36,20,26,23,17,6,24,20
09:01:00,28,28,34,30,16,18,8,27,23
09:02:00,31,18,28,25,18,8,6,24,19
09:03:00,20,20,25,20,27,21,7,22,20
09:04:00,25,28,25,21,20,12,11,24,20
09:05:00,24,29,27,17,24,12,8,24,20
09:06:00,26,22,19,26,19,7,6,22,18
09:07:00,24,23,29,32,24,15,16,26,23
09:08:00,23,27,17,19,22,15,8,22,19
09:09:00,24,29,29,32,23,15,5,27,22
09:10:00,25,15,28,28,20,15,8,23,20
09:11:00,23,27,17,15,20,10,10,20,17
09:12:00,25,29,30,23,20,17,9,25,22
09:13:00,28,25,37,27,20,8,4,27,21
09:14:00,25,27,23,24,16,14,5,23,19
09:15:00,25,27,18,23,23,16,8,23,20
09:16:00,18,25,20,25,30,15,6,24,20
09:17:00,19,21,18,30,16,20,6,21,19
09:18:00,26,21,30,32,22,20,8,26,23
09:19:00,24,21,21,22,26,18,5,23,20
09:20:00,21,30,18,24,12,21,11,21,20
09:21:00,18,27,17,21,26,24,10,22,20
09:22:00,22,21,17,24,20,16,3,21,18
09:23:00,20,20,26,15,19,15,11,20,18
09:24:00,25,20,21,29,12,18,8,21,19
09:25:00,25,20,16,21,18,10,4,20,16
09:26:00,16,18,19,18,18,13,7,18,16
09:27:00,19,25,14,25,23,16,15,21,20
09:28:00,25,18,23,21,17,10,10,21,18
09:29:00,18,15,21,11,21,16,10,17,16
09:30:00,22,22,24,34,21,21,7,25,22
09:31:00,18,20,18,23,24,18,4,21,18
09:32:00,29,14,11,30,19,14,12,21,18
09:33:00,25,21,23,25,26,21,5,24,21
09:34:00,23,26,12,23,25,15,6,22,19
09:35:00,18,24,21,22,18,14,9,21,18
09:36:00,38,21,17,21,23,16,11,24,21
09:37:00,17,24,14,22,19,27,7,19,19
09:38:00,20,20,22,24,20,26,18,21,21
09:39:00,22,27,17,30,18,15,13,23,20
09:40:00,17,27,22,27,23,17,10,23,20
09:41:00,27,19,21,25,20,26,10,22,21
09:42:00,25,20,23,17,12,24,17,19,20
09:43:00,29,17,20,22,23,15,10,22,19
09:44:00,20,30,16,17,24,23,12,21,20
09:45:00,25,26,23,20,19,15,5,23,19
09:46:00,22,28,28,24,23,13,13,25,22
09:47:00,25,29,23,26,19,26,12,24,23
09:48:00,28,20,28,26,18,14,14,24,21
09:49:00,22,29,23,22,21,22,13,23,22
09:50:00,15,20,28,28,25,10,14,23,20
09:51:00,25,25,26,24,22,25,11,24,23
09:52:00,30,25,27,21,20,24,11,25,23
09:53:00,18,15,23,18,21,19,12,19,18
09:54:00,21,23,18,12,21,16,13,19,18
09:55:00,19,25,22,37,19,29,9,24,23
09:56:00,21,22,22,18,18,18,14,20,19
09:57:00,29,25,22,19,24,23,12,24,22
09:58:00,22,27,24,24,20,24,13,23,22
09:59:00,17,17,14,25,14,22,11,17,17
10:00:00,24,20,26,23,21,21,7,23,20
10:01:00,18,17,21,23,21,25,16,20,20
10:02:00,27,18,17,25,16,21,7,21,19
10:03:00,17,20,22,11,19,23,19,18,19
10:04:00,18,23,33,24,15,19,18,23,21
10:05:00,9,16,19,20,16,27,11,16,17
10:06:00,21,25,26,12,21,26,13,21,21
10:07:00,17,25,16,13,21,25,15,18,19
10:08:00,14,22,30,26,17,24,11,22,21
10:09:00,17,24,27,21,23,24,25,22,23
10:10:00,20,14,22,27,28,22,14,22,21
10:11:00,22,25,29,32,28,17,14,27,24
10:12:00,20,18,15,28,25,21,21,21,21
10:13:00,20,16,14,23,26,13,17,20,18
10:14:00,28,23,18,19,29,21,18,23,22
10:15:00,28,18,16,17,23,19,14,20,19
10:16:00,16,28,21,27,22,22,18,23,22
10:17:00,29,31,19,27,15,16,13,24,21
10:18:00,31,16,30,25,26,20,10,26,23
10:19:00,26,36,26,22,27,28,25,27,27
10:20:00,22,23,28,20,23,18,20,23,22
10:21:00,15,24,19,18,21,28,13,19,20
10:22:00,26,23,25,22,20,21,15,23,22
10:23:00,28,24,13,23,17,22,17,21,21
10:24:00,26,13,28,20,17,14,10,21,18
10:25:00,27,28,22,22,21,18,17,24,22
10:26:00,24,18,19,29,21,17,15,22,20
10:27:00,27,27,21,27,21,11,11,25,21
10:28:00,26,23,20,27,16,20,18,22,21
10:29:00,31,24,21,21,23,10,10,24,20
10:30:00,19,18,26,25,17,16,12,21,19
10:31:00,31,24,26,25,19,21,19,25,24
10:32:00,16,25,24,19,21,20,5,21,19
10:33:00,15,22,13,29,33,26,14,22,22
10:34:00,29,26,19,25,24,19,17,25,23
10:35:00,22,21,23,20,19,19,20,21,21
10:36:00,25,22,20,19,18,35,13,21,22
10:37:00,27,25,23,24,26,15,15,25,22
10:38:00,26,21,22,23,22,23,14,23,22
10:39:00,18,18,19,27,26,21,15,22,21
10:40:00,26,23,16,29,20,17,17,23,21
10:41:00,27,23,22,21,23,19,17,23,22
10:42:00,24,24,26,26,26,27,17,25,24
10:43:00,29,17,29,27,19,28,19,24,24
10:44:00,19,29,25,26,26,21,13,25,23
10:45:00,18,26,18,26,27,22,11,23,21
10:46:00,27,21,21,24,23,17,12,23,21
10:47:00,22,19,19,32,22,32,20,23,24
10:48:00,24,12,20,24,22,27,10,20,20
10:49:00,28,27,23,18,22,18,14,24,21
10:50:00,30,24,24,40,23,26,15,28,26
10:51:00,26,17,19,28,21,19,20,22,21
10:52:00,23,19,28,14,22,16,16,21,20
10:53:00,24,28,27,27,20,24,12,25,23
10:54:00,33,23,25,26,26,21,21,27,25
10:55:00,14,27,16,18,24,15,18,20,19
10:56:00,16,18,30,25,22,21,8,22,20
10:57:00,16,27,19,24,20,16,19,21,20
10:58:00,15,25,17,22,22,17,7,20,18
10:59:00,26,30,18,19,34,24,23,25,25
11:00:00,19,26,22,19,23,18,17,22,21
11:01:00,22,27,22,19,29,21,17,24,22
11:02:00,21,21,19,25,13,20,16,20,19
11:03:00,19,17,19,23,26,23,14,21,20
11:04:00,28,18,22,19,21,22,16,22,21
11:05:00,22,23,25,25,28,16,14,25,22
11:06:00,20,33,21,25,22,21,11,24,22
11:07:00,23,17,14,24,22,23,19,20,20
11:08:00,15,25,22,14,26,22,14,20,20
11:09:00,25,14,28,23,29,15,20,24,22
11:10:00,27,17,16,21,19,17,16,20,19
11:11:00,24,21,19,18,24,19,18,21,20
11:12:00,23,20,18,12,15,24,11,18,18
11:13:00,19,18,34,21,21,16,13,23,20
11:14:00,18,28,18,20,36,26,19,24,24
11:15:00,19,23,24,22,27,14,16,23,21
11:16:00,32,19,17,18,18,24,22,21,21
11:17:00,17,17,20,20,15,22,17,18,18
11:18:00,22,25,23,30,25,26,16,25,24
11:19:00,15,19,18,27,30,20,17,22,21
11:20:00,27,20,23,19,16,17,12,21,19
11:21:00,22,18,15,25,30,15,21,22,21
11:22:00,15,24,23,23,13,31,19,20,21
11:23:00,28,23,19,30,20,12,9,24,20
11:24:00,23,20,23,17,26,20,12,22,20
11:25:00,36,18,25,22,26,15,21,25,23
11:26:00,23,26,24,25,26,27,20,25,24
11:27:00,30,20,24,24,18,18,17,23,22
11:28:00,12,18,24,22,26,23,21,20,21
11:29:00,20,21,24,19,27,27,18,22,22
11:30:00,15,30,21,28,24,14,10,24,20
11:31:00,28,18,14,20,19,21,15,20,19
11:32:00,24,29,27,28,15,19,14,25,22
11:33:00,18,28,24,25,23,25,16,24,23
11:34:00,18,24,25,19,15,23,25,20,21
11:35:00,26,16,26,19,29,28,11,23,22
11:36:00,20,18,23,20,30,24,23,22,23
11:37:00,33,18,14,16,22,20,22,21,21
11:38:00,29,20,24,29,24,33,18,25,25
11:39:00,28,21,18,13,30,19,20,22,21
11:40:00,25,15,20,18,17,18,15,19,18
11:41:00,17,22,26,17,25,24,22,21,22
11:42:00,16,17,15,28,21,19,17,19,19
11:43:00,24,27,21,34,27,9,23,27,24
11:44:00,27,24,17,23,24,23,20,23,23
11:45:00,18,22,22,25,32,16,22,24,22
11:46:00,24,22,26,23,22,12,17,23,21
11:47:00,27,26,23,19,19,14,16,23,21
11:48:00,14,26,24,21,24,25,18,22,22
11:49:00,29,27,19,28,23,28,19,25,25
11:50:00,20,25,33,21,19,19,19,24,22
11:51:00,17,20,27,23,19,31,17,21,22
11:52:00,28,21,22,27,29,20,25,25,25
11:53:00,21,25,15,22,15,26,11,20,19
11:54:00,22,12,33,24,26,20,19,23,22
11:55:00,23,24,23,23,21,22,15,23,22
11:56:00,22,19,17,20,25,19,9,21,19
11:57:00,19,20,14,26,27,16,9,21,19
11:58:00,18,29,21,18,23,28,9,22,21
11:59:00,29,22,19,29,27,20,13,25,23
12:00:00,25,22,17,23,21,17,21,22,21
12:01:00,25,20,20,21,18,16,19,21,20
12:02:00,28,23,37,29,16,22,22,27,25
12:03:00,20,26,22,21,30,26,21,24,24
12:04:00,19,25,20,22,21,15,17,21,20
12:05:00,23,23,24,22,28,18,16,24,22
12:06:00,17,25,20,19,21,20,14,20,19
12:07:00,22,19,16,24,23,21,18,21,20
12:08:00,21,20,20,22,22,27,19,21,22
12:09:00,21,23,10,21,25,27,22,20,21
12:10:00,23,19,18,24,21,18,16,21,20
12:11:00,17,17,17,21,27,20,8,20,18
12:12:00,27,18,16,16,21,23,28,20,21
12:13:00,18,24,20,17,20,14,17,20,19
12:14:00,29,16,18,10,16,23,25,18,20
12:15:00,19,17,21,25,14,16,20,19,19
12:16:00,20,19,16,16,19,25,18,18,19
12:17:00,22,28,20,19,17,26,22,21,22
12:18:00,19,19,29,15,14,19,16,19,19
12:19:00,19,23,17,17,16,19,19,18,19
12:20:00,24,27,21,18,14,32,20,21,22
12:21:00,16,14,20,16,24,18,18,18,18
12:22:00,13,26,23,20,27,29,18,22,22
12:23:00,21,31,24,15,28,23,15,24,22
12:24:00,24,26,24,31,21,29,10,25,24
12:25:00,17,22,28,27,11,24,17,21,21
12:26:00,22,15,20,25,21,23,14,21,20
12:27:00,22,22,31,22,22,22,25,24,24
12:28:00,23,23,21,21,27,22,23,23,23
12:29:00,16,22,23,22,29,21,12,22,21
12:30:00,23,25,21,20,26,22,14,23,22
12:31:00,23,27,19,20,38,28,21,25,25
12:32:00,21,23,23,28,15,28,27,22,24
12:33:00,20,23,26,21,31,26,25,24,25
12:34:00,19,19,21,25,32,23,20,23,23
12:35:00,18,26,20,27,27,18,15,24,22
12:36:00,20,26,19,15,22,20,16,20,20
12:37:00,20,23,15,23,28,19,19,22,21
12:38:00,23,22,23,22,19,22,21,22,22
12:39:00,29,19,30,18,27,18,14,25,22
12:40:00,28,23,20,20,20,16,16,22,20
12:41:00,22,23,11,31,28,14,12,23,20
12:42:00,22,18,16,24,17,23,29,19,21
12:43:00,16,27,21,23,17,22,10,21,19
12:44:00,23,29,24,16,20,29,15,22,22
12:45:00,19,30,23,28,27,15,15,25,22
12:46:00,24,25,20,22,24,25,17,23,22
12:47:00,15,22,18,18,19,16,18,18,18
12:48:00,24,22,25,22,12,16,9,21,19
12:49:00,18,23,24,23,24,18,19,22,21
12:50:00,21,22,22,26,20,24,20,22,22
12:51:00,23,24,17,19,21,15,16,21,19
12:52:00,24,33,20,20,18,21,15,23,22
12:53:00,23,23,17,18,16,21,19,19,20
12:54:00,24,22,27,17,24,31,13,23,23
12:55:00,22,20,17,20,19,23,16,20,20
12:56:00,24,27,28,23,22,24,27,25,25
12:57:00,21,23,17,16,19,17,14,19,18
12:58:00,18,18,22,24,23,20,15,21,20
12:59:00,22,18,27,29,32,28,14,26,24
13:00:00,16,22,27,26,21,33,16,22,23
13:01:00,25,18,18,17,25,26,10,21,20
13:02:00,25,18,25,25,18,26,22,22,23
13:03:00,20,25,27,19,14,22,15,21,20
13:04:00,20,21,18,22,32,24,21,23,23
13:05:00,20,16,25,25,23,22,17,22,21
13:06:00,21,25,23,24,23,26,20,23,23
13:07:00,23,23,19,21,21,13,14,21,19
13:08:00,19,25,19,17,19,28,12,20,20
13:09:00,27,18,22,17,29,24,17,23,22
13:10:00,23,23,18,28,14,19,11,21,19
13:11:00,19,23,19,17,20,30,21,20,21
13:12:00,19,28,18,29,22,29,12,23,22
13:13:00,22,25,19,12,23,14,23,20,20
13:14:00,32,23,26,28,36,26,19,29,27
13:15:00,17,21,21,26,27,31,21,22,23
13:16:00,26,14,19,22,25,26,16,21,21
13:17:00,23,25,19,16,26,23,24,22,22
13:18:00,21,22,30,24,20,20,15,23,22
13:19:00,23,19,19,19,24,23,18,21,21
13:20:00,29,28,24,21,23,28,20,25,25
13:21:00,22,31,24,25,28,20,9,26,23
13:22:00,25,31,20,26,25,35,15,25,25
13:23:00,23,20,21,33,16,17,17,23,21
13:24:00,28,24,26,18,22,23,16,24,22
13:25:00,17,17,24,21,25,20,9,21,19
13:26:00,19,15,19,20,19,19,12,18,18
13:27:00,24,22,26,24,22,23,12,24,22
13:28:00,22,22,23,24,28,22,14,24,22
13:29:00,27,16,21,34,24,16,12,24,21
13:30:00,21,24,30,24,17,34,16,23,24
13:31:00,24,23,28,17,26,21,11,24,21
13:32:00,20,18,31,29,23,29,14,24,23
13:33:00,25,21,27,29,32,19,18,27,24
13:34:00,23,32,26,16,36,13,13,27,23
13:35:00,23,23,28,28,21,34,17,25,25
13:36:00,26,22,28,18,24,23,12,24,22
13:37:00,15,26,24,24,18,18,15,21,20
13:38:00,34,20,24,25,27,30,16,26,25
13:39:00,24,26,25,21,18,22,22,23,23
13:40:00,31,20,27,24,29,20,15,26,24
13:41:00,23,26,25,26,26,27,12,25,24
13:42:00,33,32,22,24,34,23,17,29,26
13:43:00,19,21,22,25,25,24,12,22,21
13:44:00,24,24,29,23,29,21,12,26,23
13:45:00,30,21,23,21,21,26,16,23,23
13:46:00,18,28,20,28,19,14,13,23,20
13:47:00,18,19,22,21,23,18,13,21,19
13:48:00,22,24,19,35,24,20,18,25,23
13:49:00,22,26,24,17,22,27,12,22,21
13:50:00,24,26,30,29,23,20,18,26,24
13:51:00,16,24,27,17,18,19,8,20,18
13:52:00,21,28,23,31,26,18,13,26,23
13:53:00,19,17,23,22,31,25,14,22,22
13:54:00,34,28,25,17,26,14,11,26,22
13:55:00,25,21,24,18,28,28,15,23,23
13:56:00,20,22,16,28,16,29,16,20,21
13:57:00,25,21,26,25,30,25,19,25,24
13:58:00,23,25,30,23,28,18,11,26,23
13:59:00,24,22,27,25,27,22,5,25,22
14:00:00,25,25,26,28,24,24,12,26,23
14:01:00,26,21,20,32,19,28,17,24,23
14:02:00,29,19,18,26,16,25,18,22,22
14:03:00,13,16,13,18,27,16,15,17,17
14:04:00,25,25,19,25,14,23,13,22,21
14:05:00,20,18,26,18,22,25,15,21,21
14:06:00,24,25,23,27,22,18,20,24,23
14:07:00,23,26,21,11,20,26,13,20,20
14:08:00,20,22,23,31,20,15,17,23,21
14:09:00,20,30,31,23,18,20,12,24,22
14:10:00,26,20,33,28,19,22,19,25,24
14:11:00,32,25,26,26,32,31,16,28,27
14:12:00,24,19,27,22,24,14,18,23,21
14:13:00,13,29,22,22,22,25,16,22,21
14:14:00,22,20,28,32,25,21,10,25,23
14:15:00,13,31,21,19,24,21,12,22,20
14:16:00,20,22,25,17,20,16,13,21,19
14:17:00,24,32,23,19,27,25,12,25,23
14:18:00,15,22,19,29,30,23,5,23,20
14:19:00,27,22,23,23,24,25,11,24,22
14:20:00,26,32,17,25,23,26,19,25,24
14:21:00,20,20,22,20,26,24,25,22,22
14:22:00,21,27,29,21,21,22,14,24,22
14:23:00,26,21,19,26,22,21,8,23,20
14:24:00,24,26,20,23,18,26,14,22,22
14:25:00,21,23,21,23,23,21,20,22,22
14:26:00,17,19,22,18,24,15,20,20,19
14:27:00,18,16,17,25,23,19,19,20,20
14:28:00,22,23,26,28,27,22,19,25,24
14:29:00,25,19,24,16,22,23,13,21,20
14:30:00,19,24,29,26,24,19,17,24,23
14:31:00,20,15,22,26,22,12,15,21,19
14:32:00,31,14,24,30,18,21,17,23,22
14:33:00,21,27,13,32,17,24,11,22,21
14:34:00,19,20,18,19,18,24,18,19,19
14:35:00,30,31,20,25,19,22,25,25,25
14:36:00,20,24,18,17,25,20,10,21,19
14:37:00,27,26,20,29,23,24,16,25,24
14:38:00,24,16,30,31,26,23,20,25,24
14:39:00,27,20,22,22,16,17,7,21,19
14:40:00,25,29,21,17,18,24,21,22,22
14:41:00,27,26,16,27,21,18,21,23,22
14:42:00,20,19,25,17,15,19,10,19,18
14:43:00,24,29,17,24,28,19,13,24,22
14:44:00,20,21,28,28,24,23,14,24,23
14:45:00,25,25,23,16,31,15,16,24,22
14:46:00,26,22,25,29,22,17,16,25,22
14:47:00,24,27,24,23,27,24,19,25,24
14:48:00,20,22,29,16,20,15,19,21,20
14:49:00,14,25,24,31,27,25,17,24,23
14:50:00,22,22,14,32,29,19,15,24,22
14:51:00,19,31,32,22,19,22,12,25,22
14:52:00,27,25,29,23,26,17,17,26,23
14:53:00,29,20,22,32,31,22,10,27,24
14:54:00,18,22,28,21,23,20,17,22,21
14:55:00,28,25,19,26,16,18,12,23,21
14:56:00,16,25,21,30,34,22,16,25,23
14:57:00,26,19,25,19,21,23,7,22,20
14:58:00,27,23,19,23,27,19,13,24,22
14:59:00,21,22,26,25,25,17,13,24,21
15:00:00,24,23,25,10,22,22,17,21,20
15:01:00,20,21,24,28,28,28,16,24,24
15:02:00,17,16,22,19,24,10,13,20,17
15:03:00,18,20,27,19,25,20,15,22,21
15:04:00,16,28,22,18,17,16,25,20,20
15:05:00,9,21,14,29,27,25,16,20,20
15:06:00,13,22,22,25,27,21,20,22,21
15:07:00,24,18,24,34,27,18,17,25,23
15:08:00,19,22,24,23,23,15,16,22,20
15:09:00,21,23,17,20,29,10,14,22,19
15:10:00,14,22,23,16,19,12,26,19,19
15:11:00,20,24,24,25,28,16,15,24,22
15:12:00,19,22,20,24,24,24,14,22,21
15:13:00,20,28,21,24,21,16,11,23,20
15:14:00,22,24,20,28,15,24,18,22,22
15:15:00,19,27,26,28,21,21,10,24,22
15:16:00,17,17,27,21,21,22,8,21,19
15:17:00,21,30,17,24,31,14,17,25,22
15:18:00,17,23,18,23,20,21,19,20,20
15:19:00,14,29,27,22,24,12,16,23,21
15:20:00,20,24,27,32,20,22,16,25,23
15:21:00,14,19,16,22,21,17,13,18,17
15:22:00,17,24,34,24,20,27,15,24,23
15:23:00,21,21,19,21,27,24,17,22,21
15:24:00,20,16,22,22,31,13,7,22,19
15:25:00,17,26,17,23,18,17,17,20,19
15:26:00,23,19,28,25,25,17,13,24,21
15:27:00,16,30,18,19,17,24,13,20,20
15:28:00,16,23,22,28,20,19,15,22,20
15:29:00,21,21,10,22,33,17,11,21,19
15:30:00,27,21,26,24,26,16,14,25,22
15:31:00,21,26,30,26,20,21,21,25,24
15:32:00,22,27,31,26,19,25,14,25,23
15:33:00,31,31,24,21,25,20,13,26,24
15:34:00,21,32,22,23,15,13,7,23,19
15:35:00,25,22,26,24,22,20,20,24,23
15:36:00,19,26,32,30,23,24,11,26,24
15:37:00,24,21,25,21,34,8,13,25,21
15:38:00,26,22,27,22,25,23,14,24,23
15:39:00,26,34,22,25,28,13,13,27,23
15:40:00,21,28,33,22,19,19,11,25,22
15:41:00,12,27,32,25,25,15,17,24,22
15:42:00,18,25,31,22,31,18,12,25,22
15:43:00,11,27,28,18,27,23,14,22,21
15:44:00,22,23,22,23,16,20,10,21,19
15:45:00,23,27,27,20,31,20,13,26,23
15:46:00,19,27,25,26,15,17,12,22,20
15:47:00,22,29,14,27,27,14,15,24,21
15:48:00,28,26,17,26,22,11,9,24,20
15:49:00,19,24,24,27,25,18,23,24,23
15:50:00,23,21,26,19,29,17,22,24,22
15:51:00,13,19,22,28,21,15,13,21,19
15:52:00,26,24,18,26,22,22,17,23,22
15:53:00,16,18,17,25,18,15,21,19,19
15:54:00,18,17,27,30,21,8,10,23,19
15:55:00,15,28,19,26,24,13,20,22,21
15:56:00,23,27,17,28,28,27,14,25,23
15:57:00,18,25,28,23,27,13,15,24,21
15:58:00,23,23,20,25,26,28,16,23,23
15:59:00,29,24,17,27,29,21,16,25,23
16:00:00,20,22,15,26,26,24,20,22,22
16:01:00,19,14,17,24,19,15,9,19,17
16:02:00,22,29,28,20,17,19,18,23,22
16:03:00,29,21,23,16,26,21,17,23,22
16:04:00,18,29,15,20,20,21,16,20,20
16:05:00,20,25,34,12,23,25,18,23,22
16:06:00,20,24,24,19,19,17,14,21,20
16:07:00,25,25,21,18,18,11,16,21,19
16:08:00,22,28,20,26,21,25,14,23,22
16:09:00,22,25,22,17,24,22,18,22,21
16:10:00,20,27,19,21,23,22,16,22,21
16:11:00,16,17,27,21,21,21,13,20,19
16:12:00,16,18,30,26,19,24,18,22,22
16:13:00,19,26,18,24,14,20,21,20,20
16:14:00,30,23,18,22,21,17,10,23,20
16:15:00,15,30,25,23,20,26,21,23,23
16:16:00,15,18,21,28,26,22,17,22,21
16:17:00,28,18,25,18,7,20,17,19,19
16:18:00,15,17,15,26,21,23,15,19,19
16:19:00,20,28,21,26,22,20,10,23,21
16:20:00,24,24,17,20,21,21,10,21,20
16:21:00,14,20,20,28,18,14,10,20,18
16:22:00,17,23,21,23,17,21,11,20,19
16:23:00,21,24,11,26,17,18,13,20,19
16:24:00,17,24,22,25,30,11,10,24,20
16:25:00,16,23,21,20,15,21,11,19,18
16:26:00,16,18,21,21,21,24,4,19,18
16:27:00,22,17,19,25,15,24,9,20,19
16:28:00,18,13,23,30,26,21,16,22,21
16:29:00,17,23,18,24,18,13,18,20,19
16:30:00,19,23,20,27,29,25,12,24,22
16:31:00,24,19,23,27,36,12,10,26,22
16:32:00,19,18,13,24,22,13,19,19,18
16:33:00,14,23,20,15,19,20,18,18,18
16:34:00,19,8,19,15,22,26,9,17,17
16:35:00,21,23,18,24,23,20,14,22,20
16:36:00,17,21,27,22,25,27,4,22,20
16:37:00,16,24,23,21,17,9,11,20,17
16:38:00,16,26,28,25,28,18,7,25,21
16:39:00,19,27,24,18,29,20,20,23,22
16:40:00,26,19,21,26,20,18,15,22,21
16:41:00,16,22,21,14,29,19,12,20,19
16:42:00,18,20,13,25,21,15,19,19,19
16:43:00,15,24,27,13,19,21,12,20,19
16:44:00,22,23,21,28,23,18,20,23,22
16:45:00,17,23,21,30,22,22,13,23,21
16:46:00,22,23,26,20,22,21,16,23,21
16:47:00,25,22,16,16,30,9,15,22,19
16:48:00,21,18,14,17,31,11,11,20,18
16:49:00,21,24,19,21,20,21,11,21,20
16:50:00,19,21,23,23,23,22,11,22,20
16:51:00,17,17,22,23,31,15,11,22,19
16:52:00,25,19,21,19,29,26,11,23,21
16:53:00,26,20,24,24,19,20,14,23,21
16:54:00,21,19,24,21,23,26,11,22,21
16:55:00,20,22,19,22,21,21,23,21,21
16:56:00,24,31,21,15,15,22,11,21,20
16:57:00,22,26,17,11,19,18,12,19,18
16:58:00,20,28,22,25,15,18,13,22,20
16:59:00,10,20,29,18,24,21,14,20,19
17:00:00,22,17,18,27,17,20,16,20,20
17:01:00,19,26,22,16,28,18,12,22,20
17:02:00,29,24,26,12,21,21,11,22,21
17:03:00,20,19,15,17,24,28,14,19,20
17:04:00,18,25,16,22,20,24,10,20,19
17:05:00,25,20,24,22,18,12,5,22,18
17:06:00,14,22,20,26,25,23,17,21,21
17:07:00,25,25,23,27,24,21,18,25,23
17:08:00,18,26,26,21,22,24,16,23,22
17:09:00,14,23,24,20,25,14,9,21,18
17:10:00,21,26,27,23,19,27,12,23,22
17:11:00,26,17,17,15,18,18,7,19,17
17:12:00,11,20,24,23,17,13,13,19,17
17:13:00,22,15,21,21,22,17,9,20,18
17:14:00,11,24,18,21,15,22,11,18,17
17:15:00,16,21,11,12,19,14,7,16,14
17:16:00,15,21,9,17,26,19,19,18,18
17:17:00,14,15,14,14,15,19,5,14,14
17:18:00,21,20,19,17,14,17,13,18,17
17:19:00,24,23,17,23,22,16,11,22,19
17:20:00,20,19,23,25,23,23,15,22,21
17:21:00,16,19,23,21,20,12,12,20,18
17:22:00,20,16,20,28,31,13,9,23,20
17:23:00,18,14,20,18,21,13,12,18,17
17:24:00,20,23,18,28,20,12,13,22,19
17:25:00,18,12,22,22,12,14,12,17,16
17:26:00,19,23,23,18,27,17,16,22,20
17:27:00,24,12,21,20,21,18,12,20,18
17:28:00,23,22,27,17,23,18,13,22,20
17:29:00,25,22,16,19,19,17,15,20,19
17:30:00,28,20,25,16,27,16,12,23,21
17:31:00,18,17,16,22,22,16,11,19,17
17:32:00,10,18,13,26,14,17,15,16,16
17:33:00,20,20,22,20,26,12,15,22,19
17:34:00,15,24,21,27,19,14,13,21,19
17:35:00,18,16,25,22,35,20,14,23,21
17:36:00,24,17,23,15,20,19,10,20,18
17:37:00,25,17,20,24,21,15,12,21,19
17:38:00,24,14,27,15,26,14,9,21,18
17:39:00,24,27,25,12,27,16,12,23,20
17:40:00,21,21,17,29,23,14,15,22,20
17:41:00,26,28,25,18,17,17,15,23,21
17:42:00,24,19,23,14,26,20,13,21,20
17:43:00,26,23,19,30,16,15,14,23,20
17:44:00,18,26,25,13,22,20,8,21,19
17:45:00,28,25,28,28,25,13,9,27,22
17:46:00,26,24,21,8,24,21,15,21,20
17:47:00,23,18,13,20,19,19,16,19,18
17:48:00,25,23,21,28,10,14,13,21,19
17:49:00,22,31,18,21,20,16,16,22,21
17:50:00,26,17,23,21,16,20,14,21,20
17:51:00,18,25,22,24,19,15,14,22,20
17:52:00,17,25,21,29,21,16,13,23,20
17:53:00,27,24,25,17,16,13,5,22,18
17:54:00,21,26,26,26,21,15,12,24,21
17:55:00,18,18,26,22,20,17,14,21,19
17:56:00,23,21,26,19,18,19,14,21,20
17:57:00,20,22,33,21,19,16,9,23,20
17:58:00,13,24,23,27,16,18,9,21,19
17:59:00,17,20,18,13,17,20,16,17,17
18:00:00,20,25,13,25,17,11,8,20,17
18:01:00,29,20,23,27,24,13,7,25,20
18:02:00,21,16,24,20,20,21,10,20,19
18:03:00,20,23,16,17,21,18,18,19,19
18:04:00,19,24,32,16,16,18,17,21,20
18:05:00,15,24,27,30,27,15,9,25,21
18:06:00,22,14,29,16,18,10,6,20,16
18:07:00,24,18,27,35,20,17,12,25,22
18:08:00,14,20,19,19,28,13,10,20,18
18:09:00,18,24,34,25,18,18,13,24,21
18:10:00,21,24,24,26,26,13,10,24,21
18:11:00,25,25,13,27,21,10,12,22,19
18:12:00,19,24,21,25,22,18,11,22,20
18:13:00,20,21,25,18,24,10,4,22,17
18:14:00,17,20,21,21,20,11,15,20,18
18:15:00,18,15,20,17,21,13,14,18,17
18:16:00,22,25,8,20,23,14,12,20,18
18:17:00,18,23,16,18,23,13,10,20,17
18:18:00,17,30,16,16,22,16,7,20,18
18:19:00,22,22,9,20,19,11,11,18,16
18:20:00,18,17,34,15,18,15,14,20,19
18:21:00,15,23,20,20,16,23,12,19,18
18:22:00,13,15,17,22,23,12,16,18,17
18:23:00,22,26,25,20,26,13,13,24,21
18:24:00,18,16,26,20,18,15,10,20,18
18:25:00,13,14,23,23,17,17,15,18,17
18:26:00,17,19,17,18,25,13,15,19,18
18:27:00,21,20,21,17,24,16,8,21,18
18:28:00,17,19,24,18,24,11,8,20,17
18:29:00,20,22,29,24,24,7,13,24,20
18:30:00,19,17,12,19,21,18,11,18,17
18:31:00,7,16,19,26,11,8,8,16,14
18:32:00,18,23,14,21,15,17,11,18,17
18:33:00,15,23,20,20,29,11,13,21,19
18:34:00,24,17,17,14,17,18,5,18,16
18:35:00,22,15,21,20,16,12,14,19,17
18:36:00,12,18,19,23,18,9,11,18,16
18:37:00,18,20,18,21,11,18,7,18,16
18:38:00,14,20,17,25,16,13,12,18,17
18:39:00,10,18,16,17,17,11,12,16,14
18:40:00,21,14,23,17,23,21,20,20,20
18:41:00,19,20,15,21,20,13,5,19,16
18:42:00,20,13,15,24,21,13,19,19,18
18:43:00,16,20,12,21,19,9,8,18,15
18:44:00,22,17,14,25,21,14,17,20,19
18:45:00,21,21,16,17,11,8,15,17,16
18:46:00,15,21,36,23,18,20,11,23,21
18:47:00,13,20,18,19,21,14,14,18,17
18:48:00,17,13,23,23,18,22,11,19,18
18:49:00,17,18,29,23,20,18,11,21,19
18:50:00,15,21,15,11,16,14,6,16,14
18:51:00,22,17,14,20,14,18,7,17,16
18:52:00,22,18,18,24,20,11,12,20,18
18:53:00,20,20,18,15,22,15,13,19,18
18:54:00,22,20,25,21,20,17,13,22,20
18:55:00,16,18,22,15,14,15,7,17,15
18:56:00,16,26,19,28,17,19,12,21,20
18:57:00,18,20,13,28,17,17,10,19,18
18:58:00,23,10,29,12,15,12,9,18,16
18:59:00,18,13,22,32,17,14,7,20,18
19:00:00,17,15,18,23,19,16,18,18,18
19:01:00,19,18,21,25,30,13,8,23,19
19:02:00,11,19,14,21,11,9,14,15,14
19:03:00,16,19,20,22,28,12,17,21,19
19:04:00,14,16,18,21,17,18,5,17,16
19:05:00,14,12,30,24,22,16,15,20,19
19:06:00,29,22,24,27,24,13,13,25,22
19:07:00,17,22,19,18,17,10,10,19,16
19:08:00,18,26,24,21,16,13,17,21,19
19:09:00,18,24,27,23,25,15,14,23,21
19:10:00,22,21,16,31,12,12,11,20,18
19:11:00,26,19,22,15,23,12,11,21,18
19:12:00,20,21,17,27,26,12,7,22,19
19:13:00,24,19,26,29,20,20,6,24,21
19:14:00,15,20,21,32,17,16,8,21,18
19:15:00,30,16,24,11,32,13,16,23,20
19:16:00,21,20,14,27,19,13,14,20,18
19:17:00,19,24,10,16,18,13,10,17,16
19:18:00,21,19,19,19,18,16,15,19,18
19:19:00,22,23,15,31,17,11,14,22,19
19:20:00,13,30,25,19,22,17,7,22,19
19:21:00,23,28,13,29,15,8,14,22,19
19:22:00,13,15,20,20,21,18,10,18,17
19:23:00,23,24,21,25,17,9,20,22,20
19:24:00,15,22,21,12,21,14,7,18,16
19:25:00,12,10,18,21,13,18,16,15,15
19:26:00,16,24,19,16,17,7,10,18,16
19:27:00,16,16,15,20,18,12,12,17,16
19:28:00,23,20,9,21,17,13,11,18,16
19:29:00,9,13,27,16,12,6,8,15,13
19:30:00,18,21,19,13,17,15,7,18,16
19:31:00,10,16,17,18,11,10,10,14,13
19:32:00,25,10,15,18,13,18,13,16,16
19:33:00,14,23,13,17,15,18,9,16,16
19:34:00,17,21,24,17,15,13,13,19,17
19:35:00,18,14,23,17,17,17,12,18,17
19:36:00,19,23,17,14,13,7,11,17,15
19:37:00,14,14,19,18,5,10,10,14,13
19:38:00,24,19,15,27,15,9,11,20,17
19:39:00,13,16,12,18,20,15,11,16,15
19:40:00,7,15,22,17,16,12,6,15,14
19:41:00,15,18,21,18,17,12,7,18,15
19:42:00,13,16,23,24,14,10,16,18,17
19:43:00,14,20,18,19,8,8,12,16,14
19:44:00,19,16,15,21,14,10,13,17,15
19:45:00,13,18,12,11,16,8,8,14,12
19:46:00,13,15,17,15,17,11,12,15,14
19:47:00,12,22,29,14,18,8,4,19,15
19:48:00,12,18,12,17,10,11,16,14,14
19:49:00,14,15,20,20,13,7,9,16,14
19:50:00,12,16,21,23,14,14,7,17,15
19:51:00,13,16,17,16,12,8,7,15,13
19:52:00,12,13,12,15,10,10,17,12,13
19:53:00,14,18,13,12,12,13,7,14,13
19:54:00,13,19,15,15,14,16,9,15,14
19:55:00,13,18,19,16,10,12,8,15,14
19:56:00,9,18,21,16,13,12,3,15,13
19:57:00,9,17,21,10,14,10,6,14,12
19:58:00,14,17,9,19,13,13,7,14,13
19:59:00,15,10,20,12,13,16,12,14,14
20:00:00,11,18,18,10,11,10,7,14,12
20:01:00,12,14,26,14,15,13,8,16,15
20:02:00,12,15,21,15,6,16,10,14,14
20:03:00,17,24,10,13,17,5,9,16,14
20:04:00,13,16,11,12,10,17,10,12,13
20:05:00,13,25,6,15,15,8,9,15,13
20:06:00,9,17,17,16,18,15,8,15,14
20:07:00,10,19,16,13,15,11,16,15,14
20:08:00,22,14,24,12,23,17,16,19,18
20:09:00,16,17,16,11,17,14,13,15,15
20:10:00,14,11,16,21,18,14,15,16,16
20:11:00,19,13,15,17,20,8,9,17,14
20:12:00,24,26,23,21,20,7,11,23,19
20:13:00,12,15,17,18,15,13,9,15,14
20:14:00,20,15,24,22,12,11,19,19,18
20:15:00,14,11,19,15,16,13,9,15,14
20:16:00,11,14,21,12,9,13,12,13,13
20:17:00,14,14,15,18,9,9,9,14,13
20:18:00,8,14,16,21,19,7,7,16,13
20:19:00,12,9,17,26,16,12,14,16,15
20:20:00,9,8,10,16,12,9,7,11,10
20:21:00,15,15,14,17,13,13,12,15,14
20:22:00,10,14,17,12,15,9,9,14,12
20:23:00,13,9,13,14,25,9,10,15,13
20:24:00,8,10,13,13,11,16,16,11,12
20:25:00,10,12,13,5,17,9,5,11,10
20:26:00,17,10,16,11,16,5,5,14,11
20:27:00,9,12,11,13,14,10,5,12,11
20:28:00,4,15,14,6,13,6,4,10,9
20:29:00,13,16,12,12,14,12,11,13,13
20:30:00,6,7,15,13,10,10,4,10,9
20:31:00,8,7,15,2,11,13,9,9,9
20:32:00,8,14,12,8,10,6,3,10,9
20:33:00,8,7,12,13,5,10,10,9,9
20:34:00,6,14,16,14,7,6,7,11,10
20:35:00,15,12,7,14,7,13,5,11,10
20:36:00,11,8,6,5,11,6,4,8,7
20:37:00,7,6,5,10,16,6,6,9,8
20:38:00,9,8,5,9,17,11,8,10,10
20:39:00,13,16,5,8,8,4,4,10,8
20:40:00,17,8,18,13,14,5,6,14,12
20:41:00,12,6,10,10,8,5,5,9,8
20:42:00,12,10,11,13,10,7,8,11,10
20:43:00,12,15,11,9,10,9,14,11,11
20:44:00,9,3,13,13,14,4,8,10,9
20:45:00,8,12,6,10,14,10,8,10,10
20:46:00,6,8,12,7,7,8,10,8,8
20:47:00,12,4,4,5,11,7,7,7,7
20:48:00,11,10,10,8,14,5,7,11,9
20:49:00,13,9,4,8,7,10,5,8,8
20:50:00,12,10,15,12,9,8,3,12,10
20:51:00,9,6,11,13,8,6,12,9,9
20:52:00,3,6,9,9,8,5,7,7,7
20:53:00,7,9,9,4,13,4,8,8,8
20:54:00,8,9,9,13,7,13,7,9,9
20:55:00,11,10,7,9,11,6,3,10,8
20:56:00,3,6,6,9,10,3,4,7,6
20:57:00,8,7,10,8,10,8,2,9,8
20:58:00,10,6,5,8,7,11,2,7,7
20:59:00,5,4,6,10,9,7,7,7,7
21:00:00,6,5,9,3,11,4,2,7,6
21:01:00,3,5,12,5,5,11,4,6,6
21:02:00,8,5,11,11,13,9,7,10,9
21:03:00,9,5,6,12,13,5,7,9,8
21:04:00,7,7,9,8,7,8,7,8,8
21:05:00,7,8,12,9,11,10,3,9,9
21:06:00,8,8,7,12,9,3,10,9,8
21:07:00,7,9,9,7,11,13,2,9,8
21:08:00,11,14,13,9,5,6,4,10,9
21:09:00,8,14,18,9,8,7,5,11,10
21:10:00,10,7,12,7,12,5,7,10,9
21:11:00,11,8,9,10,9,5,6,9,8
21:12:00,5,9,10,11,7,13,9,8,9
21:13:00,10,7,16,14,15,5,8,12,11
21:14:00,11,12,8,7,8,7,7,9,9
21:15:00,11,10,8,7,8,4,9,9,8
21:16:00,11,12,13,12,9,8,2,11,10
21:17:00,7,15,17,6,9,1,5,11,9
21:18:00,8,7,7,8,7,8,8,7,8
21:19:00,6,9,8,7,5,5,7,7,7
21:20:00,6,12,4,5,9,7,8,7,7
21:21:00,6,8,12,6,7,7,5,8,7
21:22:00,12,7,8,9,5,5,5,8,7
21:23:00,3,9,7,6,5,6,3,6,6
21:24:00,9,5,15,10,6,7,5,9,8
21:25:00,5,9,6,8,7,3,5,7,6
21:26:00,7,9,13,7,12,6,4,10,8
21:27:00,8,4,8,12,5,8,5,7,7
21:28:00,5,4,10,5,5,5,7,6,6
21:29:00,2,8,5,9,5,4,4,6,5
21:30:00,8,8,11,12,6,1,7,9,8
21:31:00,5,9,9,10,7,6,6,8,7
21:32:00,7,9,4,6,6,6,6,6,6
21:33:00,4,8,9,10,7,5,2,8,6
21:34:00,6,5,8,10,4,7,7,7,7
21:35:00,6,11,6,7,6,5,4,7,6
21:36:00,7,7,6,8,6,5,1,7,6
21:37:00,9,12,5,7,7,8,10,8,8
21:38:00,7,5,10,11,5,12,3,8,8
21:39:00,8,11,8,8,2,3,6,7,7
21:40:00,5,8,7,10,4,4,7,7,6
21:41:00,4,9,9,6,4,3,2,6,5
21:42:00,3,12,10,12,8,9,4,9,8
21:43:00,6,7,12,9,7,5,3,8,7
21:44:00,6,3,10,9,7,3,2,7,6
21:45:00,3,9,3,12,8,9,7,7,7
21:46:00,3,7,5,7,6,5,1,6,5
21:47:00,3,9,7,9,7,6,3,7,6
21:48:00,9,5,13,9,4,2,8,8,7
21:49:00,8,9,10,8,8,5,5,9,8
21:50:00,6,5,4,12,9,2,5,7,6
21:51:00,4,6,10,7,6,4,3,7,6
21:52:00,11,4,13,4,7,8,4,8,7
21:53:00,6,6,6,3,6,3,4,5,5
21:54:00,6,10,8,6,10,4,8,8,7
21:55:00,2,4,5,6,9,5,3,5,5
21:56:00,3,9,7,7,7,6,2,7,6
21:57:00,4,4,8,5,7,9,5,6,6
21:58:00,3,5,6,3,5,5,3,4,4
21:59:00,8,4,7,5,1,12,4,5,6
22:00:00,6,9,11,8,10,5,3,9,7
22:01:00,4,9,6,7,7,8,4,7,6
22:02:00,5,8,8,4,5,5,5,6,6
22:03:00,1,5,6,4,6,3,7,4,5
22:04:00,7,8,3,6,8,5,4,6,6
22:05:00,7,5,7,1,5,5,5,5,5
22:06:00,8,6,4,1,6,7,4,5,5
22:07:00,3,7,10,10,5,4,3,7,6
22:08:00,8,9,11,13,7,6,5,10,8
22:09:00,11,8,4,6,8,7,5,7,7
22:10:00,7,9,7,8,9,2,5,8,7
22:11:00,5,6,7,3,8,5,6,6,6
22:12:00,6,6,9,5,4,8,6,6,6
22:13:00,3,12,8,5,8,9,9,7,8
22:14:00,10,8,10,6,6,7,5,8,7
22:15:00,12,8,9,6,7,6,5,8,8
22:16:00,3,6,2,5,5,6,4,4,4
22:17:00,8,2,3,7,5,4,1,5,4
22:18:00,6,6,5,9,7,3,6,7,6
22:19:00,2,5,9,6,5,6,3,5,5
22:20:00,7,6,3,6,8,7,2,6,6
22:21:00,6,7,6,6,4,11,4,6,6
22:22:00,6,3,5,5,7,6,5,5,5
22:23:00,6,7,6,6,8,7,3,7,6
22:24:00,7,5,8,6,1,5,2,5,5
22:25:00,4,9,6,5,7,4,4,6,6
22:26:00,9,6,5,11,8,2,2,8,6
22:27:00,7,5,4,1,2,7,2,4,4
22:28:00,4,4,6,5,11,6,4,6,6
22:29:00,1,11,5,4,3,4,3,5,4
22:30:00,5,8,3,5,3,4,3,5,4
22:31:00,2,12,6,3,4,2,4,5,5
22:32:00,5,8,4,3,9,2,4,6,5
22:33:00,2,5,7,5,6,9,5,5,6
22:34:00,2,4,2,5,6,6,3,4,4
22:35:00,3,2,5,6,7,5,1,5,4
22:36:00,4,7,4,1,4,6,1,4,4
22:37:00,3,5,4,2,1,3,3,3,3
22:38:00,2,1,3,9,4,7,2,4,4
22:39:00,4,6,4,4,5,5,1,5,4
22:40:00,2,9,6,2,8,3,1,5,4
22:41:00,3,1,2,2,5,4,4,3,3
22:42:00,4,3,6,5,4,7,1,4,4
22:43:00,4,6,1,9,2,5,2,4,4
22:44:00,5,1,3,5,6,3,2,4,4
22:45:00,3,4,2,3,9,6,2,4,4
22:46:00,4,3,3,5,4,8,2,4,4
22:47:00,3,6,0,2,4,2,2,3,3
22:48:00,4,3,3,3,7,7,0,4,4
22:49:00,3,1,7,4,7,3,3,4,4
22:50:00,4,4,6,4,4,0,1,4,3
22:51:00,2,4,3,2,7,3,3,4,3
22:52:00,2,2,2,5,6,3,3,3,3
22:53:00,2,2,6,3,6,0,1,4,3
22:54:00,5,3,7,4,2,6,1,4,4
22:55:00,3,2,1,8,3,4,4,3,4
22:56:00,4,4,3,4,6,4,4,4,4
22:57:00,2,3,5,5,5,6,4,4,4
22:58:00,3,2,3,3,8,8,2,4,4
22:59:00,2,2,2,3,2,7,8,2,4
23:00:00,4,4,1,1,7,3,0,3,3
23:01:00,3,3,2,4,2,6,1,3,3
23:02:00,1,1,4,3,2,8,2,2,3
23:03:00,1,3,2,0,5,8,2,2,3
23:04:00,8,3,5,1,4,9,2,4,5
23:05:00,1,2,3,2,8,7,3,3,4
23:06:00,4,2,3,0,6,5,5,3,4
23:07:00,5,5,3,5,4,7,0,4,4
23:08:00,3,2,4,3,7,4,6,4,4
23:09:00,3,5,3,7,2,8,3,4,4
23:10:00,2,0,4,4,3,5,1,3,3
23:11:00,3,7,2,3,6,10,2,4,5
23:12:00,4,3,3,4,5,6,6,4,4
23:13:00,1,1,1,3,3,4,3,2,2
23:14:00,1,3,2,2,7,7,2,3,3
23:15:00,3,3,2,2,3,7,3,3,3
23:16:00,2,1,2,3,8,4,1,3,3
23:17:00,0,3,3,4,7,5,2,3,3
23:18:00,4,4,2,2,4,6,4,3,4
23:19:00,5,3,4,1,2,1,2,3,3
23:20:00,2,1,1,2,2,4,4,2,2
23:21:00,2,7,4,4,4,8,0,4,4
23:22:00,4,6,2,2,1,7,2,3,3
23:23:00,8,1,4,2,7,4,2,4,4
23:24:00,1,2,3,2,3,4,2,2,2
23:25:00,2,4,2,8,4,7,3,4,4
23:26:00,5,2,2,6,1,6,3,3,4
23:27:00,1,4,1,3,4,4,4,3,3
23:28:00,3,4,5,1,11,6,0,5,4
23:29:00,2,4,3,1,8,2,1,4,3
23:30:00,2,2,3,1,8,4,4,3,3
23:31:00,1,1,2,0,1,1,3,1,1
23:32:00,4,4,4,1,6,3,1,4,3
23:33:00,2,3,2,1,5,5,2,3,3
23:34:00,2,3,1,0,2,3,1,2,2
23:35:00,1,0,1,5,2,5,1,2,2
23:36:00,3,2,3,2,1,3,2,2,2
23:37:00,2,0,3,4,4,5,1,3,3
23:38:00,1,2,2,2,4,3,1,2,2
23:39:00,3,4,2,2,4,5,0,3,3
23:40:00,0,1,2,1,1,5,3,1,2
23:41:00,2,2,3,4,2,8,2,3,3
23:42:00,1,3,1,3,3,6,1,2,3
23:43:00,1,1,1,0,6,3,2,2,2
23:44:00,1,2,4,1,5,7,0,3,3
23:45:00,0,3,3,1,3,6,2,2,3
23:46:00,1,0,5,1,4,4,3,2,3
23:47:00,2,1,1,0,5,3,1,2,2
23:48:00,3,2,0,3,7,6,4,3,4
23:49:00,2,3,2,0,4,1,3,2,2
23:50:00,0,2,3,3,4,3,2,2,2
23:51:00,2,1,3,3,3,4,2,2,3
23:52:00,4,0,1,1,3,4,0,2,2
23:53:00,2,0,1,1,6,7,2,2,3
23:54:00,3,0,1,2,3,4,0,2,2
23:55:00,1,3,6,1,1,4,3,2,3
23:56:00,4,2,2,3,5,1,1,3,3
23:57:00,1,1,3,2,2,4,3,2,2
23:58:00,0,4,1,1,1,5,1,1,2
23:59:00,0,2,1,0,2,3,4,1,2
,,,,,,,,,
Totals,,,,,,,,,
12H(7-19),15340,15875,15738,15869,15438,12842,9206,15652,14330
16H(6-22),17850,18622,18609,18690,17979,14720,10878,18350,16764
18H(6-24),18264,19097,19064,19123,18570,15325,11207,18824,17236
24H(0-24),18639,19472,19465,19525,18954,15735,11748,19211,17648
,,,,,,,,,
AM Peak,10:13:00,08:53:00,08:14:00,10:08:00,10:59:00,09:51:00,10:53:00,08:53:00,09:55:00
,1413,1423,1430,1434,1400,1282,1025,1364,1276
,,,,,,,,,
PM Peak,13:13:00,15:11:00,13:18:00,15:01:00,13:04:00,12:58:00,12:00:00,13:20:00,13:14:00
,1413,1467,1457,1449,1449,1397,1071,1420,1336
,,,,,,,,,
,,,,,,,,,
CA Traffic,,,,,,,,,VDA-net R2 26/05/2020
