Site Number,00008024,Unnamed: 2,Site Reference,00008024.1,Unnamed: 5,Unnamed: 6,Lat/Lng.,"52.06240,1.19338",Unnamed: 9
Radar 8024 Colchester Road Ipswich,,,,,,,,,
Vehicle Count Report,,,,Week Begin: 30 December 2019,,,Channel:,Total Flow,
,,,,,,,,,
,,,,,,,,,
,2019-12-30 00:00:00,2019-12-31 00:00:00,2020-01-01 00:00:00,2020-01-02 00:00:00,2020-01-03 00:00:00,2020-01-04 00:00:00,2020-01-05 00:00:00,"5-Day
Ave.","7-Day
Ave."
00:00:00,0,4,3,2,0,0,6,2,2
00:01:00,4,3,1,0,0,3,4,2,2
00:02:00,0,1,0,1,2,2,6,1,2
00:03:00,2,0,5,1,2,1,4,2,2
00:04:00,1,0,0,3,0,4,4,1,2
00:05:00,2,3,1,1,0,2,4,1,2
00:06:00,2,4,1,1,4,5,5,2,3
00:07:00,2,3,0,0,2,4,3,1,2
00:08:00,3,0,1,4,1,3,2,2,2
00:09:00,2,4,2,1,2,2,2,2,2
00:10:00,2,6,6,0,3,6,1,3,3
00:11:00,2,1,3,2,5,3,3,3,3
00:12:00,0,2,0,0,3,2,2,1,1
00:13:00,3,3,3,0,2,3,2,2,2
00:14:00,2,4,6,4,3,2,4,4,4
00:15:00,0,2,5,1,0,0,5,2,2
00:16:00,4,3,0,2,0,3,5,2,2
00:17:00,0,0,5,1,2,3,3,2,2
00:18:00,3,1,11,0,1,1,1,3,3
00:19:00,1,3,8,3,2,3,5,3,4
00:20:00,2,2,10,2,3,3,7,4,4
00:21:00,1,1,9,1,2,4,5,3,3
00:22:00,1,2,8,3,1,2,4,3,3
00:23:00,0,1,13,3,2,1,1,4,3
00:24:00,0,1,13,2,3,2,4,4,4
00:25:00,1,1,7,1,0,3,1,2,2
00:26:00,3,1,11,0,1,2,0,3,3
00:27:00,2,1,10,3,0,1,1,3,3
00:28:00,1,1,17,1,4,2,9,5,5
00:29:00,1,3,9,0,0,1,4,3,3
00:30:00,2,2,11,1,2,1,9,4,4
00:31:00,2,4,10,0,0,2,0,3,3
00:32:00,2,1,14,2,0,4,5,4,4
00:33:00,3,0,13,2,0,1,1,4,3
00:34:00,2,3,6,0,2,4,2,3,3
00:35:00,1,2,9,2,1,2,5,3,3
00:36:00,0,0,8,0,0,1,0,2,1
00:37:00,1,0,10,1,2,0,4,3,3
00:38:00,2,1,7,1,3,0,2,3,2
00:39:00,0,1,8,0,1,0,3,2,2
00:40:00,2,1,9,2,1,0,1,3,2
00:41:00,1,1,10,0,1,2,1,3,2
00:42:00,0,2,10,0,2,0,3,3,2
00:43:00,1,0,11,0,0,0,4,2,2
00:44:00,4,1,3,1,1,2,1,2,2
00:45:00,1,0,10,0,3,0,3,3,2
00:46:00,0,3,7,0,1,1,4,2,2
00:47:00,0,2,8,0,1,2,3,2,2
00:48:00,0,0,6,1,1,0,2,2,1
00:49:00,1,1,12,0,0,1,3,3,3
00:50:00,1,0,11,1,1,1,1,3,2
00:51:00,2,1,3,1,3,2,0,2,2
00:52:00,3,2,11,2,0,0,0,4,3
00:53:00,1,2,12,0,3,0,2,4,3
00:54:00,1,0,4,1,2,1,3,2,2
00:55:00,1,0,11,0,2,2,0,3,2
00:56:00,2,1,14,0,1,1,0,4,3
00:57:00,3,0,6,1,0,3,1,2,2
00:58:00,1,0,9,1,1,0,1,2,2
00:59:00,0,1,11,0,0,2,1,2,2
01:00:00,0,0,1,2,0,1,1,1,1
01:01:00,1,1,10,1,0,1,1,3,2
01:02:00,1,0,4,0,1,2,4,1,2
01:03:00,1,0,8,0,1,1,3,2,2
01:04:00,2,1,4,1,2,3,0,2,2
01:05:00,0,0,7,1,1,0,0,2,1
01:06:00,2,0,6,0,0,0,3,2,2
01:07:00,0,0,8,0,0,0,4,2,2
01:08:00,2,1,11,0,1,1,2,3,3
01:09:00,0,0,6,0,0,1,2,1,1
01:10:00,0,1,7,0,1,1,1,2,2
01:11:00,1,1,8,0,0,1,1,2,2
01:12:00,0,0,12,0,1,0,5,3,3
01:13:00,0,0,8,1,0,0,0,2,1
01:14:00,1,1,5,0,1,2,2,2,2
01:15:00,1,0,8,0,0,0,2,2,2
01:16:00,1,0,7,0,0,2,0,2,1
01:17:00,3,0,5,0,2,0,2,2,2
01:18:00,0,0,6,0,2,1,0,2,1
01:19:00,1,0,13,0,2,1,0,3,2
01:20:00,1,0,11,0,0,0,2,2,2
01:21:00,1,1,5,1,0,1,3,2,2
01:22:00,0,0,8,0,1,1,0,2,1
01:23:00,1,0,5,0,1,3,3,1,2
01:24:00,0,2,5,0,0,1,2,1,1
01:25:00,1,1,2,2,1,0,0,1,1
01:26:00,1,1,10,0,0,0,0,2,2
01:27:00,0,0,6,0,1,2,0,1,1
01:28:00,1,1,8,1,1,0,0,2,2
01:29:00,3,1,7,1,1,2,2,3,2
01:30:00,1,0,6,1,0,0,1,2,1
01:31:00,0,3,8,1,0,0,1,2,2
01:32:00,0,0,4,0,1,3,0,1,1
01:33:00,0,2,9,3,1,0,1,3,2
01:34:00,1,0,7,0,3,1,0,2,2
01:35:00,0,0,5,0,0,2,1,1,1
01:36:00,1,0,4,0,1,0,0,1,1
01:37:00,0,1,0,0,0,2,0,0,0
01:38:00,1,1,5,1,0,0,2,2,1
01:39:00,2,0,8,0,2,1,3,2,2
01:40:00,0,0,8,0,1,2,1,2,2
01:41:00,2,2,4,0,0,4,0,2,2
01:42:00,0,1,1,1,0,2,1,1,1
01:43:00,0,0,3,1,0,1,1,1,1
01:44:00,2,0,4,1,1,0,1,2,1
01:45:00,0,1,2,0,0,1,1,1,1
01:46:00,1,1,4,0,0,0,1,1,1
01:47:00,0,2,4,2,1,2,0,2,2
01:48:00,2,1,3,1,1,1,0,2,1
01:49:00,1,0,4,0,0,1,0,1,1
01:50:00,0,1,5,1,2,1,1,2,2
01:51:00,0,0,3,0,1,1,3,1,1
01:52:00,2,0,4,0,0,0,0,1,1
01:53:00,2,0,9,1,1,1,1,3,2
01:54:00,1,0,5,0,1,1,0,1,1
01:55:00,0,0,3,0,0,0,1,1,1
01:56:00,0,0,5,0,0,2,0,1,1
01:57:00,2,0,3,0,2,0,1,1,1
01:58:00,0,0,6,0,0,2,0,1,1
01:59:00,2,0,7,0,0,1,1,2,2
02:00:00,0,0,2,0,0,0,1,0,0
02:01:00,0,0,2,1,1,2,0,1,1
02:02:00,0,2,4,0,0,1,0,1,1
02:03:00,0,0,2,0,0,2,1,0,1
02:04:00,0,1,7,0,0,0,2,2,1
02:05:00,1,1,2,0,0,1,1,1,1
02:06:00,2,0,3,0,0,1,0,1,1
02:07:00,0,0,6,0,2,0,0,2,1
02:08:00,0,0,7,0,0,0,0,1,1
02:09:00,0,2,3,0,0,2,1,1,1
02:10:00,2,0,1,0,2,2,2,1,1
02:11:00,3,0,6,1,0,1,1,2,2
02:12:00,1,0,4,0,0,1,3,1,1
02:13:00,1,0,1,0,1,1,2,1,1
02:14:00,1,2,3,0,0,1,0,1,1
02:15:00,0,1,1,0,1,0,2,1,1
02:16:00,0,0,0,0,0,5,0,0,1
02:17:00,0,0,2,0,0,1,2,0,1
02:18:00,0,0,2,0,0,1,2,0,1
02:19:00,0,0,4,0,1,0,0,1,1
02:20:00,1,0,1,0,1,0,0,1,0
02:21:00,0,1,4,2,0,0,0,1,1
02:22:00,1,1,6,1,2,0,1,2,2
02:23:00,0,1,2,1,0,0,1,1,1
02:24:00,0,1,3,0,2,0,0,1,1
02:25:00,1,2,6,1,0,0,0,2,1
02:26:00,2,0,3,0,1,1,0,1,1
02:27:00,0,1,2,1,0,1,0,1,1
02:28:00,0,0,2,0,0,1,1,0,1
02:29:00,0,1,0,2,2,0,1,1,1
02:30:00,1,1,1,0,3,0,0,1,1
02:31:00,0,4,4,0,0,0,0,2,1
02:32:00,0,0,6,0,0,2,1,1,1
02:33:00,0,0,1,0,1,2,0,0,1
02:34:00,0,2,1,0,1,0,1,1,1
02:35:00,0,0,3,0,1,1,1,1,1
02:36:00,0,0,3,0,1,1,1,1,1
02:37:00,3,1,3,0,2,0,2,2,2
02:38:00,0,0,3,0,0,2,0,1,1
02:39:00,1,1,2,1,2,1,1,1,1
02:40:00,0,2,4,0,0,1,0,1,1
02:41:00,0,1,2,0,0,0,1,1,1
02:42:00,0,0,5,3,0,1,1,2,1
02:43:00,1,1,1,1,1,0,3,1,1
02:44:00,0,0,0,1,1,1,1,0,1
02:45:00,1,1,2,0,1,0,0,1,1
02:46:00,0,0,2,1,0,1,2,1,1
02:47:00,0,0,1,0,1,1,2,0,1
02:48:00,1,0,5,0,0,1,4,1,2
02:49:00,0,2,4,0,1,0,2,1,1
02:50:00,0,0,2,0,0,0,0,0,0
02:51:00,1,0,1,0,1,0,1,1,1
02:52:00,0,0,2,0,0,0,1,0,0
02:53:00,2,0,4,1,0,0,2,1,1
02:54:00,0,0,1,1,0,1,0,0,0
02:55:00,1,1,0,0,1,1,0,1,1
02:56:00,2,0,2,0,0,0,0,1,1
02:57:00,0,0,5,0,1,0,0,1,1
02:58:00,1,0,0,0,0,1,2,0,1
02:59:00,0,0,1,0,0,0,0,0,0
03:00:00,0,1,0,0,0,0,0,0,0
03:01:00,0,0,0,0,0,0,0,0,0
03:02:00,1,1,1,0,1,0,0,1,1
03:03:00,0,1,0,1,1,2,1,1,1
03:04:00,1,0,0,0,1,0,0,0,0
03:05:00,0,0,0,0,0,0,0,0,0
03:06:00,0,0,1,0,0,1,0,0,0
03:07:00,0,2,2,1,0,0,0,1,1
03:08:00,0,0,0,0,0,0,0,0,0
03:09:00,0,0,1,0,0,1,1,0,0
03:10:00,0,0,1,0,1,0,1,0,0
03:11:00,0,1,1,0,0,0,0,0,0
03:12:00,0,2,2,0,0,0,2,1,1
03:13:00,0,0,3,0,0,1,1,1,1
03:14:00,0,0,1,1,0,0,1,0,0
03:15:00,1,0,1,0,0,0,0,0,0
03:16:00,0,0,2,0,0,0,0,0,0
03:17:00,0,0,1,1,1,0,0,1,0
03:18:00,0,0,0,0,0,0,1,0,0
03:19:00,0,0,2,0,1,0,0,1,0
03:20:00,1,0,2,0,0,0,0,1,0
03:21:00,0,0,0,1,1,0,0,0,0
03:22:00,0,0,3,0,1,0,0,1,1
03:23:00,0,0,1,2,0,0,1,1,1
03:24:00,0,0,1,0,0,1,0,0,0
03:25:00,1,1,1,1,0,0,0,1,1
03:26:00,0,0,2,0,0,0,1,0,0
03:27:00,1,1,1,0,0,0,0,1,0
03:28:00,0,0,0,0,0,1,1,0,0
03:29:00,1,1,1,1,0,2,1,1,1
03:30:00,2,0,0,1,1,0,0,1,1
03:31:00,0,0,0,2,2,0,3,1,1
03:32:00,3,0,1,1,1,0,0,1,1
03:33:00,0,0,1,0,1,0,0,0,0
03:34:00,1,3,1,0,0,0,1,1,1
03:35:00,0,0,0,0,1,1,1,0,0
03:36:00,1,1,2,0,1,0,1,1,1
03:37:00,1,0,0,1,0,0,0,0,0
03:38:00,1,0,0,1,2,0,0,1,1
03:39:00,0,1,2,0,1,0,2,1,1
03:40:00,0,0,0,0,0,0,0,0,0
03:41:00,0,0,2,0,1,3,0,1,1
03:42:00,0,0,1,1,0,0,0,0,0
03:43:00,0,0,0,0,2,1,2,0,1
03:44:00,0,0,1,1,1,0,0,1,0
03:45:00,1,0,4,0,0,0,0,1,1
03:46:00,0,0,1,0,0,1,0,0,0
03:47:00,1,0,0,1,3,1,0,1,1
03:48:00,0,1,0,0,0,0,0,0,0
03:49:00,1,0,4,0,1,0,0,1,1
03:50:00,0,2,2,0,0,1,1,1,1
03:51:00,0,2,3,1,2,3,0,2,2
03:52:00,0,0,0,1,0,0,2,0,0
03:53:00,2,1,1,1,2,1,2,1,1
03:54:00,1,1,1,1,0,0,2,1,1
03:55:00,0,1,3,1,0,0,1,1,1
03:56:00,1,0,1,2,1,0,1,1,1
03:57:00,0,1,0,0,1,0,0,0,0
03:58:00,0,0,0,0,1,1,1,0,0
03:59:00,0,1,0,0,1,1,0,0,0
04:00:00,0,2,1,0,0,0,0,1,0
04:01:00,0,0,1,0,0,2,1,0,1
04:02:00,1,3,0,1,1,0,1,1,1
04:03:00,2,2,0,0,1,0,0,1,1
04:04:00,1,2,1,3,1,4,0,2,2
04:05:00,1,0,0,0,3,0,2,1,1
04:06:00,1,0,0,1,1,0,0,1,0
04:07:00,1,0,2,0,2,1,0,1,1
04:08:00,1,0,2,1,2,0,0,1,1
04:09:00,1,0,0,0,2,0,1,1,1
04:10:00,1,0,1,2,1,1,2,1,1
04:11:00,2,0,0,0,0,1,1,0,1
04:12:00,2,1,0,2,2,1,1,1,1
04:13:00,2,1,1,0,1,0,0,1,1
04:14:00,1,0,1,1,1,1,0,1,1
04:15:00,1,0,0,0,1,0,0,0,0
04:16:00,1,1,0,0,1,0,3,1,1
04:17:00,1,0,3,2,0,1,0,1,1
04:18:00,1,0,2,2,2,0,1,1,1
04:19:00,0,1,0,0,0,0,1,0,0
04:20:00,0,1,0,2,0,0,0,1,0
04:21:00,0,1,1,1,0,1,1,1,1
04:22:00,0,0,0,1,0,0,0,0,0
04:23:00,0,0,2,1,2,0,1,1,1
04:24:00,1,1,0,3,0,0,0,1,1
04:25:00,0,0,0,2,0,0,1,0,0
04:26:00,3,1,0,0,0,1,0,1,1
04:27:00,1,0,0,2,0,1,1,1,1
04:28:00,1,1,3,1,1,2,1,1,1
04:29:00,1,1,2,0,1,0,1,1,1
04:30:00,2,5,0,0,0,0,2,1,1
04:31:00,1,0,1,1,1,0,0,1,1
04:32:00,0,1,0,0,0,0,0,0,0
04:33:00,0,2,0,1,0,0,1,1,1
04:34:00,2,0,1,0,1,0,0,1,1
04:35:00,0,0,0,2,0,0,1,0,0
04:36:00,1,0,2,1,1,0,0,1,1
04:37:00,3,0,0,2,0,1,2,1,1
04:38:00,0,1,1,0,1,1,0,1,1
04:39:00,1,1,0,1,0,0,2,1,1
04:40:00,2,4,0,0,1,3,3,1,2
04:41:00,1,2,0,0,1,0,2,1,1
04:42:00,2,2,1,0,1,0,3,1,1
04:43:00,2,0,0,3,0,0,1,1,1
04:44:00,2,3,2,1,2,0,1,2,2
04:45:00,3,4,1,3,4,2,1,3,3
04:46:00,1,2,0,2,3,0,2,2,1
04:47:00,2,1,0,2,2,1,1,1,1
04:48:00,0,1,0,2,0,3,0,1,1
04:49:00,1,2,0,2,1,0,0,1,1
04:50:00,2,1,1,1,0,1,0,1,1
04:51:00,2,1,0,1,2,2,0,1,1
04:52:00,0,0,3,2,0,1,2,1,1
04:53:00,1,0,1,0,1,0,1,1,1
04:54:00,0,0,1,2,3,0,0,1,1
04:55:00,1,1,1,1,1,1,0,1,1
04:56:00,0,0,0,0,1,1,1,0,0
04:57:00,2,2,2,2,1,0,1,2,1
04:58:00,0,0,0,0,1,1,1,0,0
04:59:00,3,0,1,1,2,0,0,1,1
05:00:00,0,1,0,0,4,2,0,1,1
05:01:00,1,1,0,0,1,0,2,1,1
05:02:00,2,0,1,1,1,2,0,1,1
05:03:00,2,0,1,3,3,0,0,2,1
05:04:00,1,1,0,1,0,1,0,1,1
05:05:00,1,0,0,0,0,3,2,0,1
05:06:00,2,1,0,3,2,1,1,2,1
05:07:00,1,1,0,1,1,1,1,1,1
05:08:00,5,1,0,0,1,1,2,1,1
05:09:00,1,3,0,1,0,2,0,1,1
05:10:00,1,0,3,1,4,3,1,2,2
05:11:00,2,2,0,2,3,3,0,2,2
05:12:00,4,3,1,5,1,2,1,3,2
05:13:00,1,0,0,2,3,3,3,1,2
05:14:00,3,3,1,4,3,3,2,3,3
05:15:00,2,0,0,2,1,1,0,1,1
05:16:00,1,2,2,1,1,1,3,1,2
05:17:00,3,0,1,2,4,1,0,2,2
05:18:00,2,1,1,1,1,1,2,1,1
05:19:00,0,0,1,2,3,3,1,1,1
05:20:00,0,3,2,3,1,2,1,2,2
05:21:00,0,1,0,1,3,1,1,1,1
05:22:00,1,4,0,4,0,4,0,2,2
05:23:00,3,2,1,1,2,5,2,2,2
05:24:00,1,1,1,0,2,0,1,1,1
05:25:00,0,3,2,3,2,0,0,2,1
05:26:00,1,6,1,2,1,2,3,2,2
05:27:00,2,3,1,1,0,1,1,1,1
05:28:00,0,2,0,2,3,1,0,1,1
05:29:00,2,2,0,1,0,1,2,1,1
05:30:00,1,1,0,2,1,0,0,1,1
05:31:00,3,3,1,6,5,0,0,4,3
05:32:00,1,1,0,3,2,4,0,1,2
05:33:00,1,2,1,3,3,0,1,2,2
05:34:00,4,3,0,4,5,4,4,3,3
05:35:00,0,3,2,4,2,1,2,2,2
05:36:00,1,5,0,3,5,3,0,3,2
05:37:00,0,2,0,3,2,3,3,1,2
05:38:00,2,2,0,5,5,4,2,3,3
05:39:00,4,3,1,2,2,2,1,2,2
05:40:00,3,4,0,9,4,2,0,4,3
05:41:00,5,3,2,4,2,1,2,3,3
05:42:00,1,2,0,7,3,1,2,3,2
05:43:00,3,3,0,1,2,1,0,2,1
05:44:00,3,5,3,5,8,4,1,5,4
05:45:00,4,6,0,3,2,9,0,3,3
05:46:00,4,0,1,4,4,4,2,3,3
05:47:00,1,1,3,2,7,0,1,3,2
05:48:00,5,3,0,7,3,3,2,4,3
05:49:00,4,3,0,2,6,1,2,3,3
05:50:00,2,6,0,3,1,0,0,2,2
05:51:00,3,2,1,4,1,1,2,2,2
05:52:00,3,1,0,2,2,1,2,2,2
05:53:00,3,4,1,3,4,3,0,3,3
05:54:00,3,4,2,3,1,4,1,3,3
05:55:00,4,3,1,1,6,1,4,3,3
05:56:00,5,1,1,1,3,4,0,2,2
05:57:00,1,1,1,5,0,0,3,2,2
05:58:00,3,1,3,7,5,2,3,4,3
05:59:00,3,2,2,2,6,3,1,3,3
06:00:00,1,1,2,4,3,2,0,2,2
06:01:00,1,0,0,1,3,1,0,1,1
06:02:00,3,2,1,4,5,5,4,3,3
06:03:00,1,2,3,8,7,3,1,4,4
06:04:00,3,3,2,2,3,3,1,3,2
06:05:00,4,4,0,4,2,2,6,3,3
06:06:00,3,3,1,10,7,4,2,5,4
06:07:00,2,2,1,3,9,3,2,3,3
06:08:00,5,4,1,5,3,8,3,4,4
06:09:00,5,9,1,5,5,1,4,5,4
06:10:00,0,2,1,12,2,2,3,3,3
06:11:00,5,2,1,5,9,3,2,4,4
06:12:00,6,4,3,8,7,2,1,6,4
06:13:00,4,2,2,3,6,2,3,3,3
06:14:00,5,2,1,7,11,5,1,5,5
06:15:00,3,3,2,5,9,4,1,4,4
06:16:00,3,2,6,7,4,3,2,4,4
06:17:00,3,2,1,6,5,6,6,3,4
06:18:00,6,5,3,3,8,5,2,5,5
06:19:00,5,2,1,7,5,5,0,4,4
06:20:00,3,4,1,8,6,2,1,4,4
06:21:00,1,7,4,8,11,4,4,6,6
06:22:00,10,6,3,6,6,0,2,6,5
06:23:00,5,3,1,9,7,4,2,5,4
06:24:00,7,3,1,5,11,3,4,5,5
06:25:00,5,3,0,7,4,4,1,4,3
06:26:00,4,3,3,8,14,3,4,6,6
06:27:00,4,2,3,9,2,4,2,4,4
06:28:00,3,5,1,5,19,4,6,7,6
06:29:00,7,6,4,17,5,4,3,8,7
06:30:00,5,4,2,2,11,0,2,5,4
06:31:00,9,4,4,12,17,2,3,9,7
06:32:00,8,6,2,5,10,7,7,6,6
06:33:00,8,10,1,11,6,5,1,7,6
06:34:00,7,6,1,8,11,5,4,7,6
06:35:00,5,6,5,6,10,6,1,6,6
06:36:00,6,15,3,13,14,9,6,10,9
06:37:00,5,6,7,16,8,4,8,8,8
06:38:00,9,4,4,8,14,6,1,8,7
06:39:00,3,10,0,7,6,8,5,5,6
06:40:00,6,4,2,8,11,5,5,6,6
06:41:00,10,5,3,17,9,5,7,9,8
06:42:00,10,8,4,17,12,6,3,10,9
06:43:00,8,13,5,8,11,6,5,9,8
06:44:00,7,3,3,15,17,7,3,9,8
06:45:00,12,12,4,13,16,3,3,11,9
06:46:00,6,8,4,15,8,6,4,8,7
06:47:00,10,7,7,13,16,7,3,11,9
06:48:00,11,12,5,19,10,4,5,11,9
06:49:00,12,12,1,9,9,3,7,9,8
06:50:00,9,5,3,9,19,9,2,9,8
06:51:00,1,10,3,13,16,5,9,9,8
06:52:00,4,9,1,15,12,8,6,8,8
06:53:00,7,10,8,17,16,11,3,12,10
06:54:00,7,4,2,11,12,7,4,7,7
06:55:00,15,6,1,16,13,5,7,10,9
06:56:00,4,2,2,12,9,4,4,6,5
06:57:00,7,7,2,16,9,4,1,8,7
06:58:00,7,6,3,13,9,5,5,8,7
06:59:00,9,10,3,7,12,3,3,8,7
07:00:00,5,7,1,13,7,8,2,7,6
07:01:00,10,10,0,4,14,6,2,8,7
07:02:00,8,11,3,13,9,5,6,9,8
07:03:00,4,7,2,11,4,8,3,6,6
07:04:00,9,11,3,14,15,8,5,10,9
07:05:00,15,8,1,17,13,2,4,11,9
07:06:00,10,12,1,15,19,7,4,11,10
07:07:00,11,8,5,14,18,7,4,11,10
07:08:00,12,11,5,13,26,3,2,13,10
07:09:00,8,5,4,12,17,9,3,9,8
07:10:00,8,9,1,13,17,8,5,10,9
07:11:00,9,11,1,26,10,9,3,11,10
07:12:00,22,9,4,8,28,9,7,14,12
07:13:00,6,8,2,17,17,11,5,10,9
07:14:00,13,11,4,17,9,5,4,11,9
07:15:00,9,14,8,15,23,12,6,14,12
07:16:00,9,13,1,23,12,13,11,12,12
07:17:00,11,16,2,24,22,4,4,15,12
07:18:00,11,13,2,16,21,5,3,13,10
07:19:00,15,15,3,13,24,12,3,14,12
07:20:00,17,16,6,18,24,9,6,16,14
07:21:00,10,13,1,21,18,4,1,13,10
07:22:00,15,13,5,18,16,10,6,13,12
07:23:00,13,17,6,13,24,8,9,15,13
07:24:00,15,8,4,19,21,8,4,13,11
07:25:00,12,9,4,20,13,9,9,12,11
07:26:00,19,12,5,16,22,12,7,15,13
07:27:00,12,10,6,27,20,7,4,15,12
07:28:00,15,14,1,12,17,7,1,12,10
07:29:00,9,10,4,13,23,4,6,12,10
07:30:00,15,21,1,26,28,8,4,18,15
07:31:00,15,15,6,29,18,8,1,17,13
07:32:00,19,12,7,14,22,6,5,15,12
07:33:00,22,24,1,31,19,11,4,19,16
07:34:00,20,20,0,24,14,3,5,16,12
07:35:00,9,17,4,22,33,11,4,17,14
07:36:00,10,9,4,24,27,5,6,15,12
07:37:00,14,19,4,21,16,9,7,15,13
07:38:00,10,14,5,21,19,10,5,14,12
07:39:00,14,20,5,19,25,7,1,17,13
07:40:00,16,13,4,13,33,8,13,16,14
07:41:00,11,15,4,27,24,10,5,16,14
07:42:00,12,15,5,20,23,10,6,15,13
07:43:00,10,12,2,21,12,13,5,11,11
07:44:00,14,16,2,17,16,8,7,13,11
07:45:00,15,5,3,22,26,12,8,14,13
07:46:00,18,21,3,15,27,12,4,17,14
07:47:00,18,13,6,24,23,6,5,17,14
07:48:00,12,18,4,25,13,11,4,14,12
07:49:00,18,8,3,22,21,11,2,14,12
07:50:00,19,25,4,18,21,16,6,17,16
07:51:00,11,16,7,17,24,8,6,15,13
07:52:00,16,12,3,29,25,9,7,17,14
07:53:00,14,21,3,16,18,10,11,14,13
07:54:00,8,12,4,22,9,3,3,11,9
07:55:00,16,11,7,20,25,12,7,16,14
07:56:00,8,13,8,17,21,18,4,13,13
07:57:00,13,16,4,19,13,5,6,13,11
07:58:00,12,8,2,15,27,12,2,13,11
07:59:00,18,6,3,20,24,12,5,14,13
08:00:00,17,14,5,13,14,10,3,13,11
08:01:00,16,11,4,28,22,8,3,16,13
08:02:00,20,12,0,22,17,11,6,14,13
08:03:00,9,16,4,20,26,7,7,15,13
08:04:00,16,12,2,19,20,9,0,14,11
08:05:00,17,10,3,14,13,13,2,11,10
08:06:00,17,20,3,28,29,10,7,19,16
08:07:00,14,18,3,16,17,13,3,14,12
08:08:00,13,21,2,13,12,10,4,12,11
08:09:00,14,18,3,13,30,5,7,16,13
08:10:00,22,14,2,13,22,17,5,15,14
08:11:00,14,13,3,20,17,12,6,13,12
08:12:00,25,22,2,38,28,7,6,23,18
08:13:00,13,17,3,27,25,14,5,17,15
08:14:00,22,23,1,19,15,14,7,16,14
08:15:00,8,9,2,26,25,11,3,14,12
08:16:00,8,8,2,25,22,13,4,13,12
08:17:00,19,24,1,18,16,10,11,16,14
08:18:00,15,19,4,24,30,12,4,18,15
08:19:00,16,15,3,13,14,23,5,12,13
08:20:00,24,12,7,28,19,14,7,18,16
08:21:00,17,20,3,11,25,12,6,15,13
08:22:00,17,17,3,6,23,9,4,13,11
08:23:00,6,4,6,29,20,6,3,13,11
08:24:00,17,15,6,14,29,13,4,16,14
08:25:00,15,11,7,19,13,13,6,13,12
08:26:00,18,15,4,18,15,14,5,14,13
08:27:00,20,13,0,17,20,8,2,14,11
08:28:00,19,16,4,19,16,19,8,15,14
08:29:00,14,20,5,15,23,14,3,15,13
08:30:00,12,19,6,12,18,12,8,13,12
08:31:00,18,15,5,22,18,7,10,16,14
08:32:00,11,16,6,13,26,13,8,14,13
08:33:00,18,18,5,29,25,16,10,19,17
08:34:00,26,16,1,19,24,10,9,17,15
08:35:00,11,11,5,18,14,12,6,12,11
08:36:00,9,22,2,20,18,11,9,14,13
08:37:00,22,16,5,19,30,20,3,18,16
08:38:00,16,13,6,17,26,15,7,16,14
08:39:00,8,18,4,24,18,13,5,14,13
08:40:00,20,16,3,17,22,19,6,16,15
08:41:00,22,11,5,21,23,12,13,16,15
08:42:00,12,10,2,23,19,25,10,13,14
08:43:00,14,16,4,23,15,16,5,14,13
08:44:00,13,16,8,13,25,9,5,15,13
08:45:00,13,17,1,24,18,14,6,15,13
08:46:00,20,14,3,18,24,22,11,16,16
08:47:00,18,9,4,18,16,18,4,13,12
08:48:00,12,13,6,17,26,21,5,15,14
08:49:00,12,18,0,14,19,14,9,13,12
08:50:00,12,16,8,7,11,8,4,11,9
08:51:00,16,18,2,29,19,23,7,17,16
08:52:00,20,18,4,16,18,14,12,15,15
08:53:00,8,12,3,18,15,21,10,11,12
08:54:00,15,12,7,17,25,12,6,15,13
08:55:00,17,17,2,22,19,11,9,15,14
08:56:00,15,19,2,11,25,12,10,14,13
08:57:00,13,5,3,20,13,15,6,11,11
08:58:00,12,18,2,17,18,24,9,13,14
08:59:00,12,11,9,13,21,12,8,13,12
09:00:00,10,10,6,10,17,16,5,11,11
09:01:00,17,19,5,15,21,10,8,15,14
09:02:00,9,14,4,11,14,16,10,10,11
09:03:00,23,8,5,19,13,7,10,14,12
09:04:00,10,19,3,16,17,20,6,13,13
09:05:00,20,19,5,12,18,8,18,15,14
09:06:00,13,8,8,20,17,16,11,13,13
09:07:00,14,15,6,18,16,8,10,14,12
09:08:00,8,12,5,17,21,19,18,13,14
09:09:00,15,16,3,18,14,18,14,13,14
09:10:00,19,9,6,16,23,18,8,15,14
09:11:00,10,25,0,11,18,21,14,13,14
09:12:00,19,17,4,25,14,9,12,16,14
09:13:00,18,20,2,11,14,17,9,13,13
09:14:00,19,13,3,17,11,9,8,13,11
09:15:00,17,11,9,17,26,20,13,16,16
09:16:00,16,7,4,16,19,16,10,12,13
09:17:00,12,20,4,21,20,17,6,15,14
09:18:00,22,20,7,15,16,20,19,16,17
09:19:00,15,10,2,15,21,14,15,13,13
09:20:00,13,18,13,19,22,17,7,17,16
09:21:00,22,12,5,23,20,10,11,16,15
09:22:00,10,12,2,14,20,13,5,12,11
09:23:00,22,17,6,20,23,23,11,18,17
09:24:00,15,19,4,8,13,11,8,12,11
09:25:00,17,15,13,12,18,16,7,15,14
09:26:00,16,13,4,21,15,15,17,14,14
09:27:00,15,14,8,21,17,9,15,15,14
09:28:00,9,12,8,6,13,14,10,10,10
09:29:00,13,9,2,17,29,16,17,14,15
09:30:00,17,22,10,9,25,18,13,17,16
09:31:00,11,18,11,12,15,25,13,13,15
09:32:00,17,19,3,20,26,19,11,17,16
09:33:00,14,16,5,26,15,17,16,15,16
09:34:00,19,15,6,21,11,13,14,14,14
09:35:00,18,22,8,13,26,21,10,17,17
09:36:00,23,8,2,18,22,13,14,15,14
09:37:00,18,14,7,25,18,21,12,16,16
09:38:00,23,12,2,17,25,12,13,16,15
09:39:00,19,17,9,21,22,13,15,18,17
09:40:00,17,21,6,25,25,24,18,19,19
09:41:00,23,21,5,16,10,20,10,15,15
09:42:00,14,22,7,11,30,20,16,17,17
09:43:00,24,17,13,22,23,21,19,20,20
09:44:00,29,24,12,23,26,17,14,23,21
09:45:00,14,17,7,19,36,15,17,19,18
09:46:00,17,16,6,14,14,21,12,13,14
09:47:00,22,19,9,11,21,25,16,16,18
09:48:00,23,22,6,19,19,22,16,18,18
09:49:00,20,22,5,16,11,15,15,15,15
09:50:00,26,28,6,9,23,10,14,18,17
09:51:00,12,26,10,25,15,17,15,18,17
09:52:00,25,13,10,19,22,28,18,18,19
09:53:00,19,23,9,14,11,12,12,15,14
09:54:00,17,16,7,18,24,26,16,16,18
09:55:00,14,18,11,25,32,27,16,20,20
09:56:00,24,21,10,27,18,18,15,20,19
09:57:00,18,18,6,10,18,19,20,14,16
09:58:00,11,22,8,22,17,15,11,16,15
09:59:00,10,21,16,17,17,29,24,16,19
10:00:00,22,6,13,13,16,12,13,14,14
10:01:00,26,23,6,21,15,23,22,18,19
10:02:00,18,27,10,22,26,16,8,21,18
10:03:00,9,18,12,18,26,23,21,17,18
10:04:00,25,20,3,20,18,19,22,17,18
10:05:00,18,16,7,14,13,24,18,14,16
10:06:00,19,22,4,29,24,34,13,20,21
10:07:00,16,19,6,17,19,13,12,15,15
10:08:00,11,18,9,13,21,28,19,14,17
10:09:00,24,29,10,24,28,19,13,23,21
10:10:00,28,17,14,16,21,22,17,19,19
10:11:00,32,25,5,10,38,15,23,22,21
10:12:00,16,12,10,17,21,27,25,15,18
10:13:00,19,19,13,15,19,23,16,17,18
10:14:00,30,16,9,19,14,25,12,18,18
10:15:00,15,13,3,27,21,19,24,16,17
10:16:00,26,22,8,10,20,22,28,17,19
10:17:00,28,19,6,21,20,25,19,19,20
10:18:00,27,30,13,21,28,17,20,24,22
10:19:00,22,20,9,23,19,24,29,19,21
10:20:00,21,25,12,18,17,20,23,19,19
10:21:00,20,26,8,29,21,22,13,21,20
10:22:00,40,19,13,24,32,8,15,26,22
10:23:00,27,21,8,9,21,16,32,17,19
10:24:00,26,28,11,26,29,15,21,24,22
10:25:00,24,16,15,20,21,20,17,19,19
10:26:00,27,25,12,15,24,21,14,21,20
10:27:00,22,30,11,18,15,17,10,19,18
10:28:00,26,15,14,18,23,7,20,19,18
10:29:00,21,16,10,24,18,21,20,18,19
10:30:00,26,21,6,20,20,18,22,19,19
10:31:00,27,28,9,29,20,24,19,23,22
10:32:00,29,13,14,24,18,20,19,20,20
10:33:00,17,22,13,24,28,23,23,21,21
10:34:00,25,20,9,21,17,12,27,18,19
10:35:00,22,20,13,32,23,14,17,22,20
10:36:00,21,20,11,24,18,25,11,19,19
10:37:00,27,16,12,32,25,20,25,22,22
10:38:00,36,31,10,30,23,24,10,26,23
10:39:00,22,20,10,17,24,21,9,19,18
10:40:00,23,17,13,17,21,18,20,18,18
10:41:00,28,15,14,12,23,17,21,18,19
10:42:00,24,22,13,32,30,27,23,24,24
10:43:00,22,21,16,19,13,27,17,18,19
10:44:00,27,18,18,20,28,17,29,22,22
10:45:00,26,31,12,14,22,23,19,21,21
10:46:00,19,25,16,32,21,13,20,23,21
10:47:00,13,26,15,23,26,18,17,21,20
10:48:00,22,18,13,17,23,17,21,19,19
10:49:00,24,23,15,24,27,27,17,23,22
10:50:00,26,27,13,35,9,34,28,22,25
10:51:00,19,21,15,29,21,26,20,21,22
10:52:00,18,26,13,32,18,20,27,21,22
10:53:00,27,20,9,11,18,20,17,17,17
10:54:00,27,18,11,18,23,40,26,19,23
10:55:00,26,15,8,22,25,23,22,19,20
10:56:00,15,23,15,24,17,26,20,19,20
10:57:00,40,28,16,18,22,16,21,25,23
10:58:00,14,24,10,21,28,29,15,19,20
10:59:00,22,22,6,16,21,25,21,17,19
11:00:00,27,27,18,18,19,27,16,22,22
11:01:00,18,25,16,17,26,27,18,20,21
11:02:00,29,16,10,18,18,14,13,18,17
11:03:00,14,18,8,17,23,19,21,16,17
11:04:00,13,25,16,17,22,30,18,19,20
11:05:00,33,17,13,30,12,13,17,21,19
11:06:00,30,24,10,25,16,26,18,21,21
11:07:00,18,28,18,18,26,19,24,22,22
11:08:00,24,26,14,22,27,16,16,23,21
11:09:00,36,20,17,15,21,23,19,22,22
11:10:00,29,31,20,18,34,23,19,26,25
11:11:00,15,27,16,14,34,24,17,21,21
11:12:00,25,23,18,26,35,19,17,25,23
11:13:00,27,19,9,20,28,33,20,21,22
11:14:00,9,25,18,22,36,19,23,22,22
11:15:00,24,27,12,23,27,21,19,23,22
11:16:00,23,21,10,21,23,28,24,20,21
11:17:00,22,23,21,18,21,34,20,21,23
11:18:00,22,24,12,25,19,24,25,20,22
11:19:00,23,15,15,20,26,21,16,20,19
11:20:00,19,19,13,25,27,26,19,21,21
11:21:00,42,29,8,16,19,26,22,23,23
11:22:00,17,27,20,15,30,19,22,22,21
11:23:00,26,23,10,28,32,17,19,24,22
11:24:00,17,28,15,22,26,21,24,22,22
11:25:00,30,18,17,19,26,19,26,22,22
11:26:00,18,25,14,7,33,27,28,19,22
11:27:00,33,29,20,19,18,20,17,24,22
11:28:00,24,33,24,21,25,26,18,25,24
11:29:00,20,19,16,31,23,27,32,22,24
11:30:00,22,33,19,31,21,28,11,25,24
11:31:00,25,11,10,15,23,24,16,17,18
11:32:00,29,21,21,26,29,21,20,25,24
11:33:00,17,21,10,31,21,21,13,20,19
11:34:00,24,23,13,16,20,20,24,19,20
11:35:00,18,18,15,24,25,33,24,20,22
11:36:00,28,32,17,33,21,19,33,26,26
11:37:00,25,19,16,21,22,23,19,21,21
11:38:00,31,21,22,14,26,27,17,23,23
11:39:00,28,18,18,22,22,28,21,22,22
11:40:00,23,27,27,20,38,19,22,27,25
11:41:00,19,19,23,23,22,19,16,21,20
11:42:00,21,26,13,16,32,27,18,22,22
11:43:00,30,21,13,18,16,24,27,20,21
11:44:00,27,19,24,17,27,19,27,23,23
11:45:00,20,28,11,33,18,24,23,22,22
11:46:00,30,14,13,21,25,33,31,21,24
11:47:00,27,24,13,22,21,29,19,21,22
11:48:00,28,27,13,25,32,21,16,25,23
11:49:00,28,29,17,33,21,21,24,26,25
11:50:00,25,29,9,20,23,15,22,21,20
11:51:00,28,27,23,20,23,25,21,24,24
11:52:00,18,25,17,23,26,24,18,22,22
11:53:00,24,27,34,21,35,23,18,28,26
11:54:00,27,37,23,19,18,22,25,25,24
11:55:00,25,21,24,22,22,28,26,23,24
11:56:00,23,21,19,33,35,37,16,26,26
11:57:00,30,18,16,28,28,13,28,24,23
11:58:00,25,22,13,35,18,31,30,23,25
11:59:00,23,18,20,28,24,28,21,23,23
12:00:00,28,19,26,14,31,28,20,24,24
12:01:00,28,15,18,29,15,23,20,21,21
12:02:00,20,20,9,27,33,22,15,22,21
12:03:00,23,23,19,18,20,24,15,21,20
12:04:00,17,23,24,24,29,16,26,23,23
12:05:00,29,25,19,24,24,30,30,24,26
12:06:00,23,15,20,13,22,26,23,19,20
12:07:00,32,18,20,38,17,23,24,25,25
12:08:00,26,28,14,24,22,19,26,23,23
12:09:00,12,25,27,15,26,24,24,21,22
12:10:00,44,21,27,27,20,21,28,28,27
12:11:00,31,18,16,17,27,36,39,22,26
12:12:00,17,28,32,23,21,31,37,24,27
12:13:00,28,31,26,27,30,21,18,28,26
12:14:00,21,31,21,36,32,20,22,28,26
12:15:00,34,41,16,18,23,24,17,26,25
12:16:00,24,28,20,21,24,27,22,23,24
12:17:00,20,24,11,26,28,28,32,22,24
12:18:00,26,14,20,26,32,21,19,24,23
12:19:00,32,23,16,25,27,22,32,25,25
12:20:00,23,22,14,29,25,29,26,23,24
12:21:00,35,14,17,13,19,29,21,20,21
12:22:00,26,22,14,20,19,29,34,20,23
12:23:00,28,21,15,23,25,17,24,22,22
12:24:00,40,17,15,16,31,31,22,24,25
12:25:00,30,16,14,16,32,18,18,22,21
12:26:00,20,21,20,30,17,33,34,22,25
12:27:00,17,28,26,17,25,29,26,23,24
12:28:00,32,25,20,20,24,21,37,24,26
12:29:00,32,20,23,23,23,27,21,24,24
12:30:00,23,21,19,18,25,22,27,21,22
12:31:00,23,22,24,27,21,32,22,23,24
12:32:00,28,31,18,21,24,28,26,24,25
12:33:00,19,21,24,17,32,30,20,23,23
12:34:00,23,24,23,15,28,27,28,23,24
12:35:00,24,20,20,22,16,25,22,20,21
12:36:00,23,22,30,24,27,24,22,25,25
12:37:00,28,20,20,30,34,19,25,26,25
12:38:00,23,11,17,31,29,24,30,22,24
12:39:00,16,27,23,21,14,23,23,20,21
12:40:00,28,17,14,18,26,24,28,21,22
12:41:00,22,31,17,27,23,31,23,24,25
12:42:00,25,15,21,22,22,33,27,21,24
12:43:00,19,21,26,21,28,19,30,23,23
12:44:00,26,10,32,23,22,16,27,23,22
12:45:00,29,37,13,17,22,36,30,24,26
12:46:00,26,24,13,38,23,22,27,25,25
12:47:00,27,29,20,35,20,23,24,26,25
12:48:00,30,34,19,28,13,24,26,25,25
12:49:00,27,23,26,26,25,20,21,25,24
12:50:00,22,29,20,23,15,25,27,22,23
12:51:00,22,28,13,29,32,22,20,25,24
12:52:00,24,32,12,19,27,23,25,23,23
12:53:00,20,32,28,21,33,32,27,27,28
12:54:00,29,11,18,21,23,16,18,20,19
12:55:00,31,25,17,22,31,24,29,25,26
12:56:00,27,17,21,21,32,21,22,24,23
12:57:00,26,19,15,23,22,18,26,21,21
12:58:00,43,22,16,28,13,33,26,24,26
12:59:00,30,22,11,20,27,34,19,22,23
13:00:00,23,25,11,21,26,15,16,21,20
13:01:00,24,32,13,28,19,23,13,23,22
13:02:00,11,36,19,18,20,24,18,21,21
13:03:00,28,15,12,20,21,38,29,19,23
13:04:00,19,30,16,26,26,33,20,23,24
13:05:00,15,22,19,16,14,36,34,17,22
13:06:00,29,21,14,26,26,32,26,23,25
13:07:00,30,14,19,24,27,29,29,23,25
13:08:00,17,25,11,17,25,22,19,19,19
13:09:00,24,25,24,19,24,12,15,23,20
13:10:00,29,18,17,25,22,23,23,22,22
13:11:00,23,21,17,30,25,27,25,23,24
13:12:00,18,27,16,18,31,33,17,22,23
13:13:00,30,22,22,18,31,24,38,25,26
13:14:00,25,27,20,22,27,22,26,24,24
13:15:00,21,23,21,24,23,27,21,22,23
13:16:00,19,28,12,22,30,18,35,22,23
13:17:00,19,31,14,28,15,20,20,21,21
13:18:00,22,27,19,22,31,24,17,24,23
13:19:00,29,24,14,14,35,21,27,23,23
13:20:00,18,25,15,20,29,21,23,21,22
13:21:00,28,15,11,17,27,35,25,20,23
13:22:00,19,18,15,31,28,20,22,22,22
13:23:00,36,38,14,20,22,21,28,26,26
13:24:00,24,19,22,20,21,18,26,21,21
13:25:00,24,33,14,23,23,24,18,23,23
13:26:00,13,19,14,24,33,26,25,21,22
13:27:00,25,23,16,25,16,33,18,21,22
13:28:00,13,33,16,20,13,28,25,19,21
13:29:00,28,27,21,30,26,20,18,26,24
13:30:00,17,20,15,16,24,30,30,18,22
13:31:00,17,20,17,16,27,26,20,19,20
13:32:00,26,20,14,18,23,25,17,20,20
13:33:00,26,18,20,22,16,18,34,20,22
13:34:00,18,20,22,12,20,34,22,18,21
13:35:00,23,23,29,22,21,22,26,24,24
13:36:00,37,24,7,15,33,23,24,23,23
13:37:00,19,23,15,25,27,25,26,22,23
13:38:00,36,27,14,25,21,19,30,25,25
13:39:00,34,26,13,31,28,27,27,26,27
13:40:00,27,21,19,20,32,18,17,24,22
13:41:00,16,18,16,19,32,21,19,20,20
13:42:00,21,25,18,18,30,25,21,22,23
13:43:00,22,15,15,25,33,26,28,22,23
13:44:00,26,27,9,26,23,23,17,22,22
13:45:00,23,26,20,41,28,37,20,28,28
13:46:00,24,29,22,22,25,30,23,24,25
13:47:00,29,14,29,22,17,31,20,22,23
13:48:00,27,30,13,27,24,14,17,24,22
13:49:00,29,19,19,25,17,16,28,22,22
13:50:00,27,22,13,23,28,28,21,23,23
13:51:00,20,17,12,21,25,25,18,19,20
13:52:00,33,17,18,19,12,24,34,20,22
13:53:00,20,32,15,19,12,18,18,20,19
13:54:00,29,25,14,42,27,25,30,27,27
13:55:00,24,23,22,26,27,31,26,24,26
13:56:00,24,18,20,24,25,28,21,22,23
13:57:00,24,20,20,12,31,34,9,21,21
13:58:00,24,31,16,29,28,20,19,26,24
13:59:00,35,38,12,29,32,25,21,29,27
14:00:00,22,28,19,20,17,22,27,21,22
14:01:00,25,22,10,20,23,31,20,20,22
14:02:00,23,21,11,19,25,23,22,20,21
14:03:00,25,31,20,18,33,24,18,25,24
14:04:00,34,22,24,26,25,18,14,26,23
14:05:00,26,24,27,36,28,24,23,28,27
14:06:00,40,25,21,17,27,26,33,26,27
14:07:00,22,22,14,19,28,16,15,21,19
14:08:00,23,21,18,19,22,40,18,21,23
14:09:00,32,14,22,27,20,27,26,23,24
14:10:00,27,25,14,36,27,23,21,26,25
14:11:00,25,36,21,30,42,26,29,31,30
14:12:00,27,35,15,18,23,13,29,24,23
14:13:00,35,27,16,25,19,20,16,24,23
14:14:00,30,32,19,27,23,27,20,26,25
14:15:00,29,22,36,18,37,25,32,28,28
14:16:00,22,19,22,26,41,30,16,26,25
14:17:00,36,38,15,27,26,28,21,28,27
14:18:00,19,35,16,22,30,21,11,24,22
14:19:00,24,18,23,23,31,27,27,24,25
14:20:00,19,21,10,22,22,14,26,19,19
14:21:00,25,35,23,25,23,39,34,26,29
14:22:00,32,22,21,25,22,27,22,24,24
14:23:00,24,22,22,19,28,16,20,23,22
14:24:00,26,25,17,44,16,29,19,26,25
14:25:00,30,28,26,23,20,20,16,25,23
14:26:00,19,24,22,19,24,25,19,22,22
14:27:00,22,22,19,17,29,28,18,22,22
14:28:00,25,30,24,37,17,23,23,27,26
14:29:00,20,28,16,23,19,22,21,21,21
14:30:00,28,27,9,22,22,26,26,22,23
14:31:00,36,24,15,25,24,38,27,25,27
14:32:00,26,21,21,22,17,12,22,21,20
14:33:00,19,28,18,18,17,21,23,20,21
14:34:00,27,43,23,15,30,24,21,28,26
14:35:00,22,31,23,23,22,21,19,24,23
14:36:00,26,21,25,36,36,26,16,29,27
14:37:00,18,16,18,16,18,23,18,17,18
14:38:00,31,27,22,30,22,21,19,26,25
14:39:00,16,20,24,25,20,34,18,21,22
14:40:00,26,23,19,20,29,22,18,23,22
14:41:00,24,22,23,27,28,28,24,25,25
14:42:00,32,34,17,25,30,25,25,28,27
14:43:00,24,21,18,19,22,25,18,21,21
14:44:00,34,27,18,25,36,31,26,28,28
14:45:00,20,31,10,27,31,12,20,24,22
14:46:00,30,30,19,25,21,33,26,25,26
14:47:00,21,21,24,24,33,22,20,25,24
14:48:00,25,28,24,28,23,19,14,26,23
14:49:00,41,30,14,19,28,18,19,26,24
14:50:00,31,22,26,42,30,32,17,30,29
14:51:00,16,12,14,31,33,26,26,21,23
14:52:00,12,31,18,19,22,16,21,20,20
14:53:00,33,21,19,28,21,18,29,24,24
14:54:00,28,33,21,24,27,18,16,27,24
14:55:00,22,28,15,21,27,27,24,23,23
14:56:00,25,22,18,28,33,30,24,25,26
14:57:00,14,33,22,21,15,25,23,21,22
14:58:00,19,17,12,20,18,21,18,17,18
14:59:00,28,25,16,29,21,17,19,24,22
15:00:00,34,15,16,20,35,35,17,24,25
15:01:00,23,10,18,18,16,25,15,17,18
15:02:00,28,17,15,24,20,21,16,21,20
15:03:00,24,23,22,24,16,23,29,22,23
15:04:00,28,18,13,20,28,32,20,21,23
15:05:00,16,38,23,38,18,12,13,27,23
15:06:00,27,19,17,35,32,22,19,26,24
15:07:00,34,23,15,11,16,24,22,20,21
15:08:00,20,25,14,27,17,22,19,21,21
15:09:00,32,39,18,23,15,19,29,25,25
15:10:00,22,21,19,23,28,25,31,23,24
15:11:00,24,24,23,39,20,22,31,26,26
15:12:00,24,24,15,20,22,20,11,21,19
15:13:00,21,25,22,25,20,22,20,23,22
15:14:00,25,38,11,30,14,24,24,24,24
15:15:00,27,23,18,36,37,20,22,28,26
15:16:00,26,37,17,25,24,22,14,26,24
15:17:00,10,29,16,22,26,30,18,21,22
15:18:00,24,27,15,26,16,17,13,22,20
15:19:00,23,23,19,21,29,26,22,23,23
15:20:00,23,26,15,14,13,18,21,18,19
15:21:00,24,24,18,28,19,24,20,23,22
15:22:00,29,23,22,26,20,20,15,24,22
15:23:00,19,21,25,19,37,23,18,24,23
15:24:00,28,23,14,26,16,12,23,21,20
15:25:00,27,24,29,20,14,26,19,23,23
15:26:00,22,24,24,43,26,17,16,28,25
15:27:00,22,25,12,28,25,19,23,22,22
15:28:00,20,26,16,26,23,18,23,22,22
15:29:00,27,29,13,25,20,15,17,23,21
15:30:00,21,23,14,26,26,27,24,22,23
15:31:00,31,25,15,29,19,21,23,24,23
15:32:00,21,26,21,14,26,20,22,22,21
15:33:00,26,28,12,29,29,18,25,25,24
15:34:00,27,26,15,29,23,28,24,24,25
15:35:00,27,31,10,27,36,32,18,26,26
15:36:00,26,21,17,22,19,29,20,21,22
15:37:00,31,27,14,27,34,26,15,27,25
15:38:00,29,34,11,24,29,11,13,25,22
15:39:00,25,31,16,34,29,25,16,27,25
15:40:00,16,25,13,31,17,22,25,20,21
15:41:00,20,20,15,22,26,25,19,21,21
15:42:00,23,23,18,35,23,27,21,24,24
15:43:00,31,24,11,28,30,22,25,25,24
15:44:00,17,25,7,23,27,31,24,20,22
15:45:00,25,34,10,20,16,16,27,21,21
15:46:00,27,28,23,40,26,27,17,29,27
15:47:00,23,20,11,15,24,33,17,19,20
15:48:00,27,24,12,22,21,23,21,21,21
15:49:00,23,26,12,23,25,36,21,22,24
15:50:00,29,25,19,20,15,11,13,22,19
15:51:00,25,35,12,29,19,22,24,24,24
15:52:00,21,16,14,26,27,24,21,21,21
15:53:00,9,22,12,18,24,19,18,17,17
15:54:00,18,19,22,17,35,22,19,22,22
15:55:00,25,27,24,28,31,26,21,27,26
15:56:00,21,23,14,17,28,28,23,21,22
15:57:00,33,27,8,19,28,30,23,23,24
15:58:00,16,21,22,23,30,29,15,22,22
15:59:00,28,19,13,27,25,26,21,22,23
16:00:00,24,36,19,31,30,13,23,28,25
16:01:00,28,18,13,21,42,18,20,24,23
16:02:00,19,25,12,27,31,15,11,23,20
16:03:00,26,23,18,18,34,19,17,24,22
16:04:00,27,20,15,16,18,19,20,19,19
16:05:00,16,31,19,23,31,10,17,24,21
16:06:00,27,41,18,26,20,20,22,26,25
16:07:00,21,14,18,30,25,42,24,22,25
16:08:00,27,23,18,19,23,23,18,22,22
16:09:00,30,25,10,26,29,21,18,24,23
16:10:00,19,20,15,21,29,22,18,21,21
16:11:00,33,13,13,38,24,18,20,24,23
16:12:00,34,24,17,18,38,29,19,26,26
16:13:00,30,21,12,19,27,24,21,22,22
16:14:00,30,32,19,31,39,31,14,30,28
16:15:00,29,21,20,25,27,28,27,24,25
16:16:00,17,25,9,36,37,19,20,25,23
16:17:00,22,21,10,27,26,13,15,21,19
16:18:00,33,30,10,25,22,20,19,24,23
16:19:00,35,26,11,24,33,23,21,26,25
16:20:00,21,24,23,26,28,21,17,24,23
16:21:00,27,28,12,27,24,16,17,24,22
16:22:00,18,22,15,15,24,31,20,19,21
16:23:00,32,32,21,15,23,15,21,25,23
16:24:00,31,26,12,22,22,29,13,23,22
16:25:00,20,16,8,22,30,20,30,19,21
16:26:00,18,25,10,21,22,11,14,19,17
16:27:00,28,24,19,13,40,26,9,25,23
16:28:00,17,25,14,32,28,17,22,23,22
16:29:00,30,24,9,25,24,26,16,22,22
16:30:00,26,24,16,20,37,25,18,25,24
16:31:00,25,18,13,10,30,25,10,19,19
16:32:00,25,30,10,16,19,26,17,20,20
16:33:00,26,25,14,16,22,21,11,21,19
16:34:00,31,36,16,10,28,22,15,24,23
16:35:00,20,23,16,22,34,24,11,23,21
16:36:00,36,16,12,24,31,23,7,24,21
16:37:00,20,28,14,28,19,23,11,22,20
16:38:00,34,20,11,34,27,15,17,25,23
16:39:00,14,30,12,28,25,29,10,22,21
16:40:00,34,21,5,17,37,18,23,23,22
16:41:00,26,19,12,36,28,19,15,24,22
16:42:00,33,31,17,21,10,24,19,22,22
16:43:00,35,20,12,27,27,24,9,24,22
16:44:00,25,25,21,15,19,22,23,21,21
16:45:00,35,26,11,32,17,18,13,24,22
16:46:00,26,21,13,22,28,21,15,22,21
16:47:00,22,10,14,26,34,23,11,21,20
16:48:00,26,22,13,25,18,23,24,21,22
16:49:00,13,20,15,23,14,29,20,17,19
16:50:00,15,19,10,20,12,25,14,15,16
16:51:00,23,18,12,14,16,18,8,17,16
16:52:00,21,12,13,22,29,24,16,19,20
16:53:00,25,18,11,18,22,22,13,19,18
16:54:00,20,14,8,21,23,22,12,17,17
16:55:00,25,23,12,16,24,18,12,20,19
16:56:00,22,21,12,29,21,22,15,21,20
16:57:00,22,17,15,27,26,17,16,21,20
16:58:00,15,28,6,24,23,12,20,19,18
16:59:00,24,18,10,21,31,31,22,21,22
17:00:00,18,15,10,25,18,17,16,17,17
17:01:00,19,18,18,14,26,29,11,19,19
17:02:00,20,15,11,22,17,17,17,17,17
17:03:00,23,34,16,33,22,18,17,26,23
17:04:00,18,20,12,20,26,16,20,19,19
17:05:00,37,26,12,30,39,19,17,29,26
17:06:00,27,15,12,24,26,19,16,21,20
17:07:00,25,15,7,20,21,24,13,18,18
17:08:00,19,13,7,24,32,17,11,19,18
17:09:00,26,16,10,28,22,18,9,20,18
17:10:00,28,24,10,27,21,17,13,22,20
17:11:00,16,10,9,33,19,29,21,17,20
17:12:00,34,27,11,30,33,22,17,27,25
17:13:00,30,18,12,31,29,25,10,24,22
17:14:00,28,27,27,19,22,18,11,25,22
17:15:00,21,13,12,27,25,16,8,20,17
17:16:00,28,25,18,23,31,17,12,25,22
17:17:00,24,29,15,23,18,23,24,22,22
17:18:00,39,19,21,36,37,16,14,30,26
17:19:00,24,24,11,32,11,19,11,20,19
17:20:00,25,21,22,29,28,21,10,25,22
17:21:00,19,24,14,28,22,9,18,21,19
17:22:00,28,13,16,21,29,18,9,21,19
17:23:00,34,10,15,18,21,26,8,20,19
17:24:00,14,17,13,22,18,12,10,17,15
17:25:00,22,25,12,18,18,16,15,19,18
17:26:00,16,25,10,18,32,18,7,20,18
17:27:00,32,13,14,22,25,11,18,21,19
17:28:00,15,13,11,24,30,20,11,19,18
17:29:00,42,23,14,27,23,10,10,26,21
17:30:00,22,13,10,22,32,23,19,20,20
17:31:00,24,12,14,15,30,18,11,19,18
17:32:00,22,12,13,20,19,11,10,17,15
17:33:00,20,16,11,21,17,15,9,17,16
17:34:00,15,16,13,24,38,16,6,21,18
17:35:00,22,20,19,34,21,25,11,23,22
17:36:00,14,12,7,21,32,25,10,17,17
17:37:00,18,19,10,22,17,21,8,17,16
17:38:00,16,20,7,24,23,14,12,18,17
17:39:00,17,18,13,28,17,19,18,19,19
17:40:00,37,16,12,28,24,17,12,23,21
17:41:00,23,11,7,22,36,20,9,20,18
17:42:00,22,15,16,26,23,20,18,20,20
17:43:00,23,21,8,27,18,15,18,19,19
17:44:00,18,17,8,37,31,12,9,22,19
17:45:00,20,20,8,27,18,21,17,19,19
17:46:00,22,19,17,17,28,20,9,21,19
17:47:00,24,17,9,32,19,17,9,20,18
17:48:00,29,22,8,30,26,27,11,23,22
17:49:00,21,18,13,24,27,28,10,21,20
17:50:00,23,12,12,27,24,27,16,20,20
17:51:00,18,16,6,20,22,16,12,16,16
17:52:00,17,27,12,24,32,21,15,22,21
17:53:00,14,12,11,38,20,16,12,19,18
17:54:00,8,22,12,18,26,15,13,17,16
17:55:00,25,13,11,23,22,26,14,19,19
17:56:00,16,5,6,20,31,17,20,16,16
17:57:00,16,10,11,21,23,14,15,16,16
17:58:00,27,14,14,22,19,17,13,19,18
17:59:00,27,26,7,19,12,11,11,18,16
18:00:00,19,13,17,21,25,19,20,19,19
18:01:00,17,14,12,11,28,17,12,16,16
18:02:00,17,14,6,16,22,11,13,15,14
18:03:00,17,14,8,26,21,20,16,17,17
18:04:00,20,29,13,23,20,18,14,21,20
18:05:00,13,12,12,17,23,18,19,15,16
18:06:00,21,19,10,15,11,28,18,15,17
18:07:00,7,14,12,24,20,14,9,15,14
18:08:00,19,11,12,22,25,14,11,18,16
18:09:00,9,21,9,19,13,16,14,14,14
18:10:00,9,13,12,37,16,16,15,17,17
18:11:00,15,9,4,16,26,19,8,14,14
18:12:00,14,11,7,20,24,26,9,15,16
18:13:00,17,15,10,15,20,12,20,15,16
18:14:00,17,12,7,13,13,29,18,12,16
18:15:00,17,12,13,20,20,17,20,16,17
18:16:00,18,23,11,30,29,17,14,22,20
18:17:00,19,7,9,14,18,14,12,13,13
18:18:00,22,16,7,18,19,13,11,16,15
18:19:00,13,24,10,23,29,12,14,20,18
18:20:00,17,9,6,24,24,19,13,16,16
18:21:00,19,9,8,20,23,16,6,16,14
18:22:00,8,12,8,23,22,22,12,15,15
18:23:00,18,16,12,12,17,17,16,15,15
18:24:00,16,9,7,18,17,19,8,13,13
18:25:00,16,24,11,19,24,17,13,19,18
18:26:00,12,14,10,15,10,17,4,12,12
18:27:00,16,10,5,7,21,10,15,12,12
18:28:00,12,16,8,18,12,15,13,13,13
18:29:00,15,17,13,9,15,24,8,14,14
18:30:00,18,14,12,18,21,13,19,17,16
18:31:00,12,17,5,22,17,9,3,15,12
18:32:00,11,15,7,17,15,17,11,13,13
18:33:00,20,12,12,9,21,11,10,15,14
18:34:00,15,16,7,28,17,13,12,17,15
18:35:00,11,16,13,12,19,16,8,14,14
18:36:00,13,18,7,12,17,17,7,13,13
18:37:00,16,13,8,14,14,23,13,13,14
18:38:00,17,13,3,17,25,20,5,15,14
18:39:00,27,12,10,12,12,10,6,15,13
18:40:00,22,18,6,14,23,8,10,17,14
18:41:00,11,17,16,19,20,12,10,17,15
18:42:00,11,14,8,25,19,12,10,15,14
18:43:00,17,18,5,16,12,13,17,14,14
18:44:00,15,14,4,15,29,8,5,15,13
18:45:00,21,15,15,18,19,11,8,18,15
18:46:00,10,11,9,13,20,15,6,13,12
18:47:00,9,16,6,12,15,15,10,12,12
18:48:00,22,14,8,17,10,16,7,14,13
18:49:00,7,6,12,11,17,14,10,11,11
18:50:00,16,15,6,22,12,10,9,14,13
18:51:00,17,16,13,13,11,20,7,14,14
18:52:00,11,19,4,8,20,16,11,12,13
18:53:00,15,19,8,22,19,11,9,17,15
18:54:00,13,21,11,18,18,14,10,16,15
18:55:00,15,9,13,23,21,24,9,16,16
18:56:00,16,14,13,6,12,17,10,12,13
18:57:00,12,15,12,16,21,8,10,15,13
18:58:00,14,21,11,16,15,12,8,15,14
18:59:00,23,10,5,13,13,10,8,13,12
19:00:00,13,17,6,9,12,19,5,11,12
19:01:00,12,16,10,16,16,20,8,14,14
19:02:00,8,18,9,18,22,15,1,15,13
19:03:00,22,17,10,10,14,8,16,15,14
19:04:00,15,19,9,19,27,21,13,18,18
19:05:00,22,16,11,21,18,12,6,18,15
19:06:00,10,10,9,20,17,11,12,13,13
19:07:00,11,31,14,16,21,11,16,19,17
19:08:00,13,16,11,16,16,8,4,14,12
19:09:00,19,15,6,17,19,15,11,15,15
19:10:00,20,13,19,18,19,17,10,18,17
19:11:00,21,20,9,10,31,15,9,18,16
19:12:00,16,14,9,19,21,4,11,16,13
19:13:00,18,17,4,16,22,16,10,15,15
19:14:00,19,12,8,19,15,16,14,15,15
19:15:00,17,11,9,12,19,8,12,14,13
19:16:00,12,17,12,9,19,11,12,14,13
19:17:00,11,12,7,11,20,16,10,12,12
19:18:00,10,24,6,17,16,7,17,15,14
19:19:00,18,14,9,14,19,14,11,15,14
19:20:00,17,14,6,12,17,13,10,13,13
19:21:00,13,19,10,13,10,15,9,13,13
19:22:00,6,18,16,17,7,8,7,13,11
19:23:00,14,16,7,14,12,12,6,13,12
19:24:00,12,10,6,14,12,6,11,11,10
19:25:00,17,15,9,11,14,6,12,13,12
19:26:00,15,5,14,9,12,13,12,11,11
19:27:00,14,17,7,18,18,8,6,15,13
19:28:00,13,8,9,13,16,10,7,12,11
19:29:00,12,11,8,10,8,10,11,10,10
19:30:00,11,18,6,14,12,14,6,12,12
19:31:00,13,14,9,7,16,8,11,12,11
19:32:00,18,13,9,13,11,8,6,13,11
19:33:00,16,14,8,11,16,16,10,13,13
19:34:00,16,15,12,14,12,15,17,14,14
19:35:00,12,9,10,18,8,17,6,11,11
19:36:00,9,12,11,15,12,10,5,12,11
19:37:00,9,15,13,12,15,13,19,13,14
19:38:00,11,18,7,19,20,12,8,15,14
19:39:00,19,18,14,17,14,9,14,16,15
19:40:00,16,18,5,15,17,12,9,14,13
19:41:00,10,15,10,10,11,10,6,11,10
19:42:00,12,13,8,9,14,13,16,11,12
19:43:00,16,14,17,10,13,13,2,14,12
19:44:00,11,14,5,14,13,7,9,11,10
19:45:00,11,9,5,10,12,14,15,9,11
19:46:00,7,22,15,9,13,9,10,13,12
19:47:00,7,14,3,12,10,11,16,9,10
19:48:00,14,8,6,5,15,8,13,10,10
19:49:00,5,12,7,9,8,11,3,8,8
19:50:00,7,11,7,11,15,6,11,10,10
19:51:00,12,14,9,20,14,15,7,14,13
19:52:00,10,14,8,7,16,15,10,11,11
19:53:00,10,11,10,11,19,8,12,12,12
19:54:00,12,6,8,11,13,11,6,10,10
19:55:00,12,7,8,22,19,15,11,14,13
19:56:00,10,10,10,10,10,10,7,10,10
19:57:00,19,15,3,14,16,12,9,13,13
19:58:00,19,11,18,20,10,9,10,16,14
19:59:00,9,16,7,21,7,16,12,12,13
20:00:00,5,12,11,8,5,8,8,8,8
20:01:00,14,14,12,11,8,7,10,12,11
20:02:00,9,5,5,9,22,9,7,10,9
20:03:00,11,17,14,12,14,9,10,14,12
20:04:00,11,10,6,11,10,12,7,10,10
20:05:00,14,13,15,8,7,10,6,11,10
20:06:00,7,6,5,8,13,13,13,8,9
20:07:00,12,15,7,12,12,9,4,12,10
20:08:00,7,18,13,16,8,9,14,12,12
20:09:00,8,14,8,14,10,7,7,11,10
20:10:00,15,14,12,10,11,5,14,12,12
20:11:00,9,15,8,15,7,14,16,11,12
20:12:00,9,12,9,16,13,13,11,12,12
20:13:00,12,8,13,9,18,12,16,12,13
20:14:00,13,12,8,6,15,8,9,11,10
20:15:00,13,11,7,13,19,3,9,13,11
20:16:00,4,17,8,13,12,7,8,11,10
20:17:00,12,8,4,14,4,5,3,8,7
20:18:00,7,22,9,18,9,7,7,13,11
20:19:00,5,5,11,9,14,6,10,9,9
20:20:00,9,8,9,11,12,12,7,10,10
20:21:00,15,14,9,15,17,13,8,14,13
20:22:00,5,12,10,9,11,11,3,9,9
20:23:00,7,11,9,12,9,10,9,10,10
20:24:00,7,10,9,5,14,8,6,9,8
20:25:00,7,4,3,11,16,7,8,8,8
20:26:00,9,15,7,11,12,3,8,11,9
20:27:00,10,8,5,5,8,11,6,7,8
20:28:00,9,10,10,7,5,11,12,8,9
20:29:00,4,10,11,9,9,4,6,9,8
20:30:00,4,9,3,13,12,9,10,8,9
20:31:00,13,10,4,9,6,9,9,8,9
20:32:00,10,3,10,9,7,3,4,8,7
20:33:00,5,6,10,10,7,6,3,8,7
20:34:00,10,10,8,12,9,5,8,10,9
20:35:00,10,7,7,12,8,7,4,9,8
20:36:00,9,8,4,3,10,9,9,7,7
20:37:00,6,7,4,8,5,6,6,6,6
20:38:00,11,8,8,8,5,3,6,8,7
20:39:00,8,4,9,11,16,4,5,10,8
20:40:00,7,6,6,5,5,7,7,6,6
20:41:00,13,5,6,13,9,6,1,9,8
20:42:00,4,2,4,10,10,8,12,6,7
20:43:00,6,13,7,11,6,12,3,9,8
20:44:00,8,6,4,9,9,8,6,7,7
20:45:00,5,7,10,4,3,9,11,6,7
20:46:00,9,12,6,7,6,8,4,8,7
20:47:00,9,7,4,8,9,6,8,7,7
20:48:00,5,3,9,9,7,6,6,7,6
20:49:00,6,4,6,5,7,3,3,6,5
20:50:00,10,10,7,9,4,12,9,8,9
20:51:00,10,3,6,10,13,4,7,8,8
20:52:00,8,7,2,10,5,10,6,6,7
20:53:00,7,5,1,9,4,6,6,5,5
20:54:00,10,3,3,5,11,6,3,6,6
20:55:00,7,4,6,6,3,5,6,5,5
20:56:00,8,4,6,7,5,3,7,6,6
20:57:00,4,2,6,5,7,12,6,5,6
20:58:00,10,8,5,11,14,5,4,10,8
20:59:00,5,7,7,12,7,4,3,8,6
21:00:00,14,8,4,6,6,7,5,8,7
21:01:00,7,1,3,7,9,3,7,5,5
21:02:00,6,5,12,2,11,8,2,7,7
21:03:00,12,6,8,7,7,4,6,8,7
21:04:00,10,6,3,10,8,4,4,7,6
21:05:00,7,6,4,5,7,7,10,6,7
21:06:00,8,8,9,7,7,6,2,8,7
21:07:00,9,3,5,5,9,6,7,6,6
21:08:00,5,6,6,7,7,4,2,6,5
21:09:00,6,8,1,11,3,9,4,6,6
21:10:00,5,6,8,7,15,10,11,8,9
21:11:00,10,5,3,4,5,5,6,5,5
21:12:00,6,5,10,7,11,11,4,8,8
21:13:00,6,6,6,7,5,6,11,6,7
21:14:00,6,8,5,11,3,4,5,7,6
21:15:00,6,4,7,13,6,3,3,7,6
21:16:00,9,2,5,8,8,4,7,6,6
21:17:00,6,6,5,9,6,5,8,6,6
21:18:00,8,7,6,7,7,6,4,7,6
21:19:00,4,1,3,9,4,5,9,4,5
21:20:00,3,5,3,7,8,7,5,5,5
21:21:00,7,4,1,7,8,4,2,5,5
21:22:00,7,11,3,10,6,8,2,7,7
21:23:00,7,5,5,3,6,3,6,5,5
21:24:00,10,5,7,1,6,5,6,6,6
21:25:00,2,2,2,6,8,3,4,4,4
21:26:00,10,6,2,5,10,8,5,7,7
21:27:00,3,3,3,9,1,5,10,4,5
21:28:00,9,4,2,7,11,9,5,7,7
21:29:00,6,4,2,4,5,3,5,4,4
21:30:00,9,6,3,9,6,4,3,7,6
21:31:00,1,7,6,9,7,2,7,6,6
21:32:00,4,4,6,7,5,3,6,5,5
21:33:00,7,3,5,8,10,3,10,7,7
21:34:00,4,5,3,5,4,4,4,4,4
21:35:00,7,3,5,4,10,4,7,6,6
21:36:00,3,2,8,3,7,2,10,5,5
21:37:00,2,10,10,13,6,6,5,8,7
21:38:00,2,8,5,7,8,4,4,6,5
21:39:00,9,5,5,7,4,6,4,6,6
21:40:00,3,3,7,13,7,5,3,7,6
21:41:00,4,5,4,7,8,3,3,6,5
21:42:00,5,6,2,6,8,4,5,5,5
21:43:00,7,5,5,7,6,3,5,6,5
21:44:00,4,6,2,5,12,7,5,6,6
21:45:00,4,1,5,5,4,4,5,4,4
21:46:00,6,0,7,5,5,9,2,5,5
21:47:00,4,5,6,5,10,10,9,6,7
21:48:00,7,6,2,3,9,6,2,5,5
21:49:00,3,5,5,9,4,10,5,5,6
21:50:00,6,3,4,9,5,6,6,5,6
21:51:00,5,8,9,6,7,6,2,7,6
21:52:00,5,1,3,10,9,2,4,6,5
21:53:00,2,7,9,0,6,8,7,5,6
21:54:00,4,4,5,3,10,5,2,5,5
21:55:00,3,5,4,5,4,5,2,4,4
21:56:00,10,3,6,2,7,5,3,6,5
21:57:00,5,2,5,7,3,7,8,4,5
21:58:00,11,6,7,8,7,4,9,8,7
21:59:00,11,11,4,6,8,6,2,8,7
22:00:00,8,2,3,8,4,4,9,5,5
22:01:00,5,7,1,3,7,4,5,5,5
22:02:00,5,5,6,2,7,7,5,5,5
22:03:00,5,6,6,5,12,4,3,7,6
22:04:00,3,6,7,15,5,5,3,7,6
22:05:00,9,0,3,6,4,5,7,4,5
22:06:00,3,6,1,7,5,6,3,4,4
22:07:00,6,5,8,3,6,10,8,6,7
22:08:00,17,4,7,10,7,5,7,9,8
22:09:00,7,4,7,5,3,10,7,5,6
22:10:00,7,3,5,7,4,8,5,5,6
22:11:00,5,6,5,3,9,6,9,6,6
22:12:00,10,7,7,11,3,5,5,8,7
22:13:00,8,5,5,14,7,8,6,8,8
22:14:00,7,7,3,5,3,8,11,5,6
22:15:00,8,0,4,7,11,13,6,6,7
22:16:00,7,5,5,6,2,6,1,5,5
22:17:00,8,2,4,9,8,2,3,6,5
22:18:00,5,3,4,9,4,5,4,5,5
22:19:00,1,6,2,8,11,8,8,6,6
22:20:00,11,2,3,7,6,10,2,6,6
22:21:00,4,4,2,6,8,9,3,5,5
22:22:00,6,4,3,11,4,9,5,6,6
22:23:00,8,3,7,6,10,11,5,7,7
22:24:00,5,5,4,8,9,7,2,6,6
22:25:00,2,1,3,8,5,6,3,4,4
22:26:00,1,6,2,9,6,8,8,5,6
22:27:00,10,1,5,11,2,9,5,6,6
22:28:00,8,4,3,6,7,9,3,6,6
22:29:00,3,4,0,10,7,9,4,5,5
22:30:00,2,4,6,3,3,9,5,4,5
22:31:00,1,4,4,6,8,0,4,5,4
22:32:00,7,5,7,6,8,9,5,7,7
22:33:00,5,2,1,3,11,5,1,4,4
22:34:00,5,4,5,3,8,6,5,5,5
22:35:00,5,3,5,9,7,7,2,6,5
22:36:00,5,2,3,7,9,3,5,5,5
22:37:00,2,1,4,5,6,6,2,4,4
22:38:00,6,2,5,4,4,1,4,4,4
22:39:00,2,3,3,0,5,4,1,3,3
22:40:00,2,4,0,5,5,0,4,3,3
22:41:00,5,4,3,8,2,4,8,4,5
22:42:00,4,1,3,5,3,10,5,3,4
22:43:00,6,3,4,5,5,3,5,5,4
22:44:00,3,5,3,4,8,4,2,5,4
22:45:00,2,0,3,2,8,2,4,3,3
22:46:00,2,3,2,4,3,3,3,3,3
22:47:00,3,8,2,7,5,2,4,5,4
22:48:00,4,6,2,5,6,4,4,5,4
22:49:00,4,3,2,4,7,1,2,4,3
22:50:00,3,4,1,2,8,7,2,4,4
22:51:00,6,4,4,6,14,2,6,7,6
22:52:00,4,5,2,6,6,5,2,5,4
22:53:00,3,4,2,6,3,4,4,4,4
22:54:00,6,1,3,3,4,5,2,3,3
22:55:00,5,1,1,4,2,5,2,3,3
22:56:00,0,4,4,1,3,3,0,2,2
22:57:00,1,1,0,6,4,6,4,2,3
22:58:00,5,3,3,3,8,1,5,4,4
22:59:00,3,5,1,4,4,8,5,3,4
23:00:00,6,3,1,3,5,1,0,4,3
23:01:00,2,2,3,1,3,3,1,2,2
23:02:00,4,1,2,3,8,3,3,4,3
23:03:00,2,4,2,4,3,3,1,3,3
23:04:00,5,4,1,2,0,7,2,2,3
23:05:00,7,8,5,4,5,7,1,6,5
23:06:00,3,4,1,2,2,4,3,2,3
23:07:00,5,2,1,5,4,6,1,3,3
23:08:00,4,2,0,3,6,0,1,3,2
23:09:00,5,4,7,6,5,7,2,5,5
23:10:00,4,3,0,1,9,10,3,3,4
23:11:00,3,4,7,2,7,6,3,5,5
23:12:00,5,4,3,2,6,5,2,4,4
23:13:00,1,3,1,5,7,3,2,3,3
23:14:00,2,1,2,1,7,3,3,3,3
23:15:00,2,3,5,3,2,3,2,3,3
23:16:00,1,2,4,5,8,5,1,4,4
23:17:00,2,4,1,2,0,5,3,2,2
23:18:00,1,3,1,2,3,5,2,2,2
23:19:00,5,5,0,2,6,6,2,4,4
23:20:00,3,2,4,5,4,8,0,4,4
23:21:00,1,3,0,3,4,6,3,2,3
23:22:00,6,3,0,2,3,3,1,3,3
23:23:00,8,3,4,2,5,4,2,4,4
23:24:00,3,3,2,4,3,7,3,3,4
23:25:00,7,4,2,1,4,4,0,4,3
23:26:00,3,2,3,2,3,4,2,3,3
23:27:00,1,2,3,3,5,3,0,3,2
23:28:00,2,1,3,3,3,3,2,2,2
23:29:00,3,1,0,1,2,2,2,1,2
23:30:00,6,0,1,2,2,6,0,2,2
23:31:00,1,5,1,2,6,2,4,3,3
23:32:00,2,3,2,3,1,6,3,2,3
23:33:00,1,5,4,2,2,3,0,3,2
23:34:00,4,2,1,3,0,4,3,2,2
23:35:00,6,1,2,3,4,1,1,3,3
23:36:00,3,4,1,3,3,4,1,3,3
23:37:00,2,2,1,3,2,4,3,2,2
23:38:00,3,3,4,1,9,6,1,4,4
23:39:00,4,2,1,2,6,4,3,3,3
23:40:00,1,1,1,0,0,2,0,1,1
23:41:00,2,3,3,0,0,5,1,2,2
23:42:00,2,2,1,4,2,4,2,2,2
23:43:00,1,4,0,2,4,12,0,2,3
23:44:00,2,0,0,2,3,5,1,1,2
23:45:00,4,3,1,0,5,2,2,3,2
23:46:00,3,0,2,1,1,3,0,1,1
23:47:00,2,2,3,1,3,7,1,2,3
23:48:00,2,1,3,3,2,6,1,2,3
23:49:00,3,4,0,1,5,1,1,3,2
23:50:00,5,2,0,1,3,6,0,2,2
23:51:00,1,2,1,1,5,2,4,2,2
23:52:00,4,3,1,3,0,2,1,2,2
23:53:00,2,2,2,1,4,4,2,2,2
23:54:00,3,0,1,3,3,7,1,2,3
23:55:00,1,2,2,2,2,4,2,2,2
23:56:00,3,1,3,1,6,3,1,3,3
23:57:00,5,2,4,0,6,2,2,3,3
23:58:00,2,2,0,0,2,7,4,1,2
23:59:00,2,1,0,3,2,3,1,2,2
,,,,,,,,,
Totals,,,,,,,,,
12H(7-19),15375,14558,8831,15463,16425,14204,11714,14130,13796
16H(6-22),17409,16583,10272,17821,18878,15971,13269,16193,15743
18H(6-24),17900,16959,10599,18319,19466,16579,13630,16649,16207
24H(0-24),18280,17323,11707,18672,19870,16965,14076,17170,16699
,,,,,,,,,
AM Peak,11:00:00,10:56:00,11:00:00,11:00:00,10:58:00,10:49:00,11:00:00,10:01:00,10:01:00
,1455,1425,974,1317,1493,1433,1253,1183,1193
,,,,,,,,,
PM Peak,13:51:00,13:58:00,12:00:00,14:47:00,15:42:00,12:09:00,12:08:00,13:57:00,13:54:00
,1578,1570,1169,1556,1641,1540,1511,1458,1436
,,,,,,,,,
,,,,,,,,,
CA Traffic,,,,,,,,,VDA-net R2 16/01/2020
