Site Number,00008024,Unnamed: 2,Site Reference,00008024.1,Unnamed: 5,Unnamed: 6,Lat/Lng.,"52.06240,1.19338",Unnamed: 9
Radar 8024 Colchester Road Ipswich,,,,,,,,,
Vehicle Count Report,,,,Week Begin: 09 December 2019,,,Channel:,Total Flow,
,,,,,,,,,
,,,,,,,,,
,2019-12-09 00:00:00,2019-12-10 00:00:00,2019-12-11 00:00:00,2019-12-12 00:00:00,2019-12-13 00:00:00,2019-12-14 00:00:00,2019-12-15 00:00:00,"5-Day
Ave.","7-Day
Ave."
00:00:00,2,2,3,1,2,4,10,2,3
00:01:00,2,1,2,2,2,2,5,2,2
00:02:00,2,2,0,2,1,4,3,1,2
00:03:00,0,1,0,1,1,2,3,1,1
00:04:00,1,3,0,0,0,4,4,1,2
00:05:00,1,1,0,3,1,5,7,1,3
00:06:00,0,2,7,1,3,2,3,3,3
00:07:00,3,1,0,1,1,4,4,1,2
00:08:00,2,1,2,2,2,10,7,2,4
00:09:00,2,0,2,2,4,4,8,2,3
00:10:00,3,3,2,1,2,3,8,2,3
00:11:00,1,0,1,2,2,6,9,1,3
00:12:00,2,2,0,0,3,5,4,1,2
00:13:00,1,3,0,1,4,5,7,2,3
00:14:00,1,0,1,2,4,3,3,2,2
00:15:00,3,2,3,1,0,9,3,2,3
00:16:00,1,0,1,2,2,1,1,1,1
00:17:00,1,0,1,2,2,5,5,1,2
00:18:00,2,1,0,0,4,7,6,1,3
00:19:00,1,2,1,5,0,6,7,2,3
00:20:00,0,0,0,1,2,3,7,1,2
00:21:00,3,0,0,2,3,2,5,2,2
00:22:00,0,2,0,0,1,5,4,1,2
00:23:00,2,0,1,1,1,3,10,1,3
00:24:00,3,2,0,1,0,2,3,1,2
00:25:00,0,1,0,1,1,4,6,1,2
00:26:00,2,1,3,2,3,5,1,2,2
00:27:00,0,0,3,2,4,3,2,2,2
00:28:00,1,0,1,1,2,6,3,1,2
00:29:00,0,2,1,2,2,4,3,1,2
00:30:00,1,0,0,0,1,1,0,0,0
00:31:00,0,3,0,0,0,1,4,1,1
00:32:00,0,0,0,0,1,2,4,0,1
00:33:00,0,1,2,1,0,6,4,1,2
00:34:00,1,1,0,1,0,2,7,1,2
00:35:00,1,3,0,0,2,3,3,1,2
00:36:00,1,0,0,1,0,1,10,0,2
00:37:00,0,0,0,0,0,4,1,0,1
00:38:00,3,0,0,0,0,3,2,1,1
00:39:00,1,0,0,2,3,1,8,1,2
00:40:00,0,1,0,1,3,5,2,1,2
00:41:00,3,1,0,2,1,4,1,1,2
00:42:00,2,2,0,0,4,3,3,2,2
00:43:00,0,0,1,1,0,2,2,0,1
00:44:00,2,0,1,3,3,4,1,2,2
00:45:00,1,1,2,0,1,2,5,1,2
00:46:00,1,3,1,1,1,3,4,1,2
00:47:00,1,1,2,0,0,0,2,1,1
00:48:00,1,0,0,0,1,2,5,0,1
00:49:00,1,3,1,1,0,3,8,1,2
00:50:00,1,1,0,0,0,0,4,0,1
00:51:00,1,1,2,1,1,2,3,1,2
00:52:00,1,2,0,0,1,0,3,1,1
00:53:00,2,0,1,0,2,3,6,1,2
00:54:00,1,0,2,0,0,1,1,1,1
00:55:00,2,0,0,3,3,5,5,2,3
00:56:00,0,1,0,2,1,0,4,1,1
00:57:00,0,0,0,1,2,2,6,1,2
00:58:00,1,0,2,0,1,3,3,1,1
00:59:00,0,1,0,0,2,0,2,1,1
01:00:00,1,1,0,0,0,3,5,0,1
01:01:00,1,1,0,1,1,3,2,1,1
01:02:00,0,0,1,1,3,0,1,1,1
01:03:00,0,0,1,0,0,1,2,0,1
01:04:00,0,1,0,0,1,4,3,0,1
01:05:00,0,1,0,0,1,1,1,0,1
01:06:00,0,0,0,2,2,1,0,1,1
01:07:00,2,0,2,1,0,3,2,1,1
01:08:00,1,0,0,2,0,1,2,1,1
01:09:00,0,1,0,1,4,1,1,1,1
01:10:00,0,0,1,1,1,3,3,1,1
01:11:00,0,0,0,2,0,2,1,0,1
01:12:00,2,0,0,1,1,2,1,1,1
01:13:00,3,0,0,0,1,1,3,1,1
01:14:00,2,1,0,0,0,2,0,1,1
01:15:00,1,2,0,0,1,2,4,1,1
01:16:00,0,1,0,0,1,4,4,0,1
01:17:00,1,0,0,0,0,1,2,0,1
01:18:00,1,2,1,0,0,1,2,1,1
01:19:00,1,0,2,0,1,1,1,1,1
01:20:00,0,1,0,2,0,1,4,1,1
01:21:00,0,0,0,0,1,4,1,0,1
01:22:00,0,0,1,0,1,1,1,0,1
01:23:00,0,0,1,0,0,2,4,0,1
01:24:00,0,2,0,1,0,2,2,1,1
01:25:00,0,0,1,1,1,3,2,1,1
01:26:00,1,1,1,0,1,0,3,1,1
01:27:00,0,1,0,0,0,2,1,0,1
01:28:00,0,0,0,1,1,3,3,0,1
01:29:00,0,0,0,0,0,0,1,0,0
01:30:00,0,1,1,0,0,2,2,0,1
01:31:00,0,0,1,2,0,1,3,1,1
01:32:00,0,0,2,0,0,5,1,0,1
01:33:00,0,0,1,2,0,1,1,1,1
01:34:00,1,0,0,1,1,0,1,1,1
01:35:00,0,0,1,1,2,0,3,1,1
01:36:00,0,0,0,0,2,0,2,0,1
01:37:00,1,1,1,1,0,3,1,1,1
01:38:00,1,0,0,0,1,2,2,0,1
01:39:00,1,1,1,2,0,1,3,1,1
01:40:00,0,0,0,1,2,0,1,1,1
01:41:00,0,0,1,0,1,3,0,0,1
01:42:00,1,1,1,1,1,1,1,1,1
01:43:00,0,1,0,0,1,1,3,0,1
01:44:00,0,0,0,0,0,0,4,0,1
01:45:00,0,3,1,1,0,0,1,1,1
01:46:00,0,0,0,0,0,0,1,0,0
01:47:00,0,1,1,1,0,1,4,1,1
01:48:00,0,0,1,0,0,0,1,0,0
01:49:00,0,0,0,0,1,0,1,0,0
01:50:00,2,1,0,2,0,3,1,1,1
01:51:00,0,0,2,0,1,2,5,1,1
01:52:00,0,0,1,1,1,0,1,1,1
01:53:00,0,1,0,0,2,3,1,1,1
01:54:00,0,0,0,0,0,0,4,0,1
01:55:00,0,0,0,0,0,0,3,0,0
01:56:00,0,1,2,0,0,2,1,1,1
01:57:00,1,0,0,0,1,0,0,0,0
01:58:00,0,0,0,0,0,2,1,0,0
01:59:00,0,1,0,0,0,2,0,0,0
02:00:00,1,0,0,0,1,0,0,0,0
02:01:00,0,1,0,0,0,0,0,0,0
02:02:00,2,0,0,0,0,3,0,0,1
02:03:00,0,1,0,0,0,0,4,0,1
02:04:00,1,0,1,0,0,0,4,0,1
02:05:00,2,0,0,0,0,1,0,0,0
02:06:00,0,2,0,0,1,2,0,1,1
02:07:00,0,0,1,1,2,2,0,1,1
02:08:00,0,2,0,0,1,2,3,1,1
02:09:00,0,0,0,1,0,0,0,0,0
02:10:00,0,0,0,0,0,3,2,0,1
02:11:00,0,0,0,0,0,0,1,0,0
02:12:00,0,0,0,1,0,2,1,0,1
02:13:00,0,0,2,2,2,0,1,1,1
02:14:00,1,0,0,1,1,1,2,1,1
02:15:00,1,0,0,0,0,0,4,0,1
02:16:00,0,0,0,0,1,2,2,0,1
02:17:00,0,1,0,0,1,0,1,0,0
02:18:00,2,1,1,0,0,0,0,1,1
02:19:00,0,0,0,0,0,0,2,0,0
02:20:00,1,1,2,1,0,1,2,1,1
02:21:00,2,1,0,2,2,0,0,1,1
02:22:00,0,1,0,0,1,0,0,0,0
02:23:00,0,1,0,0,0,0,2,0,0
02:24:00,1,0,1,1,1,5,0,1,1
02:25:00,0,0,0,0,0,2,1,0,0
02:26:00,0,0,1,0,1,1,2,0,1
02:27:00,0,0,1,0,0,1,0,0,0
02:28:00,2,0,0,0,1,0,3,1,1
02:29:00,1,0,1,0,1,1,2,1,1
02:30:00,1,0,0,0,0,1,2,0,1
02:31:00,1,0,0,0,0,0,1,0,0
02:32:00,0,0,1,1,1,0,0,1,0
02:33:00,2,0,0,0,2,0,2,1,1
02:34:00,0,0,0,0,0,0,1,0,0
02:35:00,0,0,0,0,1,2,4,0,1
02:36:00,1,0,0,0,0,2,2,0,1
02:37:00,0,1,0,1,1,1,1,1,1
02:38:00,0,0,0,1,0,4,0,0,1
02:39:00,1,0,1,0,1,1,0,1,1
02:40:00,0,0,1,1,1,2,1,1,1
02:41:00,0,0,1,0,2,0,0,1,0
02:42:00,1,1,1,0,0,0,2,1,1
02:43:00,0,0,2,0,1,1,3,1,1
02:44:00,3,0,1,0,0,0,2,1,1
02:45:00,1,0,0,0,0,0,0,0,0
02:46:00,0,0,2,0,0,0,1,0,0
02:47:00,0,0,0,1,0,1,0,0,0
02:48:00,0,1,0,0,1,1,0,0,0
02:49:00,0,0,0,0,1,2,1,0,1
02:50:00,0,2,0,1,1,1,1,1,1
02:51:00,0,0,0,0,2,1,1,0,1
02:52:00,0,1,0,0,1,1,0,0,0
02:53:00,0,2,0,0,0,0,1,0,0
02:54:00,0,0,0,1,0,0,2,0,0
02:55:00,0,0,0,0,0,0,0,0,0
02:56:00,0,0,0,1,0,1,3,0,1
02:57:00,1,1,1,0,0,0,1,1,1
02:58:00,0,0,0,0,0,1,0,0,0
02:59:00,1,0,0,2,0,0,1,1,1
03:00:00,0,0,0,2,0,1,1,0,1
03:01:00,0,0,1,0,0,0,0,0,0
03:02:00,0,0,1,0,0,1,0,0,0
03:03:00,1,0,0,0,1,1,0,0,0
03:04:00,0,0,1,0,1,0,1,0,0
03:05:00,0,1,0,1,0,2,0,0,1
03:06:00,0,0,0,0,1,0,0,0,0
03:07:00,1,0,1,0,1,1,0,1,1
03:08:00,0,0,0,0,0,0,1,0,0
03:09:00,0,0,1,0,1,0,0,0,0
03:10:00,0,0,1,0,0,2,1,0,1
03:11:00,1,0,1,1,1,4,0,1,1
03:12:00,0,1,0,1,1,1,1,1,1
03:13:00,0,0,0,1,0,0,0,0,0
03:14:00,0,0,0,0,1,2,1,0,1
03:15:00,0,0,3,1,1,2,0,1,1
03:16:00,0,0,1,0,1,1,2,0,1
03:17:00,0,0,1,0,0,0,0,0,0
03:18:00,1,0,1,1,0,1,1,1,1
03:19:00,0,0,3,0,1,0,0,1,1
03:20:00,0,0,0,1,0,1,1,0,0
03:21:00,1,0,0,1,0,1,1,0,1
03:22:00,0,3,0,1,1,1,1,1,1
03:23:00,1,0,1,1,1,0,1,1,1
03:24:00,0,0,1,1,1,1,0,1,1
03:25:00,0,0,0,0,0,1,0,0,0
03:26:00,1,0,0,0,0,0,1,0,0
03:27:00,0,1,1,0,0,1,1,0,1
03:28:00,1,0,0,0,0,2,0,0,0
03:29:00,1,1,0,0,0,1,0,0,0
03:30:00,0,2,0,1,0,2,1,1,1
03:31:00,0,0,0,0,0,1,0,0,0
03:32:00,0,2,3,0,2,0,0,1,1
03:33:00,1,0,0,0,0,1,1,0,0
03:34:00,1,1,1,0,0,0,0,1,0
03:35:00,1,2,0,3,1,1,0,1,1
03:36:00,0,0,0,0,1,2,1,0,1
03:37:00,0,0,1,1,1,0,0,1,0
03:38:00,1,1,0,0,0,0,0,0,0
03:39:00,0,0,0,0,1,2,1,0,1
03:40:00,1,1,1,0,3,0,0,1,1
03:41:00,0,0,0,2,1,2,2,1,1
03:42:00,1,0,1,0,0,0,0,0,0
03:43:00,0,0,0,1,0,1,0,0,0
03:44:00,0,1,2,1,1,2,2,1,1
03:45:00,0,2,0,1,1,3,1,1,1
03:46:00,1,1,1,2,1,0,0,1,1
03:47:00,0,2,0,0,0,0,0,0,0
03:48:00,0,0,0,0,0,0,1,0,0
03:49:00,4,3,0,0,2,0,0,2,1
03:50:00,0,0,0,0,0,0,1,0,0
03:51:00,1,3,0,1,3,4,0,2,2
03:52:00,0,2,0,2,3,2,2,1,2
03:53:00,1,0,0,0,1,2,1,0,1
03:54:00,1,2,1,1,0,0,1,1,1
03:55:00,1,1,0,0,0,2,1,0,1
03:56:00,1,0,0,1,1,0,1,1,1
03:57:00,0,0,1,2,0,0,1,1,1
03:58:00,0,1,1,0,2,0,1,1,1
03:59:00,2,3,0,1,1,2,3,1,2
04:00:00,1,1,0,0,0,0,0,0,0
04:01:00,0,1,2,1,0,0,1,1,1
04:02:00,1,1,2,2,1,0,1,1,1
04:03:00,0,0,1,2,1,1,1,1,1
04:04:00,0,1,3,0,1,0,1,1,1
04:05:00,3,0,3,0,1,0,0,1,1
04:06:00,1,0,2,5,0,1,1,2,1
04:07:00,3,0,0,3,0,2,0,1,1
04:08:00,0,0,0,1,2,0,1,1,1
04:09:00,0,0,1,0,2,3,1,1,1
04:10:00,2,1,1,0,1,0,0,1,1
04:11:00,1,1,1,0,1,0,1,1,1
04:12:00,1,0,0,0,0,0,0,0,0
04:13:00,0,2,1,1,0,0,1,1,1
04:14:00,0,0,0,0,1,1,1,0,0
04:15:00,2,2,1,0,0,0,1,1,1
04:16:00,0,0,1,2,2,2,0,1,1
04:17:00,1,1,1,2,4,1,1,2,2
04:18:00,0,0,1,1,3,1,2,1,1
04:19:00,0,0,2,0,0,1,1,0,1
04:20:00,0,0,0,0,0,1,2,0,0
04:21:00,0,0,2,0,0,1,1,0,1
04:22:00,1,0,0,0,0,0,0,0,0
04:23:00,0,0,0,1,0,0,1,0,0
04:24:00,0,2,2,2,2,1,1,2,1
04:25:00,1,2,2,1,0,0,1,1,1
04:26:00,0,2,0,0,0,1,0,0,0
04:27:00,1,1,0,3,1,0,1,1,1
04:28:00,1,2,0,0,2,2,0,1,1
04:29:00,0,2,0,0,2,2,1,1,1
04:30:00,0,0,0,2,1,4,1,1,1
04:31:00,2,0,3,1,1,0,1,1,1
04:32:00,2,2,1,2,0,1,1,1,1
04:33:00,1,2,1,1,1,1,0,1,1
04:34:00,3,2,2,1,0,1,0,2,1
04:35:00,1,5,2,0,1,0,1,2,1
04:36:00,0,1,1,2,3,0,0,1,1
04:37:00,2,3,1,3,2,0,1,2,2
04:38:00,2,1,0,4,1,0,1,2,1
04:39:00,2,0,2,1,1,3,0,1,1
04:40:00,2,1,1,2,2,1,0,2,1
04:41:00,2,5,0,1,1,2,0,2,2
04:42:00,0,2,1,0,5,1,2,2,2
04:43:00,2,0,2,0,2,1,1,1,1
04:44:00,3,3,4,2,2,1,1,3,2
04:45:00,1,2,3,1,2,0,1,2,1
04:46:00,1,1,1,2,2,0,2,1,1
04:47:00,2,3,1,2,2,1,0,2,2
04:48:00,1,2,3,0,1,1,0,1,1
04:49:00,2,2,3,2,1,0,0,2,1
04:50:00,2,1,2,1,1,2,2,1,2
04:51:00,2,3,4,1,1,1,0,2,2
04:52:00,0,1,0,4,3,1,1,2,1
04:53:00,2,1,3,3,0,1,0,2,1
04:54:00,1,0,4,2,2,2,2,2,2
04:55:00,2,2,1,1,1,0,2,1,1
04:56:00,2,2,0,2,1,2,2,1,2
04:57:00,3,2,0,1,1,0,0,1,1
04:58:00,1,2,1,3,1,0,0,2,1
04:59:00,1,1,1,3,1,2,0,1,1
05:00:00,1,1,2,1,3,1,0,2,1
05:01:00,5,1,1,3,1,0,0,2,2
05:02:00,0,0,0,1,1,1,2,0,1
05:03:00,2,1,3,1,1,0,1,2,1
05:04:00,1,2,1,2,4,0,0,2,1
05:05:00,0,4,2,2,0,0,0,2,1
05:06:00,4,2,1,0,5,1,0,2,2
05:07:00,0,2,3,1,3,0,1,2,1
05:08:00,2,2,1,4,0,2,0,2,2
05:09:00,2,2,2,3,1,3,0,2,2
05:10:00,3,3,3,2,2,3,2,3,3
05:11:00,4,6,1,2,1,3,1,3,3
05:12:00,2,1,4,0,0,0,2,1,1
05:13:00,3,2,2,2,1,2,2,2,2
05:14:00,1,1,2,1,2,0,1,1,1
05:15:00,5,4,5,3,1,2,1,4,3
05:16:00,4,3,2,3,3,3,2,3,3
05:17:00,1,1,6,0,2,3,1,2,2
05:18:00,2,2,2,2,6,1,2,3,2
05:19:00,2,2,5,6,2,3,2,3,3
05:20:00,3,5,0,4,2,2,1,3,2
05:21:00,1,7,5,2,6,1,2,4,3
05:22:00,4,4,4,3,6,4,1,4,4
05:23:00,1,4,1,0,1,2,1,1,1
05:24:00,4,5,3,4,2,1,0,4,3
05:25:00,5,1,6,4,2,2,2,4,3
05:26:00,3,2,4,4,4,0,1,3,3
05:27:00,3,6,5,2,2,1,1,4,3
05:28:00,6,2,7,3,5,1,0,5,3
05:29:00,2,5,2,0,5,1,2,3,2
05:30:00,6,0,2,4,4,0,3,3,3
05:31:00,2,8,4,1,8,0,1,5,3
05:32:00,5,4,10,3,2,3,1,5,4
05:33:00,5,7,5,7,4,2,0,6,4
05:34:00,4,2,6,6,3,0,3,4,3
05:35:00,3,2,4,6,3,2,0,4,3
05:36:00,8,6,8,6,6,2,0,7,5
05:37:00,7,4,6,5,6,2,1,6,4
05:38:00,5,11,4,5,5,5,1,6,5
05:39:00,6,8,7,6,6,1,1,7,5
05:40:00,1,4,4,5,5,2,2,4,3
05:41:00,8,8,4,5,7,4,1,6,5
05:42:00,4,4,7,7,4,3,1,5,4
05:43:00,5,9,9,6,3,5,1,6,5
05:44:00,9,3,10,4,10,2,0,7,5
05:45:00,5,6,6,6,4,9,0,5,5
05:46:00,6,7,3,5,9,1,3,6,5
05:47:00,3,5,9,3,9,4,2,6,5
05:48:00,10,6,6,8,5,2,1,7,5
05:49:00,4,5,4,7,4,0,0,5,3
05:50:00,5,3,6,5,3,2,0,4,3
05:51:00,4,6,5,5,5,3,2,5,4
05:52:00,5,3,3,8,0,4,0,4,3
05:53:00,5,7,8,2,5,4,0,5,4
05:54:00,3,8,4,7,2,0,3,5,4
05:55:00,5,4,3,5,11,2,1,6,4
05:56:00,1,5,4,8,6,0,1,5,4
05:57:00,2,2,4,5,2,3,1,3,3
05:58:00,5,5,5,5,8,0,1,6,4
05:59:00,5,9,6,3,2,3,2,5,4
06:00:00,3,8,3,2,4,1,0,4,3
06:01:00,4,1,6,3,4,4,2,4,3
06:02:00,8,4,6,4,7,3,1,6,5
06:03:00,6,8,2,8,5,2,0,6,4
06:04:00,9,4,8,8,12,2,1,8,6
06:05:00,3,4,10,5,3,7,1,5,5
06:06:00,6,16,7,6,4,4,3,8,7
06:07:00,7,7,3,6,7,3,2,6,5
06:08:00,1,8,6,11,3,5,0,6,5
06:09:00,7,11,7,5,11,7,1,8,7
06:10:00,11,6,8,8,10,0,1,9,6
06:11:00,4,8,9,5,7,2,2,7,5
06:12:00,7,8,5,8,7,0,2,7,5
06:13:00,6,10,7,7,3,5,2,7,6
06:14:00,4,5,14,1,10,5,6,7,6
06:15:00,9,10,4,16,10,2,6,10,8
06:16:00,13,5,7,7,5,5,5,7,7
06:17:00,10,15,10,7,11,2,2,11,8
06:18:00,9,10,9,10,13,6,2,10,8
06:19:00,16,10,9,8,4,0,2,9,7
06:20:00,8,8,11,12,12,7,0,10,8
06:21:00,10,8,5,13,5,5,3,8,7
06:22:00,7,11,19,12,11,3,7,12,10
06:23:00,12,9,5,19,8,5,1,11,8
06:24:00,6,8,9,9,9,3,4,8,7
06:25:00,4,8,10,11,6,2,5,8,7
06:26:00,14,12,12,9,15,5,4,12,10
06:27:00,11,13,7,10,13,3,0,11,8
06:28:00,15,12,16,10,12,4,4,13,10
06:29:00,9,8,9,9,17,5,7,10,9
06:30:00,11,11,11,18,14,6,2,13,10
06:31:00,14,8,16,12,12,3,1,12,9
06:32:00,12,12,6,14,13,5,1,11,9
06:33:00,13,8,15,17,14,6,4,13,11
06:34:00,14,18,10,9,12,5,5,13,10
06:35:00,13,13,10,17,12,5,4,13,11
06:36:00,11,8,12,16,14,9,1,12,10
06:37:00,10,10,16,7,10,3,2,11,8
06:38:00,18,6,11,9,16,6,3,12,10
06:39:00,20,18,9,19,10,4,5,15,12
06:40:00,12,12,14,13,8,11,6,12,11
06:41:00,14,23,11,10,12,8,3,14,12
06:42:00,18,14,17,18,11,7,8,16,13
06:43:00,9,14,12,20,14,3,10,14,12
06:44:00,13,19,7,12,15,6,5,13,11
06:45:00,18,14,10,11,17,7,4,14,12
06:46:00,17,7,20,17,11,12,5,14,13
06:47:00,15,25,17,13,9,6,5,16,13
06:48:00,15,21,15,14,15,9,6,16,14
06:49:00,11,8,9,18,11,4,2,11,9
06:50:00,16,22,19,16,16,8,3,18,14
06:51:00,11,14,13,9,20,2,7,13,11
06:52:00,24,15,25,14,15,8,1,19,15
06:53:00,12,24,20,13,13,6,6,16,13
06:54:00,14,15,13,18,14,7,1,15,12
06:55:00,10,16,21,14,13,14,4,15,13
06:56:00,21,10,9,17,12,8,1,14,11
06:57:00,19,15,21,21,10,5,4,17,14
06:58:00,18,10,21,13,10,8,8,14,13
06:59:00,20,26,9,14,21,6,3,18,14
07:00:00,16,18,11,15,9,4,1,14,11
07:01:00,8,16,11,12,16,8,2,13,10
07:02:00,15,14,14,14,16,8,2,15,12
07:03:00,13,12,18,21,16,3,3,16,12
07:04:00,25,11,15,13,21,3,5,17,13
07:05:00,25,21,21,18,22,3,4,21,16
07:06:00,14,13,24,22,22,9,6,19,16
07:07:00,27,23,18,20,24,8,3,22,18
07:08:00,29,19,23,18,15,10,5,21,17
07:09:00,32,17,25,18,16,3,6,22,17
07:10:00,28,26,22,28,12,7,3,23,18
07:11:00,18,23,23,26,20,10,6,22,18
07:12:00,22,19,27,30,21,11,3,24,19
07:13:00,24,27,16,26,9,6,8,20,17
07:14:00,17,9,24,28,30,11,5,22,18
07:15:00,23,26,29,22,18,8,5,24,19
07:16:00,28,26,19,22,25,8,2,24,19
07:17:00,33,31,36,31,40,11,7,34,27
07:18:00,34,33,21,26,26,3,2,28,21
07:19:00,31,17,33,38,37,10,8,31,25
07:20:00,17,21,16,19,24,8,5,19,16
07:21:00,26,23,27,31,25,8,7,26,21
07:22:00,20,27,27,31,20,6,5,25,19
07:23:00,22,21,27,22,22,12,6,23,19
07:24:00,23,27,22,36,21,6,6,26,20
07:25:00,22,15,29,17,25,7,3,22,17
07:26:00,25,25,17,24,23,12,8,23,19
07:27:00,22,24,9,21,19,5,6,19,15
07:28:00,20,22,17,31,20,11,3,22,18
07:29:00,31,36,17,26,13,13,7,25,20
07:30:00,28,37,17,31,32,13,2,29,23
07:31:00,29,28,29,31,25,8,4,28,22
07:32:00,35,31,17,27,20,11,4,26,21
07:33:00,24,27,24,26,20,7,2,24,19
07:34:00,23,26,26,39,25,15,7,28,23
07:35:00,25,26,22,22,26,10,4,24,19
07:36:00,37,14,16,21,31,10,7,24,19
07:37:00,25,20,17,22,17,4,4,20,16
07:38:00,23,22,25,17,23,15,7,22,19
07:39:00,36,26,25,17,19,10,12,25,21
07:40:00,19,12,26,16,15,10,2,18,14
07:41:00,18,25,16,30,16,7,3,21,16
07:42:00,17,14,18,19,14,16,5,16,15
07:43:00,14,15,23,21,8,15,7,16,15
07:44:00,30,20,16,41,30,9,7,27,22
07:45:00,25,28,20,16,12,12,6,20,17
07:46:00,20,24,12,20,10,10,6,17,15
07:47:00,23,20,21,15,13,9,5,18,15
07:48:00,22,28,10,14,18,6,5,18,15
07:49:00,36,18,27,16,23,9,3,24,19
07:50:00,16,20,25,25,21,12,4,21,18
07:51:00,30,25,17,9,33,12,4,23,19
07:52:00,38,25,32,11,15,9,8,24,20
07:53:00,11,14,28,5,20,10,3,16,13
07:54:00,11,13,12,19,14,13,6,14,13
07:55:00,20,15,16,14,15,10,4,16,13
07:56:00,7,18,16,15,25,11,8,16,14
07:57:00,18,14,19,20,24,8,4,19,15
07:58:00,28,13,18,19,21,5,5,20,16
07:59:00,19,19,19,31,32,9,7,24,19
08:00:00,16,11,18,14,23,17,4,16,15
08:01:00,21,31,14,30,30,10,6,25,20
08:02:00,24,28,13,21,30,14,3,23,19
08:03:00,28,22,14,19,28,17,3,22,19
08:04:00,15,26,18,23,22,13,4,21,17
08:05:00,32,18,27,18,21,6,2,23,18
08:06:00,24,22,15,18,23,8,1,20,16
08:07:00,16,12,23,15,21,11,2,17,14
08:08:00,14,22,17,10,19,12,5,16,14
08:09:00,34,21,18,29,13,10,11,23,19
08:10:00,24,11,21,23,29,13,6,22,18
08:11:00,40,10,21,33,32,3,4,27,20
08:12:00,16,36,25,26,21,10,8,25,20
08:13:00,11,26,22,18,16,8,4,19,15
08:14:00,22,16,29,23,30,6,7,24,19
08:15:00,15,25,21,29,28,10,6,24,19
08:16:00,17,16,23,17,14,16,5,17,15
08:17:00,28,16,19,28,25,14,8,23,20
08:18:00,39,18,20,13,22,12,5,22,18
08:19:00,27,25,16,12,16,14,5,19,16
08:20:00,27,19,14,9,22,17,9,18,17
08:21:00,19,11,12,14,27,20,7,17,16
08:22:00,14,11,21,22,9,13,10,15,14
08:23:00,6,4,18,8,17,10,2,11,9
08:24:00,11,12,16,5,15,10,8,12,11
08:25:00,6,22,27,15,22,11,5,18,15
08:26:00,27,25,15,25,18,14,7,22,19
08:27:00,17,29,15,12,13,13,5,17,15
08:28:00,15,18,18,25,22,14,5,20,17
08:29:00,10,17,22,19,18,16,8,17,16
08:30:00,16,22,23,12,15,12,4,18,15
08:31:00,16,14,11,13,18,14,6,14,13
08:32:00,15,21,19,15,14,14,11,17,16
08:33:00,24,18,21,17,9,17,10,18,17
08:34:00,16,21,14,15,8,18,8,15,14
08:35:00,20,14,15,22,19,15,6,18,16
08:36:00,27,23,15,14,13,15,5,18,16
08:37:00,22,17,18,23,13,18,8,19,17
08:38:00,12,12,15,14,20,21,5,15,14
08:39:00,16,12,14,21,10,15,9,15,14
08:40:00,23,18,8,15,13,27,18,15,17
08:41:00,12,21,22,21,17,25,8,19,18
08:42:00,15,19,11,20,19,17,12,17,16
08:43:00,15,31,23,15,14,22,6,20,18
08:44:00,28,23,13,3,21,19,4,18,16
08:45:00,24,14,14,24,20,14,9,19,17
08:46:00,19,20,15,25,15,20,6,19,17
08:47:00,14,15,7,6,18,13,5,12,11
08:48:00,14,22,27,11,6,23,9,16,16
08:49:00,32,23,6,14,6,18,6,16,15
08:50:00,28,21,5,13,10,13,7,15,14
08:51:00,18,15,10,14,23,17,1,16,14
08:52:00,17,15,16,23,17,26,11,18,18
08:53:00,10,22,18,13,6,19,8,14,14
08:54:00,15,13,16,15,14,20,15,15,15
08:55:00,24,32,18,10,21,8,6,21,17
08:56:00,20,25,14,13,19,27,10,18,18
08:57:00,15,18,18,9,15,15,10,15,14
08:58:00,24,22,22,18,18,13,4,21,17
08:59:00,24,18,20,20,9,6,6,18,15
09:00:00,20,27,18,20,19,23,10,21,20
09:01:00,16,32,23,18,17,16,5,21,18
09:02:00,37,15,19,20,31,13,14,24,21
09:03:00,25,19,35,27,24,14,12,26,22
09:04:00,33,13,19,18,20,17,7,21,18
09:05:00,29,20,29,12,20,17,10,22,20
09:06:00,20,24,15,18,14,16,10,18,17
09:07:00,15,41,17,26,14,18,7,23,20
09:08:00,31,25,25,32,12,22,15,25,23
09:09:00,14,18,28,25,28,19,10,23,20
09:10:00,16,8,24,23,13,28,9,17,17
09:11:00,22,31,17,19,17,24,9,21,20
09:12:00,20,28,24,21,23,18,13,23,21
09:13:00,26,21,18,18,17,27,11,20,20
09:14:00,19,19,14,36,40,21,8,26,22
09:15:00,28,24,28,21,23,21,13,25,23
09:16:00,19,30,19,18,31,20,10,23,21
09:17:00,24,29,17,21,32,22,12,25,22
09:18:00,23,22,21,23,21,26,12,22,21
09:19:00,14,30,20,21,15,19,12,20,19
09:20:00,21,22,16,24,27,25,14,22,21
09:21:00,28,16,29,20,25,21,8,24,21
09:22:00,18,21,18,29,15,23,14,20,20
09:23:00,24,12,19,17,29,27,18,20,21
09:24:00,27,22,19,15,13,16,11,19,18
09:25:00,26,22,34,19,19,13,10,24,20
09:26:00,40,23,22,27,26,26,9,28,25
09:27:00,21,16,22,24,23,10,9,21,18
09:28:00,22,14,24,29,22,13,9,22,19
09:29:00,20,18,19,12,18,17,20,17,18
09:30:00,31,23,26,25,20,30,7,25,23
09:31:00,27,20,21,17,27,20,9,22,20
09:32:00,35,24,30,26,32,19,10,29,25
09:33:00,24,19,20,24,26,24,11,23,21
09:34:00,15,25,28,20,25,15,15,23,20
09:35:00,22,21,20,32,20,17,22,23,22
09:36:00,36,21,16,15,25,17,14,23,21
09:37:00,18,26,28,16,27,33,12,23,23
09:38:00,11,21,21,20,13,29,14,17,18
09:39:00,24,17,25,31,18,16,17,23,21
09:40:00,33,20,24,27,17,29,11,24,23
09:41:00,22,15,19,24,22,19,15,20,19
09:42:00,25,27,19,34,23,34,24,26,27
09:43:00,15,20,13,20,19,16,25,17,18
09:44:00,18,12,16,26,14,24,14,17,18
09:45:00,19,23,20,22,18,27,24,20,22
09:46:00,31,20,36,29,30,22,17,29,26
09:47:00,17,23,31,20,29,38,17,24,25
09:48:00,26,22,30,27,23,28,19,26,25
09:49:00,15,21,23,13,18,28,19,18,20
09:50:00,29,24,18,15,22,35,19,22,23
09:51:00,31,33,23,27,17,18,20,26,24
09:52:00,35,19,16,24,19,24,20,23,22
09:53:00,19,47,20,24,22,23,22,26,25
09:54:00,17,26,12,23,13,21,21,18,19
09:55:00,16,22,17,31,35,27,28,24,25
09:56:00,24,34,13,20,28,22,13,24,22
09:57:00,22,21,11,17,27,27,21,20,21
09:58:00,21,28,25,29,19,21,26,24,24
09:59:00,16,18,16,25,15,22,22,18,19
10:00:00,27,10,21,22,27,29,23,21,23
10:01:00,22,28,21,22,21,19,14,23,21
10:02:00,25,32,34,22,13,21,14,25,23
10:03:00,21,22,23,26,25,20,10,23,21
10:04:00,28,16,19,20,22,31,20,21,22
10:05:00,26,13,22,29,20,22,17,22,21
10:06:00,28,24,22,21,11,26,12,21,21
10:07:00,16,22,14,29,13,35,31,19,23
10:08:00,32,28,22,19,29,30,21,26,26
10:09:00,13,22,13,17,21,40,24,17,21
10:10:00,21,18,16,37,15,26,14,21,21
10:11:00,21,19,27,29,27,21,18,25,23
10:12:00,17,19,14,17,26,22,20,19,19
10:13:00,25,16,27,19,29,21,26,23,23
10:14:00,31,17,19,22,20,31,34,22,25
10:15:00,35,20,36,26,35,29,22,30,29
10:16:00,21,24,12,23,12,32,17,18,20
10:17:00,24,22,19,25,21,26,25,22,23
10:18:00,27,29,21,23,20,14,21,24,22
10:19:00,16,17,20,18,25,22,21,19,20
10:20:00,23,17,30,29,19,18,20,24,22
10:21:00,25,19,31,21,24,22,32,24,25
10:22:00,28,20,22,19,16,28,26,21,23
10:23:00,33,16,26,25,18,26,30,24,25
10:24:00,22,20,21,10,18,22,20,18,19
10:25:00,22,16,18,19,14,35,21,18,21
10:26:00,28,19,20,19,9,16,27,19,20
10:27:00,29,17,21,14,28,26,21,22,22
10:28:00,20,21,20,27,19,24,23,21,22
10:29:00,28,21,23,18,25,23,23,23,23
10:30:00,23,18,25,35,19,27,22,24,24
10:31:00,22,26,14,26,24,31,28,22,24
10:32:00,33,19,23,34,26,25,20,27,26
10:33:00,21,28,18,17,23,23,23,21,22
10:34:00,26,22,40,23,30,30,27,28,28
10:35:00,25,22,28,16,20,20,23,22,22
10:36:00,17,17,20,32,27,26,17,23,22
10:37:00,27,29,23,21,20,22,24,24,24
10:38:00,18,24,21,30,28,18,21,24,23
10:39:00,27,31,20,27,34,19,24,28,26
10:40:00,16,26,18,22,25,26,26,21,23
10:41:00,23,21,20,27,28,26,26,24,24
10:42:00,23,17,15,20,22,25,25,19,21
10:43:00,35,31,30,22,24,26,28,28,28
10:44:00,16,32,26,21,17,44,36,22,27
10:45:00,21,15,32,26,25,18,24,24,23
10:46:00,18,21,17,18,16,33,21,18,21
10:47:00,21,27,17,26,22,26,19,23,23
10:48:00,25,32,39,21,38,28,22,31,29
10:49:00,28,17,13,26,22,19,17,21,20
10:50:00,18,17,29,20,21,33,26,21,23
10:51:00,23,16,23,22,27,40,21,22,25
10:52:00,32,25,32,24,30,21,28,29,27
10:53:00,27,31,25,24,30,25,23,27,26
10:54:00,28,28,17,32,29,24,22,27,26
10:55:00,24,20,28,21,25,24,21,24,23
10:56:00,27,17,28,17,21,25,23,22,23
10:57:00,22,23,15,22,23,35,24,21,23
10:58:00,29,26,17,17,20,13,21,22,20
10:59:00,15,19,23,30,22,17,21,22,21
11:00:00,26,27,33,24,21,26,17,26,25
11:01:00,20,24,21,20,31,22,18,23,22
11:02:00,25,24,21,23,26,25,17,24,23
11:03:00,17,21,12,26,25,14,23,20,20
11:04:00,24,11,14,20,22,24,25,18,20
11:05:00,25,17,24,20,23,22,20,22,22
11:06:00,28,19,27,24,17,32,17,23,23
11:07:00,27,18,24,20,14,19,22,21,21
11:08:00,27,22,11,20,26,17,20,21,20
11:09:00,24,21,24,27,18,19,21,23,22
11:10:00,29,20,24,27,11,22,19,22,22
11:11:00,24,20,12,23,20,24,24,20,21
11:12:00,22,20,22,24,34,27,24,24,25
11:13:00,22,24,27,12,25,24,27,22,23
11:14:00,23,15,26,31,26,27,18,24,24
11:15:00,26,16,15,34,27,26,27,24,24
11:16:00,24,12,26,19,15,19,17,19,19
11:17:00,34,22,19,22,20,29,15,23,23
11:18:00,25,25,21,24,22,23,30,23,24
11:19:00,13,20,21,23,28,27,25,21,22
11:20:00,17,21,15,18,29,26,26,20,22
11:21:00,16,23,16,23,24,35,29,20,24
11:22:00,21,25,15,22,28,27,24,22,23
11:23:00,23,15,12,15,19,20,21,17,18
11:24:00,25,29,12,18,19,26,17,21,21
11:25:00,33,25,28,25,30,29,18,28,27
11:26:00,22,18,17,17,39,14,21,23,21
11:27:00,20,31,24,25,19,25,15,24,23
11:28:00,22,18,25,18,18,20,30,20,22
11:29:00,21,12,24,27,33,25,17,23,23
11:30:00,21,24,20,23,26,20,28,23,23
11:31:00,25,29,21,24,29,27,24,26,26
11:32:00,18,14,16,13,20,21,23,16,18
11:33:00,24,27,25,21,23,26,26,24,25
11:34:00,28,25,27,34,24,19,28,28,26
11:35:00,24,27,17,23,26,18,18,23,22
11:36:00,18,22,35,31,22,27,20,26,25
11:37:00,18,27,34,16,17,18,18,22,21
11:38:00,27,31,20,21,28,22,25,25,25
11:39:00,30,19,34,24,21,27,28,26,26
11:40:00,27,30,15,25,32,32,17,26,25
11:41:00,21,16,22,31,19,21,31,22,23
11:42:00,25,22,37,25,21,27,16,26,25
11:43:00,25,18,30,30,27,33,17,26,26
11:44:00,20,26,20,26,20,32,27,22,24
11:45:00,29,19,27,24,19,25,21,24,23
11:46:00,26,19,24,31,36,31,31,27,28
11:47:00,28,28,34,32,18,30,28,28,28
11:48:00,24,22,32,18,25,30,39,24,27
11:49:00,25,16,23,19,27,21,28,22,23
11:50:00,31,28,24,31,25,34,12,28,26
11:51:00,17,28,29,17,22,40,36,23,27
11:52:00,23,19,16,25,20,26,21,21,21
11:53:00,23,24,33,21,35,22,32,27,27
11:54:00,29,15,25,24,27,32,20,24,25
11:55:00,26,26,18,34,26,17,31,26,25
11:56:00,15,22,18,30,20,29,28,21,23
11:57:00,29,30,11,26,23,22,29,24,24
11:58:00,26,15,18,21,27,28,32,21,24
11:59:00,14,25,22,19,29,27,22,22,23
12:00:00,20,20,20,29,30,22,19,24,23
12:01:00,19,17,23,29,30,17,25,24,23
12:02:00,16,33,21,21,23,23,18,23,22
12:03:00,22,20,29,28,34,29,21,27,26
12:04:00,26,19,33,12,31,27,26,24,25
12:05:00,18,20,17,37,20,13,33,22,23
12:06:00,29,19,12,17,30,36,28,21,24
12:07:00,31,20,25,11,20,28,27,21,23
12:08:00,33,22,18,14,21,22,24,22,22
12:09:00,23,19,29,18,20,22,32,22,23
12:10:00,36,23,28,31,30,25,24,30,28
12:11:00,21,24,30,19,26,29,22,24,24
12:12:00,20,24,18,19,21,15,29,20,21
12:13:00,22,22,28,28,25,18,26,25,24
12:14:00,30,23,23,18,20,35,22,23,24
12:15:00,18,12,32,25,14,17,19,20,20
12:16:00,19,35,18,20,29,25,13,24,23
12:17:00,15,23,23,17,21,28,29,20,22
12:18:00,21,20,19,22,20,28,27,20,22
12:19:00,24,30,15,19,22,29,20,22,23
12:20:00,22,10,17,22,15,28,34,17,21
12:21:00,19,32,32,21,24,18,33,26,26
12:22:00,21,24,32,28,22,21,20,25,24
12:23:00,30,24,23,22,26,32,30,25,27
12:24:00,24,25,25,15,29,26,21,24,24
12:25:00,28,22,18,23,27,15,32,24,24
12:26:00,21,27,25,29,23,16,24,25,24
12:27:00,30,21,17,24,21,28,28,23,24
12:28:00,21,16,31,16,18,27,22,20,22
12:29:00,14,23,29,21,20,31,24,21,23
12:30:00,29,21,22,23,17,21,23,22,22
12:31:00,29,22,25,7,24,26,32,21,24
12:32:00,22,16,24,35,16,24,32,23,24
12:33:00,22,14,24,29,11,22,29,20,22
12:34:00,26,28,21,22,15,26,16,22,22
12:35:00,22,21,18,24,14,24,41,20,23
12:36:00,26,20,20,27,15,23,36,22,24
12:37:00,31,25,23,20,29,22,26,26,25
12:38:00,26,30,23,23,15,29,21,23,24
12:39:00,32,15,17,20,34,24,32,24,25
12:40:00,33,18,30,23,26,25,26,26,26
12:41:00,26,21,20,20,23,28,32,22,24
12:42:00,38,28,24,20,18,30,34,26,27
12:43:00,22,19,21,25,25,29,21,22,23
12:44:00,25,29,23,32,11,33,29,24,26
12:45:00,32,22,20,21,34,28,23,26,26
12:46:00,19,24,23,28,21,26,23,23,23
12:47:00,24,21,20,20,21,22,28,21,22
12:48:00,24,14,30,27,20,17,19,23,22
12:49:00,21,31,39,32,29,29,38,30,31
12:50:00,29,29,18,20,27,32,18,25,25
12:51:00,23,26,27,19,23,34,34,24,27
12:52:00,29,22,27,28,31,29,30,27,28
12:53:00,21,27,21,19,24,33,29,22,25
12:54:00,12,19,29,23,23,13,21,21,20
12:55:00,24,20,28,18,36,17,23,25,24
12:56:00,20,22,34,22,32,42,32,26,29
12:57:00,27,22,26,28,27,14,23,26,24
12:58:00,22,18,27,10,39,27,23,23,24
12:59:00,28,12,15,12,24,23,25,18,20
13:00:00,21,10,19,17,26,30,23,19,21
13:01:00,17,19,16,26,21,38,27,20,23
13:02:00,17,22,26,27,28,27,29,24,25
13:03:00,21,21,19,21,31,15,24,23,22
13:04:00,19,22,26,15,23,25,24,21,22
13:05:00,26,20,22,29,23,28,20,24,24
13:06:00,25,25,23,14,17,30,22,21,22
13:07:00,29,35,23,19,18,25,17,25,24
13:08:00,23,20,17,27,25,27,24,22,23
13:09:00,23,22,31,16,31,24,28,25,25
13:10:00,33,24,20,27,27,23,20,26,25
13:11:00,24,24,26,22,24,21,26,24,24
13:12:00,30,30,29,26,16,31,28,26,27
13:13:00,25,16,14,24,32,19,37,22,24
13:14:00,21,25,22,23,28,15,25,24,23
13:15:00,24,6,19,25,35,28,21,22,23
13:16:00,20,27,19,27,13,24,14,21,21
13:17:00,25,19,25,28,18,25,22,23,23
13:18:00,12,23,22,18,29,27,11,21,20
13:19:00,15,20,23,28,16,18,17,20,20
13:20:00,15,23,17,18,32,25,27,21,22
13:21:00,24,20,18,28,28,17,15,24,21
13:22:00,15,20,26,16,29,25,27,21,23
13:23:00,22,24,27,25,18,27,26,23,24
13:24:00,25,25,24,21,21,27,20,23,23
13:25:00,20,21,25,20,20,21,18,21,21
13:26:00,25,13,18,21,35,18,32,22,23
13:27:00,11,26,30,12,15,23,20,19,20
13:28:00,27,19,20,15,24,30,25,21,23
13:29:00,34,20,21,15,27,18,24,23,23
13:30:00,23,20,20,20,22,22,28,21,22
13:31:00,27,14,22,14,20,22,17,19,19
13:32:00,20,15,27,27,36,21,26,25,25
13:33:00,22,23,39,24,19,25,18,25,24
13:34:00,32,34,23,20,20,18,30,26,25
13:35:00,21,24,22,21,23,31,19,22,23
13:36:00,18,25,31,16,23,19,22,23,22
13:37:00,18,36,24,24,31,37,24,27,28
13:38:00,32,25,14,16,26,22,23,23,23
13:39:00,10,15,14,30,17,24,32,17,20
13:40:00,24,22,16,18,27,27,24,21,23
13:41:00,8,21,28,13,17,18,24,17,18
13:42:00,17,7,25,24,31,35,28,21,24
13:43:00,26,24,16,22,21,35,17,22,23
13:44:00,24,34,27,21,25,31,24,26,27
13:45:00,28,31,22,24,24,16,24,26,24
13:46:00,23,19,27,20,25,18,22,23,22
13:47:00,21,15,18,26,24,35,25,21,23
13:48:00,30,37,23,22,21,26,23,27,26
13:49:00,29,24,17,25,17,32,32,22,25
13:50:00,29,28,37,28,19,25,19,28,26
13:51:00,20,26,24,23,31,33,13,25,24
13:52:00,24,23,31,20,23,27,27,24,25
13:53:00,19,22,25,23,16,31,22,21,23
13:54:00,28,22,19,21,17,21,20,21,21
13:55:00,27,20,16,25,16,18,23,21,21
13:56:00,21,18,22,17,19,16,25,19,20
13:57:00,26,24,23,22,19,29,29,23,25
13:58:00,25,21,25,17,26,24,14,23,22
13:59:00,12,20,23,13,16,20,26,17,19
14:00:00,16,31,19,41,18,23,30,25,25
14:01:00,19,23,26,22,19,21,27,22,22
14:02:00,16,31,28,16,27,21,20,24,23
14:03:00,35,22,23,28,27,23,16,27,25
14:04:00,27,21,21,22,32,24,27,25,25
14:05:00,29,23,32,20,33,22,24,27,26
14:06:00,30,24,25,18,32,14,35,26,25
14:07:00,30,26,22,21,18,19,25,23,23
14:08:00,18,32,16,20,20,28,20,21,22
14:09:00,25,27,30,21,24,30,26,25,26
14:10:00,20,23,25,22,19,23,27,22,23
14:11:00,40,27,25,29,20,16,23,28,26
14:12:00,23,27,33,21,18,27,26,24,25
14:13:00,28,26,14,26,26,19,16,24,22
14:14:00,38,21,33,16,18,27,24,25,25
14:15:00,32,23,20,23,14,34,18,22,23
14:16:00,17,29,33,24,16,27,22,24,24
14:17:00,30,24,22,17,25,40,22,24,26
14:18:00,24,7,26,27,35,20,18,24,22
14:19:00,27,39,27,21,30,29,26,29,28
14:20:00,18,18,24,26,23,20,22,22,22
14:21:00,22,32,21,21,29,25,27,25,25
14:22:00,26,16,22,21,29,12,6,23,19
14:23:00,35,29,30,17,26,26,29,27,27
14:24:00,25,26,28,28,33,32,29,28,29
14:25:00,19,20,24,15,29,16,23,21,21
14:26:00,34,30,31,29,20,19,19,29,26
14:27:00,21,25,28,27,24,21,14,25,23
14:28:00,28,16,29,17,24,22,24,23,23
14:29:00,25,24,20,21,29,23,30,24,25
14:30:00,23,22,23,27,19,23,27,23,23
14:31:00,27,24,19,28,18,24,14,23,22
14:32:00,28,27,26,19,20,20,23,24,23
14:33:00,26,23,20,24,20,17,29,23,23
14:34:00,27,24,39,15,20,26,20,25,24
14:35:00,19,27,21,14,25,22,19,21,21
14:36:00,29,14,28,18,20,29,21,22,23
14:37:00,38,31,20,20,17,16,23,25,24
14:38:00,32,24,23,17,18,11,24,23,21
14:39:00,31,17,30,16,18,16,11,22,20
14:40:00,17,22,28,18,33,27,27,24,25
14:41:00,8,22,28,30,24,28,23,22,23
14:42:00,24,17,31,24,17,24,17,23,22
14:43:00,36,20,35,21,33,32,18,29,28
14:44:00,25,26,25,24,28,22,25,26,25
14:45:00,19,24,18,21,26,21,13,22,20
14:46:00,20,27,24,38,21,21,32,26,26
14:47:00,27,27,28,11,30,43,17,25,26
14:48:00,24,24,28,29,22,20,28,25,25
14:49:00,24,22,24,18,23,15,26,22,22
14:50:00,30,35,24,24,22,17,18,27,24
14:51:00,35,20,25,20,33,24,39,27,28
14:52:00,35,17,27,16,23,27,30,24,25
14:53:00,32,23,24,13,29,29,24,24,25
14:54:00,23,22,27,12,24,14,20,22,20
14:55:00,30,30,26,27,21,21,21,27,25
14:56:00,26,31,26,22,23,26,28,26,26
14:57:00,19,29,30,15,36,11,21,26,23
14:58:00,25,21,22,23,27,30,22,24,24
14:59:00,29,30,24,15,22,31,35,24,27
15:00:00,37,23,24,10,28,25,17,24,23
15:01:00,12,27,25,14,19,21,17,19,19
15:02:00,46,12,29,22,19,24,20,26,25
15:03:00,28,19,32,30,14,18,22,25,23
15:04:00,21,25,24,19,24,22,15,23,21
15:05:00,23,24,30,19,33,21,15,26,24
15:06:00,19,17,37,14,21,27,26,22,23
15:07:00,22,24,24,16,31,20,17,23,22
15:08:00,21,35,20,27,26,18,26,26,25
15:09:00,23,19,31,30,29,25,22,26,26
15:10:00,20,20,21,15,26,30,14,20,21
15:11:00,23,18,22,18,28,17,20,22,21
15:12:00,15,26,21,14,22,19,19,20,19
15:13:00,21,10,19,17,37,21,15,21,20
15:14:00,26,19,29,10,28,22,26,22,23
15:15:00,28,15,16,24,27,23,27,22,23
15:16:00,22,26,28,18,14,23,18,22,21
15:17:00,36,25,30,19,12,20,22,24,23
15:18:00,24,22,23,22,22,23,26,23,23
15:19:00,16,17,22,18,19,24,28,18,21
15:20:00,27,33,27,17,18,13,7,24,20
15:21:00,18,20,17,12,25,27,19,18,20
15:22:00,22,11,23,20,16,14,27,18,19
15:23:00,27,26,25,22,20,17,19,24,22
15:24:00,12,17,21,11,18,17,27,16,18
15:25:00,25,20,11,13,22,19,17,18,18
15:26:00,14,22,20,18,16,15,32,18,20
15:27:00,26,17,17,14,13,23,21,17,19
15:28:00,29,11,22,17,18,19,18,19,19
15:29:00,22,6,14,3,14,16,26,12,14
15:30:00,18,27,22,7,9,26,26,17,19
15:31:00,19,21,15,7,17,22,16,16,17
15:32:00,24,27,17,8,19,28,23,19,21
15:33:00,19,22,10,18,29,18,19,20,19
15:34:00,34,23,24,6,27,26,17,23,22
15:35:00,17,8,8,12,19,15,19,13,14
15:36:00,26,14,5,5,22,17,21,14,16
15:37:00,21,20,26,15,27,18,16,22,20
15:38:00,21,23,36,9,19,27,23,22,23
15:39:00,20,27,16,14,19,17,23,19,19
15:40:00,12,19,14,12,14,25,21,14,17
15:41:00,20,7,20,12,20,19,14,16,16
15:42:00,13,11,10,10,25,21,17,14,15
15:43:00,22,30,21,5,20,26,15,20,20
15:44:00,20,20,15,20,18,21,18,19,19
15:45:00,28,24,25,27,15,18,20,24,22
15:46:00,20,15,25,19,17,20,19,19,19
15:47:00,11,14,25,25,19,22,21,19,20
15:48:00,17,26,23,15,10,23,15,18,18
15:49:00,14,23,36,18,12,23,21,21,21
15:50:00,24,14,20,22,8,14,18,18,17
15:51:00,25,25,22,25,22,21,13,24,22
15:52:00,23,13,14,23,21,19,18,19,19
15:53:00,35,23,25,18,32,18,19,27,24
15:54:00,19,38,18,26,21,23,18,24,23
15:55:00,16,23,24,15,15,17,21,19,19
15:56:00,38,33,25,17,34,19,29,29,28
15:57:00,22,11,36,15,20,25,24,21,22
15:58:00,20,26,21,6,24,16,28,19,20
15:59:00,18,28,21,7,27,19,28,20,21
16:00:00,21,16,26,3,16,22,16,16,17
16:01:00,23,26,30,12,36,22,22,25,24
16:02:00,24,26,14,16,11,28,28,18,21
16:03:00,23,30,33,18,20,25,22,25,24
16:04:00,27,34,23,22,21,23,21,25,24
16:05:00,34,19,21,16,10,21,17,20,20
16:06:00,29,17,24,12,23,20,23,21,21
16:07:00,20,21,23,20,23,12,26,21,21
16:08:00,31,15,23,19,13,21,17,20,20
16:09:00,16,26,16,20,30,26,25,22,23
16:10:00,19,10,32,4,28,19,23,19,19
16:11:00,34,14,29,24,36,32,23,27,27
16:12:00,25,22,8,20,26,21,28,20,21
16:13:00,30,24,31,15,18,24,22,24,23
16:14:00,31,15,14,21,24,14,18,21,20
16:15:00,17,15,22,13,36,23,23,21,21
16:16:00,25,27,28,23,21,15,22,25,23
16:17:00,30,27,25,17,20,28,24,24,24
16:18:00,20,23,35,20,16,22,17,23,22
16:19:00,21,18,26,27,20,23,24,22,23
16:20:00,17,28,26,29,17,15,30,23,23
16:21:00,18,7,24,19,21,18,21,18,18
16:22:00,31,9,18,19,23,24,30,20,22
16:23:00,22,37,25,23,17,29,25,25,25
16:24:00,26,18,25,26,36,21,18,26,24
16:25:00,33,18,23,17,19,27,23,22,23
16:26:00,13,20,20,19,18,16,14,18,17
16:27:00,26,20,31,21,32,22,24,26,25
16:28:00,27,35,30,11,23,29,22,25,25
16:29:00,20,27,25,22,26,14,15,24,21
16:30:00,20,21,27,28,19,32,14,23,23
16:31:00,14,17,30,17,21,24,29,20,22
16:32:00,10,18,32,27,22,13,20,22,20
16:33:00,30,14,22,18,19,18,16,21,20
16:34:00,26,15,35,20,23,25,14,24,23
16:35:00,23,14,25,14,28,15,17,21,19
16:36:00,25,22,18,16,22,14,18,21,19
16:37:00,16,15,18,12,32,13,15,19,17
16:38:00,16,30,30,19,10,27,16,21,21
16:39:00,25,23,22,24,23,23,14,23,22
16:40:00,20,16,13,20,24,23,28,19,21
16:41:00,20,22,29,34,16,18,22,24,23
16:42:00,23,20,23,23,20,22,16,22,21
16:43:00,12,14,17,23,22,22,21,18,19
16:44:00,30,17,24,16,8,31,18,19,21
16:45:00,23,21,16,21,26,24,18,21,21
16:46:00,23,17,27,23,22,28,10,22,21
16:47:00,25,14,19,12,26,21,17,19,19
16:48:00,25,21,19,32,20,16,11,23,21
16:49:00,22,18,17,22,10,19,14,18,17
16:50:00,33,25,25,16,19,12,22,24,22
16:51:00,24,6,14,25,20,22,15,18,18
16:52:00,18,21,30,24,14,19,14,21,20
16:53:00,28,8,28,13,45,23,16,24,23
16:54:00,23,13,22,30,15,12,10,21,18
16:55:00,17,10,35,20,25,26,16,21,21
16:56:00,17,12,28,25,16,26,25,20,21
16:57:00,12,28,29,19,23,26,22,22,23
16:58:00,24,31,23,19,17,16,13,23,20
16:59:00,19,18,26,35,5,14,19,21,19
17:00:00,26,35,28,15,30,24,16,27,25
17:01:00,24,34,23,25,31,19,14,27,24
17:02:00,13,17,16,21,24,20,14,18,18
17:03:00,31,27,14,16,26,21,16,23,22
17:04:00,26,31,11,20,23,26,23,22,23
17:05:00,32,22,24,13,26,25,12,23,22
17:06:00,19,25,23,22,28,26,15,23,23
17:07:00,30,24,22,31,27,24,12,27,24
17:08:00,29,18,14,19,19,25,14,20,20
17:09:00,23,24,13,13,20,22,15,19,19
17:10:00,26,32,21,18,32,19,17,26,24
17:11:00,21,24,29,11,28,33,14,23,23
17:12:00,16,22,13,20,32,17,19,21,20
17:13:00,18,35,17,9,39,20,17,24,22
17:14:00,19,20,16,14,35,16,18,21,20
17:15:00,30,9,29,15,19,29,14,20,21
17:16:00,23,20,30,29,28,34,16,26,26
17:17:00,36,35,30,30,13,26,18,29,27
17:18:00,18,24,20,26,21,25,13,22,21
17:19:00,11,17,19,25,24,25,5,19,18
17:20:00,30,19,12,17,12,27,11,18,18
17:21:00,19,24,22,12,22,14,18,20,19
17:22:00,25,41,32,18,23,16,12,28,24
17:23:00,20,18,20,16,21,23,23,19,20
17:24:00,27,33,14,19,18,17,16,22,21
17:25:00,21,28,28,30,15,24,10,24,22
17:26:00,35,34,23,11,21,29,13,25,24
17:27:00,30,28,28,12,32,24,20,26,25
17:28:00,38,13,27,14,31,14,13,25,21
17:29:00,13,21,26,30,26,14,21,23,22
17:30:00,16,17,16,19,21,18,8,18,16
17:31:00,19,16,18,27,23,12,14,21,18
17:32:00,23,29,13,34,24,19,17,25,23
17:33:00,40,29,15,13,18,20,16,23,22
17:34:00,18,23,15,16,42,14,10,23,20
17:35:00,19,29,34,13,25,19,20,24,23
17:36:00,17,22,32,13,24,16,12,22,19
17:37:00,19,21,10,27,19,20,7,19,18
17:38:00,17,23,23,19,20,15,16,20,19
17:39:00,18,24,18,25,21,18,17,21,20
17:40:00,20,27,25,15,18,14,15,21,19
17:41:00,33,13,33,22,28,17,14,26,23
17:42:00,24,25,18,21,20,15,14,22,20
17:43:00,21,30,13,15,19,18,7,20,18
17:44:00,36,21,21,29,17,14,12,25,21
17:45:00,17,18,16,24,21,25,16,19,20
17:46:00,34,18,9,27,23,19,10,22,20
17:47:00,29,17,15,22,46,14,18,26,23
17:48:00,26,22,33,26,25,19,16,26,24
17:49:00,29,37,12,18,16,15,9,22,19
17:50:00,32,20,22,30,18,28,10,24,23
17:51:00,26,29,16,27,26,30,12,25,24
17:52:00,13,30,28,26,20,20,16,23,22
17:53:00,27,29,22,21,20,16,16,24,22
17:54:00,26,21,29,27,39,18,12,28,25
17:55:00,18,30,24,8,26,21,14,21,20
17:56:00,23,38,25,25,21,19,15,26,24
17:57:00,19,23,18,32,29,18,10,24,21
17:58:00,30,15,28,25,20,36,11,24,24
17:59:00,23,24,18,18,21,29,12,21,21
18:00:00,28,25,15,14,23,12,20,21,20
18:01:00,17,24,29,25,19,16,18,23,21
18:02:00,21,18,32,19,16,20,15,21,20
18:03:00,34,27,24,17,19,12,13,24,21
18:04:00,19,27,24,19,20,10,13,22,19
18:05:00,26,25,31,24,26,18,19,26,24
18:06:00,24,17,31,24,21,22,11,23,21
18:07:00,26,17,20,9,15,17,10,17,16
18:08:00,30,20,23,21,11,15,20,21,20
18:09:00,29,22,27,17,20,17,18,23,21
18:10:00,18,13,15,26,20,18,20,18,19
18:11:00,36,12,26,27,17,18,14,24,21
18:12:00,8,18,20,16,26,18,18,18,18
18:13:00,22,36,26,31,17,19,30,26,26
18:14:00,29,20,29,26,15,18,8,24,21
18:15:00,27,15,21,19,25,14,10,21,19
18:16:00,20,14,24,23,19,18,11,20,18
18:17:00,24,19,31,28,21,15,9,25,21
18:18:00,22,32,33,18,26,20,10,26,23
18:19:00,31,30,21,23,15,19,17,24,22
18:20:00,23,25,26,18,15,21,12,21,20
18:21:00,32,23,22,21,24,20,8,24,21
18:22:00,25,22,21,24,19,18,6,22,19
18:23:00,23,20,19,31,18,27,11,22,21
18:24:00,22,31,27,25,28,25,8,27,24
18:25:00,23,21,25,28,24,12,15,24,21
18:26:00,14,20,16,22,26,23,10,20,19
18:27:00,12,30,31,9,12,24,12,19,19
18:28:00,17,24,27,27,20,16,10,23,20
18:29:00,25,24,22,22,18,13,9,22,19
18:30:00,21,32,23,20,17,18,13,23,21
18:31:00,24,24,21,24,15,10,16,22,19
18:32:00,16,23,27,17,30,25,12,23,21
18:33:00,18,21,28,17,16,17,20,20,20
18:34:00,27,21,20,30,21,25,11,24,22
18:35:00,22,16,18,27,16,15,12,20,18
18:36:00,24,32,27,26,25,17,11,27,23
18:37:00,21,32,25,20,18,39,11,23,24
18:38:00,27,20,20,18,27,22,15,22,21
18:39:00,19,22,23,26,25,21,16,23,22
18:40:00,25,36,30,25,25,16,9,28,24
18:41:00,25,25,27,20,22,23,11,24,22
18:42:00,22,32,21,28,12,19,14,23,21
18:43:00,23,25,26,13,17,16,8,21,18
18:44:00,15,34,24,23,33,19,7,26,22
18:45:00,15,29,21,16,19,15,11,20,18
18:46:00,29,17,25,37,20,14,9,26,22
18:47:00,27,22,29,24,24,22,13,25,23
18:48:00,26,21,26,23,27,19,9,25,22
18:49:00,19,27,21,19,32,29,25,24,25
18:50:00,24,23,19,27,14,20,13,21,20
18:51:00,18,29,23,22,25,18,13,23,21
18:52:00,23,32,26,32,25,26,10,28,25
18:53:00,20,15,20,21,29,30,11,21,21
18:54:00,24,24,22,25,24,14,10,24,20
18:55:00,26,24,31,28,22,17,7,26,22
18:56:00,16,23,21,16,25,20,12,20,19
18:57:00,23,22,9,23,19,20,11,19,18
18:58:00,24,24,25,20,18,18,12,22,20
18:59:00,17,25,19,21,19,17,11,20,18
19:00:00,28,20,18,12,36,13,11,23,20
19:01:00,19,18,24,20,25,19,9,21,19
19:02:00,17,21,21,21,25,12,11,21,18
19:03:00,31,24,21,25,20,25,9,24,22
19:04:00,20,23,21,24,22,28,8,22,21
19:05:00,12,26,22,26,27,14,18,23,21
19:06:00,25,24,20,23,25,24,12,23,22
19:07:00,23,34,10,27,18,17,6,22,19
19:08:00,21,33,12,20,27,18,22,23,22
19:09:00,21,13,13,23,39,17,21,22,21
19:10:00,19,21,27,20,26,20,11,23,21
19:11:00,22,36,20,23,22,14,8,25,21
19:12:00,16,25,32,23,26,10,8,24,20
19:13:00,23,24,24,23,19,20,16,23,21
19:14:00,18,22,26,25,17,14,9,22,19
19:15:00,25,34,24,25,26,21,8,27,23
19:16:00,19,25,20,22,21,20,10,21,20
19:17:00,17,27,32,16,17,14,13,22,19
19:18:00,23,21,22,23,24,19,9,23,20
19:19:00,23,29,17,25,19,13,17,23,20
19:20:00,29,26,32,19,19,17,16,25,23
19:21:00,22,31,23,17,33,12,9,25,21
19:22:00,21,20,22,17,9,10,15,18,16
19:23:00,19,19,16,19,31,20,9,21,19
19:24:00,19,18,28,17,22,18,9,21,19
19:25:00,18,22,12,17,25,10,14,19,17
19:26:00,19,21,16,21,11,11,15,18,16
19:27:00,12,16,32,19,15,6,9,19,16
19:28:00,15,16,13,17,16,19,13,15,16
19:29:00,21,17,27,18,9,11,10,18,16
19:30:00,14,12,13,17,18,13,13,15,14
19:31:00,17,24,17,10,19,15,10,17,16
19:32:00,18,34,24,18,23,13,16,23,21
19:33:00,15,12,22,15,25,13,16,18,17
19:34:00,12,11,9,19,17,20,8,14,14
19:35:00,19,28,9,11,18,11,14,17,16
19:36:00,18,12,17,14,24,21,13,17,17
19:37:00,19,13,29,11,15,10,10,17,15
19:38:00,21,25,22,18,13,16,16,20,19
19:39:00,19,18,19,25,17,20,7,20,18
19:40:00,12,21,22,18,15,13,14,18,16
19:41:00,11,22,22,16,21,19,9,18,17
19:42:00,19,16,7,24,21,11,16,17,16
19:43:00,23,28,29,22,14,18,10,23,21
19:44:00,15,19,14,17,20,16,10,17,16
19:45:00,17,17,13,23,20,12,12,18,16
19:46:00,9,17,27,14,13,10,13,16,15
19:47:00,20,13,19,21,19,10,3,18,15
19:48:00,8,12,13,22,9,15,11,13,13
19:49:00,14,14,21,22,13,12,13,17,16
19:50:00,15,18,20,16,15,11,16,17,16
19:51:00,11,22,15,13,13,11,7,15,13
19:52:00,15,20,12,20,12,11,6,16,14
19:53:00,8,21,21,19,14,12,10,17,15
19:54:00,15,23,23,15,18,9,7,19,16
19:55:00,13,24,22,20,20,13,14,20,18
19:56:00,10,15,16,25,9,11,10,15,14
19:57:00,17,20,18,12,14,13,16,16,16
19:58:00,18,10,14,20,16,12,5,16,14
19:59:00,21,17,23,15,9,8,12,17,15
20:00:00,5,16,16,21,16,12,10,15,14
20:01:00,23,20,7,18,18,14,13,17,16
20:02:00,16,19,11,14,12,6,4,14,12
20:03:00,11,19,19,18,20,10,12,17,16
20:04:00,18,20,15,20,14,15,9,17,16
20:05:00,15,8,11,9,16,12,10,12,12
20:06:00,9,16,10,18,10,10,11,13,12
20:07:00,21,9,14,15,22,15,14,16,16
20:08:00,13,14,19,18,7,15,13,14,14
20:09:00,14,19,13,16,6,10,14,14,13
20:10:00,6,17,19,16,17,5,6,15,12
20:11:00,26,22,21,15,16,9,10,20,17
20:12:00,14,12,23,14,13,8,12,15,14
20:13:00,12,19,21,16,14,18,12,16,16
20:14:00,17,15,13,9,11,9,10,13,12
20:15:00,17,14,29,22,14,5,7,19,15
20:16:00,13,12,11,15,15,13,19,13,14
20:17:00,11,26,19,18,12,11,13,17,16
20:18:00,13,19,9,7,15,7,7,13,11
20:19:00,8,7,21,23,9,7,8,14,12
20:20:00,10,12,11,27,11,12,4,14,12
20:21:00,9,16,8,20,13,8,14,13,13
20:22:00,11,16,7,12,7,10,11,11,11
20:23:00,13,18,12,9,12,4,9,13,11
20:24:00,13,12,17,17,19,4,8,16,13
20:25:00,16,12,12,16,12,6,7,14,12
20:26:00,13,14,11,10,9,7,7,11,10
20:27:00,12,9,15,11,9,7,4,11,10
20:28:00,12,8,10,11,7,10,9,10,10
20:29:00,5,15,13,14,15,3,5,12,10
20:30:00,5,13,6,20,6,11,9,10,10
20:31:00,11,9,15,6,6,6,5,9,8
20:32:00,15,9,9,9,13,9,13,11,11
20:33:00,14,9,15,19,11,11,10,14,13
20:34:00,8,13,14,12,6,6,16,11,11
20:35:00,16,14,5,13,13,11,9,12,12
20:36:00,7,9,8,9,11,7,12,9,9
20:37:00,11,9,12,11,13,7,10,11,10
20:38:00,15,6,19,8,13,6,5,12,10
20:39:00,12,10,12,17,21,4,8,14,12
20:40:00,8,13,9,9,11,12,11,10,10
20:41:00,11,9,11,5,10,6,8,9,9
20:42:00,8,15,11,16,9,5,5,12,10
20:43:00,15,5,10,16,7,16,8,11,11
20:44:00,14,13,7,11,11,7,7,11,10
20:45:00,13,8,9,14,10,16,7,11,11
20:46:00,9,9,12,9,9,11,5,10,9
20:47:00,8,7,5,6,12,8,10,8,8
20:48:00,15,6,8,10,12,9,2,10,9
20:49:00,12,6,7,13,13,5,6,10,9
20:50:00,12,17,14,10,14,10,8,13,12
20:51:00,12,11,7,8,8,6,5,9,8
20:52:00,7,8,11,10,5,9,8,8,8
20:53:00,8,12,8,11,9,4,3,10,8
20:54:00,6,14,9,15,10,10,2,11,9
20:55:00,13,11,6,7,11,8,4,10,9
20:56:00,5,7,9,9,4,3,5,7,6
20:57:00,8,8,11,11,3,6,8,8,8
20:58:00,7,6,10,7,5,9,7,7,7
20:59:00,12,6,11,16,6,8,6,10,9
21:00:00,7,23,12,14,14,12,6,14,13
21:01:00,11,10,7,11,9,9,7,10,9
21:02:00,13,11,11,14,8,7,5,11,10
21:03:00,10,9,13,6,10,6,9,10,9
21:04:00,11,15,17,10,4,11,9,11,11
21:05:00,14,8,11,9,11,8,8,11,10
21:06:00,7,12,14,14,6,5,8,11,9
21:07:00,10,15,12,7,8,2,10,10,9
21:08:00,10,10,4,18,7,5,6,10,9
21:09:00,7,9,9,14,5,5,6,9,8
21:10:00,10,16,13,7,2,4,9,10,9
21:11:00,17,10,12,10,9,4,13,12,11
21:12:00,5,18,15,6,9,8,5,11,9
21:13:00,15,21,16,13,16,9,9,16,14
21:14:00,9,10,14,9,6,6,5,10,8
21:15:00,16,15,11,15,9,8,12,13,12
21:16:00,5,6,13,12,11,4,8,9,8
21:17:00,9,8,8,7,8,6,7,8,8
21:18:00,6,6,8,11,9,9,8,8,8
21:19:00,9,12,13,11,8,7,7,11,10
21:20:00,4,5,16,10,8,10,12,9,9
21:21:00,7,18,18,7,10,10,3,12,10
21:22:00,9,12,18,7,13,3,11,12,10
21:23:00,6,10,9,15,5,11,6,9,9
21:24:00,9,12,11,15,6,7,9,11,10
21:25:00,8,8,10,5,9,7,2,8,7
21:26:00,9,11,6,8,7,6,5,8,7
21:27:00,14,13,9,13,5,9,6,11,10
21:28:00,10,18,12,12,3,9,9,11,10
21:29:00,7,9,5,8,8,5,8,7,7
21:30:00,9,15,13,7,9,4,2,11,8
21:31:00,7,11,13,4,7,6,4,8,7
21:32:00,15,10,16,8,8,8,4,11,10
21:33:00,4,12,10,8,12,8,5,9,8
21:34:00,9,12,8,10,10,7,6,10,9
21:35:00,6,7,11,6,7,7,4,7,7
21:36:00,10,7,14,15,7,8,5,11,9
21:37:00,11,5,12,8,1,6,3,7,7
21:38:00,5,12,11,10,9,9,3,9,8
21:39:00,18,11,6,8,5,10,7,10,9
21:40:00,6,8,7,6,7,8,3,7,6
21:41:00,6,9,7,6,11,15,7,8,9
21:42:00,10,13,10,6,9,5,10,10,9
21:43:00,7,8,4,10,9,6,6,8,7
21:44:00,8,7,12,7,9,7,2,9,7
21:45:00,9,16,10,9,9,5,9,11,10
21:46:00,6,10,4,11,8,12,11,8,9
21:47:00,8,10,13,5,8,12,6,9,9
21:48:00,11,10,7,11,7,6,4,9,8
21:49:00,15,9,10,9,14,7,3,11,10
21:50:00,5,8,8,6,10,6,1,7,6
21:51:00,12,16,12,9,5,8,6,11,10
21:52:00,5,12,9,8,5,7,3,8,7
21:53:00,9,9,4,7,11,9,4,8,8
21:54:00,6,12,6,10,7,6,3,8,7
21:55:00,18,12,7,8,7,4,7,10,9
21:56:00,10,12,10,6,5,6,1,9,7
21:57:00,12,12,7,7,5,11,6,9,9
21:58:00,10,21,7,9,8,9,4,11,10
21:59:00,7,8,5,9,8,6,5,7,7
22:00:00,7,9,11,8,6,5,5,8,7
22:01:00,7,9,7,6,6,6,2,7,6
22:02:00,8,16,7,12,7,16,7,10,10
22:03:00,5,14,11,5,3,5,3,8,7
22:04:00,6,14,10,8,6,6,7,9,8
22:05:00,12,13,10,8,4,11,5,9,9
22:06:00,8,12,10,5,8,12,3,9,8
22:07:00,7,19,13,8,8,10,2,11,10
22:08:00,4,16,8,8,6,8,8,8,8
22:09:00,12,10,16,9,13,7,5,12,10
22:10:00,7,15,11,6,12,8,6,10,9
22:11:00,7,10,11,16,9,10,2,11,9
22:12:00,14,8,8,7,11,9,8,10,9
22:13:00,10,11,17,8,12,9,4,12,10
22:14:00,13,12,10,11,12,8,4,12,10
22:15:00,5,8,10,21,16,12,4,12,11
22:16:00,11,8,10,10,13,6,5,10,9
22:17:00,7,14,6,9,9,7,8,9,9
22:18:00,16,6,17,6,11,8,7,11,10
22:19:00,9,14,10,12,4,5,2,10,8
22:20:00,7,8,12,10,15,6,6,10,9
22:21:00,7,12,9,9,11,15,3,10,9
22:22:00,5,3,16,7,9,11,3,8,8
22:23:00,8,4,7,11,10,12,3,8,8
22:24:00,7,6,9,13,7,10,7,8,8
22:25:00,5,5,8,7,11,9,2,7,7
22:26:00,6,9,11,8,10,7,7,9,8
22:27:00,5,8,8,8,10,7,2,8,7
22:28:00,2,10,7,12,4,4,6,7,6
22:29:00,7,5,10,9,7,7,0,8,6
22:30:00,2,10,8,11,7,7,6,8,7
22:31:00,10,5,4,12,5,8,0,7,6
22:32:00,6,6,14,8,14,11,1,10,9
22:33:00,6,6,7,7,7,6,2,7,6
22:34:00,8,6,6,7,5,2,4,6,5
22:35:00,6,7,6,8,8,9,2,7,7
22:36:00,6,7,6,10,6,4,5,7,6
22:37:00,9,9,5,12,5,8,4,8,7
22:38:00,5,8,15,8,6,3,1,8,7
22:39:00,6,6,9,5,8,9,4,7,7
22:40:00,6,1,6,8,8,5,1,6,5
22:41:00,2,7,7,11,4,7,3,6,6
22:42:00,2,8,14,7,16,12,6,9,9
22:43:00,1,2,5,3,15,11,3,5,6
22:44:00,4,6,5,4,6,6,7,5,5
22:45:00,8,4,8,7,6,3,4,7,6
22:46:00,3,9,10,8,9,10,8,8,8
22:47:00,4,6,2,8,11,5,2,6,5
22:48:00,2,8,7,7,7,6,4,6,6
22:49:00,3,7,10,5,5,5,5,6,6
22:50:00,4,3,2,6,7,14,4,4,6
22:51:00,7,8,6,7,10,8,5,8,7
22:52:00,7,10,4,8,5,5,1,7,6
22:53:00,5,7,5,10,7,10,3,7,7
22:54:00,4,6,2,5,4,7,1,4,4
22:55:00,0,7,5,4,5,6,6,4,5
22:56:00,3,5,3,7,4,3,5,4,4
22:57:00,5,2,5,5,4,7,2,4,4
22:58:00,4,6,6,4,8,6,5,6,6
22:59:00,3,3,2,5,6,5,4,4,4
23:00:00,2,3,2,4,3,5,3,3,3
23:01:00,1,1,5,1,10,6,3,4,4
23:02:00,3,5,4,5,2,9,5,4,5
23:03:00,2,2,4,6,9,7,2,5,5
23:04:00,4,2,2,6,5,8,2,4,4
23:05:00,2,3,5,3,10,6,0,5,4
23:06:00,1,3,6,3,8,8,3,4,5
23:07:00,3,3,6,5,5,8,4,4,5
23:08:00,3,1,8,5,7,6,3,5,5
23:09:00,5,2,1,4,11,7,7,5,5
23:10:00,4,6,6,3,5,3,1,5,4
23:11:00,8,1,4,5,9,8,3,5,5
23:12:00,1,4,4,0,7,4,4,3,3
23:13:00,4,5,7,7,6,8,2,6,6
23:14:00,3,4,3,6,7,12,3,5,5
23:15:00,1,0,3,5,7,4,1,3,3
23:16:00,5,2,2,6,8,13,3,5,6
23:17:00,0,4,5,5,7,10,2,4,5
23:18:00,5,6,5,5,1,10,0,4,5
23:19:00,3,3,3,2,4,6,6,3,4
23:20:00,4,4,6,1,7,3,5,4,4
23:21:00,1,3,1,2,10,5,3,3,4
23:22:00,2,2,2,4,6,8,4,3,4
23:23:00,3,3,3,5,9,3,1,5,4
23:24:00,5,2,5,3,8,9,2,5,5
23:25:00,10,0,1,7,4,5,3,4,4
23:26:00,3,4,6,1,6,7,2,4,4
23:27:00,0,3,5,4,3,7,4,3,4
23:28:00,1,0,2,3,7,7,2,3,3
23:29:00,0,3,4,4,2,2,1,3,2
23:30:00,5,0,3,3,7,5,0,4,3
23:31:00,1,3,3,2,8,8,2,3,4
23:32:00,0,2,5,7,4,9,1,4,4
23:33:00,2,1,6,3,8,6,1,4,4
23:34:00,5,1,4,2,5,8,0,3,4
23:35:00,5,1,2,5,3,4,1,3,3
23:36:00,5,1,3,4,3,3,0,3,3
23:37:00,1,2,2,2,4,8,4,2,3
23:38:00,2,3,3,3,6,5,0,3,3
23:39:00,1,1,3,2,3,5,2,2,2
23:40:00,0,2,4,1,7,9,3,3,4
23:41:00,3,0,1,3,4,4,1,2,2
23:42:00,1,2,2,4,10,8,0,4,4
23:43:00,2,0,3,5,7,10,0,3,4
23:44:00,1,4,0,0,5,6,1,2,2
23:45:00,0,1,4,7,6,6,2,4,4
23:46:00,2,2,2,1,8,6,1,3,3
23:47:00,2,1,7,2,5,10,2,3,4
23:48:00,1,2,4,1,6,7,3,3,3
23:49:00,0,3,2,1,8,9,4,3,4
23:50:00,3,0,2,3,3,4,2,2,2
23:51:00,1,2,3,4,5,3,3,3,3
23:52:00,2,3,1,2,3,16,3,2,4
23:53:00,0,1,0,2,7,11,1,2,3
23:54:00,1,1,2,2,8,2,3,3,3
23:55:00,1,3,2,5,2,8,1,3,3
23:56:00,4,2,2,2,3,7,3,3,3
23:57:00,2,1,3,2,3,13,1,2,4
23:58:00,3,1,2,2,3,8,1,2,3
23:59:00,1,2,2,1,1,5,1,1,2
,,,,,,,,,
Totals,,,,,,,,,
12H(7-19),16743,15845,16065,15174,15974,15059,12689,15960,15364
16H(6-22),19776,19231,19283,18382,18944,17216,14463,19123,18185
18H(6-24),20297,19856,19989,19079,19780,18097,14838,19800,18848
24H(0-24),20739,20322,20453,19530,20281,18655,15435,20265,19345
,,,,,,,,,
AM Peak,10:13:00,09:05:00,10:55:00,10:59:00,10:32:00,09:58:00,11:00:00,10:01:00,10:01:00
,1465,1356,1363,1421,1459,1539,1400,1373,1390
,,,,,,,,,
PM Peak,14:03:00,18:18:00,14:10:00,18:10:00,12:45:00,12:14:00,12:04:00,14:00:00,14:00:00
,1609,1504,1564,1373,1499,1539,1591,1461,1441
,,,,,,,,,
,,,,,,,,,
CA Traffic,,,,,,,,,VDA-net R2 16/01/2020
