Site Number,00008017,Unnamed: 2,Site Reference,00008017.1,Unnamed: 5,Unnamed: 6,Lat/Lng.,"52.03773,1.20164",Unnamed: 9
Radar 8017 Felixstowe Road Ipswich,,,,,,,,,
Vehicle Count Report,,,,Week Begin: 20 January 2020,,,Channel:,Total Flow,
,,,,,,,,,
,,,,,,,,,
,2020-01-20 00:00:00,2020-01-21 00:00:00,2020-01-22 00:00:00,2020-01-23 00:00:00,2020-01-24 00:00:00,2020-01-25 00:00:00,2020-01-26 00:00:00,"5-Day
Ave.","7-Day
Ave."
00:00:00,0,0,0,1,1,6,2,0,1
00:01:00,0,1,1,2,2,1,4,1,2
00:02:00,0,1,0,1,3,3,2,1,1
00:03:00,1,3,1,2,4,2,1,2,2
00:04:00,1,1,1,1,2,1,1,1,1
00:05:00,2,0,4,0,2,4,3,2,2
00:06:00,3,0,4,2,2,4,5,2,3
00:07:00,2,1,2,4,2,0,5,2,2
00:08:00,5,4,2,2,1,2,4,3,3
00:09:00,0,3,1,1,1,4,2,1,2
00:10:00,4,2,3,0,0,1,1,2,2
00:11:00,0,1,1,2,1,3,3,1,2
00:12:00,1,1,0,1,1,4,3,1,2
00:13:00,1,1,1,2,1,1,1,1,1
00:14:00,1,1,1,1,2,2,5,1,2
00:15:00,3,0,2,1,1,2,7,1,2
00:16:00,1,1,4,2,1,5,5,2,3
00:17:00,1,3,2,3,2,3,3,2,2
00:18:00,4,2,2,0,1,2,3,2,2
00:19:00,2,3,3,2,2,2,0,2,2
00:20:00,1,1,1,1,1,1,3,1,1
00:21:00,0,0,0,1,1,2,3,0,1
00:22:00,0,3,1,3,3,1,4,2,2
00:23:00,1,1,2,2,2,3,3,2,2
00:24:00,2,1,2,1,0,2,4,1,2
00:25:00,1,2,0,1,0,1,6,1,2
00:26:00,0,1,1,0,2,4,5,1,2
00:27:00,0,0,3,2,3,6,4,2,3
00:28:00,3,1,1,1,1,3,0,1,1
00:29:00,2,0,0,0,1,1,3,1,1
00:30:00,2,2,2,1,0,4,1,1,2
00:31:00,0,1,1,2,1,1,1,1,1
00:32:00,0,2,0,1,1,1,0,1,1
00:33:00,1,0,1,0,0,1,1,0,1
00:34:00,0,6,2,1,3,0,3,2,2
00:35:00,1,1,1,1,0,0,2,1,1
00:36:00,0,0,1,3,1,1,3,1,1
00:37:00,0,0,0,0,0,0,3,0,0
00:38:00,1,0,1,4,1,1,2,1,1
00:39:00,2,0,0,3,1,2,4,1,2
00:40:00,4,1,0,3,0,2,2,2,2
00:41:00,4,1,0,0,0,2,0,1,1
00:42:00,0,0,1,1,0,2,2,0,1
00:43:00,0,2,1,0,1,2,1,1,1
00:44:00,0,0,2,1,0,3,1,1,1
00:45:00,0,1,1,2,1,6,2,1,2
00:46:00,2,0,0,2,2,2,3,1,2
00:47:00,0,0,0,0,0,2,3,0,1
00:48:00,1,0,1,2,1,0,3,1,1
00:49:00,0,1,0,0,2,1,3,1,1
00:50:00,0,1,0,0,0,1,1,0,0
00:51:00,0,0,0,0,1,2,4,0,1
00:52:00,0,0,1,0,3,2,0,1,1
00:53:00,1,0,1,1,0,0,3,1,1
00:54:00,0,1,0,1,3,2,0,1,1
00:55:00,1,0,2,0,1,0,0,1,1
00:56:00,1,0,0,0,1,0,0,0,0
00:57:00,3,1,2,0,1,2,4,1,2
00:58:00,1,1,0,0,1,0,1,1,1
00:59:00,0,1,1,3,1,1,1,1,1
01:00:00,4,2,1,0,0,2,1,1,1
01:01:00,0,0,1,3,2,3,3,1,2
01:02:00,1,1,0,0,0,1,2,0,1
01:03:00,1,4,0,1,0,0,0,1,1
01:04:00,0,1,1,0,0,1,3,0,1
01:05:00,0,1,1,2,2,2,1,1,1
01:06:00,1,0,0,0,0,2,0,0,0
01:07:00,1,1,0,1,2,3,0,1,1
01:08:00,1,2,0,2,1,3,4,1,2
01:09:00,0,0,2,1,0,0,1,1,1
01:10:00,1,0,0,0,0,3,3,0,1
01:11:00,1,0,2,0,0,4,1,1,1
01:12:00,2,0,0,0,0,1,5,0,1
01:13:00,0,1,0,0,1,0,2,0,1
01:14:00,0,1,1,0,0,2,1,0,1
01:15:00,1,0,0,0,1,2,1,0,1
01:16:00,1,1,0,3,0,3,1,1,1
01:17:00,0,0,0,0,0,1,1,0,0
01:18:00,0,0,1,1,0,3,2,0,1
01:19:00,0,0,0,2,0,2,3,0,1
01:20:00,0,0,0,2,0,1,2,0,1
01:21:00,0,0,0,2,0,3,2,0,1
01:22:00,0,1,0,0,0,2,3,0,1
01:23:00,0,2,1,1,1,3,0,1,1
01:24:00,0,0,0,2,1,2,2,1,1
01:25:00,0,1,0,1,0,1,1,0,1
01:26:00,0,1,0,2,0,1,2,1,1
01:27:00,0,1,1,1,1,1,3,1,1
01:28:00,1,0,1,0,0,0,1,0,0
01:29:00,1,1,0,0,0,1,3,0,1
01:30:00,1,1,1,1,0,1,4,1,1
01:31:00,1,0,0,1,0,2,3,0,1
01:32:00,0,0,0,0,0,4,1,0,1
01:33:00,1,1,2,0,1,0,2,1,1
01:34:00,0,0,0,2,0,1,1,0,1
01:35:00,0,0,0,0,0,1,4,0,1
01:36:00,0,0,0,0,0,3,0,0,0
01:37:00,1,1,0,0,0,4,2,0,1
01:38:00,1,2,0,0,0,1,2,1,1
01:39:00,0,0,0,0,1,0,1,0,0
01:40:00,0,0,0,2,0,1,0,0,0
01:41:00,0,0,1,0,1,1,0,0,0
01:42:00,2,1,0,1,0,1,2,1,1
01:43:00,0,0,0,1,1,4,0,0,1
01:44:00,0,6,1,0,1,4,0,2,2
01:45:00,2,1,0,0,1,2,0,1,1
01:46:00,0,2,0,0,1,2,1,1,1
01:47:00,0,0,2,0,3,1,3,1,1
01:48:00,1,0,2,1,0,0,2,1,1
01:49:00,0,0,2,1,1,2,3,1,1
01:50:00,0,1,0,1,0,2,0,0,1
01:51:00,0,1,2,1,1,3,1,1,1
01:52:00,3,1,0,0,2,1,4,1,2
01:53:00,0,0,0,1,2,1,0,1,1
01:54:00,1,1,2,0,1,3,1,1,1
01:55:00,0,0,3,0,1,0,6,1,1
01:56:00,1,0,0,0,0,3,0,0,1
01:57:00,2,0,0,0,2,1,1,1,1
01:58:00,1,0,1,0,0,0,3,0,1
01:59:00,0,1,0,1,0,2,1,0,1
02:00:00,1,2,0,0,0,0,1,1,1
02:01:00,1,0,0,1,1,1,0,1,1
02:02:00,0,0,0,2,0,1,4,0,1
02:03:00,0,1,0,2,0,0,1,1,1
02:04:00,1,1,0,1,0,0,0,1,0
02:05:00,2,0,1,1,0,0,0,1,1
02:06:00,0,1,0,0,1,0,1,0,0
02:07:00,1,1,1,0,0,2,0,1,1
02:08:00,0,2,3,4,1,1,0,2,2
02:09:00,2,5,1,0,0,1,1,2,1
02:10:00,3,2,0,0,1,1,1,1,1
02:11:00,2,0,2,0,1,0,2,1,1
02:12:00,0,0,1,0,1,3,1,0,1
02:13:00,0,2,2,1,0,0,0,1,1
02:14:00,1,0,0,2,0,2,0,1,1
02:15:00,2,1,0,0,1,1,1,1,1
02:16:00,0,1,0,1,0,2,2,0,1
02:17:00,0,0,1,0,0,0,0,0,0
02:18:00,0,2,1,1,2,2,2,1,1
02:19:00,1,0,2,0,0,1,2,1,1
02:20:00,1,0,1,1,0,0,1,1,1
02:21:00,2,0,0,0,0,2,0,0,1
02:22:00,0,0,1,0,1,0,1,0,0
02:23:00,2,0,1,1,0,2,1,1,1
02:24:00,1,1,0,1,0,0,0,1,0
02:25:00,0,0,0,0,1,0,0,0,0
02:26:00,0,0,0,0,0,1,0,0,0
02:27:00,1,0,0,0,0,0,0,0,0
02:28:00,0,1,1,1,0,0,0,1,0
02:29:00,0,1,0,1,1,1,1,1,1
02:30:00,0,0,0,1,0,0,0,0,0
02:31:00,0,1,0,1,0,0,0,0,0
02:32:00,0,0,0,0,1,0,3,0,1
02:33:00,1,2,0,1,0,1,1,1,1
02:34:00,2,0,1,0,0,1,1,1,1
02:35:00,1,1,1,1,1,0,0,1,1
02:36:00,1,1,0,2,2,0,2,1,1
02:37:00,1,2,0,0,0,0,2,1,1
02:38:00,1,4,0,0,0,0,0,1,1
02:39:00,0,0,1,0,0,0,1,0,0
02:40:00,0,2,1,0,0,0,1,1,1
02:41:00,0,0,0,0,1,1,1,0,0
02:42:00,0,0,1,0,1,0,2,0,1
02:43:00,3,2,0,0,0,0,0,1,1
02:44:00,0,1,0,0,0,0,1,0,0
02:45:00,2,0,1,0,1,0,1,1,1
02:46:00,0,0,0,4,0,0,1,1,1
02:47:00,0,0,0,1,0,0,0,0,0
02:48:00,0,1,0,0,1,1,0,0,0
02:49:00,1,0,0,0,1,0,0,0,0
02:50:00,0,0,1,0,0,1,0,0,0
02:51:00,0,0,0,0,1,1,3,0,1
02:52:00,1,1,1,1,1,0,2,1,1
02:53:00,0,1,1,0,0,0,0,0,0
02:54:00,0,1,3,0,0,0,1,1,1
02:55:00,0,2,0,1,0,0,1,1,1
02:56:00,1,0,0,0,1,2,0,0,1
02:57:00,0,0,1,0,0,1,1,0,0
02:58:00,0,0,0,0,0,1,0,0,0
02:59:00,0,0,0,1,2,2,1,1,1
03:00:00,0,1,0,0,0,1,1,0,0
03:01:00,0,1,1,1,1,0,1,1,1
03:02:00,0,1,1,1,1,0,1,1,1
03:03:00,0,0,1,1,3,0,1,1,1
03:04:00,0,1,0,1,1,0,1,1,1
03:05:00,1,0,2,0,1,0,1,1,1
03:06:00,1,1,1,0,1,0,1,1,1
03:07:00,0,1,2,0,1,0,0,1,1
03:08:00,0,0,0,0,1,0,1,0,0
03:09:00,1,0,0,2,0,0,0,1,0
03:10:00,0,1,0,0,0,1,2,0,1
03:11:00,0,0,1,3,1,2,1,1,1
03:12:00,0,2,2,1,0,1,1,1,1
03:13:00,0,1,1,0,0,0,0,0,0
03:14:00,0,0,1,2,1,1,2,1,1
03:15:00,0,0,1,1,0,0,0,0,0
03:16:00,0,0,1,0,1,2,1,0,1
03:17:00,0,0,1,0,0,0,1,0,0
03:18:00,0,0,0,2,0,1,0,0,0
03:19:00,0,0,1,1,0,0,0,0,0
03:20:00,0,1,1,0,0,2,0,0,1
03:21:00,0,3,0,0,2,0,2,1,1
03:22:00,0,0,0,0,0,0,0,0,0
03:23:00,0,0,1,0,0,1,2,0,1
03:24:00,0,0,1,0,4,2,1,1,1
03:25:00,0,0,0,0,3,0,0,1,0
03:26:00,1,0,0,0,0,1,1,0,0
03:27:00,1,3,1,0,0,2,0,1,1
03:28:00,0,1,0,1,1,0,0,1,0
03:29:00,0,0,0,2,2,0,0,1,1
03:30:00,0,0,1,2,0,0,0,1,0
03:31:00,0,1,1,0,2,0,0,1,1
03:32:00,0,0,2,1,1,2,0,1,1
03:33:00,1,0,3,1,0,1,1,1,1
03:34:00,0,0,1,3,4,3,1,2,2
03:35:00,0,0,0,1,0,1,0,0,0
03:36:00,1,0,0,1,2,2,0,1,1
03:37:00,1,0,0,1,1,2,0,1,1
03:38:00,0,1,0,0,2,0,0,1,0
03:39:00,1,1,0,1,2,1,0,1,1
03:40:00,0,0,0,0,0,1,0,0,0
03:41:00,0,0,0,0,1,4,0,0,1
03:42:00,0,1,0,0,1,0,0,0,0
03:43:00,2,0,1,0,1,1,0,1,1
03:44:00,0,0,3,0,0,3,0,1,1
03:45:00,0,1,1,0,0,1,0,0,0
03:46:00,1,0,2,0,2,1,1,1,1
03:47:00,1,0,0,2,2,0,0,1,1
03:48:00,2,0,1,0,1,0,2,1,1
03:49:00,3,1,2,3,1,0,1,2,2
03:50:00,2,0,2,1,2,0,1,1,1
03:51:00,2,0,0,1,0,0,1,1,1
03:52:00,1,0,1,1,1,0,0,1,1
03:53:00,1,0,2,2,1,0,1,1,1
03:54:00,1,0,1,1,2,1,0,1,1
03:55:00,2,0,0,1,1,3,2,1,1
03:56:00,0,1,0,0,0,4,1,0,1
03:57:00,1,0,1,2,3,0,1,1,1
03:58:00,1,1,0,1,0,1,0,1,1
03:59:00,1,0,0,0,0,2,0,0,0
04:00:00,1,6,0,0,0,2,1,1,1
04:01:00,2,1,0,1,2,0,0,1,1
04:02:00,0,2,0,2,1,0,0,1,1
04:03:00,2,1,1,1,3,0,1,2,1
04:04:00,2,0,0,0,1,1,1,1,1
04:05:00,0,2,0,0,1,1,0,1,1
04:06:00,3,0,1,2,4,0,3,2,2
04:07:00,0,0,0,1,0,0,0,0,0
04:08:00,1,0,0,0,1,2,1,0,1
04:09:00,1,0,1,0,0,0,1,0,0
04:10:00,1,2,0,0,0,0,5,1,1
04:11:00,1,1,2,4,1,0,1,2,1
04:12:00,1,0,0,0,0,0,1,0,0
04:13:00,1,1,0,1,0,0,1,1,1
04:14:00,0,0,1,1,0,1,1,0,1
04:15:00,2,4,0,1,1,1,1,2,1
04:16:00,1,2,0,1,1,0,1,1,1
04:17:00,1,0,1,0,2,1,1,1,1
04:18:00,3,1,1,1,2,1,1,2,1
04:19:00,1,0,4,0,2,3,0,1,1
04:20:00,3,0,1,0,0,1,1,1,1
04:21:00,0,0,2,0,3,1,0,1,1
04:22:00,1,2,1,3,1,1,2,2,2
04:23:00,0,2,2,0,0,0,2,1,1
04:24:00,1,0,0,2,1,0,1,1,1
04:25:00,1,1,1,4,3,0,2,2,2
04:26:00,4,3,1,0,2,0,0,2,1
04:27:00,0,1,0,3,1,2,0,1,1
04:28:00,0,2,3,1,2,1,0,2,1
04:29:00,3,1,2,1,2,0,1,2,1
04:30:00,4,1,1,1,2,1,1,2,2
04:31:00,0,0,1,2,1,1,0,1,1
04:32:00,1,2,1,0,0,2,0,1,1
04:33:00,1,1,1,1,2,0,0,1,1
04:34:00,1,1,3,2,1,0,2,2,1
04:35:00,1,1,0,1,2,2,0,1,1
04:36:00,1,1,1,2,3,4,0,2,2
04:37:00,2,1,1,2,3,1,0,2,1
04:38:00,0,1,2,3,1,1,0,1,1
04:39:00,3,2,4,1,2,1,0,2,2
04:40:00,4,1,3,2,3,0,1,3,2
04:41:00,3,2,1,1,4,1,1,2,2
04:42:00,2,4,2,0,3,0,1,2,2
04:43:00,1,2,3,1,1,4,2,2,2
04:44:00,3,2,2,2,3,1,0,2,2
04:45:00,1,3,2,1,3,2,0,2,2
04:46:00,4,0,2,3,1,2,1,2,2
04:47:00,2,4,1,1,2,0,3,2,2
04:48:00,5,3,1,4,1,1,2,3,2
04:49:00,2,2,6,2,3,1,0,3,2
04:50:00,1,1,2,6,2,1,2,2,2
04:51:00,3,4,2,2,5,0,1,3,2
04:52:00,2,1,3,3,4,3,1,3,2
04:53:00,2,2,1,2,2,0,2,2,2
04:54:00,9,2,0,2,1,1,0,3,2
04:55:00,1,1,3,4,6,1,1,3,2
04:56:00,4,0,3,3,1,0,2,2,2
04:57:00,3,2,3,2,3,0,1,3,2
04:58:00,3,2,1,5,0,0,1,2,2
04:59:00,1,2,2,3,0,0,1,2,1
05:00:00,1,3,0,2,0,0,2,1,1
05:01:00,2,1,1,0,2,4,0,1,1
05:02:00,3,1,1,1,1,1,0,1,1
05:03:00,1,4,2,2,1,4,0,2,2
05:04:00,3,1,2,6,2,0,1,3,2
05:05:00,2,0,3,1,2,1,0,2,1
05:06:00,5,0,4,0,4,1,1,3,2
05:07:00,2,1,1,2,0,4,2,1,2
05:08:00,0,1,4,1,2,0,0,2,1
05:09:00,3,0,2,2,2,0,0,2,1
05:10:00,4,1,2,1,1,0,0,2,1
05:11:00,2,1,2,3,3,1,0,2,2
05:12:00,0,0,1,6,1,1,0,2,1
05:13:00,3,3,5,3,4,0,1,4,3
05:14:00,4,2,3,2,1,1,0,2,2
05:15:00,2,5,3,4,2,2,0,3,3
05:16:00,2,4,2,3,0,1,0,2,2
05:17:00,6,3,3,3,5,1,0,4,3
05:18:00,5,1,2,2,2,0,0,2,2
05:19:00,3,4,1,3,3,3,0,3,2
05:20:00,4,5,1,4,2,0,2,3,3
05:21:00,1,5,2,3,1,1,0,2,2
05:22:00,5,2,4,0,3,0,1,3,2
05:23:00,5,3,2,3,2,1,4,3,3
05:24:00,8,6,3,3,6,4,1,5,4
05:25:00,1,3,2,2,5,3,3,3,3
05:26:00,4,4,6,6,4,3,1,5,4
05:27:00,3,3,4,3,1,3,2,3,3
05:28:00,3,2,3,4,1,1,3,3,2
05:29:00,4,1,6,4,3,1,1,4,3
05:30:00,3,4,10,5,5,0,1,5,4
05:31:00,6,5,4,3,6,5,2,5,4
05:32:00,4,5,7,2,5,1,2,5,4
05:33:00,8,4,6,9,10,4,0,7,6
05:34:00,8,7,4,8,4,2,3,6,5
05:35:00,4,7,9,4,7,2,6,6,6
05:36:00,5,6,3,3,11,3,2,6,5
05:37:00,8,5,4,6,8,2,3,6,5
05:38:00,5,3,5,6,2,3,0,4,3
05:39:00,6,8,2,5,5,5,2,5,5
05:40:00,13,10,7,7,3,1,0,8,6
05:41:00,7,9,6,10,9,6,3,8,7
05:42:00,10,6,6,8,6,5,4,7,6
05:43:00,4,9,3,10,5,7,1,6,6
05:44:00,11,10,11,6,3,5,4,8,7
05:45:00,7,9,8,6,9,6,1,8,7
05:46:00,9,9,5,6,7,5,3,7,6
05:47:00,4,9,11,3,7,5,2,7,6
05:48:00,9,3,12,11,7,5,0,8,7
05:49:00,9,5,8,3,16,3,1,8,6
05:50:00,3,10,9,6,9,3,0,7,6
05:51:00,7,12,7,5,8,4,1,8,6
05:52:00,10,8,9,7,8,2,4,8,7
05:53:00,10,7,4,7,9,2,1,7,6
05:54:00,6,5,6,6,6,3,0,6,5
05:55:00,8,2,2,12,5,0,2,6,4
05:56:00,6,9,11,11,10,2,0,9,7
05:57:00,7,9,8,6,12,2,0,8,6
05:58:00,14,5,4,6,6,2,5,7,6
05:59:00,8,11,4,6,4,4,2,7,6
06:00:00,4,5,13,9,6,6,3,7,7
06:01:00,7,8,9,9,9,2,2,8,7
06:02:00,8,9,10,8,9,2,2,9,7
06:03:00,3,10,7,6,10,3,4,7,6
06:04:00,10,4,8,5,7,6,3,7,6
06:05:00,7,3,5,5,5,2,3,5,4
06:06:00,12,6,6,8,10,7,5,8,8
06:07:00,10,9,9,8,14,5,5,10,9
06:08:00,9,5,9,9,6,5,5,8,7
06:09:00,8,4,9,5,8,5,4,7,6
06:10:00,6,8,5,13,6,2,6,8,7
06:11:00,8,9,9,8,10,6,4,9,8
06:12:00,6,5,6,11,11,4,3,8,7
06:13:00,10,4,9,7,5,7,3,7,6
06:14:00,7,15,9,16,9,5,2,11,9
06:15:00,12,7,8,8,7,3,1,8,7
06:16:00,4,10,3,15,4,5,5,7,7
06:17:00,8,14,11,6,11,5,1,10,8
06:18:00,7,9,14,9,7,4,4,9,8
06:19:00,4,9,7,10,16,9,1,9,8
06:20:00,7,9,13,4,7,3,3,8,7
06:21:00,15,5,10,15,8,3,7,11,9
06:22:00,12,10,8,9,8,7,4,9,8
06:23:00,10,8,7,7,5,8,4,7,7
06:24:00,11,9,10,8,10,5,2,10,8
06:25:00,8,21,7,8,15,6,3,12,10
06:26:00,8,11,11,17,11,4,5,12,10
06:27:00,21,16,9,9,9,7,7,13,11
06:28:00,13,7,5,10,15,10,8,10,10
06:29:00,11,25,15,4,5,6,4,12,10
06:30:00,14,14,9,14,10,8,2,12,10
06:31:00,11,14,9,10,11,7,3,11,9
06:32:00,7,9,12,6,11,7,3,9,8
06:33:00,19,9,9,11,13,8,1,12,10
06:34:00,10,19,10,11,11,6,2,12,10
06:35:00,6,25,14,14,12,9,6,14,12
06:36:00,13,13,18,12,18,6,4,15,12
06:37:00,18,20,14,13,13,3,3,16,12
06:38:00,4,33,19,10,16,5,4,16,13
06:39:00,26,15,22,19,12,3,3,19,14
06:40:00,18,17,14,16,22,8,3,17,14
06:41:00,12,26,10,19,16,2,9,17,13
06:42:00,16,31,19,7,10,6,1,17,13
06:43:00,12,27,13,17,13,6,2,16,13
06:44:00,15,26,15,15,10,1,6,16,13
06:45:00,16,37,15,16,13,5,3,19,15
06:46:00,14,25,16,22,21,10,1,20,16
06:47:00,11,22,18,17,21,9,5,18,15
06:48:00,23,24,11,15,10,4,7,17,13
06:49:00,14,26,13,16,20,5,2,18,14
06:50:00,12,29,16,12,15,9,4,17,14
06:51:00,29,29,14,25,21,4,2,24,18
06:52:00,11,19,9,15,7,5,3,12,10
06:53:00,9,30,19,16,19,6,3,19,15
06:54:00,28,26,17,15,15,12,4,20,17
06:55:00,23,33,14,19,13,5,4,20,16
06:56:00,13,22,20,17,16,5,2,18,14
06:57:00,29,27,27,23,28,7,2,27,20
06:58:00,20,31,23,14,20,5,2,22,16
06:59:00,20,26,25,19,15,9,5,21,17
07:00:00,16,26,16,19,15,8,3,18,15
07:01:00,20,24,20,20,32,7,6,23,18
07:02:00,26,37,27,18,13,5,4,24,19
07:03:00,19,29,26,29,16,7,7,24,19
07:04:00,18,33,14,9,19,11,7,19,16
07:05:00,20,31,20,23,19,12,6,23,19
07:06:00,17,24,33,21,24,10,5,24,19
07:07:00,32,34,26,31,27,10,5,30,24
07:08:00,30,39,35,25,23,15,7,30,25
07:09:00,19,41,25,21,16,7,8,24,20
07:10:00,23,27,29,22,36,19,6,27,23
07:11:00,17,34,25,36,22,11,7,27,22
07:12:00,19,29,27,25,22,9,6,24,20
07:13:00,31,26,14,32,26,13,4,26,21
07:14:00,26,20,24,12,34,6,9,23,19
07:15:00,34,45,17,21,21,13,2,28,22
07:16:00,24,24,28,37,34,8,6,29,23
07:17:00,28,25,29,22,22,6,4,25,19
07:18:00,32,22,23,29,32,12,2,28,22
07:19:00,24,33,38,26,29,11,4,30,24
07:20:00,31,32,37,27,26,9,3,31,24
07:21:00,21,24,39,33,27,8,5,29,22
07:22:00,30,21,23,34,29,12,4,27,22
07:23:00,22,18,27,22,32,17,3,24,20
07:24:00,26,18,36,23,30,7,3,27,20
07:25:00,27,14,29,30,31,13,6,26,21
07:26:00,38,14,26,32,33,13,10,29,24
07:27:00,27,19,34,33,28,11,6,28,23
07:28:00,21,39,20,32,27,4,2,28,21
07:29:00,40,35,38,20,32,8,2,33,25
07:30:00,29,25,27,49,24,16,9,31,26
07:31:00,23,28,23,36,35,9,4,29,23
07:32:00,41,22,39,25,30,8,6,31,24
07:33:00,41,20,34,32,37,11,5,33,26
07:34:00,27,14,29,42,26,12,14,28,23
07:35:00,33,23,25,37,34,13,5,30,24
07:36:00,29,29,47,31,39,16,7,35,28
07:37:00,37,27,35,39,29,8,3,33,25
07:38:00,37,20,40,20,40,10,6,31,25
07:39:00,31,25,24,40,30,16,3,30,24
07:40:00,32,22,28,35,42,15,4,32,25
07:41:00,38,20,40,33,39,11,4,34,26
07:42:00,31,27,25,30,25,21,8,28,24
07:43:00,38,14,44,38,41,7,9,35,27
07:44:00,30,7,35,32,24,11,6,26,21
07:45:00,37,5,40,45,30,13,9,31,26
07:46:00,41,12,30,38,40,9,7,32,25
07:47:00,41,1,37,31,42,11,10,30,25
07:48:00,31,2,30,45,30,20,3,28,23
07:49:00,41,13,44,45,42,15,7,37,30
07:50:00,31,18,40,32,37,10,11,32,26
07:51:00,32,18,40,34,37,17,4,32,26
07:52:00,45,16,47,25,37,17,6,34,28
07:53:00,39,24,35,42,36,15,12,35,29
07:54:00,25,17,42,25,34,20,7,29,24
07:55:00,40,15,38,35,33,10,11,32,26
07:56:00,36,20,34,24,38,12,8,30,25
07:57:00,31,14,36,30,35,27,5,29,25
07:58:00,37,23,40,25,28,13,6,31,25
07:59:00,29,14,43,35,39,13,9,32,26
08:00:00,41,20,37,38,34,12,7,34,27
08:01:00,42,8,39,40,44,6,7,35,27
08:02:00,24,14,45,37,24,7,3,29,22
08:03:00,43,4,33,43,34,11,4,31,25
08:04:00,12,6,37,40,29,15,5,25,21
08:05:00,33,18,40,34,40,7,5,33,25
08:06:00,40,15,34,42,41,12,7,34,27
08:07:00,22,7,33,49,36,22,2,29,24
08:08:00,48,10,47,39,40,9,5,37,28
08:09:00,40,22,40,29,38,19,6,34,28
08:10:00,34,10,30,41,45,10,7,32,25
08:11:00,44,11,32,33,33,11,7,31,24
08:12:00,36,11,21,35,42,18,8,29,24
08:13:00,39,24,37,42,41,5,8,37,28
08:14:00,39,12,34,37,39,18,7,32,27
08:15:00,45,11,30,38,45,11,6,34,27
08:16:00,34,17,31,36,29,16,8,29,24
08:17:00,33,6,37,38,31,17,8,29,24
08:18:00,23,12,30,22,42,18,3,26,21
08:19:00,40,11,36,34,29,12,8,30,24
08:20:00,36,5,37,42,30,13,5,30,24
08:21:00,28,21,32,36,44,19,8,32,27
08:22:00,32,8,37,43,37,18,4,31,26
08:23:00,44,12,29,29,41,9,5,31,24
08:24:00,39,22,35,53,42,16,7,38,31
08:25:00,42,8,37,45,28,25,5,32,27
08:26:00,40,15,42,35,36,16,8,34,27
08:27:00,39,3,38,37,39,20,6,31,26
08:28:00,37,10,30,25,35,14,7,27,23
08:29:00,38,8,32,36,33,21,10,29,25
08:30:00,31,9,24,34,44,10,10,28,23
08:31:00,32,2,50,33,38,19,5,31,26
08:32:00,39,19,28,38,27,21,7,30,26
08:33:00,37,0,39,41,46,17,12,33,27
08:34:00,37,1,34,28,34,18,12,27,23
08:35:00,30,0,37,49,33,26,7,30,26
08:36:00,39,0,42,39,45,27,6,33,28
08:37:00,42,0,37,34,36,25,6,30,26
08:38:00,32,1,39,42,34,17,10,30,25
08:39:00,34,0,30,27,35,18,10,25,22
08:40:00,32,13,36,34,36,25,7,30,26
08:41:00,29,2,33,31,36,24,13,26,24
08:42:00,26,5,38,26,45,24,7,28,24
08:43:00,28,14,31,25,36,20,9,27,23
08:44:00,40,5,46,34,25,27,9,30,27
08:45:00,32,7,31,37,29,27,8,27,24
08:46:00,42,12,33,28,28,31,6,29,26
08:47:00,33,15,36,37,36,18,14,31,27
08:48:00,35,13,38,41,30,28,12,31,28
08:49:00,32,16,28,29,36,27,15,28,26
08:50:00,30,5,35,42,37,20,14,30,26
08:51:00,39,6,38,39,33,26,19,31,29
08:52:00,38,15,30,38,40,23,9,32,28
08:53:00,22,2,40,29,33,22,11,25,23
08:54:00,38,4,26,39,31,17,12,28,24
08:55:00,21,15,28,30,34,25,11,26,23
08:56:00,30,7,37,39,38,9,10,30,24
08:57:00,28,5,40,20,38,11,7,26,21
08:58:00,35,22,29,40,27,23,15,31,27
08:59:00,31,9,28,24,37,19,9,26,22
09:00:00,23,1,29,31,26,27,11,22,21
09:01:00,27,4,27,48,31,18,10,27,24
09:02:00,24,6,31,29,26,17,12,23,21
09:03:00,30,4,25,31,26,20,3,23,20
09:04:00,30,13,30,37,34,19,7,29,24
09:05:00,28,28,30,34,37,27,7,31,27
09:06:00,28,20,28,26,34,19,15,27,24
09:07:00,38,8,34,21,32,29,13,27,25
09:08:00,46,2,44,36,36,29,11,33,29
09:09:00,31,0,29,31,32,17,18,25,23
09:10:00,36,3,35,34,40,35,8,30,27
09:11:00,25,2,33,37,32,23,15,26,24
09:12:00,33,11,29,26,23,27,13,24,23
09:13:00,30,10,29,30,35,17,17,27,24
09:14:00,19,3,37,32,30,23,15,24,23
09:15:00,39,2,35,34,28,21,6,28,24
09:16:00,27,4,39,25,36,22,10,26,23
09:17:00,41,6,31,31,32,20,13,28,25
09:18:00,33,10,33,37,33,13,22,29,26
09:19:00,35,23,33,29,36,35,13,31,29
09:20:00,33,19,20,37,29,21,14,28,25
09:21:00,31,12,32,29,33,34,15,27,27
09:22:00,32,0,23,18,34,27,17,21,22
09:23:00,34,0,34,39,31,26,5,28,24
09:24:00,25,0,31,34,37,27,18,25,25
09:25:00,21,0,39,35,28,35,14,25,25
09:26:00,24,0,29,34,36,19,11,25,22
09:27:00,34,14,17,32,29,26,8,25,23
09:28:00,34,13,27,30,34,28,11,28,25
09:29:00,33,3,16,31,32,24,15,23,22
09:30:00,41,14,30,34,39,21,17,32,28
09:31:00,24,19,40,40,22,18,17,29,26
09:32:00,28,23,27,27,35,23,11,28,25
09:33:00,22,30,26,38,27,27,8,29,25
09:34:00,25,0,21,21,28,21,21,19,20
09:35:00,24,6,26,30,38,32,13,25,24
09:36:00,29,10,34,30,36,25,17,28,26
09:37:00,22,7,23,33,27,23,20,22,22
09:38:00,38,21,34,25,24,28,11,28,26
09:39:00,21,2,25,32,25,25,20,21,21
09:40:00,39,13,20,38,36,22,12,29,26
09:41:00,23,29,21,24,27,35,18,25,25
09:42:00,30,14,25,26,20,32,20,23,24
09:43:00,33,19,39,35,32,32,16,32,29
09:44:00,33,16,32,33,25,37,23,28,28
09:45:00,22,23,26,19,27,20,26,23,23
09:46:00,36,18,33,27,35,35,31,30,31
09:47:00,32,0,26,24,15,28,20,19,21
09:48:00,31,2,26,38,32,36,24,26,27
09:49:00,40,0,32,34,32,28,16,28,26
09:50:00,28,25,21,37,27,25,26,28,27
09:51:00,23,8,38,26,33,32,23,26,26
09:52:00,30,5,29,25,44,28,27,27,27
09:53:00,19,19,22,28,27,27,21,23,23
09:54:00,27,16,34,31,26,28,25,27,27
09:55:00,31,15,27,29,32,35,19,27,27
09:56:00,35,11,32,29,28,29,18,27,26
09:57:00,22,18,25,16,35,36,20,23,25
09:58:00,38,12,34,34,35,20,10,31,26
09:59:00,30,10,23,19,23,21,19,21,21
10:00:00,23,3,24,34,23,26,27,21,23
10:01:00,17,13,30,30,38,25,26,26,26
10:02:00,16,22,20,31,29,27,25,24,24
10:03:00,32,9,27,28,29,29,23,25,25
10:04:00,32,17,25,33,30,21,23,27,26
10:05:00,30,17,38,31,31,31,19,29,28
10:06:00,26,27,24,23,31,29,24,26,26
10:07:00,36,10,18,31,35,31,28,26,27
10:08:00,24,12,32,31,33,24,29,26,26
10:09:00,20,9,27,25,27,31,28,22,24
10:10:00,32,18,34,35,31,34,24,30,30
10:11:00,21,15,33,37,27,39,34,27,29
10:12:00,26,12,35,16,27,28,28,23,25
10:13:00,43,18,26,27,20,27,23,27,26
10:14:00,25,16,28,31,35,34,32,27,29
10:15:00,31,22,14,24,31,44,25,24,27
10:16:00,21,5,35,29,30,37,27,24,26
10:17:00,30,4,29,28,33,44,35,25,29
10:18:00,28,3,34,38,32,36,28,27,28
10:19:00,33,34,41,21,18,32,40,29,31
10:20:00,26,25,21,18,29,45,31,24,28
10:21:00,29,20,34,22,21,37,25,25,27
10:22:00,20,19,38,25,30,30,29,26,27
10:23:00,19,28,35,26,26,35,22,27,27
10:24:00,22,25,20,28,28,40,41,25,29
10:25:00,33,8,30,28,34,20,34,27,27
10:26:00,38,9,23,27,34,41,36,26,30
10:27:00,20,22,30,23,22,36,46,23,28
10:28:00,19,22,36,43,23,36,27,29,29
10:29:00,33,20,35,21,30,33,26,28,28
10:30:00,29,23,33,33,39,34,29,31,31
10:31:00,29,19,27,29,21,33,30,25,27
10:32:00,22,19,23,32,33,27,21,26,25
10:33:00,30,16,25,26,41,20,35,28,28
10:34:00,44,15,25,15,29,35,41,26,29
10:35:00,32,22,37,36,29,38,24,31,31
10:36:00,34,32,33,36,32,28,26,33,32
10:37:00,23,14,27,27,13,31,38,21,25
10:38:00,31,10,31,21,33,32,32,25,27
10:39:00,20,29,33,12,28,51,35,24,30
10:40:00,26,30,34,47,22,34,33,32,32
10:41:00,28,14,19,33,29,36,27,25,27
10:42:00,22,19,34,34,34,45,36,29,32
10:43:00,40,18,46,24,25,31,30,31,31
10:44:00,28,6,28,38,44,24,29,29,28
10:45:00,25,19,24,28,26,39,25,24,27
10:46:00,36,30,35,29,30,41,41,32,35
10:47:00,21,14,24,34,37,37,31,26,28
10:48:00,26,6,32,27,33,39,37,25,29
10:49:00,30,10,30,39,33,27,26,28,28
10:50:00,29,24,30,34,31,40,34,30,32
10:51:00,29,23,34,19,27,35,33,26,29
10:52:00,28,29,30,28,29,23,26,29,28
10:53:00,34,21,28,29,26,46,28,28,30
10:54:00,33,12,26,28,34,28,29,27,27
10:55:00,37,24,25,27,35,28,25,30,29
10:56:00,26,26,30,35,26,24,35,29,29
10:57:00,23,24,22,29,33,31,38,26,29
10:58:00,22,13,19,24,33,42,23,22,25
10:59:00,22,25,26,30,26,21,43,26,28
11:00:00,28,32,24,22,32,27,32,28,28
11:01:00,28,18,32,26,30,26,23,27,26
11:02:00,35,22,36,36,29,35,30,32,32
11:03:00,29,29,25,28,38,31,22,30,29
11:04:00,27,19,29,39,30,42,32,29,31
11:05:00,31,30,28,21,28,30,31,28,28
11:06:00,41,22,47,42,28,39,34,36,36
11:07:00,27,29,14,29,26,25,19,25,24
11:08:00,42,22,23,34,35,36,35,31,32
11:09:00,22,22,34,35,28,31,22,28,28
11:10:00,33,23,27,25,34,24,34,28,29
11:11:00,28,17,27,30,39,42,25,28,30
11:12:00,34,27,35,33,32,43,36,32,34
11:13:00,16,17,21,30,24,31,37,22,25
11:14:00,26,19,26,27,26,39,32,25,28
11:15:00,28,28,30,22,31,34,26,28,28
11:16:00,26,24,32,35,28,27,29,29,29
11:17:00,34,18,20,23,35,28,33,26,27
11:18:00,24,28,44,24,33,34,26,31,30
11:19:00,17,23,38,29,30,24,31,27,27
11:20:00,20,26,32,40,20,36,39,28,30
11:21:00,47,28,35,40,23,33,26,35,33
11:22:00,30,37,23,39,38,35,29,33,33
11:23:00,21,25,31,31,25,28,23,27,26
11:24:00,37,32,37,30,23,33,25,32,31
11:25:00,30,24,27,15,36,33,29,26,28
11:26:00,20,32,25,35,19,53,24,26,30
11:27:00,35,19,24,23,19,32,30,24,26
11:28:00,45,34,23,28,29,22,28,32,30
11:29:00,27,21,31,32,27,42,31,28,30
11:30:00,25,25,31,28,31,25,20,28,26
11:31:00,36,23,49,27,40,34,30,35,34
11:32:00,29,18,23,31,32,28,31,27,27
11:33:00,26,30,31,36,35,26,19,32,29
11:34:00,28,38,29,18,35,30,29,30,30
11:35:00,32,28,24,28,29,29,37,28,30
11:36:00,30,30,35,28,33,29,36,31,32
11:37:00,24,26,35,38,33,32,34,31,32
11:38:00,39,24,34,31,36,43,37,33,35
11:39:00,32,35,29,30,25,48,30,30,33
11:40:00,24,24,40,29,30,26,36,29,30
11:41:00,34,27,29,32,34,36,45,31,34
11:42:00,26,20,38,38,40,38,33,32,33
11:43:00,25,23,33,27,44,36,40,30,33
11:44:00,32,26,24,37,36,27,26,31,30
11:45:00,30,28,32,38,36,39,34,33,34
11:46:00,29,26,21,40,45,33,38,32,33
11:47:00,21,23,38,33,42,41,26,31,32
11:48:00,37,30,24,32,20,37,30,29,30
11:49:00,30,23,34,30,36,29,37,31,31
11:50:00,28,36,49,33,35,36,28,36,35
11:51:00,26,36,30,26,42,32,37,32,33
11:52:00,35,27,23,33,30,35,41,30,32
11:53:00,41,34,34,38,26,39,37,35,36
11:54:00,36,31,20,36,35,37,31,32,32
11:55:00,38,35,31,29,32,30,24,33,31
11:56:00,34,26,40,35,41,33,43,35,36
11:57:00,21,24,36,30,28,29,31,28,28
11:58:00,27,34,29,31,37,27,42,32,32
11:59:00,24,22,28,34,37,38,28,29,30
12:00:00,31,25,36,20,34,44,28,29,31
12:01:00,25,22,22,25,34,44,36,26,30
12:02:00,26,24,33,29,42,40,42,31,34
12:03:00,29,24,32,16,25,39,33,25,28
12:04:00,34,37,30,37,42,39,29,36,35
12:05:00,27,27,32,39,35,37,28,32,32
12:06:00,31,32,40,37,38,43,20,36,34
12:07:00,30,36,34,46,33,32,43,36,36
12:08:00,37,30,28,46,32,42,36,35,36
12:09:00,25,17,39,36,45,36,33,32,33
12:10:00,36,21,26,20,36,51,40,28,33
12:11:00,21,32,29,36,30,39,40,30,32
12:12:00,51,21,32,35,39,46,35,36,37
12:13:00,31,23,38,25,31,30,34,30,30
12:14:00,30,22,29,40,26,47,38,29,33
12:15:00,34,26,28,30,44,23,26,32,30
12:16:00,33,33,30,37,38,45,31,34,35
12:17:00,21,23,39,26,20,42,42,26,30
12:18:00,19,23,19,26,34,40,38,24,28
12:19:00,32,34,33,24,35,36,25,32,31
12:20:00,35,31,31,34,38,45,35,34,36
12:21:00,26,31,38,35,30,31,26,32,31
12:22:00,32,19,28,28,30,42,25,27,29
12:23:00,35,30,35,26,35,44,45,32,36
12:24:00,37,26,29,31,33,36,35,31,32
12:25:00,27,20,38,26,30,36,37,28,31
12:26:00,38,36,35,31,43,28,39,37,36
12:27:00,34,24,26,35,27,34,29,29,30
12:28:00,30,18,39,33,39,61,35,32,36
12:29:00,35,26,31,31,33,45,33,31,33
12:30:00,28,29,29,27,31,29,27,29,29
12:31:00,35,23,31,22,36,34,40,29,32
12:32:00,31,39,34,29,31,20,35,33,31
12:33:00,24,35,38,36,37,44,43,34,37
12:34:00,33,28,32,30,41,28,41,33,33
12:35:00,41,27,29,36,36,36,44,34,36
12:36:00,29,32,26,24,32,29,39,29,30
12:37:00,36,27,34,40,40,49,33,35,37
12:38:00,41,36,32,28,32,44,35,34,35
12:39:00,30,27,34,34,37,35,42,32,34
12:40:00,36,26,23,36,45,39,23,33,33
12:41:00,43,23,24,24,27,52,51,28,35
12:42:00,31,37,27,29,60,37,40,37,37
12:43:00,19,31,28,26,37,36,32,28,30
12:44:00,34,30,30,29,32,31,32,31,31
12:45:00,38,37,32,29,39,37,44,35,37
12:46:00,45,31,43,38,27,41,34,37,37
12:47:00,21,32,35,31,46,31,40,33,34
12:48:00,36,26,31,30,28,42,51,30,35
12:49:00,44,34,31,31,48,41,29,38,37
12:50:00,30,23,34,25,38,36,43,30,33
12:51:00,41,22,43,30,35,39,48,34,37
12:52:00,34,26,38,30,33,42,42,32,35
12:53:00,31,31,33,27,26,30,41,30,31
12:54:00,32,36,44,29,33,37,43,35,36
12:55:00,38,32,32,26,34,32,32,32,32
12:56:00,37,28,28,42,38,33,20,35,32
12:57:00,45,33,36,35,34,40,40,37,38
12:58:00,33,30,34,33,41,35,32,34,34
12:59:00,31,39,39,23,33,22,37,33,32
13:00:00,38,41,21,32,31,45,44,33,36
13:01:00,25,36,40,25,27,40,28,31,32
13:02:00,20,43,20,40,24,37,35,29,31
13:03:00,20,36,25,30,35,35,39,29,31
13:04:00,46,32,38,38,40,37,40,39,39
13:05:00,27,34,27,25,39,25,28,30,29
13:06:00,23,31,31,35,34,49,30,31,33
13:07:00,33,28,35,13,33,39,45,28,32
13:08:00,25,23,21,30,30,41,26,26,28
13:09:00,43,31,28,38,43,37,43,37,38
13:10:00,25,33,21,23,30,37,30,26,28
13:11:00,38,32,24,30,31,42,31,31,33
13:12:00,43,25,37,28,45,41,32,36,36
13:13:00,24,41,25,24,35,32,41,30,32
13:14:00,26,24,26,35,34,37,33,29,31
13:15:00,27,26,23,25,31,32,35,26,28
13:16:00,30,20,34,34,35,35,45,31,33
13:17:00,29,23,36,36,27,27,38,30,31
13:18:00,26,29,32,27,40,55,38,31,35
13:19:00,12,36,31,45,35,41,31,32,33
13:20:00,34,28,40,33,40,43,37,35,36
13:21:00,27,33,21,28,31,22,33,28,28
13:22:00,26,28,34,35,44,31,42,33,34
13:23:00,35,40,42,37,33,34,31,37,36
13:24:00,27,25,34,28,31,32,35,29,30
13:25:00,27,35,27,25,39,39,29,31,32
13:26:00,38,33,28,36,19,44,44,31,35
13:27:00,25,26,36,26,39,33,28,30,30
13:28:00,38,36,31,35,44,25,42,37,36
13:29:00,30,36,41,41,37,39,34,37,37
13:30:00,27,38,31,25,27,31,39,30,31
13:31:00,16,33,27,38,36,41,23,30,31
13:32:00,32,26,37,34,28,42,25,31,32
13:33:00,24,33,29,43,32,37,33,32,33
13:34:00,25,33,30,34,35,37,36,31,33
13:35:00,26,35,32,32,29,29,35,31,31
13:36:00,24,33,35,27,22,36,33,28,30
13:37:00,37,23,30,40,30,30,28,32,31
13:38:00,37,21,29,26,42,44,32,31,33
13:39:00,21,40,31,32,28,39,32,30,32
13:40:00,42,35,29,29,26,32,35,32,33
13:41:00,26,41,38,20,25,34,40,30,32
13:42:00,23,28,24,26,27,45,28,26,29
13:43:00,34,30,33,29,35,40,30,32,33
13:44:00,24,48,37,32,41,24,32,36,34
13:45:00,34,28,37,32,30,39,29,32,33
13:46:00,27,32,19,26,30,37,45,27,31
13:47:00,34,45,36,28,33,31,29,35,34
13:48:00,29,27,29,35,45,31,37,33,33
13:49:00,29,37,42,36,35,31,48,36,37
13:50:00,33,30,29,39,30,27,32,32,31
13:51:00,31,29,38,39,28,38,36,33,34
13:52:00,37,32,38,39,39,48,21,37,36
13:53:00,44,43,35,33,25,24,33,36,34
13:54:00,39,31,25,31,43,49,35,34,36
13:55:00,23,41,30,25,33,45,41,30,34
13:56:00,28,36,32,34,27,37,29,31,32
13:57:00,38,25,35,25,36,40,44,32,35
13:58:00,33,31,23,29,25,26,35,28,29
13:59:00,26,32,25,35,36,42,36,31,33
14:00:00,28,28,27,29,35,39,49,29,34
14:01:00,32,35,35,23,37,35,41,32,34
14:02:00,34,26,29,27,26,45,27,28,31
14:03:00,34,40,23,20,32,44,40,30,33
14:04:00,31,27,28,30,37,29,25,31,30
14:05:00,42,43,25,18,26,41,31,31,32
14:06:00,30,23,35,33,26,39,42,29,33
14:07:00,31,45,37,31,37,40,29,36,36
14:08:00,26,31,36,44,36,36,33,35,35
14:09:00,32,37,31,39,33,23,36,34,33
14:10:00,32,31,31,37,36,33,36,33,34
14:11:00,29,37,42,33,35,31,32,35,34
14:12:00,36,31,33,30,43,41,45,35,37
14:13:00,29,26,25,36,46,31,33,32,32
14:14:00,41,31,24,30,36,42,36,32,34
14:15:00,30,33,18,35,28,47,37,29,33
14:16:00,32,29,36,35,27,46,35,32,34
14:17:00,30,27,31,32,28,39,29,30,31
14:18:00,26,39,31,26,38,31,34,32,32
14:19:00,36,29,23,23,26,42,29,27,30
14:20:00,37,27,28,31,38,33,28,32,32
14:21:00,33,26,25,28,38,34,37,30,32
14:22:00,46,34,23,30,40,37,32,35,35
14:23:00,31,41,23,24,41,41,34,32,34
14:24:00,27,50,28,24,19,22,22,30,27
14:25:00,41,35,33,26,33,39,26,34,33
14:26:00,30,38,36,32,28,44,33,33,34
14:27:00,39,37,33,37,34,31,31,36,35
14:28:00,37,29,28,29,29,25,17,30,28
14:29:00,24,30,33,40,36,32,35,33,33
14:30:00,36,33,32,37,35,31,32,35,34
14:31:00,36,35,35,34,43,29,28,37,34
14:32:00,27,39,24,33,31,40,29,31,32
14:33:00,35,21,27,27,28,28,32,28,28
14:34:00,26,23,40,31,39,29,34,32,32
14:35:00,26,45,39,17,32,39,23,32,32
14:36:00,34,35,40,31,38,29,23,36,33
14:37:00,28,24,38,24,34,39,35,30,32
14:38:00,35,33,29,27,44,37,24,34,33
14:39:00,38,36,27,45,34,33,30,36,35
14:40:00,25,39,35,38,32,51,38,34,37
14:41:00,24,27,26,31,38,33,35,29,31
14:42:00,25,29,34,36,43,40,36,33,35
14:43:00,34,34,29,30,30,29,31,31,31
14:44:00,35,29,26,34,33,36,34,31,32
14:45:00,23,33,28,39,26,46,47,30,35
14:46:00,25,19,47,45,41,31,31,35,34
14:47:00,24,22,40,20,40,41,32,29,31
14:48:00,27,30,35,29,43,26,33,33,32
14:49:00,15,37,30,40,30,38,31,30,32
14:50:00,26,38,44,41,13,34,53,32,36
14:51:00,25,28,35,37,38,32,21,33,31
14:52:00,26,29,32,37,33,36,28,31,32
14:53:00,30,34,32,30,32,41,36,32,34
14:54:00,35,24,35,27,34,34,30,31,31
14:55:00,42,27,35,32,41,37,30,35,35
14:56:00,37,36,34,40,30,34,29,35,34
14:57:00,46,28,20,32,36,31,41,32,33
14:58:00,32,29,23,27,35,33,24,29,29
14:59:00,33,27,36,31,39,29,27,33,32
15:00:00,20,31,32,30,29,40,36,28,31
15:01:00,13,30,41,37,28,22,33,30,29
15:02:00,34,27,36,31,28,26,37,31,31
15:03:00,23,21,25,26,40,40,38,27,30
15:04:00,31,34,44,29,41,32,35,36,35
15:05:00,34,27,35,33,32,32,41,32,33
15:06:00,25,28,34,45,33,34,35,33,33
15:07:00,17,44,35,37,22,40,46,31,34
15:08:00,39,23,27,30,35,33,36,31,32
15:09:00,42,34,39,36,37,48,30,38,38
15:10:00,33,28,25,32,31,36,44,30,33
15:11:00,28,33,36,37,33,47,40,33,36
15:12:00,35,31,24,38,41,33,31,34,33
15:13:00,32,28,44,34,49,28,24,37,34
15:14:00,32,31,22,36,33,50,35,31,34
15:15:00,43,34,34,27,32,27,30,34,32
15:16:00,25,43,36,24,38,37,44,33,35
15:17:00,35,37,34,28,28,24,32,32,31
15:18:00,36,17,23,32,38,23,33,29,29
15:19:00,35,34,24,31,33,36,33,31,32
15:20:00,41,34,31,24,26,28,29,31,30
15:21:00,33,28,16,35,35,32,31,29,30
15:22:00,33,21,37,28,42,42,29,32,33
15:23:00,38,27,41,19,26,34,29,30,31
15:24:00,30,21,32,37,34,31,31,31,31
15:25:00,37,25,25,32,31,35,34,30,31
15:26:00,28,37,34,36,29,35,38,33,34
15:27:00,39,32,20,32,41,25,34,33,32
15:28:00,35,17,36,25,34,35,24,29,29
15:29:00,32,20,26,30,30,24,26,28,27
15:30:00,27,26,42,25,33,30,33,31,31
15:31:00,27,24,32,27,33,36,31,29,30
15:32:00,41,25,32,42,27,31,28,33,32
15:33:00,27,32,36,26,30,38,29,30,31
15:34:00,25,32,32,38,28,29,20,31,29
15:35:00,26,35,33,35,33,32,22,32,31
15:36:00,21,29,36,34,37,27,29,31,30
15:37:00,31,32,37,27,41,31,24,34,32
15:38:00,35,32,29,29,30,19,37,31,30
15:39:00,26,24,31,45,23,49,42,30,34
15:40:00,37,40,27,24,48,38,36,35,36
15:41:00,31,30,30,36,30,32,25,31,31
15:42:00,17,23,31,16,39,23,29,25,25
15:43:00,28,31,28,30,28,36,38,29,31
15:44:00,32,21,19,33,41,26,23,29,28
15:45:00,31,24,39,38,35,29,22,33,31
15:46:00,33,32,24,28,39,34,29,31,31
15:47:00,27,27,36,41,26,30,27,31,31
15:48:00,32,28,33,22,26,34,28,28,29
15:49:00,34,25,32,27,31,28,25,30,29
15:50:00,22,36,31,34,26,33,33,30,31
15:51:00,29,26,29,22,32,35,30,28,29
15:52:00,37,36,18,42,39,25,27,34,32
15:53:00,29,28,43,43,36,31,37,36,35
15:54:00,26,22,40,30,15,34,24,27,27
15:55:00,38,41,34,26,34,25,37,35,34
15:56:00,28,25,37,28,25,48,44,29,34
15:57:00,31,31,32,26,30,31,31,30,30
15:58:00,26,35,22,34,44,22,24,32,30
15:59:00,38,37,43,22,32,48,26,34,35
16:00:00,22,34,36,34,27,21,23,31,28
16:01:00,36,40,30,35,37,19,28,36,32
16:02:00,35,30,35,36,33,26,22,34,31
16:03:00,32,29,35,35,34,33,31,33,33
16:04:00,41,29,34,39,41,35,32,37,36
16:05:00,29,44,34,46,34,21,27,37,34
16:06:00,25,34,29,40,36,18,32,33,31
16:07:00,45,39,32,36,37,30,38,38,37
16:08:00,37,37,51,36,34,28,19,39,35
16:09:00,35,26,22,27,32,42,29,28,30
16:10:00,33,47,37,37,37,35,28,38,36
16:11:00,26,25,29,35,37,27,18,30,28
16:12:00,30,33,37,23,32,30,21,31,29
16:13:00,44,32,29,39,26,44,24,34,34
16:14:00,35,40,35,37,41,21,29,38,34
16:15:00,30,41,32,41,42,34,22,37,35
16:16:00,43,36,41,38,30,35,19,38,35
16:17:00,45,31,22,40,29,33,21,33,32
16:18:00,36,46,45,29,43,26,29,40,36
16:19:00,43,32,21,40,36,22,15,34,30
16:20:00,37,33,53,26,42,33,20,38,35
16:21:00,33,36,32,35,35,34,24,34,33
16:22:00,24,39,34,37,36,26,24,34,31
16:23:00,33,32,26,29,32,36,23,30,30
16:24:00,36,30,43,34,33,47,22,35,35
16:25:00,33,34,34,39,28,23,19,34,30
16:26:00,29,34,38,37,27,31,30,33,32
16:27:00,39,36,22,34,38,19,18,34,29
16:28:00,35,27,32,37,34,27,14,33,29
16:29:00,29,37,32,41,37,28,15,35,31
16:30:00,41,26,35,36,51,30,16,38,34
16:31:00,38,34,28,36,24,37,19,32,31
16:32:00,24,39,39,37,41,31,19,36,33
16:33:00,43,35,37,31,44,21,17,38,33
16:34:00,27,36,49,33,40,23,20,37,33
16:35:00,33,37,29,39,40,29,13,36,31
16:36:00,35,35,44,35,34,28,14,37,32
16:37:00,31,34,34,35,35,26,19,34,31
16:38:00,36,47,34,42,40,30,26,40,36
16:39:00,33,39,46,40,33,29,16,38,34
16:40:00,39,32,33,32,36,34,19,34,32
16:41:00,31,34,43,36,33,29,21,35,32
16:42:00,27,38,35,34,33,24,16,33,30
16:43:00,41,46,38,47,39,25,17,42,36
16:44:00,45,33,43,32,51,20,17,41,34
16:45:00,43,22,37,39,46,27,25,37,34
16:46:00,42,37,36,29,30,16,14,35,29
16:47:00,31,41,43,37,41,40,22,39,36
16:48:00,39,42,39,38,29,23,15,37,32
16:49:00,41,35,36,33,36,29,15,36,32
16:50:00,36,29,25,42,52,29,23,37,34
16:51:00,39,38,35,38,33,29,15,37,32
16:52:00,27,41,30,35,33,35,20,33,32
16:53:00,39,31,33,34,43,30,25,36,34
16:54:00,37,32,34,43,31,24,21,35,32
16:55:00,39,35,34,33,35,31,16,35,32
16:56:00,27,32,34,42,39,26,19,35,31
16:57:00,41,45,39,48,35,23,17,42,35
16:58:00,44,25,28,29,31,31,23,31,30
16:59:00,26,38,17,26,28,34,17,27,27
17:00:00,42,31,44,34,28,21,21,36,32
17:01:00,42,33,42,40,43,20,15,40,34
17:02:00,40,52,40,39,43,24,18,43,37
17:03:00,44,39,41,37,38,24,24,40,35
17:04:00,41,42,42,40,37,24,16,40,35
17:05:00,27,37,40,40,37,26,13,36,31
17:06:00,35,28,38,37,49,35,10,37,33
17:07:00,46,40,37,33,44,29,21,40,36
17:08:00,37,41,39,38,36,30,17,38,34
17:09:00,28,46,43,49,29,29,10,39,33
17:10:00,44,30,27,45,38,35,16,37,34
17:11:00,36,39,36,51,45,34,14,41,36
17:12:00,34,45,37,32,33,28,20,36,33
17:13:00,34,45,45,37,57,26,24,44,38
17:14:00,44,32,29,32,43,29,16,36,32
17:15:00,37,43,44,32,53,32,15,42,37
17:16:00,47,37,39,55,41,32,15,44,38
17:17:00,29,38,33,35,34,34,17,34,31
17:18:00,43,30,42,39,47,30,17,40,35
17:19:00,43,35,42,38,44,29,14,40,35
17:20:00,46,44,51,39,33,37,8,43,37
17:21:00,45,42,43,39,45,25,18,43,37
17:22:00,39,40,47,38,40,38,17,41,37
17:23:00,23,36,33,41,42,21,22,35,31
17:24:00,51,32,43,37,40,23,10,41,34
17:25:00,32,21,33,49,40,30,12,35,31
17:26:00,36,28,37,26,37,26,11,33,29
17:27:00,33,43,42,43,38,34,9,40,35
17:28:00,44,31,29,40,41,19,12,37,31
17:29:00,32,39,46,38,36,28,14,38,33
17:30:00,29,31,44,33,32,30,13,34,30
17:31:00,33,35,40,32,36,26,20,35,32
17:32:00,39,39,41,26,36,25,15,36,32
17:33:00,44,32,37,35,36,29,14,37,32
17:34:00,38,34,41,40,39,29,21,38,35
17:35:00,32,34,41,44,34,38,11,37,33
17:36:00,35,34,32,37,36,23,12,35,30
17:37:00,43,39,40,35,42,20,14,40,33
17:38:00,33,40,42,39,28,22,20,36,32
17:39:00,44,41,42,40,42,21,18,42,35
17:40:00,44,31,34,40,39,31,14,38,33
17:41:00,39,38,35,44,31,24,9,37,31
17:42:00,38,36,39,49,28,22,9,38,32
17:43:00,39,36,37,32,60,28,11,41,35
17:44:00,28,38,31,42,34,19,14,35,29
17:45:00,50,42,40,47,39,29,15,44,37
17:46:00,33,41,27,32,40,27,15,35,31
17:47:00,41,28,32,32,46,24,18,36,32
17:48:00,34,31,41,38,32,32,11,35,31
17:49:00,41,32,42,37,40,24,9,38,32
17:50:00,39,32,28,27,35,30,20,32,30
17:51:00,43,41,33,37,38,29,12,38,33
17:52:00,41,41,37,30,30,25,15,36,31
17:53:00,39,42,38,39,26,24,8,37,31
17:54:00,28,34,28,29,32,21,14,30,27
17:55:00,31,41,36,33,29,37,17,34,32
17:56:00,35,45,34,25,30,30,10,34,30
17:57:00,28,31,35,35,37,27,7,33,29
17:58:00,29,34,32,22,26,28,12,29,26
17:59:00,29,37,32,26,40,27,11,33,29
18:00:00,28,45,27,25,32,22,27,31,29
18:01:00,30,27,27,22,27,34,15,27,26
18:02:00,25,32,35,38,31,36,15,32,30
18:03:00,38,32,45,27,34,29,20,35,32
18:04:00,32,37,38,32,32,23,17,34,30
18:05:00,27,39,33,42,32,26,16,35,31
18:06:00,36,17,27,34,37,35,20,30,29
18:07:00,31,29,36,25,35,26,16,31,28
18:08:00,29,28,41,31,34,27,19,33,30
18:09:00,25,35,36,38,28,28,14,32,29
18:10:00,43,26,36,27,37,25,16,34,30
18:11:00,20,37,37,27,33,35,11,31,29
18:12:00,31,30,33,37,28,28,10,32,28
18:13:00,29,31,30,28,29,33,16,29,28
18:14:00,36,53,29,35,45,33,9,40,34
18:15:00,31,27,32,26,26,37,9,28,27
18:16:00,38,34,41,46,33,23,14,38,33
18:17:00,26,34,29,42,36,29,18,33,31
18:18:00,33,29,28,33,28,31,12,30,28
18:19:00,28,31,24,21,44,17,14,30,26
18:20:00,35,33,36,31,30,29,16,33,30
18:21:00,28,26,30,27,20,31,11,26,25
18:22:00,21,34,34,27,24,13,15,28,24
18:23:00,16,39,24,36,29,27,9,29,26
18:24:00,31,32,26,29,38,26,10,31,27
18:25:00,42,33,15,24,33,26,12,29,26
18:26:00,33,30,27,28,30,20,16,30,26
18:27:00,24,24,29,21,25,27,14,25,23
18:28:00,31,41,28,19,25,27,14,29,26
18:29:00,22,25,21,29,23,19,9,24,21
18:30:00,21,31,30,26,25,20,10,27,23
18:31:00,31,13,31,27,20,24,16,24,23
18:32:00,21,36,34,24,28,14,5,29,23
18:33:00,27,25,24,13,26,24,15,23,22
18:34:00,20,24,24,29,20,22,10,23,21
18:35:00,24,27,19,26,23,25,14,24,23
18:36:00,19,30,34,22,33,19,17,28,25
18:37:00,27,28,31,29,22,22,10,27,24
18:38:00,20,16,26,23,17,23,9,20,19
18:39:00,20,36,24,23,32,20,15,27,24
18:40:00,29,31,35,39,27,23,12,32,28
18:41:00,17,25,28,22,35,25,16,25,24
18:42:00,18,23,24,15,28,20,15,22,20
18:43:00,29,31,26,47,30,28,7,33,28
18:44:00,23,30,19,23,23,29,16,24,23
18:45:00,21,25,22,22,30,19,11,24,21
18:46:00,24,25,21,18,25,25,11,23,21
18:47:00,23,24,27,17,22,23,16,23,22
18:48:00,29,22,21,18,26,30,9,23,22
18:49:00,15,28,22,37,19,20,18,24,23
18:50:00,30,18,24,26,33,20,13,26,23
18:51:00,17,28,20,26,35,16,16,25,23
18:52:00,16,29,24,28,17,23,14,23,22
18:53:00,17,29,23,21,30,12,7,24,20
18:54:00,25,23,18,34,29,20,12,26,23
18:55:00,20,24,17,13,24,13,6,20,17
18:56:00,24,21,25,29,26,33,14,25,25
18:57:00,21,31,30,30,19,14,10,26,22
18:58:00,23,21,19,26,21,25,15,22,21
18:59:00,24,24,21,33,20,13,6,24,20
19:00:00,20,21,26,29,20,19,11,23,21
19:01:00,19,31,14,20,26,17,11,22,20
19:02:00,12,17,17,25,20,17,9,18,17
19:03:00,21,25,28,28,20,21,10,24,22
19:04:00,25,22,21,30,14,22,20,22,22
19:05:00,25,23,27,20,30,16,10,25,22
19:06:00,22,14,22,34,33,16,16,25,22
19:07:00,14,31,27,36,35,25,12,29,26
19:08:00,31,14,29,14,31,21,15,24,22
19:09:00,27,29,25,31,24,27,4,27,24
19:10:00,28,30,19,23,32,25,21,26,25
19:11:00,20,22,26,30,29,24,12,25,23
19:12:00,23,35,37,31,28,28,15,31,28
19:13:00,35,28,19,24,26,10,15,26,22
19:14:00,21,25,30,22,30,23,15,26,24
19:15:00,23,24,17,28,31,16,10,25,21
19:16:00,27,16,26,24,31,15,6,25,21
19:17:00,20,29,24,33,33,17,14,28,24
19:18:00,22,25,20,34,31,29,11,26,25
19:19:00,23,30,24,22,14,15,12,23,20
19:20:00,15,35,40,19,27,28,11,27,25
19:21:00,25,29,27,33,30,16,12,29,25
19:22:00,21,30,19,20,24,23,13,23,21
19:23:00,17,24,21,20,26,18,10,22,19
19:24:00,18,15,22,27,29,19,13,22,20
19:25:00,32,22,26,20,19,17,14,24,21
19:26:00,20,16,19,22,22,16,12,20,18
19:27:00,18,20,16,20,21,20,8,19,18
19:28:00,17,18,27,19,17,16,12,20,18
19:29:00,15,14,18,24,24,26,11,19,19
19:30:00,15,32,23,16,18,11,8,21,18
19:31:00,15,12,18,15,16,21,12,15,16
19:32:00,29,12,19,21,17,12,15,20,18
19:33:00,16,15,18,18,12,19,9,16,15
19:34:00,19,18,30,17,23,23,11,21,20
19:35:00,17,14,17,18,17,15,9,17,15
19:36:00,17,20,12,26,13,10,12,18,16
19:37:00,24,15,23,20,13,18,11,19,18
19:38:00,23,14,23,20,19,11,5,20,16
19:39:00,16,28,24,22,19,16,14,22,20
19:40:00,18,21,18,28,21,14,9,21,18
19:41:00,25,23,19,20,25,17,12,22,20
19:42:00,22,20,26,21,17,16,12,21,19
19:43:00,11,21,16,11,24,19,9,17,16
19:44:00,23,17,15,22,25,11,15,20,18
19:45:00,24,17,13,18,21,12,11,19,17
19:46:00,11,12,21,12,18,13,10,15,14
19:47:00,18,22,26,33,18,13,9,23,20
19:48:00,13,16,17,29,19,9,5,19,15
19:49:00,10,12,23,15,12,11,7,14,13
19:50:00,11,13,14,21,20,15,9,16,15
19:51:00,15,12,8,17,16,15,8,14,13
19:52:00,13,20,20,25,15,11,5,19,16
19:53:00,14,12,19,23,15,11,9,17,15
19:54:00,17,17,10,21,17,9,10,16,14
19:55:00,24,21,18,14,25,15,7,20,18
19:56:00,14,13,20,8,16,14,2,14,12
19:57:00,13,14,8,21,22,14,9,16,14
19:58:00,15,18,18,19,18,17,5,18,16
19:59:00,11,21,14,12,13,18,8,14,14
20:00:00,17,14,15,22,7,13,10,15,14
20:01:00,14,11,15,14,18,12,7,14,13
20:02:00,12,21,10,18,17,14,12,16,15
20:03:00,23,12,13,17,15,13,4,16,14
20:04:00,13,19,14,15,13,15,5,15,13
20:05:00,8,21,24,18,15,6,12,17,15
20:06:00,18,19,23,11,23,15,10,19,17
20:07:00,20,20,25,30,21,10,4,23,19
20:08:00,19,19,13,12,17,11,6,16,14
20:09:00,12,14,26,20,19,11,5,18,15
20:10:00,21,15,16,19,18,8,12,18,16
20:11:00,17,17,17,20,19,12,7,18,16
20:12:00,17,23,9,24,15,11,6,18,15
20:13:00,24,17,23,16,14,14,11,19,17
20:14:00,12,16,14,12,16,11,5,14,12
20:15:00,21,18,16,13,14,8,5,16,14
20:16:00,17,16,8,22,23,14,11,17,16
20:17:00,21,22,22,16,15,5,6,19,15
20:18:00,13,23,15,17,11,9,8,16,14
20:19:00,14,20,11,7,17,11,7,14,12
20:20:00,12,16,13,16,10,12,13,13,13
20:21:00,9,15,10,11,12,12,5,11,11
20:22:00,14,17,12,15,15,11,7,15,13
20:23:00,14,15,14,12,13,9,9,14,12
20:24:00,8,11,15,11,17,12,7,12,12
20:25:00,16,19,16,13,6,12,4,14,12
20:26:00,19,16,13,13,13,6,7,15,12
20:27:00,16,14,17,10,14,4,6,14,12
20:28:00,17,11,14,15,7,10,5,13,11
20:29:00,12,18,10,8,12,9,6,12,11
20:30:00,15,10,7,25,6,6,5,13,11
20:31:00,9,11,9,18,16,3,5,13,10
20:32:00,13,11,14,27,6,8,10,14,13
20:33:00,8,10,14,9,10,8,8,10,10
20:34:00,9,8,16,10,9,6,9,10,10
20:35:00,12,16,15,12,14,6,4,14,11
20:36:00,13,15,11,9,16,7,7,13,11
20:37:00,9,10,9,12,17,14,6,11,11
20:38:00,11,11,14,12,11,11,10,12,11
20:39:00,13,8,8,10,20,9,8,12,11
20:40:00,9,14,10,14,7,14,8,11,11
20:41:00,9,9,12,9,21,9,12,12,12
20:42:00,14,10,11,18,12,11,7,13,12
20:43:00,10,7,12,8,14,11,8,10,10
20:44:00,9,15,10,12,12,11,8,12,11
20:45:00,8,9,12,9,10,7,7,10,9
20:46:00,25,7,7,14,14,4,5,13,11
20:47:00,7,12,8,7,12,8,8,9,9
20:48:00,11,9,13,12,11,13,5,11,11
20:49:00,6,8,5,10,11,6,4,8,7
20:50:00,5,9,7,7,15,6,12,9,9
20:51:00,9,10,14,12,11,10,4,11,10
20:52:00,9,11,14,9,15,15,7,12,11
20:53:00,12,8,11,5,10,10,11,9,10
20:54:00,10,17,5,11,14,14,8,11,11
20:55:00,9,10,6,7,12,8,3,9,8
20:56:00,12,5,8,10,7,11,12,8,9
20:57:00,14,13,7,11,11,10,7,11,10
20:58:00,13,12,10,8,13,12,8,11,11
20:59:00,12,11,8,7,8,8,10,9,9
21:00:00,6,17,11,14,6,10,5,11,10
21:01:00,10,8,8,8,8,8,8,8,8
21:02:00,11,9,12,9,7,7,3,10,8
21:03:00,10,9,9,12,9,12,4,10,9
21:04:00,8,7,7,6,16,6,5,9,8
21:05:00,11,9,9,8,12,7,10,10,9
21:06:00,7,11,16,7,6,12,7,9,9
21:07:00,12,6,11,13,7,13,7,10,10
21:08:00,7,6,8,12,10,6,6,9,8
21:09:00,14,7,12,15,10,9,9,12,11
21:10:00,11,7,9,12,19,11,9,12,11
21:11:00,16,13,6,14,5,6,3,11,9
21:12:00,19,9,9,10,4,10,4,10,9
21:13:00,10,6,14,14,13,7,8,11,10
21:14:00,8,10,10,15,7,10,5,10,9
21:15:00,7,13,10,11,8,7,12,10,10
21:16:00,7,7,10,9,12,2,4,9,7
21:17:00,7,8,9,10,6,3,11,8,8
21:18:00,10,11,10,12,13,5,8,11,10
21:19:00,6,8,12,12,9,10,6,9,9
21:20:00,8,13,10,9,11,10,4,10,9
21:21:00,8,6,7,9,5,15,2,7,7
21:22:00,7,11,8,13,7,5,6,9,8
21:23:00,9,13,4,10,6,5,7,8,8
21:24:00,5,12,10,13,13,3,3,11,8
21:25:00,11,12,6,9,8,12,9,9,10
21:26:00,7,7,7,7,8,11,10,7,8
21:27:00,12,12,16,6,14,6,11,12,11
21:28:00,6,13,2,8,7,8,5,7,7
21:29:00,5,11,8,7,15,9,8,9,9
21:30:00,5,7,6,7,8,6,5,7,6
21:31:00,13,6,12,9,10,7,0,10,8
21:32:00,7,12,14,8,5,7,4,9,8
21:33:00,5,10,4,12,8,8,9,8,8
21:34:00,2,8,11,8,6,9,7,7,7
21:35:00,7,5,12,13,7,7,10,9,9
21:36:00,6,4,9,7,8,9,2,7,6
21:37:00,4,8,8,10,11,6,10,8,8
21:38:00,5,8,7,6,6,8,8,6,7
21:39:00,8,7,4,4,9,8,4,6,6
21:40:00,6,7,9,12,7,6,5,8,7
21:41:00,10,6,5,16,8,7,8,9,9
21:42:00,13,13,5,11,8,9,6,10,9
21:43:00,7,6,13,7,11,11,9,9,9
21:44:00,6,7,6,16,6,6,3,8,7
21:45:00,7,8,11,10,6,3,12,8,8
21:46:00,13,12,10,4,12,6,5,10,9
21:47:00,8,6,8,4,12,4,3,8,6
21:48:00,5,8,6,5,8,12,5,6,7
21:49:00,8,11,7,4,12,8,4,8,8
21:50:00,4,3,6,9,11,10,4,7,7
21:51:00,11,6,8,3,8,9,4,7,7
21:52:00,10,5,6,2,11,7,1,7,6
21:53:00,4,6,14,7,3,3,6,7,6
21:54:00,4,5,12,7,16,12,5,9,9
21:55:00,9,10,9,9,8,4,3,9,7
21:56:00,8,7,4,5,5,8,4,6,6
21:57:00,9,10,4,10,8,6,3,8,7
21:58:00,5,8,7,11,6,7,4,7,7
21:59:00,4,6,4,7,9,5,9,6,6
22:00:00,8,5,3,6,6,4,3,6,5
22:01:00,6,10,8,10,9,13,4,9,9
22:02:00,9,4,6,7,4,5,4,6,6
22:03:00,3,6,3,9,8,8,6,6,6
22:04:00,7,7,11,9,6,8,7,8,8
22:05:00,16,5,7,13,11,7,3,10,9
22:06:00,5,6,12,4,8,3,6,7,6
22:07:00,6,5,9,5,7,9,5,6,7
22:08:00,9,13,11,4,8,9,9,9,9
22:09:00,5,13,3,9,12,5,1,8,7
22:10:00,5,4,9,11,13,8,2,8,7
22:11:00,11,4,8,8,10,8,12,8,9
22:12:00,8,13,10,8,5,5,5,9,8
22:13:00,4,12,10,7,10,3,3,9,7
22:14:00,5,15,10,4,7,10,6,8,8
22:15:00,3,6,7,9,6,7,6,6,6
22:16:00,4,4,10,8,5,8,6,6,6
22:17:00,4,5,4,5,4,8,2,4,5
22:18:00,9,5,10,9,8,5,7,8,8
22:19:00,4,6,5,3,7,8,1,5,5
22:20:00,8,9,8,0,4,6,4,6,6
22:21:00,1,5,2,7,5,10,2,4,5
22:22:00,4,8,6,6,5,7,5,6,6
22:23:00,2,5,9,5,5,9,3,5,5
22:24:00,7,8,8,9,8,9,0,8,7
22:25:00,6,11,5,6,3,5,7,6,6
22:26:00,3,8,7,4,6,4,8,6,6
22:27:00,8,2,6,3,5,7,5,5,5
22:28:00,3,1,4,7,6,8,2,4,4
22:29:00,3,9,4,6,4,4,5,5,5
22:30:00,6,8,5,4,5,3,4,6,5
22:31:00,1,4,5,9,8,6,3,5,5
22:32:00,2,3,4,6,7,5,3,4,4
22:33:00,4,6,7,5,6,10,1,6,6
22:34:00,2,9,2,5,3,3,4,4,4
22:35:00,3,4,4,5,3,3,2,4,3
22:36:00,5,5,5,5,13,5,4,7,6
22:37:00,1,5,2,4,3,7,5,3,4
22:38:00,5,8,3,4,11,5,2,6,5
22:39:00,4,2,3,3,3,4,3,3,3
22:40:00,2,5,4,7,4,9,2,4,5
22:41:00,0,5,2,2,3,5,1,2,3
22:42:00,2,5,3,4,5,7,1,4,4
22:43:00,4,4,5,1,3,8,1,3,4
22:44:00,4,4,2,5,5,3,3,4,4
22:45:00,3,7,2,4,2,7,5,4,4
22:46:00,2,4,1,3,3,2,5,3,3
22:47:00,1,7,4,5,8,4,6,5,5
22:48:00,2,7,6,1,5,7,1,4,4
22:49:00,3,6,1,2,10,4,1,4,4
22:50:00,1,1,3,5,3,4,3,3,3
22:51:00,3,5,2,2,7,6,2,4,4
22:52:00,2,3,2,5,8,2,1,4,3
22:53:00,3,4,4,2,4,4,0,3,3
22:54:00,1,5,5,3,3,4,5,3,4
22:55:00,1,0,6,0,1,8,1,2,2
22:56:00,3,4,1,4,5,2,4,3,3
22:57:00,3,1,5,7,7,5,2,5,4
22:58:00,7,3,0,3,7,3,6,4,4
22:59:00,3,5,4,7,3,2,1,4,4
23:00:00,4,3,2,6,8,5,2,5,4
23:01:00,4,2,2,3,4,1,3,3,3
23:02:00,3,1,4,6,9,2,0,5,4
23:03:00,1,4,2,9,3,2,2,4,3
23:04:00,1,3,5,2,7,5,2,4,4
23:05:00,6,0,6,0,6,4,1,4,3
23:06:00,2,3,5,4,9,6,0,5,4
23:07:00,3,5,1,1,5,7,0,3,3
23:08:00,4,1,3,1,2,2,1,2,2
23:09:00,1,0,3,3,2,3,4,2,2
23:10:00,5,5,8,7,4,4,0,6,5
23:11:00,2,1,4,2,5,3,1,3,3
23:12:00,1,8,4,4,5,3,5,4,4
23:13:00,2,5,2,4,8,6,3,4,4
23:14:00,1,4,2,2,8,4,2,3,3
23:15:00,5,3,3,5,5,5,2,4,4
23:16:00,1,0,2,2,8,3,0,3,2
23:17:00,4,2,1,2,6,7,2,3,3
23:18:00,2,2,2,1,2,5,3,2,2
23:19:00,1,2,4,1,0,3,2,2,2
23:20:00,6,3,1,0,9,6,3,4,4
23:21:00,2,3,2,2,3,4,1,2,2
23:22:00,1,2,1,3,2,4,1,2,2
23:23:00,0,1,3,0,6,6,3,2,3
23:24:00,3,2,3,4,2,6,2,3,3
23:25:00,2,2,7,3,5,3,0,4,3
23:26:00,1,3,1,2,3,3,3,2,2
23:27:00,5,3,3,1,4,3,1,3,3
23:28:00,5,1,3,2,7,4,3,4,4
23:29:00,0,0,2,3,4,2,1,2,2
23:30:00,0,3,0,3,1,3,0,1,1
23:31:00,6,3,4,2,3,7,4,4,4
23:32:00,1,1,2,1,4,5,0,2,2
23:33:00,5,2,2,2,4,10,2,3,4
23:34:00,1,1,2,4,6,3,0,3,2
23:35:00,1,3,0,0,2,2,1,1,1
23:36:00,2,0,1,0,4,8,4,1,3
23:37:00,1,1,0,1,2,1,2,1,1
23:38:00,0,1,4,2,7,4,1,3,3
23:39:00,1,0,1,0,8,1,1,2,2
23:40:00,3,1,4,4,4,6,0,3,3
23:41:00,2,2,0,0,5,1,0,2,1
23:42:00,2,2,1,5,2,6,2,2,3
23:43:00,3,0,5,0,2,4,0,2,2
23:44:00,0,0,4,3,1,3,2,2,2
23:45:00,4,1,2,2,7,3,0,3,3
23:46:00,2,0,4,1,3,6,2,2,3
23:47:00,3,2,3,2,4,1,1,3,2
23:48:00,3,2,3,3,4,6,2,3,3
23:49:00,0,0,2,1,2,1,2,1,1
23:50:00,0,1,3,2,2,3,0,2,2
23:51:00,1,4,3,2,4,3,1,3,3
23:52:00,0,2,1,2,5,5,3,2,3
23:53:00,0,0,3,0,6,2,0,2,2
23:54:00,1,0,0,3,4,7,1,2,2
23:55:00,2,2,3,1,1,3,1,2,2
23:56:00,2,0,1,2,0,1,1,1,1
23:57:00,1,0,1,1,3,1,0,1,1
23:58:00,1,2,2,2,7,5,1,3,3
23:59:00,1,2,2,1,2,4,2,2,2
,,,,,,,,,
Totals,,,,,,,,,
12H(7-19),22550,18627,22929,22955,23794,20739,16484,22171,21154
16H(6-22),25741,22182,26208,26389,27175,23167,18149,25539,24144
18H(6-24),26127,22647,26679,26849,27798,23760,18459,26020,24617
24H(0-24),26715,23190,27212,27410,28367,24261,18930,26579,25155
,,,,,,,,,
AM Peak,07:38:00,06:41:00,07:43:00,07:39:00,07:43:00,10:15:00,10:59:00,07:28:00,10:01:00
,2147,1608,2174,2185,2193,2047,1878,1890,1687
,,,,,,,,,
PM Peak,16:54:00,17:01:00,16:39:00,16:47:00,16:29:00,12:01:00,12:31:00,16:43:00,12:05:00
,2287,2223,2280,2298,2328,2279,2212,2267,2011
,,,,,,,,,
,,,,,,,,,
CA Traffic,,,,,,,,,VDA-net R2 13/02/2020
