Site Number,00008028,Unnamed: 2,Site Reference,00008028.1,Unnamed: 5,Unnamed: 6,Lat/Lng.,"52.06596,1.12956",Unnamed: 9
Radar 8028 Bramford Road Ipswich,,,,,,,,,
Vehicle Count Report,,,,Week Begin: 09 December 2019,,,Channel:,Total Flow,
,,,,,,,,,
,,,,,,,,,
,2019-12-09 00:00:00,2019-12-10 00:00:00,2019-12-11 00:00:00,2019-12-12 00:00:00,2019-12-13 00:00:00,2019-12-14 00:00:00,2019-12-15 00:00:00,"5-Day
Ave.","7-Day
Ave."
00:00:00,1,1,1,0,2,3,11,1,3
00:01:00,0,3,1,0,6,0,10,2,3
00:02:00,2,1,0,0,5,6,8,2,3
00:03:00,0,1,2,1,1,2,4,1,2
00:04:00,3,3,3,2,1,3,2,2,2
00:05:00,2,4,1,4,2,3,3,3,3
00:06:00,0,3,6,4,2,2,3,3,3
00:07:00,2,3,2,2,1,6,4,2,3
00:08:00,0,0,0,3,1,3,4,1,2
00:09:00,0,2,3,2,5,4,5,2,3
00:10:00,1,2,1,0,1,2,10,1,2
00:11:00,0,2,3,1,6,6,2,2,3
00:12:00,1,1,1,0,2,3,4,1,2
00:13:00,1,1,3,0,1,3,2,1,2
00:14:00,1,0,0,2,2,2,3,1,1
00:15:00,1,3,3,3,1,7,7,2,4
00:16:00,0,2,1,2,1,1,7,1,2
00:17:00,2,2,1,3,3,3,4,2,3
00:18:00,1,0,2,1,1,2,4,1,2
00:19:00,0,1,1,2,1,3,4,1,2
00:20:00,2,3,0,0,2,3,9,1,3
00:21:00,1,0,0,1,1,3,2,1,1
00:22:00,2,2,4,1,5,4,2,3,3
00:23:00,4,3,2,1,4,1,3,3,3
00:24:00,1,0,0,0,1,2,3,0,1
00:25:00,1,2,2,1,2,0,4,2,2
00:26:00,1,3,2,0,1,3,6,1,2
00:27:00,1,0,0,3,2,3,8,1,2
00:28:00,2,1,0,2,3,2,3,2,2
00:29:00,0,0,2,7,0,3,4,2,2
00:30:00,4,2,2,0,3,2,7,2,3
00:31:00,0,0,1,0,1,4,3,0,1
00:32:00,2,0,0,0,1,4,3,1,1
00:33:00,0,2,1,1,1,3,7,1,2
00:34:00,0,0,0,3,1,4,3,1,2
00:35:00,1,1,3,0,1,6,1,1,2
00:36:00,2,4,1,1,0,2,4,2,2
00:37:00,2,1,1,1,2,3,2,1,2
00:38:00,0,1,2,1,2,6,5,1,2
00:39:00,0,2,0,2,0,4,4,1,2
00:40:00,0,0,0,0,1,4,0,0,1
00:41:00,0,0,0,0,2,2,6,0,1
00:42:00,1,1,0,2,2,3,3,1,2
00:43:00,1,1,2,2,0,1,6,1,2
00:44:00,0,1,0,2,1,3,3,1,1
00:45:00,0,3,0,0,1,5,3,1,2
00:46:00,0,1,0,2,1,1,1,1,1
00:47:00,0,2,0,1,0,1,7,1,2
00:48:00,0,0,1,2,1,5,3,1,2
00:49:00,0,0,0,1,1,2,7,0,2
00:50:00,0,0,2,0,0,2,2,0,1
00:51:00,0,1,0,0,0,0,3,0,1
00:52:00,0,2,1,0,0,3,6,1,2
00:53:00,0,0,3,0,0,3,5,1,2
00:54:00,4,1,0,2,0,4,1,1,2
00:55:00,2,0,2,2,1,4,3,1,2
00:56:00,2,3,2,0,3,3,5,2,3
00:57:00,1,0,0,0,0,3,4,0,1
00:58:00,1,0,2,1,2,3,2,1,2
00:59:00,0,1,1,1,0,4,5,1,2
01:00:00,0,0,0,1,0,1,4,0,1
01:01:00,2,0,2,3,0,1,3,1,2
01:02:00,1,1,0,0,3,2,2,1,1
01:03:00,3,1,0,1,2,5,4,1,2
01:04:00,1,0,3,0,2,5,3,1,2
01:05:00,2,1,0,1,1,5,3,1,2
01:06:00,0,0,0,0,1,1,2,0,1
01:07:00,0,0,2,2,2,2,5,1,2
01:08:00,1,2,1,1,1,1,2,1,1
01:09:00,1,0,0,1,2,4,4,1,2
01:10:00,0,1,1,0,0,0,2,0,1
01:11:00,0,0,0,0,1,1,2,0,1
01:12:00,0,0,0,0,2,1,2,0,1
01:13:00,0,0,0,0,1,3,2,0,1
01:14:00,0,0,1,0,0,3,0,0,1
01:15:00,2,0,1,0,1,7,1,1,2
01:16:00,0,2,0,2,1,1,7,1,2
01:17:00,0,1,0,2,1,4,4,1,2
01:18:00,0,0,0,1,0,2,1,0,1
01:19:00,2,0,0,3,1,0,2,1,1
01:20:00,0,2,0,1,3,3,5,1,2
01:21:00,0,1,0,1,1,3,1,1,1
01:22:00,0,0,0,3,2,2,4,1,2
01:23:00,0,1,1,0,0,5,2,0,1
01:24:00,0,0,1,0,0,2,3,0,1
01:25:00,0,0,1,0,1,2,2,0,1
01:26:00,0,0,2,1,1,1,2,1,1
01:27:00,0,0,0,0,0,8,8,0,2
01:28:00,0,0,0,0,0,2,3,0,1
01:29:00,1,0,0,3,0,3,1,1,1
01:30:00,0,0,0,1,0,3,3,0,1
01:31:00,0,0,0,0,0,2,4,0,1
01:32:00,0,2,1,2,1,2,4,1,2
01:33:00,1,0,2,1,1,5,4,1,2
01:34:00,1,0,0,3,2,1,1,1,1
01:35:00,0,1,2,1,0,2,5,1,2
01:36:00,2,0,0,1,1,2,0,1,1
01:37:00,0,0,0,0,0,0,1,0,0
01:38:00,0,0,0,2,1,3,4,1,1
01:39:00,0,0,0,0,1,1,1,0,0
01:40:00,1,0,0,1,2,5,3,1,2
01:41:00,0,0,0,0,1,0,2,0,0
01:42:00,1,0,0,0,1,0,3,0,1
01:43:00,0,1,0,0,1,2,3,0,1
01:44:00,1,1,0,0,1,6,1,1,1
01:45:00,0,0,0,2,0,1,2,0,1
01:46:00,0,0,1,1,1,2,1,1,1
01:47:00,2,0,3,0,0,1,1,1,1
01:48:00,1,0,0,0,1,2,2,0,1
01:49:00,0,0,0,2,0,0,0,0,0
01:50:00,0,0,0,1,0,7,1,0,1
01:51:00,1,0,2,0,0,1,4,1,1
01:52:00,1,0,1,1,0,1,1,1,1
01:53:00,0,0,0,1,0,7,6,0,2
01:54:00,1,0,1,1,0,1,4,1,1
01:55:00,0,0,0,0,0,3,0,0,0
01:56:00,0,2,0,0,1,1,6,1,1
01:57:00,1,0,2,0,1,2,6,1,2
01:58:00,0,0,1,0,1,0,1,0,0
01:59:00,0,1,2,2,1,5,2,1,2
02:00:00,1,1,1,2,1,1,1,1,1
02:01:00,0,1,0,1,0,2,4,0,1
02:02:00,0,0,0,0,1,1,3,0,1
02:03:00,1,1,0,0,0,0,4,0,1
02:04:00,0,1,0,1,0,1,4,0,1
02:05:00,0,0,1,1,2,3,3,1,1
02:06:00,0,2,0,1,0,3,1,1,1
02:07:00,1,0,0,0,4,3,3,1,2
02:08:00,1,0,0,0,0,1,3,0,1
02:09:00,0,3,1,0,0,1,2,1,1
02:10:00,0,1,2,1,0,1,3,1,1
02:11:00,0,0,1,0,0,1,2,0,1
02:12:00,1,0,0,0,0,0,4,0,1
02:13:00,0,0,1,0,0,0,2,0,0
02:14:00,0,0,1,0,0,4,2,0,1
02:15:00,0,0,2,0,1,0,4,1,1
02:16:00,0,0,1,0,0,2,3,0,1
02:17:00,0,0,1,1,1,5,4,1,2
02:18:00,0,1,2,1,1,1,0,1,1
02:19:00,2,0,0,1,0,3,2,1,1
02:20:00,1,0,0,1,1,2,0,1,1
02:21:00,0,0,1,0,0,1,3,0,1
02:22:00,0,0,0,0,0,3,2,0,1
02:23:00,1,0,1,0,0,5,3,0,1
02:24:00,1,1,0,1,2,2,3,1,1
02:25:00,4,0,1,1,1,3,2,1,2
02:26:00,0,0,0,0,0,6,0,0,1
02:27:00,0,0,0,1,0,1,2,0,1
02:28:00,0,0,0,0,0,1,1,0,0
02:29:00,0,0,0,0,1,3,4,0,1
02:30:00,0,0,0,1,1,2,1,0,1
02:31:00,1,1,1,0,1,3,2,1,1
02:32:00,0,0,0,1,0,1,1,0,0
02:33:00,0,0,0,0,1,5,1,0,1
02:34:00,0,3,1,0,0,1,1,1,1
02:35:00,0,2,0,0,0,1,4,0,1
02:36:00,0,0,0,0,0,0,2,0,0
02:37:00,0,0,0,0,1,2,1,0,1
02:38:00,0,1,0,1,0,1,1,0,1
02:39:00,1,0,0,0,0,2,4,0,1
02:40:00,1,0,0,1,1,1,0,1,1
02:41:00,1,1,0,0,0,0,3,0,1
02:42:00,0,1,0,0,1,0,4,0,1
02:43:00,1,0,0,0,3,4,2,1,1
02:44:00,0,1,0,2,1,1,2,1,1
02:45:00,3,1,0,0,0,1,0,1,1
02:46:00,0,0,0,0,1,3,1,0,1
02:47:00,0,0,0,1,1,0,1,0,0
02:48:00,0,0,1,1,1,1,3,1,1
02:49:00,0,1,1,1,0,0,0,1,0
02:50:00,0,1,1,0,0,1,2,0,1
02:51:00,0,0,0,0,0,1,3,0,1
02:52:00,0,0,1,0,0,2,1,0,1
02:53:00,0,1,0,0,0,3,1,0,1
02:54:00,0,0,0,0,0,1,2,0,0
02:55:00,1,0,0,0,0,1,3,0,1
02:56:00,0,2,1,1,1,1,1,1,1
02:57:00,1,0,0,0,1,1,5,0,1
02:58:00,1,0,0,0,0,0,2,0,0
02:59:00,1,1,0,0,2,0,4,1,1
03:00:00,2,0,1,1,0,4,1,1,1
03:01:00,1,0,0,0,2,0,1,1,1
03:02:00,0,1,0,0,1,1,1,0,1
03:03:00,0,0,0,0,2,1,2,0,1
03:04:00,0,0,0,0,2,1,2,0,1
03:05:00,0,0,0,0,1,0,4,0,1
03:06:00,1,0,1,1,0,1,2,1,1
03:07:00,0,1,0,1,0,0,2,0,1
03:08:00,1,0,0,1,0,1,3,0,1
03:09:00,0,1,0,0,0,1,0,0,0
03:10:00,0,0,1,0,1,2,0,0,1
03:11:00,0,1,1,2,3,0,2,1,1
03:12:00,0,0,1,0,1,1,0,0,0
03:13:00,0,0,1,0,1,2,2,0,1
03:14:00,0,1,0,0,1,1,3,0,1
03:15:00,2,0,1,1,1,3,1,1,1
03:16:00,1,1,0,0,2,1,4,1,1
03:17:00,0,0,0,0,1,1,1,0,0
03:18:00,0,0,2,2,1,0,0,1,1
03:19:00,0,1,0,0,0,2,4,0,1
03:20:00,1,0,1,1,0,2,1,1,1
03:21:00,0,0,0,2,1,0,1,1,1
03:22:00,1,1,0,0,0,0,1,0,0
03:23:00,0,0,2,1,0,2,2,1,1
03:24:00,1,1,1,1,0,1,2,1,1
03:25:00,1,1,0,1,1,0,2,1,1
03:26:00,0,0,2,0,0,1,1,0,1
03:27:00,0,0,0,1,1,1,2,0,1
03:28:00,1,0,1,0,1,0,0,1,0
03:29:00,0,1,0,1,1,2,1,1,1
03:30:00,1,0,1,2,0,2,1,1,1
03:31:00,0,1,0,0,2,1,2,1,1
03:32:00,0,0,0,1,1,3,4,0,1
03:33:00,0,0,1,0,0,1,1,0,0
03:34:00,0,0,1,0,0,1,1,0,0
03:35:00,1,0,0,0,1,1,5,0,1
03:36:00,0,1,0,0,0,1,0,0,0
03:37:00,0,0,0,0,1,1,4,0,1
03:38:00,1,2,0,1,0,1,2,1,1
03:39:00,0,1,0,0,0,2,2,0,1
03:40:00,0,2,1,1,0,2,2,1,1
03:41:00,0,0,0,0,0,0,2,0,0
03:42:00,0,1,0,0,0,4,4,0,1
03:43:00,3,2,1,0,0,2,3,1,2
03:44:00,1,0,1,1,2,1,1,1,1
03:45:00,1,0,0,3,1,1,2,1,1
03:46:00,1,0,0,1,0,0,3,0,1
03:47:00,1,2,1,0,4,1,3,2,2
03:48:00,0,0,2,0,0,4,1,0,1
03:49:00,0,1,0,0,1,0,0,0,0
03:50:00,0,1,1,2,1,2,1,1,1
03:51:00,1,0,0,0,2,1,1,1,1
03:52:00,1,0,1,0,0,0,0,0,0
03:53:00,1,0,3,0,0,0,2,1,1
03:54:00,1,0,1,2,2,0,0,1,1
03:55:00,1,1,1,0,0,4,3,1,1
03:56:00,0,3,3,1,4,3,4,2,3
03:57:00,1,1,1,2,1,2,3,1,2
03:58:00,0,0,1,0,1,0,3,0,1
03:59:00,1,1,0,1,2,1,0,1,1
04:00:00,0,0,0,1,1,1,1,0,1
04:01:00,0,0,2,1,0,3,3,1,1
04:02:00,0,0,0,1,0,3,1,0,1
04:03:00,0,1,0,0,2,1,3,1,1
04:04:00,0,0,1,0,2,1,3,1,1
04:05:00,0,0,0,0,0,6,0,0,1
04:06:00,1,1,0,0,1,2,1,1,1
04:07:00,0,1,0,0,0,2,2,0,1
04:08:00,0,1,1,0,1,1,1,1,1
04:09:00,2,2,0,1,1,1,3,1,1
04:10:00,0,1,0,1,0,1,0,0,0
04:11:00,0,0,2,0,2,2,2,1,1
04:12:00,1,2,0,1,1,2,0,1,1
04:13:00,0,0,2,0,3,0,1,1,1
04:14:00,0,0,0,1,1,0,3,0,1
04:15:00,2,1,0,0,1,2,0,1,1
04:16:00,1,1,1,1,1,1,2,1,1
04:17:00,0,0,0,0,1,1,0,0,0
04:18:00,0,1,3,1,1,1,0,1,1
04:19:00,1,0,0,1,0,2,2,0,1
04:20:00,0,1,3,1,0,2,1,1,1
04:21:00,0,0,2,0,3,0,0,1,1
04:22:00,0,0,1,2,1,0,0,1,1
04:23:00,0,3,2,0,2,1,2,1,1
04:24:00,3,0,1,0,0,0,2,1,1
04:25:00,2,1,2,0,1,0,0,1,1
04:26:00,1,1,0,0,2,0,1,1,1
04:27:00,2,1,1,2,3,0,1,2,1
04:28:00,1,0,1,1,0,1,0,1,1
04:29:00,1,2,2,1,2,1,1,2,1
04:30:00,1,0,0,1,0,1,2,0,1
04:31:00,3,1,1,2,1,2,3,2,2
04:32:00,0,2,0,0,0,1,1,0,1
04:33:00,3,0,0,0,0,0,2,1,1
04:34:00,2,4,2,2,4,2,1,3,2
04:35:00,0,1,2,2,0,2,1,1,1
04:36:00,1,1,2,0,2,1,2,1,1
04:37:00,4,0,1,1,2,4,2,2,2
04:38:00,0,1,1,2,1,2,1,1,1
04:39:00,1,3,2,0,0,2,2,1,1
04:40:00,0,1,2,3,0,5,1,1,2
04:41:00,0,1,0,1,4,1,2,1,1
04:42:00,2,2,1,3,1,4,0,2,2
04:43:00,1,0,2,0,1,2,1,1,1
04:44:00,5,1,1,4,0,3,0,2,2
04:45:00,2,2,5,4,3,2,3,3,3
04:46:00,0,2,2,1,2,0,0,1,1
04:47:00,0,0,0,2,1,1,1,1,1
04:48:00,3,2,3,2,5,2,1,3,3
04:49:00,2,3,1,1,2,4,0,2,2
04:50:00,0,3,0,4,3,3,1,2,2
04:51:00,6,2,1,1,1,0,2,2,2
04:52:00,2,0,3,1,4,2,1,2,2
04:53:00,2,1,5,2,2,1,1,2,2
04:54:00,2,0,1,2,4,1,0,2,1
04:55:00,0,4,1,2,1,1,1,2,1
04:56:00,5,3,2,0,0,0,0,2,1
04:57:00,1,3,1,2,2,2,2,2,2
04:58:00,2,3,1,3,1,1,2,2,2
04:59:00,1,3,2,2,1,0,0,2,1
05:00:00,2,2,2,2,4,3,2,2,2
05:01:00,3,2,1,2,3,2,1,2,2
05:02:00,1,3,4,3,4,0,1,3,2
05:03:00,2,2,4,5,0,2,1,3,2
05:04:00,2,1,0,2,1,4,3,1,2
05:05:00,4,3,2,1,1,2,2,2,2
05:06:00,1,1,4,2,0,0,0,2,1
05:07:00,3,2,2,2,6,2,3,3,3
05:08:00,1,1,1,2,1,2,1,1,1
05:09:00,3,4,2,5,4,3,1,4,3
05:10:00,4,4,5,8,3,3,1,5,4
05:11:00,3,5,4,2,3,0,2,3,3
05:12:00,1,2,3,0,1,4,1,1,2
05:13:00,4,2,4,1,2,0,2,3,2
05:14:00,2,4,1,2,5,1,1,3,2
05:15:00,7,5,3,1,2,2,2,4,3
05:16:00,4,2,0,4,2,2,0,2,2
05:17:00,1,1,3,0,3,1,0,2,1
05:18:00,1,5,2,3,4,3,2,3,3
05:19:00,2,3,4,3,4,1,3,3,3
05:20:00,3,3,3,6,1,1,2,3,3
05:21:00,6,2,4,6,1,1,2,4,3
05:22:00,5,2,2,4,4,0,1,3,3
05:23:00,2,5,4,0,5,2,3,3,3
05:24:00,1,3,3,2,2,2,1,2,2
05:25:00,4,2,2,2,2,2,2,2,2
05:26:00,5,4,4,2,2,3,0,3,3
05:27:00,3,3,1,5,3,2,1,3,3
05:28:00,3,3,8,3,3,2,0,4,3
05:29:00,5,4,7,6,4,0,2,5,4
05:30:00,5,5,5,2,5,0,3,4,4
05:31:00,7,2,5,6,6,4,4,5,5
05:32:00,3,8,4,1,4,5,3,4,4
05:33:00,9,3,2,4,5,2,3,5,4
05:34:00,5,6,6,1,6,4,1,5,4
05:35:00,8,6,4,4,2,1,2,5,4
05:36:00,6,2,3,6,4,3,1,4,4
05:37:00,2,3,5,6,6,6,0,4,4
05:38:00,3,4,4,7,6,3,2,5,4
05:39:00,3,2,2,3,4,3,2,3,3
05:40:00,5,1,5,4,1,3,4,3,3
05:41:00,4,1,1,2,8,5,1,3,3
05:42:00,7,6,10,3,5,4,3,6,5
05:43:00,2,7,4,3,5,3,1,4,4
05:44:00,1,3,4,3,7,4,2,4,3
05:45:00,5,4,5,8,3,4,1,5,4
05:46:00,3,6,4,2,8,2,2,5,4
05:47:00,4,3,7,4,2,3,4,4,4
05:48:00,4,7,5,4,5,4,4,5,5
05:49:00,7,6,3,6,2,4,1,5,4
05:50:00,4,6,2,5,5,1,2,4,4
05:51:00,2,4,10,12,4,4,0,6,5
05:52:00,9,7,6,10,7,1,2,8,6
05:53:00,3,5,2,4,12,4,1,5,4
05:54:00,7,5,9,7,6,0,1,7,5
05:55:00,6,12,12,4,3,3,0,7,6
05:56:00,7,8,6,5,4,5,4,6,6
05:57:00,4,7,8,6,6,1,2,6,5
05:58:00,10,4,7,9,2,3,2,6,5
05:59:00,15,5,6,7,5,4,6,8,7
06:00:00,5,5,9,6,7,3,1,6,5
06:01:00,6,11,7,3,4,1,0,6,5
06:02:00,4,8,4,9,3,2,3,6,5
06:03:00,3,4,7,3,5,2,1,4,4
06:04:00,6,2,3,10,10,2,4,6,5
06:05:00,5,5,2,5,4,3,5,4,4
06:06:00,7,4,10,6,3,4,2,6,5
06:07:00,6,7,12,3,6,1,0,7,5
06:08:00,3,2,3,4,5,1,1,3,3
06:09:00,4,5,5,8,5,2,1,5,4
06:10:00,2,7,6,9,5,2,0,6,4
06:11:00,4,3,8,5,6,0,2,5,4
06:12:00,7,5,5,4,7,2,0,6,4
06:13:00,9,15,8,4,1,7,2,7,7
06:14:00,9,12,8,4,4,2,1,7,6
06:15:00,3,6,4,5,6,2,0,5,4
06:16:00,6,5,4,6,9,3,1,6,5
06:17:00,5,7,6,8,3,2,2,6,5
06:18:00,5,7,5,6,5,5,3,6,5
06:19:00,11,6,10,2,7,3,0,7,6
06:20:00,6,8,6,7,8,3,1,7,6
06:21:00,10,3,10,8,4,2,3,7,6
06:22:00,6,11,7,6,7,1,1,7,6
06:23:00,10,11,12,6,6,2,0,9,7
06:24:00,7,5,7,13,8,1,1,8,6
06:25:00,10,9,3,5,6,4,2,7,6
06:26:00,6,5,10,5,8,4,2,7,6
06:27:00,11,11,12,10,5,3,1,10,8
06:28:00,4,4,5,8,5,1,1,5,4
06:29:00,9,15,9,12,7,2,2,10,8
06:30:00,3,10,7,6,10,5,2,7,6
06:31:00,9,9,13,19,10,5,3,12,10
06:32:00,7,10,7,7,10,12,5,8,8
06:33:00,9,6,9,11,7,1,1,8,6
06:34:00,11,12,11,8,10,2,0,10,8
06:35:00,9,11,6,9,3,4,0,8,6
06:36:00,6,7,9,5,12,3,4,8,7
06:37:00,10,10,11,9,12,4,3,10,8
06:38:00,8,15,11,8,11,3,1,11,8
06:39:00,8,15,7,8,12,5,3,10,8
06:40:00,15,13,8,10,8,6,0,11,9
06:41:00,9,7,12,10,6,2,3,9,7
06:42:00,15,11,11,13,8,6,4,12,10
06:43:00,6,11,11,21,8,3,3,11,9
06:44:00,5,9,13,11,8,9,3,9,8
06:45:00,8,11,8,10,10,7,2,9,8
06:46:00,9,8,10,9,10,7,4,9,8
06:47:00,10,13,9,12,10,8,4,11,9
06:48:00,10,17,7,6,12,6,4,10,9
06:49:00,16,9,16,9,9,3,0,12,9
06:50:00,11,13,9,13,14,6,1,12,10
06:51:00,6,18,13,19,9,4,1,13,10
06:52:00,10,14,12,10,10,9,3,11,10
06:53:00,12,12,12,8,23,7,5,13,11
06:54:00,9,12,15,7,14,6,2,11,9
06:55:00,13,16,15,24,11,14,2,16,14
06:56:00,14,9,13,7,11,5,3,11,9
06:57:00,9,14,12,15,9,3,5,12,10
06:58:00,8,11,11,11,13,5,2,11,9
06:59:00,11,12,15,18,15,11,4,14,12
07:00:00,6,10,19,11,14,5,3,12,10
07:01:00,9,8,6,12,5,6,1,8,7
07:02:00,10,10,11,9,8,4,0,10,7
07:03:00,14,8,9,14,10,7,2,11,9
07:04:00,10,13,15,12,11,2,2,12,9
07:05:00,13,18,8,14,11,6,0,13,10
07:06:00,12,16,4,6,16,3,3,11,9
07:07:00,13,19,22,15,11,3,2,16,12
07:08:00,20,16,23,17,9,4,2,17,13
07:09:00,10,7,12,16,9,5,3,11,9
07:10:00,12,14,14,11,7,1,3,12,9
07:11:00,11,11,9,17,11,4,5,12,10
07:12:00,14,18,16,11,15,4,1,15,11
07:13:00,20,20,14,21,9,10,5,17,14
07:14:00,18,10,17,18,20,4,1,17,13
07:15:00,10,14,26,17,18,9,2,17,14
07:16:00,17,9,14,19,14,6,2,15,12
07:17:00,9,15,21,15,13,4,2,15,11
07:18:00,18,11,12,24,14,5,4,16,13
07:19:00,12,13,18,14,10,10,4,13,12
07:20:00,20,15,8,22,17,4,3,16,13
07:21:00,13,16,16,15,15,2,3,15,11
07:22:00,21,9,24,14,9,8,2,15,12
07:23:00,18,19,13,24,16,3,6,18,14
07:24:00,17,20,19,12,19,2,1,17,13
07:25:00,14,9,13,13,18,6,3,13,11
07:26:00,17,18,17,18,8,8,4,16,13
07:27:00,22,18,16,21,11,6,3,18,14
07:28:00,18,18,24,8,24,4,0,18,14
07:29:00,26,32,11,13,11,3,3,19,14
07:30:00,13,25,13,12,10,4,1,15,11
07:31:00,14,26,21,17,20,16,2,20,17
07:32:00,23,17,22,15,18,5,3,19,15
07:33:00,25,24,6,27,25,11,1,21,17
07:34:00,20,32,29,16,25,3,3,24,18
07:35:00,22,17,24,19,25,7,5,21,17
07:36:00,21,19,20,14,26,4,6,20,16
07:37:00,21,24,27,32,23,9,2,25,20
07:38:00,29,24,18,33,16,9,4,24,19
07:39:00,18,7,23,16,17,6,3,16,13
07:40:00,16,27,23,34,17,7,3,23,18
07:41:00,22,15,11,16,19,11,4,17,14
07:42:00,14,30,25,25,29,9,3,25,19
07:43:00,24,12,8,18,7,6,5,14,11
07:44:00,15,22,23,25,12,2,3,19,15
07:45:00,19,19,11,24,6,3,4,16,12
07:46:00,20,32,24,12,29,6,1,23,18
07:47:00,19,15,21,13,2,3,8,14,12
07:48:00,22,36,22,23,18,9,2,24,19
07:49:00,24,21,26,21,22,10,2,23,18
07:50:00,21,24,29,20,20,9,5,23,18
07:51:00,22,11,14,11,17,4,5,15,12
07:52:00,20,22,21,20,25,6,2,22,17
07:53:00,23,17,15,17,24,7,2,19,15
07:54:00,17,11,26,21,16,13,4,18,15
07:55:00,19,21,19,17,16,11,5,18,15
07:56:00,24,24,27,21,23,6,3,24,18
07:57:00,14,33,15,17,18,7,2,19,15
07:58:00,28,31,19,21,13,6,3,22,17
07:59:00,17,15,9,14,13,5,4,14,11
08:00:00,22,20,27,19,10,7,2,20,15
08:01:00,13,20,25,20,17,10,4,19,16
08:02:00,15,22,19,14,13,10,4,17,14
08:03:00,20,17,13,20,32,7,6,20,16
08:04:00,19,31,15,17,13,7,4,19,15
08:05:00,25,16,12,27,14,4,0,19,14
08:06:00,21,27,32,10,22,4,1,22,17
08:07:00,16,30,12,24,21,6,2,21,16
08:08:00,17,14,17,17,19,9,5,17,14
08:09:00,12,13,16,22,21,14,6,17,15
08:10:00,15,11,12,14,24,6,1,15,12
08:11:00,11,6,12,23,14,8,1,13,11
08:12:00,14,8,18,25,20,10,3,17,14
08:13:00,15,7,11,13,16,7,3,12,10
08:14:00,14,16,30,18,26,9,6,21,17
08:15:00,10,29,14,10,22,8,3,17,14
08:16:00,4,11,14,12,12,8,2,11,9
08:17:00,4,14,24,21,13,14,4,15,13
08:18:00,6,12,15,16,24,9,3,15,12
08:19:00,19,11,19,15,21,14,2,17,14
08:20:00,17,18,13,16,25,9,4,18,15
08:21:00,11,21,18,11,20,9,9,16,14
08:22:00,22,19,7,12,22,12,4,16,14
08:23:00,14,23,30,17,10,9,6,19,16
08:24:00,15,15,12,18,23,6,6,17,14
08:25:00,30,11,11,11,13,12,5,15,13
08:26:00,19,14,10,10,6,9,8,12,11
08:27:00,14,16,7,11,17,7,1,13,10
08:28:00,8,8,2,10,13,6,5,8,7
08:29:00,15,3,24,11,14,5,6,13,11
08:30:00,9,11,23,7,8,14,6,12,11
08:31:00,9,8,10,14,17,10,5,12,10
08:32:00,19,11,16,16,7,7,4,14,11
08:33:00,12,10,22,12,15,14,6,14,13
08:34:00,13,14,5,12,19,8,6,13,11
08:35:00,10,10,13,12,12,8,8,11,10
08:36:00,22,10,6,15,19,15,7,14,13
08:37:00,4,13,6,13,15,12,6,10,10
08:38:00,12,17,9,15,15,13,5,14,12
08:39:00,6,12,9,12,5,14,7,9,9
08:40:00,13,5,10,13,19,12,6,12,11
08:41:00,3,13,8,4,1,15,13,6,8
08:42:00,21,8,5,14,8,13,6,11,11
08:43:00,12,14,9,2,14,6,5,10,9
08:44:00,22,15,2,12,21,13,6,14,13
08:45:00,16,14,12,17,9,15,7,14,13
08:46:00,8,14,3,20,17,12,7,12,12
08:47:00,9,11,3,12,14,18,9,10,11
08:48:00,14,10,8,18,10,8,4,12,10
08:49:00,5,17,12,6,5,8,5,9,8
08:50:00,20,14,9,10,13,20,7,13,13
08:51:00,12,13,9,15,20,9,4,14,12
08:52:00,4,4,18,17,7,10,3,10,9
08:53:00,6,13,9,8,3,11,4,8,8
08:54:00,16,12,8,11,8,18,5,11,11
08:55:00,11,18,18,12,13,15,6,14,13
08:56:00,8,15,18,8,10,20,5,12,12
08:57:00,7,10,11,19,17,15,5,13,12
08:58:00,16,24,3,17,15,11,10,15,14
08:59:00,16,21,9,14,11,21,5,14,14
09:00:00,18,19,16,18,19,11,8,18,16
09:01:00,23,16,20,26,14,11,2,20,16
09:02:00,16,14,14,13,19,12,4,15,13
09:03:00,14,6,20,19,17,14,7,15,14
09:04:00,23,10,12,14,20,14,3,16,14
09:05:00,17,13,13,19,11,15,3,15,13
09:06:00,24,14,13,9,15,10,3,15,13
09:07:00,14,13,15,19,23,14,3,17,14
09:08:00,19,21,14,27,15,13,9,19,17
09:09:00,21,14,8,11,23,9,9,15,14
09:10:00,25,15,15,31,31,9,8,23,19
09:11:00,10,20,14,7,14,12,11,13,13
09:12:00,5,20,22,30,14,24,10,18,18
09:13:00,13,16,8,14,18,8,9,14,12
09:14:00,19,25,11,18,18,12,6,18,16
09:15:00,11,21,9,14,20,18,7,15,14
09:16:00,19,18,13,29,15,11,7,19,16
09:17:00,17,13,18,14,12,8,5,15,12
09:18:00,33,12,20,23,11,21,7,20,18
09:19:00,20,17,19,18,15,16,4,18,16
09:20:00,8,17,21,26,18,11,9,18,16
09:21:00,15,19,13,15,10,15,7,14,13
09:22:00,26,17,13,15,17,15,8,18,16
09:23:00,13,19,18,14,13,13,6,15,14
09:24:00,17,14,18,13,30,10,5,18,15
09:25:00,18,16,11,12,19,16,5,15,14
09:26:00,23,24,19,19,19,10,14,21,18
09:27:00,19,10,13,12,19,16,9,15,14
09:28:00,13,13,8,22,13,10,7,14,12
09:29:00,19,19,14,18,15,14,9,17,15
09:30:00,14,21,17,25,22,16,13,20,18
09:31:00,18,18,11,12,16,14,3,15,13
09:32:00,9,23,11,32,18,15,10,19,17
09:33:00,26,10,11,13,13,6,6,15,12
09:34:00,18,14,21,22,13,17,7,18,16
09:35:00,12,12,8,20,17,14,11,14,13
09:36:00,12,9,21,30,9,16,18,16,16
09:37:00,12,11,14,20,13,24,9,14,15
09:38:00,23,22,19,11,19,9,5,19,15
09:39:00,13,12,22,11,16,5,10,15,13
09:40:00,21,18,19,27,11,11,13,19,17
09:41:00,18,12,27,7,19,21,18,17,17
09:42:00,13,27,26,12,14,20,8,18,17
09:43:00,15,13,13,16,17,16,4,15,13
09:44:00,13,22,17,25,19,19,12,19,18
09:45:00,11,17,10,11,14,20,9,13,13
09:46:00,26,18,12,17,24,13,11,19,17
09:47:00,14,15,22,12,13,13,6,15,14
09:48:00,8,18,17,24,16,15,12,17,16
09:49:00,22,12,20,18,15,19,18,17,18
09:50:00,14,20,22,26,12,16,13,19,18
09:51:00,6,15,20,16,20,9,15,15,14
09:52:00,25,23,23,19,19,15,11,22,19
09:53:00,14,8,18,14,15,24,18,14,16
09:54:00,28,22,16,18,25,14,14,22,20
09:55:00,17,9,21,9,15,20,6,14,14
09:56:00,21,18,15,19,10,17,6,17,15
09:57:00,15,13,15,12,21,16,13,15,15
09:58:00,24,17,18,19,13,12,8,18,16
09:59:00,13,9,17,15,13,21,21,13,16
10:00:00,26,22,27,9,24,20,16,22,21
10:01:00,19,21,18,17,14,15,10,18,16
10:02:00,18,27,7,19,18,8,7,18,15
10:03:00,16,15,15,16,18,30,17,16,18
10:04:00,21,16,13,10,14,21,13,15,15
10:05:00,18,19,12,15,25,16,15,18,17
10:06:00,22,14,9,17,21,15,10,17,15
10:07:00,13,15,16,11,15,19,12,14,14
10:08:00,24,18,14,21,15,9,21,18,17
10:09:00,18,11,26,8,21,17,17,17,17
10:10:00,13,12,16,14,24,18,22,16,17
10:11:00,14,18,14,23,16,17,11,17,16
10:12:00,15,22,21,24,15,15,10,19,17
10:13:00,9,7,10,10,19,17,16,11,13
10:14:00,20,17,19,31,20,16,9,21,19
10:15:00,20,14,15,18,11,23,11,16,16
10:16:00,13,15,18,17,11,12,5,15,13
10:17:00,27,19,19,19,18,16,13,20,19
10:18:00,24,11,15,20,13,29,11,17,18
10:19:00,17,19,18,13,13,16,21,16,17
10:20:00,18,14,23,21,15,10,13,18,16
10:21:00,12,16,17,11,17,9,18,15,14
10:22:00,18,20,16,18,26,19,8,20,18
10:23:00,22,19,15,14,18,25,13,18,18
10:24:00,12,20,14,23,14,21,13,17,17
10:25:00,16,13,6,17,18,15,19,14,15
10:26:00,14,19,20,21,22,24,10,19,19
10:27:00,17,15,22,6,18,20,18,16,17
10:28:00,19,19,8,19,18,10,17,17,16
10:29:00,14,13,20,18,22,22,9,17,17
10:30:00,20,15,17,23,19,25,10,19,18
10:31:00,14,13,15,15,20,26,15,15,17
10:32:00,24,6,24,20,11,11,16,17,16
10:33:00,16,8,13,24,16,24,11,15,16
10:34:00,17,20,13,23,14,17,14,17,17
10:35:00,15,20,14,16,15,21,11,16,16
10:36:00,16,14,17,24,22,11,13,19,17
10:37:00,16,13,13,6,18,14,10,13,13
10:38:00,23,21,16,27,16,16,13,21,19
10:39:00,18,11,13,11,16,25,26,14,17
10:40:00,22,9,17,11,21,15,24,16,17
10:41:00,19,8,10,9,9,22,16,11,13
10:42:00,17,21,10,28,30,15,14,21,19
10:43:00,13,14,24,9,26,25,20,17,19
10:44:00,17,18,17,33,17,9,19,20,19
10:45:00,12,20,15,19,10,28,23,15,18
10:46:00,20,14,9,13,11,13,11,13,13
10:47:00,20,10,20,13,17,23,21,16,18
10:48:00,18,18,18,14,15,17,16,17,17
10:49:00,18,13,17,14,22,15,24,17,18
10:50:00,14,19,10,19,17,24,8,16,16
10:51:00,20,15,12,14,10,17,23,14,16
10:52:00,19,14,11,12,26,14,29,16,18
10:53:00,15,10,15,16,17,17,18,15,15
10:54:00,19,22,15,28,37,14,18,24,22
10:55:00,13,13,9,25,22,25,19,16,18
10:56:00,18,13,22,14,20,11,14,17,16
10:57:00,15,17,19,19,23,27,10,19,19
10:58:00,12,19,12,12,17,18,13,14,15
10:59:00,23,14,11,13,12,33,12,15,17
11:00:00,16,14,23,16,28,27,21,19,21
11:01:00,18,29,15,15,28,12,11,21,18
11:02:00,18,23,16,29,16,14,12,20,18
11:03:00,19,20,15,15,13,23,13,16,17
11:04:00,22,16,21,17,23,15,17,20,19
11:05:00,9,17,16,14,14,29,19,14,17
11:06:00,24,27,18,26,13,21,22,22,22
11:07:00,26,18,15,17,14,26,11,18,18
11:08:00,16,15,20,27,20,8,16,20,17
11:09:00,13,11,16,20,15,16,10,15,14
11:10:00,14,10,15,24,23,14,10,17,16
11:11:00,14,12,7,10,14,20,16,11,13
11:12:00,19,16,18,20,11,17,16,17,17
11:13:00,16,16,10,13,19,32,20,15,18
11:14:00,25,13,14,24,24,17,18,20,19
11:15:00,18,28,12,14,21,13,12,19,17
11:16:00,20,17,19,18,20,21,19,19,19
11:17:00,13,8,24,11,22,13,19,16,16
11:18:00,14,20,28,14,12,7,12,18,15
11:19:00,6,10,16,17,20,14,8,14,13
11:20:00,18,15,11,15,27,13,8,17,15
11:21:00,16,26,14,22,10,15,18,18,17
11:22:00,11,19,16,24,27,20,11,19,18
11:23:00,10,17,15,6,14,17,22,12,14
11:24:00,21,13,21,18,27,9,13,20,17
11:25:00,25,22,18,18,13,22,11,19,18
11:26:00,23,23,16,30,28,9,12,24,20
11:27:00,24,6,13,16,15,15,21,15,16
11:28:00,11,20,14,22,19,30,14,17,19
11:29:00,13,13,18,22,25,17,15,18,18
11:30:00,17,25,15,24,24,19,9,21,19
11:31:00,6,4,19,10,22,21,11,12,13
11:32:00,11,19,10,20,29,11,13,18,16
11:33:00,15,11,22,13,20,14,21,16,17
11:34:00,23,28,12,18,28,14,17,22,20
11:35:00,13,15,21,17,21,21,27,17,19
11:36:00,13,16,8,16,15,13,10,14,13
11:37:00,11,20,30,12,9,10,13,16,15
11:38:00,10,13,8,11,12,6,15,11,11
11:39:00,17,18,14,17,21,9,23,17,17
11:40:00,8,11,15,22,18,16,10,15,14
11:41:00,14,30,18,19,15,17,16,19,18
11:42:00,13,22,15,15,8,16,17,15,15
11:43:00,6,8,18,16,13,20,15,12,14
11:44:00,20,25,16,20,28,16,2,22,18
11:45:00,16,17,11,16,22,26,11,16,17
11:46:00,25,27,14,22,33,11,23,24,22
11:47:00,14,11,29,18,15,20,22,17,18
11:48:00,25,17,20,19,22,22,22,21,21
11:49:00,13,16,9,17,14,17,18,14,15
11:50:00,19,16,20,17,24,9,21,19,18
11:51:00,15,11,14,18,9,28,20,13,16
11:52:00,23,18,16,19,20,18,18,19,19
11:53:00,27,11,20,12,23,13,14,19,17
11:54:00,20,12,20,21,23,18,8,19,17
11:55:00,13,19,14,11,17,16,20,15,16
11:56:00,22,15,11,13,16,16,15,15,15
11:57:00,17,18,23,11,13,16,15,16,16
11:58:00,16,8,12,29,20,6,23,17,16
11:59:00,13,27,14,11,13,24,15,16,17
12:00:00,22,12,17,12,29,11,20,18,18
12:01:00,11,14,9,17,12,18,6,13,12
12:02:00,7,16,17,18,25,14,36,17,19
12:03:00,17,22,21,22,8,15,16,18,17
12:04:00,16,25,15,16,21,18,10,19,17
12:05:00,17,11,21,8,13,15,22,14,15
12:06:00,16,17,13,26,15,19,15,17,17
12:07:00,8,18,17,15,22,18,12,16,16
12:08:00,21,24,15,13,18,24,21,18,19
12:09:00,19,14,16,16,18,20,18,17,17
12:10:00,13,22,9,7,28,10,12,16,14
12:11:00,13,14,14,13,13,27,19,13,16
12:12:00,18,12,11,26,24,15,17,18,18
12:13:00,11,21,14,26,19,25,23,18,20
12:14:00,17,19,14,11,25,17,20,17,18
12:15:00,12,23,19,15,14,23,15,17,17
12:16:00,21,25,13,21,21,18,18,20,20
12:17:00,14,13,25,13,18,32,24,17,20
12:18:00,18,27,15,22,20,19,15,20,19
12:19:00,11,10,23,11,18,23,17,15,16
12:20:00,19,20,9,11,22,18,36,16,19
12:21:00,30,38,12,12,19,21,17,22,21
12:22:00,10,14,18,20,17,19,21,16,17
12:23:00,18,13,12,20,12,28,11,15,16
12:24:00,19,24,17,15,14,12,8,18,16
12:25:00,24,25,31,16,15,19,21,22,22
12:26:00,21,26,18,15,14,20,16,19,19
12:27:00,13,10,32,13,19,24,22,17,19
12:28:00,20,16,9,13,24,9,32,16,18
12:29:00,25,23,13,10,22,35,8,19,19
12:30:00,15,20,26,10,26,18,14,19,18
12:31:00,24,9,20,24,10,20,19,17,18
12:32:00,7,17,12,16,23,14,27,15,17
12:33:00,13,27,14,12,17,21,31,17,19
12:34:00,16,24,21,17,17,7,18,19,17
12:35:00,20,10,35,18,18,15,8,20,18
12:36:00,18,19,16,10,21,13,19,17,17
12:37:00,25,13,19,15,15,28,18,17,19
12:38:00,25,24,18,18,21,9,24,21,20
12:39:00,9,18,14,10,19,31,13,14,16
12:40:00,18,12,18,15,24,17,26,17,19
12:41:00,12,19,20,16,15,20,9,16,16
12:42:00,11,14,19,13,12,16,26,14,16
12:43:00,14,10,16,15,21,15,16,15,15
12:44:00,30,25,14,23,28,15,15,24,21
12:45:00,19,19,17,14,9,28,28,16,19
12:46:00,20,8,21,17,22,20,16,18,18
12:47:00,9,22,19,15,14,17,6,16,15
12:48:00,15,20,26,15,19,31,30,19,22
12:49:00,13,22,14,23,16,16,17,18,17
12:50:00,33,14,19,22,29,18,11,23,21
12:51:00,25,18,19,17,14,24,20,19,20
12:52:00,12,26,18,17,25,9,19,20,18
12:53:00,19,16,17,19,15,16,17,17,17
12:54:00,14,23,7,8,19,11,22,14,15
12:55:00,11,14,17,16,24,25,10,16,17
12:56:00,18,17,19,19,23,20,10,19,18
12:57:00,24,15,25,19,14,19,16,19,19
12:58:00,15,11,15,19,23,18,19,17,17
12:59:00,18,19,12,10,21,6,13,16,14
13:00:00,11,25,19,24,20,15,23,20,20
13:01:00,15,19,17,14,5,27,5,14,15
13:02:00,12,21,21,15,12,7,21,16,16
13:03:00,9,25,24,17,27,10,19,20,19
13:04:00,20,22,18,16,23,19,19,20,20
13:05:00,18,11,19,22,28,14,14,20,18
13:06:00,24,14,20,19,25,10,15,20,18
13:07:00,12,16,19,14,14,11,15,15,14
13:08:00,23,14,27,18,22,8,20,21,19
13:09:00,18,10,20,8,11,20,20,13,15
13:10:00,17,13,18,26,20,15,21,19,19
13:11:00,16,10,10,14,23,7,8,15,13
13:12:00,23,26,11,12,33,19,24,21,21
13:13:00,28,16,12,19,13,12,22,18,17
13:14:00,24,19,24,18,22,19,27,21,22
13:15:00,7,15,26,20,19,14,21,17,17
13:16:00,18,20,19,20,23,10,19,20,18
13:17:00,11,18,16,19,13,8,21,15,15
13:18:00,21,22,16,11,17,10,16,17,16
13:19:00,18,13,12,22,17,25,19,16,18
13:20:00,35,12,17,15,22,10,26,20,20
13:21:00,21,14,20,19,21,10,9,19,16
13:22:00,23,16,14,25,21,10,16,20,18
13:23:00,21,10,18,22,16,24,19,17,19
13:24:00,17,18,18,20,17,19,21,18,19
13:25:00,15,3,20,15,14,14,15,13,14
13:26:00,20,12,16,21,15,11,26,17,17
13:27:00,8,15,18,13,12,14,14,13,13
13:28:00,19,16,17,24,13,16,25,18,19
13:29:00,15,11,16,11,14,15,17,13,14
13:30:00,25,26,12,18,15,12,21,19,18
13:31:00,11,17,20,17,13,17,29,16,18
13:32:00,23,27,22,25,27,4,16,25,21
13:33:00,20,15,22,11,6,12,13,15,14
13:34:00,23,23,18,12,17,12,22,19,18
13:35:00,8,22,20,14,14,22,14,16,16
13:36:00,19,23,20,18,19,12,17,20,18
13:37:00,20,15,24,20,27,27,17,21,21
13:38:00,25,16,21,9,7,13,16,16,15
13:39:00,17,17,13,21,23,24,26,18,20
13:40:00,18,19,18,14,23,11,20,18,18
13:41:00,19,17,17,12,15,13,11,16,15
13:42:00,19,13,28,25,13,15,14,20,18
13:43:00,18,16,13,14,23,12,18,17,16
13:44:00,20,17,17,24,31,14,12,22,19
13:45:00,20,16,15,20,22,17,16,19,18
13:46:00,21,25,16,11,26,19,23,20,20
13:47:00,11,18,20,14,16,22,13,16,16
13:48:00,22,24,15,22,11,25,20,19,20
13:49:00,19,13,22,13,27,15,8,19,17
13:50:00,16,24,18,14,20,17,15,18,18
13:51:00,12,7,10,18,15,27,6,12,14
13:52:00,17,12,22,22,23,14,27,19,20
13:53:00,18,16,19,8,19,20,13,16,16
13:54:00,16,6,18,15,24,26,25,16,19
13:55:00,19,13,20,13,11,11,16,15,15
13:56:00,19,17,23,25,19,9,8,21,17
13:57:00,13,10,17,11,27,7,9,16,13
13:58:00,31,23,13,15,26,10,14,22,19
13:59:00,24,22,18,17,10,7,7,18,15
14:00:00,13,13,10,6,17,17,20,12,14
14:01:00,11,6,13,21,15,19,14,13,14
14:02:00,11,20,14,11,15,23,13,14,15
14:03:00,21,28,16,9,8,18,18,16,17
14:04:00,20,26,22,16,21,14,23,21,20
14:05:00,16,18,29,18,17,28,10,20,19
14:06:00,27,12,19,17,23,21,20,20,20
14:07:00,14,21,29,13,13,23,14,18,18
14:08:00,18,21,17,15,12,9,20,17,16
14:09:00,24,20,17,16,21,7,11,20,17
14:10:00,21,25,19,17,13,5,16,19,17
14:11:00,17,13,8,23,21,14,15,16,16
14:12:00,24,21,27,15,16,8,17,21,18
14:13:00,10,12,26,14,18,5,11,16,14
14:14:00,16,15,15,11,24,11,20,16,16
14:15:00,9,13,14,18,23,11,17,15,15
14:16:00,23,15,10,18,21,9,22,17,17
14:17:00,10,11,21,19,22,19,12,17,16
14:18:00,22,14,17,15,24,7,28,18,18
14:19:00,16,8,8,36,19,16,15,17,17
14:20:00,18,22,19,19,27,10,17,21,19
14:21:00,11,24,14,15,25,30,11,18,19
14:22:00,13,17,19,22,16,17,9,17,16
14:23:00,17,14,18,14,18,20,12,16,16
14:24:00,20,9,14,18,21,11,20,16,16
14:25:00,15,9,29,27,21,24,14,20,20
14:26:00,28,8,15,18,18,18,21,17,18
14:27:00,11,13,13,24,16,13,14,15,15
14:28:00,15,13,19,11,22,21,21,16,17
14:29:00,25,18,15,13,29,28,8,20,19
14:30:00,21,18,25,21,18,11,23,21,20
14:31:00,20,19,12,12,21,23,13,17,17
14:32:00,13,10,9,12,16,11,17,12,13
14:33:00,25,28,19,12,22,26,21,21,22
14:34:00,20,18,11,18,16,15,13,17,16
14:35:00,12,8,24,18,19,21,12,16,16
14:36:00,12,16,11,15,22,13,5,15,13
14:37:00,14,10,13,33,13,30,15,17,18
14:38:00,18,11,8,13,16,17,11,13,13
14:39:00,18,26,22,14,27,17,14,21,20
14:40:00,15,14,10,18,18,10,21,15,15
14:41:00,12,14,19,27,13,13,22,17,17
14:42:00,27,18,17,9,33,7,15,21,18
14:43:00,11,26,14,17,16,26,12,17,17
14:44:00,16,20,13,25,12,21,15,17,17
14:45:00,26,29,19,13,21,18,13,22,20
14:46:00,13,13,14,17,20,18,10,15,15
14:47:00,16,17,11,32,13,22,23,18,19
14:48:00,17,9,20,17,22,15,10,17,16
14:49:00,27,25,26,14,3,17,4,19,17
14:50:00,14,21,15,19,40,11,21,22,20
14:51:00,12,18,19,20,3,21,11,14,15
14:52:00,22,3,20,14,24,14,15,17,16
14:53:00,23,15,12,24,15,28,18,18,19
14:54:00,12,21,14,17,34,14,13,20,18
14:55:00,29,20,15,20,11,16,19,19,19
14:56:00,11,17,15,14,26,19,18,17,17
14:57:00,18,15,7,12,10,17,20,12,14
14:58:00,9,12,22,14,23,16,14,16,16
14:59:00,18,32,16,12,28,16,10,21,19
15:00:00,15,21,17,11,17,12,20,16,16
15:01:00,25,17,7,8,10,17,13,13,14
15:02:00,18,21,22,12,10,16,9,17,15
15:03:00,15,6,15,12,13,16,16,12,13
15:04:00,18,16,17,16,31,19,27,20,21
15:05:00,22,19,17,28,5,20,10,18,17
15:06:00,19,8,16,9,17,20,23,14,16
15:07:00,13,11,14,14,20,25,13,14,16
15:08:00,21,19,26,12,17,10,13,19,17
15:09:00,22,6,21,15,11,19,10,15,15
15:10:00,21,10,15,9,19,20,14,15,15
15:11:00,15,15,8,19,13,22,8,14,14
15:12:00,17,9,24,10,21,12,16,16,16
15:13:00,10,7,11,17,12,20,16,11,13
15:14:00,21,9,15,20,8,13,10,15,14
15:15:00,24,27,18,15,16,21,28,20,21
15:16:00,25,14,15,10,23,25,15,17,18
15:17:00,24,14,17,18,15,11,9,18,15
15:18:00,8,14,16,13,12,13,21,13,14
15:19:00,22,21,10,7,5,20,5,13,13
15:20:00,10,8,20,11,11,18,14,12,13
15:21:00,11,9,21,14,5,19,17,12,14
15:22:00,7,19,14,16,10,11,16,13,13
15:23:00,7,19,8,18,13,11,10,13,12
15:24:00,19,16,11,15,5,8,10,13,12
15:25:00,20,17,18,12,15,20,8,16,16
15:26:00,7,13,7,15,23,20,12,13,14
15:27:00,16,11,8,12,16,18,14,13,14
15:28:00,12,18,12,11,12,8,14,13,12
15:29:00,17,20,14,12,18,16,11,16,15
15:30:00,10,10,9,9,19,8,8,11,10
15:31:00,13,12,16,5,23,13,14,14,14
15:32:00,19,13,6,5,13,10,6,11,10
15:33:00,8,16,7,12,22,25,15,13,15
15:34:00,11,10,14,9,22,15,15,13,14
15:35:00,19,20,8,20,14,14,10,16,15
15:36:00,13,6,16,26,27,16,12,18,17
15:37:00,27,14,19,7,16,21,9,17,16
15:38:00,18,18,18,18,21,16,19,19,18
15:39:00,13,19,21,15,33,19,9,20,18
15:40:00,16,19,19,31,19,7,20,21,19
15:41:00,20,7,14,19,24,15,15,17,16
15:42:00,21,16,26,16,15,18,14,19,18
15:43:00,25,20,15,15,17,12,10,18,16
15:44:00,17,13,14,12,16,12,17,14,14
15:45:00,19,19,20,22,23,21,14,21,20
15:46:00,19,30,16,12,19,14,13,19,18
15:47:00,9,21,38,23,20,20,17,22,21
15:48:00,24,14,25,11,5,7,20,16,15
15:49:00,20,16,15,25,25,14,15,20,19
15:50:00,15,10,21,17,12,11,15,15,14
15:51:00,25,10,19,20,25,18,17,20,19
15:52:00,20,15,21,13,22,14,19,18,18
15:53:00,14,15,16,20,15,19,13,16,16
15:54:00,11,3,18,17,20,21,17,14,15
15:55:00,22,10,12,27,35,15,17,21,20
15:56:00,25,12,14,18,10,16,22,16,17
15:57:00,13,17,20,19,28,14,8,19,17
15:58:00,22,11,12,26,23,12,21,19,18
15:59:00,21,26,22,9,19,11,9,19,17
16:00:00,12,14,27,23,24,19,10,20,18
16:01:00,18,21,12,14,25,13,7,18,16
16:02:00,16,26,15,16,10,19,17,17,17
16:03:00,25,27,30,26,22,22,24,26,25
16:04:00,22,12,29,14,15,13,15,18,17
16:05:00,15,26,18,15,25,21,13,20,19
16:06:00,31,23,19,17,13,12,7,21,17
16:07:00,19,25,23,13,24,16,20,21,20
16:08:00,24,11,22,20,18,19,24,19,20
16:09:00,23,22,14,19,24,18,10,20,19
16:10:00,13,27,23,21,20,20,13,21,20
16:11:00,23,25,8,20,30,25,10,21,20
16:12:00,29,12,31,23,13,10,18,22,19
16:13:00,20,22,31,9,21,19,13,21,19
16:14:00,28,28,19,15,14,18,4,21,18
16:15:00,17,26,18,11,28,17,14,20,19
16:16:00,21,26,23,9,23,17,9,20,18
16:17:00,23,31,24,8,25,15,17,22,20
16:18:00,28,13,28,15,16,15,16,20,19
16:19:00,22,14,23,14,16,20,8,18,17
16:20:00,41,23,23,14,5,16,11,21,19
16:21:00,9,20,26,18,23,18,19,19,19
16:22:00,26,20,19,11,12,15,14,18,17
16:23:00,21,27,13,5,22,21,18,18,18
16:24:00,23,24,21,18,21,25,16,21,21
16:25:00,32,33,17,16,36,22,9,27,24
16:26:00,10,22,33,12,15,14,7,18,16
16:27:00,26,23,17,24,28,15,27,24,23
16:28:00,13,16,23,21,27,8,17,20,18
16:29:00,18,28,24,22,27,26,16,24,23
16:30:00,16,17,26,15,16,11,24,18,18
16:31:00,22,20,12,19,19,25,13,18,19
16:32:00,15,23,29,11,30,21,9,22,20
16:33:00,16,33,22,30,28,15,11,26,22
16:34:00,25,13,27,26,23,16,19,23,21
16:35:00,11,15,16,17,29,24,11,18,18
16:36:00,9,28,28,14,28,15,13,21,19
16:37:00,10,21,23,15,21,18,14,18,17
16:38:00,35,17,33,25,19,12,13,26,22
16:39:00,12,33,23,12,11,18,19,18,18
16:40:00,18,26,12,23,9,11,12,18,16
16:41:00,17,16,26,10,14,19,14,17,17
16:42:00,24,11,31,24,8,13,13,20,18
16:43:00,18,21,16,18,18,15,18,18,18
16:44:00,24,22,31,16,10,12,11,21,18
16:45:00,21,31,13,16,24,21,12,21,20
16:46:00,34,10,37,21,21,20,16,25,23
16:47:00,24,21,16,8,11,18,12,16,16
16:48:00,16,13,24,20,17,11,13,18,16
16:49:00,24,29,13,11,22,22,11,20,19
16:50:00,20,12,35,18,19,15,22,21,20
16:51:00,26,25,25,17,39,22,10,26,23
16:52:00,26,22,30,23,19,12,12,24,21
16:53:00,24,28,13,13,26,19,15,21,20
16:54:00,18,13,35,22,21,20,18,22,21
16:55:00,33,17,10,32,25,10,9,23,19
16:56:00,16,27,32,13,44,24,9,26,24
16:57:00,21,31,13,21,22,18,9,22,19
16:58:00,27,15,18,24,8,17,9,18,17
16:59:00,18,19,10,22,15,25,10,17,17
17:00:00,26,19,17,7,13,14,17,16,16
17:01:00,28,28,21,30,6,36,11,23,23
17:02:00,19,13,8,17,15,20,13,14,15
17:03:00,26,37,26,15,27,17,8,26,22
17:04:00,19,14,19,14,14,13,12,16,15
17:05:00,18,29,12,28,28,28,10,23,22
17:06:00,22,23,24,15,24,17,15,22,20
17:07:00,21,17,22,15,21,28,8,19,19
17:08:00,18,21,28,16,16,18,12,20,18
17:09:00,22,29,22,38,15,13,13,25,22
17:10:00,19,11,24,23,17,22,16,19,19
17:11:00,38,32,23,26,22,22,7,28,24
17:12:00,18,17,28,18,19,20,10,20,19
17:13:00,32,43,19,33,19,25,14,29,26
17:14:00,20,13,28,15,12,21,12,18,17
17:15:00,20,29,13,23,35,26,18,24,23
17:16:00,25,14,37,16,20,17,9,22,20
17:17:00,23,28,11,25,23,16,14,22,20
17:18:00,14,14,15,23,25,17,11,18,17
17:19:00,37,30,19,24,20,20,12,26,23
17:20:00,29,16,29,10,20,11,11,21,18
17:21:00,21,16,22,15,23,30,6,19,19
17:22:00,22,22,21,20,23,24,8,22,20
17:23:00,22,7,20,16,12,16,20,15,16
17:24:00,26,17,34,15,17,34,5,22,21
17:25:00,19,14,18,16,22,22,14,18,18
17:26:00,25,14,17,12,31,24,18,20,20
17:27:00,27,16,34,14,20,30,5,22,21
17:28:00,21,7,17,12,19,11,13,15,14
17:29:00,18,11,16,12,13,22,15,14,15
17:30:00,17,12,25,18,27,21,16,20,19
17:31:00,9,16,21,20,20,13,15,17,16
17:32:00,23,10,20,8,26,20,10,17,17
17:33:00,31,24,18,31,14,30,14,24,23
17:34:00,15,10,20,16,15,27,11,15,16
17:35:00,22,22,17,23,22,24,13,21,20
17:36:00,11,26,34,24,28,19,18,25,23
17:37:00,30,15,14,20,18,21,11,19,18
17:38:00,15,31,20,21,29,24,13,23,22
17:39:00,16,30,23,23,18,11,4,22,18
17:40:00,16,19,17,20,16,20,10,18,17
17:41:00,20,26,20,25,19,12,8,22,19
17:42:00,7,26,25,14,32,8,8,21,17
17:43:00,22,36,13,18,20,21,17,22,21
17:44:00,29,14,20,24,24,15,16,22,20
17:45:00,38,18,28,20,17,16,9,24,21
17:46:00,26,18,26,16,24,20,18,22,21
17:47:00,26,13,11,24,11,27,7,17,17
17:48:00,13,25,21,16,17,23,24,18,20
17:49:00,24,13,14,19,21,22,16,18,18
17:50:00,19,19,18,22,13,15,13,18,17
17:51:00,21,19,12,14,16,34,6,16,17
17:52:00,18,10,37,14,23,25,10,20,20
17:53:00,17,24,13,16,17,13,10,17,16
17:54:00,24,23,19,20,19,27,11,21,20
17:55:00,22,22,17,14,21,18,11,19,18
17:56:00,16,18,31,13,14,15,14,18,17
17:57:00,21,33,15,15,17,16,7,20,18
17:58:00,22,12,22,11,23,16,8,18,16
17:59:00,24,18,23,21,15,11,8,20,17
18:00:00,19,10,14,14,16,27,11,15,16
18:01:00,14,29,13,11,11,24,15,16,17
18:02:00,15,13,29,11,15,19,10,17,16
18:03:00,14,21,18,12,21,13,10,17,16
18:04:00,18,12,22,13,12,13,11,15,14
18:05:00,23,32,20,10,16,21,11,20,19
18:06:00,19,13,21,13,12,24,11,16,16
18:07:00,13,29,20,21,23,18,10,21,19
18:08:00,14,26,21,11,15,21,5,17,16
18:09:00,18,28,17,32,15,16,11,22,20
18:10:00,13,8,25,15,23,24,6,17,16
18:11:00,12,20,18,17,12,9,7,16,14
18:12:00,21,14,15,17,20,19,9,17,16
18:13:00,15,26,22,27,21,27,10,22,21
18:14:00,15,20,16,15,27,23,8,19,18
18:15:00,25,22,10,14,19,19,8,18,17
18:16:00,5,12,14,14,17,8,10,12,11
18:17:00,26,18,15,22,20,18,6,20,18
18:18:00,9,17,12,20,29,15,18,17,17
18:19:00,17,12,17,15,14,19,17,15,16
18:20:00,10,10,12,19,17,14,10,14,13
18:21:00,19,21,17,17,14,26,15,18,18
18:22:00,22,11,18,14,21,16,9,17,16
18:23:00,30,15,23,14,20,14,11,20,18
18:24:00,23,20,15,17,16,16,10,18,17
18:25:00,15,21,10,13,16,21,15,15,16
18:26:00,18,16,20,19,15,15,10,18,16
18:27:00,14,26,18,12,20,20,16,18,18
18:28:00,11,11,16,17,13,25,5,14,14
18:29:00,7,20,9,21,8,14,10,13,13
18:30:00,11,20,15,18,28,12,8,18,16
18:31:00,13,24,15,17,15,12,13,17,16
18:32:00,14,16,18,14,25,14,15,17,17
18:33:00,13,26,26,9,14,15,12,18,16
18:34:00,12,7,18,24,15,19,11,15,15
18:35:00,15,21,9,14,18,17,13,15,15
18:36:00,8,22,24,11,13,17,15,16,16
18:37:00,10,19,13,15,11,18,10,14,14
18:38:00,13,22,10,10,17,7,7,14,12
18:39:00,19,13,28,18,12,24,14,18,18
18:40:00,18,15,15,15,17,21,12,16,16
18:41:00,19,12,17,15,26,17,15,18,17
18:42:00,13,22,19,11,26,14,11,18,17
18:43:00,10,11,19,13,17,18,7,14,14
18:44:00,11,11,11,7,35,17,7,15,14
18:45:00,14,10,22,14,16,15,10,15,14
18:46:00,17,19,18,10,25,17,11,18,17
18:47:00,11,28,12,34,36,19,9,24,21
18:48:00,13,20,19,12,19,11,12,17,15
18:49:00,12,16,12,17,18,18,15,15,15
18:50:00,13,17,21,15,28,16,3,19,16
18:51:00,18,18,21,18,18,27,12,19,19
18:52:00,11,23,16,14,10,12,9,15,14
18:53:00,13,12,15,13,21,18,9,15,14
18:54:00,15,19,15,17,19,15,15,17,16
18:55:00,18,18,13,24,28,11,13,20,18
18:56:00,15,18,11,8,29,13,8,16,15
18:57:00,12,16,21,21,15,10,14,17,16
18:58:00,9,1,10,19,10,9,8,10,9
18:59:00,14,9,20,17,25,16,11,17,16
19:00:00,8,18,12,18,10,11,7,13,12
19:01:00,10,15,22,16,17,12,13,16,15
19:02:00,21,10,13,14,17,11,10,15,14
19:03:00,11,18,11,14,14,11,9,14,13
19:04:00,19,17,9,18,13,19,12,15,15
19:05:00,10,12,22,16,19,12,10,16,14
19:06:00,14,18,18,17,12,18,7,16,15
19:07:00,14,17,12,16,27,16,5,17,15
19:08:00,14,14,18,14,16,13,12,15,14
19:09:00,14,14,16,15,12,22,11,14,15
19:10:00,11,10,7,14,22,15,12,13,13
19:11:00,11,13,18,10,8,15,13,12,13
19:12:00,12,17,10,11,26,14,12,15,15
19:13:00,18,9,20,15,19,14,8,16,15
19:14:00,16,13,19,7,15,16,9,14,14
19:15:00,15,9,6,12,21,11,9,13,12
19:16:00,13,18,12,13,13,14,14,14,14
19:17:00,9,16,13,14,19,26,8,14,15
19:18:00,7,15,15,19,11,17,8,13,13
19:19:00,14,15,19,5,21,14,9,15,14
19:20:00,11,14,10,13,14,10,17,12,13
19:21:00,15,15,17,20,19,11,8,17,15
19:22:00,6,9,18,12,14,7,12,12,11
19:23:00,14,16,21,11,9,9,6,14,12
19:24:00,18,11,12,8,17,10,3,13,11
19:25:00,17,9,14,20,18,13,7,16,14
19:26:00,9,12,13,12,18,18,9,13,13
19:27:00,12,15,14,10,18,10,12,14,13
19:28:00,6,18,15,16,16,8,10,14,13
19:29:00,20,9,11,8,15,21,7,13,13
19:30:00,21,6,17,16,10,13,13,14,14
19:31:00,10,10,17,5,13,8,10,11,10
19:32:00,10,11,15,12,13,8,9,12,11
19:33:00,7,13,9,12,11,10,12,10,11
19:34:00,27,13,11,15,12,13,10,16,14
19:35:00,15,14,12,13,14,13,11,14,13
19:36:00,8,19,8,10,12,21,10,11,13
19:37:00,5,7,11,20,12,6,9,11,10
19:38:00,22,7,20,10,10,13,16,14,14
19:39:00,10,11,12,8,17,7,7,12,10
19:40:00,8,14,5,13,16,14,18,11,13
19:41:00,6,10,16,7,11,11,7,10,10
19:42:00,15,10,14,8,14,11,15,12,12
19:43:00,9,14,10,13,7,7,9,11,10
19:44:00,9,8,3,13,13,15,7,9,10
19:45:00,18,5,18,5,25,10,6,14,12
19:46:00,9,15,5,12,12,13,6,11,10
19:47:00,12,11,13,19,12,14,3,13,12
19:48:00,11,11,12,11,25,8,9,14,12
19:49:00,12,16,4,16,14,18,13,12,13
19:50:00,10,7,7,9,13,13,7,9,9
19:51:00,10,6,12,13,15,19,10,11,12
19:52:00,25,11,13,12,9,7,9,14,12
19:53:00,11,6,21,12,8,11,13,12,12
19:54:00,7,10,9,5,9,12,8,8,9
19:55:00,5,9,6,16,18,5,6,11,9
19:56:00,5,7,17,8,8,10,11,9,9
19:57:00,8,9,12,9,12,9,10,10,10
19:58:00,12,6,22,7,14,9,6,12,11
19:59:00,7,9,11,13,10,6,8,10,9
20:00:00,11,6,6,14,15,15,5,10,10
20:01:00,15,8,6,5,12,11,9,9,9
20:02:00,5,6,11,8,7,6,6,7,7
20:03:00,7,8,6,6,12,19,9,8,10
20:04:00,8,6,8,6,12,5,10,8,8
20:05:00,6,6,6,8,12,11,9,8,8
20:06:00,10,9,8,15,14,10,12,11,11
20:07:00,10,7,9,14,17,8,6,11,10
20:08:00,9,14,15,10,8,8,5,11,10
20:09:00,9,9,14,8,15,9,7,11,10
20:10:00,4,6,7,8,12,11,3,7,7
20:11:00,12,9,7,7,10,6,15,9,9
20:12:00,11,7,10,19,10,9,12,11,11
20:13:00,14,11,12,14,8,11,7,12,11
20:14:00,12,8,12,7,9,9,9,10,9
20:15:00,13,12,6,8,11,8,4,10,9
20:16:00,11,7,9,14,12,10,6,11,10
20:17:00,10,8,12,14,7,13,2,10,9
20:18:00,11,10,21,11,8,5,6,12,10
20:19:00,7,7,13,9,9,11,7,9,9
20:20:00,8,12,9,11,13,10,4,11,10
20:21:00,9,11,11,2,15,9,10,10,10
20:22:00,9,7,5,21,8,16,10,10,11
20:23:00,7,7,6,6,11,10,7,7,8
20:24:00,10,13,12,7,6,9,12,10,10
20:25:00,14,10,8,13,14,10,4,12,10
20:26:00,14,4,9,6,5,7,5,8,7
20:27:00,7,11,14,12,17,4,7,12,10
20:28:00,8,11,5,12,9,9,5,9,8
20:29:00,8,9,10,12,9,9,4,10,9
20:30:00,6,10,6,9,5,6,10,7,7
20:31:00,6,4,5,5,15,10,7,7,7
20:32:00,11,6,15,8,6,5,11,9,9
20:33:00,2,9,8,9,13,4,3,8,7
20:34:00,9,10,12,15,8,7,7,11,10
20:35:00,8,8,13,9,16,8,6,11,10
20:36:00,3,4,8,6,10,10,7,6,7
20:37:00,11,9,6,6,10,12,5,8,8
20:38:00,4,7,7,10,16,6,10,9,9
20:39:00,6,7,9,8,13,11,5,9,8
20:40:00,6,7,10,3,10,4,12,7,7
20:41:00,6,8,8,8,7,9,8,7,8
20:42:00,8,5,8,6,9,5,4,7,6
20:43:00,3,7,9,7,17,8,2,9,8
20:44:00,8,5,10,9,12,5,4,9,8
20:45:00,6,13,6,6,7,5,6,8,7
20:46:00,4,3,7,5,10,10,11,6,7
20:47:00,12,9,8,14,7,5,2,10,8
20:48:00,9,7,10,6,6,5,6,8,7
20:49:00,7,7,8,8,9,8,3,8,7
20:50:00,1,5,9,5,4,7,3,5,5
20:51:00,5,5,7,9,15,8,7,8,8
20:52:00,4,10,10,10,4,6,2,8,7
20:53:00,4,6,7,6,4,7,7,5,6
20:54:00,12,8,8,12,7,6,4,9,8
20:55:00,7,7,11,9,9,4,7,9,8
20:56:00,5,11,9,7,8,6,6,8,7
20:57:00,8,7,6,7,13,7,10,8,8
20:58:00,5,4,7,6,14,12,8,7,8
20:59:00,6,7,6,7,3,3,7,6,6
21:00:00,6,6,9,9,13,10,5,9,8
21:01:00,4,7,9,7,8,9,5,7,7
21:02:00,12,6,7,6,9,5,7,8,7
21:03:00,4,3,6,8,6,6,4,5,5
21:04:00,4,7,9,9,11,3,4,8,7
21:05:00,5,8,8,6,3,9,7,6,7
21:06:00,9,5,8,5,12,10,9,8,8
21:07:00,10,7,6,10,10,5,5,9,8
21:08:00,10,6,9,5,9,2,5,8,7
21:09:00,9,7,5,6,13,12,4,8,8
21:10:00,3,9,8,7,12,7,7,8,8
21:11:00,11,12,8,8,7,7,3,9,8
21:12:00,8,8,4,2,12,5,6,7,6
21:13:00,10,6,8,5,6,4,8,7,7
21:14:00,7,10,6,11,7,7,4,8,7
21:15:00,15,5,12,6,8,7,3,9,8
21:16:00,6,8,9,3,7,8,5,7,7
21:17:00,4,9,7,6,14,12,4,8,8
21:18:00,8,9,11,6,9,10,2,9,8
21:19:00,7,11,6,11,9,7,4,9,8
21:20:00,7,10,7,7,7,4,10,8,7
21:21:00,4,7,8,12,7,8,2,8,7
21:22:00,4,9,10,15,2,7,10,8,8
21:23:00,2,3,8,8,4,5,4,5,5
21:24:00,8,4,9,9,3,5,9,7,7
21:25:00,6,6,6,11,12,6,5,8,7
21:26:00,5,6,7,7,6,10,7,6,7
21:27:00,7,7,6,8,6,5,3,7,6
21:28:00,3,13,6,5,8,6,2,7,6
21:29:00,11,11,8,7,6,11,7,9,9
21:30:00,5,11,11,8,6,14,6,8,9
21:31:00,6,9,16,10,7,7,5,10,9
21:32:00,14,4,2,6,5,6,5,6,6
21:33:00,9,7,8,5,7,7,7,7,7
21:34:00,7,10,6,9,6,12,1,8,7
21:35:00,4,4,3,4,5,3,4,4,4
21:36:00,10,11,9,6,5,5,6,8,7
21:37:00,2,18,3,13,13,7,3,10,8
21:38:00,9,9,6,5,9,7,4,8,7
21:39:00,11,9,9,8,4,9,1,8,7
21:40:00,8,6,4,6,5,1,5,6,5
21:41:00,3,5,6,9,12,10,6,7,7
21:42:00,8,8,6,6,10,9,1,8,7
21:43:00,4,5,10,7,7,8,11,7,7
21:44:00,9,11,7,7,8,6,7,8,8
21:45:00,7,14,16,5,3,7,2,9,8
21:46:00,3,11,7,12,7,9,7,8,8
21:47:00,8,9,3,3,11,3,4,7,6
21:48:00,5,8,13,15,10,17,6,10,11
21:49:00,9,11,11,6,6,9,5,9,8
21:50:00,2,8,4,10,8,7,10,6,7
21:51:00,4,11,6,7,4,4,1,6,5
21:52:00,7,18,10,6,14,4,5,11,9
21:53:00,6,14,8,6,16,7,6,10,9
21:54:00,4,6,3,11,5,4,5,6,5
21:55:00,2,10,8,8,8,7,7,7,7
21:56:00,11,20,10,6,6,2,5,11,9
21:57:00,2,9,7,7,10,6,4,7,6
21:58:00,6,17,7,6,11,7,3,9,8
21:59:00,6,12,2,4,10,4,2,7,6
22:00:00,3,8,3,6,10,6,2,6,5
22:01:00,7,10,8,4,13,9,1,8,7
22:02:00,5,14,7,6,11,3,4,9,7
22:03:00,5,19,2,12,9,7,3,9,8
22:04:00,5,13,6,7,8,6,6,8,7
22:05:00,5,13,10,4,4,5,2,7,6
22:06:00,7,19,6,8,5,14,6,9,9
22:07:00,11,13,8,12,11,7,6,11,10
22:08:00,6,14,7,15,9,11,3,10,9
22:09:00,4,17,4,4,10,10,2,8,7
22:10:00,4,7,8,7,1,9,5,5,6
22:11:00,6,7,7,7,5,2,4,6,5
22:12:00,2,8,5,9,6,11,3,6,6
22:13:00,7,10,13,7,14,10,5,10,9
22:14:00,9,11,6,7,4,3,2,7,6
22:15:00,11,8,4,6,9,9,5,8,7
22:16:00,4,7,12,12,6,6,4,8,7
22:17:00,8,5,5,5,7,7,2,6,6
22:18:00,6,8,7,7,9,9,7,7,8
22:19:00,4,11,6,6,11,4,2,8,6
22:20:00,7,7,5,8,6,9,2,7,6
22:21:00,8,8,8,9,6,7,4,8,7
22:22:00,3,5,8,4,2,9,1,4,5
22:23:00,7,9,2,5,7,6,2,6,5
22:24:00,6,5,7,6,4,9,5,6,6
22:25:00,6,5,2,6,4,5,4,5,5
22:26:00,7,7,6,3,7,10,5,6,6
22:27:00,0,3,10,6,5,8,2,5,5
22:28:00,4,6,6,8,3,4,5,5,5
22:29:00,4,6,6,2,4,7,2,4,4
22:30:00,6,4,1,4,11,3,0,5,4
22:31:00,0,4,5,11,6,6,6,5,5
22:32:00,9,3,6,5,6,7,5,6,6
22:33:00,0,10,4,6,4,8,4,5,5
22:34:00,4,9,5,3,3,8,6,5,5
22:35:00,6,8,6,2,4,7,6,5,6
22:36:00,4,8,6,2,6,5,3,5,5
22:37:00,6,3,8,6,11,9,2,7,6
22:38:00,4,6,16,10,4,9,0,8,7
22:39:00,7,6,5,2,2,17,3,4,6
22:40:00,5,4,6,10,4,5,5,6,6
22:41:00,3,7,6,4,9,6,1,6,5
22:42:00,1,5,1,2,3,12,4,2,4
22:43:00,5,3,2,3,7,6,1,4,4
22:44:00,3,4,7,5,13,5,5,6,6
22:45:00,5,3,3,8,3,5,3,4,4
22:46:00,3,2,6,6,8,9,2,5,5
22:47:00,5,3,2,2,5,3,1,3,3
22:48:00,2,2,1,2,9,10,4,3,4
22:49:00,3,4,3,8,8,10,4,5,6
22:50:00,2,1,7,4,5,4,5,4,4
22:51:00,8,5,5,2,6,3,5,5,5
22:52:00,3,2,4,7,10,5,2,5,5
22:53:00,2,7,8,6,10,5,0,7,5
22:54:00,5,6,2,1,5,8,1,4,4
22:55:00,5,2,3,0,7,5,3,3,4
22:56:00,4,3,5,3,4,8,2,4,4
22:57:00,5,3,2,1,1,2,2,2,2
22:58:00,4,5,4,10,9,6,3,6,6
22:59:00,2,2,8,3,3,5,2,4,4
23:00:00,2,2,8,4,4,10,6,4,5
23:01:00,2,6,4,12,8,2,2,6,5
23:02:00,3,6,4,3,6,9,3,4,5
23:03:00,3,4,1,5,6,4,3,4,4
23:04:00,3,3,4,3,4,7,2,3,4
23:05:00,3,3,4,10,8,6,2,6,5
23:06:00,3,4,1,7,11,7,5,5,5
23:07:00,2,1,3,3,7,8,3,3,4
23:08:00,0,1,7,7,3,3,4,4,4
23:09:00,2,4,4,2,7,3,1,4,3
23:10:00,2,4,3,5,8,11,0,4,5
23:11:00,1,6,5,2,9,3,4,5,4
23:12:00,2,2,4,5,5,4,2,4,3
23:13:00,6,3,3,2,5,7,3,4,4
23:14:00,1,3,7,2,12,6,1,5,5
23:15:00,8,2,4,5,5,9,3,5,5
23:16:00,5,4,4,8,10,4,1,6,5
23:17:00,0,4,6,2,6,3,2,4,3
23:18:00,1,2,5,4,4,4,1,3,3
23:19:00,0,4,3,4,6,6,4,3,4
23:20:00,3,6,4,5,7,7,3,5,5
23:21:00,3,2,2,5,6,4,2,4,3
23:22:00,7,0,2,2,7,12,1,4,4
23:23:00,2,3,0,2,6,3,1,3,2
23:24:00,1,3,3,2,4,5,2,3,3
23:25:00,3,2,3,5,5,3,5,4,4
23:26:00,5,9,5,5,6,3,1,6,5
23:27:00,5,1,3,3,7,3,2,4,3
23:28:00,3,2,1,2,4,5,2,2,3
23:29:00,2,2,4,5,6,5,1,4,4
23:30:00,3,0,3,0,11,4,7,3,4
23:31:00,2,1,5,2,6,8,0,3,3
23:32:00,1,6,3,6,4,4,2,4,4
23:33:00,4,1,2,2,5,3,2,3,3
23:34:00,1,1,2,3,2,6,0,2,2
23:35:00,2,2,4,3,6,6,2,3,4
23:36:00,2,2,1,3,4,6,2,2,3
23:37:00,0,1,2,0,4,10,4,1,3
23:38:00,1,2,2,2,3,7,2,2,3
23:39:00,2,2,3,3,6,7,1,3,3
23:40:00,2,2,1,2,8,9,1,3,4
23:41:00,2,2,1,2,2,10,2,2,3
23:42:00,3,7,4,1,7,1,1,4,3
23:43:00,2,2,3,1,3,1,3,2,2
23:44:00,1,2,5,2,3,5,4,3,3
23:45:00,0,1,3,1,4,6,2,2,2
23:46:00,6,1,1,1,7,4,4,3,3
23:47:00,3,1,0,0,10,8,2,3,3
23:48:00,3,3,0,4,15,7,0,5,5
23:49:00,0,1,5,3,5,7,6,3,4
23:50:00,1,2,0,3,1,3,0,1,1
23:51:00,4,0,3,1,7,9,3,3,4
23:52:00,3,1,3,5,1,12,1,3,4
23:53:00,3,1,5,2,6,4,2,3,3
23:54:00,2,2,1,4,1,7,2,2,3
23:55:00,2,1,3,1,6,8,3,3,3
23:56:00,2,3,0,1,4,5,0,2,2
23:57:00,1,0,0,2,5,6,1,2,2
23:58:00,2,2,2,4,4,3,1,3,3
23:59:00,1,1,4,1,4,4,0,2,2
,,,,,,,,,
Totals,,,,,,,,,
12H(7-19),12595,12411,12416,12092,13036,11217,8924,12510,11813
16H(6-22),14684,14689,14736,14353,15497,13129,10332,14792,13917
18H(6-24),15120,15257,15259,14895,16239,13898,10660,15354,14475
24H(0-24),15579,15720,15745,15380,16775,14637,11500,15840,15048
,,,,,,,,,
AM Peak,07:13:00,07:24:00,07:24:00,07:13:00,10:49:00,10:15:00,10:39:00,07:26:00,10:01:00
,1116,1184,1116,1131,1173,1134,961,1113,1003
,,,,,,,,,
PM Peak,16:38:00,16:14:00,15:57:00,16:51:00,15:57:00,16:56:00,12:32:00,16:23:00,16:23:00
,1349,1336,1345,1172,1263,1244,1111,1264,1175
,,,,,,,,,
,,,,,,,,,
CA Traffic,,,,,,,,,VDA-net R2 16/01/2020
