Site Number,00009177,Unnamed: 2,Site Reference,00009177.1,Unnamed: 5,Unnamed: 6,Lat/Lng.,"52.07513,1.12891",Unnamed: 9
Norwich Road Ipswich,,,,,,,,,
Vehicle Count Report,,,,Week Begin: 20 January 2020,,,Channel:,Total Flow,
,,,,,,,,,
,,,,,,,,,
,2020-01-20 00:00:00,2020-01-21 00:00:00,2020-01-22 00:00:00,2020-01-23 00:00:00,2020-01-24 00:00:00,2020-01-25 00:00:00,2020-01-26 00:00:00,"5-Day
Ave.","7-Day
Ave."
00:00:00,2,3,2,3,5,3,2,3,3
00:01:00,1,2,0,3,5,1,7,2,3
00:02:00,2,4,2,0,0,4,2,2,2
00:03:00,2,1,0,5,1,5,4,2,3
00:04:00,4,3,0,2,0,3,5,2,2
00:05:00,3,3,5,2,4,1,5,3,3
00:06:00,4,3,0,3,4,6,4,3,3
00:07:00,1,1,1,4,1,4,6,2,3
00:08:00,1,6,3,4,3,1,5,3,3
00:09:00,2,4,0,1,2,7,5,2,3
00:10:00,2,4,1,2,1,2,2,2,2
00:11:00,2,0,0,3,0,4,4,1,2
00:12:00,2,4,1,2,2,4,4,2,3
00:13:00,1,1,2,3,2,4,6,2,3
00:14:00,2,4,3,2,0,2,4,2,2
00:15:00,1,2,1,2,2,6,3,2,2
00:16:00,1,2,3,4,0,3,5,2,3
00:17:00,2,0,5,4,2,1,1,3,2
00:18:00,1,1,3,2,2,2,3,2,2
00:19:00,3,1,4,1,2,9,6,2,4
00:20:00,1,2,1,1,1,6,5,1,2
00:21:00,3,2,4,3,1,7,2,3,3
00:22:00,0,1,0,3,5,3,4,2,2
00:23:00,0,1,2,2,3,0,4,2,2
00:24:00,3,4,2,0,0,6,2,2,2
00:25:00,3,2,2,3,2,5,5,2,3
00:26:00,1,2,4,1,1,6,6,2,3
00:27:00,0,2,3,3,3,6,3,2,3
00:28:00,1,3,3,0,1,5,3,2,2
00:29:00,1,0,2,2,1,3,1,1,1
00:30:00,3,1,3,1,1,5,3,2,2
00:31:00,1,1,0,1,1,4,5,1,2
00:32:00,4,3,1,1,0,2,2,2,2
00:33:00,1,1,1,3,2,4,5,2,2
00:34:00,0,2,3,1,1,2,5,1,2
00:35:00,0,4,1,0,2,6,2,1,2
00:36:00,0,2,4,1,2,0,3,2,2
00:37:00,1,1,1,2,2,0,2,1,1
00:38:00,2,2,1,2,1,5,4,2,2
00:39:00,0,0,1,1,6,2,5,2,2
00:40:00,0,0,1,4,2,2,4,1,2
00:41:00,0,2,0,0,2,6,2,1,2
00:42:00,3,2,0,3,4,3,3,2,3
00:43:00,2,2,0,2,3,3,8,2,3
00:44:00,4,3,2,2,2,3,3,3,3
00:45:00,2,1,0,4,6,0,5,3,3
00:46:00,2,1,0,0,1,4,5,1,2
00:47:00,1,4,1,3,2,4,2,2,2
00:48:00,2,1,1,1,3,5,4,2,2
00:49:00,3,1,0,4,2,1,3,2,2
00:50:00,1,3,2,1,2,3,4,2,2
00:51:00,3,3,4,2,2,5,1,3,3
00:52:00,0,0,0,1,0,3,3,0,1
00:53:00,1,2,2,1,2,1,3,2,2
00:54:00,0,0,1,0,2,4,5,1,2
00:55:00,2,0,2,0,2,4,4,1,2
00:56:00,2,0,1,2,1,6,5,1,2
00:57:00,4,3,1,1,1,0,3,2,2
00:58:00,0,4,3,3,4,6,3,3,3
00:59:00,0,0,0,1,2,2,0,1,1
01:00:00,1,0,2,2,0,3,5,1,2
01:01:00,1,1,1,6,2,2,3,2,2
01:02:00,0,0,2,2,2,3,3,1,2
01:03:00,0,3,1,0,1,0,3,1,1
01:04:00,0,0,0,1,0,0,8,0,1
01:05:00,2,1,0,1,3,0,1,1,1
01:06:00,0,1,0,0,3,1,3,1,1
01:07:00,1,0,2,0,0,4,5,1,2
01:08:00,1,3,0,2,3,1,2,2,2
01:09:00,0,3,3,1,0,1,6,1,2
01:10:00,0,1,2,1,1,5,2,1,2
01:11:00,2,0,2,3,1,1,6,2,2
01:12:00,0,0,0,3,3,3,1,1,1
01:13:00,0,0,0,0,2,0,5,0,1
01:14:00,2,1,0,0,3,1,2,1,1
01:15:00,2,0,1,2,0,1,5,1,2
01:16:00,1,0,2,2,1,1,1,1,1
01:17:00,0,0,2,2,1,4,3,1,2
01:18:00,1,1,0,2,1,1,2,1,1
01:19:00,0,1,0,3,1,4,2,1,2
01:20:00,1,0,1,0,2,4,4,1,2
01:21:00,1,2,1,1,1,3,5,1,2
01:22:00,0,1,0,0,2,1,2,1,1
01:23:00,4,2,0,1,1,2,3,2,2
01:24:00,2,0,2,1,0,4,2,1,2
01:25:00,1,4,0,3,1,1,2,2,2
01:26:00,2,2,1,0,0,2,1,1,1
01:27:00,1,0,2,1,2,3,4,1,2
01:28:00,0,2,0,1,1,0,4,1,1
01:29:00,3,2,1,0,2,2,2,2,2
01:30:00,1,0,0,2,0,0,3,1,1
01:31:00,0,0,1,1,2,1,0,1,1
01:32:00,3,3,1,3,3,4,1,3,3
01:33:00,1,2,2,1,4,0,1,2,2
01:34:00,0,2,0,3,0,1,1,1,1
01:35:00,3,1,2,3,2,6,4,2,3
01:36:00,1,0,5,0,3,1,3,2,2
01:37:00,3,1,0,3,3,3,2,2,2
01:38:00,0,0,0,2,2,3,7,1,2
01:39:00,1,2,1,2,1,3,5,1,2
01:40:00,0,1,0,2,1,3,2,1,1
01:41:00,0,3,3,1,1,1,2,2,2
01:42:00,0,1,0,0,2,2,1,1,1
01:43:00,4,2,1,1,1,0,3,2,2
01:44:00,1,2,2,2,1,2,5,2,2
01:45:00,1,1,0,1,1,4,2,1,1
01:46:00,0,0,1,1,1,1,4,1,1
01:47:00,1,0,1,0,1,1,1,1,1
01:48:00,2,1,0,1,0,1,0,1,1
01:49:00,2,2,1,0,0,2,2,1,1
01:50:00,1,1,0,3,0,3,0,1,1
01:51:00,1,2,0,1,1,1,3,1,1
01:52:00,0,0,0,0,1,0,4,0,1
01:53:00,0,1,0,1,1,3,3,1,1
01:54:00,1,0,1,0,0,1,4,0,1
01:55:00,1,4,0,0,2,2,1,1,1
01:56:00,1,1,0,0,1,1,3,1,1
01:57:00,0,0,1,1,1,2,2,1,1
01:58:00,1,0,0,0,1,2,4,0,1
01:59:00,1,1,1,0,0,2,3,1,1
02:00:00,1,1,1,0,0,1,1,1,1
02:01:00,1,1,0,4,1,0,2,1,1
02:02:00,3,3,1,0,0,0,2,1,1
02:03:00,0,2,0,0,1,0,1,1,1
02:04:00,2,0,1,0,2,1,1,1,1
02:05:00,0,0,0,1,1,3,6,0,2
02:06:00,1,0,0,0,1,3,1,0,1
02:07:00,0,1,0,1,1,2,5,1,1
02:08:00,1,1,0,1,2,1,1,1,1
02:09:00,0,1,1,0,0,2,3,0,1
02:10:00,3,0,0,0,0,0,1,1,1
02:11:00,1,1,0,1,1,1,2,1,1
02:12:00,2,0,0,0,2,0,1,1,1
02:13:00,3,1,1,3,1,1,2,2,2
02:14:00,0,0,1,0,1,1,0,0,0
02:15:00,0,0,0,0,0,2,2,0,1
02:16:00,0,2,1,0,0,2,2,1,1
02:17:00,3,0,2,0,1,4,1,1,2
02:18:00,0,1,2,1,0,0,0,1,1
02:19:00,0,1,0,1,3,4,2,1,2
02:20:00,1,1,0,0,0,1,4,0,1
02:21:00,3,1,0,0,1,3,4,1,2
02:22:00,0,1,2,1,1,2,0,1,1
02:23:00,0,0,3,1,3,6,1,1,2
02:24:00,0,0,0,2,1,0,1,1,1
02:25:00,0,1,0,1,0,1,3,0,1
02:26:00,0,2,0,0,1,4,4,1,2
02:27:00,1,2,3,1,0,1,0,1,1
02:28:00,3,1,1,1,1,1,2,1,1
02:29:00,0,2,2,1,2,1,2,1,1
02:30:00,1,0,0,1,1,0,1,1,1
02:31:00,0,0,0,1,1,1,6,0,1
02:32:00,0,1,2,1,0,2,2,1,1
02:33:00,1,1,0,2,0,1,2,1,1
02:34:00,1,0,1,2,1,0,1,1,1
02:35:00,0,0,0,1,1,3,0,0,1
02:36:00,0,1,0,0,3,4,1,1,1
02:37:00,1,2,1,2,1,2,2,1,2
02:38:00,0,1,1,0,0,1,1,0,1
02:39:00,1,2,1,1,0,3,2,1,1
02:40:00,0,0,1,2,2,0,2,1,1
02:41:00,1,0,2,0,0,2,1,1,1
02:42:00,0,2,0,2,1,0,3,1,1
02:43:00,1,2,0,1,2,0,2,1,1
02:44:00,1,0,4,2,1,0,1,2,1
02:45:00,1,0,0,1,1,1,4,1,1
02:46:00,0,1,1,1,1,0,0,1,1
02:47:00,0,1,1,2,1,1,0,1,1
02:48:00,1,0,0,1,2,1,3,1,1
02:49:00,1,2,0,0,0,0,2,1,1
02:50:00,1,1,2,1,0,2,3,1,1
02:51:00,1,1,2,0,2,1,0,1,1
02:52:00,1,1,2,3,1,1,2,2,2
02:53:00,0,3,1,2,3,0,1,2,1
02:54:00,2,2,2,0,1,3,2,1,2
02:55:00,1,1,2,1,3,3,1,2,2
02:56:00,0,2,1,2,1,0,2,1,1
02:57:00,0,1,1,0,0,1,0,0,0
02:58:00,0,1,4,2,1,0,0,2,1
02:59:00,1,0,4,2,2,2,4,2,2
03:00:00,1,1,1,1,3,0,1,1,1
03:01:00,0,1,0,0,2,2,3,1,1
03:02:00,0,0,2,0,0,2,1,0,1
03:03:00,1,0,1,0,0,1,1,0,1
03:04:00,1,1,1,5,0,4,0,2,2
03:05:00,1,0,0,0,0,0,2,0,0
03:06:00,1,1,3,2,0,1,0,1,1
03:07:00,0,1,0,0,2,1,1,1,1
03:08:00,0,1,0,0,0,1,2,0,1
03:09:00,0,0,2,1,0,1,0,1,1
03:10:00,0,1,2,0,0,2,0,1,1
03:11:00,1,0,0,1,0,3,1,0,1
03:12:00,0,0,1,1,1,1,2,1,1
03:13:00,0,1,2,1,1,2,1,1,1
03:14:00,0,0,1,1,1,1,0,1,1
03:15:00,0,1,2,3,2,1,1,2,1
03:16:00,5,0,1,0,2,1,2,2,2
03:17:00,1,1,1,0,0,3,0,1,1
03:18:00,0,1,2,1,1,2,2,1,1
03:19:00,1,0,2,2,1,2,4,1,2
03:20:00,1,3,0,0,1,1,1,1,1
03:21:00,1,5,0,0,4,0,2,2,2
03:22:00,2,1,1,4,0,4,3,2,2
03:23:00,3,2,1,2,2,0,1,2,2
03:24:00,4,3,0,2,1,1,3,2,2
03:25:00,2,3,1,1,1,1,2,2,2
03:26:00,0,0,0,3,0,0,0,1,0
03:27:00,0,1,3,0,1,1,2,1,1
03:28:00,0,2,1,1,0,1,0,1,1
03:29:00,2,0,0,0,3,2,4,1,2
03:30:00,0,0,2,1,1,3,2,1,1
03:31:00,2,3,0,0,0,1,1,1,1
03:32:00,3,1,2,0,0,3,2,1,2
03:33:00,1,0,0,0,0,3,1,0,1
03:34:00,3,1,0,2,1,0,1,1,1
03:35:00,1,1,2,1,0,0,3,1,1
03:36:00,0,1,2,1,2,2,3,1,2
03:37:00,1,0,1,1,0,1,0,1,1
03:38:00,3,1,2,6,1,0,1,3,2
03:39:00,2,1,0,0,1,2,3,1,1
03:40:00,0,0,1,0,1,1,1,0,1
03:41:00,1,0,1,1,2,3,0,1,1
03:42:00,1,1,0,2,2,1,1,1,1
03:43:00,1,0,1,0,1,1,2,1,1
03:44:00,2,1,1,0,0,2,2,1,1
03:45:00,4,2,0,1,1,3,0,2,2
03:46:00,1,2,1,0,0,3,2,1,1
03:47:00,0,1,0,1,1,0,1,1,1
03:48:00,3,0,2,0,0,0,4,1,1
03:49:00,1,1,1,2,1,1,3,1,1
03:50:00,0,0,1,1,3,0,2,1,1
03:51:00,0,0,4,0,0,0,1,1,1
03:52:00,1,1,0,1,3,2,1,1,1
03:53:00,2,2,2,0,1,3,1,1,2
03:54:00,3,0,0,1,0,2,1,1,1
03:55:00,1,0,1,1,0,4,1,1,1
03:56:00,0,2,0,1,3,2,0,1,1
03:57:00,0,0,3,0,0,0,3,1,1
03:58:00,2,0,0,1,0,3,1,1,1
03:59:00,1,0,1,1,0,1,1,1,1
04:00:00,0,1,0,4,1,2,2,1,1
04:01:00,1,0,3,0,4,4,2,2,2
04:02:00,1,2,0,0,1,0,0,1,1
04:03:00,0,0,2,1,1,4,2,1,1
04:04:00,3,1,1,3,4,2,1,2,2
04:05:00,1,2,4,1,2,0,3,2,2
04:06:00,1,1,1,3,4,4,1,2,2
04:07:00,1,2,1,0,1,2,2,1,1
04:08:00,2,0,1,2,2,0,1,1,1
04:09:00,0,2,0,0,3,0,2,1,1
04:10:00,2,0,4,0,1,0,3,1,1
04:11:00,0,2,1,2,2,2,0,1,1
04:12:00,1,2,1,0,3,1,2,1,1
04:13:00,2,3,1,0,1,0,0,1,1
04:14:00,2,0,1,2,0,2,1,1,1
04:15:00,2,0,0,2,1,2,0,1,1
04:16:00,0,1,1,2,0,1,1,1,1
04:17:00,0,1,0,1,0,0,0,0,0
04:18:00,0,2,3,3,2,4,0,2,2
04:19:00,0,1,3,0,4,1,0,2,1
04:20:00,3,1,1,2,1,1,2,2,2
04:21:00,2,4,0,1,1,1,3,2,2
04:22:00,2,0,0,3,1,2,1,1,1
04:23:00,3,2,4,2,1,2,0,2,2
04:24:00,2,3,2,3,1,3,1,2,2
04:25:00,2,2,1,1,1,0,1,1,1
04:26:00,2,2,1,1,1,0,3,1,1
04:27:00,2,1,3,4,3,2,3,3,3
04:28:00,1,0,3,3,1,1,3,2,2
04:29:00,4,3,2,0,3,2,0,2,2
04:30:00,2,2,2,5,3,2,2,3,3
04:31:00,3,2,3,2,3,2,1,3,2
04:32:00,0,4,2,4,1,1,4,2,2
04:33:00,1,2,2,0,1,1,2,1,1
04:34:00,1,1,3,3,0,2,1,2,2
04:35:00,1,1,1,3,2,1,3,2,2
04:36:00,4,3,3,3,3,3,3,3,3
04:37:00,2,5,0,3,1,2,1,2,2
04:38:00,0,1,4,2,3,0,2,2,2
04:39:00,5,3,1,6,5,1,1,4,3
04:40:00,5,7,0,3,8,7,6,5,5
04:41:00,4,6,2,4,5,0,0,4,3
04:42:00,1,4,8,2,1,3,1,3,3
04:43:00,4,2,2,1,0,0,6,2,2
04:44:00,6,7,2,2,3,6,1,4,4
04:45:00,3,5,1,4,6,2,4,4,4
04:46:00,6,4,4,2,2,1,2,4,3
04:47:00,2,2,7,4,6,1,4,4,4
04:48:00,2,3,3,7,4,2,1,4,3
04:49:00,4,9,6,10,4,1,2,7,5
04:50:00,7,7,8,5,5,2,3,6,5
04:51:00,1,0,2,7,5,3,1,3,3
04:52:00,5,4,4,4,4,3,0,4,3
04:53:00,9,7,9,0,5,1,4,6,5
04:54:00,5,6,3,6,4,3,1,5,4
04:55:00,5,8,6,3,2,0,1,5,4
04:56:00,4,4,4,7,4,2,3,5,4
04:57:00,4,5,9,4,8,1,0,6,4
04:58:00,5,6,4,5,4,1,2,5,4
04:59:00,5,7,10,6,4,4,2,6,5
05:00:00,6,3,4,2,7,3,0,4,4
05:01:00,4,4,2,4,9,2,0,5,4
05:02:00,3,7,8,6,8,0,2,6,5
05:03:00,5,10,7,7,3,3,3,6,5
05:04:00,7,2,6,6,7,9,0,6,5
05:05:00,5,6,3,5,4,3,3,5,4
05:06:00,3,8,13,4,4,6,1,6,6
05:07:00,6,8,1,6,13,4,1,7,6
05:08:00,8,7,11,7,4,5,2,7,6
05:09:00,8,9,5,5,8,3,2,7,6
05:10:00,6,5,17,11,5,5,2,9,7
05:11:00,9,5,0,14,8,4,0,7,6
05:12:00,4,12,14,5,9,5,1,9,7
05:13:00,5,14,8,8,3,9,0,8,7
05:14:00,7,6,6,7,8,5,5,7,6
05:15:00,3,9,7,5,8,2,3,6,5
05:16:00,9,6,16,7,5,3,4,9,7
05:17:00,11,9,7,8,8,3,0,9,7
05:18:00,2,6,9,4,2,2,1,5,4
05:19:00,7,7,3,3,8,6,4,6,5
05:20:00,8,8,20,11,8,7,2,11,9
05:21:00,12,9,3,3,8,2,2,7,6
05:22:00,6,5,13,10,5,9,1,8,7
05:23:00,8,8,1,4,4,5,1,5,4
05:24:00,5,12,3,9,8,4,3,7,6
05:25:00,7,9,14,7,8,5,3,9,8
05:26:00,5,5,4,3,3,4,2,4,4
05:27:00,10,4,7,9,4,7,3,7,6
05:28:00,6,11,3,4,8,4,4,6,6
05:29:00,8,9,6,5,8,6,4,7,7
05:30:00,9,8,20,8,9,2,1,11,8
05:31:00,9,3,2,11,7,4,5,6,6
05:32:00,9,11,10,11,10,4,3,10,8
05:33:00,8,11,7,10,12,4,2,10,8
05:34:00,11,14,4,7,5,4,2,8,7
05:35:00,5,12,11,9,9,6,4,9,8
05:36:00,12,15,20,5,9,4,4,12,10
05:37:00,8,7,7,11,10,1,2,9,7
05:38:00,10,7,5,12,12,7,1,9,8
05:39:00,9,10,20,11,3,3,2,11,8
05:40:00,9,5,12,9,8,1,4,9,7
05:41:00,12,10,14,7,11,4,1,11,8
05:42:00,10,11,0,11,7,3,2,8,6
05:43:00,12,11,13,5,9,3,3,10,8
05:44:00,9,9,12,12,5,7,6,9,9
05:45:00,14,12,13,10,10,4,4,12,10
05:46:00,9,18,9,13,11,1,0,12,9
05:47:00,8,9,10,10,14,4,5,10,9
05:48:00,15,6,10,15,9,9,1,11,9
05:49:00,11,7,6,9,12,2,5,9,7
05:50:00,13,8,13,11,6,5,4,10,9
05:51:00,4,15,10,7,8,5,4,9,8
05:52:00,11,11,6,5,14,8,4,9,8
05:53:00,10,7,15,15,10,3,3,11,9
05:54:00,9,14,6,5,8,6,2,8,7
05:55:00,7,7,10,16,4,4,2,9,7
05:56:00,8,8,14,10,7,5,1,9,8
05:57:00,10,11,13,5,13,1,0,10,8
05:58:00,16,12,6,13,13,3,3,12,9
05:59:00,13,11,8,5,9,2,3,9,7
06:00:00,7,12,10,9,8,1,1,9,7
06:01:00,10,6,15,12,12,4,6,11,9
06:02:00,11,8,11,17,14,4,3,12,10
06:03:00,15,12,3,10,11,4,4,10,8
06:04:00,13,9,9,8,10,2,2,10,8
06:05:00,11,8,15,11,9,2,1,11,8
06:06:00,15,12,10,7,4,6,6,10,9
06:07:00,9,13,12,9,12,6,0,11,9
06:08:00,5,7,11,5,11,4,2,8,6
06:09:00,11,12,12,20,13,9,1,14,11
06:10:00,15,15,6,1,11,8,3,10,8
06:11:00,6,9,8,15,7,3,2,9,7
06:12:00,15,11,15,12,9,6,2,12,10
06:13:00,9,10,15,13,20,2,3,13,10
06:14:00,8,16,13,17,11,5,5,13,11
06:15:00,14,9,5,11,9,4,2,10,8
06:16:00,13,12,12,16,12,13,3,13,12
06:17:00,18,14,11,12,7,6,2,12,10
06:18:00,10,13,10,15,12,7,3,12,10
06:19:00,10,10,18,8,18,7,2,13,10
06:20:00,19,13,11,14,18,1,2,15,11
06:21:00,13,16,17,10,7,2,1,13,9
06:22:00,9,15,12,11,16,5,3,13,10
06:23:00,13,14,11,18,11,4,1,13,10
06:24:00,12,11,10,13,20,6,5,13,11
06:25:00,9,15,9,21,18,3,0,14,11
06:26:00,15,29,17,14,16,5,3,18,14
06:27:00,20,11,23,21,10,6,3,17,13
06:28:00,18,20,14,16,16,3,1,17,13
06:29:00,12,7,12,9,15,6,1,11,9
06:30:00,17,22,13,15,14,2,1,16,12
06:31:00,14,14,17,16,15,4,0,15,11
06:32:00,17,13,22,24,11,9,6,17,15
06:33:00,24,17,11,15,14,4,1,16,12
06:34:00,19,16,19,19,13,4,5,17,14
06:35:00,7,20,9,15,18,4,3,14,11
06:36:00,29,14,15,21,11,6,4,18,14
06:37:00,16,11,22,15,15,9,5,16,13
06:38:00,20,32,26,21,14,1,4,23,17
06:39:00,20,20,26,15,29,8,4,22,17
06:40:00,24,18,14,21,18,6,7,19,15
06:41:00,14,34,14,17,20,11,4,20,16
06:42:00,17,24,18,20,22,6,4,20,16
06:43:00,27,24,23,24,21,6,5,24,19
06:44:00,17,13,13,18,18,4,7,16,13
06:45:00,17,21,22,18,26,8,5,21,17
06:46:00,11,20,26,27,21,7,2,21,16
06:47:00,18,37,19,20,20,6,3,23,18
06:48:00,24,19,17,10,12,12,4,16,14
06:49:00,17,21,14,14,22,8,4,18,14
06:50:00,23,12,10,12,16,3,3,15,11
06:51:00,14,18,19,22,14,12,6,17,15
06:52:00,18,26,22,26,18,5,9,22,18
06:53:00,20,22,20,13,17,10,6,18,15
06:54:00,19,25,17,31,22,3,3,23,17
06:55:00,21,21,22,10,14,14,2,18,15
06:56:00,24,22,22,20,14,7,5,20,16
06:57:00,18,24,20,32,23,5,6,23,18
06:58:00,22,16,23,21,20,5,9,20,17
06:59:00,13,16,20,23,24,4,2,19,15
07:00:00,34,24,28,25,19,6,4,26,20
07:01:00,27,32,24,22,23,6,2,26,19
07:02:00,22,19,22,16,18,5,6,19,15
07:03:00,15,13,29,20,24,6,4,20,16
07:04:00,24,16,16,23,22,5,3,20,16
07:05:00,25,16,21,19,6,6,5,17,14
07:06:00,20,15,21,30,34,7,8,24,19
07:07:00,20,25,12,28,32,4,2,23,18
07:08:00,31,23,27,20,19,10,2,24,19
07:09:00,18,23,22,23,26,6,2,22,17
07:10:00,16,18,26,14,17,9,5,18,15
07:11:00,32,19,25,19,19,5,3,23,17
07:12:00,25,28,30,22,29,8,7,27,21
07:13:00,20,28,18,18,29,6,4,23,18
07:14:00,23,25,26,37,19,9,3,26,20
07:15:00,22,15,18,29,27,6,11,22,18
07:16:00,33,24,22,22,21,7,2,24,19
07:17:00,25,18,30,16,21,3,8,22,17
07:18:00,21,19,29,36,27,8,4,26,21
07:19:00,24,27,20,13,16,0,7,20,15
07:20:00,31,23,33,29,30,14,4,29,23
07:21:00,28,19,26,24,15,10,6,22,18
07:22:00,31,22,21,12,35,4,2,24,18
07:23:00,22,19,26,29,35,10,7,26,21
07:24:00,26,28,23,29,15,9,4,24,19
07:25:00,29,27,24,19,23,7,3,24,19
07:26:00,16,18,17,28,29,3,10,22,17
07:27:00,30,21,26,16,20,9,3,23,18
07:28:00,25,24,20,33,31,11,6,27,21
07:29:00,16,24,28,25,23,14,5,23,19
07:30:00,34,21,24,17,17,10,7,23,19
07:31:00,27,19,18,29,25,9,1,24,18
07:32:00,19,21,37,28,26,14,5,26,21
07:33:00,25,13,16,20,22,11,7,19,16
07:34:00,23,14,27,33,25,5,9,24,19
07:35:00,20,23,24,21,29,6,3,23,18
07:36:00,27,24,16,28,22,11,5,23,19
07:37:00,17,25,36,29,32,13,9,28,23
07:38:00,28,19,19,12,32,9,5,22,18
07:39:00,27,25,30,25,15,9,12,24,20
07:40:00,20,23,24,20,28,8,9,23,19
07:41:00,24,24,21,29,30,8,4,26,20
07:42:00,16,16,26,13,16,12,3,17,15
07:43:00,32,26,20,25,20,7,5,25,19
07:44:00,17,20,25,30,25,5,4,23,18
07:45:00,33,20,22,11,24,8,4,22,17
07:46:00,13,29,26,29,24,10,2,24,19
07:47:00,32,14,20,16,27,10,10,22,18
07:48:00,14,25,24,20,17,12,7,20,17
07:49:00,28,9,23,16,36,12,5,22,18
07:50:00,24,20,19,26,17,5,0,21,16
07:51:00,16,14,23,20,30,12,6,21,17
07:52:00,19,21,15,21,15,9,7,18,15
07:53:00,17,17,22,23,29,16,8,22,19
07:54:00,26,21,12,14,21,10,6,19,16
07:55:00,22,21,21,27,29,8,5,24,19
07:56:00,17,20,14,11,18,10,13,16,15
07:57:00,23,16,23,22,17,13,3,20,17
07:58:00,19,15,20,9,29,11,11,18,16
07:59:00,29,28,23,26,19,7,9,25,20
08:00:00,17,12,21,20,24,20,9,19,18
08:01:00,28,24,14,22,20,9,7,22,18
08:02:00,14,18,27,22,25,13,2,21,17
08:03:00,28,23,19,12,21,9,6,21,17
08:04:00,16,10,14,26,23,10,8,18,15
08:05:00,30,23,9,16,22,12,7,20,17
08:06:00,15,17,18,33,22,11,4,21,17
08:07:00,17,9,15,11,24,13,5,15,13
08:08:00,14,19,21,25,18,10,7,19,16
08:09:00,10,16,20,18,26,20,14,18,18
08:10:00,27,26,21,28,18,11,9,24,20
08:11:00,16,22,26,19,14,13,8,19,17
08:12:00,24,16,18,20,26,15,7,21,18
08:13:00,16,10,22,18,33,12,10,20,17
08:14:00,21,24,14,18,21,14,12,20,18
08:15:00,22,15,24,26,28,8,3,23,18
08:16:00,18,27,16,17,12,7,9,18,15
08:17:00,30,11,16,30,26,16,8,23,20
08:18:00,21,20,17,13,8,19,1,16,14
08:19:00,23,15,12,27,24,10,8,20,17
08:20:00,23,7,28,22,9,12,4,18,15
08:21:00,19,26,7,34,23,16,8,22,19
08:22:00,22,7,27,14,20,13,2,18,15
08:23:00,21,17,16,29,30,13,4,23,19
08:24:00,25,13,21,15,31,11,10,21,18
08:25:00,16,11,19,30,15,21,11,18,18
08:26:00,29,20,11,6,27,9,14,19,17
08:27:00,13,17,23,30,12,12,3,19,16
08:28:00,27,25,12,8,26,15,7,20,17
08:29:00,9,14,26,27,23,16,12,20,18
08:30:00,29,21,17,16,24,11,6,21,18
08:31:00,20,17,26,27,16,20,9,21,19
08:32:00,28,23,16,17,32,16,9,23,20
08:33:00,17,16,29,17,13,16,9,18,17
08:34:00,22,9,25,23,24,16,7,21,18
08:35:00,14,8,23,23,22,16,6,18,16
08:36:00,21,19,24,27,14,6,4,21,16
08:37:00,29,22,17,21,24,16,8,23,20
08:38:00,15,18,26,17,10,18,6,17,16
08:39:00,23,14,21,14,26,18,6,20,17
08:40:00,21,15,27,30,20,17,12,23,20
08:41:00,25,15,9,16,24,9,10,18,15
08:42:00,14,14,27,18,19,14,10,18,17
08:43:00,26,15,17,33,22,19,7,23,20
08:44:00,23,15,30,14,27,21,5,22,19
08:45:00,15,20,11,17,11,27,7,15,15
08:46:00,27,12,25,18,26,13,9,22,19
08:47:00,18,21,18,19,18,17,7,19,17
08:48:00,22,25,15,34,31,13,7,25,21
08:49:00,23,20,18,16,17,17,4,19,16
08:50:00,19,19,26,28,24,15,6,23,20
08:51:00,26,23,28,23,19,7,14,24,20
08:52:00,14,19,17,18,21,21,7,18,17
08:53:00,22,26,23,18,19,19,5,22,19
08:54:00,11,18,16,20,13,13,13,16,15
08:55:00,23,29,19,25,21,17,4,23,20
08:56:00,26,18,12,22,11,18,4,18,16
08:57:00,17,23,20,14,20,16,3,19,16
08:58:00,19,16,21,16,18,10,14,18,16
08:59:00,13,17,25,27,32,17,18,23,21
09:00:00,31,8,32,14,20,16,6,21,18
09:01:00,16,15,16,35,17,15,6,20,17
09:02:00,25,28,30,15,20,19,8,24,21
09:03:00,28,28,16,30,14,18,6,23,20
09:04:00,29,21,15,20,25,15,8,22,19
09:05:00,21,7,27,12,18,15,9,17,16
09:06:00,18,12,20,20,19,18,9,18,17
09:07:00,18,13,15,23,9,21,6,16,15
09:08:00,17,1,20,20,23,18,3,16,15
09:09:00,26,5,21,16,31,15,13,20,18
09:10:00,13,14,20,37,15,23,12,20,19
09:11:00,28,12,22,17,19,12,9,20,17
09:12:00,15,23,16,32,11,14,16,19,18
09:13:00,27,16,26,17,22,24,7,22,20
09:14:00,11,25,11,21,14,11,7,16,14
09:15:00,30,17,24,20,24,21,12,23,21
09:16:00,17,25,11,14,28,18,9,19,17
09:17:00,24,19,27,26,11,17,13,21,20
09:18:00,18,20,20,19,29,18,17,21,20
09:19:00,24,13,17,25,13,19,4,18,16
09:20:00,26,25,22,23,25,10,18,24,21
09:21:00,19,25,11,24,12,32,8,18,19
09:22:00,31,20,24,14,29,19,14,24,22
09:23:00,6,14,11,27,28,25,9,17,17
09:24:00,26,12,21,18,15,19,10,18,17
09:25:00,25,19,20,31,22,14,16,23,21
09:26:00,18,16,26,22,19,23,10,20,19
09:27:00,8,17,27,22,18,21,9,18,17
09:28:00,20,12,15,26,15,16,17,18,17
09:29:00,17,16,23,13,13,12,11,16,15
09:30:00,30,20,22,32,36,33,16,28,27
09:31:00,15,31,25,22,11,27,18,21,21
09:32:00,36,21,23,13,27,14,13,24,21
09:33:00,26,20,16,22,22,26,19,21,22
09:34:00,25,8,24,15,22,10,9,19,16
09:35:00,22,9,16,27,23,28,13,19,20
09:36:00,17,11,29,6,21,27,17,17,18
09:37:00,23,23,14,41,18,26,15,24,23
09:38:00,17,31,27,20,28,17,15,25,22
09:39:00,18,15,19,27,17,19,10,19,18
09:40:00,25,32,26,21,21,26,22,25,25
09:41:00,27,25,27,30,27,26,17,27,26
09:42:00,24,25,12,20,20,28,16,20,21
09:43:00,29,14,26,22,15,23,13,21,20
09:44:00,16,19,17,10,30,11,8,18,16
09:45:00,18,17,23,23,19,31,23,20,22
09:46:00,29,28,25,27,19,19,14,26,23
09:47:00,21,23,11,26,19,23,16,20,20
09:48:00,17,16,24,20,23,28,17,20,21
09:49:00,11,17,20,11,29,30,19,18,20
09:50:00,26,12,23,18,25,17,22,21,20
09:51:00,24,16,16,22,19,25,20,19,20
09:52:00,21,23,13,25,21,14,21,21,20
09:53:00,27,23,27,24,16,25,17,23,23
09:54:00,8,15,16,16,30,25,19,17,18
09:55:00,12,18,14,27,13,17,13,17,16
09:56:00,23,31,20,13,33,19,11,24,21
09:57:00,19,19,14,24,12,16,16,18,17
09:58:00,33,24,27,23,23,26,16,26,25
09:59:00,11,22,33,18,13,19,12,19,18
10:00:00,33,26,12,10,24,31,16,21,22
10:01:00,23,26,28,18,30,22,18,25,24
10:02:00,19,24,19,22,8,15,11,18,17
10:03:00,29,14,25,11,34,31,23,23,24
10:04:00,23,23,17,19,10,20,13,18,18
10:05:00,14,17,25,12,24,24,16,18,19
10:06:00,26,22,14,30,26,23,15,24,22
10:07:00,23,17,13,27,20,12,17,20,18
10:08:00,12,22,22,16,25,19,15,19,19
10:09:00,22,28,17,15,27,21,19,22,21
10:10:00,30,15,19,16,13,28,20,19,20
10:11:00,7,28,20,23,22,31,11,20,20
10:12:00,32,19,25,17,17,19,25,22,22
10:13:00,24,17,29,21,25,18,9,23,20
10:14:00,25,17,22,18,18,11,21,20,19
10:15:00,19,27,11,27,29,18,14,23,21
10:16:00,28,23,18,12,15,22,24,19,20
10:17:00,18,22,22,7,16,22,13,17,17
10:18:00,16,30,27,30,23,26,18,25,24
10:19:00,19,17,16,14,21,25,30,17,20
10:20:00,34,18,15,12,15,16,18,19,18
10:21:00,9,15,21,26,18,20,28,18,20
10:22:00,20,23,16,18,26,22,18,21,20
10:23:00,21,23,27,21,11,19,16,21,20
10:24:00,20,25,28,18,25,17,30,23,23
10:25:00,20,31,22,24,26,26,17,25,24
10:26:00,20,14,18,20,15,20,24,17,19
10:27:00,29,24,17,16,18,23,16,21,20
10:28:00,14,19,31,20,19,22,21,21,21
10:29:00,27,17,26,17,21,21,14,22,20
10:30:00,19,24,12,31,29,18,17,23,21
10:31:00,19,25,18,30,27,29,22,24,24
10:32:00,21,21,29,9,21,15,17,20,19
10:33:00,17,25,29,22,34,19,26,25,25
10:34:00,22,22,24,21,15,26,17,21,21
10:35:00,26,17,21,21,23,17,17,22,20
10:36:00,26,10,20,16,22,22,22,19,20
10:37:00,13,28,21,17,22,27,16,20,21
10:38:00,22,15,21,17,20,19,26,19,20
10:39:00,27,27,17,26,28,20,22,25,24
10:40:00,21,22,21,15,23,18,19,20,20
10:41:00,18,21,31,23,28,29,25,24,25
10:42:00,22,25,15,18,31,15,21,22,21
10:43:00,21,25,23,13,19,28,20,20,21
10:44:00,17,13,34,26,23,16,19,23,21
10:45:00,30,21,23,25,23,25,17,24,23
10:46:00,28,26,25,17,20,24,23,23,23
10:47:00,25,19,29,14,28,20,22,23,22
10:48:00,11,24,18,15,19,27,18,17,19
10:49:00,21,14,30,22,21,20,18,22,21
10:50:00,26,28,22,10,22,11,16,22,19
10:51:00,11,19,21,23,19,28,22,19,20
10:52:00,17,18,24,25,15,14,20,20,19
10:53:00,21,12,16,30,28,34,23,21,23
10:54:00,15,26,32,11,27,29,22,22,23
10:55:00,25,11,23,27,22,18,17,22,20
10:56:00,13,24,21,10,17,25,26,17,19
10:57:00,25,17,22,28,25,12,25,23,22
10:58:00,16,25,16,19,18,29,25,19,21
10:59:00,22,27,31,20,18,23,25,24,24
11:00:00,19,16,17,16,32,27,19,20,21
11:01:00,29,23,15,28,19,22,32,23,24
11:02:00,25,13,15,16,26,28,9,19,19
11:03:00,6,26,13,19,14,18,25,16,17
11:04:00,24,12,20,25,30,23,16,22,21
11:05:00,22,19,25,13,21,14,34,20,21
11:06:00,22,24,8,30,22,22,22,21,21
11:07:00,14,12,21,26,25,23,21,20,20
11:08:00,31,30,13,13,17,30,20,21,22
11:09:00,13,20,18,27,16,28,28,19,21
11:10:00,17,25,21,29,22,15,16,23,21
11:11:00,28,14,20,21,19,29,31,20,23
11:12:00,11,24,10,12,18,20,27,15,17
11:13:00,24,22,17,34,25,33,24,24,26
11:14:00,18,23,17,21,15,21,21,19,19
11:15:00,18,18,16,21,19,28,15,18,19
11:16:00,25,19,22,17,34,20,28,23,24
11:17:00,14,25,20,19,24,20,28,20,21
11:18:00,29,21,27,23,22,29,25,24,25
11:19:00,23,19,13,28,29,28,27,22,24
11:20:00,12,18,26,23,15,22,19,19,19
11:21:00,28,28,18,16,13,30,25,21,23
11:22:00,22,18,12,27,19,20,30,20,21
11:23:00,21,28,21,23,28,22,26,24,24
11:24:00,21,24,19,13,12,24,19,18,19
11:25:00,15,14,22,26,22,17,17,20,19
11:26:00,12,27,30,22,16,24,24,21,22
11:27:00,23,14,19,25,30,10,15,22,19
11:28:00,15,23,14,19,30,29,28,20,23
11:29:00,27,26,24,13,26,22,33,23,24
11:30:00,27,16,25,29,16,23,24,23,23
11:31:00,23,28,12,20,30,20,22,23,22
11:32:00,29,23,23,25,28,22,19,26,24
11:33:00,31,21,18,28,22,25,30,24,25
11:34:00,32,16,21,12,25,20,24,21,21
11:35:00,19,26,15,22,21,29,23,21,22
11:36:00,23,16,18,17,11,27,21,17,19
11:37:00,15,20,26,35,17,30,27,23,24
11:38:00,16,24,26,30,27,17,22,25,23
11:39:00,29,11,17,18,23,26,24,20,21
11:40:00,24,30,14,25,15,26,20,22,22
11:41:00,6,34,34,21,26,13,21,24,22
11:42:00,33,19,30,24,14,22,20,24,23
11:43:00,27,25,18,12,38,13,22,24,22
11:44:00,15,16,31,25,29,28,23,23,24
11:45:00,22,16,19,10,19,15,21,17,17
11:46:00,27,17,17,23,35,34,26,24,26
11:47:00,18,17,26,31,26,18,20,24,22
11:48:00,18,14,16,15,19,21,28,16,19
11:49:00,24,24,21,25,19,26,21,23,23
11:50:00,14,16,29,15,16,24,22,18,19
11:51:00,24,23,25,27,36,33,25,27,28
11:52:00,25,29,20,31,18,21,22,25,24
11:53:00,23,21,27,19,31,32,16,24,24
11:54:00,17,19,22,7,27,17,21,18,19
11:55:00,24,24,9,24,24,18,19,21,20
11:56:00,21,20,27,20,29,20,22,23,23
11:57:00,12,24,13,12,16,25,27,15,18
11:58:00,23,28,16,30,26,31,29,25,26
11:59:00,24,20,25,31,30,16,22,26,24
12:00:00,27,18,25,11,20,26,24,20,22
12:01:00,21,23,26,19,26,17,22,23,22
12:02:00,19,12,22,24,26,24,24,21,22
12:03:00,24,34,27,23,19,24,21,25,25
12:04:00,20,20,16,21,19,14,26,19,19
12:05:00,22,15,20,15,24,36,18,19,21
12:06:00,25,17,21,21,22,15,22,21,20
12:07:00,16,23,18,14,17,26,23,18,20
12:08:00,34,16,18,18,21,26,29,21,23
12:09:00,21,11,26,33,24,26,24,23,24
12:10:00,14,9,16,4,26,14,19,14,15
12:11:00,18,23,18,31,21,21,29,22,23
12:12:00,22,21,21,29,28,29,21,24,24
12:13:00,22,24,30,13,19,20,25,22,22
12:14:00,16,23,15,29,23,32,17,21,22
12:15:00,26,25,20,24,12,26,27,21,23
12:16:00,26,20,24,18,23,13,21,22,21
12:17:00,19,20,18,19,20,28,23,19,21
12:18:00,28,23,29,12,18,16,33,22,23
12:19:00,15,24,20,23,20,19,15,20,19
12:20:00,26,20,19,20,26,13,23,22,21
12:21:00,18,13,23,19,26,32,28,20,23
12:22:00,22,24,18,31,18,22,19,23,22
12:23:00,22,14,18,16,30,30,33,20,23
12:24:00,21,24,34,23,22,15,25,25,23
12:25:00,25,19,23,23,26,21,27,23,23
12:26:00,20,18,7,19,23,18,24,17,18
12:27:00,24,25,33,14,24,32,21,24,25
12:28:00,32,21,21,30,19,15,24,25,23
12:29:00,25,9,24,27,22,31,26,21,23
12:30:00,23,32,23,12,23,7,16,23,19
12:31:00,18,14,22,28,24,23,25,21,22
12:32:00,17,24,14,22,20,23,26,19,21
12:33:00,15,22,19,14,19,26,18,18,19
12:34:00,25,15,22,23,26,27,21,22,23
12:35:00,18,28,17,24,19,23,24,21,22
12:36:00,19,21,26,16,27,27,23,22,23
12:37:00,27,30,20,24,27,26,23,26,25
12:38:00,19,24,21,20,21,36,33,21,25
12:39:00,25,13,31,15,17,21,22,20,21
12:40:00,27,15,24,20,28,28,22,23,23
12:41:00,19,18,13,31,28,13,27,22,21
12:42:00,29,22,31,25,17,34,17,25,25
12:43:00,23,21,20,22,27,26,21,23,23
12:44:00,14,15,16,27,14,31,25,17,20
12:45:00,15,25,22,9,31,20,23,20,21
12:46:00,18,21,20,30,13,25,24,20,22
12:47:00,14,30,18,23,35,30,18,24,24
12:48:00,17,25,13,22,10,18,22,17,18
12:49:00,19,17,32,21,21,29,28,22,24
12:50:00,30,24,14,27,20,21,22,23,23
12:51:00,23,22,23,23,21,32,33,22,25
12:52:00,27,20,31,25,29,26,13,26,24
12:53:00,21,19,31,29,22,14,27,24,23
12:54:00,22,10,23,25,23,36,28,21,24
12:55:00,23,29,24,17,22,22,22,23,23
12:56:00,22,33,20,19,30,24,22,25,24
12:57:00,24,14,11,29,17,15,25,19,19
12:58:00,21,30,26,20,16,26,14,23,22
12:59:00,19,17,28,15,27,25,26,21,22
13:00:00,20,29,17,27,15,22,18,22,21
13:01:00,20,14,26,23,27,30,31,22,24
13:02:00,33,21,25,12,24,20,27,23,23
13:03:00,18,25,19,32,21,31,27,23,25
13:04:00,12,30,25,17,17,24,23,20,21
13:05:00,22,21,27,22,11,18,18,21,20
13:06:00,19,22,21,31,28,32,21,24,25
13:07:00,21,17,21,11,29,24,26,20,21
13:08:00,31,17,21,22,12,14,21,21,20
13:09:00,22,29,21,27,29,18,27,26,25
13:10:00,18,19,26,17,22,25,22,20,21
13:11:00,22,19,31,18,18,31,24,22,23
13:12:00,20,12,21,20,24,26,14,19,20
13:13:00,21,22,26,27,23,24,29,24,25
13:14:00,18,26,23,30,30,19,26,25,25
13:15:00,14,28,21,22,16,25,28,20,22
13:16:00,25,21,22,9,23,30,20,20,21
13:17:00,21,22,21,32,33,22,18,26,24
13:18:00,15,27,25,23,20,23,29,22,23
13:19:00,29,22,28,24,23,12,20,25,23
13:20:00,24,25,19,21,24,26,24,23,23
13:21:00,18,32,21,19,19,17,18,22,21
13:22:00,33,21,22,30,18,21,28,25,25
13:23:00,25,19,14,23,28,22,13,22,21
13:24:00,14,20,26,22,20,20,26,20,21
13:25:00,28,22,26,18,21,28,24,23,24
13:26:00,27,13,33,29,30,24,20,26,25
13:27:00,18,30,22,13,15,15,26,20,20
13:28:00,20,19,23,29,19,12,15,22,20
13:29:00,16,17,25,21,25,21,25,21,21
13:30:00,25,28,19,14,26,20,26,22,23
13:31:00,21,19,27,15,18,30,27,20,22
13:32:00,13,22,21,29,18,23,23,21,21
13:33:00,25,27,30,18,23,18,20,25,23
13:34:00,24,13,25,15,24,24,24,20,21
13:35:00,11,22,12,26,14,24,11,17,17
13:36:00,29,16,20,23,25,16,34,23,23
13:37:00,27,28,24,28,34,22,23,28,27
13:38:00,26,14,20,19,18,19,20,19,19
13:39:00,31,31,37,20,23,17,24,28,26
13:40:00,15,21,18,23,21,23,16,20,20
13:41:00,22,21,25,37,28,22,31,27,27
13:42:00,13,27,23,21,22,22,13,21,20
13:43:00,8,17,25,21,22,17,32,19,20
13:44:00,26,19,22,15,32,13,20,23,21
13:45:00,22,34,27,36,19,28,22,28,27
13:46:00,15,26,15,28,22,33,26,21,24
13:47:00,39,22,23,24,20,15,19,26,23
13:48:00,9,20,24,20,26,29,30,20,23
13:49:00,23,22,17,24,16,19,19,20,20
13:50:00,28,17,21,16,25,28,20,21,22
13:51:00,29,25,16,26,24,24,31,24,25
13:52:00,10,22,19,30,8,20,19,18,18
13:53:00,22,24,20,21,26,20,26,23,23
13:54:00,24,24,23,21,29,17,20,24,23
13:55:00,17,20,23,19,27,17,18,21,20
13:56:00,18,28,31,25,20,22,23,24,24
13:57:00,20,20,23,11,27,15,17,20,19
13:58:00,21,18,25,25,17,24,25,21,22
13:59:00,25,7,23,19,24,27,20,20,21
14:00:00,23,29,17,13,16,21,33,20,22
14:01:00,14,28,31,29,18,25,26,24,24
14:02:00,20,21,29,19,27,18,20,23,22
14:03:00,31,17,20,15,20,20,17,21,20
14:04:00,24,24,16,18,17,29,27,20,22
14:05:00,15,25,31,24,28,14,20,25,22
14:06:00,32,35,19,16,18,19,32,24,24
14:07:00,27,17,23,25,25,19,21,23,22
14:08:00,23,14,29,25,27,28,14,24,23
14:09:00,24,26,26,22,21,20,25,24,23
14:10:00,15,26,10,20,35,22,23,21,22
14:11:00,27,20,27,25,17,17,14,23,21
14:12:00,30,26,19,19,27,24,21,24,24
14:13:00,21,27,23,17,17,22,15,21,20
14:14:00,17,19,28,29,26,16,31,24,24
14:15:00,21,13,23,20,15,29,15,18,19
14:16:00,20,34,17,28,26,25,23,25,25
14:17:00,25,17,37,27,31,34,19,27,27
14:18:00,30,25,25,25,12,7,23,23,21
14:19:00,19,21,20,20,21,20,24,20,21
14:20:00,22,22,23,19,34,21,18,24,23
14:21:00,25,23,23,31,21,16,31,25,24
14:22:00,15,23,15,15,27,27,21,19,20
14:23:00,8,27,31,25,17,17,30,22,22
14:24:00,34,16,20,18,28,15,29,23,23
14:25:00,22,28,24,26,17,17,11,23,21
14:26:00,16,21,23,26,22,31,29,22,24
14:27:00,17,19,22,24,23,17,15,21,20
14:28:00,30,24,19,17,19,31,25,22,24
14:29:00,22,14,20,21,19,14,23,19,19
14:30:00,22,23,23,24,20,28,24,22,23
14:31:00,28,18,10,24,29,22,25,22,22
14:32:00,24,26,26,17,19,24,18,22,22
14:33:00,27,29,14,27,26,13,27,25,23
14:34:00,17,24,28,9,20,28,24,20,21
14:35:00,18,29,22,38,22,11,20,26,23
14:36:00,28,19,18,24,15,26,19,21,21
14:37:00,17,34,21,24,23,21,30,24,24
14:38:00,24,11,20,26,20,22,24,20,21
14:39:00,24,29,32,17,18,23,26,24,24
14:40:00,26,27,15,36,25,21,18,26,24
14:41:00,23,12,27,19,22,27,32,21,23
14:42:00,20,24,24,22,24,14,15,23,20
14:43:00,21,25,24,26,27,25,19,25,24
14:44:00,15,11,27,26,13,20,13,18,18
14:45:00,28,19,24,27,30,23,18,26,24
14:46:00,21,20,20,21,24,25,27,21,23
14:47:00,17,22,17,19,23,25,16,20,20
14:48:00,27,26,30,32,17,18,23,26,25
14:49:00,32,18,14,20,34,33,18,24,24
14:50:00,26,24,26,12,21,20,33,22,23
14:51:00,21,27,15,23,15,26,23,20,21
14:52:00,27,13,32,13,19,23,18,21,21
14:53:00,12,21,24,30,21,26,18,22,22
14:54:00,33,30,16,15,18,16,14,22,20
14:55:00,17,15,27,16,22,23,32,19,22
14:56:00,28,28,20,22,25,28,21,25,25
14:57:00,18,22,24,14,23,16,23,20,20
14:58:00,19,20,17,24,20,25,27,20,22
14:59:00,21,14,27,18,26,32,22,21,23
15:00:00,12,23,24,20,16,13,20,19,18
15:01:00,14,23,26,18,30,32,15,22,23
15:02:00,20,27,25,20,25,22,31,23,24
15:03:00,18,9,15,24,22,26,25,18,20
15:04:00,29,21,23,18,16,11,22,21,20
15:05:00,15,23,16,18,29,20,22,20,20
15:06:00,26,22,19,18,12,17,23,19,20
15:07:00,18,15,17,22,31,25,24,21,22
15:08:00,24,28,20,26,13,28,18,22,22
15:09:00,20,17,23,16,22,32,25,20,22
15:10:00,29,26,25,17,18,19,29,23,23
15:11:00,30,14,19,32,27,14,20,24,22
15:12:00,25,30,24,23,17,14,19,24,22
15:13:00,12,16,22,18,16,29,27,17,20
15:14:00,21,19,25,29,7,18,15,20,19
15:15:00,14,27,22,17,38,21,36,24,25
15:16:00,23,22,23,32,24,24,15,25,23
15:17:00,21,20,24,27,28,23,24,24,24
15:18:00,20,12,31,22,17,18,18,20,20
15:19:00,26,15,22,21,32,12,21,23,21
15:20:00,18,22,11,22,17,28,20,18,20
15:21:00,23,31,22,20,26,16,18,24,22
15:22:00,20,18,15,21,17,30,38,18,23
15:23:00,24,19,21,20,17,17,16,20,19
15:24:00,22,20,19,15,18,19,12,19,18
15:25:00,12,20,15,18,23,28,27,18,20
15:26:00,14,30,28,22,17,32,17,22,23
15:27:00,31,21,17,36,16,16,24,24,23
15:28:00,15,16,22,15,19,29,31,17,21
15:29:00,29,18,20,26,28,26,11,24,23
15:30:00,11,19,15,16,10,18,26,14,16
15:31:00,16,24,17,21,23,17,17,20,19
15:32:00,17,15,19,17,16,17,25,17,18
15:33:00,23,20,25,30,28,17,28,25,24
15:34:00,8,23,20,14,14,18,14,16,16
15:35:00,26,26,24,20,25,22,33,24,25
15:36:00,25,16,19,15,13,28,20,18,19
15:37:00,25,25,15,30,21,28,22,23,24
15:38:00,30,34,20,18,16,20,22,24,23
15:39:00,13,21,24,27,19,24,8,21,19
15:40:00,20,33,15,26,20,20,25,23,23
15:41:00,14,14,17,20,15,13,20,16,16
15:42:00,25,19,17,18,25,23,18,21,21
15:43:00,20,9,33,25,13,28,13,20,20
15:44:00,30,22,10,14,27,24,33,21,23
15:45:00,23,23,29,21,16,26,17,22,22
15:46:00,19,34,15,24,33,22,27,25,25
15:47:00,20,25,27,18,15,26,17,21,21
15:48:00,24,31,11,28,23,14,26,23,22
15:49:00,20,24,27,18,12,23,23,20,21
15:50:00,11,32,10,30,18,21,16,20,20
15:51:00,15,16,26,18,15,23,21,18,19
15:52:00,25,21,21,24,31,23,16,24,23
15:53:00,29,25,32,15,14,24,30,23,24
15:54:00,18,19,17,27,25,21,29,21,22
15:55:00,30,24,31,11,13,22,27,22,23
15:56:00,20,22,15,25,19,19,19,20,20
15:57:00,20,24,27,14,25,20,23,22,22
15:58:00,23,24,12,22,34,21,17,23,22
15:59:00,13,26,30,22,23,19,24,23,22
16:00:00,27,24,20,32,24,26,12,25,24
16:01:00,14,9,11,15,24,30,31,15,19
16:02:00,37,23,23,25,24,21,28,26,26
16:03:00,21,13,18,11,20,32,23,17,20
16:04:00,23,21,26,31,20,17,25,24,23
16:05:00,26,20,14,14,27,29,23,20,22
16:06:00,28,25,18,33,9,21,22,23,22
16:07:00,24,24,25,9,26,25,9,22,20
16:08:00,25,30,21,36,31,11,29,29,26
16:09:00,23,19,19,17,27,31,25,21,23
16:10:00,28,29,30,16,20,27,19,25,24
16:11:00,17,29,8,10,19,22,16,17,17
16:12:00,19,15,19,25,10,14,13,18,16
16:13:00,22,30,11,18,27,22,13,22,20
16:14:00,27,13,36,21,15,15,29,22,22
16:15:00,14,32,22,17,23,26,26,22,23
16:16:00,26,26,25,27,10,34,24,23,25
16:17:00,20,27,27,27,25,19,14,25,23
16:18:00,26,20,23,22,20,26,16,22,22
16:19:00,26,30,22,27,28,25,26,27,26
16:20:00,14,12,27,22,35,18,18,22,21
16:21:00,27,37,23,32,16,12,24,27,24
16:22:00,11,19,19,16,30,23,24,19,20
16:23:00,31,24,25,27,15,20,8,24,21
16:24:00,17,30,16,21,34,19,26,24,23
16:25:00,31,13,29,22,7,36,22,20,23
16:26:00,21,29,14,19,33,25,18,23,23
16:27:00,25,14,34,19,21,22,20,23,22
16:28:00,19,31,12,26,33,36,20,24,25
16:29:00,31,13,23,19,13,14,21,20,19
16:30:00,17,28,14,25,26,22,15,22,21
16:31:00,25,9,23,26,11,25,20,19,20
16:32:00,17,28,26,16,21,18,19,22,21
16:33:00,27,19,12,26,17,23,16,20,20
16:34:00,16,31,34,24,18,17,16,25,22
16:35:00,34,16,20,26,12,31,23,22,23
16:36:00,13,29,16,10,22,16,14,18,17
16:37:00,31,13,22,26,22,22,27,23,23
16:38:00,26,35,20,22,12,22,19,23,22
16:39:00,35,17,20,29,24,23,17,25,24
16:40:00,10,30,30,17,14,14,17,20,19
16:41:00,25,23,27,29,26,12,16,26,23
16:42:00,12,18,14,17,14,26,35,15,19
16:43:00,32,24,31,17,30,20,12,27,24
16:44:00,15,24,20,28,21,22,20,22,21
16:45:00,24,19,19,21,22,29,17,21,22
16:46:00,28,18,20,21,27,20,11,23,21
16:47:00,6,30,24,22,13,21,23,19,20
16:48:00,25,17,20,25,18,16,14,21,19
16:49:00,26,25,19,18,21,30,13,22,22
16:50:00,32,19,25,27,16,18,20,24,22
16:51:00,20,28,19,30,16,34,19,23,24
16:52:00,25,17,12,26,19,15,13,20,18
16:53:00,21,31,18,12,16,13,15,20,18
16:54:00,30,22,11,17,10,27,19,18,19
16:55:00,16,22,14,12,12,13,18,15,15
16:56:00,10,18,15,31,23,31,23,19,22
16:57:00,34,32,33,22,13,20,19,27,25
16:58:00,20,14,20,25,20,33,18,20,21
16:59:00,19,18,25,14,4,18,13,16,16
17:00:00,14,23,24,30,23,15,16,23,21
17:01:00,27,25,9,22,21,23,22,21,21
17:02:00,22,22,25,24,18,14,15,22,20
17:03:00,33,16,12,20,7,30,20,18,20
17:04:00,19,25,12,12,22,23,12,18,18
17:05:00,16,19,17,16,13,29,23,16,19
17:06:00,21,27,27,18,21,20,12,23,21
17:07:00,24,18,10,15,9,24,10,15,16
17:08:00,25,19,26,20,26,28,11,23,22
17:09:00,23,23,9,15,9,19,23,16,17
17:10:00,21,21,20,22,21,22,16,21,20
17:11:00,25,21,18,18,15,28,21,19,21
17:12:00,17,15,19,26,31,24,15,22,21
17:13:00,22,16,17,22,13,33,19,18,20
17:14:00,24,22,16,25,30,21,26,23,23
17:15:00,24,29,22,8,17,22,27,20,21
17:16:00,20,16,18,25,21,28,22,20,21
17:17:00,20,25,22,17,7,18,19,18,18
17:18:00,26,14,18,19,20,25,26,19,21
17:19:00,19,18,22,5,5,18,16,14,15
17:20:00,27,10,26,23,22,20,14,22,20
17:21:00,13,26,25,3,9,19,27,15,17
17:22:00,28,10,21,29,17,9,30,21,21
17:23:00,24,24,15,12,14,23,19,18,19
17:24:00,19,12,23,25,17,23,9,19,18
17:25:00,11,22,16,15,17,28,24,16,19
17:26:00,31,18,26,24,21,21,22,24,23
17:27:00,15,22,24,14,15,20,20,18,19
17:28:00,9,12,27,20,15,29,17,17,18
17:29:00,24,21,19,24,15,22,23,21,21
17:30:00,13,13,40,21,11,28,21,20,21
17:31:00,22,31,19,27,25,15,15,25,22
17:32:00,20,13,22,27,18,18,21,20,20
17:33:00,24,25,16,18,24,19,27,21,22
17:34:00,6,22,21,26,14,21,12,18,17
17:35:00,29,16,20,21,29,19,19,23,22
17:36:00,14,17,24,21,8,21,16,17,17
17:37:00,26,14,10,19,21,20,17,18,18
17:38:00,19,30,12,19,5,21,23,17,18
17:39:00,19,18,23,21,13,21,19,19,19
17:40:00,21,22,14,20,19,22,24,19,20
17:41:00,18,21,24,16,29,17,11,22,19
17:42:00,25,16,16,29,15,31,21,20,22
17:43:00,19,32,22,23,17,15,12,23,20
17:44:00,33,12,14,19,15,15,10,19,17
17:45:00,9,29,26,27,11,21,16,20,20
17:46:00,27,13,15,15,21,17,14,18,17
17:47:00,21,19,27,28,16,17,12,22,20
17:48:00,23,22,16,16,25,18,13,20,19
17:49:00,27,15,27,22,23,15,18,23,21
17:50:00,16,27,13,7,29,18,14,18,18
17:51:00,23,16,31,25,16,16,12,22,20
17:52:00,19,22,13,17,18,19,14,18,17
17:53:00,13,25,20,29,23,21,11,22,20
17:54:00,23,18,20,17,14,25,14,18,19
17:55:00,25,23,21,27,30,25,21,25,25
17:56:00,22,22,19,16,11,24,15,18,18
17:57:00,29,28,26,32,26,24,8,28,25
17:58:00,21,18,21,11,13,24,9,17,17
17:59:00,23,25,26,22,25,18,10,24,21
18:00:00,21,16,22,20,15,28,12,19,19
18:01:00,10,33,13,20,20,17,20,19,19
18:02:00,26,22,21,21,12,12,20,20,19
18:03:00,22,14,19,23,21,27,8,20,19
18:04:00,16,27,28,23,25,20,13,24,22
18:05:00,23,23,13,18,14,16,17,18,18
18:06:00,34,25,12,16,32,24,15,24,23
18:07:00,17,21,22,22,12,16,13,19,18
18:08:00,16,20,8,20,13,25,11,15,16
18:09:00,20,14,18,12,27,24,15,18,19
18:10:00,25,24,17,26,22,18,13,23,21
18:11:00,14,18,13,21,16,20,15,16,17
18:12:00,32,20,24,18,22,27,16,23,23
18:13:00,22,25,25,27,27,20,22,25,24
18:14:00,18,25,21,24,16,26,21,21,22
18:15:00,20,19,24,17,23,19,14,21,19
18:16:00,25,29,24,16,19,23,17,23,22
18:17:00,23,16,22,22,19,16,9,20,18
18:18:00,27,28,22,18,21,19,10,23,21
18:19:00,19,24,32,23,30,13,14,26,22
18:20:00,19,15,22,21,17,21,17,19,19
18:21:00,32,24,21,22,18,19,7,23,20
18:22:00,8,20,29,20,22,27,12,20,20
18:23:00,33,20,14,17,25,16,10,22,19
18:24:00,17,17,17,22,20,19,12,19,18
18:25:00,27,19,24,21,12,18,19,21,20
18:26:00,16,22,17,16,25,18,12,19,18
18:27:00,16,23,15,10,21,15,19,17,17
18:28:00,24,21,19,27,19,15,17,22,20
18:29:00,18,23,17,12,19,19,12,18,17
18:30:00,20,3,9,24,23,18,16,16,16
18:31:00,23,20,21,24,14,13,8,20,18
18:32:00,12,23,13,16,27,20,13,18,18
18:33:00,28,21,22,21,18,25,10,22,21
18:34:00,13,17,18,16,17,22,13,16,17
18:35:00,20,24,23,31,26,19,7,25,21
18:36:00,21,25,22,21,21,16,8,22,19
18:37:00,25,18,19,26,18,19,14,21,20
18:38:00,23,19,14,21,33,21,11,22,20
18:39:00,11,22,23,21,22,19,13,20,19
18:40:00,26,20,21,21,27,20,12,23,21
18:41:00,21,27,15,14,22,9,13,20,17
18:42:00,14,21,20,10,20,21,9,17,16
18:43:00,16,27,22,23,9,14,16,19,18
18:44:00,24,17,20,23,29,18,16,23,21
18:45:00,22,23,25,9,25,13,11,21,18
18:46:00,16,16,12,30,19,17,10,19,17
18:47:00,23,26,33,24,26,24,8,26,23
18:48:00,23,18,12,21,23,16,7,19,17
18:49:00,22,22,28,10,17,17,16,20,19
18:50:00,12,29,20,14,13,21,10,18,17
18:51:00,21,19,23,26,23,21,7,22,20
18:52:00,18,24,18,20,24,18,11,21,19
18:53:00,11,23,17,15,16,19,11,16,16
18:54:00,28,22,24,5,17,17,9,19,17
18:55:00,17,22,22,24,23,10,8,22,18
18:56:00,20,16,18,22,16,22,14,18,18
18:57:00,24,18,11,19,24,18,11,19,18
18:58:00,18,16,24,22,21,14,7,20,17
18:59:00,16,10,24,27,21,22,11,20,19
19:00:00,16,12,16,12,26,22,14,16,17
19:01:00,14,18,20,17,16,17,8,17,16
19:02:00,23,22,18,13,20,23,15,19,19
19:03:00,12,16,18,22,16,14,7,17,15
19:04:00,12,22,17,21,21,13,11,19,17
19:05:00,12,9,13,28,22,17,5,17,15
19:06:00,24,24,20,21,21,10,15,22,19
19:07:00,10,19,14,9,27,25,14,16,17
19:08:00,13,16,21,18,13,14,15,16,16
19:09:00,23,19,20,19,28,9,10,22,18
19:10:00,14,25,18,19,17,13,11,19,17
19:11:00,24,14,22,18,10,17,7,18,16
19:12:00,13,21,12,20,18,15,13,17,16
19:13:00,25,19,23,23,23,13,12,23,20
19:14:00,14,17,25,19,16,19,15,18,18
19:15:00,18,15,12,19,9,27,14,15,16
19:16:00,16,18,18,25,19,19,11,19,18
19:17:00,21,19,19,12,21,29,14,18,19
19:18:00,26,21,15,24,22,16,8,22,19
19:19:00,15,19,14,22,11,15,12,16,15
19:20:00,23,26,15,17,24,9,16,21,19
19:21:00,20,19,28,20,29,14,11,23,20
19:22:00,13,30,24,22,21,12,11,22,19
19:23:00,18,21,16,14,20,14,1,18,15
19:24:00,21,26,20,20,18,14,11,21,19
19:25:00,15,16,15,22,22,18,6,18,16
19:26:00,24,13,20,19,19,14,11,19,17
19:27:00,11,20,13,10,15,14,13,14,14
19:28:00,8,28,19,28,16,17,12,20,18
19:29:00,12,24,13,8,17,16,15,15,15
19:30:00,20,16,17,20,23,15,15,19,18
19:31:00,13,18,20,18,11,12,5,16,14
19:32:00,10,12,23,13,22,23,16,16,17
19:33:00,15,17,13,9,18,17,12,14,14
19:34:00,13,18,18,16,20,15,6,17,15
19:35:00,9,15,11,15,20,18,8,14,14
19:36:00,16,19,14,12,19,20,9,16,16
19:37:00,10,18,18,3,13,19,7,12,13
19:38:00,11,20,26,19,20,19,7,19,17
19:39:00,11,17,18,20,12,15,12,16,15
19:40:00,4,22,10,18,19,16,11,15,14
19:41:00,29,24,16,10,17,10,11,19,17
19:42:00,26,15,17,19,20,18,7,19,17
19:43:00,6,15,18,14,18,8,17,14,14
19:44:00,15,17,17,8,18,20,10,15,15
19:45:00,13,19,10,22,20,17,10,17,16
19:46:00,15,15,15,20,17,16,9,16,15
19:47:00,13,18,14,12,19,17,16,15,16
19:48:00,10,22,14,26,8,18,10,16,15
19:49:00,13,20,16,17,9,15,10,15,14
19:50:00,18,16,19,16,17,11,14,17,16
19:51:00,13,16,16,8,7,10,12,12,12
19:52:00,11,14,13,12,11,10,11,12,12
19:53:00,16,17,10,14,19,10,7,15,13
19:54:00,18,13,11,12,10,14,11,13,13
19:55:00,16,11,18,17,19,11,12,16,15
19:56:00,24,16,16,17,17,8,7,18,15
19:57:00,8,19,18,7,9,5,13,12,11
19:58:00,11,5,19,14,13,15,9,12,12
19:59:00,18,15,19,12,15,13,15,16,15
20:00:00,16,14,11,15,12,16,9,14,13
20:01:00,11,15,6,8,8,13,10,10,10
20:02:00,4,11,21,20,13,10,6,14,12
20:03:00,16,14,15,17,19,12,7,16,14
20:04:00,11,14,12,7,9,9,14,11,11
20:05:00,8,18,17,10,15,7,13,14,13
20:06:00,10,12,15,10,12,16,5,12,11
20:07:00,13,22,10,19,10,10,9,15,13
20:08:00,18,10,12,18,11,12,3,14,12
20:09:00,13,19,13,15,15,11,5,15,13
20:10:00,8,9,17,15,13,7,13,12,12
20:11:00,13,13,9,15,13,6,5,13,11
20:12:00,13,15,11,10,12,9,13,12,12
20:13:00,12,7,17,10,8,12,9,11,11
20:14:00,12,19,11,19,18,14,9,16,15
20:15:00,12,13,12,11,16,6,10,13,11
20:16:00,17,12,12,18,16,10,8,15,13
20:17:00,21,15,13,14,14,9,14,15,14
20:18:00,17,9,17,15,14,10,8,14,13
20:19:00,9,14,8,11,13,13,5,11,10
20:20:00,16,6,21,13,14,6,8,14,12
20:21:00,11,10,8,10,12,11,13,10,11
20:22:00,9,19,8,14,18,5,7,14,11
20:23:00,19,4,17,7,11,13,5,12,11
20:24:00,17,17,9,11,13,8,6,13,12
20:25:00,12,18,13,6,13,15,10,12,12
20:26:00,13,15,15,14,11,8,11,14,12
20:27:00,10,3,11,10,12,7,7,9,9
20:28:00,12,16,14,4,19,9,7,13,12
20:29:00,9,15,10,13,11,8,10,12,11
20:30:00,11,5,17,16,15,8,6,13,11
20:31:00,3,22,10,14,12,8,8,12,11
20:32:00,10,5,9,11,14,14,7,10,10
20:33:00,10,12,4,17,8,10,10,10,10
20:34:00,18,19,9,13,11,9,10,14,13
20:35:00,14,10,10,10,15,10,10,12,11
20:36:00,11,14,6,19,5,17,5,11,11
20:37:00,10,20,16,7,20,9,1,15,12
20:38:00,15,6,8,13,6,5,9,10,9
20:39:00,8,21,5,8,6,12,13,10,10
20:40:00,3,7,8,10,8,10,4,7,7
20:41:00,10,17,11,15,12,12,9,13,12
20:42:00,11,10,12,8,13,9,9,11,10
20:43:00,9,1,14,11,9,9,8,9,9
20:44:00,11,16,14,6,10,13,6,11,11
20:45:00,8,8,7,8,8,11,5,8,8
20:46:00,12,7,7,11,9,4,4,9,8
20:47:00,10,8,9,13,14,14,10,11,11
20:48:00,13,8,6,8,12,9,4,9,9
20:49:00,12,13,9,6,14,8,16,11,11
20:50:00,8,5,5,5,11,8,10,7,7
20:51:00,8,13,14,7,6,8,4,10,9
20:52:00,3,11,13,14,9,5,9,10,9
20:53:00,12,11,10,13,17,8,1,13,10
20:54:00,11,16,4,8,8,7,16,9,10
20:55:00,4,5,5,11,8,11,5,7,7
20:56:00,6,11,11,13,12,11,6,11,10
20:57:00,6,5,9,7,5,9,7,6,7
20:58:00,9,7,7,11,7,4,8,8,8
20:59:00,11,7,7,12,12,14,9,10,10
21:00:00,10,20,14,10,10,13,10,13,12
21:01:00,10,3,9,7,3,5,7,6,6
21:02:00,19,7,11,12,12,4,10,12,11
21:03:00,4,7,18,10,4,11,5,9,8
21:04:00,10,3,4,7,11,13,1,7,7
21:05:00,11,11,11,16,8,11,7,11,11
21:06:00,11,16,8,5,17,11,4,11,10
21:07:00,11,5,6,11,9,8,2,8,7
21:08:00,5,4,5,12,8,5,11,7,7
21:09:00,6,10,9,9,8,11,1,8,8
21:10:00,7,20,9,11,11,8,8,12,11
21:11:00,6,9,8,14,11,7,9,10,9
21:12:00,10,16,7,5,12,3,2,10,8
21:13:00,5,5,12,13,15,6,11,10,10
21:14:00,7,9,8,8,10,6,5,8,8
21:15:00,7,14,18,12,13,9,10,13,12
21:16:00,13,12,10,10,14,6,4,12,10
21:17:00,14,15,7,19,6,8,4,12,10
21:18:00,3,15,7,11,10,6,3,9,8
21:19:00,6,4,13,12,6,5,9,8,8
21:20:00,16,19,8,13,11,9,10,13,12
21:21:00,9,3,13,8,4,11,8,7,8
21:22:00,8,13,7,14,3,2,2,9,7
21:23:00,12,12,12,16,11,5,8,13,11
21:24:00,7,5,4,9,8,13,6,7,7
21:25:00,5,15,9,7,13,6,3,10,8
21:26:00,10,7,10,7,12,6,8,9,9
21:27:00,2,9,12,5,8,9,8,7,8
21:28:00,8,12,7,7,11,9,4,9,8
21:29:00,11,11,17,11,6,12,10,11,11
21:30:00,8,11,9,13,6,9,5,9,9
21:31:00,5,3,9,9,7,6,11,7,7
21:32:00,6,8,5,11,8,7,6,8,7
21:33:00,4,3,12,9,8,12,6,7,8
21:34:00,13,19,9,7,9,8,5,11,10
21:35:00,6,4,9,15,5,13,2,8,8
21:36:00,7,8,12,4,10,6,4,8,7
21:37:00,9,5,2,10,19,12,9,9,9
21:38:00,8,14,8,15,7,8,3,10,9
21:39:00,3,15,7,6,8,5,3,8,7
21:40:00,6,10,8,7,14,4,7,9,8
21:41:00,5,10,9,8,12,4,10,9,8
21:42:00,7,11,9,16,6,4,5,10,8
21:43:00,9,16,9,9,13,1,5,11,9
21:44:00,8,7,11,11,7,13,7,9,9
21:45:00,9,12,6,10,4,5,6,8,7
21:46:00,6,3,12,12,7,6,5,8,7
21:47:00,1,12,5,6,8,5,4,6,6
21:48:00,4,9,8,15,7,7,8,9,8
21:49:00,7,12,4,4,8,11,0,7,7
21:50:00,5,16,6,15,6,6,10,10,9
21:51:00,6,11,11,16,14,7,2,12,10
21:52:00,9,9,9,5,8,8,9,8,8
21:53:00,7,11,11,4,6,10,3,8,7
21:54:00,9,7,3,9,8,12,16,7,9
21:55:00,6,8,9,6,7,2,6,7,6
21:56:00,5,7,7,10,11,13,4,8,8
21:57:00,6,9,12,7,4,6,5,8,7
21:58:00,9,3,9,10,4,8,5,7,7
21:59:00,6,12,11,11,6,10,10,9,9
22:00:00,8,5,17,7,9,8,2,9,8
22:01:00,5,9,5,3,12,6,5,7,6
22:02:00,4,5,8,4,10,11,4,6,7
22:03:00,12,9,5,17,17,10,4,12,11
22:04:00,4,17,9,8,3,6,5,8,7
22:05:00,12,4,14,5,9,8,2,9,8
22:06:00,4,13,6,3,11,7,4,7,7
22:07:00,7,6,13,5,6,4,9,7,7
22:08:00,9,8,7,6,8,9,2,8,7
22:09:00,6,4,13,9,10,7,7,8,8
22:10:00,10,10,3,13,8,12,6,9,9
22:11:00,1,8,7,9,2,5,7,5,6
22:12:00,7,4,10,7,6,8,4,7,7
22:13:00,12,17,12,2,15,5,5,12,10
22:14:00,7,4,15,5,11,12,3,8,8
22:15:00,4,5,14,8,6,8,5,7,7
22:16:00,10,6,8,12,15,12,8,10,10
22:17:00,7,8,5,9,6,12,9,7,8
22:18:00,6,11,12,11,9,8,0,10,8
22:19:00,12,5,11,7,6,8,4,8,8
22:20:00,8,7,8,2,8,8,11,7,7
22:21:00,2,6,8,8,16,12,3,8,8
22:22:00,10,7,13,10,11,5,0,10,8
22:23:00,4,17,8,6,10,5,7,9,8
22:24:00,4,6,3,7,12,13,4,6,7
22:25:00,5,12,10,4,7,14,7,8,8
22:26:00,5,5,2,9,14,7,3,7,6
22:27:00,9,11,11,7,14,10,2,10,9
22:28:00,4,11,6,9,11,5,4,8,7
22:29:00,8,5,1,6,9,10,6,6,6
22:30:00,9,9,6,6,13,8,4,9,8
22:31:00,10,3,4,7,3,17,1,5,6
22:32:00,6,13,10,3,9,9,7,8,8
22:33:00,3,6,3,10,2,10,4,5,5
22:34:00,9,10,4,6,16,6,6,9,8
22:35:00,7,1,10,9,8,18,6,7,8
22:36:00,2,11,7,4,6,8,3,6,6
22:37:00,8,6,3,4,8,5,3,6,5
22:38:00,8,10,9,8,10,14,4,9,9
22:39:00,8,8,5,8,5,6,6,7,7
22:40:00,5,5,4,1,4,14,2,4,5
22:41:00,2,6,6,0,15,9,2,6,6
22:42:00,1,2,8,5,6,12,4,4,5
22:43:00,5,7,3,7,9,13,2,6,7
22:44:00,4,3,4,3,6,9,7,4,5
22:45:00,5,3,5,6,5,6,3,5,5
22:46:00,2,8,3,7,3,9,6,5,5
22:47:00,0,2,3,2,2,7,3,2,3
22:48:00,2,2,2,9,11,3,7,5,5
22:49:00,4,5,9,5,7,5,6,6,6
22:50:00,3,2,10,4,2,5,13,4,6
22:51:00,7,5,3,9,4,2,6,6,5
22:52:00,6,6,6,14,11,4,1,9,7
22:53:00,4,12,7,5,9,8,6,7,7
22:54:00,1,2,6,6,10,5,4,5,5
22:55:00,8,9,8,9,8,10,3,8,8
22:56:00,6,6,12,2,8,6,5,7,6
22:57:00,3,6,6,6,6,5,2,5,5
22:58:00,4,5,0,11,8,7,5,6,6
22:59:00,2,8,4,3,6,9,4,5,5
23:00:00,3,4,7,9,17,3,1,8,6
23:01:00,2,8,7,5,9,5,5,6,6
23:02:00,1,2,7,3,7,4,2,4,4
23:03:00,2,4,6,4,3,14,4,4,5
23:04:00,4,9,8,4,6,10,4,6,6
23:05:00,2,3,4,1,2,8,1,2,3
23:06:00,3,5,3,6,4,8,2,4,4
23:07:00,2,3,1,8,12,5,7,5,5
23:08:00,2,4,4,7,4,3,0,4,3
23:09:00,2,7,5,5,3,5,1,4,4
23:10:00,6,11,3,2,6,9,2,6,6
23:11:00,2,3,5,1,5,7,2,3,4
23:12:00,4,4,7,4,8,9,1,5,5
23:13:00,9,1,3,7,7,4,2,5,5
23:14:00,7,4,4,8,7,5,0,6,5
23:15:00,3,4,2,5,6,8,3,4,4
23:16:00,5,5,5,1,5,5,6,4,5
23:17:00,7,6,6,6,10,8,2,7,6
23:18:00,6,0,3,3,6,10,2,4,4
23:19:00,3,4,3,4,5,4,1,4,3
23:20:00,2,5,4,2,3,10,3,3,4
23:21:00,2,1,3,4,6,10,1,3,4
23:22:00,3,3,4,5,9,5,1,5,4
23:23:00,3,4,3,3,3,12,1,3,4
23:24:00,2,1,5,6,5,8,2,4,4
23:25:00,3,6,1,2,8,3,1,4,3
23:26:00,3,3,2,4,6,2,7,4,4
23:27:00,3,1,2,7,1,5,3,3,3
23:28:00,2,4,2,2,7,6,2,3,4
23:29:00,3,3,5,6,6,9,4,5,5
23:30:00,0,4,2,1,6,9,3,3,4
23:31:00,2,1,2,3,6,5,2,3,3
23:32:00,2,0,7,1,6,4,1,3,3
23:33:00,0,4,6,2,9,7,1,4,4
23:34:00,5,3,5,6,9,3,4,6,5
23:35:00,4,1,5,3,4,12,2,3,4
23:36:00,4,4,4,2,3,2,2,3,3
23:37:00,1,2,2,1,9,1,2,3,3
23:38:00,7,1,2,4,5,12,1,4,5
23:39:00,5,3,4,2,5,3,1,4,3
23:40:00,3,2,1,7,5,4,0,4,3
23:41:00,3,2,3,1,3,8,1,2,3
23:42:00,2,2,5,3,5,10,2,3,4
23:43:00,4,4,2,4,5,0,6,4,4
23:44:00,2,7,2,2,4,5,3,3,4
23:45:00,2,2,2,4,3,5,0,3,3
23:46:00,3,0,9,2,10,3,2,5,4
23:47:00,0,2,4,3,5,2,2,3,3
23:48:00,4,3,2,1,6,3,1,3,3
23:49:00,2,0,1,4,12,10,2,4,4
23:50:00,4,1,0,2,1,9,3,2,3
23:51:00,3,1,1,2,8,2,5,3,3
23:52:00,3,5,1,4,2,6,0,3,3
23:53:00,2,3,1,2,5,5,4,3,3
23:54:00,2,1,6,1,4,3,1,3,3
23:55:00,2,3,3,3,5,7,1,3,3
23:56:00,0,2,1,2,3,3,2,2,2
23:57:00,1,7,1,2,3,6,2,3,3
23:58:00,3,1,2,1,3,5,2,2,2
23:59:00,2,1,1,2,6,1,0,2,2
,,,,,,,,,
Totals,,,,,,,,,
12H(7-19),15524,14991,15245,15316,15370,14400,12525,15289,14767
16H(6-22),18516,18373,18384,18572,18573,16715,14243,18484,17625
18H(6-24),19044,18993,19029,19180,19430,17578,14651,19135,18272
24H(0-24),19956,19975,19984,20129,20367,18435,15489,20082,19191
,,,,,,,,,
AM Peak,07:00:00,06:38:00,06:52:00,06:56:00,07:06:00,10:53:00,10:53:00,06:56:00,10:00:00
,1419,1297,1396,1374,1443,1401,1394,1368,1257
,,,,,,,,,
PM Peak,15:55:00,15:45:00,12:49:00,13:41:00,13:36:00,12:21:00,12:04:00,13:36:00,12:27:00
,1378,1395,1398,1363,1362,1446,1415,1349,1353
,,,,,,,,,
,,,,,,,,,
CA Traffic,,,,,,,,,VDA-net R2 14/02/2020
