Site Number,00008025,Unnamed: 2,Site Reference,00008025.1,Unnamed: 5,Unnamed: 6,Lat/Lng.,"52.07114,1.16683",Unnamed: 9
Radar 8025 Valley Road Ipswich,,,,,,,,,
Vehicle Count Report,,,,Week Begin: 13 January 2020,,,Channel:,Total Flow,
,,,,,,,,,
,,,,,,,,,
,2020-01-13 00:00:00,2020-01-14 00:00:00,2020-01-15 00:00:00,2020-01-16 00:00:00,2020-01-17 00:00:00,2020-01-18 00:00:00,2020-01-19 00:00:00,"5-Day
Ave.","7-Day
Ave."
00:00:00,4,7,3,0,1,6,5,3,4
00:01:00,0,2,3,1,2,1,1,2,1
00:02:00,3,2,5,1,2,2,2,3,2
00:03:00,0,2,4,0,3,4,5,2,3
00:04:00,0,2,2,3,2,3,7,2,3
00:05:00,2,2,2,2,1,1,4,2,2
00:06:00,2,4,3,3,0,3,2,2,2
00:07:00,2,6,5,2,4,4,5,4,4
00:08:00,1,2,8,2,4,2,2,3,3
00:09:00,1,2,4,0,1,2,1,2,2
00:10:00,1,1,4,1,3,3,5,2,3
00:11:00,1,5,3,4,1,2,2,3,3
00:12:00,2,0,2,0,1,2,2,1,1
00:13:00,0,1,0,3,0,4,4,1,2
00:14:00,2,3,1,2,0,1,4,2,2
00:15:00,3,5,1,0,1,3,3,2,2
00:16:00,3,0,5,2,0,4,3,2,2
00:17:00,2,6,0,0,1,2,6,2,2
00:18:00,3,2,1,3,4,1,2,3,2
00:19:00,2,5,2,1,2,3,2,2,2
00:20:00,0,2,1,0,1,4,6,1,2
00:21:00,0,7,2,2,0,1,2,2,2
00:22:00,2,2,2,2,2,2,4,2,2
00:23:00,0,3,1,0,4,2,6,2,2
00:24:00,0,4,1,1,0,2,1,1,1
00:25:00,4,3,3,1,2,5,4,3,3
00:26:00,1,2,1,2,2,1,3,2,2
00:27:00,0,5,3,2,1,1,3,2,2
00:28:00,0,2,1,0,0,3,1,1,1
00:29:00,1,5,5,0,2,4,2,3,3
00:30:00,1,2,2,0,2,2,2,1,2
00:31:00,1,9,0,1,1,1,4,2,2
00:32:00,0,2,4,1,0,2,3,1,2
00:33:00,2,1,2,3,1,5,2,2,2
00:34:00,0,1,2,2,3,4,4,2,2
00:35:00,2,3,4,2,0,0,3,2,2
00:36:00,0,1,1,1,0,2,5,1,1
00:37:00,2,1,1,3,1,4,3,2,2
00:38:00,0,1,1,3,1,3,2,1,2
00:39:00,0,2,3,2,1,1,1,2,1
00:40:00,1,1,7,1,4,2,2,3,3
00:41:00,2,0,2,3,1,2,2,2,2
00:42:00,0,1,4,1,2,2,2,2,2
00:43:00,0,1,5,0,1,3,1,1,2
00:44:00,1,2,9,1,1,1,1,3,2
00:45:00,1,4,3,0,1,0,5,2,2
00:46:00,0,0,1,0,2,5,2,1,1
00:47:00,3,0,4,0,1,0,1,2,1
00:48:00,3,2,1,2,0,1,3,2,2
00:49:00,1,1,1,1,1,4,4,1,2
00:50:00,1,2,1,0,2,1,0,1,1
00:51:00,2,1,4,1,6,1,5,3,3
00:52:00,2,1,1,0,0,0,1,1,1
00:53:00,0,2,0,2,0,0,3,1,1
00:54:00,0,0,3,1,1,2,3,1,1
00:55:00,0,1,1,0,3,1,1,1,1
00:56:00,0,0,4,0,0,0,3,1,1
00:57:00,1,0,2,1,0,2,2,1,1
00:58:00,1,0,2,1,3,3,0,1,1
00:59:00,0,1,4,1,0,0,3,1,1
01:00:00,1,1,2,2,1,3,3,1,2
01:01:00,0,4,0,0,1,5,1,1,2
01:02:00,0,0,2,0,1,1,2,1,1
01:03:00,0,3,1,2,0,3,0,1,1
01:04:00,1,0,1,1,0,2,2,1,1
01:05:00,0,2,2,0,2,1,2,1,1
01:06:00,0,3,1,3,0,2,2,1,2
01:07:00,0,2,0,0,1,0,3,1,1
01:08:00,2,3,3,1,1,0,1,2,2
01:09:00,0,2,0,0,0,3,0,0,1
01:10:00,0,1,3,0,0,1,1,1,1
01:11:00,2,0,0,3,1,2,1,1,1
01:12:00,2,0,1,1,1,1,1,1,1
01:13:00,0,1,3,0,1,3,2,1,1
01:14:00,1,0,2,0,0,3,2,1,1
01:15:00,0,2,2,1,0,4,2,1,2
01:16:00,2,2,1,1,1,2,2,1,2
01:17:00,0,2,2,0,3,0,1,1,1
01:18:00,0,1,2,0,0,0,0,1,0
01:19:00,1,4,3,0,0,1,3,2,2
01:20:00,3,1,1,0,0,2,4,1,2
01:21:00,0,0,4,1,1,3,1,1,1
01:22:00,0,1,2,2,0,1,2,1,1
01:23:00,0,1,2,0,0,1,1,1,1
01:24:00,2,0,7,0,1,1,3,2,2
01:25:00,0,2,2,2,1,1,0,1,1
01:26:00,0,0,2,0,0,2,1,0,1
01:27:00,0,0,0,0,0,1,1,0,0
01:28:00,1,0,3,0,0,1,1,1,1
01:29:00,1,1,2,1,0,2,0,1,1
01:30:00,1,1,2,1,0,1,1,1,1
01:31:00,0,0,2,3,0,2,0,1,1
01:32:00,0,0,2,0,0,3,0,0,1
01:33:00,0,1,2,1,0,0,1,1,1
01:34:00,0,1,6,0,0,1,2,1,1
01:35:00,1,1,3,1,1,2,1,1,1
01:36:00,0,0,1,1,1,2,1,1,1
01:37:00,0,0,0,0,0,2,2,0,1
01:38:00,0,2,3,0,1,1,0,1,1
01:39:00,1,0,4,2,0,1,0,1,1
01:40:00,0,1,2,0,1,0,1,1,1
01:41:00,0,1,0,0,0,0,0,0,0
01:42:00,0,1,1,0,0,2,1,0,1
01:43:00,1,0,3,0,0,2,2,1,1
01:44:00,0,1,1,1,0,0,0,1,0
01:45:00,0,1,0,0,1,4,0,0,1
01:46:00,0,0,1,0,0,0,1,0,0
01:47:00,1,2,1,3,0,1,1,1,1
01:48:00,0,0,3,0,1,1,1,1,1
01:49:00,0,1,1,2,1,0,0,1,1
01:50:00,1,1,0,3,0,2,0,1,1
01:51:00,1,1,2,0,0,0,0,1,1
01:52:00,0,0,2,0,0,1,0,0,0
01:53:00,0,0,0,0,1,0,0,0,0
01:54:00,1,0,2,0,0,1,1,1,1
01:55:00,0,0,1,0,1,0,1,0,0
01:56:00,1,1,1,0,0,0,1,1,1
01:57:00,0,0,0,0,0,1,1,0,0
01:58:00,1,0,0,1,0,2,1,0,1
01:59:00,2,0,3,1,0,1,0,1,1
02:00:00,1,0,3,0,1,0,0,1,1
02:01:00,1,0,0,1,0,2,1,0,1
02:02:00,0,0,2,2,2,1,0,1,1
02:03:00,0,0,2,0,0,1,2,0,1
02:04:00,1,1,2,0,0,0,0,1,1
02:05:00,0,0,0,1,0,0,1,0,0
02:06:00,0,0,0,1,0,0,1,0,0
02:07:00,1,0,1,0,0,4,0,0,1
02:08:00,0,0,4,0,1,0,2,1,1
02:09:00,0,1,2,0,1,2,3,1,1
02:10:00,0,0,6,2,1,0,1,2,1
02:11:00,0,0,0,0,0,0,0,0,0
02:12:00,0,0,2,0,1,1,0,1,1
02:13:00,0,0,3,1,0,1,0,1,1
02:14:00,1,0,2,1,0,2,0,1,1
02:15:00,0,0,1,1,1,1,1,1,1
02:16:00,1,0,3,0,0,2,3,1,1
02:17:00,0,3,0,0,0,3,0,1,1
02:18:00,1,1,1,1,0,0,0,1,1
02:19:00,0,0,2,0,0,1,1,0,1
02:20:00,0,2,2,0,1,0,0,1,1
02:21:00,0,1,0,2,0,1,2,1,1
02:22:00,1,0,1,2,1,1,2,1,1
02:23:00,0,0,0,1,0,0,1,0,0
02:24:00,0,0,5,1,1,1,0,1,1
02:25:00,0,0,2,0,0,0,0,0,0
02:26:00,1,0,2,0,1,1,0,1,1
02:27:00,1,1,0,1,0,0,0,1,0
02:28:00,0,0,3,1,0,1,0,1,1
02:29:00,0,0,1,0,0,1,1,0,0
02:30:00,0,0,1,2,1,2,2,1,1
02:31:00,0,0,0,1,0,0,0,0,0
02:32:00,0,0,1,0,3,1,2,1,1
02:33:00,1,0,1,1,1,0,0,1,1
02:34:00,0,0,0,2,0,1,2,0,1
02:35:00,0,0,1,0,1,0,0,0,0
02:36:00,0,0,2,0,0,3,0,0,1
02:37:00,0,0,3,0,0,1,2,1,1
02:38:00,0,2,1,1,1,0,1,1,1
02:39:00,0,0,2,0,0,0,2,0,1
02:40:00,0,0,0,0,1,0,0,0,0
02:41:00,0,0,0,0,0,0,0,0,0
02:42:00,0,1,0,0,2,0,1,1,1
02:43:00,0,1,1,1,0,0,1,1,1
02:44:00,0,2,0,1,0,0,0,1,0
02:45:00,0,0,3,4,1,0,1,2,1
02:46:00,0,0,0,1,0,0,0,0,0
02:47:00,0,0,0,0,0,0,0,0,0
02:48:00,1,0,4,0,0,1,1,1,1
02:49:00,0,0,2,1,0,1,0,1,1
02:50:00,3,0,2,0,0,1,0,1,1
02:51:00,0,2,1,3,0,0,0,1,1
02:52:00,0,0,0,1,0,1,0,0,0
02:53:00,0,0,1,1,1,0,1,1,1
02:54:00,0,1,1,0,0,1,0,0,0
02:55:00,0,0,3,0,0,1,1,1,1
02:56:00,2,1,2,0,0,1,1,1,1
02:57:00,0,2,2,0,0,1,1,1,1
02:58:00,0,0,0,1,0,1,2,0,1
02:59:00,0,1,1,0,0,2,2,0,1
03:00:00,0,3,3,0,0,0,0,1,1
03:01:00,0,0,1,0,1,1,2,0,1
03:02:00,0,2,2,1,1,0,1,1,1
03:03:00,0,0,4,0,1,0,0,1,1
03:04:00,0,0,2,0,2,0,1,1,1
03:05:00,0,0,1,1,0,0,1,0,0
03:06:00,0,0,0,1,0,0,0,0,0
03:07:00,0,1,1,0,0,0,2,0,1
03:08:00,0,0,3,0,1,0,0,1,1
03:09:00,0,1,0,0,0,0,0,0,0
03:10:00,2,0,2,0,1,0,0,1,1
03:11:00,1,2,2,0,0,1,2,1,1
03:12:00,1,1,0,2,0,0,1,1,1
03:13:00,2,0,0,0,0,0,0,0,0
03:14:00,2,1,0,1,0,0,0,1,1
03:15:00,0,1,3,0,1,0,2,1,1
03:16:00,0,0,1,1,0,1,0,0,0
03:17:00,0,0,2,0,1,0,0,1,0
03:18:00,0,1,2,0,1,1,2,1,1
03:19:00,0,0,3,0,2,0,1,1,1
03:20:00,0,0,0,0,0,0,0,0,0
03:21:00,1,1,0,2,0,1,1,1,1
03:22:00,1,1,1,1,3,0,0,1,1
03:23:00,0,0,1,0,3,1,1,1,1
03:24:00,1,0,1,0,0,2,1,0,1
03:25:00,1,0,1,1,0,0,1,1,1
03:26:00,1,0,3,0,0,0,1,1,1
03:27:00,2,0,2,1,0,0,0,1,1
03:28:00,0,2,4,0,0,0,0,1,1
03:29:00,0,1,1,0,1,1,1,1,1
03:30:00,0,1,1,0,0,1,1,0,1
03:31:00,2,0,2,0,1,0,0,1,1
03:32:00,2,2,1,1,0,2,0,1,1
03:33:00,0,1,4,2,0,0,1,1,1
03:34:00,0,1,0,1,2,2,0,1,1
03:35:00,3,1,4,0,2,2,2,2,2
03:36:00,0,0,1,0,0,1,0,0,0
03:37:00,1,1,1,1,1,1,0,1,1
03:38:00,2,0,1,0,1,0,2,1,1
03:39:00,1,1,3,0,1,1,0,1,1
03:40:00,1,0,3,1,1,2,1,1,1
03:41:00,1,2,1,0,0,0,0,1,1
03:42:00,1,0,2,1,1,1,1,1,1
03:43:00,0,0,0,0,0,0,0,0,0
03:44:00,0,0,3,1,0,1,0,1,1
03:45:00,1,0,0,1,0,0,0,0,0
03:46:00,0,1,2,0,0,0,0,1,0
03:47:00,0,1,1,0,0,0,1,0,0
03:48:00,0,1,1,0,0,0,1,0,0
03:49:00,1,0,1,2,1,1,0,1,1
03:50:00,1,1,1,1,0,1,0,1,1
03:51:00,0,1,1,0,1,1,0,1,1
03:52:00,1,1,1,1,0,0,1,1,1
03:53:00,0,0,1,1,0,1,2,0,1
03:54:00,0,1,0,1,2,1,1,1,1
03:55:00,0,1,1,0,0,0,1,0,0
03:56:00,0,2,2,1,0,1,0,1,1
03:57:00,3,0,0,1,0,1,1,1,1
03:58:00,1,1,0,0,2,1,0,1,1
03:59:00,1,1,0,0,2,1,0,1,1
04:00:00,0,1,0,0,0,0,0,0,0
04:01:00,1,0,0,0,0,0,0,0,0
04:02:00,2,1,0,0,2,1,0,1,1
04:03:00,2,0,3,0,3,0,0,2,1
04:04:00,1,0,0,1,0,2,0,0,1
04:05:00,1,1,0,1,2,1,1,1,1
04:06:00,4,3,0,2,1,2,0,2,2
04:07:00,0,1,2,2,0,1,1,1,1
04:08:00,2,0,1,3,1,0,0,1,1
04:09:00,0,0,1,1,3,0,0,1,1
04:10:00,0,1,0,1,2,1,1,1,1
04:11:00,1,3,1,1,1,1,1,1,1
04:12:00,0,0,0,1,0,0,1,0,0
04:13:00,0,0,1,1,1,2,1,1,1
04:14:00,1,2,0,0,1,1,1,1,1
04:15:00,2,1,1,2,0,1,0,1,1
04:16:00,2,1,1,1,1,0,2,1,1
04:17:00,3,4,1,2,0,1,3,2,2
04:18:00,1,0,0,2,0,0,2,1,1
04:19:00,0,0,1,0,0,0,0,0,0
04:20:00,0,1,3,1,0,1,0,1,1
04:21:00,0,1,1,1,2,2,0,1,1
04:22:00,1,0,0,2,0,0,0,1,0
04:23:00,0,1,0,1,0,0,0,0,0
04:24:00,0,1,1,1,2,3,0,1,1
04:25:00,2,1,1,1,2,2,2,1,2
04:26:00,4,2,1,2,0,1,0,2,1
04:27:00,0,1,2,1,0,0,0,1,1
04:28:00,0,1,1,2,2,2,1,1,1
04:29:00,3,1,4,2,2,1,0,2,2
04:30:00,2,2,1,1,3,0,0,2,1
04:31:00,0,0,0,1,0,1,2,0,1
04:32:00,2,1,2,1,1,2,0,1,1
04:33:00,1,1,1,3,1,1,0,1,1
04:34:00,2,2,1,0,4,2,1,2,2
04:35:00,1,3,3,1,0,2,1,2,2
04:36:00,5,2,3,0,1,1,2,2,2
04:37:00,3,1,2,3,2,0,1,2,2
04:38:00,1,4,1,2,3,0,1,2,2
04:39:00,4,4,3,0,1,2,0,2,2
04:40:00,1,1,2,1,3,0,2,2,1
04:41:00,1,0,2,2,2,0,0,1,1
04:42:00,0,2,3,2,1,0,1,2,1
04:43:00,2,2,3,2,0,2,1,2,2
04:44:00,3,2,2,1,0,1,1,2,1
04:45:00,0,1,4,2,2,1,1,2,2
04:46:00,2,1,0,4,0,0,0,1,1
04:47:00,1,2,1,0,3,0,2,1,1
04:48:00,1,1,2,4,2,3,1,2,2
04:49:00,2,1,1,0,2,1,1,1,1
04:50:00,4,0,1,2,3,1,2,2,2
04:51:00,1,0,3,3,5,2,0,2,2
04:52:00,2,1,6,3,2,1,1,3,2
04:53:00,2,0,4,0,4,2,1,2,2
04:54:00,1,6,2,4,1,3,0,3,2
04:55:00,2,1,2,2,2,1,1,2,2
04:56:00,0,4,1,2,1,0,0,2,1
04:57:00,4,0,2,3,1,1,1,2,2
04:58:00,3,1,2,3,4,3,1,3,2
04:59:00,1,2,0,2,0,1,0,1,1
05:00:00,2,3,1,0,0,1,2,1,1
05:01:00,4,1,3,2,1,0,1,2,2
05:02:00,3,4,5,3,2,0,0,3,2
05:03:00,0,2,1,5,5,3,2,3,3
05:04:00,5,3,4,0,2,2,2,3,3
05:05:00,2,4,2,3,2,0,1,3,2
05:06:00,4,3,3,3,4,0,3,3,3
05:07:00,6,3,2,4,0,0,1,3,2
05:08:00,3,3,5,0,4,1,0,3,2
05:09:00,1,3,0,1,1,0,0,1,1
05:10:00,3,2,1,2,7,2,1,3,3
05:11:00,3,5,4,1,0,2,2,3,2
05:12:00,4,4,4,4,3,1,1,4,3
05:13:00,4,6,5,4,3,3,0,4,4
05:14:00,3,1,6,5,4,0,2,4,3
05:15:00,2,0,0,2,1,3,1,1,1
05:16:00,2,4,3,3,3,2,2,3,3
05:17:00,4,4,4,3,3,2,0,4,3
05:18:00,4,4,2,1,3,2,1,3,2
05:19:00,2,4,4,2,3,1,2,3,3
05:20:00,2,4,4,2,2,1,0,3,2
05:21:00,4,4,0,2,1,4,1,2,2
05:22:00,1,4,1,3,3,1,0,2,2
05:23:00,9,2,4,2,5,1,0,4,3
05:24:00,3,7,3,0,4,0,3,3,3
05:25:00,1,3,3,3,3,1,0,3,2
05:26:00,3,4,5,3,2,2,0,3,3
05:27:00,3,5,2,4,3,4,0,3,3
05:28:00,2,0,4,5,1,1,0,2,2
05:29:00,0,1,4,6,6,5,1,3,3
05:30:00,3,2,4,4,6,3,0,4,3
05:31:00,7,6,2,3,5,1,2,5,4
05:32:00,3,9,5,4,4,3,1,5,4
05:33:00,12,6,5,2,2,2,1,5,4
05:34:00,5,4,5,5,6,2,3,5,4
05:35:00,4,5,8,7,3,4,0,5,4
05:36:00,5,9,3,4,5,1,1,5,4
05:37:00,9,4,8,6,9,3,1,7,6
05:38:00,8,8,2,8,5,3,0,6,5
05:39:00,6,7,1,8,6,3,1,6,5
05:40:00,6,6,6,4,3,3,1,5,4
05:41:00,7,4,8,4,9,1,0,6,5
05:42:00,8,9,5,5,2,2,4,6,5
05:43:00,4,7,8,10,5,2,1,7,5
05:44:00,7,5,4,4,5,1,7,5,5
05:45:00,5,11,7,1,6,4,1,6,5
05:46:00,4,5,2,10,4,5,2,5,5
05:47:00,7,4,7,6,5,3,1,6,5
05:48:00,3,8,5,7,0,2,1,5,4
05:49:00,6,13,8,8,6,1,2,8,6
05:50:00,4,2,7,3,7,5,0,5,4
05:51:00,5,3,7,6,3,0,0,5,3
05:52:00,6,5,8,2,4,3,0,5,4
05:53:00,9,7,4,5,7,1,1,6,5
05:54:00,6,4,6,6,5,2,1,5,4
05:55:00,3,7,7,7,9,6,0,7,6
05:56:00,7,10,6,7,5,2,0,7,5
05:57:00,6,3,6,11,5,2,1,6,5
05:58:00,6,6,10,6,5,1,2,7,5
05:59:00,6,8,5,5,9,1,1,7,5
06:00:00,5,5,4,2,9,4,1,5,4
06:01:00,6,10,8,4,4,1,0,6,5
06:02:00,4,3,9,11,5,2,1,6,5
06:03:00,4,8,4,14,5,2,1,7,5
06:04:00,11,8,4,10,3,3,1,7,6
06:05:00,11,9,3,7,9,3,1,8,6
06:06:00,3,12,10,10,3,2,4,8,6
06:07:00,10,6,7,7,4,3,2,7,6
06:08:00,7,8,7,10,9,2,3,8,7
06:09:00,9,8,10,12,7,3,3,9,7
06:10:00,4,10,9,12,7,1,3,8,7
06:11:00,12,8,8,7,9,4,0,9,7
06:12:00,12,13,8,6,11,3,0,10,8
06:13:00,6,10,11,9,11,3,5,9,8
06:14:00,10,5,5,11,10,5,0,8,7
06:15:00,9,9,8,6,11,6,1,9,7
06:16:00,9,11,6,11,7,4,3,9,7
06:17:00,16,14,13,10,11,2,6,13,10
06:18:00,5,8,8,6,7,4,1,7,6
06:19:00,7,7,9,11,9,5,4,9,7
06:20:00,6,14,8,14,11,5,2,11,9
06:21:00,4,12,7,7,9,2,0,8,6
06:22:00,12,11,14,10,17,4,2,13,10
06:23:00,11,6,13,10,14,4,3,11,9
06:24:00,13,18,13,7,11,1,3,12,9
06:25:00,7,17,11,16,14,4,1,13,10
06:26:00,9,11,12,13,11,2,2,11,9
06:27:00,11,13,10,8,12,6,0,11,9
06:28:00,13,7,8,10,9,5,6,9,8
06:29:00,7,10,10,13,10,3,2,10,8
06:30:00,9,3,15,9,9,5,3,9,8
06:31:00,13,8,8,12,11,3,5,10,9
06:32:00,8,12,16,8,14,1,1,12,9
06:33:00,12,21,13,9,11,6,1,13,10
06:34:00,7,7,16,10,9,2,4,10,8
06:35:00,16,7,15,13,18,6,2,14,11
06:36:00,19,16,14,12,13,6,6,15,12
06:37:00,8,11,23,9,10,5,1,12,10
06:38:00,13,15,11,15,24,3,5,16,12
06:39:00,12,13,17,16,11,8,3,14,11
06:40:00,15,7,10,19,13,7,3,13,11
06:41:00,9,11,7,10,14,10,8,10,10
06:42:00,15,11,15,21,19,6,7,16,13
06:43:00,12,21,15,16,12,7,2,15,12
06:44:00,15,20,15,16,18,3,3,17,13
06:45:00,11,13,12,19,14,8,2,14,11
06:46:00,18,16,19,17,22,4,5,18,14
06:47:00,14,22,11,11,16,4,3,15,12
06:48:00,15,7,7,15,12,3,1,11,9
06:49:00,14,15,16,12,10,4,5,13,11
06:50:00,11,13,12,16,14,4,4,13,11
06:51:00,8,14,11,18,15,8,5,13,11
06:52:00,9,21,14,13,16,6,2,15,12
06:53:00,14,17,18,15,11,3,3,15,12
06:54:00,12,18,16,15,7,9,3,14,11
06:55:00,13,14,14,11,15,5,6,13,11
06:56:00,23,16,14,13,10,7,4,15,12
06:57:00,18,11,16,15,13,6,2,15,12
06:58:00,16,15,13,17,15,3,4,15,12
06:59:00,10,14,10,11,11,4,4,11,9
07:00:00,15,20,16,17,18,5,6,17,14
07:01:00,11,19,20,19,12,6,2,16,13
07:02:00,13,15,16,16,20,6,4,16,13
07:03:00,15,17,23,15,18,7,3,18,14
07:04:00,15,16,17,17,21,3,2,17,13
07:05:00,22,13,19,26,15,5,3,19,15
07:06:00,18,12,17,14,16,7,4,15,13
07:07:00,23,24,20,13,19,6,1,20,15
07:08:00,13,20,14,22,26,8,4,19,15
07:09:00,22,18,20,23,20,4,2,21,16
07:10:00,12,16,20,22,20,7,2,18,14
07:11:00,21,15,22,19,19,5,4,19,15
07:12:00,15,19,20,23,26,7,5,21,16
07:13:00,14,32,17,19,15,14,5,19,17
07:14:00,23,24,26,19,22,10,6,23,19
07:15:00,15,23,10,21,28,7,7,19,16
07:16:00,24,13,24,19,18,8,7,20,16
07:17:00,25,15,16,14,16,8,3,17,14
07:18:00,17,24,18,23,23,10,5,21,17
07:19:00,15,23,22,17,32,8,6,22,18
07:20:00,20,21,17,24,16,3,11,20,16
07:21:00,19,21,14,25,25,9,7,21,17
07:22:00,16,9,20,22,18,10,2,17,14
07:23:00,25,19,19,18,14,7,7,19,16
07:24:00,15,20,22,30,24,7,8,22,18
07:25:00,16,31,21,16,12,7,5,19,15
07:26:00,14,22,19,15,17,6,4,17,14
07:27:00,14,19,21,18,28,13,3,20,17
07:28:00,23,27,19,10,24,8,6,21,17
07:29:00,26,26,21,21,17,10,3,22,18
07:30:00,25,16,14,22,30,4,2,21,16
07:31:00,15,16,23,18,17,5,5,18,14
07:32:00,18,25,25,24,24,14,5,23,19
07:33:00,20,18,25,29,24,11,4,23,19
07:34:00,20,12,16,22,21,11,6,18,15
07:35:00,25,20,23,21,25,16,7,23,20
07:36:00,19,19,21,20,20,13,7,20,17
07:37:00,23,21,18,32,20,8,7,23,18
07:38:00,16,18,22,27,27,7,4,22,17
07:39:00,26,25,17,19,28,13,5,23,19
07:40:00,21,14,22,25,15,6,3,19,15
07:41:00,7,27,22,21,33,10,4,22,18
07:42:00,17,18,13,18,15,13,5,16,14
07:43:00,25,11,20,17,19,11,8,18,16
07:44:00,19,22,19,21,26,12,5,21,18
07:45:00,19,26,12,21,17,11,3,19,16
07:46:00,11,21,24,15,20,10,7,18,15
07:47:00,19,18,18,26,18,13,6,20,17
07:48:00,22,12,17,18,15,12,7,17,15
07:49:00,17,21,10,22,20,14,6,18,16
07:50:00,22,11,21,20,23,15,7,19,17
07:51:00,16,13,18,19,18,7,4,17,14
07:52:00,17,25,11,12,16,10,5,16,14
07:53:00,15,20,19,18,18,10,4,18,15
07:54:00,20,14,14,16,16,12,9,16,14
07:55:00,27,24,17,18,12,7,6,20,16
07:56:00,24,15,14,19,12,9,2,17,14
07:57:00,23,23,16,25,15,10,4,20,17
07:58:00,17,12,21,21,4,10,7,15,13
07:59:00,14,20,22,16,14,11,7,17,15
08:00:00,18,23,15,9,10,14,4,15,13
08:01:00,16,21,16,16,9,10,5,16,13
08:02:00,19,17,17,13,15,10,6,16,14
08:03:00,7,11,10,14,8,7,7,10,9
08:04:00,22,12,10,19,20,13,2,17,14
08:05:00,21,16,17,20,22,9,6,19,16
08:06:00,15,17,25,17,20,11,13,19,17
08:07:00,17,11,10,17,9,9,5,13,11
08:08:00,11,21,21,31,14,6,6,20,16
08:09:00,27,18,17,27,18,9,4,21,17
08:10:00,13,18,16,21,22,15,8,18,16
08:11:00,12,11,8,19,15,10,4,13,11
08:12:00,18,13,15,19,11,11,8,15,14
08:13:00,19,13,16,13,16,16,5,15,14
08:14:00,18,32,22,14,10,9,6,19,16
08:15:00,17,20,14,6,14,21,8,14,14
08:16:00,13,22,7,19,16,7,7,15,13
08:17:00,16,16,5,16,20,11,5,15,13
08:18:00,24,12,11,23,17,11,2,17,14
08:19:00,18,11,18,17,19,16,8,17,15
08:20:00,16,6,21,22,19,10,5,17,14
08:21:00,12,29,24,14,16,12,6,19,16
08:22:00,7,28,14,14,11,15,6,15,14
08:23:00,5,12,8,15,12,12,6,10,10
08:24:00,8,19,4,14,22,8,5,13,11
08:25:00,8,9,6,10,18,11,7,10,10
08:26:00,7,14,3,16,19,18,6,12,12
08:27:00,10,11,7,13,11,17,5,10,11
08:28:00,10,16,3,16,12,15,4,11,11
08:29:00,16,13,2,12,4,11,9,9,10
08:30:00,11,16,5,17,7,13,8,11,11
08:31:00,7,6,10,16,3,14,8,8,9
08:32:00,13,9,4,15,4,13,5,9,9
08:33:00,12,12,8,12,6,19,9,10,11
08:34:00,17,10,6,4,7,12,9,9,9
08:35:00,10,6,4,7,8,14,5,7,8
08:36:00,14,7,7,21,17,11,8,13,12
08:37:00,7,10,16,11,7,19,10,10,11
08:38:00,14,13,12,15,13,17,8,13,13
08:39:00,14,14,9,26,12,13,9,15,14
08:40:00,19,26,8,18,12,17,10,17,16
08:41:00,12,7,15,21,12,12,8,13,12
08:42:00,4,14,17,18,18,13,11,14,14
08:43:00,7,16,13,17,9,17,12,12,13
08:44:00,9,18,19,13,9,19,10,14,14
08:45:00,15,6,16,21,4,12,12,12,12
08:46:00,14,11,15,18,11,11,8,14,13
08:47:00,22,16,14,25,6,7,13,17,15
08:48:00,23,22,13,22,13,13,9,19,16
08:49:00,16,23,22,24,14,25,12,20,19
08:50:00,25,20,19,19,12,22,12,19,18
08:51:00,22,7,17,22,11,25,15,16,17
08:52:00,13,21,26,16,19,12,13,19,17
08:53:00,23,14,14,30,24,16,11,21,19
08:54:00,22,20,8,16,17,14,3,17,14
08:55:00,19,14,14,21,12,12,15,16,15
08:56:00,23,15,12,18,16,13,11,17,15
08:57:00,21,24,15,23,18,11,10,20,17
08:58:00,19,16,16,10,8,22,15,14,15
08:59:00,19,19,26,18,22,16,12,21,19
09:00:00,22,17,22,21,22,15,9,21,18
09:01:00,26,12,26,20,18,9,7,20,17
09:02:00,14,19,12,28,8,19,5,16,15
09:03:00,22,15,19,25,24,17,11,21,19
09:04:00,26,13,8,25,21,11,6,19,16
09:05:00,16,16,27,20,17,21,7,19,18
09:06:00,17,16,18,20,21,12,9,18,16
09:07:00,15,18,23,19,25,25,11,20,19
09:08:00,22,22,20,29,22,14,7,23,19
09:09:00,18,18,20,23,30,23,12,22,21
09:10:00,8,16,9,17,27,28,12,15,17
09:11:00,20,23,9,7,20,20,8,16,15
09:12:00,16,20,19,27,21,14,12,21,18
09:13:00,12,15,26,23,19,12,16,19,18
09:14:00,20,14,22,21,22,12,13,20,18
09:15:00,18,20,18,28,8,14,17,18,18
09:16:00,17,29,22,30,20,24,12,24,22
09:17:00,16,24,22,19,19,24,13,20,20
09:18:00,7,14,11,17,15,19,15,13,14
09:19:00,9,14,13,16,23,18,11,15,15
09:20:00,22,16,11,10,10,17,21,14,15
09:21:00,23,21,17,16,19,21,14,19,19
09:22:00,24,19,21,18,20,23,17,20,20
09:23:00,19,22,24,17,19,14,16,20,19
09:24:00,29,25,10,17,15,9,9,19,16
09:25:00,23,14,21,18,20,17,12,19,18
09:26:00,21,18,20,14,16,20,17,18,18
09:27:00,21,24,16,12,34,20,14,21,20
09:28:00,25,17,16,11,19,15,13,18,17
09:29:00,18,16,22,19,14,16,15,18,17
09:30:00,18,17,24,26,15,20,11,20,19
09:31:00,19,27,16,21,19,21,13,20,19
09:32:00,15,18,18,19,24,25,4,19,18
09:33:00,18,16,23,18,20,19,17,19,19
09:34:00,18,30,22,22,17,16,22,22,21
09:35:00,24,17,17,24,23,18,11,21,19
09:36:00,21,17,19,22,16,15,20,19,19
09:37:00,18,12,17,11,18,22,11,15,16
09:38:00,22,19,17,28,30,18,11,23,21
09:39:00,24,17,19,22,7,23,16,18,18
09:40:00,18,19,14,20,12,19,13,17,16
09:41:00,20,20,19,25,10,22,14,19,19
09:42:00,27,19,26,16,16,22,15,21,20
09:43:00,20,20,17,18,16,19,13,18,18
09:44:00,19,23,15,24,22,19,26,21,21
09:45:00,25,15,14,11,19,21,27,17,19
09:46:00,17,14,15,16,20,24,14,16,17
09:47:00,18,20,23,25,15,27,27,20,22
09:48:00,29,25,14,22,10,28,14,20,20
09:49:00,23,27,13,28,19,13,17,22,20
09:50:00,20,19,17,17,21,18,27,19,20
09:51:00,25,12,25,21,23,24,18,21,21
09:52:00,24,23,23,26,22,24,17,24,23
09:53:00,21,28,14,20,11,28,19,19,20
09:54:00,20,18,15,25,20,25,27,20,21
09:55:00,19,15,7,14,18,21,18,15,16
09:56:00,21,18,10,24,12,18,20,17,18
09:57:00,24,12,25,25,18,15,17,21,19
09:58:00,25,27,17,16,28,28,8,23,21
09:59:00,16,17,17,29,16,22,24,19,20
10:00:00,18,21,17,26,15,14,13,19,18
10:01:00,26,16,19,27,25,13,13,23,20
10:02:00,17,11,16,22,14,28,15,16,18
10:03:00,13,21,17,13,17,21,16,16,17
10:04:00,24,20,8,18,10,20,22,16,17
10:05:00,18,21,7,20,21,17,20,17,18
10:06:00,29,18,20,25,18,25,15,22,21
10:07:00,25,26,18,16,15,21,21,20,20
10:08:00,26,29,21,26,18,17,19,24,22
10:09:00,21,23,9,22,22,21,20,19,20
10:10:00,20,21,16,12,16,22,12,17,17
10:11:00,16,17,21,16,23,19,24,19,19
10:12:00,18,15,21,14,20,26,18,18,19
10:13:00,17,13,21,28,13,20,16,18,18
10:14:00,20,18,16,24,17,22,18,19,19
10:15:00,15,16,17,15,19,23,23,16,18
10:16:00,19,26,14,22,18,16,20,20,19
10:17:00,19,18,16,22,11,20,20,17,18
10:18:00,19,20,21,18,25,21,16,21,20
10:19:00,24,11,20,11,21,27,11,17,18
10:20:00,30,21,16,32,19,16,14,24,21
10:21:00,18,18,13,20,10,19,21,16,17
10:22:00,14,17,24,13,9,20,23,15,17
10:23:00,16,16,16,19,15,25,15,16,17
10:24:00,21,22,17,22,10,18,12,18,17
10:25:00,16,14,21,21,21,20,23,19,19
10:26:00,16,22,23,19,10,25,21,18,19
10:27:00,22,23,16,28,17,21,11,21,20
10:28:00,21,21,18,14,19,25,15,19,19
10:29:00,9,21,18,17,23,16,13,18,17
10:30:00,14,23,13,24,17,23,26,18,20
10:31:00,22,20,18,19,13,20,17,18,18
10:32:00,23,23,10,17,20,17,21,19,19
10:33:00,19,18,18,10,18,23,15,17,17
10:34:00,16,18,17,15,13,19,16,16,16
10:35:00,21,19,19,22,12,17,22,19,19
10:36:00,18,17,20,5,17,21,13,15,16
10:37:00,23,19,19,18,16,28,10,19,19
10:38:00,21,18,25,29,17,14,15,22,20
10:39:00,21,21,16,26,19,25,25,21,22
10:40:00,23,21,20,26,23,19,23,23,22
10:41:00,14,27,16,24,18,17,21,20,20
10:42:00,18,25,12,17,21,18,16,19,18
10:43:00,19,27,18,27,16,23,19,21,21
10:44:00,22,20,14,19,23,15,17,20,19
10:45:00,18,13,19,23,19,22,23,18,20
10:46:00,21,19,10,16,17,10,16,17,16
10:47:00,19,23,21,19,15,22,12,19,19
10:48:00,14,15,20,12,19,17,17,16,16
10:49:00,21,14,17,19,22,33,22,19,21
10:50:00,13,22,18,13,18,25,19,17,18
10:51:00,15,16,20,17,13,14,14,16,16
10:52:00,22,17,20,18,19,20,11,19,18
10:53:00,15,22,22,26,14,24,25,20,21
10:54:00,17,19,15,21,10,12,33,16,18
10:55:00,25,11,11,17,23,16,23,17,18
10:56:00,22,14,18,8,21,28,12,17,18
10:57:00,23,18,17,24,19,21,22,20,21
10:58:00,19,16,19,25,14,14,15,19,17
10:59:00,14,12,19,20,14,18,23,16,17
11:00:00,29,21,19,21,24,16,19,23,21
11:01:00,17,18,17,16,23,18,12,18,17
11:02:00,21,18,14,16,21,25,19,18,19
11:03:00,20,26,13,19,15,21,14,19,18
11:04:00,11,18,18,15,25,15,23,17,18
11:05:00,22,19,19,18,19,26,20,19,20
11:06:00,12,25,18,27,17,26,25,20,21
11:07:00,26,16,15,17,7,15,20,16,17
11:08:00,17,17,16,27,19,24,23,19,20
11:09:00,26,22,21,16,23,25,24,22,22
11:10:00,18,11,15,18,16,27,23,16,18
11:11:00,26,29,17,14,23,21,25,22,22
11:12:00,9,23,23,14,14,29,19,17,19
11:13:00,24,17,21,16,19,11,13,19,17
11:14:00,22,17,9,21,20,26,24,18,20
11:15:00,23,16,13,16,4,18,19,14,16
11:16:00,24,22,15,14,38,16,27,23,22
11:17:00,22,21,14,23,19,29,19,20,21
11:18:00,12,18,19,20,13,14,24,16,17
11:19:00,18,16,18,18,22,16,19,18,18
11:20:00,32,27,22,22,12,14,23,23,22
11:21:00,20,14,19,24,21,26,11,20,19
11:22:00,18,15,21,16,11,19,18,16,17
11:23:00,19,16,18,16,18,23,20,17,19
11:24:00,17,15,18,16,19,26,19,17,19
11:25:00,22,12,18,17,10,29,21,16,18
11:26:00,22,21,18,10,17,23,12,18,18
11:27:00,16,15,16,22,19,23,17,18,18
11:28:00,21,12,20,14,8,17,19,15,16
11:29:00,22,29,19,22,14,22,30,21,23
11:30:00,28,21,11,18,14,31,18,18,20
11:31:00,21,26,20,21,22,18,15,22,20
11:32:00,28,21,15,20,23,21,8,21,19
11:33:00,19,18,20,16,13,28,18,17,19
11:34:00,27,13,21,15,17,14,17,19,18
11:35:00,30,25,19,20,30,13,14,25,22
11:36:00,21,15,20,17,22,25,15,19,19
11:37:00,23,17,15,21,26,24,15,20,20
11:38:00,26,20,26,21,22,15,21,23,22
11:39:00,19,14,14,20,26,20,21,19,19
11:40:00,16,19,15,21,24,27,25,19,21
11:41:00,20,23,22,31,18,17,21,23,22
11:42:00,23,19,23,18,19,29,21,20,22
11:43:00,28,10,14,14,20,17,19,17,17
11:44:00,27,15,21,19,13,27,23,19,21
11:45:00,23,14,17,17,25,19,27,19,20
11:46:00,18,13,12,17,12,23,19,14,16
11:47:00,19,13,18,21,19,16,18,18,18
11:48:00,24,24,19,26,25,25,20,24,23
11:49:00,28,18,24,21,22,21,22,23,22
11:50:00,15,16,12,18,27,26,18,18,19
11:51:00,15,21,20,16,20,26,12,18,19
11:52:00,23,24,20,21,13,30,23,20,22
11:53:00,16,27,27,21,27,24,14,24,22
11:54:00,18,11,23,27,28,27,27,21,23
11:55:00,19,26,21,21,27,25,19,23,23
11:56:00,15,22,23,14,17,23,21,18,19
11:57:00,22,30,17,14,13,20,21,19,20
11:58:00,29,11,18,17,27,18,26,20,21
11:59:00,17,26,17,15,15,16,16,18,17
12:00:00,22,14,21,11,18,21,13,17,17
12:01:00,24,16,19,17,19,26,19,19,20
12:02:00,21,14,20,21,24,30,24,20,22
12:03:00,7,22,16,14,18,22,19,15,17
12:04:00,24,24,14,25,15,16,17,20,19
12:05:00,24,22,22,27,19,19,18,23,22
12:06:00,21,24,22,29,21,21,23,23,23
12:07:00,18,20,25,7,20,15,17,18,17
12:08:00,14,22,13,23,13,22,29,17,19
12:09:00,24,21,16,20,21,27,22,20,22
12:10:00,16,25,21,13,35,19,22,22,22
12:11:00,21,25,15,20,23,25,25,21,22
12:12:00,18,25,24,23,24,22,22,23,23
12:13:00,21,22,15,18,26,21,16,20,20
12:14:00,18,19,21,21,16,25,22,19,20
12:15:00,20,25,20,28,11,22,20,21,21
12:16:00,13,24,27,15,20,32,17,20,21
12:17:00,12,21,19,20,28,15,19,20,19
12:18:00,20,24,18,20,18,18,18,20,19
12:19:00,12,16,22,17,15,27,21,16,19
12:20:00,18,26,11,21,12,18,32,18,20
12:21:00,30,29,21,18,26,27,21,25,25
12:22:00,17,15,20,15,16,25,17,17,18
12:23:00,13,18,15,13,17,25,23,15,18
12:24:00,10,17,16,21,13,21,17,15,16
12:25:00,18,17,14,21,30,17,19,20,19
12:26:00,18,20,23,15,18,14,25,19,19
12:27:00,23,21,15,19,12,18,21,18,18
12:28:00,22,16,20,32,20,34,24,22,24
12:29:00,23,26,20,16,20,26,23,21,22
12:30:00,21,24,26,14,20,19,19,21,20
12:31:00,13,22,19,16,21,22,20,18,19
12:32:00,29,19,15,22,18,25,18,21,21
12:33:00,21,24,23,14,15,24,18,19,20
12:34:00,18,19,20,31,26,21,19,23,22
12:35:00,21,21,25,23,30,11,29,24,23
12:36:00,18,21,23,21,15,16,27,20,20
12:37:00,26,17,22,17,15,26,28,19,22
12:38:00,28,31,12,27,27,29,17,25,24
12:39:00,21,23,22,22,22,21,24,22,22
12:40:00,16,16,16,19,18,16,27,17,18
12:41:00,16,17,21,11,22,22,11,17,17
12:42:00,14,19,12,23,28,23,18,19,20
12:43:00,21,25,23,21,12,22,20,20,21
12:44:00,18,20,23,22,24,26,23,21,22
12:45:00,17,15,23,22,23,30,17,20,21
12:46:00,24,26,17,17,29,23,13,23,21
12:47:00,12,26,19,21,19,14,22,19,19
12:48:00,16,26,17,11,21,24,32,18,21
12:49:00,21,12,24,20,24,12,23,20,19
12:50:00,21,22,22,22,27,26,18,23,23
12:51:00,21,21,19,14,22,21,19,19,20
12:52:00,14,22,27,23,24,12,26,22,21
12:53:00,20,14,23,13,14,21,24,17,18
12:54:00,24,14,18,18,22,26,28,19,21
12:55:00,23,17,20,26,18,28,16,21,21
12:56:00,18,25,19,22,23,11,17,21,19
12:57:00,19,21,17,24,25,30,18,21,22
12:58:00,19,18,15,19,19,19,20,18,18
12:59:00,20,14,17,14,21,23,22,17,19
13:00:00,23,14,24,21,27,26,19,22,22
13:01:00,14,22,16,17,20,25,19,18,19
13:02:00,21,18,21,22,26,28,21,22,22
13:03:00,12,14,19,15,23,24,28,17,19
13:04:00,18,11,30,20,20,26,29,20,22
13:05:00,14,13,12,20,25,23,17,17,18
13:06:00,17,26,22,16,26,21,18,21,21
13:07:00,23,18,19,14,32,22,18,21,21
13:08:00,22,25,20,17,19,14,20,21,20
13:09:00,14,20,16,21,23,25,23,19,20
13:10:00,24,17,23,23,30,17,26,23,23
13:11:00,18,19,23,26,14,23,20,20,20
13:12:00,22,20,10,20,20,16,20,18,18
13:13:00,28,17,24,21,24,21,20,23,22
13:14:00,23,21,14,19,21,25,18,20,20
13:15:00,21,29,22,23,14,21,21,22,22
13:16:00,24,28,24,17,21,10,20,23,21
13:17:00,19,18,28,27,11,16,18,21,20
13:18:00,15,24,15,19,21,21,16,19,19
13:19:00,31,23,16,28,28,25,20,25,24
13:20:00,24,23,16,21,16,19,17,20,19
13:21:00,23,21,14,22,24,25,16,21,21
13:22:00,26,27,15,26,18,27,18,22,22
13:23:00,16,25,27,26,19,16,20,23,21
13:24:00,16,19,22,19,29,30,15,21,21
13:25:00,19,22,20,14,13,20,10,18,17
13:26:00,28,22,18,23,16,20,16,21,20
13:27:00,20,20,24,26,20,20,22,22,22
13:28:00,29,15,23,23,21,19,28,22,23
13:29:00,14,13,30,21,22,15,18,20,19
13:30:00,20,19,22,12,30,28,21,21,22
13:31:00,18,21,20,31,14,24,14,21,20
13:32:00,16,18,16,28,18,26,21,19,20
13:33:00,19,32,23,13,22,26,16,22,22
13:34:00,21,21,24,28,28,26,24,24,25
13:35:00,17,20,25,14,15,18,18,18,18
13:36:00,25,17,15,15,22,29,24,19,21
13:37:00,28,21,17,21,17,27,16,21,21
13:38:00,22,23,14,32,13,32,25,21,23
13:39:00,15,26,22,17,14,24,15,19,19
13:40:00,19,25,16,19,29,20,19,22,21
13:41:00,27,23,11,21,22,25,23,21,22
13:42:00,29,25,22,21,14,27,21,22,23
13:43:00,19,9,22,18,25,24,24,19,20
13:44:00,30,20,22,24,21,20,20,23,22
13:45:00,21,25,23,19,16,25,17,21,21
13:46:00,25,21,33,26,22,25,24,25,25
13:47:00,24,20,27,20,20,26,12,22,21
13:48:00,20,18,17,21,32,16,19,22,20
13:49:00,21,27,22,24,19,17,23,23,22
13:50:00,18,12,23,24,23,15,15,20,19
13:51:00,23,19,25,24,19,13,20,22,20
13:52:00,24,14,10,18,13,30,12,16,17
13:53:00,27,13,16,22,31,13,19,22,20
13:54:00,26,20,14,25,16,22,17,20,20
13:55:00,21,25,18,19,20,18,19,21,20
13:56:00,18,25,13,16,24,17,23,19,19
13:57:00,30,25,30,16,15,19,19,23,22
13:58:00,21,20,14,19,14,28,18,18,19
13:59:00,19,21,11,13,26,23,21,18,19
14:00:00,21,16,21,19,26,18,20,21,20
14:01:00,24,20,18,20,26,22,15,22,21
14:02:00,20,16,21,30,13,17,20,20,20
14:03:00,21,18,17,21,20,15,21,19,19
14:04:00,20,19,21,17,18,22,21,19,20
14:05:00,21,24,16,23,20,26,24,21,22
14:06:00,21,21,21,18,21,28,19,20,21
14:07:00,25,22,28,24,15,21,23,23,23
14:08:00,19,22,15,14,24,22,18,19,19
14:09:00,12,16,17,23,12,18,20,16,17
14:10:00,17,22,30,22,18,16,18,22,20
14:11:00,17,13,16,29,16,29,19,18,20
14:12:00,13,20,17,24,14,24,23,18,19
14:13:00,17,20,15,21,14,12,22,17,17
14:14:00,24,17,23,18,13,17,15,19,18
14:15:00,23,16,20,18,22,20,22,20,20
14:16:00,25,24,24,17,14,22,18,21,21
14:17:00,14,15,13,29,17,24,22,18,19
14:18:00,25,21,16,21,26,21,25,22,22
14:19:00,22,15,13,26,22,33,17,20,21
14:20:00,28,19,27,29,20,14,16,25,22
14:21:00,13,20,18,16,19,23,12,17,17
14:22:00,14,25,20,20,13,23,16,18,19
14:23:00,27,15,16,17,26,17,14,20,19
14:24:00,24,17,17,25,19,17,17,20,19
14:25:00,18,22,20,28,23,16,20,22,21
14:26:00,20,16,21,16,13,19,20,17,18
14:27:00,19,15,17,15,16,30,27,16,20
14:28:00,19,14,21,20,23,25,11,19,19
14:29:00,25,27,20,11,24,24,14,21,21
14:30:00,35,18,28,17,22,22,21,24,23
14:31:00,22,23,27,17,12,18,20,20,20
14:32:00,20,26,16,26,30,29,17,24,23
14:33:00,13,15,23,22,14,19,18,17,18
14:34:00,22,25,20,12,23,20,19,20,20
14:35:00,19,19,27,20,22,21,18,21,21
14:36:00,19,12,18,13,28,20,28,18,20
14:37:00,24,21,16,25,24,22,23,22,22
14:38:00,31,16,23,21,12,16,15,21,19
14:39:00,18,19,12,21,25,19,20,19,19
14:40:00,19,23,18,15,28,23,19,21,21
14:41:00,23,26,18,23,23,28,16,23,22
14:42:00,23,30,25,25,28,24,23,26,25
14:43:00,16,24,25,20,19,17,18,21,20
14:44:00,24,18,32,20,23,18,21,23,22
14:45:00,26,18,19,19,31,27,9,23,21
14:46:00,22,19,26,15,17,24,22,20,21
14:47:00,25,10,19,29,15,20,18,20,19
14:48:00,17,16,18,17,29,23,15,19,19
14:49:00,13,16,23,23,24,25,17,20,20
14:50:00,23,19,18,12,20,22,14,18,18
14:51:00,30,19,24,15,36,20,27,25,24
14:52:00,17,28,18,29,19,29,25,22,24
14:53:00,23,19,27,22,19,28,12,22,21
14:54:00,27,25,19,26,19,20,27,23,23
14:55:00,26,5,14,24,32,15,20,20,19
14:56:00,39,17,17,19,22,23,26,23,23
14:57:00,22,20,20,20,21,18,24,21,21
14:58:00,28,20,26,23,16,17,18,23,21
14:59:00,27,20,21,20,22,21,26,22,22
15:00:00,26,20,32,16,13,22,15,21,21
15:01:00,14,13,18,17,16,18,26,16,17
15:02:00,26,21,24,16,12,8,25,20,19
15:03:00,26,16,18,25,16,22,21,20,21
15:04:00,19,18,22,16,30,17,20,21,20
15:05:00,22,14,27,20,18,24,17,20,20
15:06:00,23,17,18,22,14,24,7,19,18
15:07:00,14,16,19,28,19,11,28,19,19
15:08:00,26,21,25,25,20,27,12,23,22
15:09:00,15,21,15,18,19,25,17,18,19
15:10:00,25,26,21,19,20,20,22,22,22
15:11:00,30,19,25,22,17,24,21,23,23
15:12:00,11,14,14,26,10,23,15,15,16
15:13:00,20,21,21,28,10,22,10,20,19
15:14:00,20,25,19,17,8,23,15,18,18
15:15:00,16,19,22,18,14,22,18,18,18
15:16:00,18,11,10,28,11,25,24,16,18
15:17:00,23,18,23,19,16,18,26,20,20
15:18:00,20,20,23,25,12,20,22,20,20
15:19:00,19,20,17,12,8,23,14,15,16
15:20:00,26,19,22,20,17,20,13,21,20
15:21:00,16,19,16,28,16,12,13,19,17
15:22:00,23,15,18,29,18,28,15,21,21
15:23:00,24,25,21,23,12,18,16,21,20
15:24:00,16,10,20,10,11,11,20,13,14
15:25:00,12,24,22,22,8,19,24,18,19
15:26:00,18,8,11,21,15,13,15,15,14
15:27:00,10,2,26,19,20,18,6,15,14
15:28:00,19,5,21,11,18,16,20,15,16
15:29:00,18,13,20,20,20,17,19,18,18
15:30:00,18,14,31,16,17,25,20,19,20
15:31:00,22,14,21,22,29,22,16,22,21
15:32:00,14,15,30,29,17,19,16,21,20
15:33:00,21,19,16,11,16,22,14,17,17
15:34:00,25,25,24,10,25,16,19,22,21
15:35:00,16,20,17,18,18,17,19,18,18
15:36:00,21,15,23,21,16,10,16,19,17
15:37:00,12,23,25,16,17,22,26,19,20
15:38:00,21,18,17,17,26,10,18,20,18
15:39:00,20,18,14,28,21,18,13,20,19
15:40:00,12,17,14,19,24,23,22,17,19
15:41:00,18,21,28,20,13,22,12,20,19
15:42:00,22,10,29,25,24,15,14,22,20
15:43:00,13,23,24,25,25,28,18,22,22
15:44:00,21,16,17,19,20,15,16,19,18
15:45:00,21,22,25,20,30,25,25,24,24
15:46:00,19,25,14,15,23,29,20,19,21
15:47:00,18,22,30,20,14,10,16,21,19
15:48:00,21,17,17,25,17,23,21,19,20
15:49:00,26,17,28,17,20,19,12,22,20
15:50:00,17,20,23,26,21,13,15,21,19
15:51:00,17,21,23,31,19,28,13,22,22
15:52:00,28,24,22,19,17,11,20,22,20
15:53:00,29,26,23,28,18,23,18,25,24
15:54:00,30,24,16,23,25,20,22,24,23
15:55:00,13,21,18,23,27,15,22,20,20
15:56:00,21,23,19,27,26,23,10,23,21
15:57:00,24,23,18,19,30,14,22,23,21
15:58:00,15,19,19,20,19,25,21,18,20
15:59:00,22,18,19,25,19,16,24,21,20
16:00:00,22,16,15,27,28,19,17,22,21
16:01:00,11,17,22,21,20,28,27,18,21
16:02:00,25,24,27,32,27,19,23,27,25
16:03:00,18,33,20,21,11,20,14,21,20
16:04:00,21,18,20,20,11,19,21,18,19
16:05:00,18,22,30,20,19,15,22,22,21
16:06:00,16,19,25,21,18,18,19,20,19
16:07:00,28,13,24,25,22,22,20,22,22
16:08:00,14,10,22,18,20,16,23,17,18
16:09:00,22,14,29,30,30,22,12,25,23
16:10:00,11,16,22,25,26,19,28,20,21
16:11:00,18,12,17,29,22,24,25,20,21
16:12:00,18,20,23,20,18,22,20,20,20
16:13:00,20,22,25,23,27,23,21,23,23
16:14:00,18,17,18,31,31,25,19,23,23
16:15:00,32,22,26,24,13,27,24,23,24
16:16:00,22,15,32,27,21,12,24,23,22
16:17:00,18,11,24,31,22,27,12,21,21
16:18:00,17,9,26,17,20,23,20,18,19
16:19:00,21,7,26,24,19,15,24,19,19
16:20:00,10,22,22,16,27,11,27,19,19
16:21:00,32,15,21,25,21,16,27,23,22
16:22:00,12,11,27,20,18,27,26,18,20
16:23:00,19,18,25,27,19,20,17,22,21
16:24:00,24,12,39,34,14,23,25,25,24
16:25:00,24,14,25,25,19,22,22,21,22
16:26:00,29,8,19,23,14,15,20,19,18
16:27:00,18,14,16,21,10,22,23,16,18
16:28:00,23,17,12,23,28,13,22,21,20
16:29:00,20,6,20,28,25,18,12,20,18
16:30:00,16,20,23,18,22,23,18,20,20
16:31:00,18,11,25,16,20,20,17,18,18
16:32:00,14,13,26,21,16,22,13,18,18
16:33:00,23,14,9,24,6,19,27,15,17
16:34:00,18,12,20,10,9,15,18,14,15
16:35:00,30,21,18,29,7,15,18,21,20
16:36:00,21,18,22,19,13,22,20,19,19
16:37:00,29,12,19,11,18,32,14,18,19
16:38:00,14,21,22,19,16,25,20,18,20
16:39:00,20,20,20,18,19,20,14,19,19
16:40:00,17,13,21,22,25,19,30,20,21
16:41:00,18,19,11,30,26,19,22,21,21
16:42:00,17,26,23,20,19,21,17,21,20
16:43:00,22,21,21,20,18,17,16,20,19
16:44:00,18,18,23,15,12,15,18,17,17
16:45:00,16,18,23,26,23,18,12,21,19
16:46:00,15,14,16,17,22,25,11,17,17
16:47:00,11,22,31,22,13,25,12,20,19
16:48:00,19,14,25,19,14,13,18,18,17
16:49:00,16,14,26,27,9,21,14,18,18
16:50:00,20,18,27,21,24,13,12,22,19
16:51:00,18,11,21,22,19,16,15,18,17
16:52:00,17,10,24,33,17,12,23,20,19
16:53:00,24,15,28,20,23,18,15,22,20
16:54:00,11,12,19,18,20,15,18,16,16
16:55:00,18,10,17,18,17,20,11,16,16
16:56:00,12,8,26,17,19,17,17,16,17
16:57:00,17,7,13,20,22,20,20,16,17
16:58:00,17,11,16,26,14,15,15,17,16
16:59:00,5,13,22,24,20,18,10,17,16
17:00:00,12,16,22,29,10,13,15,18,17
17:01:00,21,12,21,22,17,33,17,19,20
17:02:00,15,12,33,20,17,19,13,19,18
17:03:00,15,16,33,20,17,23,12,20,19
17:04:00,26,12,26,22,22,21,14,22,20
17:05:00,16,6,28,28,18,18,16,19,19
17:06:00,18,4,10,15,23,23,14,14,15
17:07:00,23,14,25,17,29,25,14,22,21
17:08:00,15,21,21,33,15,17,19,21,20
17:09:00,7,9,10,26,26,19,15,16,16
17:10:00,14,8,13,26,25,20,14,17,17
17:11:00,13,21,19,21,29,23,16,21,20
17:12:00,4,18,8,17,22,19,14,14,15
17:13:00,10,23,9,17,27,25,11,17,17
17:14:00,11,16,15,23,24,23,10,18,17
17:15:00,10,18,6,25,21,14,23,16,17
17:16:00,20,20,9,20,14,10,14,17,15
17:17:00,10,17,9,13,12,24,13,12,14
17:18:00,10,15,10,19,17,19,19,14,16
17:19:00,11,15,17,20,15,19,17,16,16
17:20:00,12,16,16,16,9,17,11,14,14
17:21:00,12,16,10,12,19,19,10,14,14
17:22:00,12,18,12,12,16,6,13,14,13
17:23:00,15,15,11,21,7,22,9,14,14
17:24:00,7,9,9,16,10,29,18,10,14
17:25:00,8,15,12,10,9,18,16,11,13
17:26:00,16,11,11,5,17,13,17,12,13
17:27:00,17,8,16,9,6,13,13,11,12
17:28:00,11,11,15,9,16,11,10,12,12
17:29:00,24,19,11,7,10,22,14,14,15
17:30:00,17,13,14,11,20,16,11,15,15
17:31:00,16,15,13,9,18,27,9,14,15
17:32:00,22,7,17,7,23,11,15,15,15
17:33:00,27,3,18,8,27,17,11,17,16
17:34:00,20,13,11,14,19,19,14,15,16
17:35:00,22,6,13,9,23,8,16,15,14
17:36:00,25,6,6,20,23,20,20,16,17
17:37:00,25,10,8,10,23,20,16,15,16
17:38:00,21,8,11,9,25,13,20,15,15
17:39:00,27,11,16,17,24,15,16,19,18
17:40:00,23,11,21,15,34,20,12,21,19
17:41:00,28,11,17,5,28,14,13,18,17
17:42:00,22,15,10,13,21,21,14,16,17
17:43:00,17,4,16,20,12,17,15,14,14
17:44:00,15,12,9,29,15,14,12,16,15
17:45:00,13,10,11,25,14,16,16,15,15
17:46:00,9,16,10,16,24,11,14,15,14
17:47:00,21,14,14,22,16,23,16,17,18
17:48:00,15,15,22,12,23,14,12,17,16
17:49:00,19,10,12,13,28,22,15,16,17
17:50:00,18,14,11,12,16,22,12,14,15
17:51:00,16,13,18,10,23,14,10,16,15
17:52:00,26,16,19,10,17,16,11,18,16
17:53:00,30,9,15,14,21,16,6,18,16
17:54:00,19,8,26,8,12,12,16,15,14
17:55:00,25,11,13,11,17,22,17,15,17
17:56:00,26,18,19,22,23,19,12,22,20
17:57:00,10,23,23,22,24,13,7,20,17
17:58:00,29,14,19,16,23,9,12,20,17
17:59:00,22,13,16,17,19,21,9,17,17
18:00:00,17,5,16,24,22,15,10,17,16
18:01:00,15,8,17,18,14,12,17,14,14
18:02:00,20,5,11,21,17,13,10,15,14
18:03:00,34,13,19,20,19,22,12,21,20
18:04:00,20,11,25,24,16,15,11,19,17
18:05:00,20,17,17,22,17,20,16,19,18
18:06:00,25,12,14,18,22,16,12,18,17
18:07:00,22,10,14,13,23,8,15,16,15
18:08:00,31,3,18,18,23,17,9,19,17
18:09:00,18,11,18,21,23,17,19,18,18
18:10:00,20,13,13,15,21,14,12,16,15
18:11:00,22,9,20,15,20,15,12,17,16
18:12:00,29,6,19,28,24,19,11,21,19
18:13:00,20,8,29,26,20,15,12,21,19
18:14:00,22,5,30,12,20,14,17,18,17
18:15:00,28,8,17,16,24,18,13,19,18
18:16:00,19,7,25,21,12,12,13,17,16
18:17:00,17,22,15,20,22,13,11,19,17
18:18:00,16,18,18,21,27,14,19,20,19
18:19:00,10,26,18,25,22,19,14,20,19
18:20:00,29,10,24,24,17,13,10,21,18
18:21:00,12,7,11,17,17,12,16,13,13
18:22:00,21,16,20,23,17,11,13,19,17
18:23:00,24,20,22,21,12,12,9,20,17
18:24:00,17,4,15,19,17,22,10,14,15
18:25:00,18,12,23,18,21,14,13,18,17
18:26:00,17,11,21,19,16,18,11,17,16
18:27:00,19,5,14,22,18,25,15,16,17
18:28:00,23,10,22,15,15,24,8,17,17
18:29:00,19,9,24,18,23,16,8,19,17
18:30:00,26,9,20,16,19,15,13,18,17
18:31:00,12,8,16,13,14,11,16,13,13
18:32:00,18,9,24,16,24,17,14,18,17
18:33:00,21,12,19,19,18,11,12,18,16
18:34:00,19,17,23,20,21,11,14,20,18
18:35:00,26,14,19,20,19,15,11,20,18
18:36:00,20,12,13,22,20,15,13,17,16
18:37:00,23,7,23,26,21,15,10,20,18
18:38:00,18,17,23,16,10,9,14,17,15
18:39:00,26,15,16,18,21,14,17,19,18
18:40:00,22,14,20,15,28,13,18,20,19
18:41:00,18,22,20,13,23,24,14,19,19
18:42:00,19,25,21,28,13,16,11,21,19
18:43:00,27,22,20,23,19,23,21,22,22
18:44:00,17,17,26,27,16,12,12,21,18
18:45:00,14,15,17,13,27,12,19,17,17
18:46:00,22,15,22,15,15,12,11,18,16
18:47:00,13,13,18,24,20,18,7,18,16
18:48:00,25,17,19,20,20,15,14,20,19
18:49:00,15,23,25,14,22,12,10,20,17
18:50:00,18,22,19,9,27,12,13,19,17
18:51:00,19,32,26,20,19,15,15,23,21
18:52:00,26,24,22,25,15,16,14,22,20
18:53:00,21,30,25,16,23,13,17,23,21
18:54:00,19,29,22,13,19,11,6,20,17
18:55:00,22,18,24,12,22,15,15,20,18
18:56:00,12,17,21,18,16,15,10,17,16
18:57:00,26,14,12,21,11,14,12,17,16
18:58:00,21,18,27,17,22,14,12,21,19
18:59:00,20,20,14,12,18,12,13,17,16
19:00:00,21,12,25,23,26,22,10,21,20
19:01:00,10,28,25,18,19,16,10,20,18
19:02:00,16,12,21,20,15,11,11,17,15
19:03:00,20,23,21,21,24,19,7,22,19
19:04:00,20,18,18,12,7,15,7,15,14
19:05:00,21,18,16,19,23,10,12,19,17
19:06:00,17,16,15,24,18,19,9,18,17
19:07:00,16,15,17,22,18,19,8,18,16
19:08:00,13,12,13,8,14,13,9,12,12
19:09:00,18,20,24,13,18,13,11,19,17
19:10:00,12,10,27,28,18,17,14,19,18
19:11:00,24,17,11,22,17,11,10,18,16
19:12:00,25,11,17,14,23,13,14,18,17
19:13:00,19,24,21,20,16,24,10,20,19
19:14:00,16,19,17,21,20,16,10,19,17
19:15:00,17,28,15,16,22,15,12,20,18
19:16:00,16,18,20,23,14,14,13,18,17
19:17:00,15,22,14,18,21,12,16,18,17
19:18:00,12,18,17,26,8,7,11,16,14
19:19:00,11,27,23,18,24,13,10,21,18
19:20:00,19,20,20,21,16,14,18,19,18
19:21:00,12,20,28,23,23,11,13,21,19
19:22:00,8,21,19,21,15,11,9,17,15
19:23:00,13,22,12,23,19,15,9,18,16
19:24:00,15,13,24,24,26,13,10,20,18
19:25:00,17,14,13,19,13,15,12,15,15
19:26:00,13,16,11,16,13,7,8,14,12
19:27:00,17,14,13,24,14,10,15,16,15
19:28:00,18,25,12,13,15,12,8,17,15
19:29:00,14,10,9,18,13,12,17,13,13
19:30:00,22,19,13,12,18,17,12,17,16
19:31:00,12,23,12,14,18,12,13,16,15
19:32:00,18,30,16,25,13,11,11,20,18
19:33:00,22,20,11,18,15,10,13,17,16
19:34:00,9,24,13,17,19,13,10,16,15
19:35:00,20,21,14,22,16,9,6,19,15
19:36:00,15,17,16,16,15,11,12,16,15
19:37:00,11,13,10,13,15,12,15,12,13
19:38:00,19,18,13,23,11,9,9,17,15
19:39:00,21,18,12,14,11,15,8,15,14
19:40:00,11,22,12,15,19,15,12,16,15
19:41:00,13,17,13,19,12,10,12,15,14
19:42:00,24,28,23,18,18,13,11,22,19
19:43:00,10,11,16,12,14,17,7,13,12
19:44:00,13,19,18,20,9,12,14,16,15
19:45:00,17,11,14,16,19,9,10,15,14
19:46:00,15,24,21,15,14,12,9,18,16
19:47:00,11,24,12,14,7,11,12,14,13
19:48:00,20,24,18,13,14,9,13,18,16
19:49:00,10,30,15,21,16,10,10,18,16
19:50:00,15,23,17,11,11,9,11,15,14
19:51:00,18,24,20,17,17,10,8,19,16
19:52:00,15,15,15,20,15,16,5,16,14
19:53:00,18,18,14,15,8,11,4,15,13
19:54:00,13,15,12,10,15,8,9,13,12
19:55:00,17,22,16,15,11,9,16,16,15
19:56:00,15,16,10,16,13,5,6,14,12
19:57:00,14,21,10,20,15,15,12,16,15
19:58:00,12,12,11,15,14,8,11,13,12
19:59:00,11,15,11,16,12,11,9,13,12
20:00:00,19,19,15,14,14,8,11,16,14
20:01:00,15,16,17,20,14,8,11,16,14
20:02:00,13,20,16,11,18,9,10,16,14
20:03:00,11,15,18,14,13,6,13,14,13
20:04:00,9,11,11,17,9,4,10,11,10
20:05:00,17,11,14,14,10,11,11,13,13
20:06:00,14,14,14,13,13,9,5,14,12
20:07:00,11,20,22,21,10,7,8,17,14
20:08:00,19,19,13,14,13,8,13,16,14
20:09:00,21,16,17,9,16,9,14,16,15
20:10:00,16,19,15,21,21,12,6,18,16
20:11:00,14,22,16,14,17,6,4,17,13
20:12:00,23,14,15,12,11,15,5,15,14
20:13:00,24,16,11,21,17,10,5,18,15
20:14:00,15,13,12,15,16,11,7,14,13
20:15:00,14,17,12,14,9,6,11,13,12
20:16:00,14,9,13,13,12,9,16,12,12
20:17:00,14,19,13,12,12,13,9,14,13
20:18:00,19,12,23,18,11,7,11,17,14
20:19:00,16,16,12,16,12,13,8,14,13
20:20:00,13,17,14,14,16,14,8,15,14
20:21:00,15,16,18,17,12,14,4,16,14
20:22:00,18,10,9,9,11,5,8,11,10
20:23:00,10,12,14,13,14,3,7,13,10
20:24:00,14,12,9,14,14,5,7,13,11
20:25:00,11,10,21,8,13,8,7,13,11
20:26:00,13,14,16,18,10,7,4,14,12
20:27:00,15,15,7,11,10,5,6,12,10
20:28:00,15,4,13,6,10,6,7,10,9
20:29:00,11,20,12,8,8,9,10,12,11
20:30:00,16,9,11,7,5,9,8,10,9
20:31:00,3,13,11,12,10,12,11,10,10
20:32:00,10,7,6,12,8,7,6,9,8
20:33:00,15,14,10,12,6,7,5,11,10
20:34:00,11,12,7,11,13,5,6,11,9
20:35:00,11,12,18,13,12,9,8,13,12
20:36:00,11,11,12,12,12,14,17,12,13
20:37:00,9,16,14,12,11,5,6,12,10
20:38:00,13,8,9,13,9,8,9,10,10
20:39:00,18,15,10,8,6,7,11,11,11
20:40:00,10,6,12,8,6,9,3,8,8
20:41:00,15,12,11,12,5,7,9,11,10
20:42:00,22,20,10,12,14,6,11,16,14
20:43:00,15,4,10,12,9,7,11,10,10
20:44:00,15,15,13,11,11,7,4,13,11
20:45:00,13,17,7,11,9,4,8,11,10
20:46:00,19,8,16,6,7,10,12,11,11
20:47:00,15,21,9,5,10,7,7,12,11
20:48:00,14,9,11,12,3,6,14,10,10
20:49:00,11,15,11,9,10,7,5,11,10
20:50:00,12,10,7,9,9,4,11,9,9
20:51:00,18,14,5,5,4,7,3,9,8
20:52:00,6,9,8,5,8,5,3,7,6
20:53:00,9,5,7,13,7,5,8,8,8
20:54:00,11,16,14,18,10,8,5,14,12
20:55:00,14,8,7,5,12,4,5,9,8
20:56:00,12,9,8,15,4,7,4,10,8
20:57:00,7,6,8,8,10,7,4,8,7
20:58:00,19,9,8,5,6,3,1,9,7
20:59:00,12,9,10,17,7,8,10,11,10
21:00:00,10,18,8,8,15,10,8,12,11
21:01:00,9,9,5,6,8,9,8,7,8
21:02:00,12,10,13,10,10,4,6,11,9
21:03:00,8,21,7,10,6,5,7,10,9
21:04:00,8,6,13,2,9,8,7,8,8
21:05:00,6,9,11,8,18,8,4,10,9
21:06:00,11,13,11,9,10,12,6,11,10
21:07:00,15,6,11,11,6,11,8,10,10
21:08:00,6,14,8,17,8,9,4,11,9
21:09:00,14,19,23,16,6,6,7,16,13
21:10:00,11,15,8,17,11,4,7,12,10
21:11:00,13,11,9,13,7,7,2,11,9
21:12:00,14,13,15,8,8,7,8,12,10
21:13:00,8,21,13,8,7,6,7,11,10
21:14:00,8,15,15,11,9,4,7,12,10
21:15:00,7,11,5,10,13,8,5,9,8
21:16:00,9,9,22,8,12,3,4,12,10
21:17:00,15,9,16,9,7,4,12,11,10
21:18:00,6,11,13,5,16,5,9,10,9
21:19:00,8,8,10,12,7,8,6,9,8
21:20:00,9,10,8,11,6,4,6,9,8
21:21:00,13,11,13,6,5,7,6,10,9
21:22:00,8,6,7,12,12,5,6,9,8
21:23:00,6,7,9,5,9,8,4,7,7
21:24:00,6,7,6,18,6,7,5,9,8
21:25:00,16,17,11,12,5,11,0,12,10
21:26:00,14,14,9,9,7,9,8,11,10
21:27:00,14,17,15,17,5,3,4,14,11
21:28:00,8,13,12,10,8,5,5,10,9
21:29:00,6,13,9,14,6,8,1,10,8
21:30:00,7,11,8,6,7,8,6,8,8
21:31:00,8,8,13,10,6,5,5,9,8
21:32:00,10,6,11,9,8,8,2,9,8
21:33:00,10,9,14,13,8,5,3,11,9
21:34:00,12,9,12,6,5,6,8,9,8
21:35:00,7,10,10,12,6,4,5,9,8
21:36:00,9,10,12,12,10,10,6,11,10
21:37:00,12,8,12,7,6,5,1,9,7
21:38:00,3,12,13,14,8,7,1,10,8
21:39:00,7,10,13,11,4,6,8,9,8
21:40:00,19,11,9,10,8,8,1,11,9
21:41:00,10,7,10,12,13,3,10,10,9
21:42:00,3,14,10,13,5,8,10,9,9
21:43:00,7,10,7,15,9,1,4,10,8
21:44:00,15,12,19,11,10,7,7,13,12
21:45:00,14,13,5,10,7,12,2,10,9
21:46:00,8,8,11,3,12,9,9,8,9
21:47:00,5,17,8,12,7,8,5,10,9
21:48:00,9,9,7,7,7,11,5,8,8
21:49:00,12,14,9,10,9,6,3,11,9
21:50:00,15,8,9,9,9,8,3,10,9
21:51:00,12,9,3,7,8,9,4,8,7
21:52:00,3,9,12,15,11,8,3,10,9
21:53:00,9,7,10,9,5,4,4,8,7
21:54:00,12,9,9,11,11,6,2,10,9
21:55:00,10,9,7,10,6,5,9,8,8
21:56:00,11,11,9,8,10,8,4,10,9
21:57:00,6,5,9,11,6,1,7,7,6
21:58:00,11,4,9,7,7,10,3,8,7
21:59:00,9,17,10,5,6,8,5,9,9
22:00:00,11,10,15,4,5,3,6,9,8
22:01:00,6,9,12,11,8,8,4,9,8
22:02:00,9,8,12,8,8,7,6,9,8
22:03:00,9,8,13,5,2,8,6,7,7
22:04:00,11,14,13,11,7,10,5,11,10
22:05:00,12,9,15,11,5,12,4,10,10
22:06:00,13,7,5,8,7,3,5,8,7
22:07:00,12,9,10,12,7,7,6,10,9
22:08:00,10,8,8,7,8,8,6,8,8
22:09:00,7,7,8,8,7,9,6,7,7
22:10:00,14,9,6,6,10,8,5,9,8
22:11:00,8,13,7,5,12,14,4,9,9
22:12:00,5,11,10,13,7,8,5,9,8
22:13:00,9,6,13,7,8,7,4,9,8
22:14:00,6,7,13,7,9,13,1,8,8
22:15:00,7,11,8,10,14,8,5,10,9
22:16:00,12,7,6,7,13,9,5,9,8
22:17:00,9,12,10,11,8,9,5,10,9
22:18:00,15,8,12,11,6,4,4,10,9
22:19:00,9,8,5,6,8,13,9,7,8
22:20:00,8,7,10,7,4,9,3,7,7
22:21:00,9,9,7,6,6,4,2,7,6
22:22:00,9,18,13,9,6,8,7,11,10
22:23:00,8,10,7,11,7,7,5,9,8
22:24:00,8,10,11,7,6,8,2,8,7
22:25:00,6,11,9,4,8,9,6,8,8
22:26:00,7,9,8,8,8,10,3,8,8
22:27:00,5,7,9,6,7,7,4,7,6
22:28:00,5,9,2,7,7,10,4,6,6
22:29:00,5,6,7,8,4,5,2,6,5
22:30:00,3,5,5,6,10,7,6,6,6
22:31:00,10,3,5,10,3,8,3,6,6
22:32:00,3,11,11,7,3,6,3,7,6
22:33:00,11,6,11,2,1,9,7,6,7
22:34:00,7,6,10,3,7,4,4,7,6
22:35:00,9,3,9,7,6,5,5,7,6
22:36:00,9,11,1,6,2,5,4,6,5
22:37:00,2,9,7,4,13,3,1,7,6
22:38:00,5,10,6,5,6,6,3,6,6
22:39:00,9,5,6,9,5,7,2,7,6
22:40:00,8,7,8,6,8,4,5,7,7
22:41:00,8,10,4,3,9,7,3,7,6
22:42:00,5,11,8,5,2,4,5,6,6
22:43:00,4,5,7,7,4,5,5,5,5
22:44:00,7,10,4,6,7,8,3,7,6
22:45:00,5,10,1,5,5,7,2,5,5
22:46:00,5,6,6,6,7,6,1,6,5
22:47:00,10,2,2,8,1,1,4,5,4
22:48:00,4,7,4,6,6,3,1,5,4
22:49:00,5,4,2,3,3,8,7,3,5
22:50:00,10,6,1,6,7,5,3,6,5
22:51:00,3,2,3,5,2,10,1,3,4
22:52:00,3,6,3,3,5,6,3,4,4
22:53:00,3,3,6,6,9,5,4,5,5
22:54:00,1,8,3,6,11,9,3,6,6
22:55:00,1,4,4,5,5,5,1,4,4
22:56:00,8,5,2,5,8,6,0,6,5
22:57:00,2,8,2,4,5,4,7,4,5
22:58:00,3,6,9,4,4,8,3,5,5
22:59:00,1,4,3,4,9,4,2,4,4
23:00:00,4,3,4,4,5,7,2,4,4
23:01:00,2,3,2,5,5,6,0,3,3
23:02:00,3,5,3,2,6,3,4,4,4
23:03:00,6,4,4,5,3,8,2,4,5
23:04:00,3,6,2,7,4,6,1,4,4
23:05:00,5,2,1,1,9,3,1,4,3
23:06:00,2,8,3,4,2,9,2,4,4
23:07:00,4,4,9,7,3,8,1,5,5
23:08:00,1,4,3,5,7,13,0,4,5
23:09:00,2,8,1,3,9,3,2,5,4
23:10:00,5,7,4,3,5,7,2,5,5
23:11:00,4,4,8,3,8,7,2,5,5
23:12:00,3,6,2,5,7,7,4,5,5
23:13:00,6,5,4,3,5,3,4,5,4
23:14:00,4,6,3,8,3,8,2,5,5
23:15:00,2,1,4,3,5,11,3,3,4
23:16:00,6,3,5,2,2,10,0,4,4
23:17:00,3,7,2,5,5,10,1,4,5
23:18:00,2,5,5,2,4,4,4,4,4
23:19:00,3,2,3,0,6,3,5,3,3
23:20:00,1,5,4,1,4,2,1,3,3
23:21:00,11,3,3,3,10,6,0,6,5
23:22:00,1,4,1,5,3,3,0,3,2
23:23:00,4,3,2,5,2,2,2,3,3
23:24:00,3,7,1,3,4,3,3,4,3
23:25:00,4,6,4,2,9,7,3,5,5
23:26:00,1,3,4,2,5,5,3,3,3
23:27:00,5,5,3,2,2,1,1,3,3
23:28:00,7,4,2,1,2,8,1,3,4
23:29:00,8,2,2,2,3,5,2,3,3
23:30:00,4,6,1,1,1,8,0,3,3
23:31:00,6,3,2,2,4,7,1,3,4
23:32:00,3,2,2,3,6,5,5,3,4
23:33:00,1,4,5,0,3,4,1,3,3
23:34:00,0,3,3,3,5,3,3,3,3
23:35:00,3,6,1,4,3,5,1,3,3
23:36:00,3,1,3,6,5,8,1,4,4
23:37:00,1,6,1,3,2,6,1,3,3
23:38:00,1,3,3,5,5,4,1,3,3
23:39:00,3,4,2,3,5,9,1,3,4
23:40:00,2,0,0,1,2,7,1,1,2
23:41:00,3,4,2,1,10,8,2,4,4
23:42:00,4,2,2,2,4,2,2,3,3
23:43:00,2,4,1,5,5,2,0,3,3
23:44:00,0,4,2,3,3,7,0,2,3
23:45:00,6,5,0,0,1,5,3,2,3
23:46:00,1,4,1,2,0,4,0,2,2
23:47:00,5,3,1,1,5,5,1,3,3
23:48:00,1,1,2,1,5,1,2,2,2
23:49:00,5,6,0,1,3,5,3,3,3
23:50:00,6,2,2,3,1,5,1,3,3
23:51:00,2,6,0,1,6,6,2,3,3
23:52:00,3,6,0,0,5,6,2,3,3
23:53:00,2,1,4,4,4,5,3,3,3
23:54:00,3,1,1,4,4,5,2,3,3
23:55:00,2,0,3,1,1,3,3,1,2
23:56:00,4,4,2,3,1,4,0,3,3
23:57:00,3,3,0,1,3,6,1,2,2
23:58:00,0,4,1,3,5,3,0,3,2
23:59:00,1,2,1,2,1,6,3,1,2
,,,,,,,,,
Totals,,,,,,,,,
12H(7-19),13966,12764,13371,14124,13574,13259,11323,13560,13197
16H(6-22),16976,16047,16374,17239,16341,15148,12937,16595,15866
18H(6-24),17599,16752,16957,17814,16991,15900,13281,17223,16471
24H(0-24),18107,17369,17736,18333,17482,16372,13707,17805,17015
,,,,,,,,,
AM Peak,10:55:00,09:48:00,07:00:00,09:29:00,06:58:00,10:56:00,10:53:00,09:21:00,09:44:00
,1266,1188,1124,1239,1189,1309,1184,1154,1148
,,,,,,,,,
PM Peak,14:14:00,12:03:00,16:05:00,15:36:00,12:35:00,12:48:00,12:05:00,13:08:00,12:50:00
,1330,1251,1367,1374,1299,1345,1282,1249,1250
,,,,,,,,,
,,,,,,,,,
CA Traffic,,,,,,,,,VDA-net R2 14/02/2020
