Site Number,00008021,Unnamed: 2,Site Reference,00008021.1,Unnamed: 5,Unnamed: 6,Lat/Lng.,"52.05925,1.20006",Unnamed: 9
Radar 8021 Heath Road Ipswich,,,,,,,,,
Vehicle Count Report,,,,Week Begin: 09 December 2019,,,Channel:,Total Flow,
,,,,,,,,,
,,,,,,,,,
,2019-12-09 00:00:00,2019-12-10 00:00:00,2019-12-11 00:00:00,2019-12-12 00:00:00,2019-12-13 00:00:00,2019-12-14 00:00:00,2019-12-15 00:00:00,"5-Day
Ave.","7-Day
Ave."
00:00:00,2,2,2,1,2,4,7,2,3
00:01:00,3,3,0,0,1,5,2,1,2
00:02:00,0,1,1,0,2,5,3,1,2
00:03:00,1,3,2,1,3,4,2,2,2
00:04:00,0,3,0,2,2,2,2,1,2
00:05:00,2,5,3,3,2,6,3,3,3
00:06:00,0,2,1,0,2,7,3,1,2
00:07:00,2,2,2,2,2,4,1,2,2
00:08:00,2,3,0,2,4,5,2,2,3
00:09:00,1,2,2,3,2,2,9,2,3
00:10:00,3,2,0,2,2,5,5,2,3
00:11:00,3,4,1,4,4,2,3,3,3
00:12:00,1,3,1,4,2,3,4,2,3
00:13:00,2,2,0,2,1,5,2,1,2
00:14:00,2,2,1,1,1,6,3,1,2
00:15:00,2,0,1,1,0,2,2,1,1
00:16:00,0,2,0,1,5,0,3,2,2
00:17:00,1,0,0,0,1,5,2,0,1
00:18:00,1,2,2,0,0,6,2,1,2
00:19:00,0,0,0,1,4,0,4,1,1
00:20:00,3,0,0,1,0,5,5,1,2
00:21:00,3,0,1,1,1,3,1,1,1
00:22:00,0,2,1,2,1,3,3,1,2
00:23:00,1,1,0,0,1,6,8,1,2
00:24:00,1,2,0,1,2,7,6,1,3
00:25:00,1,1,2,2,1,4,6,1,2
00:26:00,0,1,2,2,2,4,0,1,2
00:27:00,1,0,2,3,3,4,0,2,2
00:28:00,1,0,2,0,1,5,1,1,1
00:29:00,1,1,1,0,6,3,4,2,2
00:30:00,0,0,0,1,0,1,7,0,1
00:31:00,0,0,0,0,2,1,0,0,0
00:32:00,0,1,1,2,1,9,4,1,3
00:33:00,2,1,1,0,0,2,6,1,2
00:34:00,2,1,1,0,3,3,1,1,2
00:35:00,2,2,0,1,2,2,6,1,2
00:36:00,0,0,2,2,0,0,1,1,1
00:37:00,2,1,1,0,2,1,0,1,1
00:38:00,1,0,1,1,2,5,0,1,1
00:39:00,0,0,0,1,3,4,5,1,2
00:40:00,0,0,3,2,1,2,3,1,2
00:41:00,1,2,0,1,1,8,4,1,2
00:42:00,2,2,0,2,0,1,2,1,1
00:43:00,2,1,1,0,0,4,1,1,1
00:44:00,1,0,1,3,1,1,3,1,1
00:45:00,1,3,0,2,0,3,4,1,2
00:46:00,1,0,0,0,0,1,1,0,0
00:47:00,2,1,1,0,2,2,1,1,1
00:48:00,0,1,0,2,1,2,5,1,2
00:49:00,1,0,0,0,2,4,4,1,2
00:50:00,3,3,0,1,1,2,3,2,2
00:51:00,3,1,1,0,1,1,2,1,1
00:52:00,1,1,2,0,1,3,1,1,1
00:53:00,2,0,1,1,0,3,4,1,2
00:54:00,3,1,0,4,0,3,3,2,2
00:55:00,0,0,1,1,0,2,4,0,1
00:56:00,3,0,0,0,2,2,1,1,1
00:57:00,1,0,1,2,0,2,4,1,1
00:58:00,0,1,1,0,1,3,2,1,1
00:59:00,2,0,0,1,0,3,4,1,1
01:00:00,1,0,0,1,0,0,1,0,0
01:01:00,1,0,0,1,3,0,2,1,1
01:02:00,1,1,1,0,0,1,3,1,1
01:03:00,0,1,1,0,3,1,2,1,1
01:04:00,1,0,0,0,1,1,1,0,1
01:05:00,0,2,0,1,0,2,4,1,1
01:06:00,1,0,1,3,0,1,0,1,1
01:07:00,1,1,0,2,0,0,3,1,1
01:08:00,0,1,2,2,1,1,1,1,1
01:09:00,0,1,0,0,1,2,1,0,1
01:10:00,3,1,0,1,1,5,3,1,2
01:11:00,1,0,3,0,0,4,2,1,1
01:12:00,1,0,0,0,1,1,3,0,1
01:13:00,0,2,0,1,0,2,1,1,1
01:14:00,0,1,1,0,1,5,1,1,1
01:15:00,1,1,0,0,1,3,6,1,2
01:16:00,0,1,1,0,1,2,3,1,1
01:17:00,3,0,1,0,1,1,1,1,1
01:18:00,0,3,2,0,0,2,0,1,1
01:19:00,0,0,2,2,0,1,1,1,1
01:20:00,0,0,1,0,0,1,2,0,1
01:21:00,1,0,2,0,1,2,0,1,1
01:22:00,1,0,0,0,0,4,2,0,1
01:23:00,0,0,0,2,1,1,2,1,1
01:24:00,0,1,1,1,0,2,0,1,1
01:25:00,1,1,1,0,0,3,2,1,1
01:26:00,0,1,0,0,0,3,2,0,1
01:27:00,1,1,1,3,2,1,2,2,2
01:28:00,1,0,2,0,0,1,0,1,1
01:29:00,0,0,1,0,1,1,2,0,1
01:30:00,1,0,1,1,0,2,1,1,1
01:31:00,1,0,0,0,0,2,4,0,1
01:32:00,0,0,0,1,0,0,1,0,0
01:33:00,0,0,1,0,0,2,1,0,1
01:34:00,0,0,0,2,1,0,1,1,1
01:35:00,1,0,0,0,2,1,1,1,1
01:36:00,0,1,0,2,2,0,1,1,1
01:37:00,0,0,0,0,0,1,1,0,0
01:38:00,1,0,0,1,0,1,3,0,1
01:39:00,1,0,0,0,1,0,1,0,0
01:40:00,0,0,1,0,0,0,0,0,0
01:41:00,0,0,1,1,1,0,1,1,1
01:42:00,1,1,2,0,1,0,1,1,1
01:43:00,1,1,0,0,0,4,1,0,1
01:44:00,0,3,3,0,1,0,1,1,1
01:45:00,3,0,0,0,0,2,0,1,1
01:46:00,0,1,0,1,1,1,3,1,1
01:47:00,1,0,1,1,0,3,2,1,1
01:48:00,0,2,2,0,0,0,1,1,1
01:49:00,0,1,1,1,1,2,1,1,1
01:50:00,2,0,0,2,2,1,3,1,1
01:51:00,1,0,2,0,0,0,1,1,1
01:52:00,2,0,1,1,0,2,3,1,1
01:53:00,0,0,0,0,1,0,2,0,0
01:54:00,0,0,0,1,1,1,1,0,1
01:55:00,3,0,0,1,0,3,1,1,1
01:56:00,0,0,0,0,2,2,1,0,1
01:57:00,0,1,1,0,0,1,1,0,1
01:58:00,1,1,1,0,0,2,0,1,1
01:59:00,0,0,1,0,0,2,0,0,0
02:00:00,0,0,0,1,0,2,0,0,0
02:01:00,1,2,1,0,1,0,0,1,1
02:02:00,0,1,1,1,0,0,2,1,1
02:03:00,1,0,0,2,2,1,1,1,1
02:04:00,1,0,0,2,0,0,1,1,1
02:05:00,0,2,2,0,1,0,2,1,1
02:06:00,2,2,3,1,2,2,0,2,2
02:07:00,1,1,0,0,2,2,2,1,1
02:08:00,0,1,0,1,1,2,3,1,1
02:09:00,0,2,0,0,2,1,2,1,1
02:10:00,0,0,0,0,1,0,0,0,0
02:11:00,1,0,1,0,1,2,0,1,1
02:12:00,0,1,0,0,1,3,1,0,1
02:13:00,1,0,0,0,0,0,0,0,0
02:14:00,0,0,0,1,2,0,0,1,0
02:15:00,1,1,0,1,0,1,0,1,1
02:16:00,0,1,0,0,0,0,1,0,0
02:17:00,1,1,0,1,1,0,0,1,1
02:18:00,0,0,0,0,0,0,0,0,0
02:19:00,0,0,4,1,0,1,0,1,1
02:20:00,0,1,1,1,2,1,2,1,1
02:21:00,2,0,1,1,1,1,0,1,1
02:22:00,0,0,0,1,0,0,0,0,0
02:23:00,0,2,0,1,1,3,0,1,1
02:24:00,0,1,1,1,0,4,1,1,1
02:25:00,1,0,3,0,1,3,0,1,1
02:26:00,1,0,1,0,0,1,1,0,1
02:27:00,1,0,1,1,0,0,3,1,1
02:28:00,0,0,2,0,0,0,1,0,0
02:29:00,1,1,0,0,0,2,2,0,1
02:30:00,3,1,0,0,0,2,0,1,1
02:31:00,0,0,0,0,0,0,1,0,0
02:32:00,0,0,0,0,0,1,3,0,1
02:33:00,2,0,1,0,1,1,2,1,1
02:34:00,0,0,0,0,0,1,2,0,0
02:35:00,2,0,1,1,0,1,2,1,1
02:36:00,0,0,0,1,1,0,1,0,0
02:37:00,1,0,0,2,1,2,0,1,1
02:38:00,0,0,1,0,0,0,0,0,0
02:39:00,0,0,0,0,1,0,0,0,0
02:40:00,0,1,0,0,0,1,1,0,0
02:41:00,1,2,0,1,1,3,2,1,1
02:42:00,0,0,2,0,0,0,3,0,1
02:43:00,0,0,0,0,0,0,3,0,0
02:44:00,2,0,0,0,0,0,2,0,1
02:45:00,1,0,0,1,1,3,0,1,1
02:46:00,0,0,0,0,0,1,0,0,0
02:47:00,1,0,2,0,0,1,1,1,1
02:48:00,0,0,0,0,0,3,3,0,1
02:49:00,1,0,0,2,1,1,0,1,1
02:50:00,0,1,0,0,1,2,0,0,1
02:51:00,0,0,1,0,0,1,0,0,0
02:52:00,0,0,0,1,1,2,4,0,1
02:53:00,0,1,1,0,1,0,1,1,1
02:54:00,0,1,1,2,1,1,0,1,1
02:55:00,0,0,1,1,0,0,0,0,0
02:56:00,0,1,0,0,0,1,0,0,0
02:57:00,0,0,0,0,0,1,1,0,0
02:58:00,0,1,1,0,0,1,0,0,0
02:59:00,0,0,0,0,0,2,1,0,0
03:00:00,1,0,0,0,1,0,1,0,0
03:01:00,0,1,0,0,0,2,0,0,0
03:02:00,0,0,1,0,0,1,0,0,0
03:03:00,1,0,1,1,0,0,0,1,0
03:04:00,0,0,0,1,0,1,2,0,1
03:05:00,0,0,0,0,0,0,0,0,0
03:06:00,0,1,1,0,1,0,1,1,1
03:07:00,0,0,1,0,1,1,1,0,1
03:08:00,2,0,2,0,2,0,0,1,1
03:09:00,1,0,0,0,0,0,2,0,0
03:10:00,0,0,0,1,1,0,1,0,0
03:11:00,0,0,0,0,0,1,0,0,0
03:12:00,2,0,0,0,0,2,0,0,1
03:13:00,0,0,0,0,1,2,1,0,1
03:14:00,2,0,1,0,0,2,0,1,1
03:15:00,1,0,3,1,0,0,0,1,1
03:16:00,0,1,0,0,0,1,0,0,0
03:17:00,1,0,3,0,0,2,2,1,1
03:18:00,0,0,2,1,1,1,1,1,1
03:19:00,0,0,0,2,0,0,1,0,0
03:20:00,0,0,0,1,0,0,1,0,0
03:21:00,0,2,0,1,2,2,1,1,1
03:22:00,0,0,0,2,0,1,2,0,1
03:23:00,1,0,1,1,1,1,0,1,1
03:24:00,0,0,0,0,0,0,4,0,1
03:25:00,1,0,0,0,0,1,0,0,0
03:26:00,3,0,1,0,0,1,2,1,1
03:27:00,0,0,0,0,0,0,0,0,0
03:28:00,1,0,0,0,1,0,0,0,0
03:29:00,0,2,1,0,0,1,1,1,1
03:30:00,2,0,0,0,0,1,0,0,0
03:31:00,1,1,1,0,1,0,0,1,1
03:32:00,1,0,0,2,2,0,0,1,1
03:33:00,1,2,1,2,0,0,0,1,1
03:34:00,0,0,1,0,3,1,1,1,1
03:35:00,0,0,1,0,0,0,1,0,0
03:36:00,1,0,0,0,2,0,1,1,1
03:37:00,0,0,0,0,0,0,2,0,0
03:38:00,1,0,0,0,1,1,0,0,0
03:39:00,1,0,0,0,1,0,1,0,0
03:40:00,1,0,0,0,2,0,0,1,0
03:41:00,1,1,0,0,2,0,1,1,1
03:42:00,0,0,0,1,1,1,1,0,1
03:43:00,0,0,0,0,1,0,1,0,0
03:44:00,0,1,0,0,1,0,1,0,0
03:45:00,0,2,0,1,0,2,2,1,1
03:46:00,0,0,0,0,0,4,0,0,1
03:47:00,0,2,2,1,1,0,0,1,1
03:48:00,3,2,0,1,0,2,2,1,1
03:49:00,1,1,0,0,1,0,1,1,1
03:50:00,0,0,0,1,2,3,2,1,1
03:51:00,2,0,1,2,2,0,1,1,1
03:52:00,0,0,0,0,1,2,1,0,1
03:53:00,1,0,1,0,0,1,0,0,0
03:54:00,0,0,0,1,0,0,2,0,0
03:55:00,1,2,0,1,0,0,0,1,1
03:56:00,0,0,1,0,0,0,0,0,0
03:57:00,2,1,0,1,1,0,1,1,1
03:58:00,2,2,1,1,2,0,0,2,1
03:59:00,0,2,2,1,0,1,2,1,1
04:00:00,0,1,0,0,0,1,2,0,1
04:01:00,1,0,1,0,0,1,1,0,1
04:02:00,2,1,0,0,0,0,1,1,1
04:03:00,0,0,0,0,1,2,1,0,1
04:04:00,1,0,1,1,0,0,0,1,0
04:05:00,1,0,0,2,1,0,0,1,1
04:06:00,1,0,0,3,1,2,1,1,1
04:07:00,0,0,0,1,0,0,1,0,0
04:08:00,1,0,0,0,2,0,0,1,0
04:09:00,0,0,1,1,0,1,0,0,0
04:10:00,1,3,1,0,0,0,1,1,1
04:11:00,1,0,0,1,0,0,0,0,0
04:12:00,1,1,0,0,0,0,0,0,0
04:13:00,0,0,0,1,0,0,0,0,0
04:14:00,1,1,0,0,0,0,1,0,0
04:15:00,1,0,0,1,1,0,1,1,1
04:16:00,2,1,0,0,1,0,0,1,1
04:17:00,0,0,1,1,3,0,1,1,1
04:18:00,2,0,2,2,3,1,0,2,1
04:19:00,0,0,0,2,0,0,4,0,1
04:20:00,0,1,2,1,0,0,0,1,1
04:21:00,1,0,0,1,0,1,2,0,1
04:22:00,1,1,0,0,1,0,1,1,1
04:23:00,1,0,1,3,2,1,1,1,1
04:24:00,0,2,0,1,0,0,0,1,0
04:25:00,1,4,2,1,0,1,1,2,1
04:26:00,0,1,1,1,0,2,0,1,1
04:27:00,2,1,0,0,1,0,0,1,1
04:28:00,0,2,0,0,0,2,1,0,1
04:29:00,1,2,1,1,1,0,1,1,1
04:30:00,1,0,0,2,0,4,0,1,1
04:31:00,1,0,1,0,0,1,1,0,1
04:32:00,1,2,0,2,1,0,1,1,1
04:33:00,2,1,1,1,1,0,0,1,1
04:34:00,2,0,4,0,1,0,4,1,2
04:35:00,1,0,1,3,0,2,1,1,1
04:36:00,1,2,1,1,1,1,1,1,1
04:37:00,2,2,2,1,1,1,0,2,1
04:38:00,1,4,0,2,0,1,1,1,1
04:39:00,1,1,2,1,1,2,1,1,1
04:40:00,1,0,0,1,0,2,0,0,1
04:41:00,0,3,0,1,1,1,0,1,1
04:42:00,1,2,1,1,2,1,1,1,1
04:43:00,3,0,1,1,1,0,4,1,1
04:44:00,2,1,2,2,2,1,4,2,2
04:45:00,2,0,2,2,1,1,0,1,1
04:46:00,0,2,1,0,0,1,0,1,1
04:47:00,0,1,1,1,2,3,1,1,1
04:48:00,2,0,3,0,0,0,1,1,1
04:49:00,2,0,2,0,0,3,1,1,1
04:50:00,4,0,0,2,2,0,1,2,1
04:51:00,0,0,2,1,0,1,2,1,1
04:52:00,1,1,2,3,1,0,0,2,1
04:53:00,0,1,3,2,1,0,2,1,1
04:54:00,2,2,3,1,3,1,1,2,2
04:55:00,5,0,4,3,1,0,3,3,2
04:56:00,3,3,2,1,2,0,1,2,2
04:57:00,1,2,1,2,0,1,0,1,1
04:58:00,2,0,0,0,1,3,0,1,1
04:59:00,0,2,0,1,0,1,1,1,1
05:00:00,1,0,1,1,2,0,0,1,1
05:01:00,0,2,0,2,1,0,0,1,1
05:02:00,2,0,1,0,0,0,2,1,1
05:03:00,1,0,1,1,1,0,0,1,1
05:04:00,1,2,1,0,2,2,0,1,1
05:05:00,1,2,2,0,0,1,1,1,1
05:06:00,0,2,2,3,1,0,1,2,1
05:07:00,3,1,0,1,1,2,1,1,1
05:08:00,1,1,2,0,1,0,2,1,1
05:09:00,2,0,3,0,2,3,0,1,1
05:10:00,4,1,1,3,0,3,0,2,2
05:11:00,0,1,2,1,0,0,1,1,1
05:12:00,3,3,0,2,2,0,0,2,1
05:13:00,0,2,1,0,0,0,2,1,1
05:14:00,1,2,3,4,2,2,1,2,2
05:15:00,2,0,1,2,0,0,0,1,1
05:16:00,3,3,0,1,0,0,1,1,1
05:17:00,0,4,2,2,1,1,0,2,1
05:18:00,0,1,0,0,1,2,1,0,1
05:19:00,2,0,3,2,0,3,0,1,1
05:20:00,1,4,1,3,1,0,2,2,2
05:21:00,2,1,4,1,4,1,1,2,2
05:22:00,2,0,2,0,0,1,1,1,1
05:23:00,4,0,1,1,1,2,0,1,1
05:24:00,4,3,1,4,0,2,1,2,2
05:25:00,1,0,0,1,0,0,0,0,0
05:26:00,4,2,1,1,1,0,1,2,1
05:27:00,0,1,2,3,3,1,1,2,2
05:28:00,8,4,5,1,1,0,0,4,3
05:29:00,4,2,3,2,3,2,1,3,2
05:30:00,3,1,2,2,4,1,0,2,2
05:31:00,2,4,2,3,2,4,1,3,3
05:32:00,2,4,6,1,5,2,2,4,3
05:33:00,1,2,1,1,1,1,2,1,1
05:34:00,2,1,4,4,3,3,2,3,3
05:35:00,1,0,5,4,3,0,0,3,2
05:36:00,1,1,0,4,2,1,0,2,1
05:37:00,3,7,2,2,1,2,0,3,2
05:38:00,2,3,2,3,5,4,2,3,3
05:39:00,3,5,4,4,6,2,3,4,4
05:40:00,5,9,6,0,3,2,3,5,4
05:41:00,4,2,3,4,1,5,0,3,3
05:42:00,3,5,5,4,2,3,1,4,3
05:43:00,5,2,1,4,0,1,0,2,2
05:44:00,5,6,4,4,4,1,2,5,4
05:45:00,5,2,4,4,0,3,1,3,3
05:46:00,8,7,5,4,4,3,1,6,5
05:47:00,5,7,4,1,1,1,1,4,3
05:48:00,3,8,6,2,5,0,0,5,3
05:49:00,5,5,6,5,3,3,1,5,4
05:50:00,4,4,4,3,3,0,3,4,3
05:51:00,1,2,3,2,2,1,1,2,2
05:52:00,2,5,3,4,2,2,0,3,3
05:53:00,3,5,4,6,2,0,1,4,3
05:54:00,3,6,7,3,2,1,2,4,3
05:55:00,6,5,5,5,2,0,4,5,4
05:56:00,4,3,3,1,4,4,0,3,3
05:57:00,3,6,5,2,5,4,1,4,4
05:58:00,1,1,2,1,3,0,0,2,1
05:59:00,1,4,3,5,3,1,1,3,3
06:00:00,3,4,5,1,3,4,0,3,3
06:01:00,3,3,2,3,1,2,0,2,2
06:02:00,4,2,4,5,4,3,2,4,3
06:03:00,3,6,1,3,4,5,4,3,4
06:04:00,3,2,4,2,5,1,2,3,3
06:05:00,7,6,3,6,2,2,1,5,4
06:06:00,4,4,3,1,3,4,4,3,3
06:07:00,2,5,7,5,3,3,1,4,4
06:08:00,3,8,4,4,8,3,2,5,5
06:09:00,4,6,0,3,6,4,3,4,4
06:10:00,1,2,5,4,1,3,2,3,3
06:11:00,6,2,7,6,6,4,0,5,4
06:12:00,3,4,2,1,2,1,2,2,2
06:13:00,3,7,2,6,7,4,4,5,5
06:14:00,2,7,5,4,4,3,1,4,4
06:15:00,4,6,6,2,1,5,4,4,4
06:16:00,4,10,6,6,5,2,3,6,5
06:17:00,9,8,1,8,10,6,3,7,6
06:18:00,3,8,5,8,4,3,3,6,5
06:19:00,12,2,6,6,4,3,1,6,5
06:20:00,4,6,3,7,2,4,1,4,4
06:21:00,4,8,7,4,4,1,2,5,4
06:22:00,8,5,2,9,5,6,3,6,5
06:23:00,6,5,9,3,5,2,6,6,5
06:24:00,6,5,2,14,2,8,3,6,6
06:25:00,2,7,6,6,2,6,4,5,5
06:26:00,5,7,6,7,5,1,2,6,5
06:27:00,8,12,10,3,6,5,6,8,7
06:28:00,10,8,1,11,9,1,1,8,6
06:29:00,2,6,14,4,3,4,1,6,5
06:30:00,9,5,7,1,7,2,2,6,5
06:31:00,2,10,4,11,3,7,1,6,5
06:32:00,6,5,10,6,5,2,0,6,5
06:33:00,8,6,7,4,9,5,3,7,6
06:34:00,8,8,5,12,3,2,5,7,6
06:35:00,8,5,9,9,8,6,1,8,7
06:36:00,5,20,11,7,8,6,2,10,8
06:37:00,6,12,9,14,11,7,2,10,9
06:38:00,12,5,5,12,7,6,4,8,7
06:39:00,4,12,10,9,6,6,4,8,7
06:40:00,6,11,11,7,7,4,4,8,7
06:41:00,8,10,9,4,9,4,10,8,8
06:42:00,9,10,6,8,6,2,4,8,6
06:43:00,9,10,7,9,3,6,8,8,7
06:44:00,8,10,10,9,5,9,7,8,8
06:45:00,7,13,15,8,7,8,4,10,9
06:46:00,10,10,8,8,8,7,6,9,8
06:47:00,7,13,12,7,5,6,4,9,8
06:48:00,8,10,9,7,6,3,2,8,6
06:49:00,11,11,7,4,9,2,2,8,7
06:50:00,3,5,7,13,8,3,2,7,6
06:51:00,11,17,12,12,12,7,4,13,11
06:52:00,12,17,13,9,9,2,1,12,9
06:53:00,9,15,17,15,6,6,6,12,11
06:54:00,5,24,23,8,10,5,7,14,12
06:55:00,10,19,9,9,8,10,2,11,10
06:56:00,10,15,9,10,9,5,3,11,9
06:57:00,11,7,12,10,8,9,4,10,9
06:58:00,16,9,11,14,7,8,2,11,10
06:59:00,8,12,13,10,8,7,2,10,9
07:00:00,11,11,8,15,6,7,1,10,8
07:01:00,6,6,12,6,8,4,3,8,6
07:02:00,13,14,12,18,7,3,0,13,10
07:03:00,8,7,10,3,6,5,6,7,6
07:04:00,10,16,12,7,12,10,5,11,10
07:05:00,10,13,9,8,12,6,2,10,9
07:06:00,11,10,11,10,12,3,3,11,9
07:07:00,17,13,13,5,11,7,2,12,10
07:08:00,11,13,15,9,10,3,6,12,10
07:09:00,12,17,19,11,14,13,3,15,13
07:10:00,7,22,20,17,8,6,5,15,12
07:11:00,17,22,21,13,11,9,4,17,14
07:12:00,14,19,14,18,6,5,4,14,11
07:13:00,18,7,9,19,16,6,6,14,12
07:14:00,12,20,7,19,16,4,7,15,12
07:15:00,16,12,19,16,10,4,4,15,12
07:16:00,18,22,23,17,16,10,2,19,15
07:17:00,21,23,17,11,19,5,8,18,15
07:18:00,23,15,22,21,9,9,4,18,15
07:19:00,11,14,16,16,17,7,3,15,12
07:20:00,17,18,16,17,9,8,6,15,13
07:21:00,18,22,24,18,14,11,6,19,16
07:22:00,17,19,9,19,20,11,8,17,15
07:23:00,15,24,13,10,15,2,3,15,12
07:24:00,18,16,17,23,9,9,7,17,14
07:25:00,17,19,12,11,16,8,2,15,12
07:26:00,23,20,20,24,11,8,1,20,15
07:27:00,24,29,19,23,15,11,9,22,19
07:28:00,16,21,23,10,24,9,3,19,15
07:29:00,20,17,22,21,14,7,4,19,15
07:30:00,17,23,13,22,21,11,4,19,16
07:31:00,21,18,19,19,17,7,8,19,16
07:32:00,23,23,21,24,12,8,4,21,16
07:33:00,22,20,18,21,17,11,5,20,16
07:34:00,21,16,15,17,15,9,5,17,14
07:35:00,18,20,13,19,22,13,5,18,16
07:36:00,29,20,21,20,15,6,5,21,17
07:37:00,22,19,20,20,18,14,5,20,17
07:38:00,13,11,22,19,14,5,11,16,14
07:39:00,30,32,19,24,11,7,4,23,18
07:40:00,21,23,17,24,11,9,5,19,16
07:41:00,18,26,15,22,12,14,6,19,16
07:42:00,25,26,17,9,11,6,6,18,14
07:43:00,20,27,17,18,25,9,5,21,17
07:44:00,26,19,18,24,13,17,5,20,17
07:45:00,16,31,16,25,15,11,7,21,17
07:46:00,18,30,14,15,14,9,7,18,15
07:47:00,27,17,17,18,21,9,7,20,17
07:48:00,24,19,13,17,17,13,11,18,16
07:49:00,14,14,26,24,13,8,5,18,15
07:50:00,21,15,14,21,10,15,5,16,14
07:51:00,24,23,23,21,16,7,5,21,17
07:52:00,13,23,21,23,23,8,4,21,16
07:53:00,29,22,23,22,18,12,7,23,19
07:54:00,21,20,19,28,14,11,8,20,17
07:55:00,23,24,25,29,8,16,9,22,19
07:56:00,25,19,20,12,23,8,4,20,16
07:57:00,24,29,26,23,17,7,5,24,19
07:58:00,30,18,28,18,16,11,9,22,19
07:59:00,24,23,26,22,13,16,7,22,19
08:00:00,20,22,16,17,25,10,4,20,16
08:01:00,18,28,20,25,19,13,4,22,18
08:02:00,24,24,21,22,13,10,4,21,17
08:03:00,25,23,22,21,17,12,7,22,18
08:04:00,23,24,20,23,13,11,8,21,17
08:05:00,26,24,18,15,17,14,5,20,17
08:06:00,12,20,17,22,15,8,3,17,14
08:07:00,19,23,26,16,10,10,5,19,16
08:08:00,23,22,25,24,16,11,9,22,19
08:09:00,20,27,17,20,10,5,7,19,15
08:10:00,17,22,22,20,15,7,8,19,16
08:11:00,21,20,17,12,15,14,4,17,15
08:12:00,18,18,25,16,13,9,3,18,15
08:13:00,11,27,29,10,18,5,9,19,16
08:14:00,22,23,21,18,21,4,7,21,17
08:15:00,23,17,20,19,24,12,7,21,17
08:16:00,22,23,25,17,24,6,6,22,18
08:17:00,30,20,17,17,17,11,3,20,16
08:18:00,25,29,20,26,16,10,6,23,19
08:19:00,18,29,19,17,17,9,4,20,16
08:20:00,23,27,9,22,17,13,2,20,16
08:21:00,13,22,20,15,14,14,7,17,15
08:22:00,22,31,33,15,13,15,5,23,19
08:23:00,19,18,22,35,21,17,7,23,20
08:24:00,23,33,20,19,12,9,4,21,17
08:25:00,15,24,23,18,12,11,4,18,15
08:26:00,18,25,25,20,14,20,8,20,19
08:27:00,15,21,23,17,17,5,6,19,15
08:28:00,16,29,12,16,19,7,7,18,15
08:29:00,16,18,23,20,20,11,3,19,16
08:30:00,20,24,22,20,19,13,1,21,17
08:31:00,28,22,22,19,17,9,5,22,17
08:32:00,21,12,17,21,19,8,5,18,15
08:33:00,21,22,24,20,22,12,6,22,18
08:34:00,26,28,18,27,16,17,3,23,19
08:35:00,14,16,23,14,16,22,4,17,16
08:36:00,27,18,29,14,10,10,2,20,16
08:37:00,18,24,20,22,19,17,5,21,18
08:38:00,28,22,21,27,17,9,7,23,19
08:39:00,21,17,13,20,20,18,3,18,16
08:40:00,11,24,19,25,11,24,7,18,17
08:41:00,26,28,13,17,21,13,12,21,19
08:42:00,22,23,21,24,14,15,3,21,17
08:43:00,18,18,29,27,26,11,3,24,19
08:44:00,31,18,17,23,12,10,8,20,17
08:45:00,25,33,21,22,17,21,5,24,21
08:46:00,17,23,22,22,14,8,4,20,16
08:47:00,19,23,19,16,15,20,6,18,17
08:48:00,27,23,18,15,10,14,5,19,16
08:49:00,23,16,18,27,21,16,5,21,18
08:50:00,22,22,22,24,11,17,5,20,18
08:51:00,22,20,25,19,12,18,3,20,17
08:52:00,23,23,23,23,17,23,10,22,20
08:53:00,23,19,16,20,23,14,6,20,17
08:54:00,16,17,28,19,20,20,7,20,18
08:55:00,28,26,21,18,17,13,8,22,19
08:56:00,27,25,31,22,19,18,7,25,21
08:57:00,27,23,27,21,21,14,5,24,20
08:58:00,22,26,30,29,18,6,5,25,19
08:59:00,30,17,21,23,24,9,3,23,18
09:00:00,20,23,23,27,20,11,4,23,18
09:01:00,25,28,29,20,19,9,8,24,20
09:02:00,19,16,22,27,22,16,10,21,19
09:03:00,20,28,22,18,22,8,11,22,18
09:04:00,19,25,21,22,19,14,11,21,19
09:05:00,19,31,17,22,18,11,7,21,18
09:06:00,30,31,21,14,18,20,13,23,21
09:07:00,22,22,24,24,22,5,11,23,19
09:08:00,23,26,19,17,15,8,8,20,17
09:09:00,17,11,28,25,24,20,9,21,19
09:10:00,19,21,16,25,20,17,11,20,18
09:11:00,30,24,25,23,19,19,3,24,20
09:12:00,13,20,23,21,21,14,7,20,17
09:13:00,20,21,20,34,19,17,10,23,20
09:14:00,30,27,22,23,17,18,9,24,21
09:15:00,32,20,24,28,11,13,17,23,21
09:16:00,18,20,24,24,20,12,12,21,19
09:17:00,19,27,19,15,17,11,12,19,17
09:18:00,22,20,20,18,23,12,15,21,19
09:19:00,14,23,21,19,18,21,7,19,18
09:20:00,21,21,20,20,10,13,14,18,17
09:21:00,26,23,21,22,15,17,11,21,19
09:22:00,17,15,24,18,20,22,5,19,17
09:23:00,25,24,22,22,17,17,10,22,20
09:24:00,27,18,17,29,16,15,9,21,19
09:25:00,18,32,21,21,16,19,8,22,19
09:26:00,31,14,21,20,18,8,13,21,18
09:27:00,23,21,20,25,12,16,14,20,19
09:28:00,20,18,15,16,21,11,7,18,15
09:29:00,16,15,19,24,14,23,5,18,17
09:30:00,25,17,26,24,19,11,15,22,20
09:31:00,29,23,18,22,16,22,11,22,20
09:32:00,17,21,23,31,20,18,9,22,20
09:33:00,31,24,16,29,19,12,5,24,19
09:34:00,21,18,20,31,19,17,13,22,20
09:35:00,21,25,20,20,20,16,7,21,18
09:36:00,28,20,24,25,15,17,9,22,20
09:37:00,21,21,24,22,18,10,15,21,19
09:38:00,20,12,15,25,12,21,10,17,16
09:39:00,27,18,21,20,13,23,7,20,18
09:40:00,24,25,24,27,17,20,10,23,21
09:41:00,14,23,23,30,21,13,9,22,19
09:42:00,14,23,20,29,23,12,13,22,19
09:43:00,24,20,24,28,18,30,12,23,22
09:44:00,23,17,22,21,19,19,16,20,20
09:45:00,27,20,17,31,19,20,16,23,21
09:46:00,29,29,22,17,16,13,15,23,20
09:47:00,28,21,23,15,20,23,21,21,22
09:48:00,25,24,34,18,21,23,18,24,23
09:49:00,15,28,22,14,14,18,14,19,18
09:50:00,26,20,19,30,19,20,15,23,21
09:51:00,23,21,14,24,18,31,15,20,21
09:52:00,30,26,21,21,15,25,11,23,21
09:53:00,15,31,24,21,31,20,18,24,23
09:54:00,25,27,27,32,15,32,17,25,25
09:55:00,16,28,22,25,17,14,26,22,21
09:56:00,19,21,25,15,21,22,17,20,20
09:57:00,21,10,16,24,20,17,17,18,18
09:58:00,26,25,21,21,18,32,20,22,23
09:59:00,26,24,26,19,26,20,16,24,22
10:00:00,20,24,25,18,11,22,15,20,19
10:01:00,29,19,25,26,18,25,28,23,24
10:02:00,23,26,27,18,22,14,11,23,20
10:03:00,12,24,15,16,28,25,12,19,19
10:04:00,21,27,21,16,23,20,11,22,20
10:05:00,25,25,28,16,11,22,10,21,20
10:06:00,27,17,21,21,13,27,18,20,21
10:07:00,17,18,14,19,13,14,6,16,14
10:08:00,19,23,21,21,13,14,20,19,19
10:09:00,20,28,14,13,21,26,15,19,20
10:10:00,20,17,15,17,16,15,13,17,16
10:11:00,21,20,14,26,27,26,19,22,22
10:12:00,24,21,21,29,17,21,20,22,22
10:13:00,26,17,20,18,27,8,12,22,18
10:14:00,21,21,31,30,19,26,21,24,24
10:15:00,21,18,24,23,17,19,17,21,20
10:16:00,22,32,30,28,15,17,21,25,24
10:17:00,24,24,19,25,22,18,7,23,20
10:18:00,22,20,26,18,10,23,22,19,20
10:19:00,16,25,22,26,26,13,16,23,21
10:20:00,21,21,21,25,21,15,31,22,22
10:21:00,24,31,13,23,8,22,17,20,20
10:22:00,26,20,28,21,17,20,17,22,21
10:23:00,30,23,22,32,16,13,24,25,23
10:24:00,16,23,21,17,14,18,15,18,18
10:25:00,25,21,23,26,18,26,21,23,23
10:26:00,23,27,22,20,13,21,22,21,21
10:27:00,20,20,20,26,12,18,21,20,20
10:28:00,27,18,28,18,17,16,17,22,20
10:29:00,23,20,22,22,16,25,15,21,20
10:30:00,25,20,17,29,21,20,17,22,21
10:31:00,23,21,26,23,17,22,22,22,22
10:32:00,25,21,17,20,20,16,19,21,20
10:33:00,24,28,28,22,25,13,16,25,22
10:34:00,20,29,20,24,16,20,21,22,21
10:35:00,21,25,26,33,25,19,16,26,24
10:36:00,14,17,24,23,18,21,13,19,19
10:37:00,26,18,25,22,17,18,20,22,21
10:38:00,23,27,15,27,26,23,18,24,23
10:39:00,25,17,18,28,25,18,18,23,21
10:40:00,21,22,18,23,20,31,18,21,22
10:41:00,20,16,21,22,20,21,31,20,22
10:42:00,28,32,15,26,17,20,16,24,22
10:43:00,18,31,20,10,14,24,14,19,19
10:44:00,29,24,27,23,20,26,17,25,24
10:45:00,24,24,22,27,21,12,15,24,21
10:46:00,23,23,25,24,24,21,19,24,23
10:47:00,23,17,26,25,25,17,18,23,22
10:48:00,21,26,19,25,25,17,15,23,21
10:49:00,27,21,27,22,17,19,22,23,22
10:50:00,21,20,24,15,24,20,23,21,21
10:51:00,27,28,21,28,23,26,19,25,25
10:52:00,23,16,21,27,18,13,12,21,19
10:53:00,30,28,26,23,21,14,15,26,22
10:54:00,32,31,27,21,29,28,25,28,28
10:55:00,22,21,20,24,23,18,15,22,20
10:56:00,30,21,19,22,26,20,28,24,24
10:57:00,20,30,20,18,16,17,17,21,20
10:58:00,27,19,24,18,23,22,15,22,21
10:59:00,24,25,26,32,20,20,11,25,23
11:00:00,18,22,22,17,25,21,18,21,20
11:01:00,20,27,34,25,19,25,18,25,24
11:02:00,21,23,24,24,20,22,23,22,22
11:03:00,26,15,25,27,26,25,15,24,23
11:04:00,25,23,22,22,27,24,22,24,24
11:05:00,22,22,15,18,21,27,18,20,20
11:06:00,19,17,21,21,20,29,19,20,21
11:07:00,22,17,24,16,23,16,12,20,19
11:08:00,21,23,19,29,19,22,19,22,22
11:09:00,21,25,12,14,16,29,16,18,19
11:10:00,22,24,20,24,18,13,18,22,20
11:11:00,26,26,26,26,17,18,22,24,23
11:12:00,21,17,12,24,14,18,28,18,19
11:13:00,20,17,22,20,16,18,22,19,19
11:14:00,26,19,25,14,28,24,20,22,22
11:15:00,19,19,23,25,26,21,11,22,21
11:16:00,22,19,26,20,17,21,11,21,19
11:17:00,26,15,33,20,21,16,23,23,22
11:18:00,24,19,25,24,17,22,11,22,20
11:19:00,22,16,23,19,20,17,24,20,20
11:20:00,28,30,26,23,30,20,23,27,26
11:21:00,18,18,17,20,17,19,21,18,19
11:22:00,19,23,18,20,25,15,16,21,19
11:23:00,24,24,26,15,21,23,16,22,21
11:24:00,17,25,12,20,22,14,25,19,19
11:25:00,15,14,25,26,15,17,15,19,18
11:26:00,15,24,21,28,23,17,12,22,20
11:27:00,17,16,17,20,29,10,20,20,18
11:28:00,33,22,27,25,19,11,18,25,22
11:29:00,17,26,30,23,21,23,12,23,22
11:30:00,17,19,21,25,20,17,14,20,19
11:31:00,19,16,24,20,21,19,18,20,20
11:32:00,21,28,26,28,25,17,23,26,24
11:33:00,20,12,27,25,17,14,15,20,19
11:34:00,24,24,24,16,27,13,24,23,22
11:35:00,19,23,21,26,29,20,18,24,22
11:36:00,21,23,19,28,19,9,15,22,19
11:37:00,18,30,24,14,26,21,22,22,22
11:38:00,17,21,19,19,26,19,20,20,20
11:39:00,20,26,24,18,19,12,12,21,19
11:40:00,22,25,21,25,19,18,16,22,21
11:41:00,14,24,25,21,19,15,20,21,20
11:42:00,16,23,21,19,23,21,27,20,21
11:43:00,20,17,17,14,17,21,22,17,18
11:44:00,24,24,21,20,24,17,21,23,22
11:45:00,15,20,17,17,21,21,17,18,18
11:46:00,26,21,16,20,16,17,19,20,19
11:47:00,17,27,21,29,22,18,20,23,22
11:48:00,25,28,23,16,25,21,24,23,23
11:49:00,27,23,22,26,16,10,20,23,21
11:50:00,20,19,21,24,26,15,27,22,22
11:51:00,24,18,29,19,26,17,18,23,22
11:52:00,20,24,29,16,17,10,17,21,19
11:53:00,22,26,21,19,19,23,17,21,21
11:54:00,20,26,22,24,13,21,19,21,21
11:55:00,27,27,22,15,26,17,22,23,22
11:56:00,20,26,14,27,21,21,15,22,21
11:57:00,18,23,19,18,13,21,12,18,18
11:58:00,19,19,25,19,20,19,20,20,20
11:59:00,18,23,24,19,16,19,21,20,20
12:00:00,23,23,20,14,12,19,15,18,18
12:01:00,16,24,31,21,32,19,25,25,24
12:02:00,23,17,21,22,19,24,20,20,21
12:03:00,27,21,21,24,18,12,21,22,21
12:04:00,19,19,21,12,26,22,21,19,20
12:05:00,22,16,26,17,26,9,10,21,18
12:06:00,22,28,24,21,23,17,26,24,23
12:07:00,23,20,26,23,25,22,26,23,24
12:08:00,13,16,19,20,18,12,20,17,17
12:09:00,15,20,25,24,23,20,22,21,21
12:10:00,17,26,27,22,25,19,17,23,22
12:11:00,24,26,24,19,22,20,21,23,22
12:12:00,18,27,24,24,24,19,21,23,22
12:13:00,25,18,18,15,19,18,16,19,18
12:14:00,17,29,25,22,27,22,20,24,23
12:15:00,24,22,19,14,15,22,13,19,18
12:16:00,26,20,21,16,26,22,22,22,22
12:17:00,31,21,26,25,19,19,15,24,22
12:18:00,22,19,18,15,25,15,11,20,18
12:19:00,23,26,23,18,29,20,25,24,23
12:20:00,21,21,24,24,19,13,19,22,20
12:21:00,33,29,26,21,23,18,15,26,24
12:22:00,16,21,28,20,16,12,24,20,20
12:23:00,17,26,13,21,24,21,23,20,21
12:24:00,21,15,26,17,24,19,24,21,21
12:25:00,21,24,21,29,26,16,28,24,24
12:26:00,10,16,15,19,25,16,27,17,18
12:27:00,17,24,19,21,29,23,29,22,23
12:28:00,19,22,26,26,25,15,18,24,22
12:29:00,14,23,23,21,20,24,21,20,21
12:30:00,26,24,21,30,24,23,29,25,25
12:31:00,21,23,30,25,24,17,14,25,22
12:32:00,21,21,25,28,14,19,25,22,22
12:33:00,17,16,19,28,23,24,16,21,20
12:34:00,19,18,22,15,19,13,30,19,19
12:35:00,26,20,19,22,22,10,22,22,20
12:36:00,14,17,27,29,23,17,24,22,22
12:37:00,17,33,19,19,25,12,22,23,21
12:38:00,23,20,15,23,19,22,27,20,21
12:39:00,18,20,21,21,8,19,26,18,19
12:40:00,17,29,26,16,18,25,23,21,22
12:41:00,25,21,21,18,16,16,19,20,19
12:42:00,13,22,28,17,25,21,20,21,21
12:43:00,14,18,26,20,22,22,28,20,21
12:44:00,17,19,17,17,16,18,23,17,18
12:45:00,21,20,16,21,15,17,8,19,17
12:46:00,19,25,19,28,16,20,21,21,21
12:47:00,21,23,22,22,17,18,20,21,20
12:48:00,23,24,24,23,27,20,27,24,24
12:49:00,30,18,20,20,15,12,21,21,19
12:50:00,12,23,31,16,21,19,24,21,21
12:51:00,18,17,27,22,21,23,26,21,22
12:52:00,28,28,27,22,25,20,23,26,25
12:53:00,34,23,11,23,28,22,28,24,24
12:54:00,23,26,21,32,18,16,21,24,22
12:55:00,15,19,35,19,27,22,18,23,22
12:56:00,17,22,19,14,23,12,12,19,17
12:57:00,17,23,21,18,23,28,20,20,21
12:58:00,19,15,27,26,21,22,23,22,22
12:59:00,23,14,16,20,22,10,23,19,18
13:00:00,17,20,16,24,14,21,15,18,18
13:01:00,19,18,20,21,23,19,22,20,20
13:02:00,17,24,15,17,18,14,17,18,17
13:03:00,21,19,31,27,25,11,15,25,21
13:04:00,23,21,20,25,18,18,15,21,20
13:05:00,28,20,20,15,19,20,18,20,20
13:06:00,26,24,23,21,26,21,25,24,24
13:07:00,25,24,26,22,20,18,23,23,23
13:08:00,21,22,21,29,23,16,8,23,20
13:09:00,23,13,20,19,21,18,25,19,20
13:10:00,20,29,22,25,15,13,18,22,20
13:11:00,29,24,17,24,18,18,16,22,21
13:12:00,22,26,25,21,16,20,20,22,21
13:13:00,27,21,19,19,20,19,21,21,21
13:14:00,26,23,22,19,29,17,17,24,22
13:15:00,26,10,21,13,25,18,18,19,19
13:16:00,27,26,22,19,14,22,24,22,22
13:17:00,18,18,17,19,17,15,15,18,17
13:18:00,23,25,26,24,25,26,18,25,24
13:19:00,17,24,21,21,18,17,19,20,20
13:20:00,15,22,28,21,23,17,16,22,20
13:21:00,29,19,24,24,30,24,12,25,23
13:22:00,24,27,15,21,22,22,26,22,22
13:23:00,14,22,32,24,27,18,15,24,22
13:24:00,20,24,21,21,29,24,24,23,23
13:25:00,27,16,26,22,15,18,25,21,21
13:26:00,29,29,21,18,23,20,17,24,22
13:27:00,22,28,23,19,20,19,20,22,22
13:28:00,18,21,24,18,25,21,20,21,21
13:29:00,27,21,23,23,18,22,17,22,22
13:30:00,22,17,18,26,18,15,28,20,21
13:31:00,23,20,26,22,23,18,16,23,21
13:32:00,33,18,22,21,19,18,20,23,22
13:33:00,30,25,19,22,21,29,24,23,24
13:34:00,23,22,28,19,18,20,19,22,21
13:35:00,19,24,26,20,22,22,19,22,22
13:36:00,27,19,20,22,28,24,19,23,23
13:37:00,26,19,29,25,23,23,17,24,23
13:38:00,28,21,25,27,22,24,27,25,25
13:39:00,28,26,24,26,28,15,21,26,24
13:40:00,28,23,24,22,24,20,15,24,22
13:41:00,34,28,25,22,20,20,17,26,24
13:42:00,31,23,26,25,30,14,22,27,24
13:43:00,30,28,18,25,20,11,23,24,22
13:44:00,31,14,29,18,17,26,13,22,21
13:45:00,19,17,29,21,19,24,22,21,22
13:46:00,21,26,26,23,23,26,16,24,23
13:47:00,21,15,21,24,13,20,16,19,19
13:48:00,23,30,17,25,23,20,24,24,23
13:49:00,24,26,26,22,19,20,17,23,22
13:50:00,19,28,25,16,26,16,21,23,22
13:51:00,25,22,26,29,22,17,16,25,22
13:52:00,23,26,31,32,32,17,14,29,25
13:53:00,23,16,22,29,20,20,21,22,22
13:54:00,20,26,18,17,22,26,20,21,21
13:55:00,25,20,17,27,17,21,21,21,21
13:56:00,21,22,24,24,20,27,15,22,22
13:57:00,25,28,19,23,24,20,17,24,22
13:58:00,15,28,23,22,21,20,15,22,21
13:59:00,25,25,29,31,32,20,23,28,26
14:00:00,26,27,19,22,31,35,24,25,26
14:01:00,23,27,26,20,28,15,20,25,23
14:02:00,17,26,19,20,25,21,19,21,21
14:03:00,23,20,26,29,23,15,26,24,23
14:04:00,27,25,29,26,24,19,18,26,24
14:05:00,28,19,21,16,22,12,24,21,20
14:06:00,26,18,32,25,20,17,20,24,23
14:07:00,20,23,26,24,21,35,27,23,25
14:08:00,21,25,25,28,27,12,21,25,23
14:09:00,23,23,29,19,29,22,14,25,23
14:10:00,10,21,26,32,19,22,17,22,21
14:11:00,21,24,21,18,13,19,20,19,19
14:12:00,32,19,18,27,28,25,12,25,23
14:13:00,20,20,29,19,25,24,17,23,22
14:14:00,30,29,23,15,24,18,23,24,23
14:15:00,29,28,26,24,18,24,14,25,23
14:16:00,19,34,25,30,24,25,20,26,25
14:17:00,30,20,23,30,30,20,13,27,24
14:18:00,24,22,22,22,21,18,17,22,21
14:19:00,27,21,23,22,23,22,23,23,23
14:20:00,23,18,28,25,22,18,20,23,22
14:21:00,23,16,24,16,29,23,15,22,21
14:22:00,24,25,17,29,15,19,25,22,22
14:23:00,21,19,15,23,22,23,18,20,20
14:24:00,27,29,20,28,26,17,17,26,23
14:25:00,14,27,20,23,22,16,25,21,21
14:26:00,19,21,16,22,21,15,20,20,19
14:27:00,22,22,19,27,31,22,17,24,23
14:28:00,21,30,20,26,19,18,20,23,22
14:29:00,17,18,23,25,21,18,31,21,22
14:30:00,32,24,23,19,17,25,15,23,22
14:31:00,25,23,24,17,31,23,24,24,24
14:32:00,23,14,21,25,16,21,21,20,20
14:33:00,24,16,21,30,21,13,20,22,21
14:34:00,11,22,19,21,27,9,15,20,18
14:35:00,17,25,18,9,15,18,19,17,17
14:36:00,26,16,20,24,20,19,12,21,20
14:37:00,26,18,22,24,19,17,13,22,20
14:38:00,23,25,28,23,27,16,25,25,24
14:39:00,31,20,26,17,21,25,29,23,24
14:40:00,27,22,41,19,17,18,15,25,23
14:41:00,28,27,25,21,31,22,12,26,24
14:42:00,19,26,21,15,20,18,13,20,19
14:43:00,28,25,18,24,24,13,22,24,22
14:44:00,22,23,24,23,20,22,18,22,22
14:45:00,16,18,28,23,26,14,25,22,21
14:46:00,20,17,23,23,22,15,12,21,19
14:47:00,31,16,24,23,27,20,21,24,23
14:48:00,27,24,23,24,18,21,14,23,22
14:49:00,24,23,31,15,31,19,24,25,24
14:50:00,27,23,21,20,24,22,19,23,22
14:51:00,18,22,16,25,19,18,21,20,20
14:52:00,24,24,24,27,26,23,17,25,24
14:53:00,23,25,21,20,15,11,17,21,19
14:54:00,21,27,28,15,24,15,19,23,21
14:55:00,20,22,20,21,19,26,20,20,21
14:56:00,21,18,22,24,15,9,16,20,18
14:57:00,30,21,21,23,22,26,21,23,23
14:58:00,34,23,18,14,16,21,19,21,21
14:59:00,27,13,22,15,18,13,17,19,18
15:00:00,20,21,34,20,28,22,18,25,23
15:01:00,27,19,22,14,20,23,17,20,20
15:02:00,19,31,21,19,26,21,16,23,22
15:03:00,20,36,25,23,26,19,18,26,24
15:04:00,23,22,15,22,20,22,21,20,21
15:05:00,20,22,28,22,29,15,15,24,22
15:06:00,25,22,17,26,29,22,18,24,23
15:07:00,18,17,32,19,26,18,23,22,22
15:08:00,24,30,30,19,20,16,17,25,22
15:09:00,22,21,28,25,16,15,16,22,20
15:10:00,23,18,25,22,28,21,16,23,22
15:11:00,22,18,16,10,21,14,15,17,17
15:12:00,21,26,31,19,27,23,13,25,23
15:13:00,14,27,25,22,20,20,36,22,23
15:14:00,26,16,28,18,25,14,19,23,21
15:15:00,25,28,23,30,22,22,12,26,23
15:16:00,25,17,32,18,22,15,35,23,23
15:17:00,19,16,22,28,20,18,12,21,19
15:18:00,27,16,21,27,27,17,14,24,21
15:19:00,29,25,22,21,30,15,10,25,22
15:20:00,27,21,26,17,23,22,16,23,22
15:21:00,23,17,27,18,25,15,13,22,20
15:22:00,28,17,16,15,13,24,19,18,19
15:23:00,27,20,27,20,18,18,16,22,21
15:24:00,23,25,27,18,22,10,19,23,21
15:25:00,15,15,17,13,20,15,17,16,16
15:26:00,35,14,17,18,27,16,18,22,21
15:27:00,16,13,21,14,20,31,22,17,20
15:28:00,21,25,15,18,18,13,16,19,18
15:29:00,23,17,24,17,12,27,20,19,20
15:30:00,19,18,28,23,31,18,12,24,21
15:31:00,22,18,35,21,31,21,21,25,24
15:32:00,18,26,27,21,23,14,16,23,21
15:33:00,25,32,28,31,27,30,13,29,27
15:34:00,34,19,29,24,25,17,13,26,23
15:35:00,22,24,22,23,31,16,7,24,21
15:36:00,23,13,25,29,27,14,21,23,22
15:37:00,28,29,21,22,22,20,17,24,23
15:38:00,20,20,21,25,24,18,14,22,20
15:39:00,31,24,29,15,24,29,16,25,24
15:40:00,30,15,19,12,24,13,22,20,19
15:41:00,22,21,18,21,25,26,18,21,22
15:42:00,20,23,23,30,29,24,22,25,24
15:43:00,27,22,26,28,28,26,15,26,25
15:44:00,21,23,23,24,15,19,22,21,21
15:45:00,25,26,25,29,24,15,11,26,22
15:46:00,28,16,28,17,29,20,13,24,22
15:47:00,24,29,31,21,32,15,18,27,24
15:48:00,19,30,23,15,15,16,20,20,20
15:49:00,30,20,24,23,32,13,16,26,23
15:50:00,25,18,18,23,22,23,24,21,22
15:51:00,28,30,28,20,16,15,20,24,22
15:52:00,17,19,29,24,24,28,18,23,23
15:53:00,14,12,19,13,20,20,18,16,17
15:54:00,23,21,19,25,20,30,16,22,22
15:55:00,22,23,24,23,27,16,16,24,22
15:56:00,20,23,16,17,23,20,23,20,20
15:57:00,22,23,22,14,37,14,16,24,21
15:58:00,25,26,25,19,22,28,22,23,24
15:59:00,11,28,28,15,17,23,21,20,20
16:00:00,23,24,21,22,24,18,16,23,21
16:01:00,22,20,21,19,21,16,16,21,19
16:02:00,21,18,17,17,25,24,19,20,20
16:03:00,24,17,15,20,22,12,21,20,19
16:04:00,14,16,26,25,25,17,23,21,21
16:05:00,22,21,10,18,21,13,19,18,18
16:06:00,22,16,18,17,20,13,20,19,18
16:07:00,21,25,22,14,17,18,16,20,19
16:08:00,19,15,16,19,17,15,14,17,16
16:09:00,15,24,21,22,23,19,16,21,20
16:10:00,18,20,18,25,20,23,20,20,21
16:11:00,23,26,26,18,29,23,25,24,24
16:12:00,22,22,17,27,22,19,17,22,21
16:13:00,18,10,17,15,28,24,21,18,19
16:14:00,14,18,17,16,22,19,19,17,18
16:15:00,21,15,19,16,25,17,20,19,19
16:16:00,20,24,16,24,23,26,20,21,22
16:17:00,12,22,24,24,25,15,17,21,20
16:18:00,20,21,17,23,23,16,22,21,20
16:19:00,15,14,13,19,18,15,17,16,16
16:20:00,25,22,10,13,21,17,22,18,19
16:21:00,23,21,13,17,23,21,20,19,20
16:22:00,21,18,19,19,28,16,23,21,21
16:23:00,22,17,24,14,25,11,10,20,18
16:24:00,18,23,22,24,29,15,27,23,23
16:25:00,29,14,18,15,15,18,12,18,17
16:26:00,26,18,20,13,21,19,15,20,19
16:27:00,21,24,12,20,21,17,13,20,18
16:28:00,16,25,27,17,16,16,16,20,19
16:29:00,16,19,20,18,22,20,15,19,19
16:30:00,19,20,18,18,27,15,19,20,19
16:31:00,19,26,21,21,20,13,20,21,20
16:32:00,16,20,24,23,22,15,12,21,19
16:33:00,19,13,29,15,33,22,12,22,20
16:34:00,23,17,24,19,23,16,13,21,19
16:35:00,25,21,25,20,18,16,16,22,20
16:36:00,22,19,19,20,19,18,10,20,18
16:37:00,22,14,19,13,20,24,16,18,18
16:38:00,28,19,22,20,26,17,13,23,21
16:39:00,28,23,27,13,20,19,19,22,21
16:40:00,21,20,17,15,26,16,18,20,19
16:41:00,29,18,16,16,15,19,15,19,18
16:42:00,18,25,24,21,11,18,13,20,19
16:43:00,18,11,18,19,26,23,13,18,18
16:44:00,23,11,20,19,24,17,11,19,18
16:45:00,18,12,25,22,20,18,18,19,19
16:46:00,25,21,19,13,23,19,11,20,19
16:47:00,19,20,25,18,13,21,11,19,18
16:48:00,17,7,21,15,21,17,20,16,17
16:49:00,22,9,27,19,15,23,16,18,19
16:50:00,20,9,17,7,16,25,14,14,15
16:51:00,20,9,20,23,19,17,19,18,18
16:52:00,18,11,25,17,19,19,11,18,17
16:53:00,16,17,16,15,28,14,18,18,18
16:54:00,20,8,20,21,19,21,12,18,17
16:55:00,20,10,34,18,6,21,12,18,17
16:56:00,19,14,25,10,20,16,19,18,18
16:57:00,22,7,17,20,15,14,13,16,15
16:58:00,21,19,36,22,23,18,10,24,21
16:59:00,23,12,19,18,24,15,15,19,18
17:00:00,24,15,28,19,24,14,21,22,21
17:01:00,16,16,19,18,30,20,14,20,19
17:02:00,20,19,24,10,29,16,16,20,19
17:03:00,20,19,22,17,25,12,11,21,18
17:04:00,18,21,22,15,16,22,13,18,18
17:05:00,19,19,31,22,26,12,15,23,21
17:06:00,18,16,21,7,18,24,11,16,16
17:07:00,29,20,18,13,21,18,13,20,19
17:08:00,22,14,25,18,13,21,14,18,18
17:09:00,18,11,17,11,21,20,15,16,16
17:10:00,16,15,17,7,22,23,18,15,17
17:11:00,12,15,19,24,28,16,16,20,19
17:12:00,14,17,16,15,16,21,16,16,16
17:13:00,15,23,28,13,17,9,12,19,17
17:14:00,22,22,22,15,23,14,9,21,18
17:15:00,15,10,6,16,12,17,17,12,13
17:16:00,24,25,11,19,23,16,19,20,20
17:17:00,12,15,10,13,28,19,12,16,16
17:18:00,22,19,12,22,23,16,11,20,18
17:19:00,14,19,16,21,16,12,10,17,15
17:20:00,16,22,21,12,21,22,15,18,18
17:21:00,20,12,25,27,12,12,11,19,17
17:22:00,19,18,21,12,26,17,10,19,18
17:23:00,12,15,21,13,24,16,13,17,16
17:24:00,17,21,20,9,18,18,14,17,17
17:25:00,19,16,27,18,24,21,19,21,21
17:26:00,29,18,21,26,26,25,11,24,22
17:27:00,20,18,24,18,21,19,10,20,19
17:28:00,30,18,25,13,23,13,13,22,19
17:29:00,23,17,16,17,22,16,10,19,17
17:30:00,18,19,22,22,24,22,13,21,20
17:31:00,21,10,15,22,15,15,6,17,15
17:32:00,18,19,31,20,22,13,15,22,20
17:33:00,18,11,21,20,15,16,19,17,17
17:34:00,20,21,17,19,21,18,11,20,18
17:35:00,23,12,23,11,15,22,20,17,18
17:36:00,18,22,26,21,22,13,16,22,20
17:37:00,15,22,23,11,18,22,12,18,18
17:38:00,24,23,18,12,31,14,6,22,18
17:39:00,23,13,22,24,19,23,15,20,20
17:40:00,23,29,15,22,23,18,12,22,20
17:41:00,26,19,21,15,24,20,14,21,20
17:42:00,19,22,30,23,18,10,14,22,19
17:43:00,20,16,22,26,15,20,12,20,19
17:44:00,24,19,14,10,18,22,13,17,17
17:45:00,28,22,18,22,31,24,16,24,23
17:46:00,30,21,16,21,23,13,18,22,20
17:47:00,15,19,21,9,24,15,5,18,15
17:48:00,16,19,19,23,27,14,10,21,18
17:49:00,25,25,20,17,20,23,12,21,20
17:50:00,21,19,27,18,25,24,13,22,21
17:51:00,15,19,19,15,30,23,13,20,19
17:52:00,23,19,22,26,22,16,15,22,20
17:53:00,22,16,34,25,25,12,6,24,20
17:54:00,21,21,22,17,28,16,14,22,20
17:55:00,21,12,21,26,15,18,15,19,18
17:56:00,21,26,21,24,19,17,11,22,20
17:57:00,21,18,24,11,33,16,9,21,19
17:58:00,19,22,23,17,20,22,10,20,19
17:59:00,21,14,18,25,15,16,13,19,17
18:00:00,23,19,11,24,18,13,11,19,17
18:01:00,18,24,18,16,23,23,15,20,20
18:02:00,27,16,28,19,19,19,15,22,20
18:03:00,20,19,14,25,32,19,12,22,20
18:04:00,27,24,19,23,20,15,11,23,20
18:05:00,20,19,20,24,25,17,13,22,20
18:06:00,17,23,19,18,24,15,15,20,19
18:07:00,28,23,27,15,23,24,11,23,22
18:08:00,22,9,28,16,12,12,10,17,16
18:09:00,12,25,20,22,20,15,18,20,19
18:10:00,19,11,18,14,27,17,14,18,17
18:11:00,15,21,26,27,25,17,15,23,21
18:12:00,10,20,24,26,27,22,26,21,22
18:13:00,24,21,15,22,20,14,12,20,18
18:14:00,17,23,25,21,11,13,13,19,18
18:15:00,17,19,17,18,13,15,9,17,15
18:16:00,14,22,23,13,19,14,16,18,17
18:17:00,11,19,22,18,16,22,13,17,17
18:18:00,16,22,25,28,24,16,10,23,20
18:19:00,25,16,25,25,19,17,9,22,19
18:20:00,17,17,12,17,12,10,15,15,14
18:21:00,19,14,7,14,19,26,10,15,16
18:22:00,19,14,21,11,22,23,15,17,18
18:23:00,19,21,26,13,15,15,9,19,17
18:24:00,22,15,18,21,12,17,15,18,17
18:25:00,19,17,15,13,26,15,10,18,16
18:26:00,18,22,19,17,22,14,11,20,18
18:27:00,19,23,17,12,19,17,13,18,17
18:28:00,23,18,15,21,15,21,8,18,17
18:29:00,14,22,12,17,17,21,8,16,16
18:30:00,19,21,17,16,17,13,11,18,16
18:31:00,16,21,22,17,23,22,4,20,18
18:32:00,27,26,15,18,16,8,12,20,17
18:33:00,8,20,13,19,23,13,14,17,16
18:34:00,18,21,17,18,14,23,12,18,18
18:35:00,13,10,14,26,18,11,7,16,14
18:36:00,20,23,17,15,12,18,8,17,16
18:37:00,21,16,23,19,17,9,8,19,16
18:38:00,21,19,20,18,9,11,16,17,16
18:39:00,14,18,15,22,21,21,7,18,17
18:40:00,19,26,15,20,17,20,10,19,18
18:41:00,19,29,19,19,28,11,15,23,20
18:42:00,14,24,18,21,18,27,16,19,20
18:43:00,19,21,19,21,22,14,12,20,18
18:44:00,19,14,15,17,12,20,14,15,16
18:45:00,26,14,18,19,22,18,6,20,18
18:46:00,25,17,16,18,16,15,10,18,17
18:47:00,20,16,18,16,20,22,13,18,18
18:48:00,23,18,22,20,18,13,14,20,18
18:49:00,16,11,21,21,18,15,9,17,16
18:50:00,15,25,16,18,25,13,17,20,18
18:51:00,17,17,18,14,21,13,9,17,16
18:52:00,17,22,20,19,18,22,16,19,19
18:53:00,18,28,25,15,21,18,10,21,19
18:54:00,18,15,19,17,16,19,10,17,16
18:55:00,14,11,19,20,9,21,9,15,15
18:56:00,29,18,13,27,21,12,8,22,18
18:57:00,18,12,22,12,13,20,13,15,16
18:58:00,15,16,17,20,24,13,10,18,16
18:59:00,17,19,21,22,19,17,9,20,18
19:00:00,17,11,16,24,16,20,13,17,17
19:01:00,21,18,19,22,22,18,4,20,18
19:02:00,18,13,22,25,22,14,13,20,18
19:03:00,18,17,23,16,16,17,11,18,17
19:04:00,21,18,16,25,17,6,13,19,17
19:05:00,19,24,20,22,21,21,8,21,19
19:06:00,15,16,12,25,27,22,13,19,19
19:07:00,23,19,16,18,19,15,11,19,17
19:08:00,14,18,20,18,29,14,8,20,17
19:09:00,28,13,16,18,23,10,9,20,17
19:10:00,22,18,24,26,23,19,16,23,21
19:11:00,16,21,17,22,11,11,16,17,16
19:12:00,21,20,26,25,27,21,5,24,21
19:13:00,14,25,21,20,21,12,15,20,18
19:14:00,30,17,23,19,12,20,14,20,19
19:15:00,16,13,16,23,15,19,12,17,16
19:16:00,20,21,17,21,24,18,7,21,18
19:17:00,22,9,12,21,21,16,13,17,16
19:18:00,20,7,16,21,17,9,8,16,14
19:19:00,24,20,21,15,21,19,16,20,19
19:20:00,14,16,22,14,26,16,10,18,17
19:21:00,17,16,15,15,25,20,8,18,17
19:22:00,20,12,15,19,10,16,12,15,15
19:23:00,26,16,23,18,23,8,10,21,18
19:24:00,17,22,19,27,20,14,13,21,19
19:25:00,13,10,16,13,24,17,10,15,15
19:26:00,14,12,17,16,11,10,12,14,13
19:27:00,12,18,17,16,14,17,12,15,15
19:28:00,19,7,17,17,18,18,19,16,16
19:29:00,17,10,19,12,11,15,11,14,14
19:30:00,22,15,13,11,15,18,16,15,16
19:31:00,20,20,19,10,14,11,14,17,15
19:32:00,13,19,22,19,14,11,13,17,16
19:33:00,12,18,17,23,15,16,16,17,17
19:34:00,12,10,20,15,11,15,9,14,13
19:35:00,14,17,14,16,21,14,16,16,16
19:36:00,15,21,14,17,23,15,12,18,17
19:37:00,25,15,23,11,13,17,14,17,17
19:38:00,12,18,15,24,13,19,7,16,15
19:39:00,9,17,19,11,16,11,15,14,14
19:40:00,16,20,18,18,14,12,11,17,16
19:41:00,10,24,13,20,14,9,10,16,14
19:42:00,12,23,16,16,14,19,6,16,15
19:43:00,13,18,17,11,22,12,7,16,14
19:44:00,15,15,18,18,19,12,11,17,15
19:45:00,12,13,16,19,7,10,9,13,12
19:46:00,20,12,13,17,21,14,7,17,15
19:47:00,22,13,17,15,12,10,5,16,13
19:48:00,13,14,17,11,15,14,8,14,13
19:49:00,5,12,12,20,15,9,11,13,12
19:50:00,20,20,12,11,14,17,7,15,14
19:51:00,14,11,19,17,10,7,8,14,12
19:52:00,17,13,27,11,17,13,13,17,16
19:53:00,13,14,18,22,11,12,6,16,14
19:54:00,17,14,10,22,15,16,11,16,15
19:55:00,13,24,20,16,10,10,11,17,15
19:56:00,16,19,14,17,13,8,10,16,14
19:57:00,18,16,9,14,9,9,11,13,12
19:58:00,14,18,20,16,16,5,12,17,14
19:59:00,15,15,11,16,15,14,14,14,14
20:00:00,15,17,13,14,20,10,10,16,14
20:01:00,13,15,14,14,9,17,8,13,13
20:02:00,12,23,16,15,14,15,7,16,15
20:03:00,16,16,15,16,14,13,7,15,14
20:04:00,10,16,14,14,14,9,9,14,12
20:05:00,16,25,10,15,10,6,12,15,13
20:06:00,10,14,11,17,14,13,15,13,13
20:07:00,12,16,18,16,9,10,16,14,14
20:08:00,14,22,19,18,20,14,18,19,18
20:09:00,15,12,12,20,9,11,7,14,12
20:10:00,12,17,18,10,15,10,9,14,13
20:11:00,11,13,19,21,9,14,12,15,14
20:12:00,14,21,14,18,18,13,12,17,16
20:13:00,13,14,22,12,17,12,7,16,14
20:14:00,14,12,11,16,15,13,7,14,13
20:15:00,9,8,8,16,11,8,18,10,11
20:16:00,13,11,12,16,10,11,13,12,12
20:17:00,16,12,16,16,13,10,6,15,13
20:18:00,6,15,19,14,22,10,15,15,14
20:19:00,10,8,10,14,12,14,11,11,11
20:20:00,10,11,10,14,16,8,4,12,10
20:21:00,11,11,7,10,13,9,7,10,10
20:22:00,12,12,10,15,11,8,9,12,11
20:23:00,10,10,17,15,11,6,8,13,11
20:24:00,9,9,15,8,11,10,9,10,10
20:25:00,9,9,14,13,12,14,10,11,12
20:26:00,14,6,8,11,4,9,11,9,9
20:27:00,16,9,8,4,8,7,4,9,8
20:28:00,8,7,13,15,16,13,5,12,11
20:29:00,4,14,7,14,10,11,8,10,10
20:30:00,17,11,10,7,11,13,4,11,10
20:31:00,12,11,5,17,9,10,10,11,11
20:32:00,12,3,13,17,11,7,12,11,11
20:33:00,8,11,7,9,9,8,8,9,9
20:34:00,12,11,10,4,10,7,4,9,8
20:35:00,13,11,7,10,7,6,8,10,9
20:36:00,13,6,5,10,9,17,8,9,10
20:37:00,10,15,11,17,10,10,12,13,12
20:38:00,12,9,10,10,14,7,9,11,10
20:39:00,10,8,13,10,11,7,7,10,9
20:40:00,13,12,9,7,9,8,7,10,9
20:41:00,11,11,6,6,12,11,8,9,9
20:42:00,6,4,6,8,13,14,7,7,8
20:43:00,14,10,4,17,7,12,9,10,10
20:44:00,8,8,7,15,8,10,7,9,9
20:45:00,8,14,7,8,7,4,8,9,8
20:46:00,7,2,8,14,10,11,7,8,8
20:47:00,14,11,12,14,6,11,8,11,11
20:48:00,16,10,6,6,10,9,9,10,9
20:49:00,15,9,7,9,8,4,4,10,8
20:50:00,10,7,7,7,8,8,11,8,8
20:51:00,9,7,8,8,6,9,9,8,8
20:52:00,10,12,7,11,13,5,13,11,10
20:53:00,9,11,9,11,11,9,4,10,9
20:54:00,9,9,13,6,7,9,6,9,8
20:55:00,7,7,6,9,9,5,10,8,8
20:56:00,11,5,7,9,8,6,5,8,7
20:57:00,6,4,4,6,8,7,5,6,6
20:58:00,13,10,11,10,11,6,4,11,9
20:59:00,8,13,13,14,13,5,6,12,10
21:00:00,12,7,7,12,8,9,7,9,9
21:01:00,7,7,12,9,15,6,3,10,8
21:02:00,13,11,9,9,4,9,6,9,9
21:03:00,9,12,7,12,13,6,6,11,9
21:04:00,2,5,4,4,5,7,5,4,5
21:05:00,6,8,14,10,2,6,7,8,8
21:06:00,13,7,8,11,12,5,7,10,9
21:07:00,15,9,12,7,5,3,9,10,9
21:08:00,5,7,10,12,12,7,10,9,9
21:09:00,14,13,12,19,5,5,9,13,11
21:10:00,5,12,8,5,10,7,9,8,8
21:11:00,8,10,10,9,9,7,5,9,8
21:12:00,5,13,12,6,15,6,12,10,10
21:13:00,14,7,14,11,3,11,4,10,9
21:14:00,13,12,4,14,5,4,2,10,8
21:15:00,9,7,14,7,7,8,7,9,8
21:16:00,7,9,8,8,10,5,8,8,8
21:17:00,11,7,8,8,8,5,5,8,7
21:18:00,4,8,11,10,8,9,3,8,8
21:19:00,11,5,2,6,13,4,1,7,6
21:20:00,5,5,14,6,5,7,7,7,7
21:21:00,11,6,8,9,9,8,9,9,9
21:22:00,2,4,10,16,4,4,2,7,6
21:23:00,10,7,3,9,8,8,14,7,8
21:24:00,12,6,9,10,12,9,6,10,9
21:25:00,5,8,9,4,6,6,6,6,6
21:26:00,13,14,5,12,9,5,6,11,9
21:27:00,8,10,9,11,4,9,8,8,8
21:28:00,11,7,8,9,5,5,9,8,8
21:29:00,9,8,11,9,5,9,3,8,8
21:30:00,6,4,6,7,7,11,6,6,7
21:31:00,11,3,9,5,6,9,1,7,6
21:32:00,8,7,7,6,3,8,5,6,6
21:33:00,2,8,10,5,10,5,1,7,6
21:34:00,4,7,6,7,5,6,7,6,6
21:35:00,11,8,12,13,8,4,6,10,9
21:36:00,10,6,8,6,5,3,2,7,6
21:37:00,8,6,4,12,3,7,10,7,7
21:38:00,17,3,17,3,5,4,5,9,8
21:39:00,8,5,7,5,5,12,6,6,7
21:40:00,9,10,5,6,3,5,7,7,6
21:41:00,12,5,9,6,5,2,5,7,6
21:42:00,1,7,4,9,8,6,6,6,6
21:43:00,5,1,12,8,6,5,4,6,6
21:44:00,6,13,5,12,7,8,7,9,8
21:45:00,7,4,10,4,6,9,3,6,6
21:46:00,4,7,7,8,9,3,5,7,6
21:47:00,7,6,7,10,11,9,4,8,8
21:48:00,8,5,5,2,6,9,7,5,6
21:49:00,4,6,2,10,7,6,1,6,5
21:50:00,12,4,10,9,10,7,3,9,8
21:51:00,5,6,5,7,8,8,7,6,7
21:52:00,8,5,8,3,7,9,3,6,6
21:53:00,5,10,9,2,5,2,9,6,6
21:54:00,5,9,6,10,8,5,4,8,7
21:55:00,9,10,8,7,1,2,2,7,6
21:56:00,13,9,6,5,8,5,4,8,7
21:57:00,5,7,9,5,6,8,1,6,6
21:58:00,11,6,9,2,5,2,3,7,5
21:59:00,3,6,9,7,5,4,1,6,5
22:00:00,6,5,8,8,6,7,7,7,7
22:01:00,5,5,9,6,10,5,4,7,6
22:02:00,11,6,4,5,5,2,5,6,5
22:03:00,6,5,4,7,5,5,9,5,6
22:04:00,11,7,11,11,8,13,3,10,9
22:05:00,7,6,4,3,6,8,4,5,5
22:06:00,8,8,9,7,7,9,4,8,7
22:07:00,7,5,5,11,6,8,6,7,7
22:08:00,7,7,14,8,8,5,7,9,8
22:09:00,9,13,8,5,10,11,6,9,9
22:10:00,8,9,2,10,8,7,7,7,7
22:11:00,9,8,5,12,10,7,3,9,8
22:12:00,6,6,12,6,7,3,7,7,7
22:13:00,9,6,11,7,12,6,6,9,8
22:14:00,9,7,5,15,14,9,5,10,9
22:15:00,7,10,7,6,3,6,2,7,6
22:16:00,6,6,9,4,11,6,11,7,8
22:17:00,7,8,3,4,5,8,5,5,6
22:18:00,9,4,5,6,3,7,5,5,6
22:19:00,4,6,11,6,8,5,3,7,6
22:20:00,3,4,4,5,9,8,4,5,5
22:21:00,8,5,10,12,11,9,2,9,8
22:22:00,2,4,4,12,3,6,4,5,5
22:23:00,5,5,12,7,6,10,4,7,7
22:24:00,10,4,8,8,5,10,4,7,7
22:25:00,5,5,5,3,4,7,6,4,5
22:26:00,5,6,4,4,8,6,5,5,5
22:27:00,4,8,2,11,7,12,6,6,7
22:28:00,7,5,9,7,4,2,3,6,5
22:29:00,4,5,8,6,10,5,4,7,6
22:30:00,3,2,6,6,4,8,4,4,5
22:31:00,0,6,5,6,10,5,4,5,5
22:32:00,7,5,2,3,10,7,5,5,6
22:33:00,2,3,5,4,12,6,3,5,5
22:34:00,5,6,2,8,5,2,6,5,5
22:35:00,6,8,4,4,10,4,4,6,6
22:36:00,5,4,9,10,4,4,5,6,6
22:37:00,3,5,7,4,7,3,2,5,4
22:38:00,2,5,4,4,5,10,1,4,4
22:39:00,3,3,5,1,9,6,4,4,4
22:40:00,6,5,2,8,13,6,2,7,6
22:41:00,3,5,7,7,12,4,8,7,7
22:42:00,2,0,3,4,7,4,2,3,3
22:43:00,3,1,6,4,6,4,2,4,4
22:44:00,4,5,8,5,9,4,6,6,6
22:45:00,6,7,5,4,8,8,6,6,6
22:46:00,5,2,8,3,5,10,5,5,5
22:47:00,5,6,3,1,4,7,2,4,4
22:48:00,2,1,6,2,8,4,2,4,4
22:49:00,2,4,5,3,8,3,2,4,4
22:50:00,6,4,1,3,7,4,5,4,4
22:51:00,5,2,1,2,4,6,3,3,3
22:52:00,3,5,6,10,3,3,2,5,5
22:53:00,2,4,5,1,2,5,5,3,3
22:54:00,0,3,5,6,4,6,4,4,4
22:55:00,3,5,5,4,5,1,2,4,4
22:56:00,3,5,4,4,2,6,5,4,4
22:57:00,5,5,6,3,6,5,4,5,5
22:58:00,5,0,4,5,3,3,3,3,3
22:59:00,2,1,4,6,4,7,5,3,4
23:00:00,3,1,2,2,4,4,1,2,2
23:01:00,7,1,4,2,9,7,3,5,5
23:02:00,1,1,1,2,9,7,2,3,3
23:03:00,3,3,2,4,3,4,2,3,3
23:04:00,2,3,3,1,4,9,1,3,3
23:05:00,1,4,3,5,6,6,2,4,4
23:06:00,3,4,3,4,11,6,5,5,5
23:07:00,3,1,3,3,4,9,4,3,4
23:08:00,4,4,4,1,8,6,6,4,5
23:09:00,5,6,3,4,8,3,1,5,4
23:10:00,1,2,2,8,5,13,2,4,5
23:11:00,4,2,2,4,5,11,2,3,4
23:12:00,1,4,5,6,7,3,4,5,4
23:13:00,2,4,5,5,3,10,6,4,5
23:14:00,4,4,7,2,6,4,4,5,4
23:15:00,1,1,3,1,5,7,1,2,3
23:16:00,1,3,2,1,5,3,2,2,2
23:17:00,0,2,6,5,11,8,3,5,5
23:18:00,5,1,2,1,4,7,1,3,3
23:19:00,4,5,3,1,5,6,4,4,4
23:20:00,4,6,2,4,9,4,1,5,4
23:21:00,1,1,3,5,10,3,2,4,4
23:22:00,4,0,4,5,3,6,4,3,4
23:23:00,2,3,2,5,11,5,3,5,4
23:24:00,4,3,2,3,4,5,1,3,3
23:25:00,1,3,0,2,6,7,3,2,3
23:26:00,3,2,2,4,5,4,1,3,3
23:27:00,2,3,1,2,5,7,4,3,3
23:28:00,0,2,5,3,4,4,2,3,3
23:29:00,3,1,1,3,3,8,2,2,3
23:30:00,3,0,1,2,5,8,1,2,3
23:31:00,1,2,4,2,3,10,2,2,3
23:32:00,1,3,2,6,6,8,0,4,4
23:33:00,1,4,1,2,4,3,4,2,3
23:34:00,2,1,2,3,1,7,1,2,2
23:35:00,4,2,2,4,2,4,1,3,3
23:36:00,2,2,3,3,6,4,3,3,3
23:37:00,2,3,4,2,7,5,1,4,3
23:38:00,2,0,1,2,2,5,1,1,2
23:39:00,2,3,2,3,7,6,2,3,4
23:40:00,1,3,2,3,8,2,2,3,3
23:41:00,5,0,3,4,2,5,1,3,3
23:42:00,1,0,1,3,5,7,5,2,3
23:43:00,1,1,2,2,6,5,0,2,2
23:44:00,1,1,1,4,4,5,4,2,3
23:45:00,2,1,1,3,5,6,3,2,3
23:46:00,3,3,3,2,5,5,3,3,3
23:47:00,2,1,3,3,9,9,3,4,4
23:48:00,2,3,2,2,5,6,2,3,3
23:49:00,4,2,4,4,3,4,2,3,3
23:50:00,2,1,2,1,3,5,2,2,2
23:51:00,3,1,0,1,2,10,3,1,3
23:52:00,0,3,0,2,6,6,3,2,3
23:53:00,0,0,2,1,5,4,4,2,2
23:54:00,2,3,0,4,4,6,0,3,3
23:55:00,2,1,0,1,5,2,2,2,2
23:56:00,0,3,4,2,5,5,3,3,3
23:57:00,1,3,1,1,6,7,4,2,3
23:58:00,1,2,1,1,2,8,2,1,2
23:59:00,2,4,4,3,4,4,2,3,3
,,,,,,,,,
Totals,,,,,,,,,
12H(7-19),15378,15097,15418,14743,14487,12360,10639,15025,14017
16H(6-22),17949,17700,18050,17460,16950,14441,12333,17622,16412
18H(6-24),18395,18141,18550,17991,17684,15165,12742,18152,16953
24H(0-24),18802,18522,18920,18354,18040,15692,13235,18528,17366
,,,,,,,,,
AM Peak,10:21:00,08:09:00,10:43:00,10:12:00,10:46:00,09:47:00,10:56:00,10:01:00,09:58:00
,1401,1385,1362,1396,1298,1231,1126,1318,1263
,,,,,,,,,
PM Peak,13:25:00,13:32:00,14:37:00,13:35:00,14:59:00,13:18:00,12:01:00,13:21:00,13:21:00
,1459,1388,1455,1421,1427,1241,1278,1406,1347
,,,,,,,,,
,,,,,,,,,
CA Traffic,,,,,,,,,VDA-net R2 16/01/2020
