Site Number,00008021,Unnamed: 2,Site Reference,00008021.1,Unnamed: 5,Unnamed: 6,Lat/Lng.,"52.05925,1.20006",Unnamed: 9
Radar 8021 Heath Road Ipswich,,,,,,,,,
Vehicle Count Report,,,,Week Begin: 16 December 2019,,,Channel:,Total Flow,
,,,,,,,,,
,,,,,,,,,
,2019-12-16 00:00:00,2019-12-17 00:00:00,2019-12-18 00:00:00,2019-12-19 00:00:00,2019-12-20 00:00:00,2019-12-21 00:00:00,2019-12-22 00:00:00,"5-Day
Ave.","7-Day
Ave."
00:00:00,0,1,1,3,1,2,1,1,1
00:01:00,1,2,0,3,2,7,7,2,3
00:02:00,0,1,0,0,5,3,4,1,2
00:03:00,1,2,4,5,5,4,4,3,4
00:04:00,3,2,2,2,2,3,0,2,2
00:05:00,1,2,3,0,5,8,2,2,3
00:06:00,1,1,1,1,5,7,0,2,2
00:07:00,3,0,0,4,2,2,7,2,3
00:08:00,4,1,1,2,7,4,2,3,3
00:09:00,3,2,3,6,3,6,10,3,5
00:10:00,0,2,1,3,1,11,3,1,3
00:11:00,2,1,3,1,5,8,5,2,4
00:12:00,1,2,0,4,5,4,2,2,3
00:13:00,3,0,2,3,1,1,4,2,2
00:14:00,2,1,0,0,5,1,6,2,2
00:15:00,1,0,0,2,3,3,4,1,2
00:16:00,2,1,3,0,4,3,5,2,3
00:17:00,3,1,3,2,2,2,5,2,3
00:18:00,0,1,3,2,2,7,5,2,3
00:19:00,2,2,1,1,4,2,7,2,3
00:20:00,0,1,0,3,1,4,3,1,2
00:21:00,1,1,1,2,0,2,3,1,1
00:22:00,1,1,1,1,2,2,4,1,2
00:23:00,1,1,1,2,0,3,4,1,2
00:24:00,1,0,1,1,2,1,3,1,1
00:25:00,1,0,0,3,2,4,1,1,2
00:26:00,1,1,2,1,3,8,3,2,3
00:27:00,5,1,2,1,1,2,1,2,2
00:28:00,1,1,2,2,3,1,1,2,2
00:29:00,2,0,1,0,5,1,1,2,1
00:30:00,1,0,0,2,0,3,3,1,1
00:31:00,0,1,1,2,2,3,4,1,2
00:32:00,0,0,1,0,2,4,1,1,1
00:33:00,4,1,2,2,1,4,2,2,2
00:34:00,0,0,2,0,3,5,2,1,2
00:35:00,0,1,1,2,0,1,3,1,1
00:36:00,2,1,1,1,1,3,3,1,2
00:37:00,1,1,1,1,1,3,4,1,2
00:38:00,2,0,1,2,2,2,0,1,1
00:39:00,3,1,0,1,2,5,1,1,2
00:40:00,1,2,0,2,2,2,5,1,2
00:41:00,3,2,1,1,2,1,1,2,2
00:42:00,1,0,1,0,3,3,5,1,2
00:43:00,0,1,1,1,3,1,3,1,1
00:44:00,0,1,3,2,1,2,4,1,2
00:45:00,0,0,1,1,2,0,2,1,1
00:46:00,2,1,1,1,5,2,2,2,2
00:47:00,2,0,2,2,2,1,5,2,2
00:48:00,4,1,1,4,1,0,3,2,2
00:49:00,0,1,0,1,2,3,2,1,1
00:50:00,1,2,2,1,0,6,1,1,2
00:51:00,1,2,2,2,1,2,1,2,2
00:52:00,1,0,1,0,3,1,1,1,1
00:53:00,3,0,1,1,1,5,1,1,2
00:54:00,2,0,2,2,1,2,0,1,1
00:55:00,0,2,2,1,1,6,0,1,2
00:56:00,1,1,0,2,2,4,1,1,2
00:57:00,2,0,1,0,1,1,2,1,1
00:58:00,2,2,0,3,0,3,3,1,2
00:59:00,0,1,1,1,0,0,0,1,0
01:00:00,0,1,1,0,2,4,3,1,2
01:01:00,0,1,1,1,3,2,0,1,1
01:02:00,0,0,0,0,4,0,3,1,1
01:03:00,0,2,1,2,1,5,4,1,2
01:04:00,1,1,0,1,3,4,1,1,2
01:05:00,1,0,2,2,1,3,1,1,1
01:06:00,1,0,1,5,1,1,3,2,2
01:07:00,1,3,0,1,3,1,6,2,2
01:08:00,1,1,0,0,5,2,2,1,2
01:09:00,0,1,1,0,3,3,5,1,2
01:10:00,0,0,1,2,1,1,2,1,1
01:11:00,0,0,0,2,2,4,3,1,2
01:12:00,3,1,1,0,0,1,3,1,1
01:13:00,0,1,3,4,0,1,2,2,2
01:14:00,1,2,1,1,3,1,2,2,2
01:15:00,1,0,3,2,0,4,5,1,2
01:16:00,0,0,0,1,0,1,0,0,0
01:17:00,1,2,0,1,0,2,1,1,1
01:18:00,1,0,0,1,0,4,4,0,1
01:19:00,0,0,1,3,0,1,6,1,2
01:20:00,1,0,0,2,1,2,0,1,1
01:21:00,0,1,1,1,0,0,2,1,1
01:22:00,1,1,0,2,0,4,4,1,2
01:23:00,1,0,0,0,1,1,2,0,1
01:24:00,1,0,1,1,0,0,4,1,1
01:25:00,1,0,2,0,1,0,0,1,1
01:26:00,1,1,0,0,0,1,4,0,1
01:27:00,1,1,1,0,2,1,3,1,1
01:28:00,2,1,2,0,2,0,3,1,1
01:29:00,1,2,3,1,0,2,1,1,1
01:30:00,0,0,0,0,0,0,1,0,0
01:31:00,2,0,1,1,2,0,0,1,1
01:32:00,1,1,2,1,2,1,2,1,1
01:33:00,2,0,0,1,0,2,0,1,1
01:34:00,1,0,0,0,0,1,1,0,0
01:35:00,0,0,0,2,0,1,1,0,1
01:36:00,1,0,0,1,0,0,2,0,1
01:37:00,0,0,1,3,3,1,2,1,1
01:38:00,2,1,0,0,0,2,3,1,1
01:39:00,0,1,0,1,0,1,1,0,1
01:40:00,0,0,0,0,3,3,1,1,1
01:41:00,2,3,0,1,0,2,1,1,1
01:42:00,4,0,1,1,1,0,1,1,1
01:43:00,0,1,1,0,3,0,0,1,1
01:44:00,0,0,0,1,0,4,1,0,1
01:45:00,1,1,0,2,0,1,2,1,1
01:46:00,0,1,2,0,1,2,0,1,1
01:47:00,1,1,1,1,0,3,1,1,1
01:48:00,0,1,0,1,0,1,2,0,1
01:49:00,0,2,1,0,1,1,0,1,1
01:50:00,1,0,1,0,1,1,1,1,1
01:51:00,0,0,0,0,1,2,1,0,1
01:52:00,0,2,1,0,1,1,3,1,1
01:53:00,1,0,1,0,0,2,2,0,1
01:54:00,0,2,0,0,0,1,2,0,1
01:55:00,1,1,0,0,1,1,1,1,1
01:56:00,0,1,0,0,2,2,2,1,1
01:57:00,0,0,1,0,0,1,2,0,1
01:58:00,1,0,0,1,1,0,1,1,1
01:59:00,2,0,0,0,0,0,0,0,0
02:00:00,0,0,0,0,2,1,1,0,1
02:01:00,0,1,0,0,3,0,1,1,1
02:02:00,1,0,0,2,2,1,2,1,1
02:03:00,0,0,0,0,1,2,0,0,0
02:04:00,1,0,0,1,1,2,0,1,1
02:05:00,0,1,0,0,1,2,3,0,1
02:06:00,1,0,1,4,1,0,1,1,1
02:07:00,2,1,0,0,0,1,0,1,1
02:08:00,1,0,0,1,0,0,1,0,0
02:09:00,0,1,0,1,1,1,2,1,1
02:10:00,1,0,0,1,0,2,0,0,1
02:11:00,1,1,1,1,1,0,2,1,1
02:12:00,1,0,0,1,0,1,1,0,1
02:13:00,1,0,0,0,0,0,1,0,0
02:14:00,0,1,2,0,1,2,1,1,1
02:15:00,1,1,0,1,0,1,1,1,1
02:16:00,0,0,0,1,1,1,1,0,1
02:17:00,1,1,0,0,0,0,1,0,0
02:18:00,0,0,1,1,1,1,1,1,1
02:19:00,0,0,0,1,0,3,1,0,1
02:20:00,1,1,0,0,1,2,1,1,1
02:21:00,0,1,1,1,0,2,0,1,1
02:22:00,0,0,3,1,0,3,1,1,1
02:23:00,0,0,0,1,0,1,1,0,0
02:24:00,2,0,2,0,0,1,0,1,1
02:25:00,0,2,0,0,0,2,1,0,1
02:26:00,1,0,1,0,2,1,0,1,1
02:27:00,1,2,1,2,0,1,0,1,1
02:28:00,0,1,0,2,0,1,1,1,1
02:29:00,0,0,1,0,2,0,0,1,0
02:30:00,0,0,2,1,1,1,0,1,1
02:31:00,3,0,0,0,1,2,0,1,1
02:32:00,0,0,1,1,2,2,0,1,1
02:33:00,0,0,1,0,0,1,2,0,1
02:34:00,0,0,0,0,1,0,1,0,0
02:35:00,1,0,0,1,0,1,1,0,1
02:36:00,2,2,0,1,1,0,3,1,1
02:37:00,0,1,1,2,0,0,1,1,1
02:38:00,0,0,1,1,0,0,0,0,0
02:39:00,0,0,1,1,0,0,0,0,0
02:40:00,1,0,0,0,1,1,1,0,1
02:41:00,1,0,0,0,2,1,2,1,1
02:42:00,0,2,3,0,2,1,1,1,1
02:43:00,1,0,2,1,0,1,1,1,1
02:44:00,0,1,0,0,0,1,2,0,1
02:45:00,0,0,0,1,1,1,2,0,1
02:46:00,0,0,1,0,0,1,0,0,0
02:47:00,0,0,0,0,0,0,0,0,0
02:48:00,0,0,1,0,0,0,0,0,0
02:49:00,0,1,0,0,1,1,0,0,0
02:50:00,1,1,0,1,0,1,1,1,1
02:51:00,0,0,0,1,3,0,2,1,1
02:52:00,1,0,0,3,1,0,1,1,1
02:53:00,0,0,1,0,1,2,3,0,1
02:54:00,0,0,0,2,0,0,2,0,1
02:55:00,1,1,4,0,0,0,1,1,1
02:56:00,0,0,3,1,0,0,1,1,1
02:57:00,0,1,0,2,0,0,1,1,1
02:58:00,0,0,2,1,0,2,0,1,1
02:59:00,0,1,0,3,0,2,2,1,1
03:00:00,1,0,0,1,2,1,0,1,1
03:01:00,0,0,0,2,0,2,1,0,1
03:02:00,3,0,0,2,0,3,1,1,1
03:03:00,0,0,2,1,0,1,2,1,1
03:04:00,0,0,0,0,1,2,1,0,1
03:05:00,1,0,0,1,0,0,1,0,0
03:06:00,0,1,2,0,1,0,1,1,1
03:07:00,0,0,0,1,3,0,1,1,1
03:08:00,0,0,0,1,0,0,2,0,0
03:09:00,1,1,0,2,1,0,0,1,1
03:10:00,1,1,2,0,0,0,2,1,1
03:11:00,0,1,0,0,0,2,0,0,0
03:12:00,0,0,0,0,1,1,2,0,1
03:13:00,1,1,0,1,0,1,3,1,1
03:14:00,0,0,0,0,0,2,0,0,0
03:15:00,1,0,1,0,0,4,4,0,1
03:16:00,0,4,1,0,1,0,2,1,1
03:17:00,1,1,0,0,1,0,0,1,0
03:18:00,1,0,0,0,0,1,0,0,0
03:19:00,0,0,0,1,1,2,0,0,1
03:20:00,1,0,0,1,0,1,1,0,1
03:21:00,0,0,2,2,1,1,0,1,1
03:22:00,2,0,3,2,2,0,0,2,1
03:23:00,0,0,1,1,1,1,0,1,1
03:24:00,0,1,2,1,1,0,1,1,1
03:25:00,0,0,1,2,1,1,1,1,1
03:26:00,2,2,0,2,1,0,2,1,1
03:27:00,0,2,0,1,0,1,1,1,1
03:28:00,1,0,2,0,0,2,2,1,1
03:29:00,0,0,1,0,1,1,0,0,0
03:30:00,2,0,0,1,0,0,0,1,0
03:31:00,1,1,0,0,1,0,1,1,1
03:32:00,1,0,0,0,1,0,0,0,0
03:33:00,2,0,1,0,0,1,0,1,1
03:34:00,1,1,0,0,0,1,1,0,1
03:35:00,1,1,1,0,2,1,0,1,1
03:36:00,0,0,1,0,1,2,0,0,1
03:37:00,0,1,1,0,0,1,0,0,0
03:38:00,0,0,0,0,0,1,0,0,0
03:39:00,1,0,1,0,0,2,1,0,1
03:40:00,0,1,0,0,0,0,0,0,0
03:41:00,2,2,0,1,0,0,1,1,1
03:42:00,2,1,0,1,1,1,1,1,1
03:43:00,0,1,0,0,1,1,0,0,0
03:44:00,0,0,1,0,1,0,3,0,1
03:45:00,0,0,0,1,0,1,1,0,0
03:46:00,1,0,0,1,1,1,1,1,1
03:47:00,1,0,0,0,0,2,2,0,1
03:48:00,1,1,0,0,3,1,1,1,1
03:49:00,0,2,1,2,0,0,2,1,1
03:50:00,0,1,1,3,0,1,0,1,1
03:51:00,2,0,1,2,1,0,2,1,1
03:52:00,4,1,1,1,1,0,3,2,2
03:53:00,2,0,1,1,1,2,1,1,1
03:54:00,1,2,2,0,0,1,3,1,1
03:55:00,0,1,0,0,0,4,0,0,1
03:56:00,0,0,0,2,3,0,0,1,1
03:57:00,1,0,1,1,0,0,0,1,0
03:58:00,0,2,0,0,2,0,0,1,1
03:59:00,3,0,1,0,0,0,0,1,1
04:00:00,0,1,1,1,2,0,0,1,1
04:01:00,0,1,1,0,1,1,0,1,1
04:02:00,0,0,0,1,0,2,2,0,1
04:03:00,2,1,2,0,0,1,3,1,1
04:04:00,0,1,0,2,0,0,1,1,1
04:05:00,0,0,1,1,1,1,0,1,1
04:06:00,0,0,0,0,2,2,1,0,1
04:07:00,2,1,2,0,1,2,0,1,1
04:08:00,2,0,1,0,1,1,1,1,1
04:09:00,6,0,0,0,3,1,1,2,2
04:10:00,0,0,0,0,1,0,0,0,0
04:11:00,0,4,0,3,1,0,0,2,1
04:12:00,1,2,3,1,0,2,1,1,1
04:13:00,1,2,1,0,0,1,1,1,1
04:14:00,0,0,0,0,1,0,0,0,0
04:15:00,2,1,0,0,0,3,0,1,1
04:16:00,2,1,0,0,0,0,0,1,0
04:17:00,2,2,2,1,2,0,0,2,1
04:18:00,4,1,0,2,0,1,1,1,1
04:19:00,1,1,0,0,2,1,0,1,1
04:20:00,1,0,0,0,1,0,0,0,0
04:21:00,0,0,1,1,0,0,0,0,0
04:22:00,2,1,0,0,2,0,0,1,1
04:23:00,1,1,0,0,0,1,3,0,1
04:24:00,0,2,1,0,0,2,0,1,1
04:25:00,0,1,4,3,0,1,2,2,2
04:26:00,0,2,1,0,0,1,2,1,1
04:27:00,1,0,1,1,0,1,1,1,1
04:28:00,1,0,6,2,0,1,2,2,2
04:29:00,2,3,0,1,1,2,1,1,1
04:30:00,0,3,0,0,0,0,2,1,1
04:31:00,4,1,0,2,0,0,2,1,1
04:32:00,0,1,0,0,1,0,2,0,1
04:33:00,2,1,1,4,0,2,0,2,1
04:34:00,0,1,1,1,2,1,0,1,1
04:35:00,0,1,0,2,0,2,1,1,1
04:36:00,2,1,1,0,1,2,2,1,1
04:37:00,0,1,0,0,2,1,2,1,1
04:38:00,0,1,1,1,2,2,0,1,1
04:39:00,2,0,2,1,1,1,0,1,1
04:40:00,0,0,0,0,0,3,2,0,1
04:41:00,0,2,0,2,3,0,1,1,1
04:42:00,0,0,2,0,2,1,1,1,1
04:43:00,3,0,0,2,1,0,0,1,1
04:44:00,1,1,0,1,0,0,0,1,0
04:45:00,2,1,0,1,0,1,1,1,1
04:46:00,1,2,4,0,0,1,1,1,1
04:47:00,1,1,0,2,0,2,1,1,1
04:48:00,0,1,1,1,1,0,1,1,1
04:49:00,1,0,0,1,4,0,2,1,1
04:50:00,2,0,0,1,0,5,0,1,1
04:51:00,0,2,1,0,1,0,1,1,1
04:52:00,2,3,0,1,0,0,0,1,1
04:53:00,2,2,0,1,2,0,0,1,1
04:54:00,1,2,2,2,0,2,1,1,1
04:55:00,3,3,2,0,1,0,2,2,2
04:56:00,2,1,1,1,1,1,1,1,1
04:57:00,3,1,1,1,3,2,0,2,2
04:58:00,3,4,0,1,0,0,2,2,1
04:59:00,1,0,0,0,3,0,1,1,1
05:00:00,2,1,2,0,1,0,0,1,1
05:01:00,1,0,1,0,0,0,1,0,0
05:02:00,1,1,0,1,0,2,0,1,1
05:03:00,1,0,1,0,0,2,0,0,1
05:04:00,1,0,1,1,0,1,1,1,1
05:05:00,1,2,2,2,1,0,0,2,1
05:06:00,2,2,2,1,1,1,1,2,1
05:07:00,1,0,1,3,0,0,1,1,1
05:08:00,3,2,0,1,0,1,0,1,1
05:09:00,1,0,3,0,1,2,0,1,1
05:10:00,1,3,3,0,2,1,0,2,1
05:11:00,0,2,1,0,1,1,0,1,1
05:12:00,1,2,4,5,2,0,1,3,2
05:13:00,3,2,3,2,2,4,2,2,3
05:14:00,0,1,2,3,1,1,0,1,1
05:15:00,1,1,2,2,3,3,0,2,2
05:16:00,1,1,2,2,1,1,0,1,1
05:17:00,2,2,5,1,0,1,1,2,2
05:18:00,4,2,1,3,3,0,2,3,2
05:19:00,2,2,0,2,5,1,1,2,2
05:20:00,1,4,0,2,3,0,1,2,2
05:21:00,4,1,1,3,0,0,4,2,2
05:22:00,2,2,3,2,1,0,2,2,2
05:23:00,3,1,2,1,0,2,1,1,1
05:24:00,6,5,1,0,1,3,2,3,3
05:25:00,3,1,0,0,0,1,1,1,1
05:26:00,3,2,1,2,3,3,1,2,2
05:27:00,6,1,2,1,2,0,1,2,2
05:28:00,2,2,3,1,1,4,0,2,2
05:29:00,2,2,2,4,1,0,0,2,2
05:30:00,4,3,2,0,1,2,2,2,2
05:31:00,1,3,2,5,1,3,2,2,2
05:32:00,2,3,4,2,4,1,2,3,3
05:33:00,2,2,5,3,2,0,0,3,2
05:34:00,3,3,5,4,6,2,1,4,3
05:35:00,2,2,0,3,1,1,0,2,1
05:36:00,4,3,1,6,2,3,1,3,3
05:37:00,6,2,2,5,2,2,2,3,3
05:38:00,3,2,4,4,5,0,2,4,3
05:39:00,3,3,3,0,1,5,0,2,2
05:40:00,8,5,4,6,2,2,0,5,4
05:41:00,4,0,1,3,4,1,2,2,2
05:42:00,2,5,2,3,2,1,1,3,2
05:43:00,4,6,3,10,1,3,0,5,4
05:44:00,2,1,3,4,1,1,2,2,2
05:45:00,6,4,4,4,0,2,2,4,3
05:46:00,1,1,4,7,3,1,1,3,3
05:47:00,2,2,4,3,0,4,0,2,2
05:48:00,4,5,2,5,5,2,1,4,3
05:49:00,5,4,6,4,5,1,4,5,4
05:50:00,6,4,4,5,3,1,2,4,4
05:51:00,0,1,3,2,3,1,1,2,2
05:52:00,8,1,5,1,2,0,0,3,2
05:53:00,3,4,5,4,1,1,1,3,3
05:54:00,3,4,6,1,2,0,1,3,2
05:55:00,3,3,5,7,3,1,2,4,3
05:56:00,6,2,5,1,6,4,1,4,4
05:57:00,3,3,4,10,2,1,0,4,3
05:58:00,5,7,2,4,2,3,0,4,3
05:59:00,1,5,4,3,0,0,2,3,2
06:00:00,1,0,3,2,4,4,1,2,2
06:01:00,12,3,5,8,5,1,3,7,5
06:02:00,5,7,3,2,3,1,3,4,3
06:03:00,3,4,5,0,4,2,1,3,3
06:04:00,6,1,3,1,2,1,2,3,2
06:05:00,5,1,4,8,2,0,1,4,3
06:06:00,10,3,3,3,1,3,3,4,4
06:07:00,3,3,3,4,3,3,3,3,3
06:08:00,4,3,4,4,3,5,3,4,4
06:09:00,0,4,4,2,4,1,3,3,3
06:10:00,5,2,3,5,3,3,1,4,3
06:11:00,3,7,1,8,2,4,2,4,4
06:12:00,6,3,6,6,2,2,2,5,4
06:13:00,1,1,3,1,4,2,1,2,2
06:14:00,6,7,3,2,2,1,3,4,3
06:15:00,5,7,4,5,9,4,2,6,5
06:16:00,4,4,6,4,5,6,2,5,4
06:17:00,7,5,8,6,6,4,3,6,6
06:18:00,6,5,2,3,3,2,3,4,3
06:19:00,8,8,1,5,4,7,1,5,5
06:20:00,6,4,2,5,3,3,2,4,4
06:21:00,7,3,10,11,3,4,4,7,6
06:22:00,8,11,8,4,7,2,2,8,6
06:23:00,5,6,7,7,5,1,2,6,5
06:24:00,5,7,8,4,5,7,3,6,6
06:25:00,4,5,7,6,4,2,0,5,4
06:26:00,10,7,7,9,2,4,3,7,6
06:27:00,7,5,7,4,8,3,2,6,5
06:28:00,7,6,3,8,6,4,4,6,5
06:29:00,8,7,5,7,4,2,3,6,5
06:30:00,14,4,4,6,5,3,2,7,5
06:31:00,9,4,10,9,8,3,0,8,6
06:32:00,5,7,6,4,2,5,3,5,5
06:33:00,7,5,9,5,5,2,5,6,5
06:34:00,10,4,4,5,9,1,2,6,5
06:35:00,7,4,9,3,8,7,3,6,6
06:36:00,6,10,5,9,5,3,3,7,6
06:37:00,15,3,6,11,7,10,3,8,8
06:38:00,13,6,9,4,9,1,2,8,6
06:39:00,7,12,9,10,7,4,0,9,7
06:40:00,5,9,11,5,4,4,3,7,6
06:41:00,11,6,6,10,8,3,1,8,6
06:42:00,7,10,5,4,8,4,1,7,6
06:43:00,10,6,13,3,10,4,6,8,7
06:44:00,10,6,10,5,9,4,3,8,7
06:45:00,8,12,3,4,8,3,2,7,6
06:46:00,7,10,6,7,11,4,5,8,7
06:47:00,10,6,7,8,3,2,4,7,6
06:48:00,14,9,10,8,5,5,2,9,8
06:49:00,8,10,8,15,6,8,5,9,9
06:50:00,9,4,16,9,8,1,5,9,7
06:51:00,9,8,8,11,6,8,2,8,7
06:52:00,13,11,9,7,5,0,6,9,7
06:53:00,9,9,9,5,4,4,2,7,6
06:54:00,18,8,5,9,6,5,2,9,8
06:55:00,4,4,12,6,7,5,5,7,6
06:56:00,9,14,13,7,10,7,5,11,9
06:57:00,10,11,9,10,8,4,4,10,8
06:58:00,8,7,5,8,7,3,5,7,6
06:59:00,9,5,18,9,8,5,3,10,8
07:00:00,8,4,5,7,15,2,1,8,6
07:01:00,9,10,8,6,3,4,2,7,6
07:02:00,9,6,5,9,9,4,2,8,6
07:03:00,13,7,18,7,10,7,3,11,9
07:04:00,14,11,16,17,7,6,3,13,11
07:05:00,8,9,6,4,13,1,4,8,6
07:06:00,8,14,13,17,9,3,5,12,10
07:07:00,19,13,6,12,12,9,5,12,11
07:08:00,11,9,12,13,6,7,6,10,9
07:09:00,21,16,10,13,14,5,3,15,12
07:10:00,10,11,13,11,12,6,5,11,10
07:11:00,11,9,16,13,9,10,5,12,10
07:12:00,12,12,10,17,18,5,5,14,11
07:13:00,21,8,17,13,14,6,3,15,12
07:14:00,10,7,11,17,13,6,9,12,10
07:15:00,16,15,13,14,15,11,4,15,13
07:16:00,16,12,15,19,10,10,1,14,12
07:17:00,19,15,14,16,12,4,4,15,12
07:18:00,18,15,27,14,13,4,3,17,13
07:19:00,13,12,13,13,12,3,1,13,10
07:20:00,17,11,20,16,8,3,3,14,11
07:21:00,16,23,16,12,13,9,5,16,13
07:22:00,22,12,12,16,12,4,4,15,12
07:23:00,13,22,24,9,14,5,9,16,14
07:24:00,20,10,15,17,15,4,2,15,12
07:25:00,15,11,14,12,8,10,5,12,11
07:26:00,14,11,17,17,17,9,5,15,13
07:27:00,25,12,13,20,16,7,5,17,14
07:28:00,21,12,17,20,10,5,3,16,13
07:29:00,18,16,20,16,16,11,4,17,14
07:30:00,17,9,14,12,17,9,5,14,12
07:31:00,19,10,16,19,12,8,3,15,12
07:32:00,25,8,18,13,14,9,3,16,13
07:33:00,19,12,19,19,12,9,5,16,14
07:34:00,15,18,18,20,14,7,4,17,14
07:35:00,32,13,20,20,13,2,6,20,15
07:36:00,29,15,15,14,17,7,6,18,15
07:37:00,26,21,22,13,15,4,3,19,15
07:38:00,26,16,18,25,15,11,6,20,17
07:39:00,16,14,21,16,16,8,9,17,14
07:40:00,15,18,24,21,12,7,6,18,15
07:41:00,21,17,17,19,12,6,7,17,14
07:42:00,29,15,20,13,17,8,4,19,15
07:43:00,19,25,20,25,13,9,2,20,16
07:44:00,24,12,18,22,13,7,4,18,14
07:45:00,24,16,22,19,17,7,2,20,15
07:46:00,22,11,20,21,16,6,4,18,14
07:47:00,22,8,18,16,15,11,1,16,13
07:48:00,21,11,21,17,9,7,5,16,13
07:49:00,18,19,23,29,18,10,5,21,17
07:50:00,23,21,23,12,15,11,5,19,16
07:51:00,17,15,19,21,7,14,4,16,14
07:52:00,31,15,17,15,25,7,5,21,16
07:53:00,25,14,23,23,18,10,5,21,17
07:54:00,20,13,27,20,13,7,6,19,15
07:55:00,19,21,24,27,18,7,10,22,18
07:56:00,25,19,18,20,12,10,7,19,16
07:57:00,24,15,20,18,16,5,10,19,15
07:58:00,30,16,29,18,25,19,10,24,21
07:59:00,22,11,23,20,22,4,10,20,16
08:00:00,17,25,17,20,15,2,8,19,15
08:01:00,24,18,20,21,12,8,5,19,15
08:02:00,22,8,23,16,18,12,3,17,15
08:03:00,24,33,30,25,13,11,4,25,20
08:04:00,17,17,23,16,15,5,2,18,14
08:05:00,22,13,19,13,16,7,2,17,13
08:06:00,25,12,13,16,22,10,2,18,14
08:07:00,24,20,26,18,20,6,6,22,17
08:08:00,24,16,17,28,11,10,5,19,16
08:09:00,18,20,25,19,25,11,6,21,18
08:10:00,23,11,23,21,20,13,6,20,17
08:11:00,32,17,18,9,14,13,5,18,15
08:12:00,24,13,19,25,12,7,3,19,15
08:13:00,24,23,21,17,10,13,1,19,16
08:14:00,25,18,27,20,14,11,7,21,17
08:15:00,20,16,23,15,17,14,5,18,16
08:16:00,22,16,15,18,22,10,1,19,15
08:17:00,25,12,13,21,11,10,3,16,14
08:18:00,21,17,14,20,12,8,3,17,14
08:19:00,25,13,8,24,17,8,13,17,15
08:20:00,14,23,24,17,17,10,2,19,15
08:21:00,20,14,20,16,11,12,6,16,14
08:22:00,12,20,19,20,19,10,5,18,15
08:23:00,15,16,20,20,13,9,5,17,14
08:24:00,13,10,23,19,9,11,3,15,13
08:25:00,20,23,30,15,18,14,6,21,18
08:26:00,15,15,23,14,16,14,3,17,14
08:27:00,16,17,11,21,20,10,8,17,15
08:28:00,19,17,31,21,16,13,4,21,17
08:29:00,17,15,18,23,19,7,4,18,15
08:30:00,33,11,19,25,14,9,6,20,17
08:31:00,27,24,24,17,10,6,8,20,17
08:32:00,21,18,25,21,13,21,4,20,18
08:33:00,11,21,14,16,15,9,1,15,12
08:34:00,23,13,28,23,17,8,2,21,16
08:35:00,15,17,20,15,11,9,2,16,13
08:36:00,25,22,16,17,16,10,7,19,16
08:37:00,24,16,26,16,22,13,7,21,18
08:38:00,20,13,22,20,13,6,4,18,14
08:39:00,21,13,24,16,22,14,5,19,16
08:40:00,21,12,19,21,16,11,4,18,15
08:41:00,15,16,16,19,22,16,8,18,16
08:42:00,19,12,21,21,17,5,5,18,14
08:43:00,19,18,23,20,21,11,7,20,17
08:44:00,23,13,15,27,20,13,3,20,16
08:45:00,21,16,13,14,14,15,7,16,14
08:46:00,28,13,18,19,13,12,3,18,15
08:47:00,24,14,18,23,16,11,5,19,16
08:48:00,30,23,32,21,17,15,5,25,20
08:49:00,16,23,19,12,20,8,10,18,15
08:50:00,29,14,20,16,15,5,6,19,15
08:51:00,24,25,22,17,17,6,9,21,17
08:52:00,22,18,18,15,17,6,8,18,15
08:53:00,23,21,22,19,15,18,6,20,18
08:54:00,22,15,20,16,16,18,8,18,16
08:55:00,14,22,23,23,17,15,6,20,17
08:56:00,31,16,20,15,10,10,7,18,16
08:57:00,22,19,19,21,22,7,7,21,17
08:58:00,25,14,25,13,15,10,13,18,16
08:59:00,27,17,17,19,18,11,4,20,16
09:00:00,28,19,24,18,16,11,8,21,18
09:01:00,20,17,21,20,13,5,4,18,14
09:02:00,20,20,30,21,19,13,7,22,19
09:03:00,31,16,20,22,16,7,6,21,17
09:04:00,29,19,22,13,17,10,7,20,17
09:05:00,21,14,14,22,16,14,9,17,16
09:06:00,28,17,27,15,25,7,13,22,19
09:07:00,21,25,20,19,17,13,7,20,17
09:08:00,23,19,25,19,5,11,7,18,16
09:09:00,19,20,16,19,14,9,1,18,14
09:10:00,22,17,21,14,18,11,8,18,16
09:11:00,25,13,22,23,17,11,9,20,17
09:12:00,14,18,19,20,12,17,7,17,15
09:13:00,16,19,25,13,14,14,7,17,15
09:14:00,27,18,28,19,19,18,11,22,20
09:15:00,21,18,23,18,18,12,4,20,16
09:16:00,20,15,22,23,15,12,3,19,16
09:17:00,20,25,16,17,14,11,12,18,16
09:18:00,16,22,24,16,15,15,5,19,16
09:19:00,21,13,26,19,22,6,8,20,16
09:20:00,11,15,18,19,16,5,9,16,13
09:21:00,25,20,27,20,19,25,7,22,20
09:22:00,19,19,18,22,14,18,7,18,17
09:23:00,19,19,19,20,22,15,12,20,18
09:24:00,33,18,16,17,23,7,8,21,17
09:25:00,15,21,21,28,11,15,9,19,17
09:26:00,21,19,22,17,20,14,8,20,17
09:27:00,29,17,17,21,13,16,7,19,17
09:28:00,22,16,18,27,16,5,11,20,16
09:29:00,27,20,21,15,17,18,5,20,18
09:30:00,15,6,13,12,19,9,8,13,12
09:31:00,23,13,20,11,24,7,10,18,15
09:32:00,28,15,15,22,18,9,11,20,17
09:33:00,14,13,27,21,22,25,9,19,19
09:34:00,18,23,22,15,15,16,11,19,17
09:35:00,17,20,20,20,11,19,11,18,17
09:36:00,18,22,20,27,15,11,15,20,18
09:37:00,20,21,15,26,24,16,11,21,19
09:38:00,18,21,19,20,22,21,7,20,18
09:39:00,23,14,22,21,16,22,15,19,19
09:40:00,21,16,27,24,16,18,14,21,19
09:41:00,18,23,21,16,19,26,10,19,19
09:42:00,20,16,19,26,15,17,8,19,17
09:43:00,25,11,18,23,19,19,19,19,19
09:44:00,24,18,21,26,14,15,9,21,18
09:45:00,22,15,21,24,15,20,15,19,19
09:46:00,27,16,26,23,12,22,16,21,20
09:47:00,23,22,21,16,19,15,16,20,19
09:48:00,21,15,25,25,23,19,14,22,20
09:49:00,24,15,33,23,19,15,18,23,21
09:50:00,20,27,26,24,22,17,14,24,21
09:51:00,26,11,15,23,18,20,4,19,17
09:52:00,19,24,24,26,14,12,13,21,19
09:53:00,15,22,20,30,22,21,19,22,21
09:54:00,17,17,25,20,19,11,19,20,18
09:55:00,17,26,23,23,27,15,17,23,21
09:56:00,25,21,29,25,23,15,12,25,21
09:57:00,15,14,19,21,17,20,12,17,17
09:58:00,27,20,18,19,13,20,14,19,19
09:59:00,19,14,28,25,18,19,11,21,19
10:00:00,23,16,17,28,17,17,15,20,19
10:01:00,11,20,18,24,25,11,16,20,18
10:02:00,31,15,18,18,23,12,13,21,19
10:03:00,19,22,21,13,21,16,14,19,18
10:04:00,28,17,23,21,18,15,13,21,19
10:05:00,22,14,17,23,14,15,11,18,17
10:06:00,17,21,22,20,25,14,10,21,18
10:07:00,26,18,13,23,14,10,14,19,17
10:08:00,13,23,21,19,27,10,14,21,18
10:09:00,29,22,24,16,28,15,11,24,21
10:10:00,26,21,16,16,17,13,10,19,17
10:11:00,22,17,13,21,17,15,15,18,17
10:12:00,25,12,23,17,20,18,18,19,19
10:13:00,21,17,26,16,22,14,15,20,19
10:14:00,19,24,24,30,21,14,9,24,20
10:15:00,27,25,25,17,18,19,14,22,21
10:16:00,28,17,18,16,29,14,15,22,20
10:17:00,19,11,22,17,19,19,19,18,18
10:18:00,23,18,22,17,22,20,15,20,20
10:19:00,15,16,23,22,20,16,11,19,18
10:20:00,27,17,28,25,19,14,12,23,20
10:21:00,25,21,23,16,23,12,17,22,20
10:22:00,19,25,22,22,29,22,13,23,22
10:23:00,23,14,33,21,26,12,14,23,20
10:24:00,27,15,29,19,19,15,12,22,19
10:25:00,26,16,22,22,18,16,14,21,19
10:26:00,27,17,27,21,19,12,10,22,19
10:27:00,19,21,18,22,25,20,19,21,21
10:28:00,31,14,19,15,15,20,19,19,19
10:29:00,16,13,29,24,10,22,14,18,18
10:30:00,23,19,26,23,24,20,15,23,21
10:31:00,23,20,15,22,20,18,12,20,19
10:32:00,26,17,22,24,16,12,17,21,19
10:33:00,28,15,23,29,16,22,15,22,21
10:34:00,20,22,12,24,20,15,13,20,18
10:35:00,16,14,29,22,15,18,14,19,18
10:36:00,24,16,23,29,17,24,21,22,22
10:37:00,24,16,23,26,13,14,16,20,19
10:38:00,18,20,16,31,26,17,9,22,20
10:39:00,23,18,18,16,19,18,15,19,18
10:40:00,22,15,19,26,18,19,12,20,19
10:41:00,27,16,29,20,25,18,13,23,21
10:42:00,23,13,29,25,14,22,18,21,21
10:43:00,25,14,20,23,18,23,17,20,20
10:44:00,23,20,22,19,23,22,14,21,20
10:45:00,24,15,25,19,21,25,18,21,21
10:46:00,22,16,21,23,22,18,10,21,19
10:47:00,22,12,24,20,22,13,19,20,19
10:48:00,19,24,16,23,17,18,27,20,21
10:49:00,12,16,17,24,18,18,16,17,17
10:50:00,28,17,22,25,25,27,17,23,23
10:51:00,28,22,31,28,25,15,23,27,25
10:52:00,18,9,10,26,11,13,19,15,15
10:53:00,31,13,23,25,18,21,11,22,20
10:54:00,26,18,22,23,19,16,18,22,20
10:55:00,20,18,14,28,14,23,14,19,19
10:56:00,22,16,18,21,16,10,13,19,17
10:57:00,22,20,22,21,21,16,21,21,20
10:58:00,26,21,22,20,20,16,15,22,20
10:59:00,28,19,26,23,31,25,21,25,25
11:00:00,22,21,14,17,19,15,12,19,17
11:01:00,22,14,20,25,22,14,20,21,20
11:02:00,21,15,15,18,19,20,23,18,19
11:03:00,18,26,22,21,12,18,24,20,20
11:04:00,27,19,19,19,18,15,18,20,19
11:05:00,20,19,26,23,12,23,13,20,19
11:06:00,24,21,16,21,29,24,27,22,23
11:07:00,29,21,25,25,22,25,21,24,24
11:08:00,21,13,31,20,17,17,15,20,19
11:09:00,19,28,23,16,21,23,25,21,22
11:10:00,20,12,24,38,30,17,18,25,23
11:11:00,16,23,29,28,17,19,17,23,21
11:12:00,17,15,19,22,22,19,12,19,18
11:13:00,23,21,23,30,15,17,21,22,21
11:14:00,30,20,25,20,19,20,18,23,22
11:15:00,23,13,27,29,19,20,18,22,21
11:16:00,23,18,10,32,22,18,13,21,19
11:17:00,19,19,21,23,22,16,15,21,19
11:18:00,27,22,23,28,24,23,14,25,23
11:19:00,27,19,23,21,26,16,26,23,23
11:20:00,28,15,28,28,20,15,10,24,21
11:21:00,23,17,20,16,24,19,25,20,21
11:22:00,24,22,24,30,27,16,25,25,24
11:23:00,15,19,23,20,17,21,11,19,18
11:24:00,28,16,23,10,19,17,14,19,18
11:25:00,31,19,20,21,23,20,17,23,22
11:26:00,20,18,16,27,25,22,20,21,21
11:27:00,32,17,23,22,14,23,11,22,20
11:28:00,26,16,20,24,25,19,12,22,20
11:29:00,23,19,30,23,29,18,17,25,23
11:30:00,27,25,23,22,16,23,18,23,22
11:31:00,30,11,24,28,22,23,19,23,22
11:32:00,25,21,20,24,28,12,17,24,21
11:33:00,20,23,18,26,24,33,19,22,23
11:34:00,23,18,24,22,22,14,19,22,20
11:35:00,19,24,14,27,17,21,27,20,21
11:36:00,27,23,30,25,17,16,15,24,22
11:37:00,31,23,25,22,24,22,16,25,23
11:38:00,30,15,19,24,20,14,20,22,20
11:39:00,26,11,16,24,20,17,17,19,19
11:40:00,23,12,24,24,21,15,15,21,19
11:41:00,30,15,17,19,15,17,19,19,19
11:42:00,16,12,23,25,15,22,22,18,19
11:43:00,21,10,16,21,19,10,11,17,15
11:44:00,23,28,19,17,25,16,18,22,21
11:45:00,16,27,21,26,21,22,18,22,22
11:46:00,20,15,20,27,18,23,7,20,19
11:47:00,18,19,12,18,24,23,16,18,19
11:48:00,24,26,22,24,17,21,24,23,23
11:49:00,21,20,17,26,18,24,10,20,19
11:50:00,22,22,18,17,14,21,14,19,18
11:51:00,18,20,18,16,21,14,15,19,17
11:52:00,23,11,21,23,16,16,16,19,18
11:53:00,21,10,34,24,25,17,10,23,20
11:54:00,25,17,19,26,24,17,11,22,20
11:55:00,19,23,31,29,16,23,13,24,22
11:56:00,23,14,23,27,11,18,27,20,20
11:57:00,25,17,25,27,25,21,25,24,24
11:58:00,15,19,19,23,32,23,14,22,21
11:59:00,24,14,17,12,17,17,19,17,17
12:00:00,13,16,31,20,16,18,14,19,18
12:01:00,25,15,19,17,16,18,18,18,18
12:02:00,13,25,19,34,18,20,20,22,21
12:03:00,27,23,26,23,14,17,18,23,21
12:04:00,22,16,22,23,20,24,17,21,21
12:05:00,22,22,22,19,20,18,26,21,21
12:06:00,28,17,17,20,15,19,21,19,20
12:07:00,17,17,10,31,27,29,16,20,21
12:08:00,21,23,15,17,13,25,14,18,18
12:09:00,20,13,24,30,20,22,18,21,21
12:10:00,29,22,17,22,22,20,15,22,21
12:11:00,19,22,15,30,19,23,16,21,21
12:12:00,20,25,19,31,26,14,20,24,22
12:13:00,24,28,25,25,14,24,19,23,23
12:14:00,31,19,16,27,17,23,21,22,22
12:15:00,17,27,20,26,21,18,23,22,22
12:16:00,29,17,21,18,13,16,22,20,19
12:17:00,23,24,18,27,14,18,24,21,21
12:18:00,15,11,14,22,14,22,18,15,17
12:19:00,22,20,10,22,22,13,16,19,18
12:20:00,26,15,10,13,26,30,16,18,19
12:21:00,20,16,20,31,28,22,14,23,22
12:22:00,17,8,32,24,23,16,18,21,20
12:23:00,32,5,29,22,21,19,16,22,21
12:24:00,20,15,28,22,11,25,23,19,21
12:25:00,15,24,31,23,11,19,19,21,20
12:26:00,24,13,29,24,21,22,17,22,21
12:27:00,26,11,14,28,22,8,16,20,18
12:28:00,19,12,16,23,14,16,20,17,17
12:29:00,19,18,17,29,25,21,13,22,20
12:30:00,29,18,21,15,12,20,15,19,19
12:31:00,22,19,20,28,19,29,16,22,22
12:32:00,20,26,18,31,14,20,18,22,21
12:33:00,21,17,26,21,22,14,12,21,19
12:34:00,30,13,15,15,21,24,14,19,19
12:35:00,19,19,25,18,16,19,26,19,20
12:36:00,21,15,21,22,12,27,15,18,19
12:37:00,19,18,21,26,26,24,21,22,22
12:38:00,23,17,14,27,19,22,27,20,21
12:39:00,25,20,23,18,20,10,19,21,19
12:40:00,28,21,25,28,23,15,26,25,24
12:41:00,18,21,15,29,26,24,16,22,21
12:42:00,29,25,27,18,20,9,22,24,21
12:43:00,14,20,27,17,30,24,21,22,22
12:44:00,21,15,21,25,28,17,20,22,21
12:45:00,20,18,15,26,31,19,23,22,22
12:46:00,27,19,19,23,14,26,22,20,21
12:47:00,30,17,23,21,24,29,14,23,23
12:48:00,17,23,20,27,13,14,24,20,20
12:49:00,26,27,24,24,12,27,15,23,22
12:50:00,16,16,15,28,26,19,27,20,21
12:51:00,24,24,22,21,23,19,13,23,21
12:52:00,28,20,24,25,19,17,25,23,23
12:53:00,24,15,24,23,24,24,19,22,22
12:54:00,18,10,20,26,19,23,23,19,20
12:55:00,19,24,19,19,23,17,19,21,20
12:56:00,23,16,21,32,24,21,23,23,23
12:57:00,22,26,18,17,18,19,25,20,21
12:58:00,17,20,20,36,11,23,19,21,21
12:59:00,21,17,21,12,21,16,22,18,19
13:00:00,22,19,21,22,20,15,27,21,21
13:01:00,20,17,22,20,13,24,16,18,19
13:02:00,24,14,29,16,22,25,15,21,21
13:03:00,22,21,18,22,14,18,27,19,20
13:04:00,22,24,26,21,32,22,19,25,24
13:05:00,15,17,18,20,25,28,19,19,20
13:06:00,22,16,26,20,14,32,17,20,21
13:07:00,22,21,26,22,30,23,26,24,24
13:08:00,23,27,18,21,20,19,25,22,22
13:09:00,25,17,25,19,19,27,18,21,21
13:10:00,25,21,21,29,22,23,16,24,22
13:11:00,34,19,20,22,25,15,28,24,23
13:12:00,27,14,23,29,20,22,18,23,22
13:13:00,24,19,17,15,22,21,12,19,19
13:14:00,19,20,19,17,19,19,21,19,19
13:15:00,26,8,22,27,37,18,22,24,23
13:16:00,20,18,16,26,19,24,24,20,21
13:17:00,28,12,16,20,19,18,25,19,20
13:18:00,30,18,27,25,24,19,15,25,23
13:19:00,31,15,19,29,22,15,25,23,22
13:20:00,24,13,22,25,31,18,20,23,22
13:21:00,20,19,21,29,26,18,9,23,20
13:22:00,24,24,17,29,25,19,24,24,23
13:23:00,28,20,19,20,18,16,10,21,19
13:24:00,20,20,20,14,18,23,22,18,20
13:25:00,27,20,22,27,20,22,18,23,22
13:26:00,21,18,20,21,20,13,15,20,18
13:27:00,19,23,32,24,20,24,22,24,23
13:28:00,23,26,28,18,21,18,12,23,21
13:29:00,31,20,22,22,16,17,24,22,22
13:30:00,14,19,26,25,27,19,12,22,20
13:31:00,14,22,24,23,23,18,24,21,21
13:32:00,26,19,17,19,26,15,23,21,21
13:33:00,33,23,22,24,24,31,20,25,25
13:34:00,26,19,23,24,20,24,12,22,21
13:35:00,15,18,27,29,22,16,21,22,21
13:36:00,20,21,25,25,20,21,19,22,22
13:37:00,21,21,18,28,18,21,12,21,20
13:38:00,16,16,21,19,24,20,23,19,20
13:39:00,28,16,21,20,31,23,19,23,23
13:40:00,23,19,23,17,23,22,16,21,20
13:41:00,28,20,21,20,38,21,15,25,23
13:42:00,30,25,22,32,26,22,26,27,26
13:43:00,19,16,26,26,16,15,16,21,19
13:44:00,14,17,25,18,24,16,23,20,20
13:45:00,29,24,9,24,21,19,18,21,21
13:46:00,26,18,15,20,26,21,20,21,21
13:47:00,22,23,22,21,17,29,22,21,22
13:48:00,20,18,15,19,26,18,20,20,19
13:49:00,22,20,28,13,20,21,21,21,21
13:50:00,30,17,17,30,23,23,22,23,23
13:51:00,25,22,22,26,22,22,20,23,23
13:52:00,23,20,26,24,17,20,17,22,21
13:53:00,21,19,27,26,19,20,27,22,23
13:54:00,26,26,16,27,26,23,19,24,23
13:55:00,25,24,17,21,16,15,20,21,20
13:56:00,31,21,32,24,21,25,23,26,25
13:57:00,29,15,31,21,15,23,20,22,22
13:58:00,28,28,25,19,18,28,19,24,24
13:59:00,22,16,20,15,25,17,24,20,20
14:00:00,35,23,20,25,24,21,25,25,25
14:01:00,24,12,18,10,17,17,14,16,16
14:02:00,28,15,24,23,19,23,15,22,21
14:03:00,20,18,21,10,29,15,22,20,19
14:04:00,19,22,19,22,26,17,25,22,21
14:05:00,18,23,22,18,21,21,15,20,20
14:06:00,28,20,22,21,23,24,15,23,22
14:07:00,21,22,19,17,26,15,27,21,21
14:08:00,17,19,26,26,26,26,24,23,23
14:09:00,29,23,19,27,19,15,14,23,21
14:10:00,31,16,23,25,26,20,15,24,22
14:11:00,32,15,14,20,31,21,22,22,22
14:12:00,31,17,22,25,22,8,18,23,20
14:13:00,29,21,19,28,20,22,21,23,23
14:14:00,27,25,22,21,27,20,14,24,22
14:15:00,24,19,13,18,24,23,20,20,20
14:16:00,24,15,23,22,24,17,14,22,20
14:17:00,23,11,12,22,22,24,14,18,18
14:18:00,23,14,25,24,24,21,26,22,22
14:19:00,30,13,26,27,23,22,22,24,23
14:20:00,20,17,13,25,23,24,19,20,20
14:21:00,22,21,23,22,19,15,17,21,20
14:22:00,17,15,23,19,26,17,22,20,20
14:23:00,27,22,22,29,18,21,20,24,23
14:24:00,26,15,28,21,22,25,22,22,23
14:25:00,13,15,15,28,24,19,8,19,17
14:26:00,32,21,26,25,26,27,17,26,25
14:27:00,30,19,20,21,16,25,19,21,21
14:28:00,20,19,28,18,22,19,19,21,21
14:29:00,28,15,23,15,26,22,21,21,21
14:30:00,24,22,29,19,29,17,22,25,23
14:31:00,28,17,34,28,25,17,19,26,24
14:32:00,24,10,27,25,13,20,13,20,19
14:33:00,16,19,21,25,25,24,25,21,22
14:34:00,26,18,28,31,22,21,13,25,23
14:35:00,17,14,25,28,28,30,20,22,23
14:36:00,26,18,31,23,26,20,23,25,24
14:37:00,26,13,19,40,23,16,15,24,22
14:38:00,29,19,29,20,23,16,24,24,23
14:39:00,37,26,25,20,22,23,10,26,23
14:40:00,26,22,28,25,21,17,23,24,23
14:41:00,36,19,29,24,19,18,14,25,23
14:42:00,24,19,26,20,21,16,20,22,21
14:43:00,22,15,23,19,20,24,21,20,21
14:44:00,32,19,22,21,22,22,24,23,23
14:45:00,29,21,15,19,25,20,25,22,22
14:46:00,29,13,29,13,24,26,19,22,22
14:47:00,11,14,18,25,26,18,15,19,18
14:48:00,29,19,29,28,20,25,25,25,25
14:49:00,27,18,20,18,24,21,19,21,21
14:50:00,30,18,19,22,25,31,22,23,24
14:51:00,21,27,23,23,31,21,17,25,23
14:52:00,19,22,21,25,25,24,20,22,22
14:53:00,37,18,23,20,27,20,20,25,24
14:54:00,22,24,19,27,24,29,20,23,24
14:55:00,30,25,24,23,26,22,18,26,24
14:56:00,29,15,26,16,29,25,20,23,23
14:57:00,29,13,14,28,23,23,22,21,22
14:58:00,29,26,29,22,20,19,22,25,24
14:59:00,27,18,14,24,28,19,18,22,21
15:00:00,22,14,30,19,17,16,19,20,20
15:01:00,26,23,26,27,27,22,25,26,25
15:02:00,14,17,21,18,21,19,17,18,18
15:03:00,18,21,18,29,24,19,18,22,21
15:04:00,24,21,26,28,23,20,22,24,23
15:05:00,30,22,26,20,25,20,17,25,23
15:06:00,13,11,24,27,23,21,26,20,21
15:07:00,20,15,32,23,22,22,19,22,22
15:08:00,27,18,21,27,16,20,19,22,21
15:09:00,24,27,30,23,27,22,22,26,25
15:10:00,24,20,27,20,23,21,14,23,21
15:11:00,41,23,20,25,14,23,18,25,23
15:12:00,25,17,16,16,24,14,24,20,19
15:13:00,19,18,16,24,23,19,12,20,19
15:14:00,16,20,18,33,23,23,19,22,22
15:15:00,14,23,21,32,14,15,21,21,20
15:16:00,23,19,34,18,27,30,18,24,24
15:17:00,19,14,20,16,23,18,18,18,18
15:18:00,22,16,24,27,18,13,11,21,19
15:19:00,19,24,23,22,18,26,12,21,21
15:20:00,18,23,18,24,24,18,23,21,21
15:21:00,26,15,13,35,28,21,14,23,22
15:22:00,20,17,27,25,25,17,20,23,22
15:23:00,18,19,22,26,22,20,21,21,21
15:24:00,23,21,22,27,16,23,21,22,22
15:25:00,23,17,25,23,22,20,22,22,22
15:26:00,15,21,21,16,29,14,27,20,20
15:27:00,24,26,22,25,23,17,14,24,22
15:28:00,19,25,24,21,19,25,19,22,22
15:29:00,18,9,22,27,25,17,23,20,20
15:30:00,22,19,20,19,30,10,23,22,20
15:31:00,23,20,24,26,32,18,13,25,22
15:32:00,24,7,21,24,18,18,22,19,19
15:33:00,25,23,23,22,23,18,17,23,22
15:34:00,20,24,22,32,21,23,16,24,23
15:35:00,16,14,26,26,23,22,15,21,20
15:36:00,21,25,26,19,19,16,18,22,21
15:37:00,25,17,16,17,20,27,21,19,20
15:38:00,28,16,37,21,19,21,17,24,23
15:39:00,20,17,26,30,24,17,11,23,21
15:40:00,18,25,28,24,26,18,23,24,23
15:41:00,19,25,17,22,26,23,17,22,21
15:42:00,22,16,34,26,20,26,23,24,24
15:43:00,31,13,23,27,23,13,20,23,21
15:44:00,19,26,25,21,26,20,10,23,21
15:45:00,23,19,21,19,17,20,22,20,20
15:46:00,20,14,23,24,25,14,26,21,21
15:47:00,22,26,27,25,16,21,12,23,21
15:48:00,23,13,23,23,21,17,17,21,20
15:49:00,30,10,32,19,19,21,17,22,21
15:50:00,14,12,27,28,16,16,19,19,19
15:51:00,25,19,24,29,14,18,20,22,21
15:52:00,27,22,31,17,28,19,14,25,23
15:53:00,31,24,23,19,18,28,11,23,22
15:54:00,25,19,26,36,20,20,14,25,23
15:55:00,30,18,25,28,24,22,13,25,23
15:56:00,29,25,18,17,28,25,24,23,24
15:57:00,26,26,26,21,23,26,14,24,23
15:58:00,25,20,21,26,30,20,11,24,22
15:59:00,21,16,24,25,16,17,24,20,20
16:00:00,17,19,24,20,21,26,8,20,19
16:01:00,28,14,25,16,16,16,16,20,19
16:02:00,25,16,29,23,16,9,21,22,20
16:03:00,25,10,19,22,24,19,18,20,20
16:04:00,20,25,21,27,24,14,24,23,22
16:05:00,19,13,17,13,12,18,16,15,15
16:06:00,22,16,17,22,18,22,18,19,19
16:07:00,20,21,21,16,18,12,22,19,19
16:08:00,24,18,19,19,13,16,16,19,18
16:09:00,21,17,21,22,16,13,24,19,19
16:10:00,27,13,22,14,24,17,22,20,20
16:11:00,24,18,18,7,17,22,15,17,17
16:12:00,19,11,7,28,21,17,18,17,17
16:13:00,19,21,18,31,22,13,15,22,20
16:14:00,12,15,17,25,20,20,22,18,19
16:15:00,19,27,10,30,25,18,24,22,22
16:16:00,16,20,24,21,15,21,16,19,19
16:17:00,31,18,27,17,16,20,12,22,20
16:18:00,21,14,14,14,25,15,23,18,18
16:19:00,22,18,25,14,13,12,12,18,17
16:20:00,24,21,19,18,14,20,14,19,19
16:21:00,17,19,23,14,12,23,17,17,18
16:22:00,23,20,25,16,20,20,14,21,20
16:23:00,21,18,26,23,21,21,21,22,22
16:24:00,19,17,21,20,20,14,13,19,18
16:25:00,26,12,25,23,26,21,15,22,21
16:26:00,16,15,19,28,21,14,17,20,19
16:27:00,27,21,16,23,14,20,11,20,19
16:28:00,15,16,21,24,20,19,12,19,18
16:29:00,28,9,21,21,25,16,14,21,19
16:30:00,17,14,16,25,20,21,16,18,18
16:31:00,17,10,13,16,12,19,20,14,15
16:32:00,32,20,13,20,13,22,18,20,20
16:33:00,21,18,21,17,28,14,15,21,19
16:34:00,17,19,20,23,16,17,14,19,18
16:35:00,23,6,17,28,20,21,23,19,20
16:36:00,23,20,22,24,15,20,14,21,20
16:37:00,32,16,19,17,15,20,14,20,19
16:38:00,16,30,25,22,17,17,18,22,21
16:39:00,23,13,18,20,17,11,24,18,18
16:40:00,23,14,28,14,23,17,20,20,20
16:41:00,25,17,24,17,23,17,22,21,21
16:42:00,24,23,24,13,20,18,24,21,21
16:43:00,20,17,26,19,14,16,27,19,20
16:44:00,13,18,22,30,16,16,13,20,18
16:45:00,25,27,28,27,19,13,12,25,22
16:46:00,22,21,17,17,28,18,18,21,20
16:47:00,26,20,25,18,12,16,14,20,19
16:48:00,20,19,23,19,28,19,14,22,20
16:49:00,14,13,24,28,18,20,21,19,20
16:50:00,29,16,22,22,23,20,13,22,21
16:51:00,20,13,22,27,18,11,15,20,18
16:52:00,23,14,24,26,23,14,19,22,20
16:53:00,18,13,31,20,30,12,12,22,19
16:54:00,20,16,21,24,23,14,5,21,18
16:55:00,17,15,22,23,26,13,14,21,19
16:56:00,28,18,18,27,20,14,13,22,20
16:57:00,21,15,24,24,20,16,10,21,19
16:58:00,19,19,24,22,19,14,14,21,19
16:59:00,18,18,26,25,14,20,15,20,19
17:00:00,26,10,27,23,19,17,15,21,20
17:01:00,17,12,22,29,23,15,11,21,18
17:02:00,25,10,26,17,20,20,20,20,20
17:03:00,16,13,26,18,18,13,19,18,18
17:04:00,15,17,19,18,23,17,21,18,19
17:05:00,21,15,20,28,24,13,22,22,20
17:06:00,22,16,21,18,18,15,19,19,18
17:07:00,18,9,12,25,24,17,14,18,17
17:08:00,19,14,21,18,21,22,17,19,19
17:09:00,21,4,21,22,17,25,12,17,17
17:10:00,21,18,13,18,17,24,24,17,19
17:11:00,19,12,26,31,29,17,13,23,21
17:12:00,20,12,15,21,29,25,17,19,20
17:13:00,21,10,22,19,18,21,12,18,18
17:14:00,20,8,19,18,13,18,20,16,17
17:15:00,25,17,21,22,30,12,17,23,21
17:16:00,18,10,20,21,23,15,10,18,17
17:17:00,10,11,14,24,18,22,6,15,15
17:18:00,20,13,14,11,20,8,13,16,14
17:19:00,19,7,18,13,22,15,14,16,15
17:20:00,24,14,21,14,20,12,10,19,16
17:21:00,27,6,17,23,20,12,11,19,17
17:22:00,21,10,14,20,25,15,16,18,17
17:23:00,22,2,19,21,20,24,11,17,17
17:24:00,17,16,26,29,20,14,11,22,19
17:25:00,12,11,20,14,24,16,13,16,16
17:26:00,25,14,20,11,17,17,13,17,17
17:27:00,20,19,13,18,21,14,14,18,17
17:28:00,19,13,20,21,23,19,10,19,18
17:29:00,23,16,24,16,17,14,16,19,18
17:30:00,29,19,17,19,17,15,14,20,19
17:31:00,20,14,20,19,21,12,10,19,17
17:32:00,20,18,23,21,19,12,18,20,19
17:33:00,22,15,24,25,20,15,10,21,19
17:34:00,32,14,19,26,18,13,8,22,19
17:35:00,32,16,28,17,21,17,13,23,21
17:36:00,18,16,14,20,21,13,17,18,17
17:37:00,24,18,24,26,19,8,17,22,19
17:38:00,13,13,24,18,33,20,13,20,19
17:39:00,19,18,26,22,15,14,10,20,18
17:40:00,24,14,18,32,17,19,10,21,19
17:41:00,21,15,14,21,19,10,11,18,16
17:42:00,27,12,21,16,20,13,6,19,16
17:43:00,19,22,26,11,17,21,8,19,18
17:44:00,10,13,20,25,17,18,17,17,17
17:45:00,27,20,17,23,19,17,12,21,19
17:46:00,15,17,25,21,22,16,9,20,18
17:47:00,14,21,13,12,21,10,9,16,14
17:48:00,20,17,14,24,16,9,12,18,16
17:49:00,22,16,22,20,26,21,11,21,20
17:50:00,14,15,32,15,23,27,13,20,20
17:51:00,25,9,21,20,14,16,14,18,17
17:52:00,16,12,22,28,24,23,19,20,21
17:53:00,21,15,32,21,14,19,10,21,19
17:54:00,17,18,15,23,20,18,13,19,18
17:55:00,10,15,19,14,18,16,16,15,15
17:56:00,20,22,23,14,21,15,15,20,19
17:57:00,19,18,20,18,24,14,12,20,18
17:58:00,11,19,15,16,22,14,16,17,16
17:59:00,22,25,18,18,20,6,7,21,17
18:00:00,13,18,21,18,27,13,13,19,18
18:01:00,23,27,15,23,15,14,15,21,19
18:02:00,26,18,18,16,23,16,9,20,18
18:03:00,24,21,27,25,14,12,20,22,20
18:04:00,25,18,26,20,21,12,11,22,19
18:05:00,23,26,27,20,16,15,17,22,21
18:06:00,22,15,22,21,20,19,19,20,20
18:07:00,25,19,24,22,22,12,10,22,19
18:08:00,22,10,17,22,12,19,24,17,18
18:09:00,27,11,23,24,22,17,8,21,19
18:10:00,22,19,27,24,17,18,18,22,21
18:11:00,27,12,19,12,20,15,10,18,16
18:12:00,30,18,27,19,21,18,14,23,21
18:13:00,21,20,24,18,20,13,20,21,19
18:14:00,16,17,30,17,14,14,20,19,18
18:15:00,16,14,13,23,13,17,13,16,16
18:16:00,17,19,12,16,14,18,18,16,16
18:17:00,20,17,25,26,16,14,11,21,18
18:18:00,15,19,26,14,13,21,13,17,17
18:19:00,17,12,19,19,22,19,15,18,18
18:20:00,17,17,29,14,14,14,12,18,17
18:21:00,26,22,17,17,24,10,6,21,17
18:22:00,23,15,18,14,18,16,9,18,16
18:23:00,21,22,19,14,17,21,9,19,18
18:24:00,11,15,24,20,18,20,12,18,17
18:25:00,22,20,18,13,18,18,7,18,17
18:26:00,25,21,8,24,19,18,10,19,18
18:27:00,24,21,13,24,17,15,6,20,17
18:28:00,21,18,13,18,23,9,11,19,16
18:29:00,15,16,21,18,20,15,3,18,15
18:30:00,17,15,20,17,10,23,11,16,16
18:31:00,21,23,20,15,21,19,7,20,18
18:32:00,11,9,11,25,12,13,5,14,12
18:33:00,17,26,16,26,15,20,7,20,18
18:34:00,31,16,22,18,10,19,7,19,18
18:35:00,9,23,19,17,23,19,7,18,17
18:36:00,24,21,18,29,8,17,14,20,19
18:37:00,17,11,17,25,12,14,15,16,16
18:38:00,24,20,16,13,16,17,13,18,17
18:39:00,19,21,18,20,19,16,11,19,18
18:40:00,16,16,26,19,13,22,20,18,19
18:41:00,17,18,18,27,15,12,10,19,17
18:42:00,19,15,29,20,22,20,15,21,20
18:43:00,23,19,24,18,14,15,9,20,17
18:44:00,18,12,12,26,20,10,9,18,15
18:45:00,24,19,22,13,17,15,17,19,18
18:46:00,15,19,21,28,9,14,12,18,17
18:47:00,24,11,14,17,18,19,12,17,16
18:48:00,18,20,23,16,22,8,13,20,17
18:49:00,20,16,17,18,19,13,13,18,17
18:50:00,20,13,20,16,17,13,10,17,16
18:51:00,19,23,15,22,14,18,11,19,17
18:52:00,20,19,21,18,18,15,15,19,18
18:53:00,21,17,19,17,12,13,14,17,16
18:54:00,18,16,14,20,14,18,13,16,16
18:55:00,21,14,21,19,8,16,10,17,16
18:56:00,19,15,26,11,9,17,9,16,15
18:57:00,17,16,16,19,17,18,12,17,16
18:58:00,16,11,28,24,18,15,13,19,18
18:59:00,17,21,21,18,13,20,14,18,18
19:00:00,22,20,18,20,22,15,15,20,19
19:01:00,18,10,12,19,16,8,9,15,13
19:02:00,18,22,17,22,24,13,13,21,18
19:03:00,18,20,23,16,20,17,15,19,18
19:04:00,26,23,14,21,24,17,13,22,20
19:05:00,13,22,13,23,26,18,15,19,19
19:06:00,17,13,21,22,21,20,11,19,18
19:07:00,17,23,21,31,16,10,17,22,19
19:08:00,20,17,23,20,21,17,15,20,19
19:09:00,22,20,25,16,19,24,13,20,20
19:10:00,17,19,22,22,11,15,16,18,17
19:11:00,23,19,13,11,21,10,14,17,16
19:12:00,23,17,21,17,14,15,19,18,18
19:13:00,25,15,17,26,20,16,13,21,19
19:14:00,12,12,23,20,17,16,17,17,17
19:15:00,21,19,24,16,20,15,11,20,18
19:16:00,24,25,22,20,11,21,14,20,20
19:17:00,19,19,16,18,17,19,11,18,17
19:18:00,20,25,30,23,15,16,13,23,20
19:19:00,14,19,17,16,14,16,7,16,15
19:20:00,18,17,20,16,16,11,8,17,15
19:21:00,11,14,13,19,12,11,11,14,13
19:22:00,15,18,20,17,13,12,10,17,15
19:23:00,15,13,11,14,13,12,7,13,12
19:24:00,24,8,21,17,19,12,14,18,16
19:25:00,13,18,22,23,21,12,11,19,17
19:26:00,11,8,13,19,14,7,7,13,11
19:27:00,20,12,20,15,9,19,12,15,15
19:28:00,14,12,11,19,11,7,7,13,12
19:29:00,9,18,16,11,20,19,11,15,15
19:30:00,17,10,15,11,17,18,12,14,14
19:31:00,18,18,21,19,25,22,8,20,19
19:32:00,12,14,11,15,7,14,12,12,12
19:33:00,17,12,13,21,23,19,10,17,16
19:34:00,14,16,15,13,13,18,11,14,14
19:35:00,19,13,20,16,7,7,15,15,14
19:36:00,17,14,19,12,16,14,14,16,15
19:37:00,18,11,17,18,22,14,15,17,16
19:38:00,14,19,8,18,11,18,8,14,14
19:39:00,16,15,22,17,13,14,13,17,16
19:40:00,6,7,20,19,15,14,11,13,13
19:41:00,18,12,16,12,14,10,11,14,13
19:42:00,19,13,12,21,23,5,13,18,15
19:43:00,14,14,19,21,16,12,14,17,16
19:44:00,14,14,14,17,14,9,6,15,13
19:45:00,15,14,10,29,13,15,9,16,15
19:46:00,15,16,19,17,12,11,16,16,15
19:47:00,19,15,11,16,10,16,6,14,13
19:48:00,15,23,17,12,13,8,10,16,14
19:49:00,12,17,19,17,13,13,15,16,15
19:50:00,12,18,16,16,10,12,7,14,13
19:51:00,18,13,15,14,13,14,8,15,14
19:52:00,16,14,14,15,7,9,16,13,13
19:53:00,15,19,18,16,10,10,8,16,14
19:54:00,10,18,18,23,12,13,5,16,14
19:55:00,11,12,13,12,12,14,12,12,12
19:56:00,14,16,15,21,9,9,11,15,14
19:57:00,14,12,14,7,5,11,8,10,10
19:58:00,19,14,23,16,12,12,8,17,15
19:59:00,12,16,13,10,14,13,16,13,13
20:00:00,10,11,13,15,14,9,15,13,12
20:01:00,23,17,14,18,7,12,10,16,14
20:02:00,10,15,14,23,12,9,11,15,13
20:03:00,19,24,25,16,12,13,8,19,17
20:04:00,19,20,11,20,14,14,8,17,15
20:05:00,18,17,12,15,20,9,6,16,14
20:06:00,16,19,17,20,12,12,10,17,15
20:07:00,14,16,15,14,8,11,11,13,13
20:08:00,18,13,14,24,19,11,8,18,15
20:09:00,18,13,20,16,10,12,11,15,14
20:10:00,17,14,12,18,16,16,9,15,15
20:11:00,20,16,22,19,13,6,17,18,16
20:12:00,10,14,21,18,8,15,13,14,14
20:13:00,11,15,16,19,16,6,5,15,13
20:14:00,15,10,24,17,18,9,8,17,14
20:15:00,10,9,16,24,12,10,8,14,13
20:16:00,12,15,15,16,16,14,12,15,14
20:17:00,12,15,12,17,6,17,13,12,13
20:18:00,11,13,10,18,11,12,13,13,13
20:19:00,13,14,12,16,10,17,15,13,14
20:20:00,14,13,14,12,11,14,13,13,13
20:21:00,13,12,16,14,11,11,10,13,12
20:22:00,15,16,9,15,9,10,11,13,12
20:23:00,10,8,11,19,10,10,2,12,10
20:24:00,12,10,15,10,11,13,9,12,11
20:25:00,5,5,4,16,5,12,8,7,8
20:26:00,13,9,5,13,17,6,11,11,11
20:27:00,13,9,18,12,11,10,9,13,12
20:28:00,10,8,5,11,17,7,13,10,10
20:29:00,11,15,4,17,11,8,7,12,10
20:30:00,13,11,6,15,11,9,7,11,10
20:31:00,6,15,10,16,11,7,9,12,11
20:32:00,9,12,5,10,11,6,7,9,9
20:33:00,9,14,12,8,10,10,10,11,10
20:34:00,8,10,9,12,10,5,15,10,10
20:35:00,6,6,10,18,9,8,10,10,10
20:36:00,13,7,13,8,12,8,11,11,10
20:37:00,8,13,11,8,10,7,4,10,9
20:38:00,11,12,13,12,6,6,11,11,10
20:39:00,11,8,9,15,7,10,11,10,10
20:40:00,10,12,13,10,9,11,7,11,10
20:41:00,10,9,12,16,11,9,5,12,10
20:42:00,10,9,6,5,7,7,8,7,7
20:43:00,7,9,6,12,12,7,9,9,9
20:44:00,16,5,8,12,7,10,6,10,9
20:45:00,9,10,12,13,8,3,4,10,8
20:46:00,6,7,6,12,10,11,5,8,8
20:47:00,12,12,10,6,6,7,8,9,9
20:48:00,6,8,6,9,9,6,8,8,7
20:49:00,11,5,6,9,9,12,11,8,9
20:50:00,5,10,6,4,13,9,7,8,8
20:51:00,17,9,8,19,9,3,10,12,11
20:52:00,8,11,8,15,6,6,4,10,8
20:53:00,5,12,12,8,7,15,5,9,9
20:54:00,9,7,6,7,9,6,5,8,7
20:55:00,11,10,15,9,8,9,12,11,11
20:56:00,8,8,6,9,10,7,3,8,7
20:57:00,12,4,11,7,9,6,9,9,8
20:58:00,8,9,9,9,14,5,10,10,9
20:59:00,8,8,7,7,6,8,8,7,7
21:00:00,11,9,9,10,10,8,4,10,9
21:01:00,3,5,8,8,11,4,5,7,6
21:02:00,6,8,13,10,5,6,9,8,8
21:03:00,7,11,9,11,10,4,9,10,9
21:04:00,8,6,7,8,15,3,2,9,7
21:05:00,7,10,10,10,11,9,6,10,9
21:06:00,7,8,6,7,6,4,6,7,6
21:07:00,6,15,12,11,6,7,6,10,9
21:08:00,13,7,7,11,5,9,6,9,8
21:09:00,6,15,15,5,12,7,6,11,9
21:10:00,6,6,6,8,8,6,10,7,7
21:11:00,10,7,8,6,8,6,9,8,8
21:12:00,11,9,11,9,13,11,3,11,10
21:13:00,5,5,13,10,11,6,7,9,8
21:14:00,6,9,3,11,9,5,8,8,7
21:15:00,18,6,10,11,5,8,4,10,9
21:16:00,13,9,4,7,7,9,6,8,8
21:17:00,2,8,8,6,6,7,3,6,6
21:18:00,10,9,4,10,6,9,7,8,8
21:19:00,10,9,5,6,14,7,6,9,8
21:20:00,1,7,9,9,7,5,11,7,7
21:21:00,8,5,8,10,7,9,4,8,7
21:22:00,10,6,8,8,7,8,9,8,8
21:23:00,9,8,12,8,8,6,10,9,9
21:24:00,4,8,10,9,12,1,6,9,7
21:25:00,9,10,10,6,7,8,7,8,8
21:26:00,2,6,8,10,10,3,4,7,6
21:27:00,10,8,6,9,7,8,8,8,8
21:28:00,7,10,12,14,7,14,6,10,10
21:29:00,9,9,2,5,13,3,1,8,6
21:30:00,5,8,6,5,4,7,6,6,6
21:31:00,7,8,7,7,8,5,8,7,7
21:32:00,8,10,6,8,10,5,4,8,7
21:33:00,3,7,2,12,9,13,3,7,7
21:34:00,3,9,8,11,4,9,5,7,7
21:35:00,6,9,8,8,8,8,1,8,7
21:36:00,7,5,4,5,5,8,7,5,6
21:37:00,12,5,10,6,10,11,7,9,9
21:38:00,6,5,4,8,11,9,6,7,7
21:39:00,2,8,4,9,10,6,5,7,6
21:40:00,6,10,10,10,6,8,5,8,8
21:41:00,11,4,6,8,4,14,4,7,7
21:42:00,8,8,7,5,9,4,4,7,6
21:43:00,8,3,3,10,8,10,5,6,7
21:44:00,1,7,10,6,7,8,5,6,6
21:45:00,8,10,5,7,4,1,2,7,5
21:46:00,6,7,9,9,2,6,2,7,6
21:47:00,5,4,11,6,8,7,7,7,7
21:48:00,12,6,5,6,4,6,7,7,7
21:49:00,5,7,6,2,9,4,1,6,5
21:50:00,2,6,6,10,11,6,6,7,7
21:51:00,3,9,9,7,3,6,7,6,6
21:52:00,2,2,7,9,10,6,7,6,6
21:53:00,6,5,9,11,6,5,4,7,7
21:54:00,6,8,4,5,5,5,9,6,6
21:55:00,13,8,8,4,2,7,4,7,7
21:56:00,2,7,6,4,6,5,3,5,5
21:57:00,9,9,4,5,8,4,6,7,6
21:58:00,7,4,8,10,8,5,5,7,7
21:59:00,6,6,5,4,8,5,7,6,6
22:00:00,7,10,3,3,10,5,4,7,6
22:01:00,9,8,7,7,3,11,5,7,7
22:02:00,4,6,6,8,12,1,3,7,6
22:03:00,6,8,3,10,8,8,6,7,7
22:04:00,4,5,8,5,9,7,3,6,6
22:05:00,6,5,9,8,8,13,5,7,8
22:06:00,10,4,7,4,3,5,3,6,5
22:07:00,7,7,9,15,11,8,9,10,9
22:08:00,12,7,9,9,6,9,10,9,9
22:09:00,6,6,11,8,4,7,12,7,8
22:10:00,7,5,7,8,7,8,6,7,7
22:11:00,5,8,3,11,4,4,3,6,5
22:12:00,7,7,8,3,8,5,7,7,6
22:13:00,11,9,4,4,8,3,5,7,6
22:14:00,9,6,6,5,8,5,6,7,6
22:15:00,6,6,10,15,3,10,4,8,8
22:16:00,6,2,5,10,6,9,7,6,6
22:17:00,2,8,6,7,7,5,3,6,5
22:18:00,9,6,7,7,7,6,5,7,7
22:19:00,9,6,8,6,5,5,2,7,6
22:20:00,5,6,10,5,3,7,3,6,6
22:21:00,9,6,8,5,8,1,5,7,6
22:22:00,9,7,10,2,7,4,3,7,6
22:23:00,6,4,8,6,6,6,6,6,6
22:24:00,3,5,8,3,2,4,4,4,4
22:25:00,3,8,8,5,9,3,4,7,6
22:26:00,4,7,4,8,5,6,3,6,5
22:27:00,5,3,2,5,6,6,5,4,5
22:28:00,8,7,7,3,5,9,9,6,7
22:29:00,7,10,3,7,7,2,5,7,6
22:30:00,6,4,7,5,3,7,6,5,5
22:31:00,2,4,4,4,14,3,7,6,5
22:32:00,4,3,7,1,0,2,4,3,3
22:33:00,3,9,4,3,6,9,6,5,6
22:34:00,2,5,2,6,5,0,2,4,3
22:35:00,4,3,6,7,8,1,5,6,5
22:36:00,4,4,6,4,6,3,5,5,5
22:37:00,5,3,10,10,8,2,4,7,6
22:38:00,11,2,4,6,6,8,5,6,6
22:39:00,8,6,2,2,9,4,1,5,5
22:40:00,3,4,4,5,5,7,3,4,4
22:41:00,6,5,6,7,3,7,2,5,5
22:42:00,10,9,7,4,11,1,2,8,6
22:43:00,3,2,3,8,6,9,2,4,5
22:44:00,5,4,4,2,8,3,6,5,5
22:45:00,2,1,5,4,7,3,5,4,4
22:46:00,4,5,3,3,6,7,4,4,5
22:47:00,5,7,7,6,5,3,3,6,5
22:48:00,7,3,7,2,7,2,1,5,4
22:49:00,6,8,5,7,2,7,5,6,6
22:50:00,2,7,7,7,4,5,6,5,5
22:51:00,3,10,6,8,4,3,3,6,5
22:52:00,4,7,6,5,7,6,3,6,5
22:53:00,4,2,5,7,6,3,3,5,4
22:54:00,3,5,5,1,7,1,1,4,3
22:55:00,7,4,4,7,6,5,5,6,5
22:56:00,2,9,5,2,5,7,3,5,5
22:57:00,4,2,4,4,5,7,1,4,4
22:58:00,1,5,6,6,5,2,1,5,4
22:59:00,3,2,6,4,7,9,4,4,5
23:00:00,2,2,2,3,11,3,1,4,3
23:01:00,5,4,5,5,9,5,3,6,5
23:02:00,4,4,7,4,7,3,2,5,4
23:03:00,1,4,3,9,4,4,6,4,4
23:04:00,2,5,6,7,5,4,5,5,5
23:05:00,2,7,4,3,5,4,3,4,4
23:06:00,8,4,3,6,9,6,2,6,5
23:07:00,2,5,9,3,9,6,0,6,5
23:08:00,2,6,2,5,7,10,6,4,5
23:09:00,4,1,4,5,7,5,2,4,4
23:10:00,3,5,4,4,14,3,3,6,5
23:11:00,3,3,6,4,8,6,5,5,5
23:12:00,2,1,7,1,5,4,3,3,3
23:13:00,1,5,2,4,7,2,3,4,3
23:14:00,4,5,5,6,6,1,3,5,4
23:15:00,4,5,5,3,5,3,3,4,4
23:16:00,2,2,5,2,10,4,4,4,4
23:17:00,1,3,11,4,7,8,6,5,6
23:18:00,3,5,6,4,3,7,3,4,4
23:19:00,2,1,4,2,4,1,5,3,3
23:20:00,3,3,7,3,9,2,2,5,4
23:21:00,2,3,5,4,6,2,3,4,4
23:22:00,3,3,5,1,5,5,4,3,4
23:23:00,4,2,0,2,7,9,1,3,4
23:24:00,1,2,5,3,6,1,2,3,3
23:25:00,1,2,2,6,6,4,2,3,3
23:26:00,3,2,1,1,5,5,2,2,3
23:27:00,4,3,2,2,5,2,3,3,3
23:28:00,3,0,2,5,4,2,4,3,3
23:29:00,4,4,3,3,4,2,2,4,3
23:30:00,1,1,1,3,5,9,4,2,3
23:31:00,1,2,1,4,4,3,3,2,3
23:32:00,5,4,3,3,6,8,3,4,5
23:33:00,2,0,5,1,5,3,3,3,3
23:34:00,2,1,1,1,4,7,0,2,2
23:35:00,0,2,6,7,9,4,5,5,5
23:36:00,4,2,3,3,6,5,1,4,3
23:37:00,1,2,0,5,4,4,2,2,3
23:38:00,5,2,5,2,0,1,1,3,2
23:39:00,1,2,1,2,6,5,2,2,3
23:40:00,3,2,4,4,7,2,2,4,3
23:41:00,1,3,2,2,2,0,5,2,2
23:42:00,3,4,0,9,4,7,5,4,5
23:43:00,1,3,3,4,4,5,4,3,3
23:44:00,2,0,5,4,4,5,1,3,3
23:45:00,2,4,1,3,4,3,2,3,3
23:46:00,0,1,2,2,4,4,6,2,3
23:47:00,1,1,0,1,2,6,1,1,2
23:48:00,2,1,2,3,4,6,4,2,3
23:49:00,5,1,1,4,3,9,1,3,3
23:50:00,0,2,2,2,6,1,2,2,2
23:51:00,0,2,3,2,7,5,3,3,3
23:52:00,2,2,3,3,4,3,2,3,3
23:53:00,5,0,5,1,3,1,1,3,2
23:54:00,0,1,3,2,4,9,0,2,3
23:55:00,1,1,1,2,2,3,1,1,2
23:56:00,3,3,1,3,8,4,1,4,3
23:57:00,2,2,3,3,6,4,3,3,3
23:58:00,1,1,1,2,4,4,1,2,2
23:59:00,1,5,6,3,4,4,4,4,4
,,,,,,,,,
Totals,,,,,,,,,
12H(7-19),15802,12508,15149,15231,13895,11940,10273,14517,13543
16H(6-22),18352,14966,17714,17953,16250,13949,12015,17047,15886
18H(6-24),18828,15460,18281,18506,16960,14524,12444,17607,16429
24H(0-24),19272,15825,18673,18963,17397,15063,12955,18026,16878
,,,,,,,,,
AM Peak,10:42:00,10:56:00,09:46:00,10:36:00,10:59:00,10:59:00,10:43:00,09:52:00,10:00:00
,1428,1114,1339,1410,1248,1152,1068,1251,1165
,,,,,,,,,
PM Peak,14:00:00,13:16:00,15:04:00,14:57:00,14:03:00,14:17:00,12:34:00,14:12:00,14:12:00
,1539,1178,1430,1437,1416,1271,1210,1363,1319
,,,,,,,,,
,,,,,,,,,
CA Traffic,,,,,,,,,VDA-net R2 16/01/2020
