Site Number,00008005,Unnamed: 2,Site Reference,00008005.1,Unnamed: 5,Unnamed: 6,Lat/Lng.,"52.02776,1.20445",Unnamed: 9
Nacton Road Link,,,,,,,,,
Vehicle Count Report,,,,Week Begin: 03 February 2020,,,Channel:,Total Flow,
,,,,,,,,,
,,,,,,,,,
,2020-02-03 00:00:00,2020-02-04 00:00:00,2020-02-05 00:00:00,2020-02-06 00:00:00,2020-02-07 00:00:00,2020-02-08 00:00:00,2020-02-09 00:00:00,"5-Day
Ave.","7-Day
Ave."
00:00:00,5,2,0,4,1,1,4,2,2
00:01:00,3,1,2,1,0,1,3,1,2
00:02:00,1,0,2,3,2,6,2,2,2
00:03:00,1,0,1,3,0,5,6,1,2
00:04:00,4,1,3,1,0,2,5,2,2
00:05:00,0,2,2,2,1,3,0,1,1
00:06:00,1,1,4,2,4,6,3,2,3
00:07:00,1,3,1,1,4,5,1,2,2
00:08:00,2,2,2,3,2,3,3,2,2
00:09:00,2,2,1,3,3,1,4,2,2
00:10:00,1,2,0,3,0,2,8,1,2
00:11:00,0,4,2,6,5,1,3,3,3
00:12:00,3,1,1,4,2,0,6,2,2
00:13:00,0,0,0,3,2,2,3,1,1
00:14:00,0,3,0,2,3,2,5,2,2
00:15:00,1,0,0,2,3,4,4,1,2
00:16:00,0,1,1,5,4,5,4,2,3
00:17:00,0,1,4,3,3,3,8,2,3
00:18:00,2,3,0,1,3,2,5,2,2
00:19:00,0,1,5,1,1,3,2,2,2
00:20:00,1,2,2,2,2,4,4,2,2
00:21:00,2,2,2,1,3,4,5,2,3
00:22:00,0,4,3,0,1,0,3,2,2
00:23:00,3,1,1,0,0,2,0,1,1
00:24:00,1,3,4,2,2,3,0,2,2
00:25:00,1,0,0,1,3,4,3,1,2
00:26:00,0,0,0,0,2,3,5,0,1
00:27:00,0,1,0,1,3,1,2,1,1
00:28:00,1,1,2,0,2,1,3,1,1
00:29:00,1,1,0,2,3,2,4,1,2
00:30:00,0,4,0,0,2,2,4,1,2
00:31:00,1,2,0,1,0,2,0,1,1
00:32:00,0,2,0,1,2,2,5,1,2
00:33:00,2,1,1,2,2,4,0,2,2
00:34:00,0,1,0,1,0,4,1,0,1
00:35:00,1,0,2,0,1,0,1,1,1
00:36:00,1,0,0,1,2,2,4,1,1
00:37:00,1,1,1,1,1,1,1,1,1
00:38:00,2,1,1,2,2,2,1,2,2
00:39:00,2,1,0,2,1,2,0,1,1
00:40:00,0,0,0,3,0,5,1,1,1
00:41:00,1,2,1,2,0,2,0,1,1
00:42:00,1,3,1,0,1,1,2,1,1
00:43:00,0,1,2,0,2,1,2,1,1
00:44:00,2,0,1,3,2,1,7,2,2
00:45:00,1,0,1,1,0,2,2,1,1
00:46:00,0,1,2,0,1,1,1,1,1
00:47:00,0,2,0,2,2,2,0,1,1
00:48:00,1,3,2,1,2,1,2,2,2
00:49:00,2,0,2,3,3,2,2,2,2
00:50:00,0,0,1,0,0,0,2,0,0
00:51:00,0,0,1,2,0,3,1,1,1
00:52:00,0,1,2,2,0,1,2,1,1
00:53:00,0,1,0,1,2,1,3,1,1
00:54:00,0,1,0,0,1,1,1,0,1
00:55:00,0,0,3,1,2,1,4,1,2
00:56:00,0,0,0,1,1,2,0,0,1
00:57:00,4,0,1,0,0,3,0,1,1
00:58:00,1,3,1,0,1,0,0,1,1
00:59:00,1,1,1,0,1,1,3,1,1
01:00:00,0,1,0,3,3,3,2,1,2
01:01:00,2,0,3,2,0,0,0,1,1
01:02:00,5,0,3,0,2,2,0,2,2
01:03:00,0,1,1,0,1,2,3,1,1
01:04:00,3,1,2,1,0,0,2,1,1
01:05:00,1,0,0,2,0,2,2,1,1
01:06:00,0,1,1,1,3,4,0,1,1
01:07:00,1,0,1,0,0,3,1,0,1
01:08:00,1,0,0,1,2,2,3,1,1
01:09:00,1,4,4,0,1,1,1,2,2
01:10:00,1,0,1,1,0,3,0,1,1
01:11:00,0,1,0,0,2,2,2,1,1
01:12:00,1,1,2,1,2,3,3,1,2
01:13:00,3,1,0,1,0,0,3,1,1
01:14:00,1,0,1,0,1,0,0,1,0
01:15:00,1,0,3,0,1,1,2,1,1
01:16:00,1,2,0,1,1,1,0,1,1
01:17:00,1,0,1,1,1,0,3,1,1
01:18:00,0,1,1,1,0,3,3,1,1
01:19:00,0,0,1,0,1,2,0,0,1
01:20:00,1,1,0,1,2,2,4,1,2
01:21:00,1,3,0,1,0,1,2,1,1
01:22:00,0,0,2,4,0,0,0,1,1
01:23:00,0,0,2,1,0,2,0,1,1
01:24:00,0,1,3,2,3,2,0,2,2
01:25:00,0,1,2,4,2,0,1,2,1
01:26:00,1,2,2,3,1,0,1,2,1
01:27:00,1,0,0,0,4,0,2,1,1
01:28:00,1,0,1,1,1,0,0,1,1
01:29:00,1,2,2,0,0,3,3,1,2
01:30:00,1,0,0,0,2,0,0,1,0
01:31:00,4,0,0,2,0,1,0,1,1
01:32:00,0,1,0,2,3,0,2,1,1
01:33:00,0,1,0,0,0,4,0,0,1
01:34:00,3,1,0,1,2,0,1,1,1
01:35:00,1,2,3,0,0,0,4,1,1
01:36:00,3,1,1,1,1,2,2,1,2
01:37:00,1,1,0,2,0,1,2,1,1
01:38:00,0,0,0,0,3,1,1,1,1
01:39:00,0,2,1,1,0,4,0,1,1
01:40:00,1,2,1,1,0,4,1,1,1
01:41:00,0,2,0,3,2,2,3,1,2
01:42:00,0,1,0,0,1,1,2,0,1
01:43:00,0,2,0,2,1,0,1,1,1
01:44:00,0,0,0,0,1,1,1,0,0
01:45:00,0,0,0,0,1,1,1,0,0
01:46:00,0,3,0,0,1,0,2,1,1
01:47:00,1,1,0,0,2,3,2,1,1
01:48:00,0,0,0,1,1,1,0,0,0
01:49:00,0,0,1,0,1,0,0,0,0
01:50:00,1,1,0,0,2,1,1,1,1
01:51:00,1,0,0,1,0,4,0,0,1
01:52:00,0,0,1,2,0,0,2,1,1
01:53:00,0,1,1,2,2,1,0,1,1
01:54:00,0,0,0,1,1,0,1,0,0
01:55:00,0,1,0,2,0,3,0,1,1
01:56:00,2,1,1,0,0,0,2,1,1
01:57:00,0,1,0,3,2,1,0,1,1
01:58:00,1,1,0,1,0,0,2,1,1
01:59:00,0,0,1,1,1,0,0,1,0
02:00:00,2,0,1,0,0,0,0,1,0
02:01:00,0,2,1,1,2,1,1,1,1
02:02:00,1,0,1,1,0,2,2,1,1
02:03:00,0,0,0,2,1,1,2,1,1
02:04:00,1,1,0,0,2,1,0,1,1
02:05:00,0,0,1,0,0,1,1,0,0
02:06:00,1,0,0,0,1,0,1,0,0
02:07:00,1,0,1,3,1,2,0,1,1
02:08:00,2,0,2,0,1,1,1,1,1
02:09:00,1,0,0,1,0,2,1,0,1
02:10:00,1,1,1,1,1,1,0,1,1
02:11:00,1,1,2,1,2,2,0,1,1
02:12:00,0,0,1,1,0,1,0,0,0
02:13:00,0,1,0,0,1,1,0,0,0
02:14:00,0,2,2,1,0,1,0,1,1
02:15:00,0,2,1,3,1,2,1,1,1
02:16:00,1,0,1,0,1,4,1,1,1
02:17:00,0,3,0,0,0,2,0,1,1
02:18:00,1,2,0,0,0,2,0,1,1
02:19:00,1,1,0,2,1,1,1,1,1
02:20:00,2,0,0,0,0,1,3,0,1
02:21:00,1,0,1,0,1,2,1,1,1
02:22:00,0,1,1,1,0,2,4,1,1
02:23:00,1,0,0,0,1,0,0,0,0
02:24:00,1,0,0,0,2,0,0,1,0
02:25:00,1,1,4,1,0,0,1,1,1
02:26:00,2,1,2,0,1,1,1,1,1
02:27:00,2,0,0,1,1,0,1,1,1
02:28:00,2,0,1,1,0,2,4,1,1
02:29:00,0,0,0,1,0,2,3,0,1
02:30:00,0,1,0,0,1,2,1,0,1
02:31:00,0,0,0,1,0,2,0,0,0
02:32:00,3,0,3,1,2,1,0,2,1
02:33:00,0,1,3,1,1,2,0,1,1
02:34:00,4,0,0,0,1,0,0,1,1
02:35:00,1,0,2,1,0,1,0,1,1
02:36:00,1,1,1,0,1,2,0,1,1
02:37:00,0,1,0,0,0,1,1,0,0
02:38:00,2,2,1,1,1,2,1,1,1
02:39:00,1,0,1,2,0,1,0,1,1
02:40:00,1,2,1,0,0,1,0,1,1
02:41:00,3,1,0,3,1,1,1,2,1
02:42:00,3,4,1,3,1,2,2,2,2
02:43:00,1,1,1,1,1,2,0,1,1
02:44:00,2,0,2,2,0,2,0,1,1
02:45:00,0,1,1,0,0,0,1,0,0
02:46:00,0,0,2,1,4,3,0,1,1
02:47:00,1,4,0,0,0,1,2,1,1
02:48:00,1,0,3,1,0,0,1,1,1
02:49:00,3,0,0,0,4,0,1,1,1
02:50:00,1,1,0,3,1,0,0,1,1
02:51:00,0,1,2,2,1,1,0,1,1
02:52:00,3,1,2,2,2,0,3,2,2
02:53:00,0,3,1,0,1,0,3,1,1
02:54:00,2,0,0,2,1,1,1,1,1
02:55:00,1,2,2,1,5,0,1,2,2
02:56:00,1,0,3,1,0,0,0,1,1
02:57:00,1,0,0,2,1,0,3,1,1
02:58:00,0,1,0,1,0,0,2,0,1
02:59:00,2,1,0,0,0,0,2,1,1
03:00:00,1,0,1,0,2,0,1,1,1
03:01:00,0,2,0,1,3,0,1,1,1
03:02:00,2,1,3,1,0,0,2,1,1
03:03:00,3,0,1,1,1,0,0,1,1
03:04:00,3,1,0,0,0,1,1,1,1
03:05:00,0,0,0,1,1,0,0,0,0
03:06:00,4,2,0,1,0,0,2,1,1
03:07:00,0,1,1,0,0,1,0,0,0
03:08:00,1,4,0,3,3,1,0,2,2
03:09:00,1,3,2,6,1,1,4,3,3
03:10:00,1,0,3,1,0,2,0,1,1
03:11:00,1,2,2,1,2,2,2,2,2
03:12:00,2,0,1,1,1,0,1,1,1
03:13:00,0,0,1,1,0,1,0,0,0
03:14:00,0,0,1,1,0,1,1,0,1
03:15:00,2,1,1,1,0,0,2,1,1
03:16:00,2,1,1,3,1,1,0,2,1
03:17:00,3,0,0,1,0,2,0,1,1
03:18:00,1,3,1,1,1,2,1,1,1
03:19:00,0,1,2,1,0,3,1,1,1
03:20:00,0,3,1,0,1,0,0,1,1
03:21:00,0,0,1,1,2,0,1,1,1
03:22:00,1,0,0,4,0,1,2,1,1
03:23:00,2,1,0,1,0,0,1,1,1
03:24:00,1,1,1,0,1,1,0,1,1
03:25:00,1,1,0,3,0,1,0,1,1
03:26:00,3,0,1,0,2,1,0,1,1
03:27:00,0,1,1,2,3,2,1,1,1
03:28:00,0,1,2,0,2,0,1,1,1
03:29:00,0,0,3,2,1,2,2,1,1
03:30:00,1,0,4,2,0,1,1,1,1
03:31:00,1,1,2,0,1,0,1,1,1
03:32:00,0,3,2,0,3,1,2,2,2
03:33:00,3,3,1,3,1,3,2,2,2
03:34:00,1,1,0,0,3,0,1,1,1
03:35:00,2,2,0,2,2,1,0,2,1
03:36:00,2,1,1,2,1,2,1,1,1
03:37:00,1,3,0,0,0,1,2,1,1
03:38:00,2,2,2,2,0,2,1,2,2
03:39:00,1,2,1,1,0,3,1,1,1
03:40:00,3,1,4,1,3,0,3,2,2
03:41:00,3,2,0,2,1,1,0,2,1
03:42:00,2,2,0,2,1,2,0,1,1
03:43:00,1,1,2,1,2,1,1,1,1
03:44:00,4,1,1,3,2,2,2,2,2
03:45:00,2,1,3,2,2,1,1,2,2
03:46:00,1,1,3,1,3,0,0,2,1
03:47:00,4,1,0,5,2,1,0,2,2
03:48:00,4,2,0,3,1,0,2,2,2
03:49:00,1,1,1,1,1,1,0,1,1
03:50:00,3,3,5,1,2,1,2,3,2
03:51:00,1,1,2,1,5,1,1,2,2
03:52:00,0,0,1,1,2,0,0,1,1
03:53:00,2,0,2,0,0,2,1,1,1
03:54:00,0,0,1,4,1,2,1,1,1
03:55:00,1,1,3,0,6,1,0,2,2
03:56:00,2,2,1,2,0,1,0,1,1
03:57:00,3,2,4,2,2,2,0,3,2
03:58:00,4,3,2,3,2,1,0,3,2
03:59:00,0,1,2,4,1,3,2,2,2
04:00:00,1,2,2,2,2,1,3,2,2
04:01:00,1,2,1,2,2,0,0,2,1
04:02:00,3,1,2,3,1,2,1,2,2
04:03:00,0,1,1,0,1,0,0,1,0
04:04:00,1,1,3,0,0,0,2,1,1
04:05:00,1,0,0,0,1,0,0,0,0
04:06:00,4,2,0,3,0,0,3,2,2
04:07:00,1,0,1,0,0,1,1,0,1
04:08:00,2,3,1,1,1,0,3,2,2
04:09:00,4,2,0,1,1,1,3,2,2
04:10:00,1,0,3,1,1,4,3,1,2
04:11:00,1,0,2,0,2,1,1,1,1
04:12:00,0,0,1,1,4,1,4,1,2
04:13:00,1,3,1,1,1,1,2,1,1
04:14:00,0,1,3,1,3,0,0,2,1
04:15:00,1,1,3,2,2,1,5,2,2
04:16:00,1,2,3,4,1,0,4,2,2
04:17:00,3,2,0,1,3,0,3,2,2
04:18:00,0,1,1,1,1,0,0,1,1
04:19:00,0,1,4,2,0,1,0,1,1
04:20:00,2,0,1,5,0,0,2,2,1
04:21:00,1,3,2,2,1,2,2,2,2
04:22:00,3,1,2,2,0,0,2,2,1
04:23:00,3,0,2,1,3,2,3,2,2
04:24:00,1,2,2,2,2,0,0,2,1
04:25:00,1,3,0,1,1,0,0,1,1
04:26:00,3,2,1,1,0,1,0,1,1
04:27:00,0,2,1,3,2,1,0,2,1
04:28:00,1,4,2,0,0,3,3,1,2
04:29:00,0,2,0,1,2,1,1,1,1
04:30:00,3,0,1,0,0,0,0,1,1
04:31:00,4,3,1,1,1,1,0,2,2
04:32:00,3,2,5,2,0,0,1,2,2
04:33:00,2,2,2,4,1,3,1,2,2
04:34:00,1,6,0,1,1,0,1,2,1
04:35:00,0,2,0,0,3,0,2,1,1
04:36:00,4,2,0,2,1,0,2,2,2
04:37:00,1,5,3,2,3,0,1,3,2
04:38:00,1,3,4,2,5,3,0,3,3
04:39:00,1,5,4,5,2,3,3,3,3
04:40:00,1,4,3,5,3,0,3,3,3
04:41:00,4,4,2,1,2,1,3,3,2
04:42:00,3,5,2,1,3,2,10,3,4
04:43:00,5,2,5,2,2,2,7,3,4
04:44:00,4,1,2,2,6,2,4,3,3
04:45:00,1,4,0,4,3,0,5,2,2
04:46:00,3,2,5,3,2,3,2,3,3
04:47:00,6,2,3,4,6,0,3,4,3
04:48:00,2,6,1,0,3,2,0,2,2
04:49:00,4,10,3,2,6,3,3,5,4
04:50:00,3,6,1,4,5,4,2,4,4
04:51:00,4,4,6,3,3,1,2,4,3
04:52:00,2,0,7,2,1,2,0,2,2
04:53:00,3,0,2,1,5,3,1,2,2
04:54:00,4,3,0,2,6,0,0,3,2
04:55:00,0,3,4,3,3,3,4,3,3
04:56:00,6,3,4,3,6,2,0,4,3
04:57:00,3,3,2,5,2,1,0,3,2
04:58:00,4,4,4,0,4,1,6,3,3
04:59:00,0,3,1,5,1,2,1,2,2
05:00:00,3,0,4,3,2,1,0,2,2
05:01:00,4,5,1,4,6,1,2,4,3
05:02:00,6,1,3,5,1,1,0,3,2
05:03:00,1,3,6,3,5,4,0,4,3
05:04:00,3,1,0,1,2,5,3,1,2
05:05:00,0,0,4,7,2,3,1,3,2
05:06:00,6,1,3,4,3,1,1,3,3
05:07:00,5,4,2,5,3,0,1,4,3
05:08:00,1,7,5,4,0,0,2,3,3
05:09:00,7,2,6,2,4,3,1,4,4
05:10:00,5,5,3,2,4,6,2,4,4
05:11:00,6,4,2,5,4,4,2,4,4
05:12:00,1,5,4,5,2,2,1,3,3
05:13:00,6,9,4,3,8,2,0,6,5
05:14:00,10,1,4,5,2,2,0,4,3
05:15:00,7,4,2,8,4,4,1,5,4
05:16:00,6,3,3,5,4,2,1,4,3
05:17:00,2,5,4,3,2,1,0,3,2
05:18:00,5,1,6,5,4,3,1,4,4
05:19:00,4,2,2,4,5,4,1,3,3
05:20:00,2,4,4,3,4,2,1,3,3
05:21:00,6,5,2,6,5,1,3,5,4
05:22:00,5,4,2,6,4,2,1,4,3
05:23:00,5,9,5,5,5,2,0,6,4
05:24:00,8,3,5,5,4,2,0,5,4
05:25:00,1,4,5,6,2,1,0,4,3
05:26:00,2,5,5,2,3,0,1,3,3
05:27:00,5,4,5,6,3,2,1,5,4
05:28:00,9,4,4,2,4,2,1,5,4
05:29:00,6,8,3,5,4,4,0,5,4
05:30:00,5,7,10,8,4,3,1,7,5
05:31:00,5,4,6,7,7,6,1,6,5
05:32:00,15,5,4,3,9,1,1,7,5
05:33:00,5,12,10,6,4,1,2,7,6
05:34:00,6,15,7,11,9,1,3,10,7
05:35:00,7,7,3,3,10,1,2,6,5
05:36:00,6,7,5,7,2,4,2,5,5
05:37:00,13,7,3,5,4,1,3,6,5
05:38:00,5,9,9,6,8,2,2,7,6
05:39:00,7,7,7,11,7,1,5,8,6
05:40:00,7,5,5,3,3,2,3,5,4
05:41:00,7,9,8,8,3,6,2,7,6
05:42:00,9,6,11,6,10,4,0,8,7
05:43:00,5,4,11,11,9,3,1,8,6
05:44:00,9,10,6,4,7,4,0,7,6
05:45:00,11,7,15,6,8,1,0,9,7
05:46:00,6,10,9,6,10,5,2,8,7
05:47:00,8,9,15,14,13,4,0,12,9
05:48:00,6,7,9,9,10,3,1,8,6
05:49:00,6,12,9,5,7,6,2,8,7
05:50:00,7,9,11,10,9,4,2,9,7
05:51:00,14,5,12,10,6,3,3,9,8
05:52:00,13,9,13,12,8,4,2,11,9
05:53:00,12,10,12,13,16,2,1,13,9
05:54:00,13,7,12,11,10,5,1,11,8
05:55:00,15,11,13,10,9,6,2,12,9
05:56:00,10,11,9,5,15,3,2,10,8
05:57:00,12,22,14,16,8,4,1,14,11
05:58:00,10,11,14,11,9,6,0,11,9
05:59:00,9,12,11,9,9,2,3,10,8
06:00:00,10,7,11,7,9,7,0,9,7
06:01:00,12,10,5,10,14,3,4,10,8
06:02:00,16,6,14,8,13,3,1,11,9
06:03:00,13,9,5,12,8,3,2,9,7
06:04:00,9,14,10,16,16,4,2,13,10
06:05:00,11,14,11,5,9,3,6,10,8
06:06:00,7,16,7,12,15,8,2,11,10
06:07:00,13,12,12,7,12,8,0,11,9
06:08:00,6,9,12,13,5,7,3,9,8
06:09:00,6,12,8,12,15,5,1,11,8
06:10:00,9,12,12,14,8,7,2,11,9
06:11:00,10,12,14,13,14,10,2,13,11
06:12:00,9,10,10,12,7,6,5,10,8
06:13:00,19,9,14,14,14,2,2,14,11
06:14:00,13,8,14,10,10,4,2,11,9
06:15:00,11,7,8,8,9,7,4,9,8
06:16:00,19,8,9,10,15,4,2,12,10
06:17:00,11,10,13,15,9,3,6,12,10
06:18:00,13,16,13,13,7,6,5,12,10
06:19:00,17,11,13,15,15,10,4,14,12
06:20:00,7,14,17,16,9,6,2,13,10
06:21:00,14,8,8,18,20,4,4,14,11
06:22:00,12,7,14,8,9,6,3,10,8
06:23:00,15,22,17,12,17,5,3,17,13
06:24:00,14,20,15,17,12,4,4,16,12
06:25:00,8,14,10,12,7,13,4,10,10
06:26:00,13,8,9,15,16,5,1,12,10
06:27:00,14,7,21,9,15,6,4,13,11
06:28:00,6,12,10,11,13,7,4,10,9
06:29:00,17,14,15,13,14,3,6,15,12
06:30:00,15,22,9,21,19,6,9,17,14
06:31:00,14,11,14,13,15,3,7,13,11
06:32:00,12,17,16,14,18,7,4,15,13
06:33:00,12,15,20,13,14,5,1,15,11
06:34:00,17,21,14,18,21,7,4,18,15
06:35:00,21,15,27,28,18,5,2,22,17
06:36:00,21,26,15,17,22,6,7,20,16
06:37:00,16,20,15,17,16,5,8,17,14
06:38:00,17,13,22,14,18,14,4,17,15
06:39:00,22,14,21,20,19,6,3,19,15
06:40:00,19,17,23,23,13,9,7,19,16
06:41:00,10,33,17,26,25,7,2,22,17
06:42:00,24,18,22,14,12,2,5,18,14
06:43:00,17,26,24,17,20,5,6,21,16
06:44:00,23,21,18,20,26,6,3,22,17
06:45:00,17,18,24,24,26,4,5,22,17
06:46:00,24,29,25,10,15,5,0,21,15
06:47:00,22,25,29,22,25,7,2,25,19
06:48:00,21,34,16,24,23,4,2,24,18
06:49:00,26,30,29,25,29,9,4,28,22
06:50:00,30,30,27,26,18,6,3,26,20
06:51:00,33,23,27,29,32,9,5,29,23
06:52:00,29,30,30,26,26,7,6,28,22
06:53:00,27,31,30,20,26,5,5,27,21
06:54:00,22,23,24,19,16,9,2,21,16
06:55:00,26,29,24,22,23,5,1,25,19
06:56:00,23,25,35,42,20,4,4,29,22
06:57:00,31,24,20,17,39,7,4,26,20
06:58:00,38,37,33,28,23,6,2,32,24
06:59:00,27,31,26,20,23,5,2,25,19
07:00:00,27,25,28,22,35,5,0,27,20
07:01:00,25,23,27,33,19,7,0,25,19
07:02:00,25,17,22,23,23,4,2,22,17
07:03:00,23,36,40,14,32,8,3,29,22
07:04:00,20,30,26,27,28,3,4,26,20
07:05:00,31,33,35,30,29,13,5,32,25
07:06:00,28,35,35,29,34,4,3,32,24
07:07:00,35,24,32,29,38,11,2,32,24
07:08:00,31,32,33,25,31,12,5,30,24
07:09:00,32,33,32,39,24,6,2,32,24
07:10:00,32,32,31,29,33,8,0,31,24
07:11:00,43,36,25,42,23,9,3,34,26
07:12:00,21,33,41,30,43,12,6,34,27
07:13:00,42,31,39,37,27,9,3,35,27
07:14:00,33,43,41,34,33,7,3,37,28
07:15:00,37,38,40,24,31,8,2,34,26
07:16:00,39,25,39,24,30,6,1,31,23
07:17:00,39,38,35,30,39,7,6,36,28
07:18:00,41,36,43,30,34,10,3,37,28
07:19:00,34,43,40,31,31,8,2,36,27
07:20:00,29,39,31,33,44,10,1,35,27
07:21:00,41,37,33,32,31,10,5,35,27
07:22:00,27,37,43,35,47,10,0,38,28
07:23:00,24,33,37,33,33,12,3,32,25
07:24:00,37,42,37,27,27,7,7,34,26
07:25:00,31,45,37,32,43,9,5,38,29
07:26:00,30,30,33,31,27,13,3,30,24
07:27:00,33,37,34,38,41,7,5,37,28
07:28:00,46,37,41,38,39,10,3,40,31
07:29:00,30,28,32,36,34,7,6,32,25
07:30:00,40,36,41,29,35,16,4,36,29
07:31:00,38,35,42,29,41,10,3,37,28
07:32:00,35,33,28,37,33,9,0,33,25
07:33:00,40,35,46,41,38,10,2,40,30
07:34:00,24,37,49,35,39,11,7,37,29
07:35:00,40,50,47,38,31,12,5,41,32
07:36:00,39,36,25,39,44,9,1,37,28
07:37:00,47,39,49,41,35,13,2,42,32
07:38:00,35,36,55,32,41,12,2,40,30
07:39:00,31,36,34,36,49,10,4,37,29
07:40:00,49,45,44,37,49,15,1,45,34
07:41:00,42,38,43,33,42,19,1,40,31
07:42:00,41,37,39,39,34,18,2,38,30
07:43:00,36,47,43,45,42,17,3,43,33
07:44:00,37,48,36,42,43,12,6,41,32
07:45:00,34,38,40,47,25,6,2,37,27
07:46:00,40,26,48,26,36,15,3,35,28
07:47:00,39,40,47,32,37,8,4,39,30
07:48:00,34,43,44,32,45,16,5,40,31
07:49:00,32,34,31,32,39,9,4,34,26
07:50:00,43,32,33,40,39,16,3,37,29
07:51:00,32,42,33,38,30,17,2,35,28
07:52:00,35,27,30,35,32,26,6,32,27
07:53:00,44,17,43,36,37,17,5,35,28
07:54:00,36,23,36,33,43,10,1,34,26
07:55:00,29,38,29,29,34,25,9,32,28
07:56:00,32,44,36,34,35,14,2,36,28
07:57:00,46,44,24,40,21,17,6,35,28
07:58:00,27,41,30,29,34,19,2,32,26
07:59:00,30,34,34,26,30,18,2,31,25
08:00:00,34,23,33,29,42,11,2,32,25
08:01:00,36,31,34,29,41,23,4,34,28
08:02:00,35,39,37,28,32,11,3,34,26
08:03:00,37,46,39,39,29,19,3,38,30
08:04:00,33,41,41,35,24,11,2,35,27
08:05:00,37,40,48,25,40,15,6,38,30
08:06:00,41,37,32,27,32,13,3,34,26
08:07:00,37,43,26,34,33,15,3,35,27
08:08:00,42,37,40,35,49,13,3,41,31
08:09:00,30,36,28,38,46,15,11,36,29
08:10:00,30,38,37,49,37,16,10,38,31
08:11:00,37,32,40,40,38,20,1,37,30
08:12:00,41,44,46,39,34,16,3,41,32
08:13:00,30,40,52,37,33,23,7,38,32
08:14:00,34,40,32,29,44,12,4,36,28
08:15:00,35,33,46,36,43,18,4,39,31
08:16:00,39,47,45,43,32,24,5,41,34
08:17:00,39,45,33,38,32,13,4,37,29
08:18:00,41,43,32,32,45,19,3,39,31
08:19:00,49,37,34,33,36,16,4,38,30
08:20:00,30,36,40,27,37,19,2,34,27
08:21:00,37,41,33,43,39,17,3,39,30
08:22:00,41,38,29,36,33,21,6,35,29
08:23:00,46,27,27,41,33,19,8,35,29
08:24:00,29,42,22,26,38,15,7,31,26
08:25:00,37,37,32,24,34,18,8,33,27
08:26:00,33,37,34,26,25,23,6,31,26
08:27:00,39,27,12,32,36,20,6,29,25
08:28:00,35,38,30,43,32,20,6,36,29
08:29:00,32,37,17,36,34,24,6,31,27
08:30:00,30,36,18,39,25,19,6,30,25
08:31:00,39,31,32,36,26,21,12,33,28
08:32:00,30,39,48,38,30,20,5,37,30
08:33:00,34,33,45,32,41,17,8,37,30
08:34:00,31,29,37,39,35,22,14,34,30
08:35:00,26,42,48,46,41,14,6,41,32
08:36:00,33,26,39,33,29,23,14,32,28
08:37:00,54,28,29,25,31,21,8,33,28
08:38:00,36,41,30,28,29,17,7,33,27
08:39:00,39,34,31,33,37,31,11,35,31
08:40:00,37,31,25,36,39,25,7,34,29
08:41:00,40,34,24,28,31,22,5,31,26
08:42:00,41,39,38,38,35,32,5,38,33
08:43:00,30,31,26,34,32,24,7,31,26
08:44:00,17,39,46,28,33,17,6,33,27
08:45:00,38,37,49,32,35,24,2,38,31
08:46:00,44,29,33,33,43,30,7,36,31
08:47:00,34,31,23,33,37,22,5,32,26
08:48:00,32,34,39,30,35,23,6,34,28
08:49:00,23,34,38,28,22,32,9,29,27
08:50:00,34,29,38,36,33,20,3,34,28
08:51:00,34,34,39,40,41,22,10,38,31
08:52:00,35,41,35,40,39,18,6,38,31
08:53:00,20,36,34,38,34,30,5,32,28
08:54:00,33,42,39,42,36,34,7,38,33
08:55:00,44,36,38,25,46,18,9,38,31
08:56:00,29,39,25,40,38,28,4,34,29
08:57:00,32,40,32,30,40,26,3,35,29
08:58:00,36,32,33,37,23,19,1,32,26
08:59:00,22,32,33,32,41,26,6,32,27
09:00:00,53,39,43,33,37,24,3,41,33
09:01:00,40,30,29,36,25,16,5,32,26
09:02:00,39,37,44,42,39,31,5,40,34
09:03:00,34,42,42,35,35,16,10,38,31
09:04:00,36,51,41,41,43,24,7,42,35
09:05:00,35,50,30,46,38,27,3,40,33
09:06:00,40,45,39,48,45,27,10,43,36
09:07:00,38,38,32,44,43,32,7,39,33
09:08:00,37,36,34,39,39,27,12,37,32
09:09:00,43,39,37,34,51,19,5,41,33
09:10:00,44,39,40,40,32,18,7,39,31
09:11:00,43,35,30,36,33,22,5,35,29
09:12:00,42,28,36,27,36,15,9,34,28
09:13:00,32,36,37,35,36,21,7,35,29
09:14:00,45,34,43,27,30,24,9,36,30
09:15:00,41,31,45,44,38,21,7,40,32
09:16:00,37,31,38,36,24,22,11,33,28
09:17:00,25,33,36,33,43,23,7,34,29
09:18:00,27,30,31,44,31,23,10,33,28
09:19:00,24,36,31,43,36,23,21,34,31
09:20:00,39,28,37,37,34,21,6,35,29
09:21:00,29,36,33,43,25,25,8,33,28
09:22:00,30,29,33,39,30,22,9,32,27
09:23:00,31,33,43,26,23,24,10,31,27
09:24:00,34,40,27,33,32,34,10,33,30
09:25:00,36,36,32,33,33,34,13,34,31
09:26:00,27,34,34,39,35,23,3,34,28
09:27:00,37,45,25,30,32,33,9,34,30
09:28:00,31,29,32,34,32,26,7,32,27
09:29:00,32,31,40,34,42,26,12,36,31
09:30:00,41,29,35,40,42,29,13,37,33
09:31:00,21,36,30,22,45,30,9,31,28
09:32:00,36,36,28,44,24,26,4,34,28
09:33:00,32,24,30,26,40,31,4,30,27
09:34:00,35,29,31,46,25,42,11,33,31
09:35:00,25,36,26,27,34,27,13,30,27
09:36:00,37,29,31,40,19,34,19,31,30
09:37:00,33,39,33,39,36,29,10,36,31
09:38:00,22,27,29,33,28,26,11,28,25
09:39:00,20,36,26,39,28,37,12,30,28
09:40:00,27,30,27,27,35,30,16,29,27
09:41:00,34,22,29,32,29,33,15,29,28
09:42:00,25,28,29,39,28,27,4,30,26
09:43:00,31,30,33,35,25,27,8,31,27
09:44:00,25,23,33,37,26,29,12,29,26
09:45:00,33,28,29,29,36,19,9,31,26
09:46:00,22,31,36,32,22,43,5,29,27
09:47:00,34,30,41,23,40,39,8,34,31
09:48:00,22,31,32,24,42,40,3,30,28
09:49:00,34,33,25,28,29,30,9,30,27
09:50:00,29,28,29,29,39,32,7,31,28
09:51:00,27,34,37,32,37,44,11,33,32
09:52:00,35,32,34,26,31,29,9,32,28
09:53:00,27,23,35,33,37,33,13,31,29
09:54:00,35,25,28,31,23,24,18,28,26
09:55:00,32,38,41,28,35,36,12,35,32
09:56:00,33,26,32,35,19,27,10,29,26
09:57:00,31,31,31,42,30,39,16,33,31
09:58:00,29,29,24,24,25,37,8,26,25
09:59:00,37,30,35,30,38,37,8,34,31
10:00:00,19,33,29,37,23,39,16,28,28
10:01:00,26,31,31,35,31,38,12,31,29
10:02:00,28,30,32,29,29,36,8,30,27
10:03:00,34,22,25,27,28,27,9,27,25
10:04:00,33,33,24,25,22,32,13,27,26
10:05:00,32,30,29,33,33,29,4,31,27
10:06:00,28,33,24,25,27,27,10,27,25
10:07:00,35,31,28,24,30,34,10,30,27
10:08:00,35,29,24,19,19,39,9,25,25
10:09:00,44,30,31,31,33,42,14,34,32
10:10:00,36,20,30,30,40,34,19,31,30
10:11:00,30,29,29,29,32,31,18,30,28
10:12:00,34,28,37,28,35,38,12,32,30
10:13:00,31,32,33,28,20,37,16,29,28
10:14:00,22,35,37,30,24,40,12,30,29
10:15:00,30,26,37,27,41,35,14,32,30
10:16:00,28,19,32,28,36,36,14,29,28
10:17:00,29,35,41,39,22,50,8,33,32
10:18:00,37,35,43,30,37,30,9,36,32
10:19:00,35,32,29,28,25,38,15,30,29
10:20:00,33,20,33,35,25,34,13,29,28
10:21:00,25,35,21,34,30,42,12,29,28
10:22:00,41,30,25,30,28,36,11,31,29
10:23:00,31,28,30,29,28,29,17,29,27
10:24:00,36,34,22,37,31,40,12,32,30
10:25:00,24,26,42,27,33,41,9,30,29
10:26:00,30,33,29,28,27,41,14,29,29
10:27:00,26,33,28,41,27,39,24,31,31
10:28:00,39,25,31,36,33,34,13,33,30
10:29:00,26,38,30,32,38,43,13,33,31
10:30:00,30,31,41,36,30,36,10,34,31
10:31:00,29,23,23,44,31,35,19,30,29
10:32:00,25,24,27,24,35,37,13,27,26
10:33:00,29,35,32,43,28,28,7,33,29
10:34:00,20,27,25,38,32,31,20,28,28
10:35:00,29,34,30,31,37,41,13,32,31
10:36:00,31,37,44,41,44,36,15,39,35
10:37:00,35,27,34,26,30,35,13,30,29
10:38:00,35,35,36,30,35,28,14,34,30
10:39:00,22,31,27,38,37,33,18,31,29
10:40:00,34,34,30,33,38,37,16,34,32
10:41:00,28,26,30,33,38,42,15,31,30
10:42:00,27,27,25,28,31,36,9,28,26
10:43:00,33,30,32,30,28,45,12,31,30
10:44:00,21,32,24,32,38,32,16,29,28
10:45:00,36,27,23,31,30,27,12,29,27
10:46:00,39,31,30,43,35,44,8,36,33
10:47:00,30,30,18,30,27,44,14,27,28
10:48:00,28,30,39,33,34,30,11,33,29
10:49:00,24,39,24,26,28,33,22,28,28
10:50:00,32,31,25,26,31,39,7,29,27
10:51:00,38,26,25,33,30,42,10,30,29
10:52:00,25,27,26,32,26,49,14,27,28
10:53:00,27,26,26,21,31,25,19,26,25
10:54:00,31,38,30,38,44,44,22,36,35
10:55:00,26,23,26,21,33,51,14,26,28
10:56:00,36,25,26,31,37,45,13,31,30
10:57:00,28,15,40,27,39,42,19,30,30
10:58:00,32,22,25,34,35,26,13,30,27
10:59:00,26,34,34,30,37,42,13,32,31
11:00:00,28,27,33,25,33,34,14,29,28
11:01:00,26,29,42,32,29,29,12,32,28
11:02:00,42,24,25,21,41,39,14,31,29
11:03:00,29,28,29,26,35,41,8,29,28
11:04:00,31,33,33,38,31,36,18,33,31
11:05:00,34,24,32,38,33,39,8,32,30
11:06:00,28,42,31,39,27,46,13,33,32
11:07:00,31,21,32,35,29,48,12,30,30
11:08:00,27,27,36,31,30,28,16,30,28
11:09:00,23,26,33,25,32,37,20,28,28
11:10:00,28,26,27,31,31,43,15,29,29
11:11:00,34,22,26,22,33,35,18,27,27
11:12:00,30,20,34,23,30,47,13,27,28
11:13:00,26,27,22,22,25,34,18,24,25
11:14:00,27,26,34,33,24,39,15,29,28
11:15:00,27,28,34,27,35,44,12,30,30
11:16:00,24,18,29,31,42,38,9,29,27
11:17:00,24,36,25,29,36,40,17,30,30
11:18:00,32,28,27,32,41,39,9,32,30
11:19:00,29,27,36,30,35,39,16,31,30
11:20:00,27,24,31,21,34,40,15,27,27
11:21:00,38,21,38,29,30,45,17,31,31
11:22:00,25,23,26,36,29,42,17,28,28
11:23:00,35,34,37,45,45,27,12,39,34
11:24:00,25,25,34,36,28,29,10,30,27
11:25:00,31,23,33,26,40,43,8,31,29
11:26:00,22,27,34,25,44,36,6,30,28
11:27:00,38,29,27,34,30,40,19,32,31
11:28:00,18,31,30,25,26,40,13,26,26
11:29:00,24,27,30,23,24,34,12,26,25
11:30:00,35,38,34,27,29,51,10,33,32
11:31:00,12,34,41,36,29,31,12,30,28
11:32:00,35,26,37,29,38,37,19,33,32
11:33:00,38,24,29,33,36,36,20,32,31
11:34:00,35,35,37,37,25,32,17,34,31
11:35:00,21,34,31,21,38,47,18,29,30
11:36:00,25,36,28,38,38,37,20,33,32
11:37:00,28,26,32,34,25,35,14,29,28
11:38:00,28,24,36,26,34,43,19,30,30
11:39:00,28,22,31,35,35,44,16,30,30
11:40:00,26,22,35,28,34,47,15,29,30
11:41:00,33,29,30,33,34,42,13,32,31
11:42:00,35,29,35,17,44,34,15,32,30
11:43:00,25,31,30,28,28,35,12,28,27
11:44:00,24,26,26,39,27,42,10,28,28
11:45:00,42,35,26,39,18,45,19,32,32
11:46:00,32,23,28,34,25,25,13,28,26
11:47:00,29,38,32,41,39,43,18,36,34
11:48:00,35,26,33,27,31,38,18,30,30
11:49:00,28,36,32,31,43,35,16,34,32
11:50:00,34,33,34,34,25,37,13,32,30
11:51:00,32,31,31,34,37,47,14,33,32
11:52:00,28,19,29,34,36,29,15,29,27
11:53:00,26,31,37,33,32,47,21,32,32
11:54:00,31,34,35,32,29,51,13,32,32
11:55:00,27,31,31,32,29,43,13,30,29
11:56:00,32,28,36,24,30,50,20,30,31
11:57:00,26,27,30,22,32,53,14,27,29
11:58:00,25,21,25,22,33,33,20,25,26
11:59:00,38,27,40,29,31,38,18,33,32
12:00:00,39,29,31,45,47,44,17,38,36
12:01:00,35,25,26,17,24,44,10,25,26
12:02:00,24,27,28,31,33,54,12,29,30
12:03:00,46,26,43,36,26,33,17,35,32
12:04:00,32,37,36,33,40,40,22,36,34
12:05:00,36,27,29,30,29,47,12,30,30
12:06:00,32,27,45,26,34,47,13,33,32
12:07:00,29,31,32,37,37,60,18,33,35
12:08:00,40,33,29,23,35,48,13,32,32
12:09:00,32,23,35,32,26,44,10,30,29
12:10:00,38,33,41,38,45,37,13,39,35
12:11:00,31,19,24,45,39,46,14,32,31
12:12:00,37,33,46,27,28,47,16,34,33
12:13:00,32,22,30,32,35,36,17,30,29
12:14:00,29,32,39,25,33,59,14,32,33
12:15:00,41,33,28,44,27,42,15,35,33
12:16:00,26,35,29,32,47,57,7,34,33
12:17:00,23,32,24,37,27,51,20,29,31
12:18:00,36,42,48,41,45,39,18,42,38
12:19:00,33,24,23,33,40,57,16,31,32
12:20:00,39,23,31,42,45,49,15,36,35
12:21:00,26,34,36,37,32,46,6,33,31
12:22:00,41,40,38,34,30,47,19,37,36
12:23:00,34,30,30,39,30,46,21,33,33
12:24:00,29,37,27,31,39,50,15,33,33
12:25:00,23,35,31,28,39,43,11,31,30
12:26:00,41,29,31,33,38,39,14,34,32
12:27:00,35,29,32,44,34,42,20,35,34
12:28:00,27,25,30,22,38,48,14,28,29
12:29:00,25,25,28,35,29,55,12,28,30
12:30:00,26,24,28,33,29,49,15,28,29
12:31:00,20,39,30,22,43,31,14,31,28
12:32:00,42,27,25,32,36,33,16,32,30
12:33:00,27,26,39,36,30,45,19,32,32
12:34:00,47,30,34,33,37,36,16,36,33
12:35:00,35,28,30,41,42,37,9,35,32
12:36:00,32,35,33,27,41,44,11,34,32
12:37:00,29,21,35,32,45,41,11,32,31
12:38:00,27,34,42,34,33,33,15,34,31
12:39:00,28,42,37,45,32,49,13,37,35
12:40:00,40,35,42,30,30,39,15,35,33
12:41:00,45,36,38,27,33,46,16,36,34
12:42:00,24,36,40,34,26,38,19,32,31
12:43:00,29,39,27,40,33,44,13,34,32
12:44:00,35,31,33,31,32,42,16,32,31
12:45:00,33,30,32,35,44,43,21,35,34
12:46:00,32,51,34,39,36,38,22,38,36
12:47:00,35,32,19,31,38,52,9,31,31
12:48:00,32,28,32,42,38,56,24,34,36
12:49:00,34,39,35,33,39,45,9,36,33
12:50:00,40,41,37,44,33,44,26,39,38
12:51:00,29,36,36,35,31,46,13,33,32
12:52:00,26,33,29,42,44,46,14,35,33
12:53:00,32,38,36,36,41,49,15,37,35
12:54:00,31,21,39,37,38,43,13,33,32
12:55:00,34,20,22,39,23,48,6,28,27
12:56:00,30,40,32,33,36,50,14,34,34
12:57:00,31,34,29,36,30,48,14,32,32
12:58:00,38,38,25,42,33,35,7,35,31
12:59:00,32,24,42,33,28,43,14,32,31
13:00:00,37,37,34,30,39,46,13,35,34
13:01:00,26,35,36,34,38,40,19,34,33
13:02:00,26,40,40,42,17,53,9,33,32
13:03:00,27,36,47,31,40,38,10,36,33
13:04:00,30,30,40,45,41,40,12,37,34
13:05:00,30,31,46,33,33,37,18,35,33
13:06:00,31,34,32,28,31,42,18,31,31
13:07:00,39,36,28,32,38,33,11,35,31
13:08:00,25,33,38,43,34,50,18,35,34
13:09:00,43,39,40,34,28,45,15,37,35
13:10:00,43,39,34,36,44,56,9,39,37
13:11:00,29,30,24,43,38,40,11,33,31
13:12:00,38,31,26,40,33,36,12,34,31
13:13:00,27,28,40,32,42,52,16,34,34
13:14:00,22,23,30,30,39,44,14,29,29
13:15:00,35,26,26,34,29,44,14,30,30
13:16:00,37,42,37,38,33,42,17,37,35
13:17:00,34,34,38,37,45,46,18,38,36
13:18:00,31,48,33,34,30,45,10,35,33
13:19:00,30,21,35,33,33,33,12,30,28
13:20:00,37,28,35,31,36,43,16,33,32
13:21:00,33,39,26,34,39,42,15,34,33
13:22:00,28,39,38,21,45,43,8,34,32
13:23:00,38,27,28,23,42,45,16,32,31
13:24:00,43,43,33,28,39,43,12,37,34
13:25:00,33,38,27,40,41,45,17,36,34
13:26:00,29,33,34,31,34,34,11,32,29
13:27:00,31,34,34,39,37,43,19,35,34
13:28:00,34,34,31,32,41,38,15,34,32
13:29:00,29,28,25,34,28,36,15,29,28
13:30:00,35,31,28,25,43,40,6,32,30
13:31:00,28,32,38,44,36,39,12,36,33
13:32:00,40,21,31,40,24,42,12,31,30
13:33:00,35,23,26,34,37,40,14,31,30
13:34:00,33,31,37,29,31,47,16,32,32
13:35:00,31,25,38,32,33,51,15,32,32
13:36:00,32,27,38,33,45,48,17,35,34
13:37:00,29,25,30,25,35,37,9,29,27
13:38:00,21,35,32,34,42,35,22,33,32
13:39:00,38,33,32,41,33,31,15,35,32
13:40:00,34,26,41,27,39,35,13,33,31
13:41:00,37,33,32,46,38,34,11,37,33
13:42:00,36,22,31,39,22,45,12,30,30
13:43:00,29,25,33,32,44,44,14,33,32
13:44:00,40,37,33,41,35,36,7,37,33
13:45:00,22,39,31,47,36,40,6,35,32
13:46:00,37,24,34,37,38,52,15,34,34
13:47:00,38,26,34,40,42,49,12,36,34
13:48:00,31,36,34,36,60,41,14,39,36
13:49:00,38,43,34,42,45,45,8,40,36
13:50:00,35,23,30,27,32,37,16,29,29
13:51:00,31,32,41,35,45,27,12,37,32
13:52:00,36,41,42,25,43,54,14,37,36
13:53:00,30,34,32,26,34,42,11,31,30
13:54:00,38,21,40,26,35,40,11,32,30
13:55:00,36,34,30,35,39,40,6,35,31
13:56:00,38,37,43,36,44,38,11,40,35
13:57:00,32,36,30,26,34,35,19,32,30
13:58:00,39,33,30,31,40,38,7,35,31
13:59:00,31,26,28,30,41,42,23,31,32
14:00:00,30,24,32,44,37,40,12,33,31
14:01:00,32,25,29,37,44,33,11,33,30
14:02:00,36,38,19,36,38,38,16,33,32
14:03:00,42,30,30,36,32,47,15,34,33
14:04:00,28,34,31,34,34,45,12,32,31
14:05:00,35,29,27,42,35,34,14,34,31
14:06:00,47,30,34,37,45,40,13,39,35
14:07:00,30,37,31,39,44,38,19,36,34
14:08:00,23,35,48,34,31,49,26,34,35
14:09:00,36,39,32,40,44,45,18,38,36
14:10:00,33,30,36,34,34,34,21,33,32
14:11:00,36,46,39,45,39,38,10,41,36
14:12:00,37,30,27,22,43,42,17,32,31
14:13:00,33,39,33,35,29,42,17,34,33
14:14:00,30,43,38,28,32,35,16,34,32
14:15:00,24,30,45,45,26,42,16,34,33
14:16:00,31,26,40,36,32,36,14,33,31
14:17:00,40,31,34,36,47,43,23,38,36
14:18:00,32,35,47,42,37,41,17,39,36
14:19:00,45,39,34,25,33,48,14,35,34
14:20:00,43,33,41,39,30,33,10,37,33
14:21:00,36,36,34,31,28,47,16,33,33
14:22:00,42,29,31,42,36,45,19,36,35
14:23:00,40,37,36,45,37,36,16,39,35
14:24:00,42,37,41,32,37,46,17,38,36
14:25:00,29,28,35,32,40,34,13,33,30
14:26:00,39,31,44,34,36,39,10,37,33
14:27:00,32,29,35,31,44,41,15,34,32
14:28:00,31,44,37,35,34,27,14,36,32
14:29:00,32,28,37,32,34,25,7,33,28
14:30:00,32,25,32,38,45,33,20,34,32
14:31:00,26,42,29,31,29,28,15,31,29
14:32:00,30,26,23,42,45,30,12,33,30
14:33:00,25,24,27,27,51,28,22,31,29
14:34:00,45,29,33,39,39,42,10,37,34
14:35:00,37,31,34,26,32,32,10,32,29
14:36:00,42,30,38,39,51,27,14,40,34
14:37:00,37,28,33,36,27,37,8,32,29
14:38:00,31,41,29,34,35,45,20,34,34
14:39:00,31,35,31,32,40,28,12,34,30
14:40:00,33,44,34,39,32,37,7,36,32
14:41:00,33,36,29,29,34,36,13,32,30
14:42:00,34,31,24,38,31,31,10,32,28
14:43:00,39,32,34,31,30,45,13,33,32
14:44:00,31,41,47,41,40,41,11,40,36
14:45:00,44,37,36,39,44,39,9,40,35
14:46:00,24,30,42,35,44,37,12,35,32
14:47:00,29,25,39,24,33,41,13,30,29
14:48:00,38,27,26,42,40,31,20,35,32
14:49:00,45,21,39,32,42,30,18,36,32
14:50:00,31,36,33,24,47,41,9,34,32
14:51:00,37,38,40,34,44,36,16,39,35
14:52:00,35,38,25,36,44,37,16,36,33
14:53:00,29,38,47,37,38,32,9,38,33
14:54:00,46,33,33,40,34,37,16,37,34
14:55:00,30,37,34,32,38,30,11,34,30
14:56:00,33,27,44,36,37,34,6,35,31
14:57:00,27,27,33,27,35,26,11,30,27
14:58:00,40,33,39,37,46,33,14,39,35
14:59:00,26,30,29,36,31,43,11,30,29
15:00:00,33,29,32,33,37,39,7,33,30
15:01:00,17,35,39,37,40,36,12,34,31
15:02:00,41,34,35,50,39,32,12,40,35
15:03:00,26,36,36,34,45,27,12,35,31
15:04:00,23,33,35,39,40,38,15,34,32
15:05:00,35,31,30,36,47,42,7,36,33
15:06:00,30,24,28,35,48,32,7,33,29
15:07:00,35,32,33,37,42,38,11,36,33
15:08:00,33,43,36,36,40,45,10,38,35
15:09:00,40,36,36,42,42,35,11,39,35
15:10:00,30,31,27,33,43,48,20,33,33
15:11:00,37,38,44,36,38,26,11,39,33
15:12:00,25,38,48,43,32,33,19,37,34
15:13:00,39,36,38,35,30,41,12,36,33
15:14:00,29,33,42,35,24,35,16,33,31
15:15:00,34,29,33,42,35,33,16,35,32
15:16:00,28,32,35,33,23,48,18,30,31
15:17:00,38,36,37,33,34,34,10,36,32
15:18:00,23,23,26,44,36,30,11,30,28
15:19:00,38,28,30,34,44,44,15,35,33
15:20:00,38,33,31,37,44,47,14,37,35
15:21:00,23,27,43,41,38,28,15,34,31
15:22:00,30,34,30,40,35,29,14,34,30
15:23:00,37,29,35,28,34,33,15,33,30
15:24:00,37,33,26,41,40,33,6,35,31
15:25:00,34,36,38,29,33,34,15,34,31
15:26:00,31,39,44,42,50,33,11,41,36
15:27:00,39,34,45,35,38,38,19,38,35
15:28:00,28,42,43,34,38,41,9,37,34
15:29:00,29,35,26,37,48,29,15,35,31
15:30:00,34,30,32,43,46,27,7,37,31
15:31:00,39,37,52,31,39,34,17,40,36
15:32:00,27,22,29,43,24,31,5,29,26
15:33:00,32,40,29,38,38,35,15,35,32
15:34:00,30,33,31,45,35,39,9,35,32
15:35:00,35,42,32,41,35,30,9,37,32
15:36:00,31,41,30,36,46,22,14,37,31
15:37:00,42,23,40,35,38,27,11,36,31
15:38:00,33,35,47,39,49,40,8,41,36
15:39:00,39,31,38,35,34,31,18,35,32
15:40:00,41,37,27,32,41,43,9,36,33
15:41:00,33,30,40,29,40,38,16,34,32
15:42:00,29,40,45,37,45,44,9,39,36
15:43:00,31,38,46,31,44,28,10,38,33
15:44:00,38,34,43,54,36,31,17,41,36
15:45:00,26,40,26,36,39,36,13,33,31
15:46:00,41,40,36,23,34,40,10,35,32
15:47:00,31,49,40,47,38,37,18,41,37
15:48:00,45,40,29,39,38,40,12,38,35
15:49:00,38,45,35,32,40,32,16,38,34
15:50:00,40,28,29,34,35,38,11,33,31
15:51:00,33,39,36,40,41,34,6,38,33
15:52:00,34,31,45,37,32,27,14,36,31
15:53:00,27,35,33,36,36,34,18,33,31
15:54:00,39,40,35,46,37,36,5,39,34
15:55:00,40,39,38,32,42,25,16,38,33
15:56:00,45,40,44,49,51,34,10,46,39
15:57:00,23,22,38,39,46,37,9,34,31
15:58:00,18,23,37,47,40,30,7,33,29
15:59:00,34,47,37,40,42,34,17,40,36
16:00:00,19,39,35,46,48,39,9,37,34
16:01:00,31,37,38,41,48,33,10,39,34
16:02:00,36,33,33,36,41,39,8,36,32
16:03:00,48,47,42,43,39,39,8,44,38
16:04:00,54,34,41,46,38,38,12,43,38
16:05:00,46,40,39,39,50,38,12,43,38
16:06:00,41,43,33,33,54,30,12,41,35
16:07:00,43,32,43,38,36,39,18,38,36
16:08:00,28,35,35,42,38,41,7,36,32
16:09:00,29,45,41,45,46,29,17,41,36
16:10:00,46,37,34,45,44,35,9,41,36
16:11:00,32,43,49,47,37,38,14,42,37
16:12:00,40,33,45,45,42,31,9,41,35
16:13:00,36,48,40,43,51,34,7,44,37
16:14:00,28,42,42,32,40,24,13,37,32
16:15:00,21,40,51,37,31,35,12,36,32
16:16:00,28,34,42,47,48,35,15,40,36
16:17:00,43,41,45,44,51,31,11,45,38
16:18:00,34,40,45,46,40,40,9,41,36
16:19:00,38,44,38,38,43,31,7,40,34
16:20:00,42,38,33,39,45,40,10,39,35
16:21:00,51,43,40,55,52,31,9,48,40
16:22:00,44,43,29,42,30,32,12,38,33
16:23:00,45,50,44,32,37,38,18,42,38
16:24:00,37,40,45,43,44,29,8,42,35
16:25:00,43,32,45,42,50,24,11,42,35
16:26:00,35,55,37,55,32,32,10,43,37
16:27:00,38,56,42,46,43,23,10,45,37
16:28:00,37,41,37,41,54,32,8,42,36
16:29:00,38,31,44,48,41,22,6,40,33
16:30:00,32,42,43,49,51,39,13,43,38
16:31:00,40,48,35,45,49,26,11,43,36
16:32:00,46,49,33,57,36,32,11,44,38
16:33:00,46,38,50,44,44,30,6,44,37
16:34:00,48,36,61,45,46,27,18,47,40
16:35:00,40,49,40,51,45,37,2,45,38
16:36:00,45,41,45,36,51,27,15,44,37
16:37:00,45,51,48,33,47,46,9,45,40
16:38:00,42,36,41,44,37,34,12,40,35
16:39:00,43,49,38,50,52,34,5,46,39
16:40:00,38,38,45,46,47,28,11,43,36
16:41:00,44,28,59,46,42,23,17,44,37
16:42:00,38,40,44,55,55,30,14,46,39
16:43:00,37,43,42,39,48,28,14,42,36
16:44:00,40,40,44,43,53,41,11,44,39
16:45:00,37,51,42,46,33,31,13,42,36
16:46:00,41,43,48,31,36,35,11,40,35
16:47:00,50,42,44,43,53,39,17,46,41
16:48:00,54,40,46,52,39,29,7,46,38
16:49:00,49,46,38,30,37,30,15,40,35
16:50:00,34,36,42,44,52,43,16,42,38
16:51:00,42,47,32,36,47,35,5,41,35
16:52:00,37,43,43,55,53,31,17,46,40
16:53:00,53,51,47,36,48,27,10,47,39
16:54:00,45,54,40,39,34,33,12,42,37
16:55:00,37,34,34,52,47,35,6,41,35
16:56:00,38,44,36,30,48,41,11,39,35
16:57:00,42,43,44,49,50,30,10,46,38
16:58:00,41,35,44,35,41,25,17,39,34
16:59:00,42,45,56,34,38,33,11,43,37
17:00:00,45,36,46,41,38,29,5,41,34
17:01:00,40,46,47,34,46,34,12,43,37
17:02:00,41,43,36,36,43,26,14,40,34
17:03:00,48,41,53,46,52,29,15,48,41
17:04:00,48,51,44,40,44,30,9,45,38
17:05:00,36,46,39,34,49,40,15,41,37
17:06:00,48,47,41,33,38,30,11,41,35
17:07:00,40,45,52,36,48,36,9,44,38
17:08:00,43,34,45,36,41,17,9,40,32
17:09:00,40,37,55,31,37,31,7,40,34
17:10:00,39,45,36,35,42,42,17,39,37
17:11:00,49,37,40,37,56,37,11,44,38
17:12:00,47,46,43,36,41,29,13,43,36
17:13:00,48,37,34,25,43,28,12,37,32
17:14:00,42,47,41,36,33,31,12,40,35
17:15:00,40,48,47,52,44,41,8,46,40
17:16:00,43,49,48,34,38,34,12,42,37
17:17:00,42,47,34,47,44,24,8,43,35
17:18:00,43,46,56,39,44,29,12,46,38
17:19:00,29,45,38,29,42,20,10,37,30
17:20:00,43,40,45,32,43,26,10,41,34
17:21:00,46,52,43,33,48,29,6,44,37
17:22:00,41,34,42,35,43,32,18,39,35
17:23:00,54,47,50,36,35,32,9,44,38
17:24:00,40,53,53,48,44,27,9,48,39
17:25:00,45,45,42,35,49,32,5,43,36
17:26:00,31,37,50,43,38,36,6,40,34
17:27:00,36,47,32,40,49,28,7,41,34
17:28:00,37,24,37,41,50,32,5,38,32
17:29:00,32,51,45,40,42,27,6,42,35
17:30:00,42,51,44,39,41,24,11,43,36
17:31:00,42,44,42,40,27,31,8,39,33
17:32:00,40,49,41,46,45,15,15,44,36
17:33:00,47,47,51,45,33,29,8,45,37
17:34:00,43,38,44,42,44,24,21,42,37
17:35:00,47,47,33,43,38,30,10,42,35
17:36:00,42,39,23,39,35,22,13,36,30
17:37:00,39,50,41,52,47,21,6,46,37
17:38:00,35,43,23,40,32,24,9,35,29
17:39:00,46,36,36,43,32,29,9,39,33
17:40:00,44,50,37,48,33,28,11,42,36
17:41:00,38,39,36,41,23,23,11,35,30
17:42:00,39,44,22,44,40,29,16,38,33
17:43:00,38,51,28,47,37,20,8,40,33
17:44:00,38,37,28,46,29,30,5,36,30
17:45:00,43,44,31,51,50,31,7,44,37
17:46:00,37,43,22,34,25,22,10,32,28
17:47:00,37,35,30,44,42,21,8,38,31
17:48:00,40,43,26,47,37,35,5,39,33
17:49:00,32,31,28,41,36,25,9,34,29
17:50:00,45,36,32,34,33,30,6,36,31
17:51:00,35,31,24,43,33,26,8,33,29
17:52:00,33,47,28,38,43,19,9,38,31
17:53:00,33,34,33,34,33,22,8,33,28
17:54:00,33,29,28,52,44,13,11,37,30
17:55:00,39,30,36,47,35,24,13,37,32
17:56:00,32,33,33,34,24,16,5,31,25
17:57:00,30,29,31,26,28,26,11,29,26
17:58:00,33,40,26,32,31,17,12,32,27
17:59:00,33,33,10,42,37,21,6,31,26
18:00:00,46,41,26,28,27,27,13,34,30
18:01:00,37,38,26,43,28,21,4,34,28
18:02:00,43,44,28,33,31,28,6,36,30
18:03:00,25,36,27,28,29,19,12,29,25
18:04:00,26,38,31,34,36,29,13,33,30
18:05:00,34,27,33,46,41,28,10,36,31
18:06:00,41,37,20,32,41,28,12,34,30
18:07:00,32,37,21,46,30,14,11,33,27
18:08:00,37,34,21,37,29,24,6,32,27
18:09:00,38,30,26,33,35,32,5,32,28
18:10:00,29,38,16,37,41,30,5,32,28
18:11:00,40,47,19,33,33,26,10,34,30
18:12:00,38,36,17,40,39,21,12,34,29
18:13:00,40,36,26,29,36,28,4,33,28
18:14:00,39,33,23,43,42,18,10,36,30
18:15:00,29,35,21,40,36,22,8,32,27
18:16:00,40,32,24,28,44,20,11,34,28
18:17:00,40,45,20,33,37,33,7,35,31
18:18:00,33,25,26,35,33,21,9,30,26
18:19:00,31,29,18,25,29,24,12,26,24
18:20:00,37,33,25,39,38,22,7,34,29
18:21:00,30,29,17,23,38,33,9,27,26
18:22:00,24,44,21,23,27,20,10,28,24
18:23:00,30,31,27,28,27,24,5,29,25
18:24:00,19,25,12,33,20,21,8,22,20
18:25:00,33,28,25,18,37,20,7,28,24
18:26:00,16,17,10,29,29,16,5,20,17
18:27:00,29,31,12,20,27,21,9,24,21
18:28:00,25,26,20,30,31,29,11,26,25
18:29:00,27,35,19,23,30,12,7,27,22
18:30:00,21,31,20,25,32,30,13,26,25
18:31:00,23,19,20,25,31,23,11,24,22
18:32:00,24,27,27,26,32,16,8,27,23
18:33:00,25,25,24,27,29,22,6,26,23
18:34:00,26,27,18,22,21,24,13,23,22
18:35:00,22,24,33,24,29,17,9,26,23
18:36:00,33,26,22,33,22,20,6,27,23
18:37:00,26,24,32,31,23,19,17,27,25
18:38:00,34,25,29,33,24,10,9,29,23
18:39:00,17,27,21,29,25,16,6,24,20
18:40:00,30,22,27,37,28,18,8,29,24
18:41:00,33,33,24,20,27,24,6,27,24
18:42:00,18,30,29,22,25,29,5,25,23
18:43:00,26,24,18,30,25,18,10,25,22
18:44:00,27,27,15,32,15,22,6,23,21
18:45:00,36,34,29,25,32,17,4,31,25
18:46:00,14,24,19,20,33,15,7,22,19
18:47:00,29,19,24,20,22,17,9,23,20
18:48:00,27,37,31,36,21,24,4,30,26
18:49:00,19,30,31,37,16,13,14,27,23
18:50:00,28,33,28,30,25,19,4,29,24
18:51:00,28,20,18,29,32,20,3,25,21
18:52:00,16,30,21,29,27,28,13,25,23
18:53:00,29,33,21,29,16,13,10,26,22
18:54:00,26,34,33,32,19,10,13,29,24
18:55:00,20,18,35,20,20,21,6,23,20
18:56:00,19,21,24,31,22,23,11,23,22
18:57:00,17,16,29,17,29,15,9,22,19
18:58:00,19,29,14,23,23,25,9,22,20
18:59:00,25,23,15,31,24,13,10,24,20
19:00:00,24,25,30,29,27,21,11,27,24
19:01:00,22,16,25,23,24,13,8,22,19
19:02:00,14,20,26,27,18,16,8,21,18
19:03:00,17,16,18,31,17,14,11,20,18
19:04:00,20,20,23,23,23,15,12,22,19
19:05:00,23,19,37,24,29,23,10,26,24
19:06:00,32,18,22,19,21,14,13,22,20
19:07:00,28,24,32,26,26,15,14,27,24
19:08:00,26,36,39,33,28,27,8,32,28
19:09:00,30,16,31,34,22,16,16,27,24
19:10:00,34,25,24,32,30,14,16,29,25
19:11:00,23,23,34,25,25,18,6,26,22
19:12:00,23,19,21,34,24,19,11,24,22
19:13:00,37,26,22,20,27,16,3,26,22
19:14:00,21,23,37,33,13,15,11,25,22
19:15:00,23,18,34,24,25,16,15,25,22
19:16:00,21,24,33,28,22,24,10,26,23
19:17:00,14,19,23,16,29,8,8,20,17
19:18:00,11,27,23,22,23,20,8,21,19
19:19:00,28,22,36,31,28,15,7,29,24
19:20:00,7,25,37,17,22,12,10,22,19
19:21:00,19,12,45,25,14,11,4,23,19
19:22:00,16,29,34,22,17,14,3,24,19
19:23:00,21,22,24,23,13,27,12,21,20
19:24:00,21,23,27,21,26,5,8,24,19
19:25:00,16,26,22,23,19,13,7,21,18
19:26:00,18,17,18,21,24,15,15,20,18
19:27:00,15,12,17,27,18,19,7,18,16
19:28:00,22,14,22,26,23,17,9,21,19
19:29:00,15,13,27,19,18,14,12,18,17
19:30:00,10,15,28,26,23,16,3,20,17
19:31:00,15,14,21,24,19,12,9,19,16
19:32:00,13,17,27,17,16,19,7,18,17
19:33:00,16,19,23,25,28,10,7,22,18
19:34:00,27,12,16,24,24,20,13,21,19
19:35:00,15,13,21,23,14,15,5,17,15
19:36:00,14,22,19,22,24,16,17,20,19
19:37:00,9,10,24,18,20,12,12,16,15
19:38:00,18,26,13,11,16,6,9,17,14
19:39:00,14,16,14,12,24,16,6,16,15
19:40:00,15,19,14,22,17,5,11,17,15
19:41:00,17,15,19,21,12,11,9,17,15
19:42:00,14,16,17,23,20,10,13,18,16
19:43:00,16,11,16,23,17,14,6,17,15
19:44:00,22,12,13,29,17,16,13,19,17
19:45:00,11,21,19,14,21,16,10,17,16
19:46:00,17,10,16,17,13,6,7,15,12
19:47:00,15,16,12,15,21,9,3,16,13
19:48:00,16,19,15,15,18,8,4,17,14
19:49:00,10,10,12,23,18,12,10,15,14
19:50:00,18,10,20,23,15,10,3,17,14
19:51:00,9,18,12,11,17,9,6,13,12
19:52:00,11,21,18,13,13,10,6,15,13
19:53:00,9,12,12,12,11,9,8,11,10
19:54:00,9,19,12,16,13,14,5,14,13
19:55:00,12,20,11,15,22,8,9,16,14
19:56:00,11,13,14,18,23,11,3,16,13
19:57:00,16,20,14,11,18,14,10,16,15
19:58:00,12,18,19,11,16,13,4,15,13
19:59:00,20,16,11,12,23,12,7,16,14
20:00:00,16,18,13,17,15,12,4,16,14
20:01:00,14,14,15,22,14,17,8,16,15
20:02:00,18,12,15,17,20,5,6,16,13
20:03:00,25,19,20,24,24,12,5,22,18
20:04:00,16,19,24,18,21,9,4,20,16
20:05:00,22,20,15,22,16,8,8,19,16
20:06:00,15,22,19,11,21,14,11,18,16
20:07:00,18,13,19,15,11,21,6,15,15
20:08:00,15,19,11,21,16,11,6,16,14
20:09:00,17,18,27,21,16,8,8,20,16
20:10:00,18,12,13,18,18,11,6,16,14
20:11:00,13,21,22,25,22,10,6,21,17
20:12:00,18,22,13,16,12,12,7,16,14
20:13:00,6,13,11,11,14,13,4,11,10
20:14:00,18,12,18,13,17,13,6,16,14
20:15:00,16,13,9,17,19,16,11,15,14
20:16:00,17,11,13,15,16,9,8,14,13
20:17:00,10,9,9,24,16,14,4,14,12
20:18:00,17,15,10,18,10,11,4,14,12
20:19:00,19,14,8,21,18,8,6,16,13
20:20:00,15,14,18,16,12,9,9,15,13
20:21:00,13,12,9,16,15,5,2,13,10
20:22:00,12,15,14,9,17,9,7,13,12
20:23:00,16,8,17,16,19,15,5,15,14
20:24:00,10,11,14,10,10,10,7,11,10
20:25:00,11,15,11,17,15,9,5,14,12
20:26:00,10,6,15,12,13,7,8,11,10
20:27:00,11,10,11,9,12,10,5,11,10
20:28:00,6,13,6,11,15,6,5,10,9
20:29:00,8,7,11,11,12,5,9,10,9
20:30:00,8,6,8,9,14,14,4,9,9
20:31:00,10,11,9,10,12,4,6,10,9
20:32:00,10,13,15,9,9,6,6,11,10
20:33:00,9,11,13,16,18,6,6,13,11
20:34:00,8,10,12,12,12,6,5,11,9
20:35:00,17,10,10,10,11,5,2,12,9
20:36:00,7,15,12,14,11,6,4,12,10
20:37:00,7,13,13,15,14,12,6,12,11
20:38:00,12,10,10,8,4,6,6,9,8
20:39:00,13,11,8,16,14,4,6,12,10
20:40:00,10,10,8,13,16,7,7,11,10
20:41:00,5,13,17,9,6,8,3,10,9
20:42:00,12,13,14,5,6,10,7,10,10
20:43:00,5,10,5,13,7,3,2,8,6
20:44:00,7,11,18,11,10,14,4,11,11
20:45:00,9,15,12,13,10,8,5,12,10
20:46:00,11,12,9,10,10,6,5,10,9
20:47:00,15,15,10,20,11,5,5,14,12
20:48:00,10,5,10,12,14,7,4,10,9
20:49:00,7,9,10,15,9,8,9,10,10
20:50:00,12,10,11,13,15,7,4,12,10
20:51:00,6,8,10,6,9,4,4,8,7
20:52:00,11,11,11,7,9,10,3,10,9
20:53:00,9,7,12,3,9,16,4,8,9
20:54:00,10,6,12,10,12,14,9,10,10
20:55:00,3,10,13,12,11,9,0,10,8
20:56:00,8,10,11,8,11,12,4,10,9
20:57:00,9,6,7,10,11,12,0,9,8
20:58:00,8,5,7,14,6,13,5,8,8
20:59:00,11,10,10,16,11,7,8,12,10
21:00:00,11,13,9,10,4,7,5,9,8
21:01:00,10,7,16,10,8,7,5,10,9
21:02:00,12,11,15,13,5,12,4,11,10
21:03:00,9,9,13,15,10,7,4,11,10
21:04:00,8,16,21,15,14,6,1,15,12
21:05:00,11,11,7,13,8,5,1,10,8
21:06:00,6,17,11,8,6,7,3,10,8
21:07:00,5,9,17,14,14,10,2,12,10
21:08:00,7,8,13,20,13,7,1,12,10
21:09:00,11,14,13,14,7,8,6,12,10
21:10:00,9,9,10,14,14,7,3,11,9
21:11:00,15,16,13,14,7,8,3,13,11
21:12:00,12,18,14,14,10,6,5,14,11
21:13:00,11,4,17,9,11,8,8,10,10
21:14:00,10,8,19,15,18,9,3,14,12
21:15:00,13,15,19,10,12,5,5,14,11
21:16:00,8,14,10,11,9,13,16,10,12
21:17:00,10,13,9,10,10,5,3,10,9
21:18:00,6,9,14,10,5,8,9,9,9
21:19:00,5,7,6,15,13,3,3,9,7
21:20:00,3,11,7,8,13,5,3,8,7
21:21:00,4,15,14,14,14,8,1,12,10
21:22:00,7,5,8,10,13,3,6,9,7
21:23:00,13,8,13,13,4,13,5,10,10
21:24:00,12,3,9,8,6,6,2,8,7
21:25:00,6,5,12,12,5,9,5,8,8
21:26:00,9,4,6,17,8,1,5,9,7
21:27:00,11,9,9,8,8,8,6,9,8
21:28:00,8,9,10,8,10,7,6,9,8
21:29:00,8,6,3,5,6,6,4,6,5
21:30:00,6,7,10,7,11,6,7,8,8
21:31:00,7,8,9,5,8,4,5,7,7
21:32:00,6,12,7,12,9,7,7,9,9
21:33:00,3,9,5,8,6,7,4,6,6
21:34:00,12,15,8,9,8,7,3,10,9
21:35:00,9,12,8,10,10,5,5,10,8
21:36:00,11,13,9,5,9,3,10,9,9
21:37:00,6,4,10,11,7,4,3,8,6
21:38:00,7,9,8,13,8,12,3,9,9
21:39:00,6,6,10,11,6,6,1,8,7
21:40:00,3,12,8,13,8,12,6,9,9
21:41:00,7,8,10,8,7,2,5,8,7
21:42:00,5,7,8,9,5,8,5,7,7
21:43:00,6,10,9,14,7,5,4,9,8
21:44:00,7,6,3,10,4,6,2,6,5
21:45:00,2,6,11,7,8,6,3,7,6
21:46:00,9,8,12,8,10,5,5,9,8
21:47:00,8,10,3,9,7,10,3,7,7
21:48:00,5,8,8,9,10,11,1,8,7
21:49:00,8,12,5,6,6,6,4,7,7
21:50:00,6,8,6,8,6,8,0,7,6
21:51:00,3,6,1,8,5,5,6,5,5
21:52:00,7,12,9,7,7,5,9,8,8
21:53:00,15,4,9,3,3,7,2,7,6
21:54:00,6,6,9,6,9,8,2,7,7
21:55:00,4,7,8,4,11,9,3,7,7
21:56:00,2,8,8,4,6,6,1,6,5
21:57:00,3,5,9,7,7,7,5,6,6
21:58:00,9,12,8,6,5,5,2,8,7
21:59:00,4,6,6,10,3,4,5,6,5
22:00:00,11,3,9,6,9,9,7,8,8
22:01:00,5,7,5,4,7,5,6,6,6
22:02:00,6,10,6,7,3,5,0,6,5
22:03:00,9,11,4,11,17,4,1,10,8
22:04:00,10,9,8,5,8,3,9,8,7
22:05:00,7,10,8,14,10,7,7,10,9
22:06:00,6,15,6,6,13,10,6,9,9
22:07:00,5,10,12,8,10,9,3,9,8
22:08:00,11,11,9,9,11,6,6,10,9
22:09:00,8,16,7,5,11,3,6,9,8
22:10:00,7,11,9,9,9,6,3,9,8
22:11:00,9,12,9,7,7,6,5,9,8
22:12:00,6,8,5,9,10,5,5,8,7
22:13:00,4,8,5,6,6,9,1,6,6
22:14:00,13,8,6,9,6,6,2,8,7
22:15:00,4,4,8,6,4,11,6,5,6
22:16:00,7,3,11,17,7,7,6,9,8
22:17:00,5,7,5,13,4,6,4,7,6
22:18:00,3,3,8,5,9,4,5,6,5
22:19:00,7,4,11,9,6,5,5,7,7
22:20:00,8,6,5,8,6,5,2,7,6
22:21:00,6,7,9,5,5,5,4,6,6
22:22:00,7,8,6,7,7,6,3,7,6
22:23:00,0,4,7,8,11,4,3,6,5
22:24:00,5,4,6,4,5,8,5,5,5
22:25:00,3,10,6,12,5,10,7,7,8
22:26:00,7,4,6,0,5,0,0,4,3
22:27:00,6,9,5,6,12,4,0,8,6
22:28:00,5,7,12,4,10,8,6,8,7
22:29:00,7,6,3,6,3,7,2,5,5
22:30:00,4,6,6,2,2,4,2,4,4
22:31:00,6,6,8,3,9,7,1,6,6
22:32:00,5,10,3,6,4,6,4,6,5
22:33:00,7,6,2,6,6,8,2,5,5
22:34:00,1,4,7,8,11,7,3,6,6
22:35:00,3,7,3,6,7,2,3,5,4
22:36:00,7,8,4,1,6,12,7,5,6
22:37:00,2,3,7,4,3,9,3,4,4
22:38:00,3,5,2,3,6,8,0,4,4
22:39:00,5,1,6,4,7,6,1,5,4
22:40:00,4,6,4,7,3,4,1,5,4
22:41:00,4,3,6,5,5,5,3,5,4
22:42:00,3,5,2,4,12,6,0,5,5
22:43:00,2,4,6,4,6,7,6,4,5
22:44:00,7,2,4,5,8,0,3,5,4
22:45:00,2,1,5,9,7,7,1,5,5
22:46:00,8,6,4,3,6,5,2,5,5
22:47:00,3,4,1,5,5,4,1,4,3
22:48:00,6,3,0,1,5,5,4,3,3
22:49:00,4,3,4,6,5,6,0,4,4
22:50:00,3,5,3,1,7,6,2,4,4
22:51:00,3,3,2,8,3,8,1,4,4
22:52:00,2,2,1,3,4,8,1,2,3
22:53:00,5,2,3,7,4,5,0,4,4
22:54:00,9,6,4,4,6,8,5,6,6
22:55:00,7,4,3,10,4,4,2,6,5
22:56:00,3,2,5,2,5,6,1,3,3
22:57:00,2,3,3,4,3,6,4,3,4
22:58:00,5,2,2,4,5,7,1,4,4
22:59:00,5,3,3,4,3,9,3,4,4
23:00:00,2,5,5,2,5,2,1,4,3
23:01:00,5,5,3,7,2,3,0,4,4
23:02:00,7,1,5,1,6,4,1,4,4
23:03:00,3,3,4,5,5,5,3,4,4
23:04:00,2,3,6,3,2,4,2,3,3
23:05:00,5,4,4,7,6,2,2,5,4
23:06:00,1,2,6,5,5,5,3,4,4
23:07:00,1,1,2,5,2,5,3,2,3
23:08:00,1,4,3,3,5,2,1,3,3
23:09:00,3,5,1,8,4,8,2,4,4
23:10:00,2,4,8,4,8,3,4,5,5
23:11:00,3,0,3,4,11,11,5,4,5
23:12:00,2,1,5,6,3,9,2,3,4
23:13:00,1,3,4,5,5,3,3,4,3
23:14:00,1,4,9,3,2,2,1,4,3
23:15:00,3,4,4,6,6,3,1,5,4
23:16:00,3,5,4,3,4,6,1,4,4
23:17:00,4,6,4,1,3,2,0,4,3
23:18:00,2,1,1,2,5,5,2,2,3
23:19:00,7,3,2,3,8,3,2,5,4
23:20:00,2,0,1,6,7,7,2,3,4
23:21:00,4,0,5,2,3,4,1,3,3
23:22:00,0,0,2,0,4,6,2,1,2
23:23:00,2,4,2,4,2,4,2,3,3
23:24:00,4,5,3,1,8,7,0,4,4
23:25:00,2,2,4,1,3,3,1,2,2
23:26:00,1,3,1,4,3,7,1,2,3
23:27:00,0,4,2,1,3,6,1,2,2
23:28:00,2,2,4,8,5,2,0,4,3
23:29:00,1,3,0,1,3,1,1,2,1
23:30:00,1,0,1,5,4,6,0,2,2
23:31:00,1,2,1,3,4,4,0,2,2
23:32:00,1,2,1,4,7,3,0,3,3
23:33:00,0,2,0,3,4,1,1,2,2
23:34:00,0,7,4,5,6,6,2,4,4
23:35:00,6,4,2,1,3,3,1,3,3
23:36:00,4,3,0,3,3,8,5,3,4
23:37:00,2,2,3,0,1,2,1,2,2
23:38:00,3,2,0,4,3,4,2,2,3
23:39:00,3,3,2,2,4,7,2,3,3
23:40:00,1,2,4,2,3,6,3,2,3
23:41:00,8,2,3,0,7,5,2,4,4
23:42:00,2,1,3,3,3,4,4,2,3
23:43:00,0,2,3,3,5,3,1,3,2
23:44:00,2,2,3,5,6,7,1,4,4
23:45:00,2,2,5,5,3,7,4,3,4
23:46:00,1,0,1,4,3,3,3,2,2
23:47:00,5,0,3,2,1,2,1,2,2
23:48:00,3,0,1,0,3,7,1,1,2
23:49:00,3,0,1,0,4,5,0,2,2
23:50:00,1,1,3,5,4,2,1,3,2
23:51:00,0,1,2,2,4,5,1,2,2
23:52:00,1,2,4,2,4,3,4,3,3
23:53:00,2,0,4,1,2,3,0,2,2
23:54:00,2,2,1,2,2,1,0,2,1
23:55:00,5,0,0,1,5,3,1,2,2
23:56:00,0,1,3,3,6,4,1,3,3
23:57:00,1,3,1,2,3,5,1,2,2
23:58:00,0,1,1,2,3,5,1,1,2
23:59:00,0,1,3,4,5,3,1,3,2
,,,,,,,,,
Totals,,,,,,,,,
12H(7-19),24278,24394,24386,25028,25755,22578,7818,24768,22034
16H(6-22),27541,27841,28106,28754,29278,24755,9142,28304,25060
18H(6-24),28004,28338,28605,29307,29934,25384,9429,28838,25572
24H(0-24),28791,29109,29377,30098,30700,25959,9972,29615,26287
,,,,,,,,,
AM Peak,07:28:00,07:19:00,07:17:00,08:45:00,07:22:00,10:59:00,11:00:00,07:24:00,08:31:00
,2212,2254,2291,2153,2222,2362,881,2204,1783
,,,,,,,,,
PM Peak,16:19:00,16:44:00,16:34:00,15:56:00,16:12:00,12:05:00,12:02:00,16:26:00,16:17:00
,2536,2625,2635,2598,2667,2692,885,2570,2202
,,,,,,,,,
,,,,,,,,,
CA Traffic,,,,,,,,,VDA-net R2 22/05/2020
