Site Number,00008004,Unnamed: 2,Site Reference,00008004.1,Unnamed: 5,Unnamed: 6,Lat/Lng.,"52.03730,1.20277",Unnamed: 9
Warren Heath Ipswich,,,,,,,,,
Vehicle Count Report,,,,Week Begin: 24 February 2020,,,Channel:,Total Flow,
,,,,,,,,,
,,,,,,,,,
,2020-02-24 00:00:00,2020-02-25 00:00:00,2020-02-26 00:00:00,2020-02-27 00:00:00,2020-02-28 00:00:00,2020-02-29 00:00:00,2020-03-01 00:00:00,"5-Day
Ave.","7-Day
Ave."
00:00:00,0,1,1,1,2,4,1,1,1
00:01:00,0,2,1,2,0,7,7,1,3
00:02:00,2,2,1,1,0,1,5,1,2
00:03:00,1,3,2,2,2,3,1,2,2
00:04:00,2,3,2,1,1,4,4,2,2
00:05:00,0,1,1,1,2,2,3,1,1
00:06:00,0,0,3,2,1,5,6,1,2
00:07:00,1,1,1,1,3,1,8,1,2
00:08:00,0,1,1,5,2,1,1,2,2
00:09:00,1,0,3,3,1,6,2,2,2
00:10:00,2,1,0,1,4,6,3,2,2
00:11:00,1,2,3,1,2,3,1,2,2
00:12:00,0,2,1,3,0,1,1,1,1
00:13:00,2,2,1,0,1,3,4,1,2
00:14:00,1,1,2,1,1,2,5,1,2
00:15:00,1,1,2,2,0,1,4,1,2
00:16:00,4,3,0,2,1,8,1,2,3
00:17:00,1,2,2,2,1,1,4,2,2
00:18:00,2,1,1,0,1,6,2,1,2
00:19:00,0,1,0,3,0,2,6,1,2
00:20:00,0,0,0,0,2,3,3,0,1
00:21:00,1,2,1,0,0,4,1,1,1
00:22:00,0,1,3,2,5,3,3,2,2
00:23:00,3,2,0,3,1,1,5,2,2
00:24:00,3,2,2,0,3,2,2,2,2
00:25:00,0,2,1,0,0,6,2,1,2
00:26:00,0,2,0,1,4,3,0,1,1
00:27:00,2,2,0,1,0,2,4,1,2
00:28:00,2,1,0,0,2,3,0,1,1
00:29:00,1,5,0,1,1,1,3,2,2
00:30:00,1,2,1,1,0,0,1,1,1
00:31:00,3,2,1,0,3,3,4,2,2
00:32:00,1,0,1,0,0,2,2,0,1
00:33:00,0,0,1,1,1,0,1,1,1
00:34:00,1,2,0,1,0,1,3,1,1
00:35:00,2,3,1,1,0,3,2,1,2
00:36:00,0,0,0,0,2,1,0,0,0
00:37:00,3,3,0,0,1,2,3,1,2
00:38:00,0,1,1,0,1,6,1,1,1
00:39:00,1,1,0,1,3,4,2,1,2
00:40:00,0,0,2,0,0,1,2,0,1
00:41:00,2,0,0,1,1,3,0,1,1
00:42:00,2,0,1,0,1,1,0,1,1
00:43:00,0,2,0,2,0,4,3,1,2
00:44:00,0,1,0,0,0,4,4,0,1
00:45:00,0,0,3,1,2,2,3,1,2
00:46:00,0,1,3,4,1,3,2,2,2
00:47:00,1,0,0,2,1,2,3,1,1
00:48:00,0,2,0,0,1,1,1,1,1
00:49:00,2,0,1,2,2,3,1,1,2
00:50:00,2,0,0,1,0,1,4,1,1
00:51:00,0,1,1,1,3,0,2,1,1
00:52:00,1,1,0,0,3,1,5,1,2
00:53:00,0,1,1,0,0,3,2,0,1
00:54:00,1,2,0,1,1,2,5,1,2
00:55:00,0,0,2,0,1,1,5,1,1
00:56:00,0,0,1,0,1,7,4,0,2
00:57:00,0,0,1,1,0,1,1,0,1
00:58:00,1,1,0,3,2,0,3,1,1
00:59:00,0,0,1,2,1,3,1,1,1
01:00:00,0,0,1,0,0,0,5,0,1
01:01:00,0,1,1,0,0,3,1,0,1
01:02:00,1,0,1,0,0,1,2,0,1
01:03:00,0,0,1,1,0,2,2,0,1
01:04:00,1,0,0,0,2,5,1,1,1
01:05:00,1,1,2,1,2,1,2,1,1
01:06:00,0,0,2,3,0,1,1,1,1
01:07:00,1,1,2,2,3,1,6,2,2
01:08:00,2,0,2,3,0,2,5,1,2
01:09:00,0,0,1,1,3,0,2,1,1
01:10:00,2,2,0,0,3,1,2,1,1
01:11:00,2,0,2,1,1,3,2,1,2
01:12:00,0,1,1,1,1,3,0,1,1
01:13:00,2,0,2,2,3,3,4,2,2
01:14:00,0,1,0,1,4,0,5,1,2
01:15:00,0,0,1,2,0,2,0,1,1
01:16:00,0,0,0,1,0,1,2,0,1
01:17:00,0,0,0,0,0,1,2,0,0
01:18:00,0,0,0,2,0,5,0,0,1
01:19:00,2,0,0,0,0,2,1,0,1
01:20:00,0,0,0,1,0,0,1,0,0
01:21:00,1,0,1,4,2,0,1,2,1
01:22:00,1,1,0,2,5,2,2,2,2
01:23:00,1,2,2,1,0,4,0,1,1
01:24:00,2,1,0,1,1,1,2,1,1
01:25:00,1,0,1,2,1,0,1,1,1
01:26:00,1,0,0,0,0,3,1,0,1
01:27:00,1,0,2,2,1,1,1,1,1
01:28:00,0,0,0,0,1,0,0,0,0
01:29:00,0,0,0,0,0,1,2,0,0
01:30:00,0,1,0,1,0,2,1,0,1
01:31:00,1,1,0,0,1,0,3,1,1
01:32:00,1,0,1,0,2,2,1,1,1
01:33:00,0,1,1,0,0,0,3,0,1
01:34:00,0,2,0,2,1,2,1,1,1
01:35:00,0,0,1,0,1,2,0,0,1
01:36:00,1,0,1,0,2,2,5,1,2
01:37:00,0,0,0,0,0,1,1,0,0
01:38:00,0,0,0,0,0,2,3,0,1
01:39:00,0,0,0,0,0,3,4,0,1
01:40:00,0,0,1,0,1,0,3,0,1
01:41:00,0,1,1,5,4,0,2,2,2
01:42:00,0,1,1,2,1,1,1,1,1
01:43:00,1,0,1,1,2,0,0,1,1
01:44:00,1,0,1,0,0,1,2,0,1
01:45:00,0,0,0,0,0,1,2,0,0
01:46:00,2,2,0,2,1,0,2,1,1
01:47:00,1,0,1,0,1,1,2,1,1
01:48:00,0,0,0,0,0,2,3,0,1
01:49:00,1,1,3,1,0,0,0,1,1
01:50:00,1,1,0,1,1,1,0,1,1
01:51:00,1,2,0,2,1,0,3,1,1
01:52:00,0,2,0,1,0,2,0,1,1
01:53:00,2,1,1,1,1,0,0,1,1
01:54:00,2,0,0,0,1,1,1,1,1
01:55:00,0,1,1,0,0,0,2,0,1
01:56:00,0,0,0,1,0,4,0,0,1
01:57:00,0,0,0,2,1,0,2,1,1
01:58:00,0,2,0,0,2,0,0,1,1
01:59:00,0,1,2,0,0,1,0,1,1
02:00:00,0,0,1,0,0,1,0,0,0
02:01:00,1,1,0,1,0,1,2,1,1
02:02:00,3,1,0,1,1,3,2,1,2
02:03:00,1,0,0,0,0,1,1,0,0
02:04:00,0,1,1,1,0,0,2,1,1
02:05:00,4,0,0,0,1,1,0,1,1
02:06:00,0,0,1,0,0,0,1,0,0
02:07:00,0,2,1,0,1,0,1,1,1
02:08:00,0,3,1,1,1,1,0,1,1
02:09:00,0,0,1,2,0,1,0,1,1
02:10:00,0,2,1,0,0,2,0,1,1
02:11:00,1,1,1,1,0,1,1,1,1
02:12:00,0,0,0,0,0,2,2,0,1
02:13:00,0,2,1,1,1,0,0,1,1
02:14:00,0,1,0,1,2,0,2,1,1
02:15:00,1,1,1,1,1,4,1,1,1
02:16:00,2,1,1,2,0,3,0,1,1
02:17:00,1,2,0,0,0,2,1,1,1
02:18:00,0,0,1,1,1,2,1,1,1
02:19:00,1,1,0,1,0,3,1,1,1
02:20:00,0,0,0,1,0,2,0,0,0
02:21:00,0,0,1,0,0,2,1,0,1
02:22:00,0,0,0,0,0,0,1,0,0
02:23:00,1,1,3,0,0,0,2,1,1
02:24:00,0,0,1,0,1,1,0,0,0
02:25:00,0,0,2,0,0,1,1,0,1
02:26:00,1,0,0,1,0,0,0,0,0
02:27:00,0,2,0,0,0,3,2,0,1
02:28:00,0,0,1,1,1,4,0,1,1
02:29:00,0,0,1,1,1,2,0,1,1
02:30:00,0,0,0,0,2,0,4,0,1
02:31:00,0,1,2,2,0,0,3,1,1
02:32:00,0,0,2,0,1,1,3,1,1
02:33:00,1,0,0,0,1,0,0,0,0
02:34:00,1,1,0,1,2,0,4,1,1
02:35:00,2,2,1,1,0,0,2,1,1
02:36:00,1,0,0,0,0,0,0,0,0
02:37:00,0,0,1,1,0,5,0,0,1
02:38:00,1,0,0,0,0,0,1,0,0
02:39:00,1,1,1,0,0,0,2,1,1
02:40:00,0,0,0,0,1,0,2,0,0
02:41:00,2,0,1,1,0,0,0,1,1
02:42:00,0,0,0,0,1,1,1,0,0
02:43:00,0,0,0,0,2,0,0,0,0
02:44:00,0,0,1,0,2,3,1,1,1
02:45:00,1,2,1,0,0,1,1,1,1
02:46:00,2,3,0,1,1,0,0,1,1
02:47:00,0,1,0,0,0,1,0,0,0
02:48:00,0,0,1,0,0,0,2,0,0
02:49:00,0,0,0,0,0,3,0,0,0
02:50:00,0,1,1,0,2,0,1,1,1
02:51:00,0,1,0,1,0,3,1,0,1
02:52:00,0,0,0,0,1,2,1,0,1
02:53:00,0,0,1,2,1,4,2,1,1
02:54:00,0,0,1,0,0,2,1,0,1
02:55:00,1,1,0,0,0,0,1,0,0
02:56:00,1,0,0,2,0,4,3,1,1
02:57:00,1,0,0,0,1,1,2,0,1
02:58:00,1,0,2,0,0,5,1,1,1
02:59:00,1,0,0,0,1,1,1,0,1
03:00:00,0,0,0,3,0,0,0,1,0
03:01:00,1,1,0,1,0,1,0,1,1
03:02:00,0,1,0,1,1,1,1,1,1
03:03:00,2,0,0,0,0,1,1,0,1
03:04:00,0,0,2,0,1,3,0,1,1
03:05:00,0,0,0,0,3,4,3,1,1
03:06:00,0,0,0,1,0,3,1,0,1
03:07:00,0,0,0,1,1,1,1,0,1
03:08:00,0,1,0,1,1,2,0,1,1
03:09:00,0,2,1,0,4,1,1,1,1
03:10:00,0,0,0,1,2,0,0,1,0
03:11:00,0,0,2,1,1,0,1,1,1
03:12:00,0,0,0,1,2,0,0,1,0
03:13:00,2,0,1,1,0,0,0,1,1
03:14:00,0,2,1,1,0,1,1,1,1
03:15:00,1,0,0,1,0,3,1,0,1
03:16:00,0,1,0,1,0,0,0,0,0
03:17:00,0,0,0,0,2,0,2,0,1
03:18:00,3,0,2,1,1,0,4,1,2
03:19:00,1,1,0,1,0,1,0,1,1
03:20:00,0,1,0,2,0,1,0,1,1
03:21:00,0,0,0,1,0,0,1,0,0
03:22:00,0,0,2,1,1,1,2,1,1
03:23:00,0,0,0,0,1,1,0,0,0
03:24:00,2,0,0,0,3,0,0,1,1
03:25:00,2,1,0,0,2,0,1,1,1
03:26:00,0,0,2,0,0,0,1,0,0
03:27:00,0,0,1,0,0,1,1,0,0
03:28:00,1,3,0,0,0,0,1,1,1
03:29:00,1,0,0,1,1,0,1,1,1
03:30:00,0,3,1,1,1,0,1,1,1
03:31:00,1,0,1,2,0,1,1,1,1
03:32:00,0,0,0,1,3,0,0,1,1
03:33:00,1,0,0,1,0,0,1,0,0
03:34:00,0,0,0,0,0,3,0,0,0
03:35:00,0,0,0,0,1,1,1,0,0
03:36:00,1,0,1,1,1,0,2,1,1
03:37:00,0,0,0,1,0,0,0,0,0
03:38:00,0,0,2,1,1,1,0,1,1
03:39:00,0,0,1,1,1,1,0,1,1
03:40:00,0,1,0,1,1,0,1,1,1
03:41:00,0,2,0,0,0,3,1,0,1
03:42:00,0,1,1,3,1,1,2,1,1
03:43:00,0,4,1,1,1,2,2,1,2
03:44:00,1,1,1,1,0,1,2,1,1
03:45:00,1,1,1,2,1,1,2,1,1
03:46:00,0,0,0,0,0,0,2,0,0
03:47:00,1,0,1,1,0,1,1,1,1
03:48:00,2,2,1,0,1,1,1,1,1
03:49:00,1,0,0,3,2,1,2,1,1
03:50:00,1,0,0,2,2,0,2,1,1
03:51:00,0,1,0,0,1,3,0,0,1
03:52:00,0,0,0,1,0,0,1,0,0
03:53:00,2,0,1,1,2,1,1,1,1
03:54:00,5,1,4,1,0,1,1,2,2
03:55:00,2,0,1,1,0,1,0,1,1
03:56:00,0,3,0,2,2,3,0,1,1
03:57:00,1,5,0,0,1,0,1,1,1
03:58:00,2,0,0,1,0,2,2,1,1
03:59:00,0,1,2,2,2,2,3,1,2
04:00:00,0,0,0,0,0,0,3,0,0
04:01:00,0,2,2,2,1,0,1,1,1
04:02:00,0,1,0,3,1,0,1,1,1
04:03:00,0,1,0,0,0,0,2,0,0
04:04:00,0,1,0,1,0,0,0,0,0
04:05:00,0,1,0,1,1,2,1,1,1
04:06:00,1,0,0,1,1,2,0,1,1
04:07:00,0,0,1,2,1,1,1,1,1
04:08:00,1,0,1,2,1,1,0,1,1
04:09:00,1,0,1,1,1,1,1,1,1
04:10:00,0,0,1,2,0,0,0,1,0
04:11:00,0,0,1,0,0,0,2,0,0
04:12:00,1,0,1,3,0,1,2,1,1
04:13:00,1,2,0,0,2,0,0,1,1
04:14:00,0,0,1,0,0,0,0,0,0
04:15:00,2,1,1,4,2,0,0,2,1
04:16:00,0,0,0,0,3,0,0,1,0
04:17:00,0,1,0,1,0,1,0,0,0
04:18:00,1,0,1,0,0,0,1,0,0
04:19:00,2,0,1,0,2,2,2,1,1
04:20:00,1,1,3,0,2,1,1,1,1
04:21:00,3,2,1,0,1,0,0,1,1
04:22:00,2,1,2,0,1,1,1,1,1
04:23:00,0,2,0,1,0,0,1,1,1
04:24:00,2,0,0,2,1,0,0,1,1
04:25:00,0,3,0,0,0,0,1,1,1
04:26:00,2,1,1,1,2,1,0,1,1
04:27:00,1,0,0,0,3,0,3,1,1
04:28:00,3,0,3,2,2,0,2,2,2
04:29:00,0,0,1,2,0,0,0,1,0
04:30:00,1,0,0,0,1,0,3,0,1
04:31:00,0,1,0,1,1,0,2,1,1
04:32:00,1,2,0,2,3,1,0,2,1
04:33:00,0,0,1,2,1,3,2,1,1
04:34:00,1,1,2,1,2,1,1,1,1
04:35:00,3,0,1,0,3,1,0,1,1
04:36:00,3,1,0,1,3,0,1,2,1
04:37:00,2,1,0,0,0,1,0,1,1
04:38:00,1,1,1,2,1,4,0,1,1
04:39:00,4,2,2,0,1,2,2,2,2
04:40:00,2,1,1,1,1,1,0,1,1
04:41:00,3,2,2,4,0,4,2,2,2
04:42:00,1,2,2,6,4,2,1,3,3
04:43:00,3,5,3,0,1,0,2,2,2
04:44:00,0,2,4,3,4,1,0,3,2
04:45:00,1,4,0,1,3,0,1,2,1
04:46:00,3,1,3,0,4,1,0,2,2
04:47:00,0,0,2,1,2,3,0,1,1
04:48:00,3,2,1,0,1,0,1,1,1
04:49:00,1,3,5,2,3,2,0,3,2
04:50:00,3,2,0,4,1,1,1,2,2
04:51:00,4,4,4,2,2,2,0,3,3
04:52:00,1,1,3,1,3,0,2,2,2
04:53:00,2,2,4,0,1,2,1,2,2
04:54:00,0,2,1,3,2,4,1,2,2
04:55:00,2,2,0,1,0,1,1,1,1
04:56:00,2,4,3,2,5,2,2,3,3
04:57:00,1,1,1,1,2,0,2,1,1
04:58:00,2,6,0,1,0,2,0,2,2
04:59:00,4,5,4,3,2,1,0,4,3
05:00:00,3,0,3,2,3,1,1,2,2
05:01:00,1,2,3,2,1,1,0,2,1
05:02:00,0,0,1,2,1,3,2,1,1
05:03:00,1,2,2,1,4,1,0,2,2
05:04:00,4,1,1,1,2,1,1,2,2
05:05:00,1,7,0,2,2,0,0,2,2
05:06:00,1,1,4,1,0,3,1,1,2
05:07:00,2,1,0,1,2,1,1,1,1
05:08:00,1,2,1,1,0,3,0,1,1
05:09:00,3,1,0,0,3,0,0,1,1
05:10:00,2,1,4,1,5,0,3,3,2
05:11:00,0,2,1,4,2,1,0,2,1
05:12:00,3,1,4,4,1,3,2,3,3
05:13:00,2,3,3,2,4,1,1,3,2
05:14:00,2,1,6,1,3,0,0,3,2
05:15:00,2,6,2,3,1,2,2,3,3
05:16:00,3,3,1,2,1,0,2,2,2
05:17:00,2,2,2,3,6,0,2,3,2
05:18:00,1,2,4,1,2,1,0,2,2
05:19:00,1,2,1,7,3,3,3,3,3
05:20:00,3,2,4,0,5,4,1,3,3
05:21:00,0,2,2,2,1,4,1,1,2
05:22:00,3,6,2,1,0,1,1,2,2
05:23:00,0,2,4,1,3,1,0,2,2
05:24:00,3,3,3,0,0,1,0,2,1
05:25:00,2,5,2,3,3,2,2,3,3
05:26:00,3,1,1,5,3,1,0,3,2
05:27:00,4,2,2,1,1,1,0,2,2
05:28:00,5,1,4,3,2,2,0,3,2
05:29:00,3,6,4,4,2,1,0,4,3
05:30:00,3,7,4,6,2,1,1,4,3
05:31:00,1,5,2,5,2,1,1,3,2
05:32:00,2,4,5,7,2,4,0,4,3
05:33:00,2,7,1,4,3,2,0,3,3
05:34:00,3,5,4,6,4,4,4,4,4
05:35:00,5,1,5,3,3,5,2,3,3
05:36:00,4,3,7,8,6,2,1,6,4
05:37:00,7,8,2,7,5,3,0,6,5
05:38:00,6,1,6,3,7,6,0,5,4
05:39:00,3,6,5,2,1,8,1,3,4
05:40:00,7,6,4,8,5,2,2,6,5
05:41:00,5,3,7,5,2,3,4,4,4
05:42:00,12,8,12,11,5,3,1,10,7
05:43:00,2,4,5,5,6,6,0,4,4
05:44:00,4,5,6,8,12,8,3,7,7
05:45:00,4,7,7,5,10,3,1,7,5
05:46:00,3,10,12,6,2,6,1,7,6
05:47:00,8,7,8,4,9,1,2,7,6
05:48:00,8,6,4,10,6,0,1,7,5
05:49:00,8,8,6,7,6,5,3,7,6
05:50:00,12,4,4,6,6,2,1,6,5
05:51:00,4,5,8,8,14,5,3,8,7
05:52:00,3,3,4,4,8,3,1,4,4
05:53:00,11,10,9,2,7,1,2,8,6
05:54:00,8,10,6,9,5,2,2,8,6
05:55:00,7,11,9,10,7,6,1,9,7
05:56:00,9,6,6,9,10,0,1,8,6
05:57:00,5,2,7,5,4,2,2,5,4
05:58:00,3,7,7,5,8,3,2,6,5
05:59:00,8,3,7,7,8,5,2,7,6
06:00:00,5,7,5,6,3,3,2,5,4
06:01:00,3,7,8,4,7,3,2,6,5
06:02:00,7,5,5,6,4,2,3,5,5
06:03:00,7,10,5,7,8,2,0,7,6
06:04:00,8,3,8,7,5,4,1,6,5
06:05:00,8,8,8,9,10,3,5,9,7
06:06:00,4,8,6,9,8,3,1,7,6
06:07:00,5,3,5,7,4,7,3,5,5
06:08:00,6,9,8,8,6,3,1,7,6
06:09:00,12,3,5,9,6,2,2,7,6
06:10:00,8,14,9,11,9,2,5,10,8
06:11:00,7,6,6,14,6,1,10,8,7
06:12:00,6,10,14,3,5,4,4,8,7
06:13:00,9,7,8,4,14,2,3,8,7
06:14:00,8,8,10,6,6,2,3,8,6
06:15:00,7,16,6,5,9,5,1,9,7
06:16:00,3,5,6,13,7,3,3,7,6
06:17:00,6,7,10,10,7,4,2,8,7
06:18:00,7,5,10,10,8,3,3,8,7
06:19:00,7,9,9,10,14,6,4,10,8
06:20:00,8,10,11,13,5,5,4,9,8
06:21:00,8,8,9,12,10,7,1,9,8
06:22:00,11,7,11,5,8,6,1,8,7
06:23:00,5,10,9,14,6,9,6,9,8
06:24:00,9,13,21,7,9,5,3,12,10
06:25:00,9,8,12,9,16,8,2,11,9
06:26:00,12,8,7,11,8,7,4,9,8
06:27:00,15,13,5,13,10,9,2,11,10
06:28:00,9,7,4,14,18,5,1,10,8
06:29:00,11,10,4,11,8,4,2,9,7
06:30:00,12,14,12,6,3,8,3,9,8
06:31:00,14,20,15,15,9,5,3,15,12
06:32:00,11,12,12,21,13,4,7,14,11
06:33:00,14,12,10,14,11,3,3,12,10
06:34:00,10,10,8,8,14,7,3,10,9
06:35:00,14,10,13,7,9,2,4,11,8
06:36:00,11,10,15,19,6,5,3,12,10
06:37:00,17,22,16,11,9,6,4,15,12
06:38:00,18,11,16,13,11,5,4,14,11
06:39:00,10,20,12,9,20,1,6,14,11
06:40:00,10,18,18,16,11,9,3,15,12
06:41:00,19,17,12,15,16,4,2,16,12
06:42:00,15,16,18,16,17,6,4,16,13
06:43:00,14,11,16,15,10,9,2,13,11
06:44:00,8,27,13,15,11,11,3,15,13
06:45:00,23,21,14,12,12,10,5,16,14
06:46:00,11,23,18,22,31,7,3,21,16
06:47:00,14,16,21,29,15,6,3,19,15
06:48:00,13,18,12,15,9,8,6,13,12
06:49:00,15,14,20,15,19,7,3,17,13
06:50:00,12,23,25,29,19,5,7,22,17
06:51:00,26,25,17,19,17,9,6,21,17
06:52:00,21,19,21,22,19,9,4,20,16
06:53:00,20,17,22,13,19,9,2,18,15
06:54:00,15,11,13,17,16,9,6,14,12
06:55:00,15,17,21,15,18,3,2,17,13
06:56:00,15,16,17,18,16,7,8,16,14
06:57:00,21,12,13,18,16,10,1,16,13
06:58:00,11,17,26,23,13,6,7,18,15
06:59:00,12,17,22,16,22,4,4,18,14
07:00:00,19,21,23,13,10,5,2,17,13
07:01:00,16,19,22,23,14,6,6,19,15
07:02:00,12,17,18,18,31,9,7,19,16
07:03:00,22,23,27,16,18,12,6,21,18
07:04:00,18,25,24,28,23,4,8,24,19
07:05:00,18,20,30,29,32,7,10,26,21
07:06:00,22,25,18,17,25,7,7,21,17
07:07:00,19,24,29,21,24,11,5,23,19
07:08:00,25,28,25,29,33,5,4,28,21
07:09:00,22,31,20,18,18,12,3,22,18
07:10:00,40,28,28,19,35,10,8,30,24
07:11:00,19,33,25,19,16,12,7,22,19
07:12:00,28,25,28,26,26,6,3,27,20
07:13:00,27,19,22,32,28,15,4,26,21
07:14:00,23,17,37,25,15,7,2,23,18
07:15:00,26,30,19,41,35,8,2,30,23
07:16:00,23,29,22,21,27,7,5,24,19
07:17:00,23,24,28,27,34,11,6,27,22
07:18:00,28,27,25,30,25,9,2,27,21
07:19:00,25,31,37,28,28,6,4,30,23
07:20:00,17,32,21,24,25,6,12,24,20
07:21:00,26,28,27,15,27,7,9,25,20
07:22:00,30,27,26,28,29,11,2,28,22
07:23:00,28,40,35,33,21,6,9,31,25
07:24:00,32,33,26,23,29,13,3,29,23
07:25:00,33,33,36,27,37,7,5,33,25
07:26:00,30,28,38,21,27,6,3,29,22
07:27:00,34,23,20,35,32,8,3,29,22
07:28:00,20,34,39,30,28,6,3,30,23
07:29:00,35,22,33,31,30,9,2,30,23
07:30:00,29,39,20,30,27,17,5,29,24
07:31:00,27,36,21,42,26,8,2,30,23
07:32:00,26,35,24,30,29,3,6,29,22
07:33:00,29,37,39,36,40,10,7,36,28
07:34:00,43,34,37,34,35,21,5,37,30
07:35:00,32,39,29,35,32,9,10,33,27
07:36:00,43,35,53,52,23,12,3,41,32
07:37:00,38,38,26,33,44,11,7,36,28
07:38:00,38,39,34,32,32,20,3,35,28
07:39:00,35,35,32,30,35,5,11,33,26
07:40:00,29,30,23,35,31,16,2,30,24
07:41:00,33,50,43,40,35,14,7,40,32
07:42:00,37,30,28,34,40,11,5,34,26
07:43:00,38,34,38,33,29,13,6,34,27
07:44:00,25,25,37,35,35,18,10,31,26
07:45:00,43,25,25,41,45,17,8,36,29
07:46:00,38,39,35,36,37,12,7,37,29
07:47:00,32,40,33,32,26,9,9,33,26
07:48:00,30,42,38,31,39,11,4,36,28
07:49:00,44,25,49,42,32,9,13,38,31
07:50:00,39,45,30,31,43,16,8,38,30
07:51:00,36,47,38,31,36,15,7,38,30
07:52:00,30,37,50,34,34,17,8,37,30
07:53:00,45,41,34,46,30,12,11,39,31
07:54:00,27,45,40,43,45,10,12,40,32
07:55:00,40,40,36,36,33,6,6,37,28
07:56:00,40,34,38,25,43,13,12,36,29
07:57:00,37,24,37,31,55,20,9,37,30
07:58:00,34,34,35,35,30,19,3,34,27
07:59:00,31,41,30,33,30,15,8,33,27
08:00:00,21,44,48,30,35,11,6,36,28
08:01:00,44,31,32,29,34,15,4,34,27
08:02:00,41,33,32,34,37,19,1,35,28
08:03:00,40,40,35,26,31,9,5,34,27
08:04:00,48,42,38,34,43,6,4,41,31
08:05:00,32,31,35,30,40,18,5,34,27
08:06:00,38,32,37,31,35,14,4,35,27
08:07:00,36,34,34,32,31,13,6,33,27
08:08:00,37,36,42,30,36,12,6,36,28
08:09:00,31,42,41,32,37,13,4,37,29
08:10:00,41,37,36,28,40,24,7,36,30
08:11:00,24,39,39,37,46,14,7,37,29
08:12:00,38,33,36,41,31,10,6,36,28
08:13:00,39,45,34,26,43,17,7,37,30
08:14:00,31,41,40,53,36,13,6,40,31
08:15:00,40,36,26,31,30,12,13,33,27
08:16:00,26,27,37,38,27,12,3,31,24
08:17:00,40,39,37,39,36,24,8,38,32
08:18:00,35,34,28,19,40,5,7,31,24
08:19:00,32,44,39,36,29,22,5,36,30
08:20:00,38,40,38,32,33,14,7,36,29
08:21:00,31,35,36,44,22,19,9,34,28
08:22:00,39,39,40,43,38,16,3,40,31
08:23:00,41,42,39,33,26,14,10,36,29
08:24:00,26,30,28,25,39,20,6,30,25
08:25:00,34,40,28,47,37,18,7,37,30
08:26:00,33,36,39,32,26,17,7,33,27
08:27:00,32,36,40,42,52,21,6,40,33
08:28:00,33,52,33,28,38,15,4,37,29
08:29:00,48,30,42,52,30,12,9,40,32
08:30:00,32,31,40,28,43,16,5,35,28
08:31:00,31,34,37,36,42,13,8,36,29
08:32:00,35,27,32,41,39,16,4,35,28
08:33:00,28,45,44,29,34,22,8,36,30
08:34:00,36,31,40,48,37,18,5,38,31
08:35:00,49,45,40,23,40,26,6,39,33
08:36:00,28,39,39,39,30,14,8,35,28
08:37:00,29,45,42,25,39,24,14,36,31
08:38:00,29,29,43,44,32,25,8,35,30
08:39:00,34,38,24,32,41,20,13,34,29
08:40:00,28,44,38,33,34,33,12,35,32
08:41:00,36,29,33,32,39,17,6,34,27
08:42:00,38,37,37,35,31,15,15,36,30
08:43:00,29,47,45,35,41,29,7,39,33
08:44:00,31,32,35,41,35,28,12,35,31
08:45:00,33,34,39,32,43,24,8,36,30
08:46:00,36,26,29,32,35,20,12,32,27
08:47:00,24,35,38,36,29,27,13,32,29
08:48:00,37,35,37,36,33,26,9,36,30
08:49:00,39,30,39,28,48,23,11,37,31
08:50:00,41,40,27,30,23,24,11,32,28
08:51:00,28,32,39,47,35,20,16,36,31
08:52:00,28,33,38,32,30,16,11,32,27
08:53:00,43,33,32,33,42,23,9,37,31
08:54:00,30,36,33,36,32,24,14,33,29
08:55:00,41,50,38,30,31,12,13,38,31
08:56:00,35,18,24,43,32,16,11,30,26
08:57:00,32,38,42,37,37,23,6,37,31
08:58:00,26,28,30,26,32,23,11,28,25
08:59:00,25,34,32,36,31,25,8,32,27
09:00:00,32,40,46,31,37,22,5,37,30
09:01:00,29,34,31,30,23,18,9,29,25
09:02:00,35,43,34,31,28,24,6,34,29
09:03:00,39,34,34,39,30,12,14,35,29
09:04:00,32,30,27,22,40,28,14,30,28
09:05:00,42,25,31,23,30,15,10,30,25
09:06:00,26,32,32,28,35,30,10,31,28
09:07:00,28,31,41,33,30,11,13,33,27
09:08:00,38,34,27,30,39,14,15,34,28
09:09:00,35,35,27,46,44,19,17,37,32
09:10:00,39,26,24,33,34,35,15,31,29
09:11:00,36,36,30,31,33,20,16,33,29
09:12:00,31,45,38,28,26,27,10,34,29
09:13:00,23,30,22,41,30,26,12,29,26
09:14:00,28,28,23,41,24,22,21,29,27
09:15:00,31,33,41,40,31,19,13,35,30
09:16:00,37,40,14,33,35,26,13,32,28
09:17:00,33,30,38,32,18,22,11,30,26
09:18:00,28,29,34,40,30,23,9,32,28
09:19:00,27,33,37,33,35,25,18,33,30
09:20:00,32,30,26,27,25,20,12,28,25
09:21:00,33,31,28,37,34,23,14,33,29
09:22:00,32,27,30,36,33,28,16,32,29
09:23:00,31,40,27,34,36,21,16,34,29
09:24:00,28,21,31,30,26,21,25,27,26
09:25:00,24,21,44,31,33,27,22,31,29
09:26:00,20,25,34,23,29,26,20,26,25
09:27:00,24,36,26,23,31,19,11,28,24
09:28:00,23,25,28,29,26,21,17,26,24
09:29:00,22,37,22,39,38,15,22,32,28
09:30:00,37,34,26,32,38,27,22,33,31
09:31:00,27,31,26,23,29,20,22,27,25
09:32:00,37,40,30,22,35,15,17,33,28
09:33:00,23,35,30,31,31,20,20,30,27
09:34:00,27,38,30,43,23,22,23,32,29
09:35:00,27,21,31,25,32,29,21,27,27
09:36:00,28,33,29,27,43,23,15,32,28
09:37:00,26,29,37,35,37,22,18,33,29
09:38:00,31,33,26,31,36,30,21,31,30
09:39:00,22,34,43,37,20,25,20,31,29
09:40:00,18,27,34,33,26,26,17,28,26
09:41:00,35,21,38,29,31,36,19,31,30
09:42:00,27,34,31,34,26,31,23,30,29
09:43:00,37,16,27,25,30,33,33,27,29
09:44:00,25,30,17,40,30,38,18,28,28
09:45:00,29,31,30,26,47,34,18,33,31
09:46:00,32,28,27,34,21,25,30,28,28
09:47:00,32,24,31,15,44,29,26,29,29
09:48:00,25,29,24,39,33,37,24,30,30
09:49:00,25,39,27,34,31,30,30,31,31
09:50:00,25,36,26,27,30,34,28,29,29
09:51:00,29,24,22,34,33,30,31,28,29
09:52:00,23,29,33,26,35,42,28,29,31
09:53:00,21,24,32,27,26,27,27,26,26
09:54:00,18,38,27,31,30,23,34,29,29
09:55:00,21,28,27,32,29,31,32,27,29
09:56:00,35,33,32,28,27,48,25,31,33
09:57:00,27,35,32,25,29,29,26,30,29
09:58:00,31,22,27,30,30,32,33,28,29
09:59:00,19,32,21,33,18,25,27,25,25
10:00:00,29,27,29,30,41,37,32,31,32
10:01:00,28,31,31,27,32,32,35,30,31
10:02:00,28,31,24,32,20,21,24,27,26
10:03:00,25,29,29,32,28,34,30,29,30
10:04:00,30,24,21,32,25,33,25,26,27
10:05:00,13,28,29,31,36,34,30,27,29
10:06:00,33,24,32,34,30,28,30,31,30
10:07:00,24,24,27,33,32,30,31,28,29
10:08:00,33,35,29,21,38,29,33,31,31
10:09:00,36,26,20,21,47,28,27,30,29
10:10:00,21,30,20,23,44,25,35,28,28
10:11:00,30,32,31,29,28,26,34,30,30
10:12:00,30,27,26,24,29,37,30,27,29
10:13:00,15,26,26,27,33,41,32,25,29
10:14:00,41,35,28,29,35,21,36,34,32
10:15:00,12,38,26,20,33,27,31,26,27
10:16:00,25,31,27,33,35,25,33,30,30
10:17:00,35,27,26,21,29,34,20,28,27
10:18:00,18,23,17,27,29,34,13,23,23
10:19:00,25,24,31,29,23,27,43,26,29
10:20:00,25,29,25,25,27,31,30,26,27
10:21:00,38,23,22,27,33,32,35,29,30
10:22:00,27,25,38,26,27,31,28,29,29
10:23:00,26,35,31,31,30,28,29,31,30
10:24:00,28,31,31,30,32,37,37,30,32
10:25:00,30,28,30,26,31,34,39,29,31
10:26:00,25,22,20,19,34,22,28,24,24
10:27:00,27,31,35,31,33,27,36,31,31
10:28:00,42,25,32,27,23,29,32,30,30
10:29:00,21,30,24,32,25,42,30,26,29
10:30:00,26,28,28,37,29,25,29,30,29
10:31:00,29,30,34,27,34,42,36,31,33
10:32:00,26,19,30,28,28,28,29,26,27
10:33:00,30,24,34,35,27,30,33,30,30
10:34:00,19,33,30,25,37,35,36,29,31
10:35:00,24,33,26,33,36,29,29,30,30
10:36:00,24,41,28,29,40,32,42,32,34
10:37:00,24,18,33,38,31,31,32,29,30
10:38:00,19,37,25,28,42,43,29,30,32
10:39:00,19,14,26,22,26,25,31,21,23
10:40:00,19,50,36,34,30,24,24,34,31
10:41:00,33,27,30,23,37,32,38,30,31
10:42:00,18,32,28,37,22,37,44,27,31
10:43:00,25,30,26,41,31,25,34,31,30
10:44:00,30,16,27,34,39,31,29,29,29
10:45:00,28,36,26,30,41,44,30,32,34
10:46:00,28,34,34,32,28,42,34,31,33
10:47:00,33,29,21,36,29,37,35,30,31
10:48:00,28,41,23,22,22,36,37,27,30
10:49:00,41,35,26,30,27,35,27,32,32
10:50:00,30,32,36,25,29,31,44,30,32
10:51:00,21,26,34,33,42,39,29,31,32
10:52:00,30,25,25,29,40,24,33,30,29
10:53:00,25,29,42,20,35,32,33,30,31
10:54:00,23,24,36,39,35,18,33,31,30
10:55:00,32,17,28,37,30,36,51,29,33
10:56:00,23,38,44,35,36,20,38,35,33
10:57:00,27,39,25,24,30,39,35,29,31
10:58:00,23,26,32,35,37,25,48,31,32
10:59:00,23,34,38,42,33,32,44,34,35
11:00:00,31,16,22,22,31,38,31,24,27
11:01:00,25,27,31,25,26,41,47,27,32
11:02:00,17,26,31,36,28,27,24,28,27
11:03:00,26,28,27,24,43,41,30,30,31
11:04:00,32,24,24,40,41,32,26,32,31
11:05:00,19,31,23,23,21,31,33,23,26
11:06:00,23,38,23,34,34,50,43,30,35
11:07:00,27,37,28,27,19,28,30,28,28
11:08:00,25,23,36,35,34,45,34,31,33
11:09:00,26,24,31,35,35,35,34,30,31
11:10:00,34,26,32,24,28,35,34,29,30
11:11:00,26,37,28,29,24,31,31,29,29
11:12:00,25,21,33,27,30,39,32,27,30
11:13:00,35,32,22,31,38,40,39,32,34
11:14:00,22,29,28,22,24,37,29,25,27
11:15:00,35,31,21,27,44,25,39,32,32
11:16:00,23,27,28,32,39,28,35,30,30
11:17:00,32,31,29,33,33,30,30,32,31
11:18:00,35,29,26,30,31,33,25,30,30
11:19:00,23,21,30,23,32,38,41,26,30
11:20:00,25,46,15,34,33,32,25,31,30
11:21:00,28,22,28,18,37,29,43,27,29
11:22:00,35,27,28,31,30,41,33,30,32
11:23:00,31,17,29,33,41,37,39,30,32
11:24:00,31,26,23,31,32,28,29,29,29
11:25:00,21,39,25,36,37,31,38,32,32
11:26:00,31,26,28,31,34,39,32,30,32
11:27:00,31,31,31,30,32,32,38,31,32
11:28:00,26,27,34,21,43,33,22,30,29
11:29:00,25,27,31,38,32,30,49,31,33
11:30:00,32,36,26,27,27,38,38,30,32
11:31:00,34,28,25,25,38,44,40,30,33
11:32:00,30,27,42,26,28,31,38,31,32
11:33:00,26,26,32,35,31,17,43,30,30
11:34:00,29,23,32,25,25,33,28,27,28
11:35:00,26,36,25,23,31,25,26,28,27
11:36:00,35,35,32,33,31,27,47,33,34
11:37:00,30,28,35,26,38,38,44,31,34
11:38:00,35,28,32,38,36,21,36,34,32
11:39:00,24,39,37,29,31,30,31,32,32
11:40:00,32,23,31,34,26,30,43,29,31
11:41:00,16,32,27,16,36,25,39,25,27
11:42:00,33,29,38,41,36,52,41,35,39
11:43:00,24,29,47,29,30,32,43,32,33
11:44:00,16,29,32,19,45,35,37,28,30
11:45:00,32,28,34,40,36,34,27,34,33
11:46:00,32,39,43,24,35,40,27,35,34
11:47:00,30,34,25,31,31,36,40,30,32
11:48:00,26,31,39,36,31,41,34,33,34
11:49:00,35,26,35,40,39,43,42,35,37
11:50:00,24,30,21,29,32,31,41,27,30
11:51:00,34,34,36,17,34,28,41,31,32
11:52:00,26,33,45,24,34,47,47,32,37
11:53:00,28,29,38,35,46,39,42,35,37
11:54:00,21,27,42,28,29,32,30,29,30
11:55:00,42,21,33,29,35,35,42,32,34
11:56:00,32,37,22,28,41,38,38,32,34
11:57:00,37,22,32,33,40,39,43,33,35
11:58:00,34,35,33,38,43,36,37,37,37
11:59:00,32,31,23,28,30,39,39,29,32
12:00:00,32,34,35,25,34,32,32,32,32
12:01:00,22,37,18,26,34,39,33,27,30
12:02:00,30,25,31,39,30,36,36,31,32
12:03:00,37,34,34,36,31,38,31,34,34
12:04:00,33,24,39,36,36,48,41,34,37
12:05:00,19,28,23,35,31,36,48,27,31
12:06:00,32,22,42,25,36,37,41,31,34
12:07:00,37,38,25,35,39,40,34,35,35
12:08:00,25,28,32,29,40,47,29,31,33
12:09:00,28,35,26,39,39,40,40,33,35
12:10:00,30,38,24,29,38,29,27,32,31
12:11:00,35,32,39,30,30,32,39,33,34
12:12:00,32,32,40,31,34,36,34,34,34
12:13:00,38,26,29,34,39,31,28,33,32
12:14:00,16,44,28,35,31,45,35,31,33
12:15:00,27,31,36,29,33,34,28,31,31
12:16:00,33,34,35,35,38,33,43,35,36
12:17:00,28,26,27,26,33,33,33,28,29
12:18:00,21,36,37,25,32,26,35,30,30
12:19:00,39,31,34,29,31,41,33,33,34
12:20:00,27,27,23,26,25,29,39,26,28
12:21:00,23,37,35,39,38,46,36,34,36
12:22:00,35,30,32,34,36,35,36,33,34
12:23:00,35,17,26,31,33,44,29,28,31
12:24:00,32,44,29,32,30,40,40,33,35
12:25:00,32,38,32,33,31,39,29,33,33
12:26:00,25,40,40,26,37,32,37,34,34
12:27:00,27,21,30,21,36,36,33,27,29
12:28:00,39,26,36,38,23,35,38,32,34
12:29:00,19,36,19,27,36,27,37,27,29
12:30:00,27,34,37,26,24,33,37,30,31
12:31:00,38,31,32,20,39,41,36,32,34
12:32:00,31,35,25,25,32,25,36,30,30
12:33:00,19,27,30,31,37,43,26,29,30
12:34:00,37,42,33,40,45,39,29,39,38
12:35:00,29,29,30,23,33,34,32,29,30
12:36:00,27,30,27,33,38,34,36,31,32
12:37:00,29,33,28,30,25,36,28,29,30
12:38:00,23,36,37,31,34,41,27,32,33
12:39:00,27,31,25,21,41,43,45,29,33
12:40:00,28,32,36,32,44,43,36,34,36
12:41:00,27,32,30,29,31,37,35,30,32
12:42:00,34,25,32,34,29,43,36,31,33
12:43:00,30,30,27,30,30,40,36,29,32
12:44:00,24,29,36,19,28,29,25,27,27
12:45:00,38,31,39,30,31,37,43,34,36
12:46:00,34,38,42,30,39,32,43,37,37
12:47:00,30,18,25,36,27,40,32,27,30
12:48:00,23,43,45,34,28,25,39,35,34
12:49:00,33,35,25,20,41,39,44,31,34
12:50:00,27,35,20,36,28,34,36,29,31
12:51:00,33,30,26,28,32,31,45,30,32
12:52:00,26,38,26,23,31,38,40,29,32
12:53:00,21,21,32,33,27,35,37,27,29
12:54:00,31,19,26,38,29,38,42,29,32
12:55:00,32,32,32,24,32,33,35,30,31
12:56:00,33,30,34,25,36,34,37,32,33
12:57:00,22,23,24,34,43,38,36,29,31
12:58:00,17,21,26,32,34,35,37,26,29
12:59:00,19,27,32,24,32,25,38,27,28
13:00:00,33,24,27,21,28,50,41,27,32
13:01:00,29,31,26,31,34,40,40,30,33
13:02:00,21,35,43,33,30,42,40,32,35
13:03:00,37,45,23,24,36,32,39,33,34
13:04:00,18,30,25,26,23,43,35,24,29
13:05:00,24,30,26,29,30,38,39,28,31
13:06:00,36,36,38,39,33,40,32,36,36
13:07:00,26,36,26,24,34,40,36,29,32
13:08:00,20,29,25,38,38,38,34,30,32
13:09:00,25,40,32,37,29,38,37,33,34
13:10:00,38,24,29,33,40,41,46,33,36
13:11:00,33,36,22,31,30,39,32,30,32
13:12:00,35,25,34,28,34,37,38,31,33
13:13:00,26,29,36,32,35,40,38,32,34
13:14:00,31,33,22,32,29,40,36,29,32
13:15:00,26,35,32,39,30,46,42,32,36
13:16:00,38,35,26,33,25,41,30,31,33
13:17:00,25,36,21,32,32,35,34,29,31
13:18:00,29,26,37,31,33,36,38,31,33
13:19:00,24,35,30,29,37,42,32,31,33
13:20:00,34,37,24,29,29,23,32,31,30
13:21:00,31,27,31,29,30,36,38,30,32
13:22:00,28,36,34,30,41,35,44,34,35
13:23:00,33,32,28,36,31,31,32,32,32
13:24:00,29,29,27,23,34,45,40,28,32
13:25:00,30,37,28,28,29,30,36,30,31
13:26:00,33,26,24,24,33,33,31,28,29
13:27:00,30,22,41,31,42,37,26,33,33
13:28:00,34,41,27,37,18,36,36,31,33
13:29:00,25,31,38,31,37,36,34,32,33
13:30:00,34,37,24,27,27,40,38,30,32
13:31:00,42,28,30,28,40,34,38,34,34
13:32:00,30,35,36,29,35,35,38,33,34
13:33:00,45,31,41,30,26,27,27,35,32
13:34:00,31,33,36,18,37,33,35,31,32
13:35:00,38,27,30,33,29,40,32,31,33
13:36:00,32,41,24,28,42,34,28,33,33
13:37:00,18,36,32,32,38,30,42,31,33
13:38:00,28,32,30,27,27,37,26,29,30
13:39:00,31,42,36,31,29,34,43,34,35
13:40:00,27,40,14,35,33,35,33,30,31
13:41:00,32,37,35,34,33,32,36,34,34
13:42:00,33,22,37,39,30,38,40,32,34
13:43:00,29,39,33,32,38,42,34,34,35
13:44:00,31,26,40,31,30,35,41,32,33
13:45:00,21,36,42,29,31,30,34,32,32
13:46:00,42,35,38,24,32,34,34,34,34
13:47:00,39,27,35,41,42,44,23,37,36
13:48:00,18,38,37,27,34,39,39,31,33
13:49:00,32,32,19,27,37,29,38,29,31
13:50:00,33,33,31,30,31,34,37,32,33
13:51:00,21,42,20,34,34,41,33,30,32
13:52:00,27,24,42,36,42,32,40,34,35
13:53:00,27,32,33,36,34,29,30,32,32
13:54:00,31,33,24,32,29,45,28,30,32
13:55:00,27,26,36,32,24,32,26,29,29
13:56:00,32,25,23,41,39,16,31,32,30
13:57:00,22,38,33,27,31,36,46,30,33
13:58:00,38,32,33,41,29,27,30,35,33
13:59:00,23,33,43,30,26,47,37,31,34
14:00:00,31,38,33,32,30,43,22,33,33
14:01:00,38,29,27,30,21,38,36,29,31
14:02:00,29,34,28,27,32,43,41,30,33
14:03:00,33,24,26,33,37,31,31,31,31
14:04:00,26,27,33,25,34,30,43,29,31
14:05:00,41,28,30,33,33,31,36,33,33
14:06:00,21,35,25,23,31,41,33,27,30
14:07:00,33,35,44,39,27,33,37,36,35
14:08:00,28,27,28,24,32,33,37,28,30
14:09:00,27,26,41,28,40,33,27,32,32
14:10:00,21,31,28,29,24,42,32,27,30
14:11:00,26,29,25,31,29,30,33,28,29
14:12:00,37,37,31,29,36,29,25,34,32
14:13:00,24,28,36,35,37,30,23,32,30
14:14:00,34,34,33,32,40,43,33,35,36
14:15:00,27,36,39,32,28,28,37,32,32
14:16:00,33,30,23,23,35,33,35,29,30
14:17:00,28,27,25,42,37,30,35,32,32
14:18:00,24,28,42,29,24,32,26,29,29
14:19:00,29,24,40,30,43,34,40,33,34
14:20:00,40,23,33,30,32,41,37,32,34
14:21:00,36,31,33,33,37,47,42,34,37
14:22:00,24,32,43,17,31,30,31,29,30
14:23:00,25,26,24,35,29,43,37,28,31
14:24:00,34,28,27,46,30,39,36,33,34
14:25:00,21,32,36,35,32,29,38,31,32
14:26:00,34,34,32,25,42,43,25,33,34
14:27:00,45,37,32,29,34,35,25,35,34
14:28:00,27,39,43,32,32,37,24,35,33
14:29:00,28,38,35,31,37,31,37,34,34
14:30:00,25,34,33,26,28,32,33,29,30
14:31:00,40,32,27,36,31,42,31,33,34
14:32:00,28,23,48,25,30,25,33,31,30
14:33:00,29,48,22,30,41,29,42,34,34
14:34:00,27,15,36,33,30,34,22,28,28
14:35:00,24,32,44,31,35,33,39,33,34
14:36:00,28,40,33,21,40,24,25,32,30
14:37:00,34,39,29,34,36,45,25,34,35
14:38:00,28,23,36,30,36,18,29,31,29
14:39:00,41,31,30,30,24,30,35,31,32
14:40:00,29,27,26,31,40,32,35,31,31
14:41:00,24,30,33,34,43,37,37,33,34
14:42:00,28,40,39,25,39,33,23,34,32
14:43:00,24,35,41,37,46,34,35,37,36
14:44:00,28,40,40,37,32,41,41,35,37
14:45:00,41,33,33,37,36,28,34,36,35
14:46:00,32,27,29,33,19,35,26,28,29
14:47:00,33,35,32,36,19,34,34,31,32
14:48:00,20,39,33,34,34,20,33,32,30
14:49:00,25,32,42,25,32,34,32,31,32
14:50:00,30,25,34,40,44,40,46,35,37
14:51:00,35,30,41,32,30,27,30,34,32
14:52:00,27,21,39,24,28,37,33,28,30
14:53:00,24,35,35,23,38,32,35,31,32
14:54:00,36,23,21,25,48,37,34,31,32
14:55:00,36,32,46,36,36,37,25,37,35
14:56:00,28,42,37,33,31,33,35,34,34
14:57:00,33,28,34,31,34,38,38,32,34
14:58:00,40,37,49,31,39,38,33,39,38
14:59:00,32,26,34,35,23,34,31,30,31
15:00:00,28,26,42,30,46,32,27,34,33
15:01:00,25,28,37,49,18,34,34,31,32
15:02:00,24,28,28,26,39,34,34,29,30
15:03:00,31,31,37,44,28,33,34,34,34
15:04:00,38,26,32,38,41,38,36,35,36
15:05:00,39,35,45,27,35,31,28,36,34
15:06:00,31,33,36,38,37,40,40,35,36
15:07:00,23,40,38,38,35,31,38,35,35
15:08:00,35,30,43,34,31,34,30,35,34
15:09:00,32,32,34,28,32,31,38,32,32
15:10:00,31,26,30,42,25,41,30,31,32
15:11:00,40,15,30,22,34,30,31,28,29
15:12:00,32,38,30,41,42,32,40,37,36
15:13:00,28,37,36,45,30,35,24,35,34
15:14:00,32,36,27,31,39,36,36,33,34
15:15:00,36,36,29,33,44,27,31,36,34
15:16:00,28,33,39,29,27,30,44,31,33
15:17:00,42,28,39,40,34,52,31,37,38
15:18:00,24,32,37,37,37,34,46,33,35
15:19:00,19,30,33,32,27,26,25,28,27
15:20:00,41,29,35,33,23,43,24,32,33
15:21:00,29,32,30,30,30,29,42,30,32
15:22:00,36,25,30,26,18,41,22,27,28
15:23:00,31,28,31,38,33,33,27,32,32
15:24:00,21,31,32,37,29,28,25,30,29
15:25:00,32,38,34,26,27,26,44,31,32
15:26:00,23,23,24,32,26,27,31,26,27
15:27:00,22,30,14,28,23,34,30,23,26
15:28:00,30,30,36,22,29,40,34,29,32
15:29:00,19,37,36,31,37,38,24,32,32
15:30:00,40,31,24,36,27,28,37,32,32
15:31:00,38,35,29,36,33,36,27,34,33
15:32:00,34,30,31,23,35,27,28,31,30
15:33:00,40,28,32,37,33,29,27,34,32
15:34:00,38,36,35,43,30,36,30,36,35
15:35:00,33,30,39,37,34,22,29,35,32
15:36:00,32,34,31,42,29,36,22,34,32
15:37:00,32,26,34,29,35,35,31,31,32
15:38:00,43,30,37,39,30,38,19,36,34
15:39:00,35,37,32,41,37,35,23,36,34
15:40:00,34,40,32,31,39,35,37,35,35
15:41:00,26,25,30,35,24,41,29,28,30
15:42:00,30,33,36,32,30,41,28,32,33
15:43:00,44,25,22,35,30,44,26,31,32
15:44:00,25,35,42,33,34,39,30,34,34
15:45:00,28,33,33,24,28,37,46,29,33
15:46:00,27,28,25,29,37,39,33,29,31
15:47:00,33,25,27,33,27,28,30,29,29
15:48:00,30,38,37,30,41,34,22,35,33
15:49:00,25,33,27,22,43,27,30,30,30
15:50:00,28,27,27,35,29,44,22,29,30
15:51:00,26,32,37,32,30,36,29,31,32
15:52:00,32,33,30,24,31,38,35,30,32
15:53:00,29,39,27,27,44,31,35,33,33
15:54:00,26,29,37,33,42,26,24,33,31
15:55:00,20,29,28,37,36,38,27,30,31
15:56:00,39,23,37,29,39,43,26,33,34
15:57:00,38,42,36,43,44,26,26,41,36
15:58:00,13,38,23,24,43,29,18,28,27
15:59:00,36,32,42,37,36,35,30,37,35
16:00:00,27,30,29,35,39,35,32,32,32
16:01:00,43,32,31,33,29,38,27,34,33
16:02:00,30,30,35,33,41,34,34,34,34
16:03:00,38,46,39,37,32,24,32,38,35
16:04:00,31,33,28,23,31,28,25,29,28
16:05:00,46,35,21,39,38,40,31,36,36
16:06:00,48,35,37,35,28,33,23,37,34
16:07:00,33,40,47,44,46,38,37,42,41
16:08:00,38,29,26,22,41,32,34,31,32
16:09:00,39,41,31,53,44,29,23,42,37
16:10:00,40,47,38,28,36,34,31,38,36
16:11:00,33,33,32,36,31,31,22,33,31
16:12:00,29,39,43,41,33,31,26,37,35
16:13:00,32,31,29,34,44,28,19,34,31
16:14:00,31,33,34,29,34,34,30,32,32
16:15:00,46,34,27,39,37,28,30,37,34
16:16:00,42,43,37,37,31,43,19,38,36
16:17:00,36,38,24,43,43,26,22,37,33
16:18:00,42,25,44,41,42,36,21,39,36
16:19:00,34,37,28,43,32,33,32,35,34
16:20:00,37,43,49,33,30,30,23,38,35
16:21:00,38,23,35,47,48,32,23,38,35
16:22:00,23,38,34,39,31,32,27,33,32
16:23:00,41,40,46,38,44,22,22,42,36
16:24:00,36,23,34,30,30,31,20,31,29
16:25:00,37,41,49,33,38,30,21,40,36
16:26:00,30,23,22,38,36,25,28,30,29
16:27:00,20,40,43,42,26,41,28,34,34
16:28:00,36,43,34,36,39,36,22,38,35
16:29:00,29,42,38,30,32,28,15,34,31
16:30:00,34,39,40,28,41,31,19,36,33
16:31:00,30,18,34,28,22,33,23,26,27
16:32:00,40,34,34,22,43,31,23,35,32
16:33:00,40,48,31,41,39,29,20,40,35
16:34:00,30,40,45,38,49,34,18,40,36
16:35:00,37,37,36,36,33,35,22,36,34
16:36:00,35,42,46,35,28,38,14,37,34
16:37:00,31,26,35,38,41,26,18,34,31
16:38:00,45,32,39,37,36,37,21,38,35
16:39:00,36,44,44,38,44,39,25,41,39
16:40:00,27,31,40,36,28,39,24,32,32
16:41:00,44,38,35,29,48,29,16,39,34
16:42:00,26,36,33,42,35,37,15,34,32
16:43:00,33,48,35,31,43,37,28,38,36
16:44:00,42,40,32,39,38,28,25,38,35
16:45:00,37,53,43,28,34,28,14,39,34
16:46:00,36,42,30,47,39,34,22,39,36
16:47:00,42,32,37,33,29,33,22,35,33
16:48:00,38,43,45,22,40,26,21,38,34
16:49:00,33,41,37,49,31,31,16,38,34
16:50:00,52,31,37,48,35,24,16,41,35
16:51:00,35,30,44,39,36,27,23,37,33
16:52:00,43,41,47,39,26,39,23,39,37
16:53:00,32,33,42,41,36,30,19,37,33
16:54:00,26,34,38,28,44,40,19,34,33
16:55:00,36,32,50,45,40,25,12,41,34
16:56:00,39,47,38,33,46,32,25,41,37
16:57:00,29,41,41,41,38,16,26,38,33
16:58:00,39,40,33,33,25,27,19,34,31
16:59:00,40,37,32,37,36,31,17,36,33
17:00:00,37,34,44,39,33,27,15,37,33
17:01:00,19,43,40,27,34,28,14,33,29
17:02:00,47,38,37,38,38,22,19,40,34
17:03:00,36,45,45,48,38,28,16,42,37
17:04:00,34,45,42,33,34,34,23,38,35
17:05:00,54,40,35,47,50,30,23,45,40
17:06:00,42,35,51,38,46,23,18,42,36
17:07:00,31,44,44,40,52,27,14,42,36
17:08:00,49,41,39,34,40,29,21,41,36
17:09:00,40,42,41,60,50,29,16,47,40
17:10:00,44,41,53,49,45,29,8,46,38
17:11:00,34,39,37,37,38,27,21,37,33
17:12:00,47,46,31,46,43,24,17,43,36
17:13:00,49,38,35,45,35,28,19,40,36
17:14:00,41,43,45,41,43,32,21,43,38
17:15:00,38,46,32,42,38,31,23,39,36
17:16:00,36,34,35,42,36,34,24,37,34
17:17:00,36,47,44,45,43,32,26,43,39
17:18:00,44,39,35,40,43,22,15,40,34
17:19:00,42,44,40,41,37,43,18,41,38
17:20:00,36,44,40,46,50,38,20,43,39
17:21:00,43,38,54,40,37,27,10,42,36
17:22:00,36,40,41,36,47,32,16,40,35
17:23:00,48,40,35,41,45,21,20,42,36
17:24:00,41,41,42,43,35,14,17,40,33
17:25:00,41,51,36,45,53,33,28,45,41
17:26:00,45,41,48,39,32,19,3,41,32
17:27:00,28,55,37,40,33,31,6,39,33
17:28:00,26,35,51,45,37,22,14,39,33
17:29:00,44,41,37,36,24,21,13,36,31
17:30:00,24,38,50,32,33,23,16,35,31
17:31:00,30,35,34,41,28,30,13,34,30
17:32:00,48,37,26,30,30,28,11,34,30
17:33:00,39,35,35,56,34,27,18,40,35
17:34:00,43,35,38,38,31,26,14,37,32
17:35:00,37,39,47,35,42,22,18,40,34
17:36:00,41,38,51,40,42,23,17,42,36
17:37:00,40,48,49,38,45,20,14,44,36
17:38:00,49,31,48,35,24,31,10,37,33
17:39:00,34,45,41,44,36,24,16,40,34
17:40:00,47,34,39,39,44,29,9,41,34
17:41:00,45,39,34,36,22,30,12,35,31
17:42:00,50,49,44,32,43,22,22,44,37
17:43:00,30,44,34,43,40,28,9,38,33
17:44:00,31,30,39,42,33,26,16,35,31
17:45:00,37,34,43,49,34,28,21,39,35
17:46:00,51,42,30,38,43,26,13,41,35
17:47:00,44,49,47,45,52,23,16,47,39
17:48:00,32,47,40,22,34,31,16,35,32
17:49:00,53,33,37,63,35,17,17,44,36
17:50:00,26,54,28,39,47,27,20,39,34
17:51:00,30,44,49,40,27,33,17,38,34
17:52:00,56,45,45,35,30,20,14,42,35
17:53:00,38,42,36,30,42,20,15,38,32
17:54:00,31,35,39,42,44,31,14,38,34
17:55:00,43,34,25,33,31,30,8,33,29
17:56:00,39,27,30,27,36,21,12,32,27
17:57:00,40,34,31,33,17,26,9,31,27
17:58:00,35,28,17,22,26,29,13,26,24
17:59:00,29,24,52,32,28,28,28,33,32
18:00:00,20,34,38,34,40,22,19,33,30
18:01:00,30,42,32,28,29,29,11,32,29
18:02:00,22,31,34,33,27,26,14,29,27
18:03:00,36,26,30,29,36,26,10,31,28
18:04:00,31,40,43,35,27,32,17,35,32
18:05:00,32,29,35,29,28,25,16,31,28
18:06:00,43,33,29,37,47,28,18,38,34
18:07:00,29,46,42,33,35,18,11,37,31
18:08:00,35,34,24,27,34,30,12,31,28
18:09:00,29,30,37,34,26,19,19,31,28
18:10:00,44,38,31,29,33,29,22,35,32
18:11:00,28,24,37,31,22,26,15,28,26
18:12:00,38,35,34,38,27,23,12,34,30
18:13:00,40,20,34,34,31,29,16,32,29
18:14:00,38,45,32,38,30,24,21,37,33
18:15:00,37,36,28,29,22,31,12,30,28
18:16:00,28,39,37,41,34,28,10,36,31
18:17:00,27,29,29,41,43,25,23,34,31
18:18:00,32,34,30,31,42,31,18,34,31
18:19:00,38,28,33,27,30,26,12,31,28
18:20:00,19,36,34,28,37,23,19,31,28
18:21:00,43,37,34,28,31,23,15,35,30
18:22:00,27,22,26,26,35,22,8,27,24
18:23:00,32,26,33,32,32,21,11,31,27
18:24:00,27,18,31,33,23,32,21,26,26
18:25:00,17,19,23,15,37,19,7,22,20
18:26:00,21,16,31,26,38,25,14,26,24
18:27:00,24,21,24,18,22,25,14,22,21
18:28:00,39,20,26,16,28,24,13,26,24
18:29:00,21,17,28,21,29,20,11,23,21
18:30:00,26,32,24,31,22,21,16,27,25
18:31:00,26,23,23,25,23,19,10,24,21
18:32:00,23,23,31,33,33,23,9,29,25
18:33:00,20,26,34,24,14,20,13,24,22
18:34:00,20,31,20,45,23,28,7,28,25
18:35:00,33,20,23,28,31,20,15,27,24
18:36:00,29,24,19,32,26,23,15,26,24
18:37:00,36,25,29,32,29,20,13,30,26
18:38:00,18,30,21,30,36,29,24,27,27
18:39:00,25,34,24,36,30,29,13,30,27
18:40:00,27,14,32,32,25,15,15,26,23
18:41:00,20,24,33,23,23,16,11,25,21
18:42:00,24,24,35,27,21,18,12,26,23
18:43:00,23,22,28,33,18,22,18,25,23
18:44:00,21,23,38,26,33,28,8,28,25
18:45:00,23,40,26,23,36,19,19,30,27
18:46:00,29,18,32,41,34,24,18,31,28
18:47:00,19,38,29,22,27,16,9,27,23
18:48:00,24,27,17,31,29,20,11,26,23
18:49:00,14,22,26,36,21,16,15,24,21
18:50:00,28,27,23,25,19,23,21,24,24
18:51:00,18,19,15,24,30,19,9,21,19
18:52:00,22,29,30,34,21,22,10,27,24
18:53:00,25,29,29,34,26,18,9,29,24
18:54:00,17,18,16,35,27,18,16,23,21
18:55:00,29,25,23,23,29,17,12,26,23
18:56:00,23,13,13,30,31,24,9,22,20
18:57:00,19,23,24,29,22,23,13,23,22
18:58:00,22,33,28,31,26,20,11,28,24
18:59:00,30,22,18,23,24,35,16,23,24
19:00:00,18,24,22,28,30,23,16,24,23
19:01:00,37,32,22,21,23,22,9,27,24
19:02:00,23,20,23,27,32,17,14,25,22
19:03:00,21,16,25,27,29,13,12,24,20
19:04:00,27,35,22,28,36,20,15,30,26
19:05:00,24,28,41,21,19,18,15,27,24
19:06:00,23,26,34,27,37,13,18,29,25
19:07:00,37,31,31,21,20,23,15,28,25
19:08:00,27,23,24,29,23,20,9,25,22
19:09:00,27,23,31,35,31,22,9,29,25
19:10:00,18,25,32,22,36,20,9,27,23
19:11:00,19,30,38,22,24,23,14,27,24
19:12:00,25,29,20,26,30,25,7,26,23
19:13:00,24,22,29,28,25,22,12,26,23
19:14:00,21,25,16,23,21,24,17,21,21
19:15:00,23,36,24,32,30,20,10,29,25
19:16:00,16,23,27,23,18,28,13,21,21
19:17:00,15,24,26,24,23,19,9,22,20
19:18:00,16,36,21,38,26,17,13,27,24
19:19:00,19,22,36,29,35,21,14,28,25
19:20:00,21,15,25,28,16,20,8,21,19
19:21:00,19,21,23,30,23,18,7,23,20
19:22:00,21,28,25,31,26,14,15,26,23
19:23:00,19,17,32,19,26,10,7,23,19
19:24:00,24,35,31,29,13,10,15,26,22
19:25:00,19,20,19,32,29,21,8,24,21
19:26:00,22,24,28,20,19,12,12,23,20
19:27:00,14,15,19,17,25,18,7,18,16
19:28:00,26,27,21,17,15,12,9,21,18
19:29:00,20,16,20,23,24,14,4,21,17
19:30:00,23,21,17,16,16,23,13,19,18
19:31:00,21,21,25,23,18,23,6,22,20
19:32:00,19,19,26,28,23,15,5,23,19
19:33:00,10,18,26,32,23,24,6,22,20
19:34:00,13,20,16,26,12,15,5,17,15
19:35:00,18,20,24,20,31,15,9,23,20
19:36:00,17,22,19,22,26,12,13,21,19
19:37:00,19,18,16,30,26,17,6,22,19
19:38:00,21,19,20,15,24,22,7,20,18
19:39:00,22,14,18,18,19,11,7,18,16
19:40:00,16,11,21,19,20,17,9,17,16
19:41:00,16,17,18,9,14,19,12,15,15
19:42:00,19,29,21,20,18,15,12,21,19
19:43:00,6,10,16,14,18,14,10,13,13
19:44:00,20,20,12,12,21,20,14,17,17
19:45:00,18,11,27,18,10,16,11,17,16
19:46:00,14,12,12,20,17,23,8,15,15
19:47:00,21,12,19,19,27,14,8,20,17
19:48:00,13,13,21,15,28,13,11,18,16
19:49:00,24,19,28,19,18,10,15,22,19
19:50:00,15,14,13,17,9,18,9,14,14
19:51:00,16,25,22,15,15,14,10,19,17
19:52:00,13,24,18,24,26,20,8,21,19
19:53:00,25,22,24,16,18,6,9,21,17
19:54:00,14,14,19,16,27,19,7,18,17
19:55:00,18,18,23,14,10,7,8,17,14
19:56:00,12,26,19,22,23,12,11,20,18
19:57:00,24,12,17,14,13,15,11,16,15
19:58:00,9,33,14,18,15,11,12,18,16
19:59:00,21,12,17,16,21,12,14,17,16
20:00:00,16,16,18,21,16,14,7,17,15
20:01:00,16,17,15,13,12,13,11,15,14
20:02:00,11,19,19,11,24,16,5,17,15
20:03:00,10,20,19,23,17,14,15,18,17
20:04:00,17,20,13,16,22,10,8,18,15
20:05:00,14,22,23,20,13,15,8,18,16
20:06:00,12,23,21,18,12,10,9,17,15
20:07:00,13,12,10,19,24,20,12,16,16
20:08:00,17,17,27,22,11,10,14,19,17
20:09:00,15,15,16,17,18,13,8,16,15
20:10:00,13,21,12,19,22,10,8,17,15
20:11:00,24,14,17,17,16,11,10,18,16
20:12:00,19,25,18,20,18,7,12,20,17
20:13:00,12,22,22,18,18,13,11,18,17
20:14:00,13,24,12,23,18,10,8,18,15
20:15:00,11,11,18,17,16,10,9,15,13
20:16:00,20,19,17,15,11,7,8,16,14
20:17:00,10,14,15,21,14,11,7,15,13
20:18:00,12,20,13,19,18,18,9,16,16
20:19:00,10,17,13,16,15,13,10,14,13
20:20:00,18,13,14,11,12,14,9,14,13
20:21:00,13,16,13,11,19,8,5,14,12
20:22:00,15,6,18,15,12,14,13,13,13
20:23:00,15,5,21,16,15,14,7,14,13
20:24:00,10,15,11,11,17,18,11,13,13
20:25:00,8,9,14,10,18,13,12,12,12
20:26:00,17,14,16,7,11,14,8,13,12
20:27:00,3,6,13,10,13,13,8,9,9
20:28:00,9,19,12,12,11,7,6,13,11
20:29:00,5,2,16,13,15,8,11,10,10
20:30:00,5,16,16,19,13,11,10,14,13
20:31:00,12,6,7,17,6,16,9,10,10
20:32:00,15,11,17,8,17,7,11,14,12
20:33:00,10,15,9,24,11,21,8,14,14
20:34:00,12,13,9,12,7,15,14,11,12
20:35:00,4,10,13,8,13,9,11,10,10
20:36:00,3,9,15,9,15,12,10,10,10
20:37:00,13,12,14,9,11,7,7,12,10
20:38:00,11,10,13,16,12,9,11,12,12
20:39:00,18,5,10,8,7,12,12,10,10
20:40:00,4,14,15,13,11,9,6,11,10
20:41:00,10,9,13,11,18,10,7,12,11
20:42:00,10,10,15,7,8,8,10,10,10
20:43:00,12,10,18,8,10,9,5,12,10
20:44:00,9,11,15,13,11,8,8,12,11
20:45:00,15,9,7,2,14,10,6,9,9
20:46:00,8,13,11,16,14,9,9,12,11
20:47:00,10,9,4,15,8,7,9,9,9
20:48:00,13,16,10,12,12,10,11,13,12
20:49:00,3,9,12,11,13,11,4,10,9
20:50:00,13,16,17,13,15,4,5,15,12
20:51:00,7,12,9,16,10,7,5,11,9
20:52:00,15,13,15,9,11,5,7,13,11
20:53:00,17,11,16,14,15,11,7,15,13
20:54:00,9,11,15,17,5,5,7,11,10
20:55:00,11,14,12,21,13,9,7,14,12
20:56:00,10,8,15,9,6,5,7,10,9
20:57:00,14,11,9,12,7,4,6,11,9
20:58:00,5,14,9,14,13,12,3,11,10
20:59:00,13,7,11,5,8,13,7,9,9
21:00:00,15,10,10,19,15,7,8,14,12
21:01:00,15,4,10,14,12,12,5,11,10
21:02:00,7,10,14,10,10,6,3,10,9
21:03:00,10,18,11,10,17,8,6,13,11
21:04:00,7,8,12,9,10,11,4,9,9
21:05:00,7,10,10,11,7,5,4,9,8
21:06:00,14,7,9,14,10,12,10,11,11
21:07:00,10,10,10,10,16,16,6,11,11
21:08:00,15,10,11,15,14,5,4,13,11
21:09:00,8,6,10,8,11,11,3,9,8
21:10:00,18,10,12,8,13,8,6,12,11
21:11:00,16,12,19,19,14,3,2,16,12
21:12:00,17,9,11,10,8,8,3,11,9
21:13:00,8,10,7,11,8,10,6,9,9
21:14:00,7,5,14,9,19,10,2,11,9
21:15:00,6,9,5,9,10,6,4,8,7
21:16:00,10,9,10,5,15,11,2,10,9
21:17:00,9,15,8,10,11,6,8,11,10
21:18:00,7,21,14,11,12,8,3,13,11
21:19:00,8,15,8,7,14,6,12,10,10
21:20:00,6,12,14,12,13,3,7,11,10
21:21:00,7,17,2,7,12,12,6,9,9
21:22:00,13,13,5,7,16,13,1,11,10
21:23:00,6,8,10,8,8,9,6,8,8
21:24:00,10,15,13,8,10,9,5,11,10
21:25:00,11,11,10,14,6,7,4,10,9
21:26:00,7,10,5,7,10,6,5,8,7
21:27:00,7,9,7,5,11,6,8,8,8
21:28:00,8,8,8,17,13,8,4,11,9
21:29:00,6,4,11,10,10,4,7,8,7
21:30:00,2,8,8,12,8,3,7,8,7
21:31:00,8,5,7,7,11,13,6,8,8
21:32:00,9,15,8,6,7,5,10,9,9
21:33:00,4,14,11,11,8,5,3,10,8
21:34:00,11,9,6,7,11,6,3,9,8
21:35:00,6,7,9,11,12,12,7,9,9
21:36:00,9,9,4,9,8,8,8,8,8
21:37:00,3,6,11,6,9,10,3,7,7
21:38:00,9,10,4,13,14,4,6,10,9
21:39:00,8,8,8,5,6,5,9,7,7
21:40:00,9,9,10,10,11,3,1,10,8
21:41:00,4,8,2,13,7,8,3,7,6
21:42:00,7,11,8,10,9,8,6,9,8
21:43:00,6,7,9,13,8,9,4,9,8
21:44:00,5,9,17,8,9,7,4,10,8
21:45:00,6,7,6,7,3,11,7,6,7
21:46:00,5,6,12,4,12,9,5,8,8
21:47:00,5,5,12,9,9,7,2,8,7
21:48:00,8,3,7,10,4,8,5,6,6
21:49:00,5,14,4,11,7,3,3,8,7
21:50:00,5,7,9,11,7,4,6,8,7
21:51:00,2,11,5,16,12,16,5,9,10
21:52:00,11,7,13,9,5,9,2,9,8
21:53:00,8,8,10,16,8,5,0,10,8
21:54:00,9,8,11,9,8,5,5,9,8
21:55:00,3,10,11,7,10,5,0,8,7
21:56:00,6,10,8,13,10,3,4,9,8
21:57:00,3,10,8,8,8,8,1,7,7
21:58:00,4,6,7,10,7,9,2,7,6
21:59:00,4,5,11,9,4,10,3,7,7
22:00:00,9,7,7,13,8,4,9,9,8
22:01:00,4,5,11,6,11,4,1,7,6
22:02:00,6,2,7,8,7,10,3,6,6
22:03:00,10,11,8,7,9,9,4,9,8
22:04:00,11,14,6,12,5,9,2,10,8
22:05:00,2,13,9,8,13,8,3,9,8
22:06:00,16,12,9,14,14,5,1,13,10
22:07:00,11,8,9,8,7,10,5,9,8
22:08:00,10,9,12,10,10,8,6,10,9
22:09:00,5,11,12,7,11,7,6,9,8
22:10:00,8,7,3,14,8,7,7,8,8
22:11:00,10,7,6,6,11,7,2,8,7
22:12:00,7,12,5,13,8,4,2,9,7
22:13:00,7,7,6,7,6,7,3,7,6
22:14:00,5,3,9,7,10,9,1,7,6
22:15:00,9,5,9,6,8,5,2,7,6
22:16:00,13,7,12,10,8,7,6,10,9
22:17:00,12,9,4,3,14,8,12,8,9
22:18:00,6,7,7,4,3,6,2,5,5
22:19:00,6,8,5,10,7,10,5,7,7
22:20:00,8,7,11,6,10,5,6,8,8
22:21:00,8,4,6,2,6,2,2,5,4
22:22:00,9,6,7,9,5,3,5,7,6
22:23:00,6,7,9,10,8,4,5,8,7
22:24:00,10,9,4,5,5,6,1,7,6
22:25:00,4,7,8,10,6,5,2,7,6
22:26:00,0,5,5,4,10,7,3,5,5
22:27:00,1,8,2,6,10,5,3,5,5
22:28:00,8,5,7,5,7,6,2,6,6
22:29:00,11,6,4,10,7,6,3,8,7
22:30:00,2,2,4,9,6,6,2,5,4
22:31:00,4,3,9,7,7,8,3,6,6
22:32:00,6,7,5,2,1,9,6,4,5
22:33:00,3,7,4,7,10,6,3,6,6
22:34:00,5,10,1,4,9,5,2,6,5
22:35:00,3,6,5,4,6,6,5,5,5
22:36:00,4,11,6,4,8,4,0,7,5
22:37:00,8,7,8,3,5,3,3,6,5
22:38:00,1,4,1,9,3,3,1,4,3
22:39:00,10,4,7,7,8,10,3,7,7
22:40:00,3,0,3,2,4,4,4,2,3
22:41:00,6,9,5,10,6,8,2,7,7
22:42:00,3,4,5,3,6,2,2,4,4
22:43:00,1,4,2,2,9,9,2,4,4
22:44:00,3,2,3,4,5,8,1,3,4
22:45:00,1,2,1,4,3,9,2,2,3
22:46:00,1,3,6,4,0,6,4,3,3
22:47:00,5,6,3,3,4,3,7,4,4
22:48:00,3,2,4,5,6,5,2,4,4
22:49:00,1,10,4,4,6,3,3,5,4
22:50:00,4,4,4,4,1,5,2,3,3
22:51:00,5,5,2,8,11,3,0,6,5
22:52:00,2,4,4,5,6,5,4,4,4
22:53:00,4,3,3,2,6,8,2,4,4
22:54:00,1,6,3,4,6,4,4,4,4
22:55:00,0,4,9,7,9,6,0,6,5
22:56:00,6,4,5,4,4,4,3,5,4
22:57:00,1,4,1,6,1,9,3,3,4
22:58:00,2,4,4,2,5,7,0,3,3
22:59:00,6,3,3,2,1,4,3,3,3
23:00:00,2,5,3,2,2,4,5,3,3
23:01:00,1,2,0,5,6,7,3,3,3
23:02:00,2,0,2,0,5,5,4,2,3
23:03:00,5,3,3,2,4,2,2,3,3
23:04:00,0,6,2,4,4,5,3,3,3
23:05:00,2,2,5,4,7,5,8,4,5
23:06:00,2,4,5,3,2,5,4,3,4
23:07:00,4,2,3,3,3,8,5,3,4
23:08:00,3,2,3,4,3,6,4,3,4
23:09:00,4,3,1,1,3,2,5,2,3
23:10:00,0,1,4,0,6,3,1,2,2
23:11:00,4,4,4,6,5,3,2,5,4
23:12:00,1,4,9,3,4,4,2,4,4
23:13:00,2,4,2,9,5,3,7,4,5
23:14:00,4,2,1,4,2,8,3,3,3
23:15:00,1,3,4,4,7,3,2,4,3
23:16:00,1,7,4,2,8,7,3,4,5
23:17:00,3,1,1,2,1,7,2,2,2
23:18:00,4,3,0,2,3,8,5,2,4
23:19:00,2,2,11,4,8,4,3,5,5
23:20:00,2,2,1,2,5,3,2,2,2
23:21:00,0,5,4,2,2,7,3,3,3
23:22:00,3,2,2,4,5,4,0,3,3
23:23:00,1,0,5,3,5,2,2,3,3
23:24:00,1,3,1,2,4,3,2,2,2
23:25:00,4,2,5,3,5,5,2,4,4
23:26:00,2,1,1,4,5,5,2,3,3
23:27:00,2,1,4,1,6,3,2,3,3
23:28:00,3,3,3,2,3,3,1,3,3
23:29:00,0,3,6,2,3,3,0,3,2
23:30:00,1,3,3,0,8,8,0,3,3
23:31:00,1,4,2,6,3,14,4,3,5
23:32:00,5,6,1,4,5,1,1,4,3
23:33:00,3,0,2,2,1,4,2,2,2
23:34:00,1,1,3,2,2,2,3,2,2
23:35:00,4,1,1,1,5,3,2,2,2
23:36:00,0,2,3,2,3,2,1,2,2
23:37:00,0,3,0,0,6,2,1,2,2
23:38:00,0,1,2,4,0,7,0,1,2
23:39:00,0,2,1,1,2,3,2,1,2
23:40:00,3,3,0,2,2,7,2,2,3
23:41:00,1,2,0,2,2,2,1,1,1
23:42:00,0,2,0,3,5,4,5,2,3
23:43:00,1,2,3,2,5,5,1,3,3
23:44:00,1,0,3,2,1,7,0,1,2
23:45:00,1,4,1,0,4,1,1,2,2
23:46:00,5,1,3,2,2,4,0,3,2
23:47:00,1,4,4,5,2,3,2,3,3
23:48:00,1,1,2,0,2,1,1,1,1
23:49:00,2,1,1,1,5,7,3,2,3
23:50:00,2,1,4,0,2,1,1,2,2
23:51:00,1,1,3,1,8,4,0,3,3
23:52:00,2,2,5,3,3,1,2,3,3
23:53:00,4,3,4,2,5,6,0,4,3
23:54:00,2,1,2,0,2,1,1,1,1
23:55:00,0,1,2,1,2,7,2,1,2
23:56:00,0,1,3,0,1,5,1,1,2
23:57:00,0,2,1,1,0,2,0,1,1
23:58:00,1,1,2,1,1,7,2,1,2
23:59:00,0,3,0,1,6,2,1,2,2
,,,,,,,,,
Totals,,,,,,,,,
12H(7-19),22250,23281,23363,23154,23926,20597,17394,23195,21995
16H(6-22),25291,26689,26883,26701,27370,23068,19029,26587,25004
18H(6-24),25735,27202,27386,27222,28010,23693,19352,27111,25514
24H(0-24),26207,27706,27880,27752,28551,24271,19865,27619,26033
,,,,,,,,,
AM Peak,07:36:00,07:46:00,07:46:00,07:35:00,07:50:00,11:00:00,10:54:00,07:46:00,10:00:00
,2142,2241,2220,2102,2182,2072,2179,2161,1803
,,,,,,,,,
PM Peak,16:58:00,16:56:00,16:48:00,16:50:00,16:28:00,12:20:00,12:45:00,16:55:00,16:27:00
,2375,2451,2439,2425,2322,2236,2203,2391,2086
,,,,,,,,,
,,,,,,,,,
CA Traffic,,,,,,,,,VDA-net R2 22/05/2020
