Site Number,00008017,Unnamed: 2,Site Reference,00008017.1,Unnamed: 5,Unnamed: 6,Lat/Lng.,"52.03773,1.20164",Unnamed: 9
Radar 8017 Felixstowe Road Ipswich,,,,,,,,,
Vehicle Count Report,,,,Week Begin: 16 December 2019,,,Channel:,Total Flow,
,,,,,,,,,
,,,,,,,,,
,2019-12-16 00:00:00,2019-12-17 00:00:00,2019-12-18 00:00:00,2019-12-19 00:00:00,2019-12-20 00:00:00,2019-12-21 00:00:00,2019-12-22 00:00:00,"5-Day
Ave.","7-Day
Ave."
00:00:00,1,3,2,1,6,5,6,3,3
00:01:00,1,1,2,1,1,4,4,1,2
00:02:00,0,0,2,3,4,5,1,2,2
00:03:00,1,3,2,3,4,5,4,3,3
00:04:00,3,1,1,2,6,5,5,3,3
00:05:00,3,2,1,3,6,4,5,3,3
00:06:00,2,2,5,3,6,6,3,4,4
00:07:00,1,3,2,2,6,7,9,3,4
00:08:00,4,2,3,4,6,6,6,4,4
00:09:00,0,3,5,2,6,2,7,3,4
00:10:00,2,0,3,2,5,6,3,2,3
00:11:00,1,1,2,0,2,8,2,1,2
00:12:00,2,2,0,1,3,9,9,2,4
00:13:00,1,3,1,3,3,2,8,2,3
00:14:00,4,3,4,1,5,3,4,3,3
00:15:00,1,0,1,4,5,5,4,2,3
00:16:00,1,4,0,3,5,3,8,3,3
00:17:00,2,2,1,8,4,9,5,3,4
00:18:00,2,1,4,0,2,3,3,2,2
00:19:00,0,2,3,4,2,3,4,2,3
00:20:00,3,0,4,3,2,5,7,2,3
00:21:00,2,2,2,2,6,6,4,3,3
00:22:00,0,0,0,1,9,3,1,2,2
00:23:00,2,1,1,1,7,5,1,2,3
00:24:00,2,0,3,2,5,5,3,2,3
00:25:00,0,0,0,3,6,5,4,2,3
00:26:00,0,0,1,4,4,4,8,2,3
00:27:00,0,2,1,4,5,5,2,2,3
00:28:00,0,2,0,1,0,6,2,1,2
00:29:00,2,0,4,0,5,7,5,2,3
00:30:00,0,3,1,4,1,6,5,2,3
00:31:00,2,0,2,2,6,7,4,2,3
00:32:00,1,2,1,0,6,1,1,2,2
00:33:00,1,0,1,1,3,1,4,1,2
00:34:00,2,3,0,2,2,5,3,2,2
00:35:00,1,0,3,3,2,7,2,2,3
00:36:00,0,2,0,3,6,3,5,2,3
00:37:00,0,0,2,3,2,6,7,1,3
00:38:00,0,1,0,0,3,4,4,1,2
00:39:00,4,0,1,1,4,6,4,2,3
00:40:00,0,0,2,0,3,5,3,1,2
00:41:00,1,3,1,1,3,3,2,2,2
00:42:00,1,0,0,0,1,4,5,0,2
00:43:00,2,0,1,4,7,3,1,3,3
00:44:00,0,3,0,2,1,3,4,1,2
00:45:00,1,1,0,1,2,2,5,1,2
00:46:00,1,0,0,0,1,4,5,0,2
00:47:00,2,0,0,1,0,3,4,1,1
00:48:00,0,0,2,0,5,2,4,1,2
00:49:00,2,1,2,1,4,3,1,2,2
00:50:00,0,0,0,4,3,4,3,1,2
00:51:00,1,0,1,1,1,4,1,1,1
00:52:00,1,1,1,1,5,2,7,2,3
00:53:00,1,0,1,1,3,7,6,1,3
00:54:00,0,0,0,0,2,8,1,0,2
00:55:00,0,0,0,2,1,4,4,1,2
00:56:00,0,0,2,1,1,2,4,1,1
00:57:00,1,0,1,2,0,9,4,1,2
00:58:00,1,0,2,1,1,5,4,1,2
00:59:00,3,1,0,1,2,3,1,1,2
01:00:00,1,1,0,1,2,5,2,1,2
01:01:00,0,0,1,3,3,4,4,1,2
01:02:00,1,1,1,1,2,2,4,1,2
01:03:00,1,0,0,4,1,7,3,1,2
01:04:00,0,0,0,3,1,1,4,1,1
01:05:00,0,2,0,2,1,4,3,1,2
01:06:00,0,2,0,1,4,3,3,1,2
01:07:00,0,0,1,2,4,0,5,1,2
01:08:00,0,1,1,3,3,7,4,2,3
01:09:00,2,2,0,2,3,9,3,2,3
01:10:00,0,0,1,2,2,5,7,1,2
01:11:00,1,0,0,2,2,0,1,1,1
01:12:00,0,0,0,2,3,4,5,1,2
01:13:00,0,0,0,2,0,2,4,0,1
01:14:00,2,2,2,2,2,3,3,2,2
01:15:00,0,0,1,1,2,3,3,1,1
01:16:00,1,0,1,1,1,4,5,1,2
01:17:00,1,1,0,1,1,5,4,1,2
01:18:00,0,2,0,1,1,4,2,1,1
01:19:00,0,1,0,1,1,4,3,1,1
01:20:00,0,0,0,1,0,1,4,0,1
01:21:00,0,1,1,1,3,7,7,1,3
01:22:00,0,0,0,1,0,4,4,0,1
01:23:00,0,0,1,2,2,4,2,1,2
01:24:00,0,0,0,0,1,1,1,0,0
01:25:00,0,1,3,1,1,0,2,1,1
01:26:00,2,2,2,0,3,6,4,2,3
01:27:00,0,1,3,1,1,2,4,1,2
01:28:00,1,2,2,2,0,4,2,1,2
01:29:00,3,0,0,0,1,3,2,1,1
01:30:00,2,2,0,1,3,4,1,2,2
01:31:00,2,0,0,2,1,3,2,1,1
01:32:00,1,0,0,3,0,4,4,1,2
01:33:00,1,0,1,0,0,1,0,0,0
01:34:00,0,1,0,1,1,0,3,1,1
01:35:00,0,0,0,2,2,4,2,1,1
01:36:00,2,1,0,0,1,1,0,1,1
01:37:00,0,0,1,0,0,1,3,0,1
01:38:00,2,0,2,1,0,2,3,1,1
01:39:00,0,1,0,2,1,1,0,1,1
01:40:00,0,1,1,1,1,2,2,1,1
01:41:00,1,2,0,0,1,5,0,1,1
01:42:00,0,1,1,1,2,1,4,1,1
01:43:00,0,0,3,1,0,1,1,1,1
01:44:00,2,1,0,0,1,1,3,1,1
01:45:00,4,1,1,1,1,1,0,2,1
01:46:00,0,3,1,0,1,3,1,1,1
01:47:00,1,0,2,0,1,0,1,1,1
01:48:00,0,2,1,2,0,1,3,1,1
01:49:00,0,2,0,0,2,1,1,1,1
01:50:00,0,1,1,1,0,3,2,1,1
01:51:00,0,0,0,0,0,2,5,0,1
01:52:00,0,0,1,0,0,0,2,0,0
01:53:00,2,1,0,0,0,1,0,1,1
01:54:00,1,0,1,1,4,3,2,1,2
01:55:00,1,0,1,1,0,1,0,1,1
01:56:00,0,0,0,0,0,1,3,0,1
01:57:00,0,1,1,0,1,2,1,1,1
01:58:00,0,0,1,1,0,2,0,0,1
01:59:00,0,0,1,2,2,3,1,1,1
02:00:00,0,3,0,0,0,0,0,1,0
02:01:00,2,0,0,0,2,2,3,1,1
02:02:00,2,1,0,0,0,0,2,1,1
02:03:00,0,2,0,1,0,2,2,1,1
02:04:00,0,0,2,1,0,1,0,1,1
02:05:00,1,1,0,1,1,3,0,1,1
02:06:00,1,1,0,0,0,1,0,0,0
02:07:00,0,0,1,1,0,2,0,0,1
02:08:00,2,2,0,0,0,2,2,1,1
02:09:00,0,1,0,5,2,3,1,2,2
02:10:00,1,0,2,0,0,2,1,1,1
02:11:00,0,1,1,1,1,2,0,1,1
02:12:00,0,2,1,0,0,0,2,1,1
02:13:00,0,1,0,0,1,3,1,0,1
02:14:00,0,2,1,2,1,0,2,1,1
02:15:00,0,0,1,3,3,1,2,1,1
02:16:00,0,2,2,0,0,1,2,1,1
02:17:00,0,1,1,0,0,0,0,0,0
02:18:00,0,1,1,0,1,1,0,1,1
02:19:00,0,2,0,0,2,1,1,1,1
02:20:00,0,0,2,0,0,3,2,0,1
02:21:00,1,0,0,2,2,0,1,1,1
02:22:00,0,0,0,0,0,3,0,0,0
02:23:00,0,2,0,0,1,2,0,1,1
02:24:00,1,1,0,0,0,0,1,0,0
02:25:00,0,0,0,2,0,2,1,0,1
02:26:00,1,1,2,1,1,1,0,1,1
02:27:00,0,1,2,0,0,3,1,1,1
02:28:00,0,0,0,1,0,3,2,0,1
02:29:00,0,0,0,1,0,2,5,0,1
02:30:00,0,0,1,0,1,1,1,0,1
02:31:00,0,3,0,1,0,1,0,1,1
02:32:00,0,0,2,0,0,2,0,0,1
02:33:00,3,2,0,1,1,1,3,1,2
02:34:00,1,0,1,0,0,0,0,0,0
02:35:00,1,2,0,3,0,1,0,1,1
02:36:00,0,0,0,0,1,2,0,0,0
02:37:00,1,0,2,0,1,1,1,1,1
02:38:00,1,0,1,1,2,3,1,1,1
02:39:00,0,1,3,1,0,2,0,1,1
02:40:00,2,0,0,0,1,1,1,1,1
02:41:00,0,2,1,1,1,1,2,1,1
02:42:00,0,0,0,0,2,2,1,0,1
02:43:00,2,1,1,1,2,1,3,1,2
02:44:00,0,1,1,0,1,2,3,1,1
02:45:00,0,1,1,0,0,4,0,0,1
02:46:00,1,0,0,1,0,4,1,0,1
02:47:00,0,0,0,1,2,3,1,1,1
02:48:00,0,1,0,0,1,1,1,0,1
02:49:00,0,1,0,0,2,1,1,1,1
02:50:00,1,0,0,3,0,0,0,1,1
02:51:00,0,1,0,0,0,2,0,0,0
02:52:00,2,1,2,2,0,2,1,1,1
02:53:00,0,0,1,0,0,2,0,0,0
02:54:00,0,0,0,1,4,2,1,1,1
02:55:00,0,1,0,2,0,4,0,1,1
02:56:00,0,2,0,2,0,2,1,1,1
02:57:00,0,0,0,3,0,2,1,1,1
02:58:00,0,1,0,0,0,0,0,0,0
02:59:00,0,0,1,1,1,2,1,1,1
03:00:00,1,0,2,0,0,0,2,1,1
03:01:00,0,1,1,4,0,5,2,1,2
03:02:00,2,1,3,2,0,3,1,2,2
03:03:00,0,0,1,2,0,1,1,1,1
03:04:00,0,1,1,0,2,1,1,1,1
03:05:00,2,1,0,2,0,3,1,1,1
03:06:00,2,1,2,2,0,0,0,1,1
03:07:00,0,0,0,0,0,1,0,0,0
03:08:00,0,0,0,1,0,0,0,0,0
03:09:00,0,2,0,0,1,1,2,1,1
03:10:00,0,0,3,0,1,3,1,1,1
03:11:00,1,0,1,2,0,0,1,1,1
03:12:00,0,0,2,0,0,1,3,0,1
03:13:00,3,3,0,1,1,0,2,2,1
03:14:00,0,0,0,0,3,2,1,1,1
03:15:00,1,0,1,0,0,2,1,0,1
03:16:00,1,1,0,0,0,1,1,0,1
03:17:00,1,1,0,1,2,3,2,1,1
03:18:00,1,0,1,1,2,2,1,1,1
03:19:00,2,3,1,2,0,2,1,2,2
03:20:00,0,2,0,1,0,2,0,1,1
03:21:00,0,1,0,0,0,1,2,0,1
03:22:00,0,0,1,2,1,3,0,1,1
03:23:00,0,2,1,1,1,3,3,1,2
03:24:00,0,0,1,2,1,0,0,1,1
03:25:00,1,1,1,0,0,0,1,1,1
03:26:00,1,1,0,1,1,1,1,1,1
03:27:00,2,0,1,1,0,1,1,1,1
03:28:00,3,0,1,0,5,0,1,2,1
03:29:00,0,1,0,0,0,0,1,0,0
03:30:00,0,0,0,0,0,2,0,0,0
03:31:00,2,2,0,1,0,2,0,1,1
03:32:00,1,0,0,0,0,1,0,0,0
03:33:00,0,0,1,0,0,1,1,0,0
03:34:00,0,0,0,0,0,0,0,0,0
03:35:00,2,3,1,2,0,3,0,2,2
03:36:00,1,0,0,0,1,0,3,0,1
03:37:00,0,1,0,0,1,2,1,0,1
03:38:00,2,2,0,2,1,2,2,1,2
03:39:00,0,0,0,2,1,2,1,1,1
03:40:00,2,0,3,1,1,3,1,1,2
03:41:00,0,1,1,0,0,0,2,0,1
03:42:00,0,1,1,1,2,0,1,1,1
03:43:00,1,0,0,0,1,1,1,0,1
03:44:00,0,3,2,1,1,1,0,1,1
03:45:00,1,2,0,0,2,3,2,1,1
03:46:00,1,0,0,1,2,6,2,1,2
03:47:00,0,0,1,2,5,3,4,2,2
03:48:00,0,1,0,1,1,1,4,1,1
03:49:00,1,2,2,2,3,4,4,2,3
03:50:00,1,2,4,0,0,0,1,1,1
03:51:00,0,0,1,1,3,2,1,1,1
03:52:00,2,1,2,1,3,0,5,2,2
03:53:00,1,3,0,1,2,1,0,1,1
03:54:00,1,5,2,1,3,3,2,2,2
03:55:00,1,4,2,0,2,2,5,2,2
03:56:00,1,3,0,0,1,2,3,1,1
03:57:00,1,1,1,1,1,1,2,1,1
03:58:00,2,0,0,0,0,4,1,0,1
03:59:00,1,1,0,0,3,2,3,1,1
04:00:00,1,3,1,1,2,0,1,2,1
04:01:00,1,2,1,0,0,2,1,1,1
04:02:00,1,1,4,1,0,1,1,1,1
04:03:00,0,2,0,0,2,1,0,1,1
04:04:00,1,2,3,3,1,2,1,2,2
04:05:00,0,0,0,1,1,2,2,0,1
04:06:00,0,0,1,1,0,2,0,0,1
04:07:00,0,0,1,1,1,0,2,1,1
04:08:00,0,1,0,2,0,2,2,1,1
04:09:00,0,3,2,1,2,1,1,2,1
04:10:00,3,1,1,0,0,4,1,1,1
04:11:00,2,2,0,2,3,2,1,2,2
04:12:00,3,1,0,0,0,1,0,1,1
04:13:00,1,2,1,1,0,0,0,1,1
04:14:00,0,0,1,1,1,1,1,1,1
04:15:00,1,2,1,1,1,0,2,1,1
04:16:00,2,2,0,1,2,1,2,1,1
04:17:00,0,1,2,0,0,2,0,1,1
04:18:00,2,0,0,2,1,1,2,1,1
04:19:00,2,0,1,3,2,0,2,2,1
04:20:00,1,0,1,3,1,1,2,1,1
04:21:00,0,2,1,1,2,1,1,1,1
04:22:00,0,0,1,0,0,1,1,0,0
04:23:00,0,2,3,2,0,1,2,1,1
04:24:00,0,1,2,0,5,0,2,2,1
04:25:00,1,0,2,1,1,1,0,1,1
04:26:00,4,1,0,3,2,4,0,2,2
04:27:00,0,2,1,0,1,0,4,1,1
04:28:00,4,0,0,1,1,2,2,1,1
04:29:00,0,5,2,1,2,2,0,2,2
04:30:00,3,1,2,0,3,2,0,2,2
04:31:00,1,1,1,1,1,4,0,1,1
04:32:00,1,1,3,3,2,3,1,2,2
04:33:00,1,1,1,4,3,2,1,2,2
04:34:00,5,2,0,3,2,1,1,2,2
04:35:00,1,2,0,4,4,1,1,2,2
04:36:00,0,2,0,0,4,2,0,1,1
04:37:00,0,2,0,2,0,2,0,1,1
04:38:00,2,1,3,1,5,0,1,2,2
04:39:00,5,0,1,2,7,0,0,3,2
04:40:00,1,0,4,1,1,1,3,1,2
04:41:00,3,3,1,5,2,2,1,3,2
04:42:00,0,0,4,2,1,3,0,1,1
04:43:00,0,5,1,1,3,3,1,2,2
04:44:00,2,2,1,1,2,2,1,2,2
04:45:00,3,4,3,2,6,3,1,4,3
04:46:00,1,4,0,4,2,2,1,2,2
04:47:00,3,4,3,1,0,1,2,2,2
04:48:00,4,4,2,2,0,0,4,2,2
04:49:00,4,3,5,5,1,1,1,4,3
04:50:00,2,2,1,3,1,5,0,2,2
04:51:00,4,0,1,8,3,2,0,3,3
04:52:00,3,5,1,3,3,4,1,3,3
04:53:00,3,2,1,2,3,1,2,2,2
04:54:00,5,2,5,0,2,0,1,3,2
04:55:00,4,0,1,1,1,2,1,1,1
04:56:00,2,3,2,1,7,1,3,3,3
04:57:00,4,2,5,2,0,1,1,3,2
04:58:00,0,2,2,0,5,3,1,2,2
04:59:00,4,0,2,3,1,2,0,2,2
05:00:00,2,4,4,1,4,1,0,3,2
05:01:00,1,1,1,2,0,0,2,1,1
05:02:00,0,1,1,2,4,2,0,2,1
05:03:00,1,5,4,0,0,1,0,2,2
05:04:00,1,0,2,1,2,4,0,1,1
05:05:00,2,0,2,4,1,2,1,2,2
05:06:00,3,3,3,0,3,6,0,2,3
05:07:00,4,5,1,0,2,1,1,2,2
05:08:00,2,4,3,5,2,1,0,3,2
05:09:00,1,2,5,1,2,1,0,2,2
05:10:00,3,2,5,2,0,4,2,2,3
05:11:00,3,3,2,2,4,1,0,3,2
05:12:00,0,3,2,3,2,2,1,2,2
05:13:00,4,2,3,2,0,1,1,2,2
05:14:00,4,1,3,1,1,1,0,2,2
05:15:00,3,7,3,7,3,3,1,5,4
05:16:00,2,4,3,6,3,0,0,4,3
05:17:00,1,1,3,2,7,1,2,3,2
05:18:00,2,3,2,4,3,2,0,3,2
05:19:00,6,2,4,4,5,2,3,4,4
05:20:00,2,2,0,2,2,4,0,2,2
05:21:00,3,3,3,3,4,1,1,3,3
05:22:00,2,4,3,3,1,4,1,3,3
05:23:00,2,3,5,3,1,1,1,3,2
05:24:00,2,2,5,3,3,1,0,3,2
05:25:00,2,1,2,4,1,2,0,2,2
05:26:00,4,5,2,2,1,1,0,3,2
05:27:00,4,4,2,5,4,0,2,4,3
05:28:00,4,3,2,1,3,5,2,3,3
05:29:00,4,6,2,2,4,4,1,4,3
05:30:00,4,6,6,0,2,1,1,4,3
05:31:00,6,5,4,4,6,3,2,5,4
05:32:00,0,3,2,4,4,3,0,3,2
05:33:00,2,2,4,3,2,5,4,3,3
05:34:00,3,4,2,3,7,2,0,4,3
05:35:00,1,4,4,7,2,3,2,4,3
05:36:00,4,3,3,7,3,4,4,4,4
05:37:00,5,5,11,5,5,1,4,6,5
05:38:00,5,3,6,7,5,2,0,5,4
05:39:00,3,8,7,10,5,7,1,7,6
05:40:00,9,5,4,7,6,2,1,6,5
05:41:00,6,6,12,7,4,4,4,7,6
05:42:00,8,6,7,8,7,8,3,7,7
05:43:00,12,2,7,6,7,2,2,7,5
05:44:00,6,9,8,6,5,2,0,7,5
05:45:00,4,6,3,9,3,1,1,5,4
05:46:00,7,12,8,6,6,4,1,8,6
05:47:00,3,8,8,3,6,1,2,6,4
05:48:00,3,2,6,6,8,4,1,5,4
05:49:00,4,8,7,6,7,2,0,6,5
05:50:00,6,9,13,8,7,1,3,9,7
05:51:00,5,7,11,7,5,7,3,7,6
05:52:00,7,3,8,5,7,5,2,6,5
05:53:00,6,5,3,7,12,1,3,7,5
05:54:00,9,4,3,8,5,3,3,6,5
05:55:00,9,7,7,2,4,1,0,6,4
05:56:00,6,5,10,5,9,2,2,7,6
05:57:00,4,6,6,9,4,5,2,6,5
05:58:00,9,8,10,9,6,8,2,8,7
05:59:00,11,8,4,5,6,2,2,7,5
06:00:00,3,3,2,9,2,1,2,4,3
06:01:00,7,6,5,5,11,2,2,7,5
06:02:00,5,4,7,10,7,2,3,7,5
06:03:00,2,2,0,4,5,8,6,3,4
06:04:00,8,5,10,10,5,0,4,8,6
06:05:00,9,12,7,4,9,7,6,8,8
06:06:00,6,13,9,7,4,5,2,8,7
06:07:00,5,9,10,4,11,4,1,8,6
06:08:00,6,11,6,8,10,4,3,8,7
06:09:00,8,3,11,7,6,3,4,7,6
06:10:00,7,9,8,7,5,8,1,7,6
06:11:00,15,7,6,5,6,4,4,8,7
06:12:00,9,12,7,12,15,5,2,11,9
06:13:00,14,6,3,7,9,9,6,8,8
06:14:00,7,10,10,8,10,8,4,9,8
06:15:00,7,15,10,12,8,4,6,10,9
06:16:00,7,9,6,8,5,10,1,7,7
06:17:00,9,12,7,14,9,2,0,10,8
06:18:00,6,4,11,10,7,5,6,8,7
06:19:00,11,4,6,4,16,2,5,8,7
06:20:00,16,8,9,11,19,8,4,13,11
06:21:00,8,12,6,12,11,3,3,10,8
06:22:00,13,18,5,6,9,7,0,10,8
06:23:00,11,9,10,7,8,8,2,9,8
06:24:00,12,15,12,7,13,7,2,12,10
06:25:00,9,9,14,16,5,6,5,11,9
06:26:00,14,12,7,11,6,6,1,10,8
06:27:00,10,8,4,5,16,8,5,9,8
06:28:00,15,10,11,17,10,2,3,13,10
06:29:00,10,16,5,17,10,3,3,12,9
06:30:00,7,7,14,8,5,8,6,8,8
06:31:00,16,7,9,13,14,2,1,12,9
06:32:00,13,18,9,6,14,13,1,12,11
06:33:00,14,7,8,11,14,2,1,11,8
06:34:00,11,19,8,14,14,8,1,13,11
06:35:00,18,12,16,11,11,12,5,14,12
06:36:00,13,12,19,10,11,6,4,13,11
06:37:00,11,12,22,9,13,7,6,13,11
06:38:00,14,11,15,16,13,5,3,14,11
06:39:00,13,13,13,11,19,4,6,14,11
06:40:00,17,8,10,20,16,11,5,14,12
06:41:00,16,17,12,10,9,10,4,13,11
06:42:00,15,23,14,10,14,5,0,15,12
06:43:00,11,15,16,18,13,9,5,15,12
06:44:00,23,22,17,19,7,3,4,18,14
06:45:00,12,15,19,11,15,11,4,14,12
06:46:00,10,11,20,19,9,9,1,14,11
06:47:00,16,15,13,19,18,7,3,16,13
06:48:00,16,18,10,15,16,10,3,15,13
06:49:00,23,12,14,12,9,7,3,14,11
06:50:00,11,11,13,17,12,5,4,13,10
06:51:00,13,24,16,19,11,6,1,17,13
06:52:00,14,15,18,14,11,9,2,14,12
06:53:00,19,24,21,9,14,9,8,17,15
06:54:00,13,14,18,17,17,11,2,16,13
06:55:00,24,12,22,21,7,8,4,17,14
06:56:00,16,17,16,15,26,6,3,18,14
06:57:00,13,12,18,15,22,15,4,16,14
06:58:00,13,21,12,16,10,6,5,14,12
06:59:00,9,25,19,14,27,15,5,19,16
07:00:00,18,13,11,13,15,3,6,14,11
07:01:00,13,21,27,21,11,7,4,19,15
07:02:00,22,21,17,16,22,5,4,20,15
07:03:00,15,15,15,13,15,9,9,15,13
07:04:00,23,20,20,18,17,9,6,20,16
07:05:00,12,24,23,21,18,5,9,20,16
07:06:00,15,25,19,23,18,8,4,20,16
07:07:00,28,14,24,15,25,9,1,21,17
07:08:00,23,28,26,24,29,5,9,26,21
07:09:00,32,24,22,26,22,9,5,25,20
07:10:00,28,16,20,22,31,20,6,23,20
07:11:00,18,29,29,15,21,6,5,22,18
07:12:00,18,22,18,32,31,17,3,24,20
07:13:00,32,34,30,21,29,12,12,29,24
07:14:00,24,19,13,25,17,12,3,20,16
07:15:00,30,17,32,33,28,13,9,28,23
07:16:00,32,26,28,21,21,8,2,26,20
07:17:00,28,30,26,21,23,10,8,26,21
07:18:00,24,22,30,30,30,7,8,27,22
07:19:00,20,28,24,37,24,5,8,27,21
07:20:00,24,21,12,22,20,10,1,20,16
07:21:00,24,25,29,28,26,10,7,26,21
07:22:00,18,25,21,23,28,14,6,23,19
07:23:00,38,26,23,30,29,9,3,29,23
07:24:00,36,28,21,22,29,14,10,27,23
07:25:00,24,27,26,29,18,11,4,25,20
07:26:00,34,35,27,30,36,9,4,32,25
07:27:00,29,21,22,26,21,4,6,24,18
07:28:00,39,36,25,29,19,9,6,30,23
07:29:00,20,34,32,23,28,11,5,27,22
07:30:00,35,33,27,33,26,14,5,31,25
07:31:00,33,26,32,35,18,8,2,29,22
07:32:00,30,31,23,31,35,13,8,30,24
07:33:00,23,32,31,24,29,9,2,28,21
07:34:00,40,27,24,40,25,15,5,31,25
07:35:00,45,34,31,27,36,12,4,35,27
07:36:00,33,38,29,38,30,13,4,34,26
07:37:00,39,31,34,27,37,8,8,34,26
07:38:00,36,39,39,28,39,14,10,36,29
07:39:00,40,32,26,31,29,11,6,32,25
07:40:00,42,30,23,40,33,14,4,34,27
07:41:00,44,31,41,41,32,12,5,38,29
07:42:00,36,41,36,33,29,27,3,35,29
07:43:00,34,37,32,39,41,14,6,37,29
07:44:00,39,38,37,33,26,14,7,35,28
07:45:00,32,29,32,29,30,8,7,30,24
07:46:00,31,26,42,39,41,15,11,36,29
07:47:00,30,37,37,44,36,14,13,37,30
07:48:00,40,47,44,37,52,16,8,44,35
07:49:00,33,31,35,35,37,20,4,34,28
07:50:00,27,42,34,42,34,16,14,36,30
07:51:00,34,33,31,34,33,11,11,33,27
07:52:00,33,32,34,34,30,12,6,33,26
07:53:00,31,27,41,36,41,9,6,35,27
07:54:00,44,42,36,38,33,10,5,39,30
07:55:00,34,34,46,27,33,23,6,35,29
07:56:00,34,28,35,37,33,14,7,33,27
07:57:00,43,45,36,27,44,11,9,39,31
07:58:00,32,34,33,32,33,18,4,33,27
07:59:00,32,26,44,38,36,19,5,35,29
08:00:00,34,43,28,35,26,16,6,33,27
08:01:00,40,46,37,35,28,18,9,37,30
08:02:00,32,40,29,27,42,11,5,34,27
08:03:00,32,33,56,27,32,22,7,36,30
08:04:00,30,28,34,26,41,19,3,32,26
08:05:00,31,27,32,38,29,19,8,31,26
08:06:00,35,46,43,23,26,18,9,35,29
08:07:00,39,50,28,36,41,18,4,39,31
08:08:00,25,40,35,30,49,13,7,36,28
08:09:00,43,35,28,27,22,17,6,31,25
08:10:00,36,37,43,29,31,20,6,35,29
08:11:00,25,33,35,28,39,20,9,32,27
08:12:00,30,35,33,24,35,23,3,31,26
08:13:00,38,38,35,20,26,17,4,31,25
08:14:00,37,41,39,44,37,13,6,40,31
08:15:00,34,30,45,40,28,13,3,35,28
08:16:00,45,24,29,44,35,25,2,35,29
08:17:00,30,32,36,37,40,19,2,35,28
08:18:00,30,35,38,43,25,19,13,34,29
08:19:00,39,39,40,45,33,21,4,39,32
08:20:00,36,40,27,35,33,24,5,34,29
08:21:00,51,30,38,36,30,27,1,37,30
08:22:00,30,34,34,34,39,20,3,34,28
08:23:00,40,39,37,52,35,31,8,41,35
08:24:00,31,39,34,37,31,24,2,34,28
08:25:00,44,51,37,35,33,22,4,40,32
08:26:00,32,31,25,27,37,17,9,30,25
08:27:00,28,30,28,35,28,24,4,30,25
08:28:00,42,30,49,35,28,26,7,37,31
08:29:00,39,31,28,36,38,26,2,34,29
08:30:00,29,30,53,36,33,15,4,36,29
08:31:00,42,51,35,37,28,26,2,39,32
08:32:00,33,37,38,40,41,23,6,38,31
08:33:00,46,43,39,44,35,30,11,41,35
08:34:00,32,47,46,42,46,31,3,43,35
08:35:00,41,30,31,26,40,16,10,34,28
08:36:00,40,24,44,40,28,28,10,35,31
08:37:00,34,40,48,43,35,12,7,40,31
08:38:00,32,41,27,36,42,23,2,36,29
08:39:00,47,24,44,32,26,24,11,35,30
08:40:00,38,27,35,45,32,30,7,35,31
08:41:00,35,37,33,35,32,27,9,34,30
08:42:00,35,37,41,32,43,19,5,38,30
08:43:00,33,29,39,40,29,28,10,34,30
08:44:00,33,34,42,20,29,29,13,32,29
08:45:00,39,30,25,43,34,19,14,34,29
08:46:00,40,30,36,31,33,25,9,34,29
08:47:00,36,34,32,37,31,27,4,34,29
08:48:00,29,44,44,47,50,24,8,43,35
08:49:00,38,32,33,33,24,32,9,32,29
08:50:00,46,33,40,41,52,19,8,42,34
08:51:00,38,42,28,39,19,25,16,33,30
08:52:00,29,33,38,38,29,30,11,33,30
08:53:00,39,24,47,37,52,19,15,40,33
08:54:00,33,30,38,31,37,27,10,34,29
08:55:00,41,37,28,40,36,19,15,36,31
08:56:00,37,28,31,39,27,16,8,32,27
08:57:00,33,34,33,26,36,25,13,32,29
08:58:00,34,34,39,39,22,16,15,34,28
08:59:00,27,44,33,40,27,22,9,34,29
09:00:00,34,32,27,44,34,15,11,34,28
09:01:00,31,35,36,34,32,29,17,34,31
09:02:00,29,41,32,32,38,24,8,34,29
09:03:00,29,28,33,28,34,20,5,30,25
09:04:00,24,29,39,27,31,29,15,30,28
09:05:00,36,34,30,33,23,13,10,31,26
09:06:00,35,36,36,36,33,18,9,35,29
09:07:00,35,40,40,31,37,26,8,37,31
09:08:00,32,26,37,38,36,23,8,34,29
09:09:00,20,38,31,29,26,17,22,29,26
09:10:00,46,34,31,41,31,28,11,37,32
09:11:00,34,29,36,14,34,28,14,29,27
09:12:00,37,40,31,48,32,24,11,38,32
09:13:00,35,28,24,36,29,20,11,30,26
09:14:00,32,23,41,36,37,36,12,34,31
09:15:00,30,27,32,30,39,22,12,32,27
09:16:00,27,24,32,38,28,24,13,30,27
09:17:00,31,34,22,19,20,25,14,25,24
09:18:00,26,33,29,46,35,27,29,34,32
09:19:00,41,25,32,42,30,16,9,34,28
09:20:00,38,31,34,42,34,24,20,36,32
09:21:00,31,29,22,26,32,16,10,28,24
09:22:00,34,23,27,44,29,17,14,31,27
09:23:00,30,35,38,28,38,25,13,34,30
09:24:00,32,30,26,49,34,27,14,34,30
09:25:00,26,38,21,26,31,25,15,28,26
09:26:00,28,32,40,31,25,25,19,31,29
09:27:00,36,38,24,26,37,24,18,32,29
09:28:00,27,30,31,32,43,33,12,33,30
09:29:00,29,32,35,33,36,30,32,33,32
09:30:00,31,23,25,22,25,42,19,25,27
09:31:00,23,25,33,41,43,21,21,33,30
09:32:00,37,36,38,33,36,22,19,36,32
09:33:00,33,35,34,32,31,22,12,33,28
09:34:00,30,26,30,30,32,19,22,30,27
09:35:00,22,30,27,39,26,30,20,29,28
09:36:00,41,32,38,38,35,31,17,37,33
09:37:00,31,26,24,44,32,24,16,31,28
09:38:00,19,32,25,39,36,31,27,30,30
09:39:00,37,23,36,31,26,25,23,31,29
09:40:00,21,27,30,49,46,22,28,35,32
09:41:00,41,40,30,34,29,26,21,35,32
09:42:00,35,36,27,37,35,24,22,34,31
09:43:00,34,32,23,30,29,30,22,30,29
09:44:00,33,38,28,28,25,36,21,30,30
09:45:00,26,28,32,50,31,36,23,33,32
09:46:00,28,37,39,35,21,29,26,32,31
09:47:00,30,44,30,34,46,31,23,37,34
09:48:00,26,41,28,24,40,26,23,32,30
09:49:00,26,31,32,40,35,24,30,33,31
09:50:00,43,35,36,40,25,20,34,36,33
09:51:00,31,46,30,31,31,43,28,34,34
09:52:00,24,34,25,39,25,24,24,29,28
09:53:00,30,29,35,28,31,22,28,31,29
09:54:00,22,27,32,29,30,42,30,28,30
09:55:00,35,39,31,36,35,33,23,35,33
09:56:00,25,36,21,32,34,29,30,30,30
09:57:00,28,30,35,34,35,24,24,32,30
09:58:00,23,42,35,36,33,35,21,34,32
09:59:00,24,38,35,41,34,32,22,34,32
10:00:00,30,32,29,32,39,27,20,32,30
10:01:00,35,40,29,28,41,43,29,35,35
10:02:00,26,42,30,35,33,32,24,33,32
10:03:00,36,32,46,45,41,22,35,40,37
10:04:00,18,23,35,30,40,34,22,29,29
10:05:00,34,31,27,37,29,26,41,32,32
10:06:00,29,44,34,22,34,20,27,33,30
10:07:00,36,24,28,33,40,44,16,32,32
10:08:00,33,39,33,29,39,29,17,35,31
10:09:00,41,31,36,31,40,30,18,36,32
10:10:00,38,27,31,35,49,27,23,36,33
10:11:00,34,30,23,27,28,24,29,28,28
10:12:00,31,35,26,30,35,36,34,31,32
10:13:00,36,29,33,25,32,34,36,31,32
10:14:00,30,30,43,44,22,29,40,34,34
10:15:00,32,28,34,20,38,42,38,30,33
10:16:00,28,31,34,23,39,29,26,31,30
10:17:00,28,44,33,27,35,36,13,33,31
10:18:00,26,26,35,29,31,45,15,29,30
10:19:00,31,32,30,32,36,27,15,32,29
10:20:00,28,26,36,41,32,33,39,33,34
10:21:00,31,37,28,30,40,24,32,33,32
10:22:00,33,46,44,35,24,32,35,36,36
10:23:00,27,28,30,40,38,35,34,33,33
10:24:00,35,28,43,32,23,33,43,32,34
10:25:00,28,32,24,33,36,29,39,31,32
10:26:00,39,40,44,34,39,24,24,39,35
10:27:00,36,27,43,41,30,34,28,35,34
10:28:00,29,32,57,34,34,49,34,37,38
10:29:00,36,30,42,34,23,26,36,33,32
10:30:00,37,48,28,33,41,42,42,37,39
10:31:00,32,35,40,28,47,38,26,36,35
10:32:00,34,25,37,32,31,33,42,32,33
10:33:00,29,29,33,26,39,26,34,31,31
10:34:00,26,32,29,49,34,34,39,34,35
10:35:00,36,35,36,29,25,35,30,32,32
10:36:00,27,32,35,43,35,36,40,34,35
10:37:00,35,28,32,31,30,30,31,31,31
10:38:00,32,29,33,38,40,38,28,34,34
10:39:00,35,36,31,32,25,28,23,32,30
10:40:00,47,32,30,32,31,42,16,34,33
10:41:00,30,31,34,41,48,44,25,37,36
10:42:00,26,32,44,35,41,36,25,36,34
10:43:00,35,26,44,33,29,31,35,33,33
10:44:00,31,28,19,32,25,36,33,27,29
10:45:00,31,42,30,50,45,44,28,40,39
10:46:00,34,30,37,34,39,32,22,35,33
10:47:00,32,36,29,42,25,32,47,33,35
10:48:00,25,21,29,24,26,34,18,25,25
10:49:00,23,34,40,38,31,39,16,33,32
10:50:00,38,40,38,39,43,31,22,40,36
10:51:00,22,39,35,35,40,30,37,34,34
10:52:00,42,30,40,36,27,38,20,35,33
10:53:00,44,29,42,38,39,34,28,38,36
10:54:00,31,34,37,34,37,22,20,35,31
10:55:00,36,37,33,38,38,26,23,36,33
10:56:00,29,30,34,27,37,29,27,31,30
10:57:00,35,34,29,47,34,42,38,36,37
10:58:00,35,36,28,37,41,30,28,35,34
10:59:00,40,35,44,32,33,36,35,37,36
11:00:00,33,37,28,31,47,54,17,35,35
11:01:00,43,37,37,48,46,25,41,42,40
11:02:00,41,30,36,52,29,41,38,38,38
11:03:00,29,36,31,37,39,37,34,34,35
11:04:00,45,37,28,25,40,26,38,35,34
11:05:00,26,39,39,36,34,35,32,35,34
11:06:00,36,33,39,38,39,49,35,37,38
11:07:00,33,41,40,46,44,32,29,41,38
11:08:00,24,25,42,37,34,29,36,32,32
11:09:00,26,34,36,33,41,40,20,34,33
11:10:00,28,44,24,26,42,35,21,33,31
11:11:00,29,34,36,41,24,32,31,33,32
11:12:00,36,18,41,30,48,28,39,35,34
11:13:00,35,29,29,47,38,32,34,36,35
11:14:00,30,47,35,34,41,37,40,37,38
11:15:00,38,32,31,23,31,29,41,31,32
11:16:00,27,37,34,31,35,37,27,33,33
11:17:00,26,33,32,38,23,32,27,30,30
11:18:00,37,28,23,35,38,39,21,32,32
11:19:00,34,37,38,35,32,41,36,35,36
11:20:00,33,28,38,32,41,31,44,34,35
11:21:00,37,31,36,26,23,41,40,31,33
11:22:00,34,39,44,28,36,49,41,36,39
11:23:00,26,27,33,31,32,31,34,30,31
11:24:00,32,40,36,38,48,45,37,39,39
11:25:00,41,36,21,48,43,48,31,38,38
11:26:00,35,31,46,27,37,40,36,35,36
11:27:00,28,39,34,37,37,41,43,35,37
11:28:00,32,34,23,30,36,22,33,31,30
11:29:00,28,29,35,43,41,18,42,35,34
11:30:00,31,39,39,41,48,33,34,40,38
11:31:00,25,26,42,37,33,44,35,33,35
11:32:00,30,49,29,33,36,44,35,35,37
11:33:00,30,21,33,35,36,36,42,31,33
11:34:00,47,31,41,35,32,42,27,37,36
11:35:00,34,26,56,26,36,41,35,36,36
11:36:00,37,42,36,38,45,47,39,40,41
11:37:00,40,23,28,44,35,43,35,34,35
11:38:00,36,35,23,34,38,34,39,33,34
11:39:00,26,20,27,24,37,31,32,27,28
11:40:00,35,28,40,24,36,34,31,33,33
11:41:00,39,38,39,47,35,35,23,40,37
11:42:00,34,27,33,36,43,26,30,35,33
11:43:00,28,29,34,33,43,40,28,33,34
11:44:00,31,39,37,38,42,31,29,37,35
11:45:00,45,39,36,33,38,47,35,38,39
11:46:00,38,22,35,36,37,35,45,34,35
11:47:00,22,43,40,35,33,29,42,35,35
11:48:00,42,33,44,37,51,28,34,41,38
11:49:00,37,38,44,33,41,42,26,39,37
11:50:00,40,34,29,25,41,40,22,34,33
11:51:00,30,34,45,37,38,38,24,37,35
11:52:00,34,42,44,34,45,34,36,40,38
11:53:00,38,31,27,34,38,23,44,34,34
11:54:00,34,38,36,27,32,30,53,33,36
11:55:00,28,42,32,46,48,39,43,39,40
11:56:00,41,32,25,38,40,38,39,35,36
11:57:00,29,29,35,25,34,34,21,30,30
11:58:00,25,38,21,41,32,37,25,31,31
11:59:00,34,33,41,41,35,40,32,37,37
12:00:00,26,37,36,49,42,37,43,38,39
12:01:00,50,43,46,30,33,27,39,40,38
12:02:00,32,34,38,32,44,22,44,36,35
12:03:00,43,33,35,41,36,24,35,38,35
12:04:00,50,32,37,35,12,29,30,33,32
12:05:00,45,26,29,45,36,38,39,36,37
12:06:00,39,29,25,37,34,36,33,33,33
12:07:00,37,36,35,30,40,46,31,36,36
12:08:00,33,22,34,44,43,48,38,35,37
12:09:00,31,37,23,34,34,43,39,32,34
12:10:00,38,36,43,27,30,44,33,35,36
12:11:00,33,33,44,30,40,48,28,36,37
12:12:00,35,31,21,45,37,34,39,34,35
12:13:00,38,33,37,30,39,20,30,35,32
12:14:00,26,31,35,28,41,30,29,32,31
12:15:00,34,43,37,30,33,46,38,35,37
12:16:00,40,36,36,32,39,49,44,37,39
12:17:00,32,40,35,35,40,27,33,36,35
12:18:00,41,40,36,28,42,28,24,37,34
12:19:00,34,43,35,18,36,42,37,33,35
12:20:00,44,36,36,33,40,37,35,38,37
12:21:00,30,31,33,24,28,46,38,29,33
12:22:00,31,48,21,35,35,39,26,34,34
12:23:00,28,26,33,37,46,40,25,34,34
12:24:00,25,34,38,30,39,37,34,33,34
12:25:00,42,38,27,29,34,40,29,34,34
12:26:00,36,36,30,37,40,56,31,36,38
12:27:00,30,30,34,23,32,33,39,30,32
12:28:00,33,31,40,28,37,53,42,34,38
12:29:00,36,29,36,29,40,38,42,34,36
12:30:00,42,37,26,31,46,31,32,36,35
12:31:00,41,30,32,30,39,20,34,34,32
12:32:00,37,45,38,38,38,36,30,39,37
12:33:00,29,32,34,38,41,45,40,35,37
12:34:00,27,23,41,21,42,47,34,31,34
12:35:00,27,37,27,22,31,32,41,29,31
12:36:00,27,30,29,23,34,28,35,29,29
12:37:00,32,37,25,32,50,33,35,35,35
12:38:00,20,30,35,20,43,43,43,30,33
12:39:00,37,33,29,38,50,43,39,37,38
12:40:00,26,31,34,28,24,38,40,29,32
12:41:00,43,34,39,28,38,43,48,36,39
12:42:00,26,21,40,22,41,28,32,30,30
12:43:00,37,33,23,31,34,43,29,32,33
12:44:00,34,36,33,27,47,37,38,35,36
12:45:00,33,24,30,24,26,31,33,27,29
12:46:00,55,38,40,38,41,37,26,42,39
12:47:00,25,38,37,29,31,31,30,32,32
12:48:00,41,24,35,27,42,40,34,34,35
12:49:00,33,33,26,38,41,31,48,34,36
12:50:00,27,31,35,12,37,12,46,28,29
12:51:00,31,30,37,28,29,35,32,31,32
12:52:00,37,43,29,27,50,36,37,37,37
12:53:00,39,36,37,32,31,34,29,35,34
12:54:00,30,34,31,30,36,40,32,32,33
12:55:00,27,44,39,33,40,22,46,37,36
12:56:00,31,29,39,44,37,37,47,36,38
12:57:00,28,19,43,20,42,36,23,30,30
12:58:00,25,39,35,29,35,35,27,33,32
12:59:00,37,24,28,25,37,27,28,30,29
13:00:00,35,32,41,23,42,63,20,35,37
13:01:00,19,29,34,37,32,41,21,30,30
13:02:00,21,24,35,27,41,29,26,30,29
13:03:00,37,35,31,32,37,31,25,34,33
13:04:00,53,41,40,25,36,23,33,39,36
13:05:00,41,37,43,32,37,44,34,38,38
13:06:00,38,36,33,31,55,35,42,39,39
13:07:00,34,44,39,34,42,28,33,39,36
13:08:00,34,33,29,38,44,43,28,36,36
13:09:00,27,33,38,34,34,24,31,33,32
13:10:00,35,40,33,33,30,41,27,34,34
13:11:00,35,33,33,25,30,41,36,31,33
13:12:00,26,36,25,19,36,47,28,28,31
13:13:00,34,38,36,20,42,29,25,34,32
13:14:00,44,30,31,30,48,38,27,37,35
13:15:00,22,35,35,38,51,39,40,36,37
13:16:00,25,25,33,39,33,36,44,31,34
13:17:00,36,32,45,23,34,33,28,34,33
13:18:00,35,42,42,24,54,31,50,39,40
13:19:00,29,40,35,32,37,49,34,35,37
13:20:00,39,43,43,29,44,36,29,40,38
13:21:00,40,31,37,38,45,42,46,38,40
13:22:00,34,39,32,31,37,33,19,35,32
13:23:00,38,31,35,25,42,51,36,34,37
13:24:00,28,32,36,31,40,35,35,33,34
13:25:00,58,40,44,29,43,33,32,43,40
13:26:00,42,33,32,39,38,34,32,37,36
13:27:00,39,45,45,29,42,29,29,40,37
13:28:00,34,36,32,32,28,41,38,32,34
13:29:00,30,26,46,24,34,40,50,32,36
13:30:00,22,29,29,19,29,35,35,26,28
13:31:00,40,30,42,22,47,35,23,36,34
13:32:00,31,38,38,25,38,45,36,34,36
13:33:00,28,37,32,31,31,40,39,32,34
13:34:00,29,40,28,33,31,34,44,32,34
13:35:00,38,31,45,35,29,39,37,36,36
13:36:00,41,30,33,27,43,25,34,35,33
13:37:00,32,26,45,23,34,28,36,32,32
13:38:00,31,26,37,30,37,34,20,32,31
13:39:00,27,29,28,28,36,34,17,30,28
13:40:00,32,30,30,27,37,37,30,31,32
13:41:00,26,34,40,30,37,31,41,33,34
13:42:00,27,31,37,39,40,42,41,35,37
13:43:00,33,25,31,31,56,25,42,35,35
13:44:00,31,25,37,27,38,42,38,32,34
13:45:00,39,28,39,28,27,36,35,32,33
13:46:00,38,37,33,30,44,32,31,36,35
13:47:00,42,26,33,34,37,33,27,34,33
13:48:00,41,46,33,37,47,40,39,41,40
13:49:00,40,30,44,36,37,30,35,37,36
13:50:00,36,38,44,25,45,41,39,38,38
13:51:00,35,35,28,39,44,44,39,36,38
13:52:00,51,23,37,30,43,37,27,37,35
13:53:00,50,36,34,26,45,35,34,38,37
13:54:00,36,31,37,29,37,43,36,34,36
13:55:00,27,37,33,25,29,47,35,30,33
13:56:00,20,29,34,44,31,32,41,32,33
13:57:00,46,42,35,24,35,35,33,36,36
13:58:00,40,25,38,32,42,36,37,35,36
13:59:00,25,36,41,38,32,35,32,34,34
14:00:00,41,31,36,32,44,10,34,37,33
14:01:00,27,38,32,35,48,37,33,36,36
14:02:00,32,33,29,31,33,49,42,32,36
14:03:00,36,29,29,36,40,38,32,34,34
14:04:00,40,42,40,38,54,39,34,43,41
14:05:00,34,47,47,36,30,49,25,39,38
14:06:00,34,22,38,38,40,42,40,34,36
14:07:00,35,38,29,38,38,35,32,36,35
14:08:00,35,35,36,35,44,34,41,37,37
14:09:00,25,36,34,43,36,40,35,35,36
14:10:00,35,38,29,40,46,25,24,38,34
14:11:00,33,38,41,42,32,48,25,37,37
14:12:00,42,39,21,29,41,31,50,34,36
14:13:00,25,25,20,42,39,45,37,30,33
14:14:00,39,38,48,35,26,48,25,37,37
14:15:00,37,34,30,40,39,37,60,36,40
14:16:00,37,45,19,27,49,38,43,35,37
14:17:00,28,32,32,45,23,41,36,32,34
14:18:00,36,37,38,18,35,32,30,33,32
14:19:00,47,29,37,46,46,36,35,41,39
14:20:00,44,28,36,36,31,37,47,35,37
14:21:00,36,26,44,23,45,31,32,35,34
14:22:00,35,42,47,39,46,24,37,42,39
14:23:00,37,41,31,37,41,40,32,37,37
14:24:00,39,40,42,42,35,40,43,40,40
14:25:00,43,37,27,42,42,33,38,38,37
14:26:00,36,30,41,30,44,36,37,36,36
14:27:00,37,44,45,32,39,41,43,39,40
14:28:00,39,29,28,35,35,41,37,33,35
14:29:00,34,37,34,38,27,30,25,34,32
14:30:00,40,28,39,37,52,33,31,39,37
14:31:00,35,33,19,27,37,37,31,30,31
14:32:00,45,33,37,37,33,28,34,37,35
14:33:00,37,32,37,38,41,37,33,37,36
14:34:00,44,36,32,47,35,32,36,39,37
14:35:00,39,24,43,27,43,37,43,35,37
14:36:00,31,32,43,30,32,22,29,34,31
14:37:00,31,44,42,44,33,35,40,39,38
14:38:00,34,54,48,34,25,37,35,39,38
14:39:00,33,35,26,37,45,28,34,35,34
14:40:00,29,45,39,30,41,31,36,37,36
14:41:00,37,42,39,33,34,32,34,37,36
14:42:00,35,30,27,27,42,40,24,32,32
14:43:00,38,28,47,38,35,37,30,37,36
14:44:00,32,37,46,37,41,28,26,39,35
14:45:00,35,41,31,37,39,43,40,37,38
14:46:00,40,38,28,39,29,33,30,35,34
14:47:00,35,45,37,51,44,24,37,42,39
14:48:00,34,37,44,24,36,41,24,35,34
14:49:00,35,41,28,44,34,45,35,36,37
14:50:00,39,33,36,42,36,37,36,37,37
14:51:00,38,39,36,38,43,46,44,39,41
14:52:00,41,39,48,25,35,41,23,38,36
14:53:00,46,30,37,36,23,36,41,34,36
14:54:00,21,34,33,26,38,47,47,30,35
14:55:00,34,35,48,31,47,34,22,39,36
14:56:00,40,41,34,29,36,35,44,36,37
14:57:00,34,38,25,40,29,42,32,33,34
14:58:00,21,41,33,46,39,38,34,36,36
14:59:00,33,25,29,42,42,35,28,34,33
15:00:00,41,40,47,43,31,37,29,40,38
15:01:00,31,34,33,32,33,34,31,33,33
15:02:00,27,31,48,31,33,38,27,34,34
15:03:00,47,34,40,30,47,40,33,40,39
15:04:00,31,43,38,36,30,35,29,36,35
15:05:00,46,25,35,36,35,43,36,35,37
15:06:00,29,35,37,38,43,37,26,36,35
15:07:00,25,32,32,30,29,45,40,30,33
15:08:00,39,36,40,36,47,36,23,40,37
15:09:00,33,41,33,38,36,42,39,36,37
15:10:00,35,42,42,28,28,47,30,35,36
15:11:00,38,31,40,37,36,39,34,36,36
15:12:00,42,36,34,24,36,41,43,34,37
15:13:00,28,38,44,30,38,24,24,36,32
15:14:00,28,27,37,30,38,36,29,32,32
15:15:00,37,39,47,53,26,25,47,40,39
15:16:00,33,29,44,37,39,28,41,36,36
15:17:00,36,37,32,22,50,39,31,35,35
15:18:00,43,37,33,33,47,38,32,39,38
15:19:00,39,40,27,33,33,50,42,34,38
15:20:00,42,36,39,37,32,28,46,37,37
15:21:00,35,24,35,26,36,34,39,31,33
15:22:00,35,40,43,48,45,50,30,42,42
15:23:00,34,34,28,28,33,23,46,31,32
15:24:00,28,39,30,47,30,44,42,35,37
15:25:00,35,33,22,23,41,25,30,31,30
15:26:00,29,39,35,27,41,37,39,34,35
15:27:00,34,27,37,28,34,36,37,32,33
15:28:00,38,43,31,33,33,24,32,36,33
15:29:00,40,40,31,38,41,32,33,38,36
15:30:00,28,33,31,34,39,35,37,33,34
15:31:00,36,42,37,30,40,29,39,37,36
15:32:00,31,34,25,33,36,39,29,32,32
15:33:00,35,40,33,34,40,34,41,36,37
15:34:00,28,24,34,41,33,21,33,32,31
15:35:00,39,38,40,32,50,38,37,40,39
15:36:00,33,33,36,31,37,22,24,34,31
15:37:00,34,36,33,35,25,29,37,33,33
15:38:00,36,31,43,29,27,32,26,33,32
15:39:00,29,38,19,38,43,41,36,33,35
15:40:00,24,18,41,36,55,37,26,35,34
15:41:00,30,47,32,33,36,23,24,36,32
15:42:00,30,26,37,25,46,46,20,33,33
15:43:00,26,34,35,39,56,34,21,38,35
15:44:00,34,35,43,43,45,30,27,40,37
15:45:00,34,25,33,35,39,35,32,33,33
15:46:00,27,34,46,34,38,30,40,36,36
15:47:00,39,28,27,34,56,30,32,37,35
15:48:00,30,34,35,30,37,32,23,33,32
15:49:00,40,25,38,36,36,40,29,35,35
15:50:00,38,30,35,37,52,25,27,38,35
15:51:00,28,19,35,41,29,34,40,30,32
15:52:00,24,37,44,34,46,19,26,37,33
15:53:00,27,30,37,41,39,45,21,35,34
15:54:00,28,45,29,22,41,30,26,33,32
15:55:00,22,30,37,34,42,37,23,33,32
15:56:00,51,35,34,42,44,38,36,41,40
15:57:00,37,33,49,23,31,34,35,35,35
15:58:00,32,30,35,42,21,36,22,32,31
15:59:00,26,30,38,40,37,28,37,34,34
16:00:00,40,35,35,29,32,41,34,34,35
16:01:00,43,22,29,30,37,22,30,32,30
16:02:00,34,46,29,29,37,43,36,35,36
16:03:00,33,38,35,40,23,37,23,34,33
16:04:00,39,35,33,34,41,39,38,36,37
16:05:00,35,32,36,44,40,37,28,37,36
16:06:00,36,46,46,35,55,34,36,44,41
16:07:00,44,31,33,31,40,34,35,36,35
16:08:00,38,40,30,46,43,20,38,39,36
16:09:00,31,32,35,26,49,44,22,35,34
16:10:00,39,36,36,33,43,28,27,37,35
16:11:00,45,36,45,43,41,24,19,42,36
16:12:00,40,39,31,41,25,32,32,35,34
16:13:00,35,41,32,34,34,31,35,35,35
16:14:00,44,40,41,37,45,30,24,41,37
16:15:00,32,34,45,25,44,30,32,36,35
16:16:00,26,36,36,34,35,38,34,33,34
16:17:00,42,46,40,41,38,29,25,41,37
16:18:00,34,34,37,52,33,32,26,38,35
16:19:00,29,34,38,25,40,32,18,33,31
16:20:00,39,40,48,29,28,33,22,37,34
16:21:00,40,37,26,41,49,29,18,39,34
16:22:00,38,25,37,51,39,28,25,38,35
16:23:00,39,45,44,30,40,28,29,40,36
16:24:00,31,44,49,39,33,31,26,39,36
16:25:00,44,32,35,30,45,25,20,37,33
16:26:00,37,29,33,36,30,33,32,33,33
16:27:00,28,31,34,34,47,34,28,35,34
16:28:00,33,36,40,35,38,31,25,36,34
16:29:00,32,40,29,35,43,20,18,36,31
16:30:00,40,40,44,42,31,38,18,39,36
16:31:00,36,32,28,32,57,28,22,37,34
16:32:00,37,41,36,28,36,45,22,36,35
16:33:00,41,31,33,44,40,29,15,38,33
16:34:00,37,36,32,45,33,17,27,37,32
16:35:00,39,34,35,30,35,26,22,35,32
16:36:00,44,27,38,39,38,29,22,37,34
16:37:00,35,38,36,36,33,35,20,36,33
16:38:00,47,41,45,40,39,27,23,42,37
16:39:00,41,47,35,33,41,39,20,39,37
16:40:00,38,34,38,52,46,29,19,42,37
16:41:00,38,43,36,35,39,28,19,38,34
16:42:00,48,48,36,43,31,34,17,41,37
16:43:00,40,38,33,46,37,31,20,39,35
16:44:00,36,46,36,36,29,37,26,37,35
16:45:00,38,35,40,39,52,35,24,41,38
16:46:00,32,44,35,48,36,33,26,39,36
16:47:00,49,48,49,49,38,31,15,47,40
16:48:00,29,43,41,31,37,26,25,36,33
16:49:00,36,40,42,41,38,20,20,39,34
16:50:00,34,30,37,30,41,34,23,34,33
16:51:00,40,38,46,29,31,23,15,37,32
16:52:00,38,41,36,25,61,24,18,40,35
16:53:00,36,41,30,35,47,32,25,38,35
16:54:00,31,36,39,44,32,47,19,36,35
16:55:00,27,40,35,33,48,25,16,37,32
16:56:00,44,30,33,20,32,12,13,32,26
16:57:00,30,40,37,30,36,33,17,35,32
16:58:00,34,36,42,42,46,25,25,40,36
16:59:00,36,34,28,34,34,27,16,33,30
17:00:00,34,36,37,25,48,28,12,36,31
17:01:00,35,43,37,43,33,22,16,38,33
17:02:00,39,38,36,34,33,21,16,36,31
17:03:00,42,36,45,39,35,34,14,39,35
17:04:00,32,37,36,36,39,29,14,36,32
17:05:00,29,43,38,32,45,31,14,37,33
17:06:00,37,41,41,32,36,30,14,37,33
17:07:00,41,32,32,40,34,34,23,36,34
17:08:00,41,38,43,43,36,33,14,40,35
17:09:00,30,37,37,42,40,35,14,37,34
17:10:00,39,45,34,37,35,37,16,38,35
17:11:00,34,40,41,44,34,30,21,39,35
17:12:00,31,37,38,31,35,30,11,34,30
17:13:00,37,40,41,44,38,27,28,40,36
17:14:00,36,33,43,41,43,23,12,39,33
17:15:00,39,30,38,43,30,24,28,36,33
17:16:00,28,37,41,39,46,23,17,38,33
17:17:00,45,45,38,40,49,23,13,43,36
17:18:00,51,33,42,51,35,33,19,42,38
17:19:00,40,42,34,39,39,27,14,39,34
17:20:00,38,40,33,42,45,29,15,40,35
17:21:00,48,49,32,49,36,34,13,43,37
17:22:00,37,28,53,39,28,33,11,37,33
17:23:00,43,34,48,44,51,26,17,44,38
17:24:00,41,39,41,37,38,22,8,39,32
17:25:00,48,42,40,36,28,31,10,39,34
17:26:00,33,32,52,46,30,27,18,39,34
17:27:00,34,41,38,33,35,24,15,36,31
17:28:00,34,35,31,44,35,31,20,36,33
17:29:00,36,35,40,38,43,29,12,38,33
17:30:00,28,29,38,29,30,26,16,31,28
17:31:00,44,33,34,33,40,34,10,37,33
17:32:00,35,38,28,43,37,28,17,36,32
17:33:00,42,36,39,34,39,18,12,38,31
17:34:00,39,45,30,36,30,25,17,36,32
17:35:00,27,54,53,37,38,33,17,42,37
17:36:00,38,51,36,31,37,34,12,39,34
17:37:00,42,30,46,44,44,39,10,41,36
17:38:00,40,52,40,38,39,18,8,42,34
17:39:00,46,32,27,38,36,29,12,36,31
17:40:00,43,34,49,36,32,40,10,39,35
17:41:00,38,47,28,45,37,39,16,39,36
17:42:00,46,41,46,42,27,28,15,40,35
17:43:00,37,38,35,36,33,20,11,36,30
17:44:00,41,47,30,32,40,32,13,38,34
17:45:00,48,24,35,44,27,29,10,36,31
17:46:00,33,35,50,39,45,31,12,40,35
17:47:00,34,42,27,32,27,45,20,32,32
17:48:00,48,50,41,30,40,29,15,42,36
17:49:00,30,41,34,41,43,21,11,38,32
17:50:00,46,42,51,41,34,22,12,43,35
17:51:00,35,44,32,27,32,31,22,34,32
17:52:00,36,29,36,46,43,23,20,38,33
17:53:00,21,46,33,23,20,32,15,29,27
17:54:00,39,37,46,28,39,27,17,38,33
17:55:00,32,46,35,26,33,21,12,34,29
17:56:00,43,27,36,28,42,18,21,35,31
17:57:00,30,45,29,39,30,39,12,35,32
17:58:00,30,32,41,25,34,22,21,32,29
17:59:00,32,29,30,41,38,31,17,34,31
18:00:00,28,39,29,31,32,16,20,32,28
18:01:00,32,27,29,39,31,27,8,32,28
18:02:00,43,36,36,36,28,21,13,36,30
18:03:00,25,40,25,34,21,31,8,29,26
18:04:00,26,31,38,29,29,22,17,31,27
18:05:00,32,29,32,36,37,35,15,33,31
18:06:00,36,35,30,29,36,22,16,33,29
18:07:00,40,36,51,31,38,21,12,39,33
18:08:00,37,33,38,30,33,30,13,34,31
18:09:00,27,41,38,41,31,25,20,36,32
18:10:00,29,29,36,27,35,16,16,31,27
18:11:00,31,40,43,46,34,21,21,39,34
18:12:00,34,24,41,35,39,39,9,35,32
18:13:00,40,25,37,26,38,35,20,33,32
18:14:00,37,29,37,31,30,26,10,33,29
18:15:00,25,42,23,27,23,21,9,28,24
18:16:00,36,30,47,42,33,19,7,38,31
18:17:00,27,22,38,29,33,20,9,30,25
18:18:00,38,41,40,30,41,27,12,38,33
18:19:00,29,40,45,32,29,24,15,35,31
18:20:00,23,33,37,41,24,31,19,32,30
18:21:00,29,44,30,36,35,17,12,35,29
18:22:00,38,30,33,28,28,16,14,31,27
18:23:00,39,20,29,28,32,26,5,30,26
18:24:00,25,26,29,25,33,19,19,28,25
18:25:00,42,32,29,37,38,30,14,36,32
18:26:00,31,32,35,36,29,24,16,33,29
18:27:00,35,28,31,36,33,24,9,33,28
18:28:00,28,26,37,34,28,20,18,31,27
18:29:00,28,19,25,26,33,24,12,26,24
18:30:00,40,35,38,31,22,20,9,33,28
18:31:00,28,21,34,24,36,18,13,29,25
18:32:00,28,31,39,28,22,16,15,30,26
18:33:00,20,31,27,30,32,27,13,28,26
18:34:00,25,25,42,39,37,23,16,34,30
18:35:00,29,33,16,25,22,31,9,25,24
18:36:00,31,22,37,29,31,34,11,30,28
18:37:00,40,23,38,34,33,26,11,34,29
18:38:00,32,28,29,36,28,34,16,31,29
18:39:00,25,16,21,32,29,19,12,25,22
18:40:00,21,21,21,36,30,23,11,26,23
18:41:00,32,19,26,36,31,25,26,29,28
18:42:00,21,26,34,32,29,28,14,28,26
18:43:00,20,32,18,44,31,32,17,29,28
18:44:00,27,29,29,21,25,20,21,26,25
18:45:00,30,33,22,37,39,38,14,32,30
18:46:00,26,25,28,24,24,21,9,25,22
18:47:00,25,34,39,30,32,27,17,32,29
18:48:00,30,34,27,40,38,13,22,34,29
18:49:00,36,32,27,30,27,19,14,30,26
18:50:00,31,30,34,28,39,29,15,32,29
18:51:00,30,28,24,28,23,33,11,27,25
18:52:00,24,24,29,33,30,32,9,28,26
18:53:00,26,26,41,34,25,25,11,30,27
18:54:00,22,26,31,26,34,26,13,28,25
18:55:00,28,30,37,41,23,26,21,32,29
18:56:00,27,22,25,27,28,35,18,26,26
18:57:00,15,35,16,31,37,20,12,27,24
18:58:00,36,25,22,26,33,25,11,28,25
18:59:00,21,24,25,28,31,25,11,26,24
19:00:00,26,30,21,26,32,16,10,27,23
19:01:00,21,30,27,31,26,21,22,27,25
19:02:00,25,26,28,30,22,30,15,26,25
19:03:00,30,24,30,39,32,26,17,31,28
19:04:00,27,23,33,44,27,23,14,31,27
19:05:00,26,23,43,29,39,29,20,32,30
19:06:00,28,24,32,31,35,24,16,30,27
19:07:00,23,20,26,25,32,12,21,25,23
19:08:00,23,21,32,38,27,28,9,28,25
19:09:00,34,25,36,31,31,18,27,31,29
19:10:00,33,26,33,15,26,20,22,27,25
19:11:00,31,24,33,34,31,31,18,31,29
19:12:00,31,30,28,44,24,28,12,31,28
19:13:00,30,28,44,27,26,38,12,31,29
19:14:00,31,27,24,28,29,22,12,28,25
19:15:00,24,30,23,31,28,20,19,27,25
19:16:00,31,26,45,31,51,25,17,37,32
19:17:00,27,17,30,32,29,19,14,27,24
19:18:00,24,29,36,34,18,16,22,28,26
19:19:00,27,27,15,29,45,24,13,29,26
19:20:00,32,27,26,37,26,24,11,30,26
19:21:00,24,29,29,29,33,19,8,29,24
19:22:00,22,24,34,36,30,18,9,29,25
19:23:00,20,28,25,27,33,18,12,27,23
19:24:00,14,16,27,29,36,21,8,24,22
19:25:00,29,19,26,30,34,17,22,28,25
19:26:00,21,22,23,18,29,16,14,23,20
19:27:00,24,22,28,29,31,16,9,27,23
19:28:00,24,31,24,14,24,20,15,23,22
19:29:00,27,23,20,16,36,22,19,24,23
19:30:00,37,30,20,22,23,21,9,26,23
19:31:00,23,24,29,21,28,22,12,25,23
19:32:00,23,15,21,16,20,20,14,19,18
19:33:00,20,25,28,27,23,20,13,25,22
19:34:00,16,26,23,21,23,17,15,22,20
19:35:00,20,11,29,43,36,39,13,28,27
19:36:00,26,22,37,20,30,21,7,27,23
19:37:00,23,21,23,23,15,10,13,21,18
19:38:00,25,20,29,29,19,29,11,24,23
19:39:00,16,31,16,23,14,9,14,20,18
19:40:00,28,32,23,22,31,17,11,27,23
19:41:00,21,25,25,29,22,13,7,24,20
19:42:00,16,27,27,32,17,12,15,24,21
19:43:00,24,26,24,17,26,17,12,23,21
19:44:00,18,13,18,25,24,16,16,20,19
19:45:00,22,26,16,22,13,16,10,20,18
19:46:00,8,18,23,21,27,14,10,19,17
19:47:00,22,19,26,17,23,20,15,21,20
19:48:00,26,12,15,29,20,16,7,20,18
19:49:00,24,19,22,19,22,20,13,21,20
19:50:00,21,24,24,21,26,17,13,23,21
19:51:00,25,23,30,19,13,16,16,22,20
19:52:00,16,21,15,30,19,15,14,20,19
19:53:00,20,17,19,19,16,7,7,18,15
19:54:00,12,22,16,21,23,20,8,19,17
19:55:00,17,16,20,15,19,15,12,17,16
19:56:00,20,16,17,23,18,9,11,19,16
19:57:00,24,30,15,27,15,25,14,22,21
19:58:00,25,25,21,31,19,14,10,24,21
19:59:00,16,21,24,19,17,18,14,19,18
20:00:00,19,17,20,20,25,22,8,20,19
20:01:00,20,21,17,18,14,16,12,18,17
20:02:00,21,17,14,19,19,14,8,18,16
20:03:00,10,21,17,25,12,25,14,17,18
20:04:00,17,22,14,17,21,24,10,18,18
20:05:00,21,25,27,22,13,18,10,22,19
20:06:00,22,17,22,24,15,15,10,20,18
20:07:00,16,32,25,20,23,21,7,23,21
20:08:00,26,18,22,44,20,15,14,26,23
20:09:00,21,19,17,16,17,17,10,18,17
20:10:00,20,29,24,24,17,15,8,23,20
20:11:00,19,16,12,25,17,11,7,18,15
20:12:00,26,19,11,21,19,13,12,19,17
20:13:00,15,31,23,14,12,11,8,19,16
20:14:00,15,13,11,21,16,13,10,15,14
20:15:00,20,20,19,22,17,14,18,20,19
20:16:00,12,12,21,22,20,21,11,17,17
20:17:00,20,17,25,11,14,17,8,17,16
20:18:00,20,13,18,19,26,14,9,19,17
20:19:00,23,20,25,13,15,22,9,19,18
20:20:00,9,13,14,18,17,11,10,14,13
20:21:00,11,19,22,19,21,18,12,18,17
20:22:00,19,25,15,22,15,20,8,19,18
20:23:00,18,15,9,18,15,13,4,15,13
20:24:00,20,19,19,12,20,11,11,18,16
20:25:00,19,15,14,23,15,16,16,17,17
20:26:00,23,15,20,18,14,22,12,18,18
20:27:00,15,18,10,11,14,12,4,14,12
20:28:00,15,12,7,18,22,17,12,15,15
20:29:00,15,23,12,13,21,8,9,17,14
20:30:00,15,12,9,14,22,13,7,14,13
20:31:00,13,12,13,18,17,10,11,15,13
20:32:00,11,13,15,20,18,14,9,15,14
20:33:00,15,16,9,16,15,14,12,14,14
20:34:00,12,14,18,9,22,7,9,15,13
20:35:00,14,24,13,18,16,11,13,17,16
20:36:00,13,14,19,13,10,18,9,14,14
20:37:00,11,7,20,19,7,9,9,13,12
20:38:00,17,24,9,14,9,10,9,15,13
20:39:00,12,17,9,15,9,14,9,12,12
20:40:00,20,17,16,16,14,7,4,17,13
20:41:00,8,16,11,12,13,16,4,12,11
20:42:00,12,7,13,13,12,15,10,11,12
20:43:00,8,10,12,21,16,15,9,13,13
20:44:00,14,14,13,12,18,7,8,14,12
20:45:00,14,9,12,21,14,10,12,14,13
20:46:00,13,10,12,13,14,10,12,12,12
20:47:00,12,11,13,14,12,14,5,12,12
20:48:00,11,7,7,16,19,7,7,12,11
20:49:00,10,10,15,14,17,7,11,13,12
20:50:00,12,18,11,16,18,12,7,15,13
20:51:00,11,13,8,7,12,13,9,10,10
20:52:00,11,11,14,16,12,17,5,13,12
20:53:00,12,10,13,12,15,7,7,12,11
20:54:00,8,12,15,11,10,10,8,11,11
20:55:00,17,14,11,11,13,11,9,13,12
20:56:00,10,25,9,15,15,16,6,15,14
20:57:00,14,13,11,10,10,19,3,12,11
20:58:00,15,15,11,12,11,7,6,13,11
20:59:00,5,15,9,16,8,8,3,11,9
21:00:00,14,11,13,17,16,7,9,14,12
21:01:00,8,11,5,16,13,13,9,11,11
21:02:00,7,10,15,10,7,9,5,10,9
21:03:00,11,13,13,18,9,13,7,13,12
21:04:00,15,19,10,13,13,11,6,14,12
21:05:00,12,6,11,17,17,14,5,13,12
21:06:00,11,7,14,12,10,7,6,11,10
21:07:00,8,15,14,10,11,16,10,12,12
21:08:00,15,12,7,9,16,14,9,12,12
21:09:00,11,11,19,11,9,17,8,12,12
21:10:00,11,13,14,18,10,9,10,13,12
21:11:00,16,13,13,10,15,10,12,13,13
21:12:00,8,15,16,10,10,17,5,12,12
21:13:00,8,11,12,15,13,9,2,12,10
21:14:00,9,12,17,8,14,17,7,12,12
21:15:00,13,15,18,14,20,10,10,16,14
21:16:00,8,8,9,17,11,12,4,11,10
21:17:00,8,6,7,8,11,7,12,8,8
21:18:00,10,8,16,16,12,17,3,12,12
21:19:00,14,6,6,8,7,13,6,8,9
21:20:00,12,20,10,15,8,8,11,13,12
21:21:00,14,5,12,13,9,12,7,11,10
21:22:00,5,14,12,10,18,5,8,12,10
21:23:00,10,9,10,17,13,9,8,12,11
21:24:00,9,12,8,10,11,9,12,10,10
21:25:00,5,8,10,4,13,8,8,8,8
21:26:00,19,14,5,8,11,7,8,11,10
21:27:00,5,13,18,7,11,14,7,11,11
21:28:00,6,6,11,14,11,10,8,10,9
21:29:00,6,11,10,11,10,10,6,10,9
21:30:00,3,8,4,12,8,11,3,7,7
21:31:00,1,9,11,14,7,14,10,8,9
21:32:00,6,11,7,12,3,10,7,8,8
21:33:00,7,11,6,12,17,11,4,11,10
21:34:00,12,17,9,8,9,9,7,11,10
21:35:00,13,13,8,14,13,12,2,12,11
21:36:00,4,9,6,20,15,14,7,11,11
21:37:00,5,16,10,11,13,9,2,11,9
21:38:00,10,6,6,8,5,9,4,7,7
21:39:00,3,8,6,17,9,11,14,9,10
21:40:00,7,6,7,14,12,8,5,9,8
21:41:00,10,6,7,14,11,8,1,10,8
21:42:00,6,13,12,7,13,8,3,10,9
21:43:00,10,9,7,15,10,9,1,10,9
21:44:00,7,5,11,9,8,8,5,8,8
21:45:00,8,7,9,8,8,9,6,8,8
21:46:00,6,5,13,6,9,11,5,8,8
21:47:00,8,11,7,9,6,9,9,8,8
21:48:00,8,10,11,10,14,5,6,11,9
21:49:00,6,5,10,8,5,6,7,7,7
21:50:00,8,9,13,7,7,4,2,9,7
21:51:00,13,11,9,13,5,6,3,10,9
21:52:00,9,9,9,12,10,12,7,10,10
21:53:00,6,10,9,8,9,10,4,8,8
21:54:00,4,9,3,10,6,7,4,6,6
21:55:00,3,7,19,8,6,8,2,9,8
21:56:00,12,8,10,9,11,4,6,10,9
21:57:00,2,12,7,6,8,7,5,7,7
21:58:00,12,11,13,2,10,7,0,10,8
21:59:00,6,7,8,10,10,8,8,8,8
22:00:00,11,15,3,8,7,12,5,9,9
22:01:00,9,7,6,11,12,9,3,9,8
22:02:00,7,6,12,15,6,8,9,9,9
22:03:00,14,6,7,11,10,6,6,10,9
22:04:00,8,11,15,18,17,8,4,14,12
22:05:00,6,11,7,14,7,11,7,9,9
22:06:00,8,7,11,19,13,10,5,12,10
22:07:00,7,12,10,10,11,9,6,10,9
22:08:00,8,3,9,18,9,6,6,9,8
22:09:00,10,14,6,6,13,7,6,10,9
22:10:00,12,11,13,9,18,7,1,13,10
22:11:00,2,9,5,18,18,10,5,10,10
22:12:00,5,6,9,10,8,7,16,8,9
22:13:00,8,6,10,13,9,12,3,9,9
22:14:00,6,12,11,9,12,7,8,10,9
22:15:00,5,5,7,5,12,9,2,7,6
22:16:00,5,10,12,14,4,7,6,9,8
22:17:00,11,5,8,10,6,8,3,8,7
22:18:00,9,13,7,11,13,5,0,11,8
22:19:00,5,7,6,13,11,8,4,8,8
22:20:00,6,7,11,10,11,4,4,9,8
22:21:00,11,11,9,7,11,8,6,10,9
22:22:00,8,14,7,4,4,4,2,7,6
22:23:00,10,10,10,8,8,6,7,9,8
22:24:00,7,7,11,7,11,12,3,9,8
22:25:00,5,9,9,3,4,10,3,6,6
22:26:00,7,4,11,6,7,2,4,7,6
22:27:00,10,6,8,7,3,8,5,7,7
22:28:00,6,6,7,13,8,6,8,8,8
22:29:00,6,5,7,4,5,11,5,5,6
22:30:00,5,9,9,8,8,8,6,8,8
22:31:00,2,6,13,10,6,5,7,7,7
22:32:00,5,5,4,12,11,4,6,7,7
22:33:00,3,9,10,8,7,13,4,7,8
22:34:00,7,9,7,2,12,4,3,7,6
22:35:00,10,1,9,8,9,3,5,7,6
22:36:00,3,2,6,5,10,14,2,5,6
22:37:00,4,9,4,7,9,5,3,7,6
22:38:00,5,4,6,9,7,5,2,6,5
22:39:00,6,6,3,10,4,9,4,6,6
22:40:00,7,2,7,10,12,6,3,8,7
22:41:00,2,5,9,9,13,4,4,8,7
22:42:00,3,4,4,5,6,6,0,4,4
22:43:00,5,5,5,6,11,4,6,6,6
22:44:00,7,7,7,7,9,7,10,7,8
22:45:00,8,7,1,3,11,9,1,6,6
22:46:00,15,7,7,3,1,3,5,7,6
22:47:00,5,3,1,10,3,9,1,4,5
22:48:00,8,7,3,7,5,9,4,6,6
22:49:00,7,2,5,5,14,4,3,7,6
22:50:00,4,6,6,11,3,8,6,6,6
22:51:00,3,9,6,7,5,8,3,6,6
22:52:00,5,4,3,12,4,7,8,6,6
22:53:00,2,4,7,11,5,9,2,6,6
22:54:00,5,1,7,5,10,5,2,6,5
22:55:00,4,4,4,7,8,6,1,5,5
22:56:00,0,4,2,6,11,9,4,5,5
22:57:00,1,4,15,5,8,11,6,7,7
22:58:00,7,2,4,6,11,11,5,6,7
22:59:00,3,7,11,7,6,13,1,7,7
23:00:00,6,3,4,8,2,4,1,5,4
23:01:00,3,4,2,4,11,5,6,5,5
23:02:00,5,2,6,5,9,7,3,5,5
23:03:00,4,6,5,3,7,4,2,5,4
23:04:00,2,5,3,11,4,13,4,5,6
23:05:00,4,5,3,4,11,7,4,5,5
23:06:00,3,2,7,10,10,11,7,6,7
23:07:00,2,6,11,9,15,7,6,9,8
23:08:00,4,1,6,4,6,10,2,4,5
23:09:00,6,3,8,5,9,3,6,6,6
23:10:00,2,2,7,4,5,6,6,4,5
23:11:00,4,0,4,11,6,8,5,5,5
23:12:00,1,4,2,4,10,3,8,4,5
23:13:00,2,1,7,3,5,6,8,4,5
23:14:00,5,7,2,3,5,5,5,4,5
23:15:00,3,2,6,4,7,7,3,4,5
23:16:00,2,3,2,3,4,6,5,3,4
23:17:00,1,3,8,12,8,6,2,6,6
23:18:00,1,3,5,2,9,6,0,4,4
23:19:00,5,6,4,4,7,8,3,5,5
23:20:00,1,6,1,2,7,6,3,3,4
23:21:00,5,1,4,7,11,3,0,6,4
23:22:00,1,5,6,3,1,2,4,3,3
23:23:00,5,1,6,3,4,5,4,4,4
23:24:00,2,0,4,2,3,1,2,2,2
23:25:00,3,4,3,3,1,3,2,3,3
23:26:00,5,3,5,5,9,7,1,5,5
23:27:00,4,3,5,8,2,5,2,4,4
23:28:00,0,3,5,7,4,6,0,4,4
23:29:00,8,6,3,0,8,5,2,5,5
23:30:00,2,2,1,3,2,4,5,2,3
23:31:00,2,3,4,3,6,6,3,4,4
23:32:00,4,4,5,10,2,4,1,5,4
23:33:00,2,2,1,6,3,7,3,3,3
23:34:00,0,2,2,2,6,3,5,2,3
23:35:00,3,4,4,6,4,4,3,4,4
23:36:00,1,3,3,2,3,2,2,2,2
23:37:00,3,5,3,1,4,5,1,3,3
23:38:00,1,1,5,4,5,3,2,3,3
23:39:00,2,5,2,6,7,7,3,4,5
23:40:00,2,1,1,3,4,5,8,2,3
23:41:00,6,5,2,10,4,5,2,5,5
23:42:00,1,1,2,3,5,4,3,2,3
23:43:00,0,2,0,4,6,3,1,2,2
23:44:00,1,0,0,0,9,6,1,2,2
23:45:00,3,3,3,5,3,7,2,3,4
23:46:00,5,3,3,5,6,13,2,4,5
23:47:00,5,0,4,3,9,4,3,4,4
23:48:00,5,4,3,4,7,2,3,5,4
23:49:00,0,2,4,5,9,4,4,4,4
23:50:00,3,2,2,6,3,6,1,3,3
23:51:00,3,2,1,3,7,6,1,3,3
23:52:00,2,2,0,1,4,11,2,2,3
23:53:00,1,2,3,6,7,1,4,4,3
23:54:00,0,2,1,3,12,3,2,4,3
23:55:00,1,1,3,3,9,6,2,3,4
23:56:00,0,1,2,3,4,7,2,2,3
23:57:00,1,2,2,5,5,4,2,3,3
23:58:00,1,1,4,2,5,5,3,3,3
23:59:00,5,1,2,7,6,2,3,4,4
,,,,,,,,,
Totals,,,,,,,,,
12H(7-19),24308,24345,24858,24300,25629,21409,17036,24688,23126
16H(6-22),27874,28070,28607,28282,29450,24417,18971,28457,26524
18H(6-24),28421,28647,29272,29091,30343,25196,19425,29155,27199
24H(0-24),28949,29219,29852,29728,31085,26079,20112,29767,27861
,,,,,,,,,
AM Peak,07:54:00,07:35:00,07:45:00,08:14:00,10:58:00,11:00:00,10:57:00,07:54:00,10:01:00
,2161,2159,2215,2195,2284,2171,2056,2133,1981
,,,,,,,,,
PM Peak,16:51:00,16:39:00,16:47:00,16:33:00,15:39:00,13:19:00,13:41:00,16:38:00,14:01:00
,2273,2338,2319,2297,2378,2223,2148,2294,2169
,,,,,,,,,
,,,,,,,,,
CA Traffic,,,,,,,,,VDA-net R2 16/01/2020
