Site Number,00008004,Unnamed: 2,Site Reference,00008004.1,Unnamed: 5,Unnamed: 6,Lat/Lng.,"52.03730,1.20277",Unnamed: 9
Warren Heath Ipswich,,,,,,,,,
Vehicle Count Report,,,,Week Begin: 27 January 2020,,,Channel:,Total Flow,
,,,,,,,,,
,,,,,,,,,
,2020-01-27 00:00:00,2020-01-28 00:00:00,2020-01-29 00:00:00,2020-01-30 00:00:00,2020-01-31 00:00:00,2020-02-01 00:00:00,2020-02-02 00:00:00,"5-Day
Ave.","7-Day
Ave."
00:00:00,2,2,2,4,2,6,3,2,3
00:01:00,0,1,1,4,1,4,1,1,2
00:02:00,3,2,0,1,2,5,3,2,2
00:03:00,2,0,4,2,5,6,4,3,3
00:04:00,3,7,1,2,4,5,5,3,4
00:05:00,1,0,1,0,1,9,1,1,2
00:06:00,0,1,1,3,4,1,2,2,2
00:07:00,0,2,3,4,5,2,4,3,3
00:08:00,0,3,0,0,3,1,5,1,2
00:09:00,2,2,2,3,0,3,5,2,2
00:10:00,0,2,1,3,2,5,1,2,2
00:11:00,1,2,0,0,0,4,4,1,2
00:12:00,0,2,0,1,3,3,2,1,2
00:13:00,2,0,2,4,1,3,4,2,2
00:14:00,0,2,2,1,2,3,5,1,2
00:15:00,2,1,0,1,0,5,2,1,2
00:16:00,1,4,2,4,4,1,5,3,3
00:17:00,2,1,0,1,1,2,3,1,1
00:18:00,2,1,1,1,2,0,1,1,1
00:19:00,3,2,0,0,1,2,1,1,1
00:20:00,0,2,1,0,2,1,1,1,1
00:21:00,3,1,1,0,0,4,2,1,2
00:22:00,4,1,1,1,0,2,3,1,2
00:23:00,0,0,1,1,1,1,2,1,1
00:24:00,1,0,0,1,1,4,2,1,1
00:25:00,1,1,0,1,3,6,1,1,2
00:26:00,0,1,0,4,2,1,8,1,2
00:27:00,1,1,0,1,1,3,2,1,1
00:28:00,1,1,0,0,1,2,1,1,1
00:29:00,1,2,1,2,2,2,0,2,1
00:30:00,1,1,1,3,0,2,2,1,1
00:31:00,4,0,0,1,0,0,2,1,1
00:32:00,0,0,2,0,0,0,2,0,1
00:33:00,1,1,1,2,1,3,2,1,2
00:34:00,0,0,0,1,2,2,2,1,1
00:35:00,1,3,1,0,0,2,0,1,1
00:36:00,0,1,0,0,1,2,4,0,1
00:37:00,0,0,1,0,1,3,5,0,1
00:38:00,1,1,2,2,0,3,3,1,2
00:39:00,0,0,1,1,1,4,3,1,1
00:40:00,0,1,1,1,2,1,2,1,1
00:41:00,0,1,3,4,3,1,3,2,2
00:42:00,1,0,0,1,1,3,5,1,2
00:43:00,1,2,1,2,0,2,0,1,1
00:44:00,3,1,2,1,0,8,3,1,3
00:45:00,1,0,0,0,2,1,1,1,1
00:46:00,1,0,0,0,0,2,1,0,1
00:47:00,0,0,3,0,1,2,3,1,1
00:48:00,1,1,1,0,2,4,5,1,2
00:49:00,1,1,1,1,1,2,1,1,1
00:50:00,0,0,0,0,2,3,3,0,1
00:51:00,0,1,0,1,2,4,3,1,2
00:52:00,1,1,1,0,2,3,2,1,1
00:53:00,0,1,1,2,0,2,2,1,1
00:54:00,1,0,0,1,0,0,3,0,1
00:55:00,2,5,1,3,2,2,1,3,2
00:56:00,1,4,0,1,0,2,1,1,1
00:57:00,0,1,1,1,0,1,2,1,1
00:58:00,1,1,1,1,1,1,1,1,1
00:59:00,0,1,0,0,0,1,3,0,1
01:00:00,0,1,0,0,0,0,4,0,1
01:01:00,1,0,3,0,0,1,2,1,1
01:02:00,0,1,1,1,2,1,2,1,1
01:03:00,0,1,1,1,3,1,2,1,1
01:04:00,0,0,2,2,0,4,0,1,1
01:05:00,0,0,0,1,0,2,3,0,1
01:06:00,0,3,2,1,1,0,0,1,1
01:07:00,0,1,1,1,0,0,0,1,0
01:08:00,1,1,0,0,0,0,7,0,1
01:09:00,1,1,0,1,0,1,0,1,1
01:10:00,1,1,2,1,2,2,2,1,2
01:11:00,1,1,1,0,1,2,0,1,1
01:12:00,2,0,0,1,0,0,2,1,1
01:13:00,0,0,1,4,2,2,3,1,2
01:14:00,1,1,2,0,0,4,6,1,2
01:15:00,0,1,2,0,0,3,1,1,1
01:16:00,0,1,0,0,3,1,4,1,1
01:17:00,0,0,0,0,2,0,4,0,1
01:18:00,1,1,0,1,3,2,0,1,1
01:19:00,0,3,0,2,2,6,1,1,2
01:20:00,1,0,0,0,1,2,0,0,1
01:21:00,1,1,0,0,1,2,1,1,1
01:22:00,0,2,1,0,0,0,2,1,1
01:23:00,0,1,1,2,0,1,3,1,1
01:24:00,0,0,1,1,0,3,2,0,1
01:25:00,0,0,1,1,1,1,2,1,1
01:26:00,1,1,0,0,2,1,0,1,1
01:27:00,0,1,0,1,1,3,1,1,1
01:28:00,0,2,1,0,0,0,2,1,1
01:29:00,0,0,0,0,1,1,0,0,0
01:30:00,0,0,0,0,1,3,0,0,1
01:31:00,1,0,2,0,1,1,2,1,1
01:32:00,2,2,0,0,0,2,0,1,1
01:33:00,0,2,1,1,0,0,0,1,1
01:34:00,0,0,2,2,2,0,5,1,2
01:35:00,0,3,1,0,0,0,1,1,1
01:36:00,0,1,1,2,0,1,3,1,1
01:37:00,0,0,0,1,1,0,3,0,1
01:38:00,2,0,0,1,0,2,1,1,1
01:39:00,1,0,0,0,0,1,4,0,1
01:40:00,0,0,0,0,2,1,3,0,1
01:41:00,1,0,0,1,1,1,0,1,1
01:42:00,0,2,1,2,1,0,2,1,1
01:43:00,1,1,0,2,0,3,2,1,1
01:44:00,1,1,3,0,2,2,1,1,1
01:45:00,1,1,1,1,2,3,0,1,1
01:46:00,0,0,1,1,0,1,2,0,1
01:47:00,0,0,1,1,1,2,0,1,1
01:48:00,0,0,1,0,0,0,0,0,0
01:49:00,1,0,2,0,0,0,1,1,1
01:50:00,0,1,0,0,1,1,1,0,1
01:51:00,0,1,1,0,0,2,0,0,1
01:52:00,1,0,1,1,4,1,1,1,1
01:53:00,0,1,0,0,0,1,0,0,0
01:54:00,1,1,1,1,2,1,2,1,1
01:55:00,1,1,0,0,0,0,0,0,0
01:56:00,2,2,0,0,1,3,0,1,1
01:57:00,1,0,1,0,1,2,1,1,1
01:58:00,1,1,1,1,1,2,0,1,1
01:59:00,1,0,0,1,0,2,0,0,1
02:00:00,1,0,0,1,0,0,1,0,0
02:01:00,0,1,0,0,0,1,0,0,0
02:02:00,0,1,0,0,0,0,1,0,0
02:03:00,2,0,1,2,2,0,2,1,1
02:04:00,1,2,0,2,1,1,0,1,1
02:05:00,2,0,2,0,1,0,1,1,1
02:06:00,0,0,0,0,1,1,2,0,1
02:07:00,1,0,1,1,2,2,2,1,1
02:08:00,2,0,0,0,0,0,2,0,1
02:09:00,0,0,2,0,0,1,2,0,1
02:10:00,2,1,1,1,0,0,3,1,1
02:11:00,0,1,1,3,1,0,2,1,1
02:12:00,0,1,0,1,1,3,0,1,1
02:13:00,0,0,3,0,2,3,1,1,1
02:14:00,0,0,0,0,0,1,0,0,0
02:15:00,0,1,0,1,0,3,0,0,1
02:16:00,0,0,1,2,0,0,0,1,0
02:17:00,2,0,1,1,0,3,2,1,1
02:18:00,2,0,0,2,2,1,0,1,1
02:19:00,0,2,0,2,1,2,1,1,1
02:20:00,1,0,3,2,0,0,0,1,1
02:21:00,1,1,1,1,0,1,1,1,1
02:22:00,0,0,0,0,0,0,3,0,0
02:23:00,0,1,0,1,1,0,2,1,1
02:24:00,1,1,0,0,0,1,1,0,1
02:25:00,1,2,0,1,0,1,2,1,1
02:26:00,0,0,0,0,2,2,4,0,1
02:27:00,0,1,2,2,1,0,0,1,1
02:28:00,2,1,0,1,0,1,1,1,1
02:29:00,0,0,1,0,0,1,1,0,0
02:30:00,1,0,0,0,0,1,0,0,0
02:31:00,1,0,1,1,1,3,1,1,1
02:32:00,0,1,2,0,1,1,2,1,1
02:33:00,0,0,0,0,1,0,1,0,0
02:34:00,1,1,3,0,1,1,0,1,1
02:35:00,0,1,0,0,2,0,4,1,1
02:36:00,0,0,1,0,0,3,1,0,1
02:37:00,0,0,1,0,0,0,1,0,0
02:38:00,2,0,0,0,0,0,2,0,1
02:39:00,0,1,0,0,0,0,0,0,0
02:40:00,0,0,0,2,0,1,1,0,1
02:41:00,0,1,0,1,0,4,2,0,1
02:42:00,1,1,0,0,0,2,2,0,1
02:43:00,0,1,0,1,1,0,1,1,1
02:44:00,2,0,0,0,2,3,1,1,1
02:45:00,0,1,1,1,2,1,0,1,1
02:46:00,0,0,0,0,0,2,2,0,1
02:47:00,0,1,1,0,2,0,4,1,1
02:48:00,1,0,0,0,0,0,0,0,0
02:49:00,1,1,0,0,0,2,0,0,1
02:50:00,0,0,0,0,2,0,1,0,0
02:51:00,0,1,1,0,0,0,1,0,0
02:52:00,0,0,0,0,0,1,3,0,1
02:53:00,0,1,1,0,2,2,1,1,1
02:54:00,0,0,1,0,0,2,1,0,1
02:55:00,0,1,0,0,2,3,4,1,1
02:56:00,0,1,2,0,1,1,0,1,1
02:57:00,0,0,0,1,2,0,1,1,1
02:58:00,2,0,1,0,0,2,4,1,1
02:59:00,1,0,1,0,1,0,1,1,1
03:00:00,0,1,0,1,0,0,0,0,0
03:01:00,0,1,0,1,1,0,0,1,0
03:02:00,3,2,0,1,1,4,1,1,2
03:03:00,1,0,1,0,0,0,0,0,0
03:04:00,1,1,2,3,0,0,1,1,1
03:05:00,1,3,0,1,1,1,2,1,1
03:06:00,0,0,1,0,0,4,0,0,1
03:07:00,0,0,1,0,2,0,1,1,1
03:08:00,0,0,0,0,0,0,2,0,0
03:09:00,0,1,0,1,1,0,1,1,1
03:10:00,0,1,0,0,0,0,2,0,0
03:11:00,0,0,0,1,0,1,2,0,1
03:12:00,0,0,1,0,0,3,1,0,1
03:13:00,0,0,1,0,1,2,0,0,1
03:14:00,0,0,1,2,0,0,0,1,0
03:15:00,0,0,0,0,0,0,1,0,0
03:16:00,0,0,1,0,0,0,1,0,0
03:17:00,0,0,0,1,1,1,1,0,1
03:18:00,0,0,1,0,0,2,0,0,0
03:19:00,0,0,1,1,0,1,1,0,1
03:20:00,0,0,1,1,0,0,0,0,0
03:21:00,1,2,2,2,1,0,2,2,1
03:22:00,1,0,0,0,1,0,0,0,0
03:23:00,0,0,0,1,0,1,3,0,1
03:24:00,1,0,0,1,1,1,0,1,1
03:25:00,1,0,1,0,2,0,0,1,1
03:26:00,0,0,2,0,0,1,2,0,1
03:27:00,0,1,1,1,0,0,0,1,0
03:28:00,0,3,0,0,0,0,0,1,0
03:29:00,0,0,1,0,0,2,1,0,1
03:30:00,0,2,1,0,0,0,0,1,0
03:31:00,0,0,1,0,0,0,1,0,0
03:32:00,0,0,2,1,1,0,1,1,1
03:33:00,0,0,0,0,1,1,0,0,0
03:34:00,0,0,0,1,1,0,1,0,0
03:35:00,2,2,0,0,2,0,0,1,1
03:36:00,1,0,1,2,0,0,1,1,1
03:37:00,0,0,0,1,0,0,0,0,0
03:38:00,1,0,3,0,1,3,1,1,1
03:39:00,1,2,2,3,2,0,1,2,2
03:40:00,0,0,0,1,2,3,1,1,1
03:41:00,0,1,0,2,0,0,2,1,1
03:42:00,2,0,0,0,1,0,0,1,0
03:43:00,0,0,0,0,0,0,0,0,0
03:44:00,2,1,5,2,1,1,0,2,2
03:45:00,1,0,2,1,0,0,1,1,1
03:46:00,2,0,2,0,1,1,2,1,1
03:47:00,2,0,1,1,1,1,0,1,1
03:48:00,1,0,1,1,1,0,2,1,1
03:49:00,1,1,0,0,0,0,1,0,0
03:50:00,3,3,2,0,2,0,3,2,2
03:51:00,3,0,0,0,3,1,1,1,1
03:52:00,1,2,0,0,1,1,0,1,1
03:53:00,1,0,0,2,1,2,0,1,1
03:54:00,1,1,0,1,2,3,0,1,1
03:55:00,0,1,0,6,0,1,3,1,2
03:56:00,1,0,2,0,1,0,2,1,1
03:57:00,1,0,2,1,1,4,2,1,2
03:58:00,2,1,0,2,1,2,0,1,1
03:59:00,1,1,1,0,1,0,0,1,1
04:00:00,0,0,2,1,0,0,0,1,0
04:01:00,1,1,1,0,2,3,1,1,1
04:02:00,2,2,1,1,2,0,0,2,1
04:03:00,2,3,0,0,0,1,2,1,1
04:04:00,1,1,2,0,1,0,3,1,1
04:05:00,0,1,2,3,0,1,2,1,1
04:06:00,0,1,0,2,0,0,3,1,1
04:07:00,0,1,0,1,2,0,0,1,1
04:08:00,2,0,3,0,0,0,0,1,1
04:09:00,0,1,0,2,0,1,1,1,1
04:10:00,0,0,2,0,1,1,3,1,1
04:11:00,0,1,0,1,0,2,0,0,1
04:12:00,0,3,2,0,2,0,1,1,1
04:13:00,2,1,0,1,2,0,0,1,1
04:14:00,1,0,1,1,0,0,0,1,0
04:15:00,1,0,2,2,0,0,2,1,1
04:16:00,1,2,1,1,0,0,3,1,1
04:17:00,0,2,1,0,0,1,2,1,1
04:18:00,0,0,0,1,2,0,0,1,0
04:19:00,1,0,0,1,1,0,0,1,0
04:20:00,0,1,1,2,0,1,0,1,1
04:21:00,1,0,1,0,2,1,1,1,1
04:22:00,0,0,1,1,3,0,0,1,1
04:23:00,0,2,1,1,0,0,0,1,1
04:24:00,1,1,0,2,1,1,0,1,1
04:25:00,1,1,3,1,1,0,0,1,1
04:26:00,3,3,0,2,1,0,1,2,1
04:27:00,3,1,2,1,1,0,1,2,1
04:28:00,1,1,0,2,0,0,0,1,1
04:29:00,1,0,1,4,2,1,1,2,1
04:30:00,1,2,0,0,4,1,0,1,1
04:31:00,3,2,0,1,3,1,3,2,2
04:32:00,1,0,2,0,1,3,0,1,1
04:33:00,3,3,1,2,2,1,2,2,2
04:34:00,4,4,2,2,3,2,1,3,3
04:35:00,1,1,0,2,1,0,2,1,1
04:36:00,0,0,0,0,1,0,1,0,0
04:37:00,0,3,1,3,0,2,1,1,1
04:38:00,2,2,2,1,0,1,0,1,1
04:39:00,3,1,0,1,2,0,1,1,1
04:40:00,3,2,2,4,5,1,2,3,3
04:41:00,2,1,3,1,1,2,1,2,2
04:42:00,0,5,1,1,2,0,0,2,1
04:43:00,2,5,3,2,1,3,2,3,3
04:44:00,1,1,2,3,4,2,1,2,2
04:45:00,3,3,2,2,1,2,0,2,2
04:46:00,1,1,1,3,2,2,2,2,2
04:47:00,1,0,1,2,3,0,1,1,1
04:48:00,3,4,3,2,4,2,1,3,3
04:49:00,2,2,7,4,6,0,1,4,3
04:50:00,2,3,4,2,3,0,0,3,2
04:51:00,3,1,1,3,1,1,1,2,2
04:52:00,2,2,0,3,2,3,2,2,2
04:53:00,1,2,2,1,1,2,5,1,2
04:54:00,3,2,1,2,5,2,0,3,2
04:55:00,4,1,2,3,1,1,2,2,2
04:56:00,7,1,2,1,2,1,1,3,2
04:57:00,1,2,3,3,3,2,2,2,2
04:58:00,3,3,1,1,1,3,3,2,2
04:59:00,2,1,0,1,1,0,0,1,1
05:00:00,3,1,3,0,2,3,0,2,2
05:01:00,3,5,1,1,3,0,0,3,2
05:02:00,2,1,2,3,1,0,0,2,1
05:03:00,2,0,1,0,2,2,0,1,1
05:04:00,0,1,1,1,1,4,0,1,1
05:05:00,2,1,1,3,1,1,0,2,1
05:06:00,3,1,1,1,0,0,2,1,1
05:07:00,7,0,1,0,3,1,0,2,2
05:08:00,2,0,0,7,3,3,0,2,2
05:09:00,1,2,0,3,0,0,3,1,1
05:10:00,1,2,1,1,2,1,3,1,2
05:11:00,5,3,4,2,1,1,1,3,2
05:12:00,3,5,0,1,1,2,1,2,2
05:13:00,7,2,1,5,3,3,0,4,3
05:14:00,1,0,2,2,0,0,0,1,1
05:15:00,4,2,2,4,3,1,1,3,2
05:16:00,3,1,3,1,4,0,0,2,2
05:17:00,1,3,2,3,2,1,1,2,2
05:18:00,1,2,0,5,6,1,1,3,2
05:19:00,2,6,4,1,3,3,0,3,3
05:20:00,2,2,3,3,3,0,1,3,2
05:21:00,5,5,2,2,2,2,2,3,3
05:22:00,2,4,0,1,2,0,1,2,1
05:23:00,2,0,4,4,0,2,2,2,2
05:24:00,2,2,4,1,2,2,1,2,2
05:25:00,1,4,4,4,3,2,2,3,3
05:26:00,6,3,2,3,2,1,0,3,2
05:27:00,1,5,1,5,1,5,0,3,3
05:28:00,2,3,3,2,1,1,1,2,2
05:29:00,5,4,2,4,2,2,1,3,3
05:30:00,1,1,9,4,1,0,3,3,3
05:31:00,4,2,4,4,7,2,2,4,4
05:32:00,4,5,6,3,2,4,1,4,4
05:33:00,7,8,4,7,6,3,1,6,5
05:34:00,7,4,6,8,7,4,2,6,5
05:35:00,7,7,4,6,8,6,0,6,5
05:36:00,2,6,7,8,2,2,5,5,5
05:37:00,9,3,4,6,9,1,3,6,5
05:38:00,3,4,4,3,4,3,2,4,3
05:39:00,8,5,3,3,6,1,2,5,4
05:40:00,12,5,5,6,7,7,2,7,6
05:41:00,5,4,2,9,7,7,3,5,5
05:42:00,6,12,6,5,7,6,1,7,6
05:43:00,6,6,8,3,6,2,3,6,5
05:44:00,8,12,12,12,6,6,0,10,8
05:45:00,6,12,6,9,13,4,2,9,7
05:46:00,10,4,10,10,6,6,2,8,7
05:47:00,7,8,12,5,11,3,1,9,7
05:48:00,5,2,11,8,6,4,0,6,5
05:49:00,7,8,2,5,8,2,0,6,5
05:50:00,11,10,9,9,5,2,1,9,7
05:51:00,12,11,7,5,6,1,3,8,6
05:52:00,3,7,11,5,6,1,5,6,5
05:53:00,12,6,7,8,4,1,0,7,5
05:54:00,6,7,7,4,11,1,0,7,5
05:55:00,6,4,10,7,5,3,1,6,5
05:56:00,4,6,10,6,11,1,2,7,6
05:57:00,10,6,10,4,12,1,0,8,6
05:58:00,4,8,5,13,5,3,2,7,6
05:59:00,7,9,5,7,10,8,3,8,7
06:00:00,7,5,7,10,9,2,4,8,6
06:01:00,4,9,7,5,9,3,0,7,5
06:02:00,5,12,8,6,9,3,1,8,6
06:03:00,12,8,5,6,7,7,4,8,7
06:04:00,10,12,8,9,7,2,1,9,7
06:05:00,7,11,17,6,7,6,3,10,8
06:06:00,8,8,9,9,10,3,5,9,7
06:07:00,4,3,7,9,9,4,3,6,6
06:08:00,12,15,5,10,2,7,4,9,8
06:09:00,11,8,8,3,5,2,2,7,6
06:10:00,6,8,10,9,8,4,2,8,7
06:11:00,10,5,8,9,8,6,1,8,7
06:12:00,5,8,3,7,7,1,3,6,5
06:13:00,6,13,6,9,10,5,4,9,8
06:14:00,7,15,13,4,10,6,4,10,8
06:15:00,13,7,7,7,10,10,2,9,8
06:16:00,6,15,8,13,3,6,1,9,7
06:17:00,5,10,10,9,10,4,2,9,7
06:18:00,7,6,4,7,9,5,2,7,6
06:19:00,7,12,8,8,13,7,1,10,8
06:20:00,9,10,8,7,11,6,7,9,8
06:21:00,11,10,11,14,9,4,5,11,9
06:22:00,12,11,7,9,14,7,3,11,9
06:23:00,13,8,6,9,6,4,4,8,7
06:24:00,6,9,14,11,6,4,7,9,8
06:25:00,14,13,16,10,13,6,5,13,11
06:26:00,11,10,11,8,11,9,3,10,9
06:27:00,12,11,8,7,11,6,2,10,8
06:28:00,8,11,16,7,12,5,4,11,9
06:29:00,9,12,12,14,9,6,3,11,9
06:30:00,16,11,12,17,11,2,1,13,10
06:31:00,4,11,10,12,14,4,2,10,8
06:32:00,10,18,21,13,9,3,2,14,11
06:33:00,12,9,9,10,12,7,3,10,9
06:34:00,12,12,12,11,13,5,9,12,11
06:35:00,8,14,14,13,13,3,4,12,10
06:36:00,11,20,16,12,18,9,3,15,13
06:37:00,16,15,16,18,7,5,7,14,12
06:38:00,10,17,8,12,11,4,3,12,9
06:39:00,16,18,16,11,11,6,4,14,12
06:40:00,17,18,19,16,17,7,5,17,14
06:41:00,12,21,6,14,13,6,1,13,10
06:42:00,14,14,15,18,19,6,6,16,13
06:43:00,12,13,10,18,10,6,6,13,11
06:44:00,17,15,21,18,13,8,2,17,13
06:45:00,12,15,24,11,17,9,3,16,13
06:46:00,16,15,11,22,13,8,1,15,12
06:47:00,14,16,20,17,24,6,1,18,14
06:48:00,10,16,14,27,19,3,8,17,14
06:49:00,16,17,14,16,14,9,4,15,13
06:50:00,17,13,21,10,18,4,2,16,12
06:51:00,22,21,18,14,25,4,2,20,15
06:52:00,27,17,22,16,10,10,4,18,15
06:53:00,15,23,19,20,30,8,3,21,17
06:54:00,18,16,20,22,9,7,2,17,13
06:55:00,19,13,16,21,19,7,3,18,14
06:56:00,20,21,18,15,9,5,2,17,13
06:57:00,26,16,13,20,22,7,1,19,15
06:58:00,16,22,20,9,16,4,5,17,13
06:59:00,16,12,22,28,12,9,6,18,15
07:00:00,21,19,13,17,13,6,7,17,14
07:01:00,9,14,19,26,21,7,1,18,14
07:02:00,19,21,17,12,19,9,8,18,15
07:03:00,23,16,20,15,21,12,2,19,16
07:04:00,17,23,25,20,20,14,10,21,18
07:05:00,11,24,25,23,26,12,1,22,17
07:06:00,29,22,27,25,21,3,14,25,20
07:07:00,26,33,21,20,20,8,7,24,19
07:08:00,25,21,16,23,21,8,4,21,17
07:09:00,20,27,35,20,23,8,1,25,19
07:10:00,36,18,19,24,26,12,2,25,20
07:11:00,23,31,25,23,23,14,8,25,21
07:12:00,20,27,36,19,22,6,9,25,20
07:13:00,32,17,21,30,24,17,4,25,21
07:14:00,21,47,29,30,28,8,7,31,24
07:15:00,19,28,30,20,33,7,6,26,20
07:16:00,44,31,24,31,30,14,2,32,25
07:17:00,23,30,29,23,31,7,5,27,21
07:18:00,26,35,27,31,27,6,9,29,23
07:19:00,22,37,36,32,16,15,8,29,24
07:20:00,24,25,27,23,16,6,2,23,18
07:21:00,27,34,32,31,37,9,2,32,25
07:22:00,25,28,27,30,21,7,5,26,20
07:23:00,26,25,34,30,39,13,7,31,25
07:24:00,25,22,34,27,25,13,3,27,21
07:25:00,29,33,31,36,22,7,7,30,24
07:26:00,16,37,29,22,25,8,5,26,20
07:27:00,40,32,30,36,27,8,3,33,25
07:28:00,36,33,33,29,20,12,6,30,24
07:29:00,31,35,41,28,35,10,4,34,26
07:30:00,21,31,31,31,43,10,8,31,25
07:31:00,27,24,34,28,37,11,5,30,24
07:32:00,38,28,41,37,31,4,2,35,26
07:33:00,39,39,27,38,37,14,5,36,28
07:34:00,22,33,33,53,35,7,6,35,27
07:35:00,36,37,35,22,28,12,6,32,25
07:36:00,30,37,44,26,31,12,1,34,26
07:37:00,41,44,27,34,46,7,10,38,30
07:38:00,37,45,36,35,34,12,5,37,29
07:39:00,30,25,40,32,41,10,10,34,27
07:40:00,27,45,38,48,35,11,6,39,30
07:41:00,22,29,27,36,39,10,7,31,24
07:42:00,32,33,30,29,28,18,6,30,25
07:43:00,42,43,38,44,31,10,6,40,31
07:44:00,35,35,22,40,35,16,7,33,27
07:45:00,35,35,45,26,39,20,13,36,30
07:46:00,40,35,34,36,31,13,5,35,28
07:47:00,36,27,39,30,43,17,4,35,28
07:48:00,35,41,39,25,34,6,3,35,26
07:49:00,36,38,39,41,40,17,6,39,31
07:50:00,33,41,31,41,30,19,7,35,29
07:51:00,41,41,38,33,29,14,7,36,29
07:52:00,32,34,37,30,55,10,10,38,30
07:53:00,45,37,30,45,39,16,8,39,31
07:54:00,34,48,35,38,33,11,2,38,29
07:55:00,31,37,44,31,39,14,8,36,29
07:56:00,36,42,40,36,35,21,4,38,31
07:57:00,41,28,41,28,39,13,1,35,27
07:58:00,48,45,40,35,42,18,6,42,33
07:59:00,30,35,35,26,31,12,4,31,25
08:00:00,40,34,33,27,38,17,8,34,28
08:01:00,39,40,28,20,34,13,4,32,25
08:02:00,40,35,40,29,32,15,7,35,28
08:03:00,30,43,42,41,48,19,5,41,33
08:04:00,37,33,30,34,27,9,8,32,25
08:05:00,31,36,38,50,43,20,6,40,32
08:06:00,38,51,37,42,35,8,3,41,31
08:07:00,32,39,28,42,38,11,12,36,29
08:08:00,38,21,38,33,41,15,4,34,27
08:09:00,32,45,32,36,39,13,3,37,29
08:10:00,42,38,33,41,32,14,5,37,29
08:11:00,31,42,28,33,35,15,8,34,27
08:12:00,39,28,47,42,48,14,6,41,32
08:13:00,29,33,38,36,39,21,7,35,29
08:14:00,39,30,27,46,34,19,5,35,29
08:15:00,30,40,35,39,31,18,5,35,28
08:16:00,46,31,36,36,46,14,6,39,31
08:17:00,29,39,27,32,34,20,7,32,27
08:18:00,42,33,43,38,37,16,5,39,31
08:19:00,38,39,37,33,38,15,10,37,30
08:20:00,27,35,26,50,30,15,9,34,27
08:21:00,46,28,33,38,49,24,5,39,32
08:22:00,32,41,26,43,33,10,1,35,27
08:23:00,22,36,43,36,40,20,8,35,29
08:24:00,55,39,37,32,29,19,4,38,31
08:25:00,27,33,34,39,44,15,3,35,28
08:26:00,42,47,41,44,39,14,4,43,33
08:27:00,43,28,33,30,26,16,2,32,25
08:28:00,46,39,37,41,38,19,4,40,32
08:29:00,32,35,55,24,33,16,8,36,29
08:30:00,28,32,23,67,40,27,7,38,32
08:31:00,42,45,48,34,30,23,3,40,32
08:32:00,37,38,31,37,37,21,8,36,30
08:33:00,30,43,32,42,52,19,8,40,32
08:34:00,43,32,38,25,35,23,10,35,29
08:35:00,39,37,36,38,46,12,10,39,31
08:36:00,33,41,39,48,29,26,3,38,31
08:37:00,40,42,25,33,38,31,8,36,31
08:38:00,27,26,54,31,37,30,7,35,30
08:39:00,26,38,39,32,30,25,7,33,28
08:40:00,40,42,26,45,37,22,8,38,31
08:41:00,31,37,36,41,27,21,13,34,29
08:42:00,33,29,33,33,40,22,9,34,28
08:43:00,22,28,35,26,32,20,8,29,24
08:44:00,36,31,40,36,32,33,12,35,31
08:45:00,44,51,42,38,47,31,14,44,38
08:46:00,34,33,30,31,29,30,12,31,28
08:47:00,36,31,43,33,46,20,4,38,30
08:48:00,29,34,24,31,35,22,10,31,26
08:49:00,38,34,31,31,33,15,14,33,28
08:50:00,29,31,43,35,26,27,10,33,29
08:51:00,35,30,30,33,33,20,12,32,28
08:52:00,29,22,35,20,37,32,9,29,26
08:53:00,32,29,37,29,26,18,7,31,25
08:54:00,33,32,35,32,34,17,12,33,28
08:55:00,38,32,34,35,25,29,6,33,28
08:56:00,29,29,35,41,45,21,4,36,29
08:57:00,32,41,46,40,23,15,9,36,29
08:58:00,25,31,24,33,34,18,6,29,24
08:59:00,32,20,36,41,37,22,10,33,28
09:00:00,24,33,34,34,30,24,12,31,27
09:01:00,44,37,38,28,30,20,10,35,30
09:02:00,31,44,25,33,30,18,10,33,27
09:03:00,42,33,31,32,34,20,14,34,29
09:04:00,40,28,42,34,31,17,8,35,29
09:05:00,34,29,26,48,37,23,13,35,30
09:06:00,33,40,43,42,33,17,16,38,32
09:07:00,31,37,29,30,46,24,11,35,30
09:08:00,35,30,36,24,31,20,14,31,27
09:09:00,26,40,33,32,34,21,9,33,28
09:10:00,26,39,31,41,29,22,17,33,29
09:11:00,27,28,27,38,25,19,13,29,25
09:12:00,31,49,30,42,26,26,12,36,31
09:13:00,31,40,33,25,28,21,13,31,27
09:14:00,24,34,27,31,28,32,11,29,27
09:15:00,38,41,39,30,31,16,15,36,30
09:16:00,37,31,26,34,28,15,13,31,26
09:17:00,37,37,22,32,41,18,10,34,28
09:18:00,32,33,34,36,29,28,12,33,29
09:19:00,29,39,17,29,36,22,15,30,27
09:20:00,37,29,37,22,34,27,12,32,28
09:21:00,32,46,23,35,24,27,8,32,28
09:22:00,23,28,28,27,27,32,18,27,26
09:23:00,37,38,24,36,39,22,19,35,31
09:24:00,21,31,34,35,23,30,10,29,26
09:25:00,37,26,38,30,35,30,17,33,30
09:26:00,27,37,32,32,31,23,12,32,28
09:27:00,23,35,35,23,35,26,17,30,28
09:28:00,19,36,28,32,37,28,14,30,28
09:29:00,32,39,25,37,32,28,20,33,30
09:30:00,26,34,20,26,36,36,17,28,28
09:31:00,23,41,34,34,32,25,8,33,28
09:32:00,22,29,30,31,29,25,19,28,26
09:33:00,33,26,18,25,32,28,17,27,26
09:34:00,24,27,23,22,26,33,21,24,25
09:35:00,33,26,36,33,41,40,19,34,33
09:36:00,32,35,35,33,29,19,16,33,28
09:37:00,18,29,28,27,41,26,9,29,25
09:38:00,25,31,28,29,25,25,15,28,25
09:39:00,28,34,28,23,31,30,23,29,28
09:40:00,30,27,26,34,36,14,14,31,26
09:41:00,21,22,20,29,33,28,18,25,24
09:42:00,25,36,18,33,23,37,15,27,27
09:43:00,25,32,33,14,36,28,29,28,28
09:44:00,30,27,32,29,39,38,22,31,31
09:45:00,30,33,35,16,26,33,27,28,29
09:46:00,31,36,29,34,39,39,16,34,32
09:47:00,27,28,28,23,34,25,12,28,25
09:48:00,31,31,35,32,25,35,28,31,31
09:49:00,31,37,19,28,34,32,17,30,28
09:50:00,18,24,34,30,33,19,21,28,26
09:51:00,30,33,30,36,27,22,28,31,29
09:52:00,32,34,21,29,20,38,20,27,28
09:53:00,40,36,33,26,33,32,19,34,31
09:54:00,28,27,30,25,34,29,30,29,29
09:55:00,20,31,32,22,31,42,17,27,28
09:56:00,20,22,31,29,33,27,19,27,26
09:57:00,24,51,39,26,19,32,16,32,30
09:58:00,30,19,31,29,33,31,27,28,29
09:59:00,23,30,30,38,30,23,18,30,27
10:00:00,36,29,32,24,36,38,30,31,32
10:01:00,30,29,21,38,23,21,28,28,27
10:02:00,30,25,31,31,36,40,29,31,32
10:03:00,28,26,19,33,28,32,28,27,28
10:04:00,18,27,21,21,36,42,27,25,27
10:05:00,34,24,29,39,31,38,29,31,32
10:06:00,25,25,21,31,37,29,22,28,27
10:07:00,24,28,19,32,25,25,33,26,27
10:08:00,33,24,32,40,24,35,28,31,31
10:09:00,30,27,27,38,22,34,20,29,28
10:10:00,32,24,31,36,43,31,28,33,32
10:11:00,25,29,26,28,26,34,32,27,29
10:12:00,36,31,29,17,33,32,35,29,30
10:13:00,32,24,27,39,36,32,23,32,30
10:14:00,26,33,37,36,30,31,28,32,32
10:15:00,31,35,30,33,32,34,26,32,32
10:16:00,22,29,21,35,22,40,26,26,28
10:17:00,27,31,25,27,24,30,21,27,26
10:18:00,30,30,24,33,30,43,31,29,32
10:19:00,32,30,34,32,27,33,36,31,32
10:20:00,37,30,21,24,25,25,25,27,27
10:21:00,20,28,29,29,32,33,31,28,29
10:22:00,32,22,26,39,36,26,32,31,30
10:23:00,42,24,30,28,36,25,24,32,30
10:24:00,31,27,28,28,28,30,21,28,28
10:25:00,34,30,27,45,35,37,23,34,33
10:26:00,19,21,22,24,34,31,33,24,26
10:27:00,36,17,31,39,30,29,30,31,30
10:28:00,19,32,35,28,21,39,37,27,30
10:29:00,35,26,33,23,20,27,28,27,27
10:30:00,29,28,20,19,36,39,27,26,28
10:31:00,29,29,22,32,30,35,28,28,29
10:32:00,32,17,22,30,21,28,31,24,26
10:33:00,30,36,32,30,25,38,29,31,31
10:34:00,28,24,31,21,33,32,42,27,30
10:35:00,39,35,30,36,32,20,25,34,31
10:36:00,32,25,37,42,28,29,40,33,33
10:37:00,24,31,19,37,33,28,35,29,30
10:38:00,24,26,29,33,29,38,34,28,30
10:39:00,29,29,27,34,29,24,35,30,30
10:40:00,26,31,42,34,28,37,24,32,32
10:41:00,28,25,26,33,33,33,30,29,30
10:42:00,41,29,29,28,38,41,32,33,34
10:43:00,29,22,30,31,26,44,32,28,31
10:44:00,34,28,27,29,42,30,24,32,31
10:45:00,32,25,31,40,25,35,44,31,33
10:46:00,24,28,39,39,38,41,26,34,34
10:47:00,32,15,22,23,29,38,24,24,26
10:48:00,22,30,25,37,35,30,37,30,31
10:49:00,32,32,18,27,36,29,32,29,29
10:50:00,18,38,19,30,31,36,31,27,29
10:51:00,36,32,35,20,31,42,29,31,32
10:52:00,30,32,35,31,38,36,41,33,35
10:53:00,26,27,29,32,32,27,30,29,29
10:54:00,24,30,32,32,25,34,38,29,31
10:55:00,36,21,36,35,42,38,33,34,34
10:56:00,32,25,33,36,25,36,31,30,31
10:57:00,31,25,28,29,22,45,26,27,29
10:58:00,24,27,28,32,32,25,39,29,30
10:59:00,24,26,26,31,25,32,38,26,29
11:00:00,17,21,28,29,36,34,31,26,28
11:01:00,30,32,24,37,34,39,29,31,32
11:02:00,34,34,22,25,45,37,37,32,33
11:03:00,26,31,33,40,26,37,22,31,31
11:04:00,34,25,23,25,32,39,42,28,31
11:05:00,32,37,33,21,35,36,27,32,32
11:06:00,33,32,25,33,26,34,32,30,31
11:07:00,23,38,22,32,41,38,27,31,32
11:08:00,37,36,41,28,34,40,34,35,36
11:09:00,41,24,29,31,17,38,30,28,30
11:10:00,33,24,29,36,33,32,30,31,31
11:11:00,31,32,29,36,23,40,33,30,32
11:12:00,32,24,29,34,30,34,28,30,30
11:13:00,32,36,28,27,21,35,24,29,29
11:14:00,31,39,30,36,33,31,26,34,32
11:15:00,35,26,26,33,46,40,36,33,35
11:16:00,24,29,33,34,28,45,39,30,33
11:17:00,33,34,24,28,35,32,25,31,30
11:18:00,28,26,35,30,33,45,40,30,34
11:19:00,38,25,34,28,39,21,33,33,31
11:20:00,31,26,26,29,28,53,38,28,33
11:21:00,31,33,26,28,30,33,36,30,31
11:22:00,24,33,26,37,27,34,36,29,31
11:23:00,30,33,35,40,32,26,32,34,33
11:24:00,30,36,30,18,32,47,32,29,32
11:25:00,26,40,32,32,31,36,43,32,34
11:26:00,26,28,28,36,35,36,33,31,32
11:27:00,24,28,23,25,43,42,22,29,30
11:28:00,36,34,29,32,20,45,36,30,33
11:29:00,27,38,32,29,38,32,39,33,34
11:30:00,26,32,33,41,40,34,30,34,34
11:31:00,34,25,39,34,39,36,42,34,36
11:32:00,27,31,28,33,30,34,34,30,31
11:33:00,29,38,39,36,25,36,38,33,34
11:34:00,27,26,28,32,39,44,32,30,33
11:35:00,31,20,32,32,23,24,39,28,29
11:36:00,30,35,25,24,38,39,32,30,32
11:37:00,25,24,26,40,28,33,40,29,31
11:38:00,26,33,33,31,34,30,27,31,31
11:39:00,24,31,28,29,24,38,36,27,30
11:40:00,37,24,29,40,31,35,37,32,33
11:41:00,30,22,27,29,39,29,26,29,29
11:42:00,39,22,33,32,23,33,41,30,32
11:43:00,29,27,27,24,30,44,28,27,30
11:44:00,39,33,28,42,25,29,30,33,32
11:45:00,30,32,38,29,40,46,36,34,36
11:46:00,37,36,22,33,31,40,34,32,33
11:47:00,30,30,31,38,44,44,37,35,36
11:48:00,36,41,33,33,35,39,40,36,37
11:49:00,36,33,37,34,25,18,41,33,32
11:50:00,22,32,31,30,30,46,34,29,32
11:51:00,24,37,28,35,34,43,30,32,33
11:52:00,34,40,35,31,28,45,42,34,36
11:53:00,23,27,37,37,33,35,34,31,32
11:54:00,27,33,29,19,34,35,35,28,30
11:55:00,29,27,39,25,23,35,32,29,30
11:56:00,37,30,39,36,26,48,36,34,36
11:57:00,22,33,36,37,21,42,40,30,33
11:58:00,29,30,20,34,33,39,38,29,32
11:59:00,40,35,25,26,28,36,29,31,31
12:00:00,28,26,31,29,32,40,33,29,31
12:01:00,37,34,29,36,32,33,32,34,33
12:02:00,38,32,30,23,33,27,36,31,31
12:03:00,36,28,34,32,40,39,39,34,35
12:04:00,33,40,26,35,36,28,40,34,34
12:05:00,17,40,39,39,37,37,48,34,37
12:06:00,29,31,31,33,28,52,32,30,34
12:07:00,39,37,23,32,42,38,37,35,35
12:08:00,29,31,39,37,37,36,20,35,33
12:09:00,29,31,29,36,30,40,37,31,33
12:10:00,39,42,21,34,23,40,35,32,33
12:11:00,37,42,26,29,30,41,32,33,34
12:12:00,33,20,35,30,30,39,39,30,32
12:13:00,44,36,38,27,35,50,36,36,38
12:14:00,34,27,30,37,38,38,30,33,33
12:15:00,24,46,29,26,33,38,38,32,33
12:16:00,36,20,32,25,24,40,39,27,31
12:17:00,21,24,29,31,34,25,37,28,29
12:18:00,41,35,25,22,41,34,27,33,32
12:19:00,35,20,15,14,35,45,44,24,30
12:20:00,31,29,38,31,37,32,36,33,33
12:21:00,22,42,32,49,32,40,31,35,35
12:22:00,40,30,40,28,43,47,26,36,36
12:23:00,36,41,26,27,36,40,37,33,35
12:24:00,28,25,34,24,26,42,41,27,31
12:25:00,43,41,40,35,40,38,23,40,37
12:26:00,27,23,30,19,45,39,36,29,31
12:27:00,40,38,36,36,27,45,31,35,36
12:28:00,33,37,33,38,34,32,40,35,35
12:29:00,30,26,31,32,37,40,35,31,33
12:30:00,31,37,35,40,26,43,50,34,37
12:31:00,33,34,30,27,32,55,39,31,36
12:32:00,30,33,30,36,52,32,36,36,36
12:33:00,37,37,29,29,30,46,34,32,35
12:34:00,28,21,39,42,44,36,40,35,36
12:35:00,22,36,32,39,33,40,42,32,35
12:36:00,32,18,31,29,27,42,29,27,30
12:37:00,35,34,31,39,22,29,33,32,32
12:38:00,34,33,37,38,32,40,34,35,35
12:39:00,31,32,36,25,42,47,42,33,36
12:40:00,41,33,24,40,38,37,27,35,34
12:41:00,27,29,38,38,25,36,26,31,31
12:42:00,28,35,35,32,33,31,25,33,31
12:43:00,40,23,25,41,26,37,42,31,33
12:44:00,39,33,36,31,36,40,35,35,36
12:45:00,27,33,28,28,35,48,29,30,33
12:46:00,40,40,21,30,41,38,43,34,36
12:47:00,27,26,43,28,36,41,39,32,34
12:48:00,34,40,43,36,32,46,36,37,38
12:49:00,38,28,28,33,40,38,32,33,34
12:50:00,40,45,34,35,37,39,40,38,39
12:51:00,25,44,28,40,30,38,40,33,35
12:52:00,39,29,24,29,41,44,30,32,34
12:53:00,32,31,33,29,39,42,38,33,35
12:54:00,25,24,31,36,45,29,32,32,32
12:55:00,27,25,33,35,29,33,27,30,30
12:56:00,33,32,22,27,30,35,30,29,30
12:57:00,31,42,34,32,28,30,36,33,33
12:58:00,29,30,22,38,25,27,34,29,29
12:59:00,28,31,25,29,30,45,40,29,33
13:00:00,31,21,34,32,16,28,23,27,26
13:01:00,29,23,34,26,27,35,35,28,30
13:02:00,45,14,21,19,32,40,39,26,30
13:03:00,27,52,28,28,29,28,39,33,33
13:04:00,27,33,40,25,36,27,35,32,32
13:05:00,38,30,23,36,30,33,38,31,33
13:06:00,36,28,26,36,26,28,34,30,31
13:07:00,23,24,31,31,34,33,38,29,31
13:08:00,35,33,35,39,34,36,34,35,35
13:09:00,29,26,29,32,22,36,40,28,31
13:10:00,38,27,29,25,38,32,35,31,32
13:11:00,33,38,36,34,32,34,34,35,34
13:12:00,29,29,35,30,31,44,34,31,33
13:13:00,29,26,29,36,39,32,41,32,33
13:14:00,25,32,40,24,41,24,22,32,30
13:15:00,32,28,32,31,33,37,32,31,32
13:16:00,30,35,36,32,31,30,44,33,34
13:17:00,25,29,25,24,24,29,37,25,28
13:18:00,39,23,35,32,28,37,22,31,31
13:19:00,30,32,40,29,24,50,40,31,35
13:20:00,35,24,34,44,28,39,36,33,34
13:21:00,31,37,35,30,41,35,39,35,35
13:22:00,29,30,29,26,37,32,32,30,31
13:23:00,39,26,28,32,29,35,38,31,32
13:24:00,35,27,25,33,40,30,35,32,32
13:25:00,25,39,27,27,30,45,31,30,32
13:26:00,44,26,28,48,26,36,33,34,34
13:27:00,26,20,34,34,22,24,39,27,28
13:28:00,37,33,18,25,24,42,38,27,31
13:29:00,28,25,36,31,34,33,34,31,32
13:30:00,27,29,26,25,20,34,28,25,27
13:31:00,39,25,27,32,41,35,40,33,34
13:32:00,42,30,25,36,31,34,37,33,34
13:33:00,37,20,19,41,41,30,33,32,32
13:34:00,39,28,28,23,35,43,35,31,33
13:35:00,31,39,28,46,23,43,36,33,35
13:36:00,45,26,40,39,39,34,35,38,37
13:37:00,36,28,29,28,25,47,32,29,32
13:38:00,39,38,23,33,34,31,27,33,32
13:39:00,48,48,42,36,31,42,35,41,40
13:40:00,27,34,29,34,32,39,43,31,34
13:41:00,46,27,36,30,32,25,23,34,31
13:42:00,26,39,32,30,39,50,31,33,35
13:43:00,25,28,34,36,37,29,33,32,32
13:44:00,39,31,32,30,36,42,40,34,36
13:45:00,40,32,32,31,30,34,31,33,33
13:46:00,33,40,35,31,43,32,33,36,35
13:47:00,40,32,29,28,35,33,38,33,34
13:48:00,40,27,41,32,33,40,32,35,35
13:49:00,34,33,26,28,37,25,27,32,30
13:50:00,30,47,27,34,33,32,25,34,33
13:51:00,33,30,46,29,42,34,35,36,36
13:52:00,34,25,28,24,41,35,32,30,31
13:53:00,33,44,16,42,27,32,46,32,34
13:54:00,31,30,32,33,34,37,22,32,31
13:55:00,26,34,33,36,44,29,38,35,34
13:56:00,34,37,25,42,38,26,39,35,34
13:57:00,32,34,32,33,31,30,36,32,33
13:58:00,23,32,41,33,28,29,29,31,31
13:59:00,28,26,29,38,30,41,34,30,32
14:00:00,37,25,36,25,30,31,34,31,31
14:01:00,36,28,32,30,20,38,25,29,30
14:02:00,40,37,22,19,43,38,33,32,33
14:03:00,21,32,38,32,34,38,39,31,33
14:04:00,29,24,24,18,33,43,34,26,29
14:05:00,33,22,27,27,34,34,28,29,29
14:06:00,26,39,18,28,43,40,43,31,34
14:07:00,43,31,33,31,24,35,26,32,32
14:08:00,26,38,29,44,27,44,47,33,36
14:09:00,33,37,26,30,44,39,29,34,34
14:10:00,37,36,36,25,25,33,32,32,32
14:11:00,20,41,32,35,42,34,34,34,34
14:12:00,44,26,29,27,28,39,37,31,33
14:13:00,34,23,33,32,34,35,41,31,33
14:14:00,23,40,36,28,38,31,40,33,34
14:15:00,30,32,18,26,33,39,35,28,30
14:16:00,48,27,33,43,38,28,34,38,36
14:17:00,19,30,21,31,30,29,34,26,28
14:18:00,39,13,25,26,34,40,39,27,31
14:19:00,30,41,31,35,40,37,32,35,35
14:20:00,29,16,33,31,34,33,43,29,31
14:21:00,24,29,38,41,32,37,43,33,35
14:22:00,36,28,29,35,31,36,42,32,34
14:23:00,26,40,34,40,34,38,34,35,35
14:24:00,33,26,31,41,42,42,35,35,36
14:25:00,40,23,35,30,33,34,22,32,31
14:26:00,31,46,29,39,27,33,27,34,33
14:27:00,26,32,32,33,34,34,30,31,32
14:28:00,32,36,26,31,23,21,22,30,27
14:29:00,40,47,32,42,40,33,36,40,39
14:30:00,32,23,25,27,38,35,30,29,30
14:31:00,38,32,38,35,30,29,34,35,34
14:32:00,37,40,36,35,37,41,40,37,38
14:33:00,35,34,34,31,34,33,31,34,33
14:34:00,29,34,29,23,40,35,36,31,32
14:35:00,35,29,47,37,40,42,34,38,38
14:36:00,27,34,31,41,43,37,40,35,36
14:37:00,36,45,33,31,38,35,37,37,36
14:38:00,31,31,29,41,36,39,34,34,34
14:39:00,41,26,26,39,36,32,41,34,34
14:40:00,42,36,30,22,26,40,35,31,33
14:41:00,22,25,45,41,37,38,33,34,34
14:42:00,35,29,38,19,37,38,36,32,33
14:43:00,24,33,33,42,44,41,33,35,36
14:44:00,35,33,30,35,33,36,41,33,35
14:45:00,43,45,27,39,38,47,21,38,37
14:46:00,31,21,44,33,36,41,28,33,33
14:47:00,29,28,40,46,37,32,21,36,33
14:48:00,39,38,24,25,32,44,24,32,32
14:49:00,32,34,34,29,34,29,34,33,32
14:50:00,33,19,53,37,37,38,34,36,36
14:51:00,23,41,33,29,22,23,15,30,27
14:52:00,24,31,45,35,41,40,31,35,35
14:53:00,36,32,37,38,35,39,34,36,36
14:54:00,31,25,28,24,26,35,45,27,31
14:55:00,34,29,36,37,28,38,26,33,33
14:56:00,22,31,35,28,28,27,27,29,28
14:57:00,41,35,34,37,34,34,33,36,35
14:58:00,33,27,38,25,40,25,38,33,32
14:59:00,32,20,32,23,28,29,24,27,27
15:00:00,32,39,28,39,35,33,46,35,36
15:01:00,28,30,35,28,30,33,29,30,30
15:02:00,31,32,28,28,40,30,27,32,31
15:03:00,36,31,38,23,36,18,28,33,30
15:04:00,29,36,24,27,41,35,30,31,32
15:05:00,36,30,44,29,29,35,21,34,32
15:06:00,32,34,23,34,36,30,28,32,31
15:07:00,27,33,34,46,37,42,40,35,37
15:08:00,38,24,49,24,28,31,35,33,33
15:09:00,22,24,32,46,45,32,30,34,33
15:10:00,23,32,44,27,22,34,33,30,31
15:11:00,22,26,24,37,46,28,32,31,31
15:12:00,30,38,45,29,25,33,28,33,33
15:13:00,28,28,34,35,33,32,36,32,32
15:14:00,32,22,39,34,39,38,38,33,35
15:15:00,27,33,40,29,31,28,30,32,31
15:16:00,35,30,37,35,40,41,25,35,35
15:17:00,30,41,43,34,43,23,29,38,35
15:18:00,40,33,38,37,33,25,35,36,34
15:19:00,33,31,27,37,26,42,27,31,32
15:20:00,26,34,28,44,34,30,22,33,31
15:21:00,31,40,34,27,37,31,36,34,34
15:22:00,24,26,26,33,38,24,20,29,27
15:23:00,20,31,23,32,34,21,19,28,26
15:24:00,25,30,37,22,25,33,31,28,29
15:25:00,30,36,25,31,28,29,32,30,30
15:26:00,26,28,32,31,37,29,33,31,31
15:27:00,38,38,16,38,26,34,24,31,31
15:28:00,12,32,28,35,34,25,21,28,27
15:29:00,37,34,33,38,27,31,30,34,33
15:30:00,22,40,35,35,27,31,42,32,33
15:31:00,21,34,37,28,27,36,26,29,30
15:32:00,31,26,34,29,44,32,30,33,32
15:33:00,26,35,32,31,19,27,27,29,28
15:34:00,25,35,24,35,26,39,27,29,30
15:35:00,35,30,40,37,33,41,19,35,34
15:36:00,43,27,31,34,37,33,32,34,34
15:37:00,32,34,36,33,30,20,30,33,31
15:38:00,39,21,32,32,38,42,28,32,33
15:39:00,31,31,40,29,47,33,37,36,35
15:40:00,31,41,24,38,34,35,26,34,33
15:41:00,32,23,43,35,29,25,28,32,31
15:42:00,23,42,40,28,49,38,21,36,34
15:43:00,27,46,40,23,38,29,44,35,35
15:44:00,28,27,36,28,30,32,28,30,30
15:45:00,28,37,18,32,37,41,28,30,32
15:46:00,28,39,33,32,32,32,21,33,31
15:47:00,36,40,42,32,32,25,32,36,34
15:48:00,27,23,23,25,44,29,19,28,27
15:49:00,29,29,36,34,32,35,27,32,32
15:50:00,22,35,27,36,42,37,22,32,32
15:51:00,31,24,30,22,33,26,18,28,26
15:52:00,23,30,32,41,34,33,30,32,32
15:53:00,32,49,20,30,42,22,30,35,32
15:54:00,42,50,27,36,40,31,28,39,36
15:55:00,32,29,41,34,26,25,18,32,29
15:56:00,45,30,28,26,36,37,24,33,32
15:57:00,20,31,30,28,32,29,37,28,30
15:58:00,29,39,28,36,46,22,20,36,31
15:59:00,25,37,31,37,31,27,28,32,31
16:00:00,39,32,34,43,26,26,28,35,33
16:01:00,32,43,28,43,37,31,30,37,35
16:02:00,38,23,41,32,29,29,24,33,31
16:03:00,40,38,33,29,45,32,26,37,35
16:04:00,39,32,39,23,29,33,25,32,31
16:05:00,29,39,39,27,37,25,22,34,31
16:06:00,42,34,31,31,31,24,27,34,31
16:07:00,26,34,40,40,51,31,29,38,36
16:08:00,32,36,35,34,47,31,22,37,34
16:09:00,34,33,34,29,41,30,33,34,33
16:10:00,39,31,41,50,32,38,17,39,35
16:11:00,31,42,35,43,26,45,26,35,35
16:12:00,33,34,40,37,52,29,28,39,36
16:13:00,34,43,37,28,34,27,29,35,33
16:14:00,39,37,36,30,36,36,29,36,35
16:15:00,36,35,49,41,39,38,13,40,36
16:16:00,27,41,37,34,38,39,22,35,34
16:17:00,53,41,34,37,39,39,22,41,38
16:18:00,35,35,32,33,44,16,26,36,32
16:19:00,29,33,32,39,34,19,18,33,29
16:20:00,36,36,43,42,38,41,20,39,37
16:21:00,48,35,42,39,37,35,26,40,37
16:22:00,30,42,36,39,43,27,26,38,35
16:23:00,35,45,36,31,40,28,24,37,34
16:24:00,31,40,30,39,38,27,27,36,33
16:25:00,29,45,36,30,24,34,18,33,31
16:26:00,29,25,33,45,53,34,21,37,34
16:27:00,41,36,36,26,49,22,15,38,32
16:28:00,37,31,35,35,31,39,19,34,32
16:29:00,29,35,34,40,42,29,21,36,33
16:30:00,33,31,43,41,33,32,17,36,33
16:31:00,31,27,25,39,40,34,18,32,31
16:32:00,31,37,21,39,30,28,14,32,29
16:33:00,41,43,36,32,41,40,18,39,36
16:34:00,36,38,30,39,37,26,24,36,33
16:35:00,36,36,33,32,45,23,17,36,32
16:36:00,33,33,33,36,30,21,15,33,29
16:37:00,45,35,37,30,54,46,18,40,38
16:38:00,29,42,38,40,34,23,17,37,32
16:39:00,52,37,55,35,36,41,21,43,40
16:40:00,43,42,40,39,38,24,18,40,35
16:41:00,44,22,37,34,46,33,21,37,34
16:42:00,46,41,48,29,20,30,15,37,33
16:43:00,37,47,35,40,48,23,15,41,35
16:44:00,42,37,41,43,31,30,21,39,35
16:45:00,32,42,36,36,31,30,14,35,32
16:46:00,37,38,39,40,34,27,14,38,33
16:47:00,38,37,30,34,42,26,17,36,32
16:48:00,26,44,41,32,29,30,15,34,31
16:49:00,38,32,46,37,39,30,14,38,34
16:50:00,43,46,30,34,36,29,24,38,35
16:51:00,38,45,43,50,35,27,18,42,37
16:52:00,45,22,39,37,32,27,20,35,32
16:53:00,45,46,31,34,52,33,12,42,36
16:54:00,42,39,42,31,36,31,23,38,35
16:55:00,35,32,40,34,29,32,15,34,31
16:56:00,34,31,35,35,41,29,10,35,31
16:57:00,35,32,32,30,30,27,14,32,29
16:58:00,33,25,34,31,33,45,17,31,31
16:59:00,40,40,40,48,47,26,18,43,37
17:00:00,35,35,51,33,37,37,18,38,35
17:01:00,42,44,25,45,40,32,20,39,35
17:02:00,32,34,37,30,40,26,13,35,30
17:03:00,43,46,45,40,43,29,8,43,36
17:04:00,29,45,36,41,37,35,13,38,34
17:05:00,33,38,35,34,37,31,15,35,32
17:06:00,37,32,36,38,47,33,21,38,35
17:07:00,40,43,39,36,36,26,22,39,35
17:08:00,37,52,45,38,43,38,21,43,39
17:09:00,44,45,33,45,43,27,16,42,36
17:10:00,42,41,51,38,41,31,24,43,38
17:11:00,37,48,31,37,49,28,17,40,35
17:12:00,26,38,36,41,49,34,15,38,34
17:13:00,38,30,43,39,53,35,17,41,36
17:14:00,39,29,40,39,42,32,19,38,34
17:15:00,39,33,51,43,31,38,19,39,36
17:16:00,43,51,46,52,43,26,16,47,40
17:17:00,40,45,53,43,43,36,19,45,40
17:18:00,46,50,29,33,44,33,21,40,37
17:19:00,41,38,59,49,42,19,9,46,37
17:20:00,36,36,38,46,49,32,14,41,36
17:21:00,41,51,39,46,34,34,13,42,37
17:22:00,38,41,41,37,42,26,10,40,34
17:23:00,42,49,40,53,40,31,15,45,39
17:24:00,20,49,33,35,40,19,14,35,30
17:25:00,38,38,35,35,40,32,16,37,33
17:26:00,32,43,36,36,39,38,8,37,33
17:27:00,35,34,40,29,52,29,10,38,33
17:28:00,23,49,30,35,43,32,15,36,32
17:29:00,53,37,44,36,32,38,21,40,37
17:30:00,25,45,28,30,33,34,13,32,30
17:31:00,32,32,25,31,36,28,7,31,27
17:32:00,32,29,35,28,38,39,15,32,31
17:33:00,25,39,17,25,50,16,14,31,27
17:34:00,47,27,34,42,40,28,11,38,33
17:35:00,43,42,41,38,39,29,14,41,35
17:36:00,31,27,33,40,41,24,13,34,30
17:37:00,50,42,35,40,46,37,24,43,39
17:38:00,36,41,35,44,37,38,9,39,34
17:39:00,40,47,38,39,41,24,18,41,35
17:40:00,46,35,35,36,29,22,20,36,32
17:41:00,36,51,47,43,43,47,10,44,40
17:42:00,39,37,40,39,29,39,14,37,34
17:43:00,34,48,41,38,45,20,8,41,33
17:44:00,43,37,39,31,40,31,18,38,34
17:45:00,42,45,34,42,41,26,17,41,35
17:46:00,46,35,33,32,34,27,11,36,31
17:47:00,42,33,43,39,36,39,19,39,36
17:48:00,26,30,46,45,44,27,16,38,33
17:49:00,33,43,45,43,30,34,17,39,35
17:50:00,25,32,47,29,35,27,13,34,30
17:51:00,35,40,40,50,42,28,18,41,36
17:52:00,34,39,23,50,36,26,17,36,32
17:53:00,29,31,45,31,35,29,17,34,31
17:54:00,42,49,41,35,30,22,13,39,33
17:55:00,31,36,43,41,37,33,15,38,34
17:56:00,41,36,33,35,44,27,16,38,33
17:57:00,37,37,35,26,19,27,16,31,28
17:58:00,35,32,34,27,44,14,15,34,29
17:59:00,28,47,29,34,36,27,13,35,31
18:00:00,40,25,39,38,28,29,12,34,30
18:01:00,29,27,28,29,27,27,21,28,27
18:02:00,33,34,38,27,32,36,14,33,31
18:03:00,29,32,36,30,33,21,15,32,28
18:04:00,28,33,36,40,34,39,14,34,32
18:05:00,27,36,30,32,33,34,16,32,30
18:06:00,35,38,38,35,29,25,15,35,31
18:07:00,34,39,32,27,42,28,18,35,31
18:08:00,34,33,34,39,27,22,9,33,28
18:09:00,34,30,42,23,37,21,18,33,29
18:10:00,33,43,37,39,42,19,23,39,34
18:11:00,29,30,41,35,45,25,15,36,31
18:12:00,27,40,28,30,43,25,18,34,30
18:13:00,34,22,29,30,36,29,16,30,28
18:14:00,36,40,39,37,32,30,19,37,33
18:15:00,33,35,44,36,35,18,20,37,32
18:16:00,39,34,46,28,34,28,14,36,32
18:17:00,24,28,43,22,28,32,17,29,28
18:18:00,27,25,28,26,28,23,19,27,25
18:19:00,27,35,26,35,33,29,9,31,28
18:20:00,31,31,40,30,25,29,11,31,28
18:21:00,26,30,36,33,27,32,15,30,28
18:22:00,20,29,34,27,23,17,19,27,24
18:23:00,27,39,25,32,37,35,11,32,29
18:24:00,26,42,30,25,22,22,10,29,25
18:25:00,32,32,36,25,27,37,11,30,29
18:26:00,21,27,23,31,39,21,10,28,25
18:27:00,27,28,37,24,32,21,17,30,27
18:28:00,41,30,31,26,31,20,6,32,26
18:29:00,37,25,26,27,32,24,13,29,26
18:30:00,25,22,20,30,27,22,10,25,22
18:31:00,27,24,21,38,30,26,20,28,27
18:32:00,29,23,25,28,29,22,16,27,25
18:33:00,36,25,34,33,18,20,17,29,26
18:34:00,24,18,40,33,31,23,8,29,25
18:35:00,15,33,17,28,24,18,13,23,21
18:36:00,23,16,33,38,28,22,16,28,25
18:37:00,21,14,32,26,26,22,14,24,22
18:38:00,25,29,18,28,31,17,10,26,23
18:39:00,26,34,27,28,30,18,11,29,25
18:40:00,28,22,40,37,23,19,7,30,25
18:41:00,21,32,21,35,31,16,11,28,24
18:42:00,21,22,25,31,31,18,17,26,24
18:43:00,24,22,34,23,26,30,10,26,24
18:44:00,18,27,32,22,25,21,19,25,23
18:45:00,24,31,24,32,28,29,10,28,25
18:46:00,15,26,29,29,23,21,5,24,21
18:47:00,24,16,24,29,26,24,14,24,22
18:48:00,23,30,24,26,18,25,11,24,22
18:49:00,26,30,23,30,21,16,15,26,23
18:50:00,8,26,19,32,29,17,20,23,22
18:51:00,31,28,19,31,16,23,15,25,23
18:52:00,15,27,16,28,26,16,12,22,20
18:53:00,19,31,27,35,18,23,8,26,23
18:54:00,25,17,18,19,25,21,18,21,20
18:55:00,19,26,24,26,19,26,10,23,21
18:56:00,21,18,24,25,20,13,10,22,19
18:57:00,20,25,24,22,29,26,12,24,23
18:58:00,16,22,23,16,29,16,11,21,19
18:59:00,28,21,25,20,19,14,12,23,20
19:00:00,20,26,32,19,32,23,10,26,23
19:01:00,18,24,30,26,26,15,15,25,22
19:02:00,19,22,21,14,20,18,12,19,18
19:03:00,19,24,28,22,30,21,11,25,22
19:04:00,27,24,22,39,27,17,19,28,25
19:05:00,18,31,32,23,21,19,15,25,23
19:06:00,17,27,27,29,33,35,17,27,26
19:07:00,20,22,28,27,30,23,18,25,24
19:08:00,26,29,31,28,32,25,12,29,26
19:09:00,16,29,22,26,26,11,9,24,20
19:10:00,28,41,33,27,14,29,19,29,27
19:11:00,21,33,26,27,34,18,11,28,24
19:12:00,25,30,22,30,32,26,15,28,26
19:13:00,28,23,28,30,33,10,18,28,24
19:14:00,31,30,43,18,26,17,15,30,26
19:15:00,20,21,26,29,18,18,15,23,21
19:16:00,19,20,31,33,30,15,12,27,23
19:17:00,25,30,20,31,28,16,14,27,23
19:18:00,25,24,27,34,34,17,15,29,25
19:19:00,14,30,28,34,23,16,10,26,22
19:20:00,23,21,31,25,25,27,5,25,22
19:21:00,22,31,27,30,34,14,9,29,24
19:22:00,18,27,19,28,29,15,9,24,21
19:23:00,23,22,12,33,14,13,11,21,18
19:24:00,16,21,32,22,25,21,11,23,21
19:25:00,24,26,11,11,34,17,14,21,20
19:26:00,22,22,17,19,19,20,9,20,18
19:27:00,15,31,21,18,12,12,4,19,16
19:28:00,14,20,22,22,22,17,13,20,19
19:29:00,25,20,16,20,18,12,10,20,17
19:30:00,22,16,13,24,22,19,11,19,18
19:31:00,16,20,21,25,17,22,9,20,19
19:32:00,16,18,18,16,23,16,10,18,17
19:33:00,25,21,22,21,18,18,13,21,20
19:34:00,10,22,26,14,10,15,7,16,15
19:35:00,16,23,21,24,23,17,12,21,19
19:36:00,14,19,25,18,25,10,7,20,17
19:37:00,20,15,17,27,22,14,6,20,17
19:38:00,17,20,18,23,15,19,8,19,17
19:39:00,18,23,25,22,18,20,13,21,20
19:40:00,27,15,17,15,19,11,8,19,16
19:41:00,23,20,15,22,26,21,8,21,19
19:42:00,8,17,13,26,19,13,17,17,16
19:43:00,21,13,12,22,15,17,10,17,16
19:44:00,13,26,16,12,26,8,6,19,15
19:45:00,23,25,18,14,15,15,13,19,18
19:46:00,12,19,17,21,14,12,10,17,15
19:47:00,21,18,17,25,12,15,6,19,16
19:48:00,21,14,24,24,15,15,11,20,18
19:49:00,17,23,14,16,19,18,13,18,17
19:50:00,14,20,16,15,22,13,6,17,15
19:51:00,15,22,12,15,21,10,15,17,16
19:52:00,16,17,21,21,16,10,7,18,15
19:53:00,21,25,14,15,21,15,12,19,18
19:54:00,20,26,17,13,21,21,5,19,18
19:55:00,18,16,25,18,14,14,8,18,16
19:56:00,8,20,17,14,10,12,7,14,13
19:57:00,14,17,14,26,20,9,10,18,16
19:58:00,10,12,21,17,18,11,7,16,14
19:59:00,14,10,13,9,17,6,10,13,11
20:00:00,14,11,31,21,13,14,7,18,16
20:01:00,12,17,16,13,18,14,16,15,15
20:02:00,11,16,21,28,19,8,3,19,15
20:03:00,9,13,14,20,10,10,16,13,13
20:04:00,24,18,19,20,18,12,8,20,17
20:05:00,12,18,18,23,22,12,11,19,17
20:06:00,24,24,14,18,19,18,12,20,18
20:07:00,12,21,24,13,16,17,8,17,16
20:08:00,16,19,16,20,19,11,8,18,16
20:09:00,5,15,25,16,15,13,7,15,14
20:10:00,24,14,22,19,17,16,10,19,17
20:11:00,14,19,16,23,14,3,10,17,14
20:12:00,25,19,22,15,21,11,8,20,17
20:13:00,10,14,19,23,19,17,8,17,16
20:14:00,23,15,23,15,16,12,8,18,16
20:15:00,14,20,16,12,16,18,10,16,15
20:16:00,31,16,28,16,11,11,8,20,17
20:17:00,10,13,11,14,12,20,11,12,13
20:18:00,15,14,20,9,11,14,4,14,12
20:19:00,9,17,22,12,14,19,9,15,15
20:20:00,19,17,9,23,15,9,4,17,14
20:21:00,10,17,12,15,15,18,9,14,14
20:22:00,16,13,8,15,15,18,8,13,13
20:23:00,4,13,8,18,19,11,5,12,11
20:24:00,13,8,12,11,14,14,17,12,13
20:25:00,9,12,21,12,10,13,5,13,12
20:26:00,13,18,20,8,13,13,7,14,13
20:27:00,7,5,8,15,12,10,4,9,9
20:28:00,8,6,11,12,24,13,5,12,11
20:29:00,12,7,12,6,16,12,8,11,10
20:30:00,8,13,18,10,13,7,11,12,11
20:31:00,7,14,14,20,11,12,12,13,13
20:32:00,4,11,13,14,11,6,10,11,10
20:33:00,6,7,10,12,11,6,4,9,8
20:34:00,10,8,12,9,17,12,7,11,11
20:35:00,12,11,13,18,17,9,7,14,12
20:36:00,7,17,13,11,11,11,10,12,11
20:37:00,7,9,14,19,11,10,2,12,10
20:38:00,15,11,7,4,17,13,7,11,11
20:39:00,11,11,14,8,13,11,8,11,11
20:40:00,13,15,7,10,12,10,4,11,10
20:41:00,11,9,9,9,13,9,9,10,10
20:42:00,18,15,10,6,10,8,8,12,11
20:43:00,12,11,10,19,20,6,12,14,13
20:44:00,15,4,14,16,9,10,5,12,10
20:45:00,7,5,16,6,6,11,8,8,8
20:46:00,11,16,9,16,19,9,6,14,12
20:47:00,10,17,9,10,10,10,11,11,11
20:48:00,9,12,14,10,14,8,5,12,10
20:49:00,6,12,18,14,16,5,3,13,11
20:50:00,10,6,10,8,15,12,12,10,10
20:51:00,8,11,6,9,12,12,11,9,10
20:52:00,9,10,10,13,10,10,9,10,10
20:53:00,8,6,20,20,12,13,6,13,12
20:54:00,7,8,7,8,13,12,7,9,9
20:55:00,7,15,5,11,10,5,9,10,9
20:56:00,9,9,9,13,11,10,2,10,9
20:57:00,5,9,11,9,7,10,7,8,8
20:58:00,6,12,14,8,14,2,5,11,9
20:59:00,11,7,10,7,5,10,6,8,8
21:00:00,7,16,8,7,6,7,9,9,9
21:01:00,5,2,10,5,14,11,6,7,8
21:02:00,6,11,9,13,10,12,7,10,10
21:03:00,5,12,11,10,13,5,4,10,9
21:04:00,10,8,16,11,10,12,8,11,11
21:05:00,6,8,11,15,9,13,6,10,10
21:06:00,11,7,8,5,9,12,6,8,8
21:07:00,14,7,13,15,10,4,4,12,10
21:08:00,9,12,12,10,8,14,1,10,9
21:09:00,12,10,7,8,12,4,8,10,9
21:10:00,6,13,12,13,7,12,8,10,10
21:11:00,9,10,9,17,8,9,4,11,9
21:12:00,7,10,11,11,12,7,6,10,9
21:13:00,16,12,13,12,10,10,7,13,11
21:14:00,3,5,12,7,16,9,4,9,8
21:15:00,18,7,9,8,14,9,9,11,11
21:16:00,8,16,9,8,11,5,4,10,9
21:17:00,13,10,8,11,18,6,4,12,10
21:18:00,10,15,6,7,19,6,6,11,10
21:19:00,5,6,13,9,8,4,1,8,7
21:20:00,5,11,12,8,15,3,4,10,8
21:21:00,13,17,16,13,8,9,4,13,11
21:22:00,14,13,7,16,7,16,5,11,11
21:23:00,8,12,10,7,7,5,7,9,8
21:24:00,8,8,4,16,6,7,4,8,8
21:25:00,13,9,11,13,14,6,1,12,10
21:26:00,7,9,6,11,12,6,8,9,8
21:27:00,4,10,9,7,3,7,9,7,7
21:28:00,12,11,9,9,8,6,4,10,8
21:29:00,13,5,7,16,7,9,9,10,9
21:30:00,9,8,14,12,11,8,3,11,9
21:31:00,5,6,11,13,11,9,2,9,8
21:32:00,7,8,5,10,8,5,7,8,7
21:33:00,7,14,5,6,8,8,5,8,8
21:34:00,7,7,6,7,9,5,5,7,7
21:35:00,0,5,13,7,10,6,2,7,6
21:36:00,15,10,7,11,7,12,3,10,9
21:37:00,3,6,2,18,7,8,2,7,7
21:38:00,7,6,7,11,5,7,7,7,7
21:39:00,8,6,7,11,3,7,6,7,7
21:40:00,4,9,4,10,7,5,10,7,7
21:41:00,3,15,6,3,9,7,3,7,7
21:42:00,10,4,7,5,13,5,4,8,7
21:43:00,7,9,18,14,7,4,6,11,9
21:44:00,3,4,9,9,12,3,9,7,7
21:45:00,7,7,6,14,6,9,1,8,7
21:46:00,5,8,14,9,11,6,2,9,8
21:47:00,5,6,10,14,8,6,4,9,8
21:48:00,5,10,13,13,5,9,4,9,8
21:49:00,7,9,4,8,12,5,1,8,7
21:50:00,5,5,8,13,6,11,4,7,7
21:51:00,6,8,12,6,5,7,4,7,7
21:52:00,7,14,6,5,5,7,1,7,6
21:53:00,6,8,2,12,6,4,2,7,6
21:54:00,2,6,15,8,7,8,1,8,7
21:55:00,6,6,10,9,5,10,2,7,7
21:56:00,8,7,8,12,7,4,2,8,7
21:57:00,6,10,4,10,7,6,4,7,7
21:58:00,7,6,7,7,6,5,2,7,6
21:59:00,5,7,5,6,8,6,1,6,5
22:00:00,5,4,9,5,14,7,6,7,7
22:01:00,2,4,6,5,7,4,1,5,4
22:02:00,7,8,4,12,6,6,4,7,7
22:03:00,4,10,8,13,4,7,3,8,7
22:04:00,9,10,6,11,8,13,5,9,9
22:05:00,6,14,5,13,9,6,6,9,8
22:06:00,7,9,8,14,9,10,3,9,9
22:07:00,5,9,11,10,9,6,7,9,8
22:08:00,2,8,12,6,9,13,3,7,8
22:09:00,4,8,9,9,10,15,6,8,9
22:10:00,5,10,4,6,13,2,12,8,7
22:11:00,9,5,9,13,8,8,6,9,8
22:12:00,7,10,6,8,8,3,6,8,7
22:13:00,10,6,4,12,9,6,3,8,7
22:14:00,5,8,10,7,8,10,6,8,8
22:15:00,6,5,5,7,4,11,4,5,6
22:16:00,8,5,10,5,8,8,2,7,7
22:17:00,6,4,9,6,11,14,7,7,8
22:18:00,8,5,9,13,8,5,3,9,7
22:19:00,10,8,5,9,10,10,9,8,9
22:20:00,8,4,6,11,8,9,4,7,7
22:21:00,7,10,11,5,8,6,2,8,7
22:22:00,3,8,4,7,8,6,4,6,6
22:23:00,2,11,7,6,8,5,6,7,6
22:24:00,8,6,6,8,5,6,1,7,6
22:25:00,4,6,6,8,9,13,5,7,7
22:26:00,5,7,5,6,9,10,6,6,7
22:27:00,6,10,4,8,6,4,1,7,6
22:28:00,3,10,8,7,4,2,5,6,6
22:29:00,3,4,3,8,5,4,5,5,5
22:30:00,1,6,4,6,14,7,2,6,6
22:31:00,8,4,8,2,8,9,2,6,6
22:32:00,3,4,5,5,6,5,4,5,5
22:33:00,3,8,5,6,10,4,5,6,6
22:34:00,8,6,5,4,12,6,3,7,6
22:35:00,4,10,4,9,3,1,2,6,5
22:36:00,3,8,7,6,6,2,2,6,5
22:37:00,5,3,3,6,2,6,1,4,4
22:38:00,3,5,1,6,6,9,4,4,5
22:39:00,4,1,5,5,7,5,1,4,4
22:40:00,4,5,2,4,4,1,4,4,3
22:41:00,4,4,3,7,7,6,4,5,5
22:42:00,7,3,2,3,6,5,3,4,4
22:43:00,3,3,6,6,2,3,0,4,3
22:44:00,4,9,3,2,9,3,3,5,5
22:45:00,2,6,5,4,6,5,4,5,5
22:46:00,3,3,2,2,5,1,4,3,3
22:47:00,2,5,1,3,1,3,2,2,2
22:48:00,5,4,2,4,10,4,2,5,4
22:49:00,1,3,4,5,8,7,4,4,5
22:50:00,8,1,4,1,5,5,3,4,4
22:51:00,8,7,5,5,3,12,4,6,6
22:52:00,6,1,5,2,4,6,2,4,4
22:53:00,2,2,4,8,7,12,0,5,5
22:54:00,2,3,3,1,6,13,4,3,5
22:55:00,2,4,4,6,7,3,4,5,4
22:56:00,2,4,4,4,6,4,1,4,4
22:57:00,5,1,2,0,6,7,5,3,4
22:58:00,0,2,6,4,8,7,3,4,4
22:59:00,5,1,7,4,3,10,5,4,5
23:00:00,1,2,4,5,5,4,0,3,3
23:01:00,3,4,4,4,4,9,2,4,4
23:02:00,2,3,6,2,5,1,4,4,3
23:03:00,3,0,10,3,3,5,0,4,3
23:04:00,3,2,9,3,4,8,1,4,4
23:05:00,3,2,8,4,2,11,3,4,5
23:06:00,4,5,1,8,5,3,0,5,4
23:07:00,8,0,6,3,5,6,2,4,4
23:08:00,6,8,11,6,2,7,3,7,6
23:09:00,1,4,7,0,4,6,1,3,3
23:10:00,3,4,9,2,8,4,2,5,5
23:11:00,2,1,1,8,5,6,1,3,3
23:12:00,2,3,2,3,3,7,3,3,3
23:13:00,2,2,3,2,3,5,1,2,3
23:14:00,2,5,7,6,4,5,3,5,5
23:15:00,4,5,0,4,4,4,1,3,3
23:16:00,2,2,0,2,2,1,2,2,2
23:17:00,1,2,1,4,3,4,1,2,2
23:18:00,0,5,0,4,7,5,2,3,3
23:19:00,3,3,4,2,3,2,5,3,3
23:20:00,5,4,0,3,5,7,4,3,4
23:21:00,2,2,0,4,7,5,1,3,3
23:22:00,2,3,1,0,6,5,2,2,3
23:23:00,2,0,4,0,5,0,1,2,2
23:24:00,1,0,2,2,4,5,4,2,3
23:25:00,3,2,2,1,7,3,1,3,3
23:26:00,2,1,7,5,3,2,3,4,3
23:27:00,1,2,1,3,7,6,6,3,4
23:28:00,4,4,2,1,6,9,1,3,4
23:29:00,0,0,5,2,0,6,0,1,2
23:30:00,7,2,2,2,7,5,2,4,4
23:31:00,0,1,2,1,4,2,0,2,1
23:32:00,2,1,4,3,6,4,3,3,3
23:33:00,3,1,4,0,3,4,2,2,2
23:34:00,0,4,2,2,3,4,2,2,2
23:35:00,4,1,0,0,6,4,6,2,3
23:36:00,2,2,2,1,1,7,2,2,2
23:37:00,2,2,4,5,1,7,3,3,3
23:38:00,2,0,1,3,3,3,1,2,2
23:39:00,0,1,3,0,2,3,0,1,1
23:40:00,1,2,2,3,5,4,0,3,2
23:41:00,2,0,0,3,6,4,0,2,2
23:42:00,2,1,0,3,4,5,0,2,2
23:43:00,0,4,2,2,6,1,2,3,2
23:44:00,0,3,1,0,7,3,2,2,2
23:45:00,3,2,4,3,5,6,0,3,3
23:46:00,0,1,4,1,3,2,1,2,2
23:47:00,0,1,2,0,2,5,1,1,2
23:48:00,1,3,4,1,5,3,0,3,2
23:49:00,1,1,3,0,2,4,2,1,2
23:50:00,1,2,1,1,3,2,3,2,2
23:51:00,2,1,4,5,3,2,2,3,3
23:52:00,1,0,3,2,2,1,2,2,2
23:53:00,1,1,4,0,2,3,1,2,2
23:54:00,2,4,5,2,1,7,2,3,3
23:55:00,3,1,2,0,4,4,3,2,2
23:56:00,1,1,2,1,5,3,1,2,2
23:57:00,1,1,1,3,3,3,1,2,2
23:58:00,1,1,1,1,5,5,2,2,2
23:59:00,1,2,3,3,3,1,1,2,2
,,,,,,,,,
Totals,,,,,,,,,
12H(7-19),22869,23444,23178,23561,24056,21107,16433,23422,22093
16H(6-22),25888,26877,26633,27084,27487,23558,18045,26794,25082
18H(6-24),26302,27356,27152,27619,28159,24220,18380,27318,25598
24H(0-24),26837,27896,27675,28176,28731,24771,18895,27863,26140
,,,,,,,,,
AM Peak,07:43:00,07:37:00,07:45:00,07:43:00,07:36:00,11:00:00,10:58:00,07:43:00,10:00:00
,2173,2222,2164,2198,2229,2220,2032,2190,1802
,,,,,,,,,
PM Peak,16:39:00,17:00:00,16:30:00,16:57:00,16:53:00,12:03:00,12:28:00,16:50:00,16:50:00
,2267,2388,2307,2307,2404,2322,2114,2320,2055
,,,,,,,,,
,,,,,,,,,
CA Traffic,,,,,,,,,VDA-net R2 13/02/2020
