Site Number,00009177,Unnamed: 2,Site Reference,00009177.1,Unnamed: 5,Unnamed: 6,Lat/Lng.,"52.07513,1.12891",Unnamed: 9
Norwich Road Ipswich,,,,,,,,,
Vehicle Count Report,,,,Week Begin: 16 December 2019,,,Channel:,Total Flow,
,,,,,,,,,
,,,,,,,,,
,2019-12-16 00:00:00,2019-12-17 00:00:00,2019-12-18 00:00:00,2019-12-19 00:00:00,2019-12-20 00:00:00,2019-12-21 00:00:00,2019-12-22 00:00:00,"5-Day
Ave.","7-Day
Ave."
00:00:00,2,1,2,7,5,9,12,3,5
00:01:00,3,2,1,1,2,2,6,2,2
00:02:00,3,3,3,0,3,1,7,2,3
00:03:00,5,3,1,3,2,10,6,3,4
00:04:00,3,0,2,4,2,11,6,2,4
00:05:00,2,4,3,5,5,13,7,4,6
00:06:00,2,4,4,0,1,1,3,2,2
00:07:00,3,2,4,4,3,4,2,3,3
00:08:00,4,1,0,1,2,7,6,2,3
00:09:00,0,1,1,2,3,8,14,1,4
00:10:00,0,1,2,1,4,4,8,2,3
00:11:00,0,3,5,1,3,5,3,2,3
00:12:00,1,2,1,2,5,7,5,2,3
00:13:00,3,4,6,3,4,4,8,4,5
00:14:00,5,2,2,6,2,5,8,3,4
00:15:00,2,1,1,3,1,5,1,2,2
00:16:00,0,3,1,2,0,4,11,1,3
00:17:00,1,1,4,0,7,5,10,3,4
00:18:00,4,1,1,2,7,6,4,3,4
00:19:00,3,1,3,3,1,6,9,2,4
00:20:00,1,3,6,3,4,8,1,3,4
00:21:00,4,2,2,3,3,5,7,3,4
00:22:00,3,2,2,0,1,10,6,2,3
00:23:00,1,0,3,4,2,5,5,2,3
00:24:00,1,6,3,1,5,6,4,3,4
00:25:00,2,2,2,3,2,7,6,2,3
00:26:00,0,1,4,0,2,5,7,1,3
00:27:00,1,2,1,2,0,8,6,1,3
00:28:00,4,3,2,0,4,4,2,3,3
00:29:00,3,1,1,6,3,2,5,3,3
00:30:00,4,2,1,0,6,4,6,3,3
00:31:00,1,1,2,0,3,2,4,1,2
00:32:00,1,3,0,3,2,3,7,2,3
00:33:00,2,2,3,1,3,4,5,2,3
00:34:00,2,0,5,2,5,1,5,3,3
00:35:00,2,4,0,1,5,2,3,2,2
00:36:00,0,2,3,0,1,4,6,1,2
00:37:00,1,1,2,2,3,6,4,2,3
00:38:00,1,0,2,1,3,11,7,1,4
00:39:00,0,1,3,2,4,5,4,2,3
00:40:00,5,4,0,1,2,4,2,2,3
00:41:00,2,2,1,1,2,4,3,2,2
00:42:00,0,0,1,0,3,3,9,1,2
00:43:00,1,0,2,1,1,5,0,1,1
00:44:00,0,1,4,1,4,4,2,2,2
00:45:00,0,3,2,3,4,2,8,2,3
00:46:00,2,0,0,5,5,5,4,2,3
00:47:00,2,2,2,1,1,2,0,2,1
00:48:00,3,1,3,1,4,4,5,2,3
00:49:00,0,3,0,3,1,8,6,1,3
00:50:00,0,0,1,4,4,5,4,2,3
00:51:00,1,1,1,2,2,8,7,1,3
00:52:00,1,2,1,3,2,5,10,2,3
00:53:00,0,4,1,0,2,6,5,1,3
00:54:00,2,1,5,0,2,9,6,2,4
00:55:00,4,0,1,0,2,3,4,1,2
00:56:00,1,1,2,2,3,7,4,2,3
00:57:00,3,1,2,1,1,4,5,2,2
00:58:00,2,1,4,3,1,6,5,2,3
00:59:00,2,2,5,1,5,3,2,3,3
01:00:00,1,2,2,2,5,5,2,2,3
01:01:00,1,2,0,3,4,4,3,2,2
01:02:00,1,2,2,1,2,1,5,2,2
01:03:00,1,1,1,1,4,1,2,2,2
01:04:00,0,1,3,0,3,8,7,1,3
01:05:00,0,3,0,2,2,3,11,1,3
01:06:00,2,2,0,2,0,7,11,1,3
01:07:00,0,2,2,1,1,4,3,1,2
01:08:00,1,2,2,1,3,5,3,2,2
01:09:00,1,1,1,1,3,4,3,1,2
01:10:00,1,1,3,1,0,2,0,1,1
01:11:00,0,4,1,0,5,7,1,2,3
01:12:00,0,1,3,1,3,4,6,2,3
01:13:00,0,1,1,0,1,3,3,1,1
01:14:00,0,0,0,0,6,1,7,1,2
01:15:00,0,1,1,4,4,6,4,2,3
01:16:00,2,0,3,0,3,3,6,2,2
01:17:00,1,0,1,1,2,3,3,1,2
01:18:00,0,0,1,0,1,1,3,0,1
01:19:00,1,3,1,1,1,6,4,1,2
01:20:00,1,0,0,0,2,0,4,1,1
01:21:00,0,0,1,3,1,3,0,1,1
01:22:00,0,0,1,0,2,4,4,1,2
01:23:00,1,3,2,1,1,3,10,2,3
01:24:00,1,1,0,2,1,2,2,1,1
01:25:00,0,2,1,1,4,3,3,2,2
01:26:00,0,2,0,1,2,3,2,1,1
01:27:00,1,1,0,1,3,2,5,1,2
01:28:00,2,3,1,1,1,1,3,2,2
01:29:00,0,0,1,2,0,5,4,1,2
01:30:00,2,1,1,1,3,7,3,2,3
01:31:00,0,0,1,2,2,1,5,1,2
01:32:00,1,1,0,2,1,6,8,1,3
01:33:00,1,0,1,0,1,4,3,1,1
01:34:00,2,1,0,1,1,3,5,1,2
01:35:00,1,1,1,3,1,2,7,1,2
01:36:00,0,2,2,1,4,4,6,2,3
01:37:00,2,0,0,1,1,5,1,1,1
01:38:00,1,0,0,2,1,4,2,1,1
01:39:00,1,1,0,2,1,7,3,1,2
01:40:00,2,2,2,1,2,5,0,2,2
01:41:00,0,0,1,0,0,3,6,0,1
01:42:00,0,1,2,2,2,2,8,1,2
01:43:00,1,0,0,1,1,4,5,1,2
01:44:00,2,0,0,1,1,2,4,1,1
01:45:00,1,0,0,0,0,5,4,0,1
01:46:00,0,0,1,0,1,3,1,0,1
01:47:00,0,3,0,0,2,3,2,1,1
01:48:00,0,0,1,1,4,4,3,1,2
01:49:00,1,1,4,0,2,3,3,2,2
01:50:00,1,4,2,2,1,5,4,2,3
01:51:00,0,0,0,0,0,1,5,0,1
01:52:00,1,1,0,0,3,3,3,1,2
01:53:00,0,0,0,1,1,2,8,0,2
01:54:00,0,1,1,1,1,1,0,1,1
01:55:00,0,0,2,0,2,3,3,1,1
01:56:00,1,0,1,2,3,2,8,1,2
01:57:00,2,0,0,0,1,3,0,1,1
01:58:00,3,0,0,0,0,5,1,1,1
01:59:00,1,1,1,1,0,4,2,1,1
02:00:00,2,0,0,0,3,2,5,1,2
02:01:00,0,1,0,1,2,2,1,1,1
02:02:00,2,1,1,0,3,2,0,1,1
02:03:00,0,2,0,1,0,3,3,1,1
02:04:00,2,1,1,1,0,3,2,1,1
02:05:00,0,2,0,3,1,3,3,1,2
02:06:00,1,3,0,1,1,4,3,1,2
02:07:00,2,1,2,0,1,1,4,1,2
02:08:00,0,0,1,1,3,4,5,1,2
02:09:00,1,1,3,2,3,2,4,2,2
02:10:00,2,4,0,5,0,2,3,2,2
02:11:00,0,1,1,0,1,3,4,1,1
02:12:00,0,3,1,0,4,2,0,2,1
02:13:00,0,1,2,0,1,3,5,1,2
02:14:00,1,0,2,0,0,4,6,1,2
02:15:00,1,5,2,2,1,2,9,2,3
02:16:00,0,0,0,3,1,3,6,1,2
02:17:00,0,0,1,2,1,4,1,1,1
02:18:00,1,2,1,1,2,3,4,1,2
02:19:00,1,0,1,0,3,2,0,1,1
02:20:00,2,3,0,0,1,3,5,1,2
02:21:00,1,1,2,2,0,0,5,1,2
02:22:00,0,1,1,2,2,0,6,1,2
02:23:00,2,0,2,0,2,3,5,1,2
02:24:00,2,1,1,0,2,3,2,1,2
02:25:00,1,0,0,3,1,5,0,1,1
02:26:00,1,1,1,3,1,6,4,1,2
02:27:00,0,0,0,4,0,1,3,1,1
02:28:00,0,1,0,2,2,4,4,1,2
02:29:00,1,0,2,1,2,5,5,1,2
02:30:00,0,1,1,0,1,2,1,1,1
02:31:00,1,1,0,4,1,3,3,1,2
02:32:00,1,2,0,3,3,1,3,2,2
02:33:00,1,0,0,1,0,4,6,0,2
02:34:00,1,0,0,7,1,1,4,2,2
02:35:00,0,1,1,2,2,2,2,1,1
02:36:00,2,1,3,8,1,3,4,3,3
02:37:00,0,0,0,1,3,5,5,1,2
02:38:00,3,2,0,1,4,4,2,2,2
02:39:00,1,1,1,1,0,5,5,1,2
02:40:00,0,0,0,2,2,3,3,1,1
02:41:00,1,2,0,3,1,6,3,1,2
02:42:00,0,1,1,1,1,2,4,1,1
02:43:00,0,0,0,0,1,4,1,0,1
02:44:00,3,0,0,1,3,2,4,1,2
02:45:00,1,0,0,2,0,2,4,1,1
02:46:00,1,1,1,1,2,5,2,1,2
02:47:00,1,0,1,2,3,5,3,1,2
02:48:00,2,0,2,3,1,3,6,2,2
02:49:00,1,0,2,2,0,1,3,1,1
02:50:00,0,0,1,10,2,1,2,3,2
02:51:00,1,0,2,0,0,0,3,1,1
02:52:00,1,1,1,8,2,6,2,3,3
02:53:00,0,3,1,8,0,0,2,2,2
02:54:00,0,2,2,8,3,1,4,3,3
02:55:00,1,2,1,1,2,3,3,1,2
02:56:00,0,2,1,3,0,3,2,1,2
02:57:00,1,0,1,3,2,4,5,1,2
02:58:00,0,0,0,0,0,0,7,0,1
02:59:00,1,1,4,2,0,2,1,2,2
03:00:00,0,4,2,4,0,6,1,2,2
03:01:00,2,0,2,2,1,1,2,1,1
03:02:00,1,0,1,3,1,4,0,1,1
03:03:00,0,3,2,2,0,0,1,1,1
03:04:00,2,2,1,1,3,2,2,2,2
03:05:00,1,0,1,3,1,1,2,1,1
03:06:00,0,1,1,0,2,6,2,1,2
03:07:00,1,1,0,1,0,3,5,1,2
03:08:00,0,1,0,0,1,1,2,0,1
03:09:00,0,0,1,5,2,0,0,2,1
03:10:00,3,1,0,1,2,3,2,1,2
03:11:00,2,0,1,1,0,3,7,1,2
03:12:00,1,0,0,2,0,5,4,1,2
03:13:00,1,0,1,0,2,1,1,1,1
03:14:00,1,2,1,1,2,5,2,1,2
03:15:00,0,0,3,2,0,1,3,1,1
03:16:00,0,4,0,3,1,4,4,2,2
03:17:00,0,0,3,3,1,2,2,1,2
03:18:00,4,0,1,0,0,3,1,1,1
03:19:00,0,1,0,1,1,1,5,1,1
03:20:00,1,4,1,2,2,2,3,2,2
03:21:00,1,2,3,6,2,0,2,3,2
03:22:00,0,1,2,4,0,1,2,1,1
03:23:00,1,2,1,2,1,1,1,1,1
03:24:00,0,2,1,1,0,2,2,1,1
03:25:00,1,1,2,0,2,5,3,1,2
03:26:00,0,1,1,2,3,1,5,1,2
03:27:00,0,1,1,1,1,3,2,1,1
03:28:00,0,1,5,2,1,5,1,2,2
03:29:00,2,0,0,2,1,2,2,1,1
03:30:00,2,1,3,2,5,1,4,3,3
03:31:00,0,1,2,1,2,2,2,1,1
03:32:00,0,1,1,0,0,3,2,0,1
03:33:00,0,2,0,3,2,1,1,1,1
03:34:00,0,4,0,2,1,3,3,1,2
03:35:00,0,0,3,1,0,3,2,1,1
03:36:00,1,4,0,0,4,1,5,2,2
03:37:00,0,0,3,0,0,1,4,1,1
03:38:00,0,1,1,0,1,4,2,1,1
03:39:00,2,1,0,2,2,1,2,1,1
03:40:00,2,0,0,1,1,3,6,1,2
03:41:00,1,0,0,2,1,6,2,1,2
03:42:00,0,2,0,2,0,2,4,1,1
03:43:00,0,0,1,1,0,3,2,0,1
03:44:00,3,1,2,0,0,3,3,1,2
03:45:00,1,0,0,2,1,0,3,1,1
03:46:00,0,3,0,1,0,1,2,1,1
03:47:00,1,1,0,0,2,2,4,1,1
03:48:00,1,0,0,2,1,3,4,1,2
03:49:00,0,3,4,1,1,3,0,2,2
03:50:00,1,1,5,1,0,2,3,2,2
03:51:00,1,5,1,4,0,3,3,2,2
03:52:00,1,1,0,2,3,1,2,1,1
03:53:00,2,1,0,0,1,0,4,1,1
03:54:00,2,0,2,0,1,3,2,1,1
03:55:00,1,1,2,2,4,2,3,2,2
03:56:00,1,0,1,0,1,2,0,1,1
03:57:00,3,2,5,1,3,4,0,3,3
03:58:00,2,0,1,2,2,1,3,1,2
03:59:00,1,1,0,2,2,1,1,1,1
04:00:00,1,1,3,0,1,3,3,1,2
04:01:00,0,0,0,1,3,6,2,1,2
04:02:00,2,3,1,0,3,2,1,2,2
04:03:00,0,0,0,1,3,3,1,1,1
04:04:00,1,0,5,0,2,1,1,2,1
04:05:00,0,2,1,2,3,0,3,2,2
04:06:00,2,3,1,1,3,0,3,2,2
04:07:00,2,2,0,1,1,1,2,1,1
04:08:00,2,4,0,0,1,0,0,1,1
04:09:00,1,0,1,1,0,2,5,1,1
04:10:00,3,3,1,0,1,3,1,2,2
04:11:00,0,1,0,3,0,1,2,1,1
04:12:00,1,0,1,1,1,5,2,1,2
04:13:00,3,3,1,1,2,3,2,2,2
04:14:00,1,3,2,3,1,1,3,2,2
04:15:00,1,0,1,0,1,4,1,1,1
04:16:00,0,1,4,1,3,1,3,2,2
04:17:00,1,0,0,3,0,2,2,1,1
04:18:00,1,1,2,1,1,3,4,1,2
04:19:00,3,2,1,1,0,1,3,1,2
04:20:00,2,0,2,1,3,3,1,2,2
04:21:00,2,0,6,3,2,1,0,3,2
04:22:00,4,3,2,2,2,3,2,3,3
04:23:00,2,0,3,3,3,4,2,2,2
04:24:00,1,1,1,0,2,2,1,1,1
04:25:00,1,1,4,0,0,1,3,1,1
04:26:00,1,1,1,1,0,2,2,1,1
04:27:00,5,5,3,1,4,2,1,4,3
04:28:00,3,1,5,3,1,3,2,3,3
04:29:00,5,2,3,1,4,1,1,3,2
04:30:00,1,1,2,3,1,2,2,2,2
04:31:00,0,7,3,1,5,6,4,3,4
04:32:00,2,5,4,1,2,1,1,3,2
04:33:00,0,1,2,1,3,0,2,1,1
04:34:00,4,1,3,2,2,1,4,2,2
04:35:00,2,2,3,3,2,3,0,2,2
04:36:00,3,2,5,3,3,5,1,3,3
04:37:00,2,1,1,6,4,2,0,3,2
04:38:00,3,4,2,1,1,1,2,2,2
04:39:00,4,2,3,3,1,1,5,3,3
04:40:00,2,5,6,3,3,3,0,4,3
04:41:00,1,9,3,1,2,2,2,3,3
04:42:00,0,3,3,7,6,1,2,4,3
04:43:00,5,3,5,2,4,3,5,4,4
04:44:00,2,4,7,2,6,4,0,4,4
04:45:00,4,3,4,3,5,1,3,4,3
04:46:00,4,4,2,2,2,2,2,3,3
04:47:00,1,4,1,4,5,3,2,3,3
04:48:00,1,5,4,1,3,0,6,3,3
04:49:00,7,3,4,8,4,5,1,5,5
04:50:00,7,3,4,5,5,4,4,5,5
04:51:00,6,2,1,3,4,2,1,3,3
04:52:00,6,8,10,6,5,2,0,7,5
04:53:00,3,2,1,4,4,1,1,3,2
04:54:00,3,2,1,7,6,2,3,4,3
04:55:00,5,3,5,4,9,5,1,5,5
04:56:00,4,6,6,8,4,0,4,6,5
04:57:00,6,10,6,5,4,2,1,6,5
04:58:00,3,6,5,5,4,3,3,5,4
04:59:00,2,7,9,4,3,1,1,5,4
05:00:00,3,5,8,4,6,5,0,5,4
05:01:00,4,5,12,3,2,3,1,5,4
05:02:00,5,5,5,5,4,1,0,5,4
05:03:00,3,2,2,3,3,3,4,3,3
05:04:00,5,11,4,4,7,4,3,6,5
05:05:00,6,9,9,7,4,4,3,7,6
05:06:00,4,2,9,7,4,8,2,5,5
05:07:00,3,9,5,8,3,2,7,6,5
05:08:00,9,9,8,11,10,3,1,9,7
05:09:00,7,9,3,5,8,3,1,6,5
05:10:00,4,5,8,4,4,4,7,5,5
05:11:00,6,6,5,9,7,2,2,7,5
05:12:00,7,6,2,5,2,4,2,4,4
05:13:00,10,3,8,4,5,7,3,6,6
05:14:00,5,5,5,5,4,2,0,5,4
05:15:00,7,6,6,3,6,2,4,6,5
05:16:00,5,7,3,4,9,2,4,6,5
05:17:00,8,8,6,7,8,4,1,7,6
05:18:00,5,5,6,9,6,3,4,6,5
05:19:00,9,10,7,11,8,7,2,9,8
05:20:00,8,5,1,4,5,3,1,5,4
05:21:00,4,6,8,8,9,2,3,7,6
05:22:00,6,0,13,11,13,1,3,9,7
05:23:00,5,4,6,3,8,4,2,5,5
05:24:00,7,8,5,4,11,5,0,7,6
05:25:00,6,5,7,7,7,4,4,6,6
05:26:00,9,10,7,9,7,5,2,8,7
05:27:00,11,5,5,11,6,5,1,8,6
05:28:00,3,6,12,10,5,9,0,7,6
05:29:00,5,7,5,7,7,4,5,6,6
05:30:00,7,13,7,9,7,5,3,9,7
05:31:00,6,5,9,4,7,4,2,6,5
05:32:00,13,3,8,7,4,5,1,7,6
05:33:00,10,7,13,2,6,4,5,8,7
05:34:00,6,16,12,12,9,6,3,11,9
05:35:00,13,9,8,9,4,1,2,9,7
05:36:00,7,8,7,10,10,1,2,8,6
05:37:00,4,18,7,6,6,9,7,8,8
05:38:00,11,10,5,8,13,3,0,9,7
05:39:00,11,8,11,4,13,3,2,9,7
05:40:00,6,7,4,12,13,2,4,8,7
05:41:00,7,9,8,8,6,3,10,8,7
05:42:00,15,12,5,5,8,2,3,9,7
05:43:00,7,8,12,9,6,3,5,8,7
05:44:00,9,14,13,13,8,7,3,11,10
05:45:00,7,10,6,6,11,7,4,8,7
05:46:00,9,6,8,12,6,5,4,8,7
05:47:00,8,8,10,8,6,4,5,8,7
05:48:00,5,7,10,5,7,9,1,7,6
05:49:00,8,9,6,10,11,6,1,9,7
05:50:00,7,10,7,7,4,1,6,7,6
05:51:00,2,8,15,8,5,11,1,8,7
05:52:00,9,12,11,5,6,2,3,9,7
05:53:00,13,11,5,10,8,4,2,9,8
05:54:00,8,9,8,11,9,4,1,9,7
05:55:00,7,9,10,11,11,4,1,10,8
05:56:00,6,11,12,9,12,6,4,10,9
05:57:00,13,5,12,16,5,10,2,10,9
05:58:00,10,13,14,11,13,2,3,12,9
05:59:00,9,8,13,11,7,5,1,10,8
06:00:00,7,9,14,17,6,4,3,11,9
06:01:00,5,13,8,5,11,4,1,8,7
06:02:00,9,10,8,13,5,4,3,9,7
06:03:00,10,5,15,6,9,5,3,9,8
06:04:00,16,8,13,10,5,3,3,10,8
06:05:00,13,12,8,13,7,5,5,11,9
06:06:00,12,12,12,12,12,2,1,12,9
06:07:00,11,6,8,14,5,3,7,9,8
06:08:00,12,13,7,11,8,6,0,10,8
06:09:00,14,15,9,12,13,5,4,13,10
06:10:00,11,16,5,7,10,4,5,10,8
06:11:00,14,10,8,9,7,7,2,10,8
06:12:00,17,11,12,13,8,3,2,12,9
06:13:00,13,10,11,9,12,4,3,11,9
06:14:00,14,15,13,6,13,2,5,12,10
06:15:00,9,9,5,20,3,6,1,9,8
06:16:00,9,11,21,12,13,5,2,13,10
06:17:00,15,8,8,13,11,9,4,11,10
06:18:00,10,12,17,6,5,6,1,10,8
06:19:00,9,11,9,10,7,8,4,9,8
06:20:00,11,18,10,24,11,6,3,15,12
06:21:00,11,12,10,11,4,4,4,10,8
06:22:00,10,7,10,12,11,5,1,10,8
06:23:00,15,16,15,9,9,4,2,13,10
06:24:00,11,16,15,13,12,7,3,13,11
06:25:00,13,17,12,10,7,2,6,12,10
06:26:00,13,10,8,10,11,5,3,10,9
06:27:00,12,16,20,15,10,3,5,15,12
06:28:00,19,13,12,17,12,9,4,15,12
06:29:00,12,5,21,13,17,4,3,14,11
06:30:00,10,13,8,12,10,5,1,11,8
06:31:00,13,14,12,13,10,4,4,12,10
06:32:00,20,13,18,11,12,4,3,15,12
06:33:00,18,11,9,14,17,2,5,14,11
06:34:00,18,14,26,11,17,8,3,17,14
06:35:00,19,14,8,21,10,1,4,14,11
06:36:00,20,16,16,14,14,9,2,16,13
06:37:00,8,12,14,15,19,7,3,14,11
06:38:00,13,18,17,5,15,4,5,14,11
06:39:00,14,19,11,12,19,3,4,15,12
06:40:00,12,12,20,21,14,12,5,16,14
06:41:00,13,20,9,13,8,8,1,13,10
06:42:00,16,15,15,16,17,3,4,16,12
06:43:00,17,13,22,22,14,6,4,18,14
06:44:00,12,19,14,21,16,9,6,16,14
06:45:00,19,16,18,22,16,5,6,18,15
06:46:00,20,15,17,13,21,3,4,17,13
06:47:00,5,23,23,16,8,6,1,15,12
06:48:00,23,17,19,17,16,6,3,18,14
06:49:00,21,23,3,15,10,14,6,14,13
06:50:00,11,16,28,21,20,4,6,19,15
06:51:00,13,22,17,26,16,7,1,19,15
06:52:00,26,16,17,21,9,4,1,18,13
06:53:00,21,10,25,16,11,5,6,17,13
06:54:00,10,18,20,10,8,4,3,13,10
06:55:00,15,19,25,17,9,11,3,17,14
06:56:00,20,21,13,23,21,5,6,20,16
06:57:00,13,13,24,18,10,7,1,16,12
06:58:00,21,23,16,15,22,3,2,19,15
06:59:00,26,24,27,20,21,8,0,24,18
07:00:00,16,10,17,18,14,2,2,15,11
07:01:00,22,8,13,8,16,7,3,13,11
07:02:00,15,28,20,21,13,2,3,19,15
07:03:00,19,19,22,17,16,5,4,19,15
07:04:00,19,25,19,19,19,5,6,20,16
07:05:00,19,25,14,18,26,10,0,20,16
07:06:00,18,18,22,20,10,3,0,18,13
07:07:00,14,16,25,13,23,6,7,18,15
07:08:00,27,15,30,27,15,3,2,23,17
07:09:00,33,20,15,15,18,2,2,20,15
07:10:00,17,38,19,7,16,6,5,19,15
07:11:00,24,19,24,9,17,7,4,19,15
07:12:00,17,21,16,15,23,12,3,18,15
07:13:00,19,21,11,21,17,7,1,18,14
07:14:00,20,16,30,31,16,5,3,23,17
07:15:00,28,19,24,21,22,2,4,23,17
07:16:00,14,25,26,18,16,5,4,20,15
07:17:00,29,30,28,23,17,7,3,25,20
07:18:00,30,29,24,20,18,9,4,24,19
07:19:00,19,17,23,29,18,4,4,21,16
07:20:00,20,13,24,16,14,9,4,17,14
07:21:00,19,19,15,23,17,7,5,19,15
07:22:00,22,23,27,26,31,5,9,26,20
07:23:00,22,20,31,22,25,8,2,24,19
07:24:00,31,26,16,22,24,14,4,24,20
07:25:00,17,29,21,27,21,5,4,23,18
07:26:00,23,35,24,27,33,6,0,28,21
07:27:00,30,25,24,25,9,7,3,23,18
07:28:00,27,20,20,22,36,17,3,25,21
07:29:00,20,30,26,28,12,7,5,23,18
07:30:00,18,20,14,19,24,8,2,19,15
07:31:00,30,36,33,16,38,7,4,31,23
07:32:00,24,31,16,16,21,7,5,22,17
07:33:00,26,12,22,36,20,19,6,23,20
07:34:00,27,20,30,15,28,11,3,24,19
07:35:00,19,23,19,31,20,12,7,22,19
07:36:00,27,33,19,24,23,11,3,25,20
07:37:00,12,22,33,31,22,14,3,24,20
07:38:00,31,28,31,30,24,8,3,29,22
07:39:00,18,21,25,16,17,5,5,19,15
07:40:00,16,23,19,22,22,7,6,20,16
07:41:00,26,18,21,22,23,5,6,22,17
07:42:00,16,25,13,26,28,12,6,22,18
07:43:00,28,29,20,32,19,9,8,26,21
07:44:00,37,21,25,29,19,13,7,26,22
07:45:00,22,23,22,13,25,8,3,21,17
07:46:00,32,21,24,23,31,8,14,26,22
07:47:00,19,28,26,21,12,10,6,21,17
07:48:00,27,16,18,20,7,11,3,18,15
07:49:00,11,24,19,20,29,6,5,21,16
07:50:00,23,17,18,28,28,13,8,23,19
07:51:00,23,16,26,28,22,10,5,23,19
07:52:00,28,25,26,20,29,6,6,26,20
07:53:00,26,24,26,25,29,10,4,26,21
07:54:00,15,26,23,12,25,8,3,20,16
07:55:00,23,24,19,24,24,8,6,23,18
07:56:00,16,31,24,23,21,10,6,23,19
07:57:00,34,17,23,31,27,18,3,26,22
07:58:00,25,21,34,14,19,13,5,23,19
07:59:00,34,9,17,25,29,11,7,23,19
08:00:00,18,32,32,16,26,8,5,25,20
08:01:00,24,15,21,20,23,10,4,21,17
08:02:00,18,19,22,19,25,13,4,21,17
08:03:00,21,23,20,21,19,17,3,21,18
08:04:00,19,21,24,24,27,6,6,23,18
08:05:00,21,19,25,23,23,12,4,22,18
08:06:00,13,22,20,33,22,7,4,22,17
08:07:00,22,22,24,18,33,7,4,24,19
08:08:00,29,28,17,20,18,9,5,22,18
08:09:00,13,27,20,17,24,13,6,20,17
08:10:00,34,14,17,19,26,6,6,22,17
08:11:00,12,27,20,18,20,16,1,19,16
08:12:00,20,19,16,18,25,12,6,20,17
08:13:00,10,21,16,29,25,10,5,20,17
08:14:00,32,17,25,26,19,13,7,24,20
08:15:00,15,22,29,27,8,19,5,20,18
08:16:00,26,20,27,22,24,10,7,24,19
08:17:00,23,29,21,25,22,16,3,24,20
08:18:00,27,14,18,21,21,16,4,20,17
08:19:00,24,25,19,16,19,16,5,21,18
08:20:00,25,18,16,23,18,12,3,20,16
08:21:00,24,21,28,20,13,17,6,21,18
08:22:00,15,12,22,19,23,11,7,18,16
08:23:00,24,27,17,20,28,6,2,23,18
08:24:00,17,18,23,16,18,16,11,18,17
08:25:00,21,32,12,27,17,18,2,22,18
08:26:00,18,21,23,25,23,14,1,22,18
08:27:00,27,18,17,24,16,15,11,20,18
08:28:00,18,21,32,24,22,10,2,23,18
08:29:00,24,15,15,20,18,16,10,18,17
08:30:00,19,19,37,26,19,14,6,24,20
08:31:00,18,13,13,17,27,10,15,18,16
08:32:00,16,23,28,34,15,19,6,23,20
08:33:00,21,19,24,15,20,8,2,20,16
08:34:00,17,20,12,31,16,19,10,19,18
08:35:00,35,19,22,13,15,20,7,21,19
08:36:00,17,20,22,23,29,13,7,22,19
08:37:00,16,22,20,24,19,14,6,20,17
08:38:00,21,20,21,23,21,8,4,21,17
08:39:00,26,34,17,15,18,16,12,22,20
08:40:00,15,9,22,26,13,13,10,17,15
08:41:00,20,26,17,16,18,14,10,19,17
08:42:00,12,11,25,18,11,16,2,15,14
08:43:00,25,30,30,17,25,15,7,25,21
08:44:00,25,20,21,27,20,11,2,23,18
08:45:00,15,20,25,19,17,18,8,19,17
08:46:00,27,20,21,28,24,23,8,24,22
08:47:00,19,19,16,17,21,15,7,18,16
08:48:00,30,18,17,19,20,30,5,21,20
08:49:00,8,19,27,14,19,7,6,17,14
08:50:00,33,18,22,30,28,22,7,26,23
08:51:00,24,17,28,15,25,17,5,22,19
08:52:00,21,14,18,23,25,14,12,20,18
08:53:00,17,19,29,16,17,13,7,20,17
08:54:00,24,14,21,29,21,17,6,22,19
08:55:00,31,19,13,24,24,16,6,22,19
08:56:00,16,17,23,24,18,8,7,20,16
08:57:00,15,19,28,20,24,22,6,21,19
08:58:00,19,18,16,13,19,11,9,17,15
08:59:00,21,21,16,23,19,24,8,20,19
09:00:00,10,16,20,14,34,7,8,19,16
09:01:00,28,28,31,22,23,14,5,26,22
09:02:00,16,15,29,28,20,24,6,22,20
09:03:00,18,20,21,26,25,8,14,22,19
09:04:00,18,22,13,26,16,9,13,19,17
09:05:00,24,17,20,23,34,19,8,24,21
09:06:00,21,16,20,20,16,13,9,19,16
09:07:00,26,19,19,16,21,15,11,20,18
09:08:00,19,26,14,35,29,13,10,25,21
09:09:00,12,22,18,16,22,22,8,18,17
09:10:00,23,18,19,34,18,13,12,22,20
09:11:00,19,21,30,24,19,11,5,23,18
09:12:00,21,12,17,21,17,18,13,18,17
09:13:00,17,14,25,26,21,21,14,21,20
09:14:00,15,10,10,20,28,20,9,17,16
09:15:00,18,14,28,22,18,21,13,20,19
09:16:00,18,15,11,9,22,24,6,15,15
09:17:00,32,22,24,31,17,10,14,25,21
09:18:00,14,24,18,11,16,22,10,17,16
09:19:00,24,25,29,33,22,20,9,27,23
09:20:00,19,26,13,17,15,14,4,18,15
09:21:00,14,28,32,9,23,24,10,21,20
09:22:00,31,30,15,27,18,17,9,24,21
09:23:00,13,20,18,19,26,15,20,19,19
09:24:00,19,24,26,26,12,19,14,21,20
09:25:00,18,26,20,19,28,20,15,22,21
09:26:00,17,25,31,20,18,20,9,22,20
09:27:00,22,20,12,23,14,19,11,18,17
09:28:00,21,22,19,21,19,17,9,20,18
09:29:00,20,26,28,25,20,15,26,24,23
09:30:00,21,19,23,27,33,14,8,25,21
09:31:00,20,28,24,15,22,19,12,22,20
09:32:00,17,19,11,35,11,21,7,19,17
09:33:00,13,22,18,16,27,27,17,19,20
09:34:00,23,20,18,29,15,12,19,21,19
09:35:00,30,14,34,23,35,18,17,27,24
09:36:00,15,21,18,19,14,19,13,17,17
09:37:00,23,19,26,16,25,30,14,22,22
09:38:00,19,13,31,13,16,17,12,18,17
09:39:00,21,36,23,14,21,19,14,23,21
09:40:00,18,18,20,34,23,19,15,23,21
09:41:00,24,28,27,19,14,26,12,22,21
09:42:00,25,15,20,25,23,22,4,22,19
09:43:00,25,21,26,22,12,17,16,21,20
09:44:00,14,19,27,22,23,24,21,21,21
09:45:00,15,18,16,28,26,22,16,21,20
09:46:00,18,23,21,13,22,23,17,19,20
09:47:00,31,10,17,20,24,12,19,20,19
09:48:00,27,27,24,22,24,17,14,25,22
09:49:00,22,33,15,23,12,19,29,21,22
09:50:00,20,12,22,19,36,18,12,22,20
09:51:00,28,18,26,24,20,20,29,23,24
09:52:00,21,19,21,25,16,22,22,20,21
09:53:00,16,31,13,21,22,19,19,21,20
09:54:00,17,24,23,9,19,17,18,18,18
09:55:00,14,11,29,21,21,17,16,19,18
09:56:00,23,26,19,16,13,13,15,19,18
09:57:00,21,16,21,26,26,13,9,22,19
09:58:00,12,22,15,22,28,20,16,20,19
09:59:00,31,15,20,10,19,19,15,19,18
10:00:00,16,22,25,26,32,22,18,24,23
10:01:00,24,14,20,14,17,17,27,18,19
10:02:00,30,29,36,22,15,18,20,26,24
10:03:00,22,31,22,26,27,19,21,26,24
10:04:00,18,20,22,22,18,20,16,20,19
10:05:00,23,29,29,25,22,22,16,26,24
10:06:00,23,16,18,18,26,22,20,20,20
10:07:00,17,18,25,25,16,24,15,20,20
10:08:00,31,12,24,17,19,31,27,21,23
10:09:00,15,24,14,19,23,26,15,19,19
10:10:00,19,16,15,21,26,14,20,19,19
10:11:00,21,16,27,31,22,30,22,23,24
10:12:00,25,29,20,21,18,24,21,23,23
10:13:00,14,23,26,24,23,24,35,22,24
10:14:00,24,13,11,24,26,15,21,20,19
10:15:00,25,23,28,17,17,19,13,22,20
10:16:00,25,21,22,24,30,20,30,24,25
10:17:00,26,20,13,21,18,21,23,20,20
10:18:00,22,10,26,11,16,21,21,17,18
10:19:00,18,16,22,35,25,11,30,23,22
10:20:00,16,16,19,21,27,23,19,20,20
10:21:00,26,27,18,12,16,24,31,20,22
10:22:00,15,19,27,26,27,28,12,23,22
10:23:00,17,20,18,18,24,18,10,19,18
10:24:00,26,25,25,20,24,32,20,24,25
10:25:00,22,14,29,30,16,20,18,22,21
10:26:00,11,17,19,22,32,15,25,20,20
10:27:00,31,19,25,21,19,23,18,23,22
10:28:00,22,24,16,20,18,25,25,20,21
10:29:00,9,17,25,17,25,25,23,19,20
10:30:00,24,25,19,16,20,21,18,21,20
10:31:00,20,10,25,30,19,16,18,21,20
10:32:00,22,20,21,23,25,23,17,22,22
10:33:00,17,32,20,25,20,16,12,23,20
10:34:00,28,22,26,16,23,17,22,23,22
10:35:00,25,13,29,22,22,18,30,22,23
10:36:00,23,25,21,14,20,22,21,21,21
10:37:00,20,23,17,26,27,29,27,23,24
10:38:00,24,17,37,15,30,17,21,25,23
10:39:00,26,20,18,29,18,21,18,22,21
10:40:00,13,28,27,22,33,15,21,25,23
10:41:00,20,21,21,25,21,22,15,22,21
10:42:00,21,15,24,23,20,23,29,21,22
10:43:00,40,24,19,20,16,27,17,24,23
10:44:00,24,17,17,16,25,30,28,20,22
10:45:00,22,32,20,16,24,18,14,23,21
10:46:00,23,19,20,24,20,31,24,21,23
10:47:00,14,17,30,13,22,25,25,19,21
10:48:00,27,25,30,24,29,18,22,27,25
10:49:00,21,27,24,24,19,13,22,23,21
10:50:00,20,20,12,24,21,18,25,19,20
10:51:00,17,20,22,20,21,16,25,20,20
10:52:00,31,16,16,37,24,23,19,25,24
10:53:00,15,34,28,15,15,12,24,21,20
10:54:00,27,11,27,25,26,30,21,23,24
10:55:00,28,28,30,27,24,19,33,27,27
10:56:00,20,18,21,35,8,22,20,20,21
10:57:00,23,16,13,22,21,25,20,19,20
10:58:00,13,26,25,17,21,25,24,20,22
10:59:00,19,26,18,30,19,24,24,22,23
11:00:00,24,21,23,19,28,19,14,23,21
11:01:00,29,27,15,22,18,22,19,22,22
11:02:00,21,19,27,15,28,22,18,22,21
11:03:00,33,21,25,35,26,15,22,28,25
11:04:00,11,34,12,16,22,22,25,19,20
11:05:00,21,14,22,25,23,16,18,21,20
11:06:00,29,15,14,18,21,24,24,19,21
11:07:00,23,12,28,29,25,11,14,23,20
11:08:00,31,23,22,24,24,19,24,25,24
11:09:00,9,29,14,23,15,20,22,18,19
11:10:00,29,28,37,22,29,26,35,29,29
11:11:00,27,19,16,20,17,27,15,20,20
11:12:00,17,18,26,18,17,21,26,19,20
11:13:00,15,29,28,13,26,19,25,22,22
11:14:00,30,22,17,24,28,18,30,24,24
11:15:00,25,26,23,18,26,21,15,24,22
11:16:00,18,23,24,22,21,26,20,22,22
11:17:00,29,21,21,21,30,24,29,24,25
11:18:00,26,27,28,29,20,25,27,26,26
11:19:00,17,10,18,22,24,16,18,18,18
11:20:00,21,28,23,19,20,20,20,22,22
11:21:00,21,26,28,17,27,21,27,24,24
11:22:00,26,12,10,20,21,17,22,18,18
11:23:00,24,25,32,29,15,25,27,25,25
11:24:00,15,21,19,18,23,20,24,19,20
11:25:00,23,11,23,27,26,20,14,22,21
11:26:00,19,27,35,21,26,20,19,26,24
11:27:00,19,33,12,25,30,19,17,24,22
11:28:00,17,19,32,26,21,32,19,23,24
11:29:00,33,23,24,12,22,9,21,23,21
11:30:00,22,29,14,12,27,23,26,21,22
11:31:00,14,20,33,35,27,26,19,26,25
11:32:00,20,15,25,16,28,24,14,21,20
11:33:00,15,33,18,28,22,26,21,23,23
11:34:00,19,20,19,30,23,22,20,22,22
11:35:00,38,22,23,15,16,12,24,23,21
11:36:00,20,24,16,26,22,15,13,22,19
11:37:00,19,17,16,24,20,25,23,19,21
11:38:00,21,28,28,15,24,22,16,23,22
11:39:00,15,31,24,23,25,25,18,24,23
11:40:00,33,21,31,17,18,20,18,24,23
11:41:00,30,19,17,14,25,18,25,21,21
11:42:00,25,24,25,26,21,26,18,24,24
11:43:00,28,28,30,26,27,33,30,28,29
11:44:00,19,23,26,21,17,26,15,21,21
11:45:00,24,23,16,17,30,24,24,22,23
11:46:00,21,25,24,18,18,18,19,21,20
11:47:00,22,19,25,28,23,28,24,23,24
11:48:00,25,20,26,15,22,22,20,22,21
11:49:00,31,32,25,30,15,26,21,27,26
11:50:00,15,13,14,21,23,21,10,17,17
11:51:00,27,29,25,21,27,20,22,26,24
11:52:00,24,18,27,29,22,26,20,24,24
11:53:00,9,18,17,13,23,15,29,16,18
11:54:00,25,19,28,17,24,25,11,23,21
11:55:00,15,30,20,27,16,15,18,22,20
11:56:00,35,17,15,27,19,21,18,23,22
11:57:00,23,17,27,21,19,25,16,21,21
11:58:00,13,18,10,33,19,28,13,19,19
11:59:00,24,25,15,21,29,19,24,23,22
12:00:00,25,18,25,27,28,17,25,25,24
12:01:00,15,22,23,32,18,23,18,22,22
12:02:00,25,32,26,8,21,22,13,22,21
12:03:00,22,22,24,31,21,26,18,24,23
12:04:00,22,22,28,25,13,30,15,22,22
12:05:00,24,29,26,25,31,29,22,27,27
12:06:00,16,22,15,30,19,20,23,20,21
12:07:00,29,17,37,14,28,20,27,25,25
12:08:00,13,29,23,18,21,11,14,21,18
12:09:00,27,12,23,14,17,25,16,19,19
12:10:00,19,18,27,17,23,16,21,21,20
12:11:00,28,24,32,22,24,21,17,26,24
12:12:00,28,25,19,24,26,16,23,24,23
12:13:00,25,23,23,28,18,25,20,23,23
12:14:00,22,22,24,13,14,22,15,19,19
12:15:00,19,25,23,22,30,19,23,24,23
12:16:00,24,20,25,34,21,28,31,25,26
12:17:00,21,27,25,19,30,14,21,24,22
12:18:00,28,17,26,21,16,27,26,22,23
12:19:00,26,23,17,22,27,18,19,23,22
12:20:00,23,25,28,18,27,20,22,24,23
12:21:00,27,26,25,31,23,24,22,26,25
12:22:00,32,28,21,15,18,19,23,23,22
12:23:00,15,26,15,31,31,16,22,24,22
12:24:00,24,15,21,34,18,18,20,22,21
12:25:00,26,25,19,15,33,18,28,24,23
12:26:00,12,25,33,22,16,12,15,22,19
12:27:00,21,17,23,23,18,18,18,20,20
12:28:00,28,25,29,25,23,26,21,26,25
12:29:00,17,18,20,21,22,17,19,20,19
12:30:00,21,15,26,20,18,24,20,20,21
12:31:00,28,18,19,21,31,22,24,23,23
12:32:00,23,28,27,16,22,29,22,23,24
12:33:00,24,27,20,17,22,21,23,22,22
12:34:00,16,25,26,20,23,30,14,22,22
12:35:00,12,27,31,21,22,26,17,23,22
12:36:00,28,18,15,16,23,23,21,20,21
12:37:00,22,27,30,22,25,20,20,25,24
12:38:00,29,13,25,15,21,21,18,21,20
12:39:00,21,18,11,31,23,20,20,21,21
12:40:00,29,25,34,18,20,22,28,25,25
12:41:00,23,23,25,25,26,25,22,24,24
12:42:00,16,15,20,32,21,28,20,21,22
12:43:00,20,31,30,24,17,13,25,24,23
12:44:00,18,19,20,26,19,24,18,20,21
12:45:00,24,24,20,21,18,21,26,21,22
12:46:00,22,28,12,18,38,25,19,24,23
12:47:00,26,26,29,24,22,24,23,25,25
12:48:00,22,17,35,25,19,29,20,24,24
12:49:00,18,21,14,23,15,16,15,18,17
12:50:00,26,24,21,18,16,25,18,21,21
12:51:00,28,23,31,15,14,18,25,22,22
12:52:00,20,23,17,21,25,32,21,21,23
12:53:00,31,14,40,25,25,14,18,27,24
12:54:00,16,20,23,23,24,24,20,21,21
12:55:00,19,29,20,23,33,23,22,25,24
12:56:00,26,18,25,23,20,21,23,22,22
12:57:00,11,22,23,14,11,25,24,16,19
12:58:00,34,29,19,16,17,15,15,23,21
12:59:00,18,23,24,22,22,19,22,22,21
13:00:00,19,20,25,18,15,24,18,19,20
13:01:00,28,21,16,17,24,31,22,21,23
13:02:00,28,20,26,32,17,20,26,25,24
13:03:00,20,29,28,20,20,22,27,23,24
13:04:00,24,14,19,22,21,22,15,20,20
13:05:00,22,33,33,20,13,26,26,24,25
13:06:00,10,19,26,21,17,15,35,19,20
13:07:00,20,18,22,22,17,18,19,20,19
13:08:00,27,26,22,30,14,18,26,24,23
13:09:00,21,26,31,18,20,29,25,23,24
13:10:00,30,13,20,28,28,17,21,24,22
13:11:00,23,24,17,22,22,24,21,22,22
13:12:00,18,19,32,26,17,19,29,22,23
13:13:00,19,27,23,20,12,17,23,20,20
13:14:00,21,20,19,26,18,22,9,21,19
13:15:00,18,15,27,23,23,22,21,21,21
13:16:00,20,15,23,20,25,23,27,21,22
13:17:00,20,27,17,28,13,21,13,21,20
13:18:00,26,27,26,24,25,22,14,26,23
13:19:00,21,30,19,21,19,19,20,22,21
13:20:00,18,18,23,14,15,30,24,18,20
13:21:00,28,26,14,23,20,19,20,22,21
13:22:00,29,30,28,14,9,28,23,22,23
13:23:00,27,16,14,23,19,26,23,20,21
13:24:00,19,20,31,18,15,22,18,21,20
13:25:00,22,32,26,23,16,21,19,24,23
13:26:00,13,25,19,27,19,23,31,21,22
13:27:00,26,34,20,25,25,26,24,26,26
13:28:00,23,11,26,11,19,21,24,18,19
13:29:00,16,20,22,28,12,23,21,20,20
13:30:00,29,22,12,8,23,25,25,19,21
13:31:00,30,22,27,13,14,17,21,21,21
13:32:00,26,22,21,21,25,20,26,23,23
13:33:00,28,31,27,20,13,31,15,24,24
13:34:00,18,23,29,34,22,28,28,25,26
13:35:00,19,27,24,19,25,20,20,23,22
13:36:00,22,15,23,29,15,26,21,21,22
13:37:00,28,20,19,21,12,14,23,20,20
13:38:00,14,18,21,15,26,22,20,19,19
13:39:00,32,31,25,23,14,23,23,25,24
13:40:00,9,22,28,19,20,26,25,20,21
13:41:00,20,34,26,17,14,14,25,22,21
13:42:00,28,19,31,28,14,22,24,24,24
13:43:00,21,21,11,19,26,13,14,20,18
13:44:00,24,19,24,10,19,32,17,19,21
13:45:00,29,18,27,23,16,20,24,23,22
13:46:00,12,26,16,25,24,28,21,21,22
13:47:00,22,27,19,18,24,27,30,22,24
13:48:00,24,25,22,22,21,19,16,23,21
13:49:00,30,18,25,26,22,16,35,24,25
13:50:00,19,24,31,24,18,30,18,23,23
13:51:00,25,18,17,29,26,22,25,23,23
13:52:00,10,27,30,20,27,19,22,23,22
13:53:00,30,25,22,14,16,22,14,21,20
13:54:00,10,18,22,29,23,28,30,20,23
13:55:00,29,12,18,21,17,19,19,19,19
13:56:00,24,27,35,14,17,25,26,23,24
13:57:00,27,17,21,31,26,11,8,24,20
13:58:00,23,19,24,15,11,21,19,18,19
13:59:00,31,17,17,22,20,28,19,21,22
14:00:00,22,30,21,23,27,12,27,25,23
14:01:00,20,20,19,18,20,27,26,19,21
14:02:00,17,21,17,27,28,18,28,22,22
14:03:00,19,21,22,18,25,19,21,21,21
14:04:00,13,22,19,16,22,14,15,18,17
14:05:00,26,21,20,23,27,30,20,23,24
14:06:00,26,27,19,26,18,17,23,23,22
14:07:00,20,24,15,17,11,25,13,17,18
14:08:00,21,21,22,21,9,25,36,19,22
14:09:00,29,27,19,16,15,19,14,21,20
14:10:00,19,34,26,30,20,25,25,26,26
14:11:00,23,14,20,16,16,13,24,18,18
14:12:00,36,23,21,23,26,23,25,26,25
14:13:00,8,30,14,24,25,20,21,20,20
14:14:00,20,13,18,18,14,18,28,17,18
14:15:00,13,23,21,18,25,26,16,20,20
14:16:00,27,26,19,30,27,20,27,26,25
14:17:00,27,18,27,14,16,24,16,20,20
14:18:00,29,18,18,26,26,20,16,23,22
14:19:00,20,25,18,17,21,19,19,20,20
14:20:00,22,13,22,23,24,26,29,21,23
14:21:00,22,22,17,29,17,19,18,21,21
14:22:00,21,12,31,26,17,20,24,21,22
14:23:00,19,24,15,22,16,25,22,19,20
14:24:00,27,27,35,17,23,22,27,26,25
14:25:00,29,17,31,19,21,23,22,23,23
14:26:00,25,18,22,30,20,23,26,23,23
14:27:00,23,26,12,26,22,23,13,22,21
14:28:00,28,26,21,14,30,32,30,24,26
14:29:00,20,17,16,27,18,19,19,20,19
14:30:00,35,18,29,18,21,17,21,24,23
14:31:00,26,27,23,23,23,23,21,24,24
14:32:00,14,23,21,28,17,26,14,21,20
14:33:00,33,33,22,34,23,14,19,29,25
14:34:00,14,25,25,19,12,28,14,19,20
14:35:00,25,12,20,28,22,15,28,21,21
14:36:00,20,21,16,19,19,26,18,19,20
14:37:00,24,26,19,14,8,18,11,18,17
14:38:00,26,20,17,23,21,23,23,21,22
14:39:00,21,25,28,20,15,16,25,22,21
14:40:00,15,15,14,22,5,23,21,14,16
14:41:00,29,25,32,25,19,15,20,26,24
14:42:00,24,27,18,25,14,18,23,22,21
14:43:00,27,16,19,26,18,19,16,21,20
14:44:00,19,27,27,15,21,26,28,22,23
14:45:00,18,22,17,24,16,23,22,19,20
14:46:00,24,23,32,24,28,24,19,26,25
14:47:00,25,24,14,22,25,12,18,22,20
14:48:00,10,23,24,31,18,28,23,21,22
14:49:00,34,25,28,9,25,21,24,24,24
14:50:00,24,15,17,25,8,21,24,18,19
14:51:00,28,25,34,17,13,23,24,23,23
14:52:00,25,16,11,19,6,17,18,15,16
14:53:00,16,25,24,23,10,24,18,20,20
14:54:00,24,24,22,12,17,19,21,20,20
14:55:00,10,20,27,24,16,18,19,19,19
14:56:00,17,32,23,21,24,31,23,23,24
14:57:00,22,25,17,24,18,11,19,21,19
14:58:00,23,19,25,27,30,26,16,25,24
14:59:00,24,26,18,12,22,26,12,20,20
15:00:00,17,18,21,10,19,26,20,17,19
15:01:00,16,23,19,23,26,21,18,21,21
15:02:00,13,18,20,26,19,27,27,19,21
15:03:00,30,24,27,24,24,22,18,26,24
15:04:00,23,22,21,19,9,25,23,19,20
15:05:00,27,9,18,16,19,20,19,18,18
15:06:00,27,22,15,30,21,16,15,23,21
15:07:00,16,13,16,13,26,26,28,17,20
15:08:00,26,35,19,29,21,21,22,26,25
15:09:00,7,15,29,20,21,24,27,18,20
15:10:00,16,23,15,16,20,18,29,18,20
15:11:00,11,9,29,23,23,25,27,19,21
15:12:00,26,18,21,20,22,26,24,21,22
15:13:00,20,15,26,18,23,16,20,20,20
15:14:00,18,20,14,19,20,14,22,18,18
15:15:00,18,24,23,22,27,12,25,23,22
15:16:00,25,17,8,23,19,22,22,18,19
15:17:00,17,26,26,20,20,16,25,22,21
15:18:00,15,14,17,11,25,20,29,16,19
15:19:00,18,23,24,31,19,24,17,23,22
15:20:00,21,24,14,7,21,22,22,17,19
15:21:00,17,30,31,21,15,22,11,23,21
15:22:00,17,15,9,22,19,21,21,16,18
15:23:00,26,29,31,23,17,23,17,25,24
15:24:00,18,9,14,26,20,14,30,17,19
15:25:00,26,20,25,17,18,17,18,21,20
15:26:00,27,10,19,21,8,20,23,17,18
15:27:00,18,26,27,17,18,21,19,21,21
15:28:00,14,21,14,30,12,23,19,18,19
15:29:00,26,24,20,19,31,13,22,24,22
15:30:00,24,16,20,29,20,19,26,22,22
15:31:00,27,19,16,13,33,16,30,22,22
15:32:00,15,21,14,22,12,20,24,17,18
15:33:00,11,21,20,11,18,11,17,16,16
15:34:00,19,15,11,36,13,12,21,19,18
15:35:00,19,21,23,23,23,23,26,22,23
15:36:00,21,21,15,23,16,15,13,19,18
15:37:00,27,36,25,14,25,27,24,25,25
15:38:00,24,8,26,27,23,15,12,22,19
15:39:00,22,27,12,32,19,20,33,22,24
15:40:00,24,22,12,15,14,14,18,17,17
15:41:00,24,34,24,26,20,24,17,26,24
15:42:00,18,12,21,23,10,27,19,17,19
15:43:00,15,26,24,17,26,24,22,22,22
15:44:00,15,13,21,12,14,26,17,15,17
15:45:00,26,27,9,17,24,16,18,21,20
15:46:00,19,21,22,21,18,16,18,20,19
15:47:00,17,33,17,25,16,14,22,22,21
15:48:00,16,21,30,14,22,23,24,21,21
15:49:00,25,20,23,34,15,30,16,23,23
15:50:00,25,15,29,20,27,27,28,23,24
15:51:00,25,31,18,27,13,25,15,23,22
15:52:00,18,15,12,14,32,15,12,18,17
15:53:00,20,24,24,22,13,21,14,21,20
15:54:00,13,17,17,18,23,19,24,18,19
15:55:00,18,27,29,33,23,28,18,26,25
15:56:00,25,21,11,16,22,26,18,19,20
15:57:00,21,28,24,24,16,19,24,23,22
15:58:00,17,28,13,21,10,20,17,18,18
15:59:00,24,18,24,24,24,22,27,23,23
16:00:00,21,25,19,15,11,24,25,18,20
16:01:00,23,20,36,26,18,17,15,25,22
16:02:00,13,16,17,17,17,16,18,16,16
16:03:00,30,20,23,26,26,23,18,25,24
16:04:00,23,28,12,24,15,20,19,20,20
16:05:00,12,27,36,19,18,28,20,22,23
16:06:00,36,23,22,26,11,21,21,24,23
16:07:00,25,23,23,23,13,25,16,21,21
16:08:00,23,32,14,26,18,24,14,23,22
16:09:00,20,20,28,9,7,17,24,17,18
16:10:00,18,25,24,21,26,23,11,23,21
16:11:00,23,25,19,24,23,22,22,23,23
16:12:00,22,13,26,23,24,10,22,22,20
16:13:00,18,27,24,13,17,30,13,20,20
16:14:00,15,24,25,18,25,15,18,21,20
16:15:00,8,15,22,16,25,25,28,17,20
16:16:00,18,15,25,27,24,13,16,22,20
16:17:00,21,28,11,21,23,16,20,21,20
16:18:00,18,21,21,19,25,20,22,21,21
16:19:00,25,33,22,18,24,17,16,24,22
16:20:00,19,21,20,17,21,19,27,20,21
16:21:00,18,11,26,27,28,23,27,22,23
16:22:00,4,16,23,11,16,28,17,14,16
16:23:00,23,23,20,27,19,21,21,22,22
16:24:00,17,19,11,17,18,22,11,16,16
16:25:00,21,22,19,34,14,22,24,22,22
16:26:00,14,20,17,16,27,24,7,19,18
16:27:00,23,21,24,22,20,26,25,22,23
16:28:00,13,17,17,13,26,16,14,17,17
16:29:00,20,20,29,26,15,16,24,22,21
16:30:00,20,17,23,15,29,23,17,21,21
16:31:00,30,26,28,24,12,16,21,24,22
16:32:00,17,10,24,14,20,27,11,17,18
16:33:00,29,32,20,26,26,25,17,27,25
16:34:00,17,20,17,10,24,11,16,18,16
16:35:00,30,29,23,22,23,27,13,25,24
16:36:00,7,13,28,22,14,15,12,17,16
16:37:00,25,24,23,30,23,28,24,25,25
16:38:00,11,19,24,14,19,25,20,17,19
16:39:00,22,29,21,25,21,22,19,24,23
16:40:00,10,18,23,19,20,20,26,18,19
16:41:00,4,13,27,27,8,26,23,16,18
16:42:00,10,27,18,11,21,29,21,17,20
16:43:00,17,27,18,17,26,18,15,21,20
16:44:00,22,25,26,15,20,19,26,22,22
16:45:00,19,16,20,24,22,17,10,20,18
16:46:00,25,23,17,26,22,25,18,23,22
16:47:00,18,16,19,11,31,16,12,19,18
16:48:00,35,28,17,30,15,22,20,25,24
16:49:00,22,28,22,21,27,28,22,24,24
16:50:00,26,33,16,29,13,19,14,23,21
16:51:00,36,12,30,15,26,19,13,24,22
16:52:00,17,19,23,16,15,16,24,18,19
16:53:00,23,21,26,23,29,20,10,24,22
16:54:00,13,21,16,25,22,24,14,19,19
16:55:00,9,20,26,19,19,21,21,19,19
16:56:00,14,9,19,17,25,17,27,17,18
16:57:00,17,20,23,23,24,22,9,21,20
16:58:00,17,10,8,21,21,19,14,15,16
16:59:00,16,32,17,15,23,13,15,21,19
17:00:00,16,15,11,26,21,19,8,18,17
17:01:00,24,26,29,14,23,28,8,23,22
17:02:00,22,16,14,29,16,19,17,19,19
17:03:00,28,30,24,13,22,21,17,23,22
17:04:00,15,16,26,25,8,14,14,18,17
17:05:00,34,36,19,13,25,21,19,25,24
17:06:00,19,19,13,22,17,19,28,18,20
17:07:00,29,28,22,17,27,18,9,25,21
17:08:00,22,13,18,18,20,16,14,18,17
17:09:00,35,23,27,23,19,23,14,25,23
17:10:00,19,19,22,24,19,31,10,21,21
17:11:00,17,31,14,21,22,16,19,21,20
17:12:00,15,13,13,19,30,17,14,18,17
17:13:00,23,17,26,21,22,27,25,22,23
17:14:00,25,14,23,17,28,12,16,21,19
17:15:00,15,28,20,29,19,28,18,22,22
17:16:00,21,12,18,15,15,27,22,16,19
17:17:00,18,12,21,30,13,15,14,19,18
17:18:00,20,17,14,20,19,18,21,18,18
17:19:00,28,14,17,29,26,14,18,23,21
17:20:00,29,28,22,16,28,18,16,25,22
17:21:00,11,21,15,17,14,19,18,16,16
17:22:00,23,24,26,30,22,13,16,25,22
17:23:00,9,22,12,21,23,16,20,17,18
17:24:00,18,24,27,20,27,25,16,23,22
17:25:00,24,18,16,12,22,20,15,18,18
17:26:00,24,20,25,28,25,23,18,24,23
17:27:00,20,12,12,24,11,18,9,16,15
17:28:00,28,18,28,28,27,23,25,26,25
17:29:00,20,12,20,23,22,25,15,19,20
17:30:00,17,33,21,27,25,28,24,25,25
17:31:00,25,27,24,20,20,17,20,23,22
17:32:00,22,22,15,24,23,19,12,21,20
17:33:00,31,17,23,20,24,27,17,23,23
17:34:00,21,23,13,23,20,20,14,20,19
17:35:00,24,17,20,24,20,24,15,21,21
17:36:00,17,25,14,23,22,15,10,20,18
17:37:00,22,22,25,3,17,16,11,18,17
17:38:00,21,16,18,26,15,18,13,19,18
17:39:00,13,22,22,21,24,20,10,20,19
17:40:00,28,17,14,23,22,17,15,21,19
17:41:00,18,25,25,27,22,15,18,23,21
17:42:00,25,20,28,9,31,18,12,23,20
17:43:00,19,21,26,19,16,15,15,20,19
17:44:00,24,17,26,15,23,17,11,21,19
17:45:00,24,23,16,32,21,13,6,23,19
17:46:00,24,18,20,10,20,16,16,18,18
17:47:00,14,17,22,29,22,9,14,21,18
17:48:00,22,22,24,27,20,13,15,23,20
17:49:00,20,20,11,21,24,23,11,19,19
17:50:00,26,29,27,19,18,12,14,24,21
17:51:00,13,15,20,27,20,24,17,19,19
17:52:00,21,18,28,24,25,23,17,23,22
17:53:00,30,33,19,26,16,23,12,25,23
17:54:00,23,19,25,33,23,12,15,25,21
17:55:00,17,26,13,16,28,34,10,20,21
17:56:00,19,23,30,25,22,15,15,24,21
17:57:00,17,21,21,25,25,15,11,22,19
17:58:00,18,25,25,21,18,18,17,21,20
17:59:00,37,17,26,32,14,16,15,25,22
18:00:00,32,25,21,23,33,27,9,27,24
18:01:00,27,20,23,21,21,23,6,22,20
18:02:00,22,19,22,20,20,9,8,21,17
18:03:00,15,24,27,14,25,9,9,21,18
18:04:00,28,13,25,24,11,19,8,20,18
18:05:00,17,24,18,33,17,19,11,22,20
18:06:00,12,21,11,25,23,22,13,18,18
18:07:00,30,19,23,13,24,12,15,22,19
18:08:00,27,23,21,17,18,16,15,21,20
18:09:00,23,29,26,26,30,16,22,27,25
18:10:00,22,12,24,27,31,24,13,23,22
18:11:00,15,21,13,18,15,18,12,16,16
18:12:00,22,19,21,28,20,9,10,22,18
18:13:00,23,15,16,12,20,12,15,17,16
18:14:00,17,20,23,21,16,22,14,19,19
18:15:00,29,26,22,32,22,16,17,26,23
18:16:00,24,12,23,18,23,15,19,20,19
18:17:00,20,37,17,15,21,17,16,22,20
18:18:00,19,19,23,25,34,13,15,24,21
18:19:00,28,19,18,25,19,18,8,22,19
18:20:00,32,25,18,15,20,18,12,22,20
18:21:00,23,21,23,25,21,19,15,23,21
18:22:00,14,17,22,22,21,17,18,19,19
18:23:00,23,24,21,27,22,23,17,23,22
18:24:00,27,13,27,16,17,14,14,20,18
18:25:00,25,15,21,28,19,11,14,22,19
18:26:00,14,27,15,24,18,29,14,20,20
18:27:00,15,19,20,19,22,21,12,19,18
18:28:00,18,15,29,27,23,21,11,22,21
18:29:00,20,17,14,18,14,23,9,17,16
18:30:00,25,15,19,13,20,22,11,18,18
18:31:00,21,16,21,18,29,12,14,21,19
18:32:00,23,23,18,18,12,19,14,19,18
18:33:00,19,16,16,18,29,24,10,20,19
18:34:00,23,21,13,28,16,11,15,20,18
18:35:00,13,31,24,24,22,16,9,23,20
18:36:00,20,21,26,17,27,27,14,22,22
18:37:00,22,14,23,25,22,13,14,21,19
18:38:00,23,18,11,29,17,16,13,20,18
18:39:00,15,19,19,18,28,27,8,20,19
18:40:00,20,20,19,17,24,14,17,20,19
18:41:00,22,17,12,30,18,12,13,20,18
18:42:00,21,29,20,17,24,20,16,22,21
18:43:00,21,19,20,22,22,13,21,21,20
18:44:00,24,17,22,25,27,23,12,23,21
18:45:00,14,15,30,17,23,34,15,20,21
18:46:00,28,17,20,17,18,22,10,20,19
18:47:00,18,21,18,35,24,14,19,23,21
18:48:00,13,15,18,25,18,16,14,18,17
18:49:00,22,18,16,21,31,19,8,22,19
18:50:00,16,24,14,37,20,17,14,22,20
18:51:00,20,29,16,15,27,17,21,21,21
18:52:00,20,22,26,28,36,16,13,26,23
18:53:00,19,23,22,28,22,19,8,23,20
18:54:00,17,11,18,21,10,14,14,15,15
18:55:00,21,27,14,24,25,17,14,22,20
18:56:00,18,18,21,22,18,16,8,19,17
18:57:00,30,14,13,14,24,19,22,19,19
18:58:00,19,18,24,20,14,14,7,19,17
18:59:00,18,15,22,26,25,29,12,21,21
19:00:00,21,14,13,22,25,21,13,19,18
19:01:00,22,26,22,11,26,18,19,21,21
19:02:00,22,24,16,25,22,14,14,22,20
19:03:00,19,16,16,20,16,15,12,17,16
19:04:00,14,12,28,25,22,19,12,20,19
19:05:00,24,21,24,16,18,15,12,21,19
19:06:00,20,18,10,31,14,18,11,19,17
19:07:00,18,19,18,19,11,20,20,17,18
19:08:00,17,22,21,17,20,17,14,19,18
19:09:00,17,13,18,15,28,15,12,18,17
19:10:00,24,20,13,29,20,18,12,21,19
19:11:00,17,17,27,18,15,12,7,19,16
19:12:00,19,17,22,19,20,8,10,19,16
19:13:00,16,15,20,24,14,19,16,18,18
19:14:00,15,19,24,11,20,13,14,18,17
19:15:00,19,22,26,21,22,21,12,22,20
19:16:00,24,22,18,14,20,12,9,20,17
19:17:00,17,21,19,14,26,17,10,19,18
19:18:00,12,14,16,19,23,22,14,17,17
19:19:00,20,19,32,18,11,6,8,20,16
19:20:00,22,23,16,13,12,20,9,17,16
19:21:00,14,18,19,21,28,12,15,20,18
19:22:00,11,14,17,26,12,17,15,16,16
19:23:00,25,28,15,23,29,16,13,24,21
19:24:00,12,13,22,6,22,18,19,15,16
19:25:00,22,23,18,24,18,10,11,21,18
19:26:00,15,16,17,30,16,15,10,19,17
19:27:00,15,14,17,16,19,16,12,16,16
19:28:00,20,16,24,18,14,7,11,18,16
19:29:00,12,11,12,27,26,22,10,18,17
19:30:00,8,21,17,25,20,15,13,18,17
19:31:00,19,16,14,18,22,17,13,18,17
19:32:00,13,13,13,9,14,17,13,12,13
19:33:00,16,16,11,23,18,19,21,17,18
19:34:00,16,17,19,22,13,17,14,17,17
19:35:00,9,15,11,15,20,17,7,14,13
19:36:00,11,15,15,14,20,13,11,15,14
19:37:00,14,20,13,17,9,15,6,15,13
19:38:00,16,19,25,17,24,13,7,20,17
19:39:00,12,13,12,16,21,18,8,15,14
19:40:00,19,15,10,17,21,14,12,16,15
19:41:00,17,15,20,20,12,18,14,17,17
19:42:00,9,9,4,15,12,19,11,10,11
19:43:00,24,16,24,16,19,15,15,20,18
19:44:00,13,13,14,24,18,10,14,16,15
19:45:00,14,13,7,14,12,20,12,12,13
19:46:00,17,18,25,19,18,19,13,19,18
19:47:00,18,17,12,16,12,14,5,15,13
19:48:00,10,16,18,15,14,17,20,15,16
19:49:00,13,14,21,11,15,10,11,15,14
19:50:00,19,15,16,22,21,7,30,19,19
19:51:00,21,31,16,20,14,16,11,20,18
19:52:00,14,7,5,16,20,32,11,12,15
19:53:00,14,16,16,19,19,8,12,17,15
19:54:00,13,15,19,16,20,14,12,17,16
19:55:00,9,14,14,12,25,14,12,15,14
19:56:00,15,8,18,21,24,11,12,17,16
19:57:00,16,15,15,12,14,13,8,14,13
19:58:00,17,19,6,22,9,10,10,15,13
19:59:00,11,15,13,17,17,17,11,15,14
20:00:00,15,16,8,18,17,6,10,15,13
20:01:00,5,15,13,16,22,13,6,14,13
20:02:00,18,15,11,16,9,11,16,14,14
20:03:00,9,13,8,10,9,17,7,10,10
20:04:00,13,17,14,19,25,20,11,18,17
20:05:00,14,18,13,21,23,16,11,18,17
20:06:00,10,14,14,15,19,13,8,14,13
20:07:00,11,15,15,24,15,12,12,16,15
20:08:00,18,13,19,18,11,4,7,16,13
20:09:00,18,15,12,14,11,14,11,14,14
20:10:00,18,18,13,11,14,14,10,15,14
20:11:00,14,12,9,17,15,13,8,13,13
20:12:00,8,19,19,17,13,8,10,15,13
20:13:00,19,19,11,17,16,16,14,16,16
20:14:00,14,17,17,24,11,13,10,17,15
20:15:00,19,18,19,21,12,15,5,18,16
20:16:00,6,15,6,20,13,10,13,12,12
20:17:00,17,17,20,16,16,13,13,17,16
20:18:00,14,14,11,15,13,8,6,13,12
20:19:00,20,15,17,21,12,15,8,17,15
20:20:00,10,13,13,15,11,5,8,12,11
20:21:00,8,19,17,14,17,9,7,15,13
20:22:00,13,12,15,14,11,16,16,13,14
20:23:00,15,18,10,13,12,12,6,14,12
20:24:00,18,13,9,16,19,4,5,15,12
20:25:00,10,14,9,13,13,13,9,12,12
20:26:00,8,11,15,14,15,10,6,13,11
20:27:00,8,20,9,15,16,8,12,14,13
20:28:00,17,12,13,17,13,12,5,14,13
20:29:00,6,6,14,11,6,16,9,9,10
20:30:00,8,7,9,9,14,10,7,9,9
20:31:00,10,11,8,17,10,11,9,11,11
20:32:00,12,8,13,14,10,9,10,11,11
20:33:00,10,11,11,14,21,17,9,13,13
20:34:00,4,12,5,14,10,18,11,9,11
20:35:00,11,14,8,9,16,11,10,12,11
20:36:00,5,11,5,11,14,7,5,9,8
20:37:00,7,17,12,19,13,3,6,14,11
20:38:00,10,10,11,9,12,8,7,10,10
20:39:00,7,7,12,10,13,6,5,10,9
20:40:00,10,9,7,9,14,4,14,10,10
20:41:00,17,10,14,12,12,5,9,13,11
20:42:00,9,6,9,14,9,19,5,9,10
20:43:00,13,13,11,11,11,11,10,12,11
20:44:00,7,8,8,10,16,7,12,10,10
20:45:00,8,5,7,16,11,14,8,9,10
20:46:00,13,8,16,15,9,5,5,12,10
20:47:00,13,13,13,9,18,11,8,13,12
20:48:00,15,9,11,15,16,5,9,13,11
20:49:00,10,10,5,16,9,8,2,10,9
20:50:00,12,12,13,14,17,7,10,14,12
20:51:00,9,13,18,9,11,11,8,12,11
20:52:00,14,9,10,14,8,11,5,11,10
20:53:00,12,10,8,15,20,8,8,13,12
20:54:00,8,22,6,10,13,12,6,12,11
20:55:00,13,14,13,6,16,16,7,12,12
20:56:00,10,15,13,14,4,12,11,11,11
20:57:00,10,9,7,19,9,13,4,11,10
20:58:00,9,13,6,10,14,8,4,10,9
20:59:00,9,4,12,12,15,11,7,10,10
21:00:00,7,13,13,8,10,7,6,10,9
21:01:00,6,7,4,11,14,8,10,8,9
21:02:00,7,10,12,9,13,6,6,10,9
21:03:00,13,9,13,18,11,13,5,13,12
21:04:00,9,11,8,16,12,11,4,11,10
21:05:00,9,7,10,9,11,11,8,9,9
21:06:00,12,11,10,17,13,10,6,13,11
21:07:00,10,10,9,13,16,11,2,12,10
21:08:00,9,8,13,16,7,13,7,11,10
21:09:00,14,13,10,11,14,12,5,12,11
21:10:00,16,10,9,8,8,12,4,10,10
21:11:00,13,11,11,8,10,14,1,11,10
21:12:00,10,12,15,11,8,14,9,11,11
21:13:00,9,18,9,11,13,4,5,12,10
21:14:00,10,11,6,11,13,10,9,10,10
21:15:00,10,12,9,12,12,11,5,11,10
21:16:00,12,5,9,7,11,11,7,9,9
21:17:00,8,14,5,8,5,8,6,8,8
21:18:00,12,12,9,12,9,12,7,11,10
21:19:00,6,9,6,14,13,9,9,10,9
21:20:00,15,4,7,7,6,12,8,8,8
21:21:00,11,8,11,13,12,9,12,11,11
21:22:00,9,10,12,9,15,5,8,11,10
21:23:00,13,13,15,22,7,8,4,14,12
21:24:00,10,2,17,9,10,15,6,10,10
21:25:00,14,6,14,8,9,4,8,10,9
21:26:00,8,9,5,6,12,12,6,8,8
21:27:00,7,6,13,12,9,6,8,9,9
21:28:00,9,9,6,8,13,11,9,9,9
21:29:00,8,9,14,12,13,10,7,11,10
21:30:00,9,9,10,16,7,9,5,10,9
21:31:00,7,6,7,9,7,11,8,7,8
21:32:00,4,13,4,9,11,15,5,8,9
21:33:00,9,6,6,10,7,11,3,8,7
21:34:00,6,7,8,10,12,16,7,9,9
21:35:00,8,5,6,9,8,8,6,7,7
21:36:00,5,4,4,9,10,13,8,6,8
21:37:00,4,6,5,24,6,10,6,9,9
21:38:00,7,10,10,18,5,13,8,10,10
21:39:00,7,13,11,11,9,7,15,10,10
21:40:00,9,5,9,12,9,7,4,9,8
21:41:00,6,9,8,9,5,10,8,7,8
21:42:00,6,5,8,6,19,7,3,9,8
21:43:00,11,11,9,8,6,13,12,9,10
21:44:00,6,8,12,15,13,3,5,11,9
21:45:00,18,7,12,14,4,4,7,11,9
21:46:00,8,7,6,5,13,14,7,8,9
21:47:00,10,7,9,7,5,14,3,8,8
21:48:00,7,10,11,9,10,7,3,9,8
21:49:00,6,9,8,11,10,7,9,9,9
21:50:00,12,7,6,12,8,7,5,9,8
21:51:00,14,5,8,15,11,9,1,11,9
21:52:00,7,6,4,13,9,6,11,8,8
21:53:00,9,9,10,7,12,17,2,9,9
21:54:00,7,6,15,14,11,6,5,11,9
21:55:00,10,13,5,2,8,12,1,8,7
21:56:00,7,8,5,7,5,8,3,6,6
21:57:00,8,3,9,14,8,13,8,8,9
21:58:00,6,3,6,3,5,6,5,5,5
21:59:00,7,9,7,5,9,12,4,7,8
22:00:00,11,12,9,6,11,8,11,10,10
22:01:00,5,8,9,7,8,4,6,7,7
22:02:00,5,6,7,6,6,8,1,6,6
22:03:00,10,5,7,14,10,10,2,9,8
22:04:00,5,9,7,9,17,7,6,9,9
22:05:00,6,8,8,14,4,13,5,8,8
22:06:00,11,7,7,7,11,11,2,9,8
22:07:00,11,6,12,9,8,14,4,9,9
22:08:00,7,2,5,7,8,9,7,6,6
22:09:00,6,10,12,8,14,7,5,10,9
22:10:00,9,7,7,8,8,2,9,8,7
22:11:00,4,10,13,8,12,11,8,9,9
22:12:00,9,10,5,7,7,9,6,8,8
22:13:00,7,5,5,10,11,8,9,8,8
22:14:00,9,8,9,12,16,7,7,11,10
22:15:00,4,5,5,10,14,13,5,8,8
22:16:00,15,8,11,9,10,7,8,11,10
22:17:00,12,6,14,10,15,14,7,11,11
22:18:00,5,8,13,10,6,12,6,8,9
22:19:00,16,5,4,5,9,9,6,8,8
22:20:00,7,11,13,14,12,12,7,11,11
22:21:00,8,4,5,10,9,11,6,7,8
22:22:00,13,9,10,13,10,8,8,11,10
22:23:00,9,4,11,16,3,4,5,9,7
22:24:00,9,3,9,13,11,8,10,9,9
22:25:00,6,12,7,7,8,3,6,8,7
22:26:00,7,6,8,5,8,5,6,7,6
22:27:00,7,5,4,9,13,11,3,8,7
22:28:00,3,8,9,7,10,14,6,7,8
22:29:00,8,14,7,9,9,9,10,9,9
22:30:00,4,7,4,2,13,8,4,6,6
22:31:00,7,6,6,10,6,4,3,7,6
22:32:00,12,7,10,7,4,11,10,8,9
22:33:00,11,5,6,8,8,7,4,8,7
22:34:00,7,9,8,8,9,3,3,8,7
22:35:00,2,8,8,10,13,7,9,8,8
22:36:00,8,9,6,6,6,15,0,7,7
22:37:00,6,11,10,9,10,6,4,9,8
22:38:00,6,11,7,7,8,5,7,8,7
22:39:00,9,8,6,8,8,11,2,8,7
22:40:00,6,7,2,9,13,9,10,7,8
22:41:00,6,5,6,6,13,9,2,7,7
22:42:00,7,9,5,4,10,8,4,7,7
22:43:00,7,4,7,6,10,9,1,7,6
22:44:00,4,7,4,8,4,12,4,5,6
22:45:00,5,5,5,10,11,3,0,7,6
22:46:00,4,3,11,4,7,10,9,6,7
22:47:00,7,7,5,9,9,9,4,7,7
22:48:00,5,10,9,9,5,10,1,8,7
22:49:00,7,8,11,13,10,7,6,10,9
22:50:00,9,7,3,9,10,11,5,8,8
22:51:00,9,6,2,7,19,7,6,9,8
22:52:00,4,7,10,10,12,6,11,9,9
22:53:00,5,7,11,7,7,10,8,7,8
22:54:00,3,8,13,5,6,5,5,7,6
22:55:00,8,4,12,7,15,12,6,9,9
22:56:00,4,8,3,11,3,7,3,6,6
22:57:00,3,8,13,6,5,6,2,7,6
22:58:00,9,7,5,4,11,8,5,7,7
22:59:00,2,7,9,6,10,14,8,7,8
23:00:00,8,5,8,5,8,14,3,7,7
23:01:00,7,2,8,7,13,7,4,7,7
23:02:00,9,5,7,1,12,8,6,7,7
23:03:00,1,11,3,10,4,7,5,6,6
23:04:00,8,3,4,7,7,9,7,6,6
23:05:00,3,6,6,4,7,6,10,5,6
23:06:00,10,3,5,5,11,5,2,7,6
23:07:00,1,4,7,6,13,5,4,6,6
23:08:00,3,6,14,10,8,10,2,8,8
23:09:00,4,5,2,10,5,7,0,5,5
23:10:00,5,12,7,10,11,6,5,9,8
23:11:00,2,7,8,7,13,10,4,7,7
23:12:00,6,5,10,7,13,14,7,8,9
23:13:00,1,6,3,4,4,10,6,4,5
23:14:00,5,5,4,7,10,10,3,6,6
23:15:00,4,6,6,12,8,6,4,7,7
23:16:00,4,4,5,6,7,10,3,5,6
23:17:00,7,2,4,7,15,9,0,7,6
23:18:00,4,5,5,7,12,7,4,7,6
23:19:00,8,5,7,3,6,6,9,6,6
23:20:00,5,8,11,5,10,10,3,8,7
23:21:00,4,6,5,9,11,7,5,7,7
23:22:00,4,4,8,9,5,6,5,6,6
23:23:00,2,8,1,5,5,13,3,4,5
23:24:00,0,2,2,7,12,7,2,5,5
23:25:00,3,3,2,10,5,7,4,5,5
23:26:00,1,2,1,4,14,9,2,4,5
23:27:00,8,7,8,1,11,11,1,7,7
23:28:00,8,3,5,9,4,12,4,6,6
23:29:00,2,3,4,6,10,10,3,5,5
23:30:00,2,5,9,5,11,7,6,6,6
23:31:00,3,4,4,6,3,9,2,4,4
23:32:00,6,2,4,4,7,9,0,5,5
23:33:00,1,5,4,6,9,16,3,5,6
23:34:00,5,4,7,4,11,5,1,6,5
23:35:00,3,4,3,5,9,5,2,5,4
23:36:00,3,3,8,4,5,5,6,5,5
23:37:00,2,6,3,7,4,6,2,4,4
23:38:00,3,1,2,5,10,3,4,4,4
23:39:00,2,1,5,3,12,8,3,5,5
23:40:00,5,3,5,3,9,13,0,5,5
23:41:00,6,8,3,5,3,7,3,5,5
23:42:00,4,4,6,7,13,3,4,7,6
23:43:00,5,2,5,2,6,11,0,4,4
23:44:00,6,6,3,2,8,9,2,5,5
23:45:00,2,2,3,5,7,6,4,4,4
23:46:00,6,4,4,5,6,1,1,5,4
23:47:00,2,1,2,9,2,10,3,3,4
23:48:00,3,3,5,9,6,10,3,5,6
23:49:00,0,2,3,4,11,3,3,4,4
23:50:00,2,1,2,4,10,10,1,4,4
23:51:00,2,2,4,6,12,7,5,5,5
23:52:00,0,5,5,6,8,8,5,5,5
23:53:00,6,1,4,3,7,7,4,4,5
23:54:00,1,3,3,7,13,6,0,5,5
23:55:00,2,3,1,3,11,8,1,4,4
23:56:00,3,3,7,4,7,9,6,5,6
23:57:00,2,1,4,4,5,8,5,3,4
23:58:00,1,2,5,5,2,7,1,3,3
23:59:00,4,1,6,6,5,8,5,4,5
,,,,,,,,,
Totals,,,,,,,,,
12H(7-19),15477,15400,15619,15574,15119,13623,11848,15438,14666
16H(6-22),18547,18546,18733,19046,18334,16124,13673,18641,17572
18H(6-24),19206,19227,19501,19898,19413,17123,14211,19449,18368
24H(0-24),20044,20155,20458,20893,20451,18340,15415,20400,19394
,,,,,,,,,
AM Peak,07:09:00,07:10:00,07:06:00,07:19:00,07:21:00,10:54:00,10:25:00,07:17:00,10:00:00
,1379,1387,1374,1375,1380,1304,1325,1368,1301
,,,,,,,,,
PM Peak,13:55:00,13:17:00,12:07:00,17:51:00,12:00:00,12:31:00,13:26:00,12:00:00,12:11:00
,1385,1377,1443,1358,1327,1350,1335,1357,1335
,,,,,,,,,
,,,,,,,,,
CA Traffic,,,,,,,,,VDA-net R2 16/01/2020
