Site Number,00000189,Unnamed: 2,Site Reference,00000189.1,Unnamed: 5,Unnamed: 6,Lat/Lng.,"52.07143,1.15935",Unnamed: 9
"Valley Road, Ipswich",,,,,,,,,
Vehicle Count Report,,,,Week Begin: 03 February 2020,,,Channel:,Total Flow,
,,,,,,,,,
,,,,,,,,,
,2020-02-03 00:00:00,2020-02-04 00:00:00,2020-02-05 00:00:00,2020-02-06 00:00:00,2020-02-07 00:00:00,2020-02-08 00:00:00,2020-02-09 00:00:00,"5-Day
Ave.","7-Day
Ave."
00:00:00,1,1,1,2,2,1,1,1,1
00:01:00,1,2,0,0,2,4,7,1,2
00:02:00,4,3,2,0,2,3,3,2,2
00:03:00,2,1,4,4,2,2,0,3,2
00:04:00,4,1,0,3,0,3,4,2,2
00:05:00,1,4,3,0,2,3,5,2,3
00:06:00,1,0,1,2,1,2,5,1,2
00:07:00,0,3,1,4,1,0,6,2,2
00:08:00,4,2,1,2,0,3,3,2,2
00:09:00,1,0,0,2,2,4,9,1,3
00:10:00,2,3,4,0,2,4,3,2,3
00:11:00,3,5,1,2,3,3,5,3,3
00:12:00,0,0,1,1,5,5,6,1,3
00:13:00,0,2,2,3,1,0,8,2,2
00:14:00,1,1,5,3,0,3,4,2,2
00:15:00,0,2,0,2,1,1,3,1,1
00:16:00,1,1,5,3,2,1,7,2,3
00:17:00,1,1,0,2,3,0,6,1,2
00:18:00,1,1,0,1,2,1,6,1,2
00:19:00,2,2,1,1,2,2,7,2,2
00:20:00,3,4,0,0,0,0,4,1,2
00:21:00,3,3,2,3,3,2,2,3,3
00:22:00,6,1,0,3,1,2,6,2,3
00:23:00,1,4,1,2,3,2,5,2,3
00:24:00,0,0,3,1,2,8,2,1,2
00:25:00,2,1,1,1,3,3,5,2,2
00:26:00,0,1,0,0,2,3,4,1,1
00:27:00,1,3,3,0,0,6,6,1,3
00:28:00,1,0,1,1,0,1,4,1,1
00:29:00,0,1,3,2,1,2,5,1,2
00:30:00,3,0,0,2,0,3,4,1,2
00:31:00,0,3,1,2,0,2,2,1,1
00:32:00,1,1,1,0,1,7,4,1,2
00:33:00,2,0,0,1,2,1,5,1,2
00:34:00,1,0,0,2,0,3,3,1,1
00:35:00,0,0,2,2,2,3,3,1,2
00:36:00,1,4,1,1,1,1,1,2,1
00:37:00,0,0,2,1,0,2,7,1,2
00:38:00,2,2,1,1,1,3,1,1,2
00:39:00,0,2,2,1,0,0,2,1,1
00:40:00,0,0,0,2,1,1,3,1,1
00:41:00,1,0,1,1,0,3,3,1,1
00:42:00,0,2,1,4,4,3,2,2,2
00:43:00,1,0,1,3,1,1,1,1,1
00:44:00,0,0,1,1,1,1,4,1,1
00:45:00,0,2,0,1,0,1,7,1,2
00:46:00,1,0,0,0,2,0,3,1,1
00:47:00,0,2,2,3,3,1,4,2,2
00:48:00,0,1,2,1,2,1,3,1,1
00:49:00,4,2,0,1,1,2,3,2,2
00:50:00,2,0,2,1,1,4,4,1,2
00:51:00,1,1,1,2,4,3,4,2,2
00:52:00,3,0,1,2,0,0,7,1,2
00:53:00,0,1,1,1,0,2,1,1,1
00:54:00,2,0,0,0,1,1,2,1,1
00:55:00,1,0,2,1,0,3,1,1,1
00:56:00,1,3,1,1,2,0,5,2,2
00:57:00,0,0,1,0,0,2,3,0,1
00:58:00,1,1,0,2,1,2,2,1,1
00:59:00,1,0,1,2,2,0,6,1,2
01:00:00,0,0,0,2,0,2,2,0,1
01:01:00,0,0,0,1,1,1,1,0,1
01:02:00,0,2,1,1,0,2,0,1,1
01:03:00,0,2,2,0,0,0,1,1,1
01:04:00,0,0,2,0,1,3,3,1,1
01:05:00,0,0,4,2,1,3,1,1,2
01:06:00,0,1,0,1,0,2,0,0,1
01:07:00,1,0,0,0,0,3,0,0,1
01:08:00,1,3,2,1,1,0,1,2,1
01:09:00,1,2,0,1,2,0,0,1,1
01:10:00,0,1,0,1,1,0,2,1,1
01:11:00,3,1,0,1,1,1,2,1,1
01:12:00,1,1,1,3,2,3,2,2,2
01:13:00,0,0,0,0,3,1,1,1,1
01:14:00,2,0,1,1,0,1,2,1,1
01:15:00,0,0,0,0,2,2,3,0,1
01:16:00,0,2,1,0,2,2,0,1,1
01:17:00,1,0,0,0,1,1,3,0,1
01:18:00,0,0,1,1,0,3,1,0,1
01:19:00,3,1,0,0,0,3,2,1,1
01:20:00,0,1,0,1,0,0,0,0,0
01:21:00,1,0,0,1,0,3,1,0,1
01:22:00,0,0,0,2,0,1,0,0,0
01:23:00,0,0,1,0,0,0,1,0,0
01:24:00,0,0,0,0,2,3,3,0,1
01:25:00,1,0,1,1,0,1,4,1,1
01:26:00,0,0,0,1,0,0,2,0,0
01:27:00,0,0,0,0,0,0,3,0,0
01:28:00,1,2,0,0,0,0,2,1,1
01:29:00,0,0,1,1,0,1,2,0,1
01:30:00,1,1,1,1,2,0,1,1,1
01:31:00,0,0,0,0,0,1,2,0,0
01:32:00,0,0,1,3,2,1,2,1,1
01:33:00,1,2,0,0,0,1,1,1,1
01:34:00,0,1,1,0,0,2,0,0,1
01:35:00,0,1,0,3,1,1,3,1,1
01:36:00,0,1,1,0,2,0,1,1,1
01:37:00,1,0,0,0,1,0,2,0,1
01:38:00,1,1,0,1,0,0,2,1,1
01:39:00,0,1,1,0,1,1,1,1,1
01:40:00,2,1,0,1,0,0,1,1,1
01:41:00,2,0,1,0,0,3,1,1,1
01:42:00,0,0,1,2,0,1,0,1,1
01:43:00,0,1,0,1,1,0,2,1,1
01:44:00,0,1,1,1,0,0,1,1,1
01:45:00,1,0,0,1,1,1,2,1,1
01:46:00,1,0,1,0,0,0,0,0,0
01:47:00,1,0,0,1,1,0,3,1,1
01:48:00,1,1,4,1,0,0,1,1,1
01:49:00,1,0,0,1,2,0,0,1,1
01:50:00,0,1,0,0,1,0,2,0,1
01:51:00,0,0,0,0,0,0,1,0,0
01:52:00,0,0,0,0,0,1,1,0,0
01:53:00,0,0,0,0,0,0,0,0,0
01:54:00,0,0,0,0,0,1,1,0,0
01:55:00,0,1,1,2,5,4,1,2,2
01:56:00,0,0,0,0,1,0,0,0,0
01:57:00,1,2,0,1,0,0,2,1,1
01:58:00,2,0,0,0,1,0,1,1,1
01:59:00,0,0,2,0,1,3,2,1,1
02:00:00,0,0,1,0,1,1,0,0,0
02:01:00,1,2,0,1,0,1,1,1,1
02:02:00,0,0,0,1,1,1,1,0,1
02:03:00,0,0,0,0,0,0,1,0,0
02:04:00,0,0,0,0,0,1,2,0,0
02:05:00,0,0,0,0,1,1,1,0,0
02:06:00,0,0,1,0,0,2,1,0,1
02:07:00,0,0,0,0,0,1,0,0,0
02:08:00,0,1,0,0,2,0,1,1,1
02:09:00,0,2,0,0,1,0,3,1,1
02:10:00,0,0,1,1,0,1,0,0,0
02:11:00,0,0,2,0,0,0,1,0,0
02:12:00,0,2,0,0,1,0,0,1,0
02:13:00,0,0,0,4,0,0,1,1,1
02:14:00,0,1,1,1,1,4,3,1,2
02:15:00,1,0,2,1,0,0,1,1,1
02:16:00,0,1,1,1,0,0,0,1,0
02:17:00,1,1,0,0,1,1,1,1,1
02:18:00,0,1,0,0,0,1,0,0,0
02:19:00,0,0,1,0,2,0,1,1,1
02:20:00,0,1,1,0,1,0,0,1,0
02:21:00,2,0,0,1,1,0,2,1,1
02:22:00,0,2,3,0,0,2,0,1,1
02:23:00,1,1,0,0,0,1,2,0,1
02:24:00,0,0,2,1,2,1,2,1,1
02:25:00,0,0,0,1,0,0,0,0,0
02:26:00,0,0,1,0,0,1,0,0,0
02:27:00,1,1,0,1,0,1,2,1,1
02:28:00,0,0,0,0,2,1,1,0,1
02:29:00,1,1,0,2,0,1,0,1,1
02:30:00,1,0,0,0,1,1,1,0,1
02:31:00,3,0,1,0,0,0,1,1,1
02:32:00,2,0,0,1,1,1,1,1,1
02:33:00,1,1,0,0,0,2,1,0,1
02:34:00,1,0,0,0,0,0,1,0,0
02:35:00,3,2,1,0,0,0,1,1,1
02:36:00,0,1,1,0,0,1,0,0,0
02:37:00,0,1,0,0,1,0,0,0,0
02:38:00,0,0,0,1,1,0,0,0,0
02:39:00,0,0,1,2,0,1,1,1,1
02:40:00,0,2,0,0,1,2,1,1,1
02:41:00,0,0,1,0,2,0,1,1,1
02:42:00,0,0,0,0,0,0,1,0,0
02:43:00,0,0,0,0,0,0,1,0,0
02:44:00,0,0,0,1,1,0,2,0,1
02:45:00,0,0,0,0,0,0,1,0,0
02:46:00,0,1,2,0,1,1,2,1,1
02:47:00,0,0,1,0,0,1,0,0,0
02:48:00,0,0,1,0,0,1,2,0,1
02:49:00,0,0,1,1,1,1,0,1,1
02:50:00,0,2,0,0,0,0,1,0,0
02:51:00,0,0,0,1,1,0,2,0,1
02:52:00,0,1,0,0,2,1,1,1,1
02:53:00,1,1,0,0,0,1,1,0,1
02:54:00,0,0,0,0,1,0,1,0,0
02:55:00,0,2,1,1,0,0,1,1,1
02:56:00,0,1,0,0,0,2,2,0,1
02:57:00,1,0,0,0,0,0,0,0,0
02:58:00,0,0,0,0,0,1,2,0,0
02:59:00,0,0,0,1,0,0,0,0,0
03:00:00,0,0,1,0,0,1,0,0,0
03:01:00,0,0,0,0,1,2,1,0,1
03:02:00,2,0,1,1,0,2,0,1,1
03:03:00,1,1,0,0,0,0,0,0,0
03:04:00,1,1,2,4,0,1,1,2,1
03:05:00,0,1,0,0,1,2,3,0,1
03:06:00,0,0,0,1,0,1,2,0,1
03:07:00,0,2,0,0,0,0,0,0,0
03:08:00,0,2,0,1,1,0,1,1,1
03:09:00,0,1,0,0,0,1,2,0,1
03:10:00,2,1,0,1,0,2,1,1,1
03:11:00,0,1,1,0,1,1,2,1,1
03:12:00,0,0,1,0,0,1,0,0,0
03:13:00,1,0,0,1,0,0,0,0,0
03:14:00,0,0,1,0,0,0,0,0,0
03:15:00,0,1,0,2,0,0,0,1,0
03:16:00,0,0,0,1,0,0,2,0,0
03:17:00,0,0,0,1,1,1,3,0,1
03:18:00,2,1,1,0,0,0,0,1,1
03:19:00,1,0,1,2,1,0,4,1,1
03:20:00,1,0,1,0,0,2,1,0,1
03:21:00,1,1,0,3,1,1,1,1,1
03:22:00,0,2,0,1,1,2,0,1,1
03:23:00,0,1,0,0,0,0,2,0,0
03:24:00,0,1,0,1,0,1,1,0,1
03:25:00,1,1,2,1,1,1,0,1,1
03:26:00,1,0,0,1,0,0,0,0,0
03:27:00,1,1,1,0,1,0,3,1,1
03:28:00,0,3,0,0,1,1,1,1,1
03:29:00,0,0,1,1,0,1,1,0,1
03:30:00,2,0,1,0,3,0,2,1,1
03:31:00,0,2,1,3,2,0,2,2,1
03:32:00,0,0,1,1,1,3,2,1,1
03:33:00,1,0,0,0,2,2,0,1,1
03:34:00,1,0,2,0,0,1,3,1,1
03:35:00,0,0,1,1,3,0,2,1,1
03:36:00,1,2,0,2,0,0,1,1,1
03:37:00,1,1,0,1,1,0,0,1,1
03:38:00,1,1,0,1,1,0,0,1,1
03:39:00,0,0,0,0,1,0,1,0,0
03:40:00,0,1,4,0,0,2,0,1,1
03:41:00,1,1,0,0,1,2,0,1,1
03:42:00,1,0,0,0,0,0,3,0,1
03:43:00,0,0,0,1,0,0,0,0,0
03:44:00,0,0,0,0,0,2,1,0,0
03:45:00,0,1,0,0,2,1,0,1,1
03:46:00,0,1,1,2,0,0,0,1,1
03:47:00,1,0,0,0,2,0,0,1,0
03:48:00,1,0,3,0,0,0,0,1,1
03:49:00,0,2,1,0,1,2,3,1,1
03:50:00,0,1,0,1,0,0,3,0,1
03:51:00,0,0,0,0,1,0,2,0,0
03:52:00,2,1,0,2,0,0,0,1,1
03:53:00,0,0,0,1,1,0,0,0,0
03:54:00,3,1,1,1,1,1,1,1,1
03:55:00,0,0,1,0,0,0,1,0,0
03:56:00,0,0,0,0,1,0,0,0,0
03:57:00,1,0,0,0,2,0,1,1,1
03:58:00,0,0,1,0,1,0,1,0,0
03:59:00,0,3,0,2,0,3,1,1,1
04:00:00,1,0,1,0,1,1,3,1,1
04:01:00,1,1,0,3,0,1,0,1,1
04:02:00,2,0,1,2,0,1,1,1,1
04:03:00,0,0,0,2,2,1,0,1,1
04:04:00,0,0,0,0,3,0,1,1,1
04:05:00,0,2,2,1,2,0,2,1,1
04:06:00,3,0,0,1,2,1,0,1,1
04:07:00,1,3,0,0,0,1,1,1,1
04:08:00,0,1,0,1,0,1,0,0,0
04:09:00,0,0,2,0,1,0,1,1,1
04:10:00,1,0,1,1,0,0,3,1,1
04:11:00,0,1,0,0,2,0,0,1,0
04:12:00,0,1,1,0,2,0,1,1,1
04:13:00,1,0,0,2,2,1,0,1,1
04:14:00,0,0,1,2,1,3,2,1,1
04:15:00,0,0,1,0,0,2,1,0,1
04:16:00,3,1,3,2,1,1,5,2,2
04:17:00,1,1,1,1,2,0,0,1,1
04:18:00,1,0,0,0,1,2,0,0,1
04:19:00,0,6,2,0,0,2,2,2,2
04:20:00,1,0,0,1,3,1,0,1,1
04:21:00,1,2,1,2,2,0,1,2,1
04:22:00,2,1,1,1,2,0,2,1,1
04:23:00,2,1,3,2,1,2,0,2,2
04:24:00,0,1,0,3,1,1,3,1,1
04:25:00,0,1,2,1,0,0,4,1,1
04:26:00,2,2,2,3,2,2,0,2,2
04:27:00,0,1,0,5,0,0,2,1,1
04:28:00,2,1,2,2,2,3,2,2,2
04:29:00,1,1,4,4,0,1,0,2,2
04:30:00,2,1,0,1,1,1,1,1,1
04:31:00,0,0,1,0,0,1,1,0,0
04:32:00,0,1,0,3,0,1,2,1,1
04:33:00,4,2,0,1,0,1,0,1,1
04:34:00,3,1,2,0,3,0,2,2,2
04:35:00,1,2,3,0,1,1,3,1,2
04:36:00,3,1,2,0,3,1,1,2,2
04:37:00,3,2,4,1,2,1,1,2,2
04:38:00,1,3,0,3,1,1,0,2,1
04:39:00,2,2,0,1,2,0,1,1,1
04:40:00,0,1,2,1,3,0,2,1,1
04:41:00,3,1,0,3,0,0,1,1,1
04:42:00,2,0,1,2,2,0,4,1,2
04:43:00,1,1,0,0,1,0,2,1,1
04:44:00,0,2,3,0,0,0,0,1,1
04:45:00,0,1,1,5,1,1,3,2,2
04:46:00,0,2,2,4,2,0,0,2,1
04:47:00,2,4,1,2,2,2,1,2,2
04:48:00,0,1,4,1,0,0,1,1,1
04:49:00,5,2,2,3,4,1,4,3,3
04:50:00,0,2,0,2,1,1,0,1,1
04:51:00,3,1,1,2,3,1,2,2,2
04:52:00,5,4,3,3,4,0,3,4,3
04:53:00,3,2,4,4,0,1,1,3,2
04:54:00,2,7,3,3,6,1,2,4,3
04:55:00,3,3,2,0,1,4,3,2,2
04:56:00,1,0,0,1,1,0,3,1,1
04:57:00,2,2,3,2,2,1,1,2,2
04:58:00,1,0,0,1,1,1,2,1,1
04:59:00,5,0,5,2,0,0,4,2,2
05:00:00,1,2,0,1,1,2,3,1,1
05:01:00,2,1,1,0,0,0,3,1,1
05:02:00,2,3,2,3,2,2,2,2,2
05:03:00,4,0,2,3,0,0,0,2,1
05:04:00,4,0,3,2,2,0,1,2,2
05:05:00,3,2,1,2,2,1,2,2,2
05:06:00,6,3,3,3,1,1,1,3,3
05:07:00,4,1,3,1,4,0,1,3,2
05:08:00,3,2,4,4,1,0,1,3,2
05:09:00,4,3,6,2,2,3,3,3,3
05:10:00,4,8,3,2,5,0,1,4,3
05:11:00,2,1,6,6,2,3,2,3,3
05:12:00,2,2,7,3,3,0,4,3,3
05:13:00,3,3,4,1,2,0,2,3,2
05:14:00,2,2,4,6,10,4,1,5,4
05:15:00,4,6,1,2,4,2,1,3,3
05:16:00,0,1,6,1,3,2,2,2,2
05:17:00,2,6,5,1,2,2,1,3,3
05:18:00,4,5,5,5,2,4,1,4,4
05:19:00,5,5,5,5,2,1,2,4,4
05:20:00,8,4,7,6,3,3,0,6,4
05:21:00,9,4,2,5,5,0,2,5,4
05:22:00,8,1,5,2,9,2,0,5,4
05:23:00,5,3,5,9,5,2,0,5,4
05:24:00,3,7,6,4,3,2,1,5,4
05:25:00,4,3,2,3,2,1,2,3,2
05:26:00,3,3,2,7,5,2,3,4,4
05:27:00,1,3,6,3,4,2,2,3,3
05:28:00,6,6,5,3,4,0,0,5,3
05:29:00,5,10,7,7,8,3,1,7,6
05:30:00,2,4,7,7,6,0,2,5,4
05:31:00,6,7,6,3,9,0,2,6,5
05:32:00,6,9,4,5,5,2,1,6,5
05:33:00,7,7,12,5,1,2,0,6,5
05:34:00,8,8,7,7,2,4,0,6,5
05:35:00,8,4,7,10,1,4,2,6,5
05:36:00,8,11,8,10,3,3,6,8,7
05:37:00,6,9,10,5,8,3,3,8,6
05:38:00,8,13,3,11,8,2,2,9,7
05:39:00,7,3,8,2,5,4,3,5,5
05:40:00,8,1,11,6,4,2,1,6,5
05:41:00,9,10,10,7,9,3,2,9,7
05:42:00,5,5,3,8,8,3,0,6,5
05:43:00,4,6,7,7,4,1,1,6,4
05:44:00,6,4,5,6,5,4,3,5,5
05:45:00,7,13,4,5,6,3,1,7,6
05:46:00,2,4,5,5,5,2,2,4,4
05:47:00,3,5,6,4,3,6,2,4,4
05:48:00,10,2,3,5,6,2,2,5,4
05:49:00,3,6,9,7,4,4,2,6,5
05:50:00,9,3,3,8,2,1,7,5,5
05:51:00,9,6,5,7,5,1,3,6,5
05:52:00,8,6,5,7,8,3,3,7,6
05:53:00,10,8,3,4,5,3,4,6,5
05:54:00,4,11,10,8,8,1,5,8,7
05:55:00,6,5,6,5,4,7,2,5,5
05:56:00,6,7,9,6,15,4,1,9,7
05:57:00,9,8,6,6,8,2,2,7,6
05:58:00,7,7,4,2,7,1,2,5,4
05:59:00,6,3,5,9,7,1,3,6,5
06:00:00,4,5,6,6,3,3,2,5,4
06:01:00,5,7,7,9,4,2,3,6,5
06:02:00,8,7,10,3,10,3,4,8,6
06:03:00,9,2,8,7,5,6,3,6,6
06:04:00,3,10,5,12,3,1,8,7,6
06:05:00,8,8,7,7,10,3,0,8,6
06:06:00,6,9,12,8,5,3,3,8,7
06:07:00,9,8,11,4,5,0,8,7,6
06:08:00,6,8,14,6,8,1,3,8,7
06:09:00,8,10,14,13,11,3,2,11,9
06:10:00,5,15,8,8,8,1,3,9,7
06:11:00,12,11,8,11,8,6,9,10,9
06:12:00,8,16,9,7,10,4,4,10,8
06:13:00,11,10,12,9,11,4,2,11,8
06:14:00,7,12,10,11,9,7,4,10,9
06:15:00,7,12,5,15,9,3,3,10,8
06:16:00,15,9,13,10,9,4,6,11,9
06:17:00,14,13,11,11,7,5,2,11,9
06:18:00,11,7,11,14,2,2,6,9,8
06:19:00,13,9,9,7,19,4,2,11,9
06:20:00,12,15,13,18,8,3,6,13,11
06:21:00,17,10,12,8,10,1,5,11,9
06:22:00,7,16,12,8,13,2,6,11,9
06:23:00,4,12,8,11,10,4,2,9,7
06:24:00,12,14,10,6,12,1,5,11,9
06:25:00,16,10,12,17,11,5,8,13,11
06:26:00,7,16,20,10,9,4,2,12,10
06:27:00,12,15,15,12,11,2,13,13,11
06:28:00,13,10,10,14,15,2,3,12,10
06:29:00,5,16,10,16,11,3,6,12,10
06:30:00,11,21,13,14,7,4,5,13,11
06:31:00,13,7,9,9,13,7,6,10,9
06:32:00,8,15,9,11,14,6,6,11,10
06:33:00,14,14,11,15,17,3,5,14,11
06:34:00,13,16,16,10,8,10,3,13,11
06:35:00,9,13,20,18,16,9,6,15,13
06:36:00,22,11,15,18,19,11,8,17,15
06:37:00,14,14,14,8,18,10,2,14,11
06:38:00,13,15,13,11,11,6,5,13,11
06:39:00,27,29,11,12,16,7,4,19,15
06:40:00,15,14,21,14,12,12,10,15,14
06:41:00,17,13,18,21,5,9,7,15,13
06:42:00,11,24,12,17,17,13,12,16,15
06:43:00,28,20,19,18,17,3,6,20,16
06:44:00,16,17,18,18,28,11,4,19,16
06:45:00,13,21,16,24,15,6,10,18,15
06:46:00,21,17,19,13,17,14,4,17,15
06:47:00,26,11,16,21,19,6,10,19,16
06:48:00,9,16,22,20,28,8,3,19,15
06:49:00,10,12,15,18,12,10,4,13,12
06:50:00,11,21,16,19,14,5,10,16,14
06:51:00,22,16,22,15,18,9,7,19,16
06:52:00,19,24,23,24,17,7,9,21,18
06:53:00,32,21,18,28,12,9,2,22,17
06:54:00,15,25,10,18,20,13,7,18,15
06:55:00,26,20,22,18,18,2,6,21,16
06:56:00,21,15,25,17,18,5,3,19,15
06:57:00,25,15,16,26,15,7,6,19,16
06:58:00,19,16,22,20,19,8,5,19,16
06:59:00,12,21,36,22,19,9,2,22,17
07:00:00,19,17,23,20,14,5,4,19,15
07:01:00,28,24,17,29,18,3,5,23,18
07:02:00,25,26,21,21,18,8,2,22,17
07:03:00,21,28,13,14,19,7,4,19,15
07:04:00,20,29,28,23,20,12,3,24,19
07:05:00,29,13,20,29,18,6,5,22,17
07:06:00,23,22,31,24,18,12,10,24,20
07:07:00,17,26,30,14,28,10,3,23,18
07:08:00,37,27,26,17,21,11,7,26,21
07:09:00,32,29,31,29,27,8,11,30,24
07:10:00,41,26,26,32,22,15,7,29,24
07:11:00,38,31,29,25,33,11,4,31,24
07:12:00,11,40,27,23,21,8,12,24,20
07:13:00,33,24,24,32,17,16,2,26,21
07:14:00,20,17,35,30,29,20,10,26,23
07:15:00,18,23,36,28,30,12,1,27,21
07:16:00,32,23,25,23,32,13,13,27,23
07:17:00,28,36,18,39,24,12,4,29,23
07:18:00,29,22,33,34,23,13,5,28,23
07:19:00,25,28,33,31,28,5,7,29,22
07:20:00,24,32,34,26,38,9,3,31,24
07:21:00,37,25,31,38,30,14,13,32,27
07:22:00,34,26,22,28,27,4,3,27,21
07:23:00,30,27,29,30,31,8,8,29,23
07:24:00,28,27,37,30,33,12,9,31,25
07:25:00,24,27,35,26,19,12,6,26,21
07:26:00,30,34,25,31,20,8,9,28,22
07:27:00,28,30,23,37,33,4,5,30,23
07:28:00,27,22,31,28,30,10,14,28,23
07:29:00,21,32,36,35,24,15,15,30,25
07:30:00,27,32,35,29,18,22,5,28,24
07:31:00,27,30,34,30,32,12,5,31,24
07:32:00,20,20,29,35,36,13,5,28,23
07:33:00,35,30,44,26,23,10,12,32,26
07:34:00,29,33,30,35,28,7,10,31,25
07:35:00,33,38,36,36,31,10,9,35,28
07:36:00,28,25,32,30,24,14,3,28,22
07:37:00,47,29,35,28,37,8,3,35,27
07:38:00,36,37,29,37,32,17,11,34,28
07:39:00,32,30,29,37,36,10,11,33,26
07:40:00,36,36,27,31,36,13,7,33,27
07:41:00,27,35,31,26,40,13,8,32,26
07:42:00,34,32,41,11,21,12,4,28,22
07:43:00,18,26,37,11,33,9,17,25,22
07:44:00,30,26,36,38,31,11,9,32,26
07:45:00,19,25,27,36,38,22,5,29,25
07:46:00,34,39,31,38,30,13,5,34,27
07:47:00,30,29,27,37,14,18,13,27,24
07:48:00,37,34,30,28,28,13,3,31,25
07:49:00,32,32,29,37,22,7,11,30,24
07:50:00,31,33,35,16,16,8,6,26,21
07:51:00,26,34,35,35,21,9,9,30,24
07:52:00,39,30,27,27,21,16,5,29,24
07:53:00,29,32,35,35,39,19,8,34,28
07:54:00,30,28,28,30,27,6,7,29,22
07:55:00,22,30,30,40,37,15,15,32,27
07:56:00,36,28,28,26,27,13,4,29,23
07:57:00,36,32,20,39,30,15,8,31,26
07:58:00,23,31,23,33,24,11,7,27,22
07:59:00,32,34,30,23,34,17,6,31,25
08:00:00,28,25,32,36,17,23,3,28,23
08:01:00,29,25,24,39,35,9,12,30,25
08:02:00,36,26,32,37,28,14,3,32,25
08:03:00,41,39,25,28,26,12,15,32,27
08:04:00,15,23,30,33,28,8,9,26,21
08:05:00,38,17,35,32,33,11,7,31,25
08:06:00,35,34,26,27,27,6,8,30,23
08:07:00,31,34,32,37,41,16,6,35,28
08:08:00,19,37,38,28,27,11,14,30,25
08:09:00,37,29,29,39,36,14,11,34,28
08:10:00,15,24,43,20,22,11,7,25,20
08:11:00,26,26,24,33,25,14,9,27,22
08:12:00,19,43,40,30,32,16,10,33,27
08:13:00,34,20,32,26,33,12,9,29,24
08:14:00,34,46,26,39,27,15,10,34,28
08:15:00,41,24,41,27,33,20,4,33,27
08:16:00,29,42,29,31,31,4,2,32,24
08:17:00,39,27,37,31,38,14,12,34,28
08:18:00,28,35,25,35,32,17,7,31,26
08:19:00,38,31,37,28,29,22,6,33,27
08:20:00,25,39,35,44,31,14,5,35,28
08:21:00,42,27,35,21,35,17,12,32,27
08:22:00,33,40,34,27,35,12,10,34,27
08:23:00,40,37,36,40,33,14,6,37,29
08:24:00,33,44,34,31,22,19,8,33,27
08:25:00,29,30,33,38,41,10,17,34,28
08:26:00,29,30,25,31,23,12,15,28,24
08:27:00,24,33,30,43,38,15,2,34,26
08:28:00,36,45,38,26,29,14,11,35,28
08:29:00,28,14,25,31,40,12,15,28,24
08:30:00,38,21,31,30,35,14,4,31,25
08:31:00,38,33,37,39,45,17,9,38,31
08:32:00,35,31,35,27,30,14,9,32,26
08:33:00,27,39,21,38,31,10,8,31,25
08:34:00,26,37,25,22,28,17,15,28,24
08:35:00,33,26,27,43,33,12,5,32,26
08:36:00,32,21,19,25,33,11,14,26,22
08:37:00,30,26,28,37,25,17,10,29,25
08:38:00,22,23,31,23,35,9,7,27,21
08:39:00,31,31,22,28,22,14,10,27,23
08:40:00,26,27,25,30,35,10,12,29,24
08:41:00,27,39,38,27,21,22,14,30,27
08:42:00,29,18,23,28,31,15,9,26,22
08:43:00,28,33,37,31,23,20,6,30,25
08:44:00,25,33,31,34,8,23,17,26,24
08:45:00,29,26,30,20,25,20,11,26,23
08:46:00,22,23,26,33,26,22,15,26,24
08:47:00,34,27,39,25,25,18,8,30,25
08:48:00,25,35,28,25,25,19,17,28,25
08:49:00,39,25,37,32,22,11,19,31,26
08:50:00,24,28,21,23,38,22,7,27,23
08:51:00,29,29,32,33,22,18,12,29,25
08:52:00,22,26,20,25,32,14,9,25,21
08:53:00,36,27,30,30,23,15,16,29,25
08:54:00,29,28,27,37,23,20,6,29,24
08:55:00,27,30,28,35,25,15,8,29,24
08:56:00,18,27,26,27,33,16,16,26,23
08:57:00,39,28,28,31,27,25,15,31,28
08:58:00,37,30,29,28,22,18,15,29,26
08:59:00,34,33,18,27,32,10,11,29,24
09:00:00,22,36,30,26,32,20,8,29,25
09:01:00,28,21,25,23,30,13,11,25,22
09:02:00,23,35,33,33,27,17,8,30,25
09:03:00,29,21,25,21,23,28,14,24,23
09:04:00,31,25,17,21,27,9,12,24,20
09:05:00,22,18,33,28,29,19,15,26,23
09:06:00,28,31,20,26,33,25,14,28,25
09:07:00,33,17,31,23,31,21,11,27,24
09:08:00,21,26,25,35,19,24,16,25,24
09:09:00,28,26,40,34,29,16,14,31,27
09:10:00,27,29,26,22,17,13,18,24,22
09:11:00,34,36,37,27,27,24,24,32,30
09:12:00,29,20,19,25,35,16,13,26,22
09:13:00,26,36,20,29,28,17,12,28,24
09:14:00,20,23,31,26,36,17,7,27,23
09:15:00,23,31,15,30,24,20,12,25,22
09:16:00,27,20,30,31,30,16,16,28,24
09:17:00,28,30,31,24,23,18,16,27,24
09:18:00,17,27,21,35,25,27,21,25,25
09:19:00,38,27,31,24,26,24,14,29,26
09:20:00,19,24,29,28,30,15,16,26,23
09:21:00,26,31,29,32,24,23,13,28,25
09:22:00,30,27,28,24,33,32,23,28,28
09:23:00,23,28,15,28,20,32,12,23,23
09:24:00,30,24,23,25,24,30,17,25,25
09:25:00,24,22,26,35,28,24,17,27,25
09:26:00,26,18,26,26,29,21,13,25,23
09:27:00,31,24,25,20,24,22,15,25,23
09:28:00,21,27,34,29,23,20,19,27,25
09:29:00,23,33,33,24,18,18,15,26,23
09:30:00,12,31,18,24,26,21,8,22,20
09:31:00,21,20,22,37,13,18,18,23,21
09:32:00,29,37,20,20,24,22,26,26,25
09:33:00,21,24,20,24,28,30,18,23,24
09:34:00,21,16,19,28,25,18,27,22,22
09:35:00,25,16,13,27,31,20,31,22,23
09:36:00,18,28,32,25,28,26,16,26,25
09:37:00,26,22,14,21,19,19,15,20,19
09:38:00,30,23,29,21,25,20,15,26,23
09:39:00,34,32,20,28,35,23,20,30,27
09:40:00,19,21,31,28,17,32,24,23,25
09:41:00,29,24,17,21,25,35,19,23,24
09:42:00,31,26,15,26,29,28,20,25,25
09:43:00,19,20,33,31,26,21,19,26,24
09:44:00,17,24,22,14,19,23,25,19,21
09:45:00,20,30,18,24,20,29,25,22,24
09:46:00,30,21,29,26,29,29,17,27,26
09:47:00,26,23,28,24,22,35,21,25,26
09:48:00,16,24,29,36,15,26,19,24,24
09:49:00,25,22,17,34,28,22,27,25,25
09:50:00,35,30,17,32,27,41,19,28,29
09:51:00,33,24,24,21,30,25,21,26,25
09:52:00,13,16,23,23,26,35,21,20,22
09:53:00,29,27,28,23,22,27,19,26,25
09:54:00,17,21,24,26,30,30,24,24,25
09:55:00,28,28,19,26,36,19,23,27,26
09:56:00,24,19,16,21,17,39,28,19,23
09:57:00,23,29,28,36,20,19,23,27,25
09:58:00,31,22,10,13,25,37,18,20,22
09:59:00,21,28,20,23,19,24,18,22,22
10:00:00,10,14,21,28,24,39,20,19,22
10:01:00,18,20,19,12,18,34,25,17,21
10:02:00,29,25,25,30,13,32,14,24,24
10:03:00,22,21,25,31,34,21,32,27,27
10:04:00,16,24,23,19,40,17,12,24,22
10:05:00,27,20,15,20,30,18,26,22,22
10:06:00,23,22,29,23,29,23,13,25,23
10:07:00,22,28,21,20,22,30,17,23,23
10:08:00,28,27,19,15,24,33,16,23,23
10:09:00,16,14,20,31,23,34,26,21,23
10:10:00,23,22,19,21,30,18,24,23,22
10:11:00,15,27,24,18,28,30,18,22,23
10:12:00,24,23,24,18,27,20,21,23,22
10:13:00,15,26,25,23,19,22,16,22,21
10:14:00,11,30,21,28,25,19,23,23,22
10:15:00,21,25,23,26,19,26,27,23,24
10:16:00,25,25,23,23,26,30,20,24,25
10:17:00,27,23,28,18,24,34,21,24,25
10:18:00,18,10,24,23,29,20,30,21,22
10:19:00,22,25,27,21,19,26,31,23,24
10:20:00,18,31,41,17,23,23,27,26,26
10:21:00,25,22,16,22,35,19,21,24,23
10:22:00,19,26,27,17,26,28,25,23,24
10:23:00,31,29,28,23,20,25,28,26,26
10:24:00,26,26,26,19,28,23,22,25,24
10:25:00,15,25,19,25,17,30,20,20,22
10:26:00,15,18,24,27,36,25,26,24,24
10:27:00,20,23,20,20,29,31,24,22,24
10:28:00,28,17,23,31,15,27,11,23,22
10:29:00,13,19,36,26,27,20,21,24,23
10:30:00,29,22,14,35,26,28,31,25,26
10:31:00,30,27,22,33,21,27,18,27,25
10:32:00,28,11,13,19,30,33,24,20,23
10:33:00,18,22,17,28,28,28,20,23,23
10:34:00,29,42,20,20,24,31,24,27,27
10:35:00,20,28,26,27,28,28,27,26,26
10:36:00,32,30,23,23,16,22,18,25,23
10:37:00,27,23,24,30,30,21,16,27,24
10:38:00,19,26,28,21,21,28,20,23,23
10:39:00,15,25,21,24,26,26,17,22,22
10:40:00,19,22,26,19,21,29,21,21,22
10:41:00,28,30,21,25,38,23,21,28,27
10:42:00,20,19,29,27,19,37,26,23,25
10:43:00,17,24,25,27,23,20,20,23,22
10:44:00,26,20,17,21,28,26,19,22,22
10:45:00,18,34,23,19,19,25,30,23,24
10:46:00,35,22,27,27,26,26,30,27,28
10:47:00,28,33,29,21,22,36,29,27,28
10:48:00,16,19,24,25,17,32,18,20,22
10:49:00,27,32,22,26,30,23,24,27,26
10:50:00,19,24,16,21,17,27,28,19,22
10:51:00,34,29,25,37,37,26,17,32,29
10:52:00,25,16,12,23,17,26,22,19,20
10:53:00,24,21,29,18,32,25,32,25,26
10:54:00,17,23,19,16,35,17,25,22,22
10:55:00,22,20,23,26,26,31,29,23,25
10:56:00,37,16,27,18,23,20,20,24,23
10:57:00,16,18,28,23,21,26,29,21,23
10:58:00,32,31,17,18,23,26,18,24,24
10:59:00,22,29,20,19,22,22,27,22,23
11:00:00,32,22,23,14,27,22,30,24,24
11:01:00,19,19,22,11,28,18,20,20,20
11:02:00,8,20,20,39,37,29,27,25,26
11:03:00,23,21,18,21,21,26,26,21,22
11:04:00,16,27,18,19,20,11,28,20,20
11:05:00,19,20,24,37,29,30,27,26,27
11:06:00,21,21,18,11,19,34,31,18,22
11:07:00,29,37,23,30,37,22,30,31,30
11:08:00,20,17,26,30,24,21,20,23,23
11:09:00,22,19,23,18,19,36,33,20,24
11:10:00,18,33,22,27,19,22,29,24,24
11:11:00,22,25,22,20,25,27,21,23,23
11:12:00,17,23,30,16,35,39,28,24,27
11:13:00,20,23,26,25,29,21,23,25,24
11:14:00,40,19,17,17,8,20,27,20,21
11:15:00,19,28,22,14,22,31,18,21,22
11:16:00,26,26,22,19,16,23,31,22,23
11:17:00,21,25,23,23,18,25,30,22,24
11:18:00,10,22,24,29,16,26,18,20,21
11:19:00,28,16,27,26,22,23,20,24,23
11:20:00,27,26,22,14,22,20,17,22,21
11:21:00,28,22,30,27,19,25,32,25,26
11:22:00,25,30,22,28,23,30,32,26,27
11:23:00,31,19,28,18,29,30,26,25,26
11:24:00,28,16,23,12,24,18,24,21,21
11:25:00,20,20,30,30,34,40,28,27,29
11:26:00,26,19,18,26,21,26,24,22,23
11:27:00,17,17,35,28,26,33,10,25,24
11:28:00,15,31,19,17,22,30,16,21,21
11:29:00,30,11,19,33,29,19,23,24,23
11:30:00,24,13,18,26,29,18,28,22,22
11:31:00,29,15,21,19,17,30,27,20,23
11:32:00,22,21,30,19,19,23,24,22,23
11:33:00,16,17,23,19,23,20,26,20,21
11:34:00,22,34,20,23,29,28,26,26,26
11:35:00,21,11,29,31,27,17,24,24,23
11:36:00,28,28,25,25,20,25,15,25,24
11:37:00,20,22,17,29,26,32,29,23,25
11:38:00,30,40,21,38,27,24,33,31,30
11:39:00,26,17,21,30,13,31,21,21,23
11:40:00,20,23,24,18,29,37,23,23,25
11:41:00,29,28,20,20,29,24,30,25,26
11:42:00,24,26,18,17,28,32,30,23,25
11:43:00,30,38,34,26,28,19,31,31,29
11:44:00,17,24,32,23,30,36,31,25,28
11:45:00,16,15,11,28,18,28,27,18,20
11:46:00,26,29,20,27,28,29,32,26,27
11:47:00,25,21,33,27,17,36,18,25,25
11:48:00,30,23,27,34,26,25,26,28,27
11:49:00,21,20,39,20,30,25,30,26,26
11:50:00,23,26,25,28,26,21,19,26,24
11:51:00,20,28,28,28,24,30,29,26,27
11:52:00,22,29,28,27,32,28,34,28,29
11:53:00,21,15,17,20,15,29,17,18,19
11:54:00,25,21,29,19,27,23,26,24,24
11:55:00,23,20,16,40,25,33,28,25,26
11:56:00,28,22,30,25,16,26,27,24,25
11:57:00,34,17,19,27,25,29,26,24,25
11:58:00,21,15,22,23,36,24,21,23,23
11:59:00,16,27,15,28,28,37,27,23,25
12:00:00,31,15,30,17,16,24,32,22,24
12:01:00,33,17,31,28,35,22,33,29,28
12:02:00,18,22,19,27,26,29,21,22,23
12:03:00,25,24,29,16,16,25,19,22,22
12:04:00,22,22,35,22,29,23,36,26,27
12:05:00,18,23,16,14,23,32,27,19,22
12:06:00,27,29,32,30,27,35,18,29,28
12:07:00,32,19,20,13,28,29,32,22,25
12:08:00,27,20,33,27,13,35,34,24,27
12:09:00,18,30,23,23,25,24,24,24,24
12:10:00,17,27,28,20,22,43,25,23,26
12:11:00,21,20,30,22,21,23,18,23,22
12:12:00,19,34,33,21,23,27,26,26,26
12:13:00,18,19,20,33,30,25,24,24,24
12:14:00,24,19,18,20,26,31,22,21,23
12:15:00,22,31,25,31,29,30,24,28,27
12:16:00,19,20,20,25,34,16,24,24,23
12:17:00,21,31,20,28,21,28,30,24,26
12:18:00,26,28,22,32,28,20,35,27,27
12:19:00,26,25,26,22,27,23,15,25,23
12:20:00,22,23,37,26,31,31,34,28,29
12:21:00,25,28,26,22,31,27,31,26,27
12:22:00,16,20,25,13,20,21,16,19,19
12:23:00,31,40,32,31,27,19,18,32,28
12:24:00,17,15,19,20,26,33,19,19,21
12:25:00,27,22,23,27,24,27,29,25,26
12:26:00,32,33,26,30,29,42,27,30,31
12:27:00,22,27,15,23,22,31,36,22,25
12:28:00,19,23,35,32,24,32,25,27,27
12:29:00,24,25,22,17,22,20,34,22,23
12:30:00,20,24,18,16,26,37,24,21,24
12:31:00,25,20,25,26,23,17,29,24,24
12:32:00,24,24,21,15,23,36,27,21,24
12:33:00,19,23,27,21,23,35,26,23,25
12:34:00,13,24,25,17,30,30,22,22,23
12:35:00,18,24,25,34,21,23,20,24,24
12:36:00,21,23,27,33,17,19,17,24,22
12:37:00,30,29,27,27,26,24,26,28,27
12:38:00,29,23,31,27,30,33,14,28,27
12:39:00,25,26,17,36,11,27,19,23,23
12:40:00,19,26,39,10,12,36,29,21,24
12:41:00,30,27,25,28,23,25,26,27,26
12:42:00,29,21,22,19,32,24,25,25,25
12:43:00,16,19,23,29,31,15,27,24,23
12:44:00,20,17,24,25,25,34,26,22,24
12:45:00,16,17,30,20,22,29,33,21,24
12:46:00,24,27,18,15,25,28,30,22,24
12:47:00,25,30,30,16,34,28,32,27,28
12:48:00,25,31,28,21,17,41,17,24,26
12:49:00,30,33,29,29,37,30,21,32,30
12:50:00,19,12,23,20,27,21,28,20,21
12:51:00,37,13,23,28,27,32,24,26,26
12:52:00,32,28,30,24,16,24,27,26,26
12:53:00,35,25,25,18,25,22,17,26,24
12:54:00,20,25,17,19,30,32,30,22,25
12:55:00,32,29,23,28,32,30,35,29,30
12:56:00,28,32,15,36,32,29,15,29,27
12:57:00,19,21,22,31,21,30,38,23,26
12:58:00,24,30,17,20,21,27,14,22,22
12:59:00,28,12,39,31,20,29,29,26,27
13:00:00,11,20,24,29,27,29,30,22,24
13:01:00,24,16,23,19,31,26,16,23,22
13:02:00,18,27,33,18,19,38,37,23,27
13:03:00,27,29,19,15,27,24,22,23,23
13:04:00,22,15,25,24,22,33,25,22,24
13:05:00,19,21,30,24,31,34,26,25,26
13:06:00,32,21,28,24,24,38,25,26,27
13:07:00,9,26,18,25,29,31,21,21,23
13:08:00,31,24,22,27,16,24,33,24,25
13:09:00,20,19,32,30,32,29,24,27,27
13:10:00,20,28,17,27,24,27,35,23,25
13:11:00,20,26,24,30,36,25,32,27,28
13:12:00,18,29,22,28,25,29,21,24,25
13:13:00,22,25,22,23,35,21,28,25,25
13:14:00,29,25,20,32,28,18,18,27,24
13:15:00,32,26,25,20,28,22,22,26,25
13:16:00,22,25,16,20,23,34,27,21,24
13:17:00,16,32,19,24,33,23,23,25,24
13:18:00,22,15,13,23,19,36,23,18,22
13:19:00,25,21,31,18,28,22,24,25,24
13:20:00,22,26,19,21,24,41,22,22,25
13:21:00,13,23,29,23,27,17,27,23,23
13:22:00,26,15,32,20,25,29,32,24,26
13:23:00,28,33,23,24,28,35,33,27,29
13:24:00,25,28,28,24,18,23,20,25,24
13:25:00,14,27,25,17,27,28,23,22,23
13:26:00,18,23,18,25,22,28,23,21,22
13:27:00,29,26,15,18,33,18,15,24,22
13:28:00,28,18,24,33,30,26,28,27,27
13:29:00,21,20,28,26,20,25,25,23,24
13:30:00,26,25,21,17,15,23,17,21,21
13:31:00,26,9,25,25,24,17,25,22,22
13:32:00,35,37,26,22,31,28,23,30,29
13:33:00,25,13,22,12,39,29,26,22,24
13:34:00,16,26,24,24,22,20,23,22,22
13:35:00,28,21,23,33,33,32,27,28,28
13:36:00,19,22,34,27,17,28,28,24,25
13:37:00,30,31,35,19,19,23,27,27,26
13:38:00,30,14,20,22,27,25,23,23,23
13:39:00,22,26,23,22,28,19,19,24,23
13:40:00,27,35,33,29,27,36,25,30,30
13:41:00,19,30,19,25,32,26,19,25,24
13:42:00,14,28,32,27,15,31,31,23,25
13:43:00,20,28,29,28,29,23,22,27,26
13:44:00,22,17,24,23,22,38,17,22,23
13:45:00,25,38,27,29,30,37,26,30,30
13:46:00,25,21,39,38,16,27,26,28,27
13:47:00,33,22,29,34,23,24,31,28,28
13:48:00,28,27,12,15,34,36,33,23,26
13:49:00,28,25,31,25,22,13,20,26,23
13:50:00,22,28,32,29,31,38,17,28,28
13:51:00,18,18,28,16,32,28,29,22,24
13:52:00,24,32,11,22,21,40,25,22,25
13:53:00,18,32,17,28,14,30,25,22,23
13:54:00,25,24,23,26,9,34,20,21,23
13:55:00,24,20,24,18,37,30,21,25,25
13:56:00,20,30,21,21,24,40,24,23,26
13:57:00,21,32,24,26,32,12,31,27,25
13:58:00,21,23,21,11,24,23,13,20,19
13:59:00,25,17,27,23,15,30,28,21,24
14:00:00,18,19,27,23,27,16,27,23,22
14:01:00,20,25,28,31,31,39,20,27,28
14:02:00,15,20,15,34,39,20,20,25,23
14:03:00,31,16,23,23,25,36,19,24,25
14:04:00,22,22,26,29,14,38,18,23,24
14:05:00,22,29,34,20,34,14,24,28,25
14:06:00,29,20,31,28,30,23,23,28,26
14:07:00,24,32,22,16,19,33,15,23,23
14:08:00,32,15,26,25,30,27,24,26,26
14:09:00,33,35,22,32,29,34,20,30,29
14:10:00,37,25,17,35,24,30,8,28,25
14:11:00,26,26,17,19,36,30,32,25,27
14:12:00,24,30,32,17,31,27,33,27,28
14:13:00,24,35,25,17,22,29,23,25,25
14:14:00,25,25,22,31,33,28,16,27,26
14:15:00,13,20,29,27,29,24,32,24,25
14:16:00,21,22,12,18,31,31,30,21,24
14:17:00,27,20,27,33,20,28,20,25,25
14:18:00,28,20,28,25,21,30,16,24,24
14:19:00,39,27,30,19,28,31,24,29,28
14:20:00,18,30,17,26,26,31,20,23,24
14:21:00,28,23,22,29,31,23,28,27,26
14:22:00,28,24,22,32,25,35,14,26,26
14:23:00,24,27,24,24,28,21,28,25,25
14:24:00,38,31,32,39,14,23,17,31,28
14:25:00,36,27,24,18,28,30,19,27,26
14:26:00,19,32,35,36,24,17,12,29,25
14:27:00,23,27,18,18,27,31,18,23,23
14:28:00,22,15,39,32,33,31,40,28,30
14:29:00,18,22,18,24,28,24,23,22,22
14:30:00,15,22,25,35,35,19,21,26,25
14:31:00,21,22,31,34,29,30,24,27,27
14:32:00,18,32,21,23,18,21,27,22,23
14:33:00,21,30,19,22,22,35,25,23,25
14:34:00,34,28,27,22,24,24,24,27,26
14:35:00,30,20,20,33,19,20,34,24,25
14:36:00,21,28,26,30,23,24,26,26,25
14:37:00,25,30,16,32,27,21,35,26,27
14:38:00,33,23,25,20,32,24,18,27,25
14:39:00,22,25,26,25,35,21,26,27,26
14:40:00,27,25,19,27,32,36,17,26,26
14:41:00,23,23,25,32,24,21,20,25,24
14:42:00,28,23,17,21,30,22,21,24,23
14:43:00,18,25,22,24,31,19,35,24,25
14:44:00,26,32,35,25,35,27,27,31,30
14:45:00,27,20,18,24,22,19,29,22,23
14:46:00,23,23,32,34,34,17,25,29,27
14:47:00,14,25,28,19,20,18,20,21,21
14:48:00,26,23,34,36,32,29,21,30,29
14:49:00,23,23,21,26,33,22,26,25,25
14:50:00,25,25,14,28,25,20,16,23,22
14:51:00,26,28,26,36,35,20,34,30,29
14:52:00,22,36,32,19,26,29,29,27,28
14:53:00,35,25,35,29,35,26,23,32,30
14:54:00,19,15,30,19,26,17,21,22,21
14:55:00,33,22,24,21,36,19,37,27,27
14:56:00,23,31,22,29,29,32,20,27,27
14:57:00,25,28,20,26,31,27,28,26,26
14:58:00,18,25,27,25,17,30,16,22,23
14:59:00,31,29,21,25,28,25,28,27,27
15:00:00,35,22,21,24,25,25,20,25,25
15:01:00,31,20,28,33,33,24,32,29,29
15:02:00,29,35,21,27,22,22,23,27,26
15:03:00,25,30,19,26,34,21,19,27,25
15:04:00,23,16,31,26,25,19,17,24,22
15:05:00,29,34,26,32,42,25,32,33,31
15:06:00,19,22,34,35,26,27,13,27,25
15:07:00,22,29,32,29,31,18,29,29,27
15:08:00,28,14,25,27,20,32,23,23,24
15:09:00,25,37,29,27,23,27,30,28,28
15:10:00,26,28,27,25,31,32,29,27,28
15:11:00,26,19,18,26,20,13,21,22,20
15:12:00,28,25,23,18,24,23,14,24,22
15:13:00,14,28,32,17,24,25,36,23,25
15:14:00,23,28,20,26,29,10,21,25,22
15:15:00,25,23,20,32,16,20,16,23,22
15:16:00,22,24,33,22,34,20,28,27,26
15:17:00,20,18,17,32,26,15,7,23,19
15:18:00,24,15,26,19,22,16,21,21,20
15:19:00,23,29,19,27,31,19,19,26,24
15:20:00,26,29,26,26,27,26,31,27,27
15:21:00,18,17,33,17,22,29,25,21,23
15:22:00,23,22,27,28,20,25,21,24,24
15:23:00,26,17,27,29,21,33,26,24,26
15:24:00,29,22,16,26,20,20,20,23,22
15:25:00,28,20,37,23,29,18,18,27,25
15:26:00,21,20,19,15,17,30,20,18,20
15:27:00,33,28,26,31,37,16,23,31,28
15:28:00,27,34,18,29,29,22,24,27,26
15:29:00,13,28,32,34,35,31,20,28,28
15:30:00,36,27,26,34,22,22,28,29,28
15:31:00,21,31,23,29,23,15,14,25,22
15:32:00,26,32,26,26,29,21,17,28,25
15:33:00,25,22,28,26,27,17,28,26,25
15:34:00,25,27,15,21,32,29,11,24,23
15:35:00,17,24,33,32,22,21,34,26,26
15:36:00,34,36,35,30,30,34,27,33,32
15:37:00,34,29,31,28,34,27,23,31,29
15:38:00,26,22,30,33,27,29,29,28,28
15:39:00,30,22,24,29,6,22,13,22,21
15:40:00,34,21,24,26,17,21,19,24,23
15:41:00,25,35,23,38,12,25,16,27,25
15:42:00,33,27,31,27,17,25,21,27,26
15:43:00,28,29,36,34,17,17,16,29,25
15:44:00,26,29,25,31,16,17,26,25,24
15:45:00,21,27,24,29,24,12,23,25,23
15:46:00,32,33,24,29,34,30,18,30,29
15:47:00,16,21,22,14,25,14,23,20,19
15:48:00,31,19,35,22,29,21,22,27,26
15:49:00,23,19,27,23,25,13,23,23,22
15:50:00,27,36,35,22,31,26,19,30,28
15:51:00,29,28,16,11,27,29,22,22,23
15:52:00,25,22,31,35,38,31,32,30,31
15:53:00,33,28,26,21,28,29,24,27,27
15:54:00,24,16,39,28,27,21,18,27,25
15:55:00,25,23,24,33,32,33,14,27,26
15:56:00,27,21,27,22,37,30,28,27,27
15:57:00,24,41,30,33,29,13,18,31,27
15:58:00,23,22,25,21,28,13,21,24,22
15:59:00,31,35,31,32,35,23,30,33,31
16:00:00,28,23,30,26,29,23,26,27,26
16:01:00,32,36,14,30,25,16,19,27,25
16:02:00,27,23,33,17,35,21,23,27,26
16:03:00,34,35,23,28,21,25,31,28,28
16:04:00,23,31,24,22,29,22,25,26,25
16:05:00,34,17,27,31,32,32,26,28,28
16:06:00,36,27,35,34,33,24,17,33,29
16:07:00,29,34,30,25,24,16,28,28,27
16:08:00,25,36,29,32,17,22,33,28,28
16:09:00,32,21,32,22,30,16,31,27,26
16:10:00,22,24,15,29,36,18,30,25,25
16:11:00,32,19,33,20,27,27,26,26,26
16:12:00,37,15,27,32,34,34,33,29,30
16:13:00,31,23,35,25,31,26,21,29,27
16:14:00,32,23,33,24,33,22,27,29,28
16:15:00,30,37,21,26,33,29,26,29,29
16:16:00,27,29,27,22,23,31,34,26,28
16:17:00,34,34,28,41,32,22,17,34,30
16:18:00,24,35,25,23,27,27,32,27,28
16:19:00,34,24,21,36,29,24,21,29,27
16:20:00,33,35,23,37,34,21,22,32,29
16:21:00,28,34,39,38,26,35,19,33,31
16:22:00,18,25,30,31,27,30,30,26,27
16:23:00,36,30,28,18,31,31,31,29,29
16:24:00,28,20,34,38,38,23,25,32,29
16:25:00,25,31,24,33,36,18,16,30,26
16:26:00,23,34,35,17,38,31,34,29,30
16:27:00,29,26,23,32,30,18,27,28,26
16:28:00,27,25,31,24,33,21,20,28,26
16:29:00,32,36,32,34,25,21,22,32,29
16:30:00,26,18,33,24,31,18,17,26,24
16:31:00,27,27,22,39,29,18,11,29,25
16:32:00,31,25,33,29,34,19,24,30,28
16:33:00,30,22,33,28,32,31,28,29,29
16:34:00,22,32,27,19,32,27,20,26,26
16:35:00,27,30,27,33,27,25,32,29,29
16:36:00,26,21,25,18,22,31,24,22,24
16:37:00,28,22,41,26,23,24,17,28,26
16:38:00,30,24,33,33,23,19,22,29,26
16:39:00,27,27,30,22,26,27,27,26,27
16:40:00,29,36,32,31,34,20,29,32,30
16:41:00,34,27,19,26,27,36,29,27,28
16:42:00,25,40,32,23,27,28,18,29,28
16:43:00,15,31,25,23,26,13,24,24,22
16:44:00,37,26,39,26,30,30,35,32,32
16:45:00,27,29,28,35,21,20,13,28,25
16:46:00,40,22,37,33,28,29,21,32,30
16:47:00,32,29,32,38,26,22,17,31,28
16:48:00,29,28,24,26,24,29,16,26,25
16:49:00,30,28,29,24,34,24,13,29,26
16:50:00,24,25,24,25,21,27,20,24,24
16:51:00,30,30,33,35,35,34,19,33,31
16:52:00,34,33,30,28,25,18,29,30,28
16:53:00,29,32,21,32,33,25,23,29,28
16:54:00,23,25,37,17,20,32,21,24,25
16:55:00,37,28,28,32,33,28,25,32,30
16:56:00,25,23,28,40,20,25,20,27,26
16:57:00,33,21,26,28,33,30,19,28,27
16:58:00,27,42,35,36,20,18,32,32,30
16:59:00,29,22,26,20,24,23,27,24,24
17:00:00,27,29,36,29,37,23,30,32,30
17:01:00,30,34,35,37,29,35,23,33,32
17:02:00,29,32,31,23,26,16,27,28,26
17:03:00,21,33,21,40,20,30,21,27,27
17:04:00,36,30,32,28,30,25,20,31,29
17:05:00,30,31,28,27,33,21,25,30,28
17:06:00,27,21,33,26,22,25,22,26,25
17:07:00,33,28,25,41,27,31,25,31,30
17:08:00,28,15,34,19,39,33,15,27,26
17:09:00,34,27,27,42,35,30,16,33,30
17:10:00,25,34,31,35,16,21,19,28,26
17:11:00,33,37,37,38,27,15,30,34,31
17:12:00,30,24,32,32,37,31,19,31,29
17:13:00,34,14,35,30,41,26,21,31,29
17:14:00,43,21,28,23,27,25,19,28,27
17:15:00,30,32,37,23,22,35,21,29,29
17:16:00,22,35,31,40,30,19,20,32,28
17:17:00,16,36,33,25,23,27,20,27,26
17:18:00,33,21,22,20,37,21,27,27,26
17:19:00,25,21,23,37,28,18,26,27,25
17:20:00,31,27,21,33,31,20,17,29,26
17:21:00,26,24,24,29,29,28,20,26,26
17:22:00,22,34,24,33,33,21,23,29,27
17:23:00,26,35,24,29,28,24,12,28,25
17:24:00,25,37,20,35,33,23,12,30,26
17:25:00,29,26,36,28,25,18,27,29,27
17:26:00,25,27,32,32,35,22,19,30,27
17:27:00,24,33,33,26,26,20,20,28,26
17:28:00,28,30,26,30,25,16,18,28,25
17:29:00,25,22,28,27,23,15,22,25,23
17:30:00,41,21,30,39,35,25,19,33,30
17:31:00,18,21,21,25,19,18,23,21,21
17:32:00,27,26,27,31,33,21,17,29,26
17:33:00,28,27,20,25,32,31,17,26,26
17:34:00,35,31,28,22,20,18,29,27,26
17:35:00,38,30,28,21,35,22,23,30,28
17:36:00,22,18,15,29,24,20,27,22,22
17:37:00,20,31,27,23,38,32,15,28,27
17:38:00,29,37,32,31,33,32,19,32,30
17:39:00,31,26,27,29,26,30,20,28,27
17:40:00,24,26,28,23,29,16,18,26,23
17:41:00,20,40,30,30,34,21,23,31,28
17:42:00,39,26,25,30,23,22,8,29,25
17:43:00,29,34,33,19,23,17,17,28,25
17:44:00,24,40,27,27,22,28,22,28,27
17:45:00,27,31,31,27,18,19,13,27,24
17:46:00,31,34,32,32,34,21,10,33,28
17:47:00,28,37,31,29,36,24,18,32,29
17:48:00,23,28,24,36,23,16,12,27,23
17:49:00,40,34,37,20,22,21,17,31,27
17:50:00,18,26,24,25,35,24,15,26,24
17:51:00,31,31,37,22,25,27,19,29,27
17:52:00,24,23,32,24,41,21,14,29,26
17:53:00,37,23,28,27,26,29,25,28,28
17:54:00,16,26,27,34,25,19,19,26,24
17:55:00,28,32,31,34,30,22,19,31,28
17:56:00,32,19,38,37,23,26,21,30,28
17:57:00,29,28,23,31,30,16,19,28,25
17:58:00,29,28,32,38,26,16,13,31,26
17:59:00,24,30,13,22,24,17,17,23,21
18:00:00,27,20,33,32,33,15,15,29,25
18:01:00,26,24,31,25,18,10,19,25,22
18:02:00,28,30,23,22,24,21,21,25,24
18:03:00,34,27,36,28,28,14,20,31,27
18:04:00,35,28,26,27,29,26,16,29,27
18:05:00,18,26,28,31,23,21,15,25,23
18:06:00,27,28,30,33,38,12,14,31,26
18:07:00,21,18,28,29,23,19,15,24,22
18:08:00,25,35,33,26,36,22,19,31,28
18:09:00,31,17,39,33,17,15,24,27,25
18:10:00,16,31,29,22,39,15,22,27,25
18:11:00,21,33,27,33,29,22,19,29,26
18:12:00,25,32,29,21,35,18,15,28,25
18:13:00,25,27,26,19,36,24,22,27,26
18:14:00,20,29,35,28,23,16,21,27,25
18:15:00,20,29,30,26,30,34,18,27,27
18:16:00,27,28,27,20,32,21,24,27,26
18:17:00,30,32,25,20,22,18,25,26,25
18:18:00,41,22,32,31,25,20,19,30,27
18:19:00,20,24,25,23,19,14,22,22,21
18:20:00,36,22,31,33,12,20,25,27,26
18:21:00,28,25,37,24,26,14,22,28,25
18:22:00,25,13,22,21,28,23,15,22,21
18:23:00,28,20,26,39,24,18,16,27,24
18:24:00,28,24,36,31,22,12,17,28,24
18:25:00,27,27,25,30,14,21,17,25,23
18:26:00,25,28,27,27,30,26,26,27,27
18:27:00,15,23,35,21,15,17,18,22,21
18:28:00,20,29,28,33,26,15,4,27,22
18:29:00,26,30,26,24,29,24,29,27,27
18:30:00,24,26,30,29,13,21,28,24,24
18:31:00,18,19,29,16,18,15,14,20,18
18:32:00,28,15,27,20,17,17,16,21,20
18:33:00,17,9,25,30,29,22,16,22,21
18:34:00,27,18,28,15,32,11,20,24,22
18:35:00,26,30,25,26,24,16,14,26,23
18:36:00,22,22,28,25,19,20,16,23,22
18:37:00,24,16,37,22,18,12,16,23,21
18:38:00,22,25,27,35,21,15,22,26,24
18:39:00,23,26,38,25,27,12,14,28,24
18:40:00,26,18,24,17,23,15,20,22,20
18:41:00,26,10,34,19,11,22,19,20,20
18:42:00,20,33,32,25,20,13,18,26,23
18:43:00,16,26,33,30,27,22,14,26,24
18:44:00,31,26,25,16,32,17,14,26,23
18:45:00,18,24,27,34,15,19,21,24,23
18:46:00,24,30,28,32,17,13,13,26,22
18:47:00,18,26,19,26,20,15,6,22,19
18:48:00,25,19,28,17,29,21,25,24,23
18:49:00,30,24,35,24,22,22,16,27,25
18:50:00,27,24,34,23,24,17,20,26,24
18:51:00,24,22,28,24,29,24,24,25,25
18:52:00,27,16,34,28,22,17,14,25,23
18:53:00,31,18,30,24,15,18,19,24,22
18:54:00,29,24,28,36,29,16,20,29,26
18:55:00,32,18,36,21,19,15,15,25,22
18:56:00,23,18,24,22,20,13,18,21,20
18:57:00,29,17,33,26,22,16,12,25,22
18:58:00,22,14,26,25,17,11,11,21,18
18:59:00,22,18,34,20,22,14,19,23,21
19:00:00,21,23,20,16,23,11,22,21,19
19:01:00,21,21,31,33,21,18,15,25,23
19:02:00,30,24,38,19,24,20,19,27,25
19:03:00,19,26,23,18,21,10,16,21,19
19:04:00,8,29,30,11,17,9,16,19,17
19:05:00,30,22,28,23,23,15,19,25,23
19:06:00,17,28,26,28,16,18,26,23,23
19:07:00,22,27,31,19,25,14,20,25,23
19:08:00,33,27,22,23,27,20,7,26,23
19:09:00,16,22,23,32,18,11,7,22,18
19:10:00,17,27,26,25,16,19,16,22,21
19:11:00,29,33,37,17,12,23,22,26,25
19:12:00,21,20,24,23,16,11,7,21,17
19:13:00,33,27,33,22,22,14,10,27,23
19:14:00,29,20,31,37,28,15,23,29,26
19:15:00,27,35,28,25,26,13,14,28,24
19:16:00,18,24,21,23,26,14,8,22,19
19:17:00,10,30,30,23,27,12,28,24,23
19:18:00,23,33,32,22,21,10,12,26,22
19:19:00,22,25,27,15,23,12,19,22,20
19:20:00,18,17,27,22,23,23,26,21,22
19:21:00,18,20,18,23,19,13,12,20,18
19:22:00,28,18,28,27,13,12,19,23,21
19:23:00,15,18,21,23,23,16,19,20,19
19:24:00,16,24,20,16,25,16,16,20,19
19:25:00,16,27,35,18,8,16,26,21,21
19:26:00,15,20,25,23,13,23,18,19,20
19:27:00,28,24,21,15,22,16,10,22,19
19:28:00,16,19,29,12,11,11,21,17,17
19:29:00,16,21,33,16,17,8,17,21,18
19:30:00,16,22,27,34,19,8,9,24,19
19:31:00,15,12,23,16,18,15,11,17,16
19:32:00,9,25,30,36,28,22,20,26,24
19:33:00,17,22,26,21,20,12,11,21,18
19:34:00,16,16,34,32,13,14,13,22,20
19:35:00,16,12,23,22,21,9,11,19,16
19:36:00,20,22,18,16,15,11,16,18,17
19:37:00,14,25,24,19,17,12,19,20,19
19:38:00,22,21,24,23,14,19,12,21,19
19:39:00,25,19,27,26,20,19,7,23,20
19:40:00,17,21,25,20,15,14,20,20,19
19:41:00,18,24,34,16,14,15,18,21,20
19:42:00,13,22,22,16,12,9,16,17,16
19:43:00,18,25,27,25,24,17,10,24,21
19:44:00,25,8,20,17,19,19,10,18,17
19:45:00,15,16,19,18,15,6,13,17,15
19:46:00,14,18,24,24,17,17,15,19,18
19:47:00,11,12,22,18,12,14,7,15,14
19:48:00,19,14,20,19,17,15,14,18,17
19:49:00,22,21,27,23,12,7,12,21,18
19:50:00,7,17,25,22,11,10,11,16,15
19:51:00,15,16,27,21,20,7,11,20,17
19:52:00,10,28,17,15,13,10,10,17,15
19:53:00,13,18,10,15,15,14,18,14,15
19:54:00,11,14,15,12,11,13,16,13,13
19:55:00,16,14,20,17,12,13,16,16,15
19:56:00,10,9,27,13,12,18,9,14,14
19:57:00,13,14,19,17,16,15,10,16,15
19:58:00,10,15,18,12,13,13,14,14,14
19:59:00,9,19,12,16,12,11,13,14,13
20:00:00,11,14,14,11,17,14,19,13,14
20:01:00,14,15,21,16,15,13,8,16,15
20:02:00,12,11,26,16,17,15,8,16,15
20:03:00,17,18,18,25,16,15,11,19,17
20:04:00,11,23,28,18,9,8,11,18,15
20:05:00,10,13,21,15,12,14,18,14,15
20:06:00,14,14,19,18,11,13,3,15,13
20:07:00,20,28,21,16,14,10,20,20,18
20:08:00,7,9,14,24,17,18,18,14,15
20:09:00,15,11,13,27,11,16,14,15,15
20:10:00,7,19,20,19,23,12,13,18,16
20:11:00,14,13,27,14,13,15,16,16,16
20:12:00,15,27,16,15,23,11,19,19,18
20:13:00,22,16,21,16,20,5,7,19,15
20:14:00,13,9,19,18,13,12,18,14,15
20:15:00,15,23,17,9,8,12,27,14,16
20:16:00,8,14,24,19,21,8,12,17,15
20:17:00,17,9,12,18,12,12,14,14,13
20:18:00,24,9,9,15,16,6,7,15,12
20:19:00,19,22,27,26,12,13,23,21,20
20:20:00,9,13,12,27,14,9,14,15,14
20:21:00,13,19,14,14,16,19,13,15,15
20:22:00,11,10,10,20,18,10,8,14,12
20:23:00,13,9,20,12,20,10,16,15,14
20:24:00,19,19,16,16,12,11,9,16,15
20:25:00,17,13,11,16,7,11,16,13,13
20:26:00,12,8,10,7,18,10,8,11,10
20:27:00,15,10,12,10,6,13,7,11,10
20:28:00,12,11,12,19,23,5,4,15,12
20:29:00,13,13,11,10,13,7,15,12,12
20:30:00,18,14,14,17,17,7,14,16,14
20:31:00,15,17,8,13,11,10,10,13,12
20:32:00,5,6,17,13,9,3,6,10,8
20:33:00,8,12,18,8,16,7,10,12,11
20:34:00,9,9,7,11,10,11,9,9,9
20:35:00,7,10,15,12,16,8,12,12,11
20:36:00,20,20,19,12,7,6,15,16,14
20:37:00,12,11,11,4,18,11,8,11,11
20:38:00,19,12,11,16,9,10,12,13,13
20:39:00,13,11,16,12,9,6,15,12,12
20:40:00,16,10,18,11,15,9,14,14,13
20:41:00,22,14,17,12,16,11,12,16,15
20:42:00,10,7,11,7,14,12,6,10,10
20:43:00,15,13,14,11,13,11,7,13,12
20:44:00,13,15,3,16,7,6,2,11,9
20:45:00,16,7,14,14,8,10,13,12,12
20:46:00,22,16,19,14,12,5,8,17,14
20:47:00,15,11,14,11,13,9,14,13,12
20:48:00,13,9,12,14,10,6,6,12,10
20:49:00,21,17,16,16,12,2,9,16,13
20:50:00,13,16,9,7,8,7,10,11,10
20:51:00,14,13,9,12,5,6,9,11,10
20:52:00,12,7,9,14,9,9,4,10,9
20:53:00,18,15,5,10,14,14,10,12,12
20:54:00,6,11,5,15,7,8,10,9,9
20:55:00,8,8,14,8,7,8,11,9,9
20:56:00,9,7,8,11,9,1,10,9,8
20:57:00,11,12,8,7,9,6,5,9,8
20:58:00,11,8,9,19,10,13,8,11,11
20:59:00,5,10,7,6,14,8,9,8,8
21:00:00,14,11,14,13,10,5,10,12,11
21:01:00,1,10,12,4,7,11,12,7,8
21:02:00,5,11,16,9,6,8,9,9,9
21:03:00,6,5,12,14,9,14,8,9,10
21:04:00,16,6,12,9,13,14,3,11,10
21:05:00,9,6,12,16,14,11,11,11,11
21:06:00,3,9,13,14,9,12,4,10,9
21:07:00,17,15,17,20,11,8,5,16,13
21:08:00,5,7,15,11,10,10,6,10,9
21:09:00,12,12,17,12,12,11,14,13,13
21:10:00,10,15,14,11,12,9,9,12,11
21:11:00,8,21,10,14,11,9,11,13,12
21:12:00,12,7,16,12,6,10,6,11,10
21:13:00,10,19,17,22,8,6,7,15,13
21:14:00,21,14,11,17,9,4,10,14,12
21:15:00,13,13,19,9,12,7,10,13,12
21:16:00,1,11,16,18,4,6,9,10,9
21:17:00,10,9,8,12,2,7,7,8,8
21:18:00,11,13,18,6,9,7,10,11,11
21:19:00,7,9,16,16,7,7,6,11,10
21:20:00,10,4,15,6,13,8,12,10,10
21:21:00,7,11,8,9,6,2,6,8,7
21:22:00,8,7,8,19,11,10,7,11,10
21:23:00,12,6,10,11,15,8,5,11,10
21:24:00,10,16,5,10,9,7,8,10,9
21:25:00,13,14,12,10,12,6,2,12,10
21:26:00,6,5,9,9,8,6,3,7,7
21:27:00,12,12,21,14,12,11,16,14,14
21:28:00,12,6,14,13,7,9,6,10,10
21:29:00,5,12,15,7,7,2,11,9,8
21:30:00,15,11,8,15,13,11,13,12,12
21:31:00,7,5,12,10,6,11,8,8,8
21:32:00,4,2,16,14,4,7,8,8,8
21:33:00,15,9,13,10,8,9,5,11,10
21:34:00,13,10,10,11,8,11,8,10,10
21:35:00,17,15,13,13,10,10,12,14,13
21:36:00,3,12,15,13,6,9,8,10,9
21:37:00,10,8,13,12,14,6,11,11,11
21:38:00,7,5,5,15,8,3,6,8,7
21:39:00,8,12,8,14,4,8,7,9,9
21:40:00,7,10,8,11,11,5,8,9,9
21:41:00,9,11,14,15,8,8,6,11,10
21:42:00,7,12,12,19,8,3,8,12,10
21:43:00,5,7,8,14,11,7,8,9,9
21:44:00,12,12,17,17,8,11,14,13,13
21:45:00,9,9,4,11,13,6,6,9,8
21:46:00,2,13,8,12,5,11,7,8,8
21:47:00,9,8,8,3,6,7,8,7,7
21:48:00,3,5,7,9,12,7,8,7,7
21:49:00,3,13,8,17,7,6,2,10,8
21:50:00,5,9,11,8,9,6,9,8,8
21:51:00,6,5,17,10,13,6,9,10,9
21:52:00,13,12,6,6,2,2,7,8,7
21:53:00,8,14,5,8,8,7,6,9,8
21:54:00,9,10,14,14,5,4,5,10,9
21:55:00,8,6,12,12,8,7,8,9,9
21:56:00,5,14,10,13,6,5,3,10,8
21:57:00,4,5,10,7,8,9,9,7,7
21:58:00,11,10,8,7,5,10,5,8,8
21:59:00,9,6,17,10,9,8,10,10,10
22:00:00,4,12,9,11,5,9,9,8,8
22:01:00,7,7,10,8,13,7,6,9,8
22:02:00,6,7,9,8,10,3,8,8,7
22:03:00,9,6,8,11,8,6,5,8,8
22:04:00,7,10,14,11,8,5,8,10,9
22:05:00,9,9,13,7,13,5,4,10,9
22:06:00,5,13,9,14,10,16,5,10,10
22:07:00,6,4,11,10,8,7,5,8,7
22:08:00,11,10,9,4,6,9,8,8,8
22:09:00,5,6,6,7,20,5,4,9,8
22:10:00,6,9,8,14,9,3,14,9,9
22:11:00,14,8,8,8,10,14,3,10,9
22:12:00,13,12,7,13,10,7,11,11,10
22:13:00,8,4,9,4,9,6,4,7,6
22:14:00,16,16,9,11,9,7,12,12,11
22:15:00,7,8,6,11,11,7,11,9,9
22:16:00,12,8,14,11,8,15,8,11,11
22:17:00,7,6,11,11,15,8,14,10,10
22:18:00,11,14,19,5,12,9,6,12,11
22:19:00,8,10,11,5,5,7,6,8,7
22:20:00,9,8,10,12,5,8,11,9,9
22:21:00,10,10,5,8,9,3,6,8,7
22:22:00,1,7,6,4,8,6,7,5,6
22:23:00,5,5,4,5,11,10,4,6,6
22:24:00,7,9,4,7,7,7,6,7,7
22:25:00,10,7,8,10,7,5,7,8,8
22:26:00,4,7,6,15,7,10,6,8,8
22:27:00,7,0,5,5,12,5,4,6,5
22:28:00,3,5,13,8,7,7,6,7,7
22:29:00,10,6,11,7,8,4,5,8,7
22:30:00,4,5,6,6,6,7,3,5,5
22:31:00,7,8,11,8,11,7,2,9,8
22:32:00,1,8,8,10,6,5,4,7,6
22:33:00,2,5,8,11,2,8,17,6,8
22:34:00,3,4,2,3,8,4,4,4,4
22:35:00,5,9,6,16,5,5,4,8,7
22:36:00,5,5,6,5,8,6,6,6,6
22:37:00,4,8,8,3,5,5,9,6,6
22:38:00,4,4,3,10,5,6,4,5,5
22:39:00,5,8,10,7,4,8,4,7,7
22:40:00,5,7,10,4,5,4,7,6,6
22:41:00,2,7,5,6,5,7,5,5,5
22:42:00,8,1,3,8,7,9,5,5,6
22:43:00,2,10,3,9,10,5,2,7,6
22:44:00,3,4,5,3,6,8,6,4,5
22:45:00,4,8,2,6,7,10,5,5,6
22:46:00,3,8,7,8,7,3,7,7,6
22:47:00,2,6,6,9,3,9,4,5,6
22:48:00,5,1,8,10,8,8,6,6,7
22:49:00,1,3,4,5,10,5,6,5,5
22:50:00,5,10,1,3,4,6,6,5,5
22:51:00,8,2,3,7,7,7,3,5,5
22:52:00,5,5,3,4,6,2,7,5,5
22:53:00,2,1,7,5,4,11,3,4,5
22:54:00,3,4,4,5,2,5,2,4,4
22:55:00,0,10,4,7,6,6,14,5,7
22:56:00,0,4,2,3,9,7,3,4,4
22:57:00,7,7,3,7,2,3,2,5,4
22:58:00,6,5,5,3,7,7,4,5,5
22:59:00,1,1,3,1,7,7,3,3,3
23:00:00,3,7,4,8,9,7,3,6,6
23:01:00,3,10,9,0,5,7,6,5,6
23:02:00,7,3,5,2,7,7,4,5,5
23:03:00,1,5,2,9,10,4,5,5,5
23:04:00,2,6,3,4,2,8,5,3,4
23:05:00,4,4,5,7,15,10,5,7,7
23:06:00,4,4,3,7,6,5,4,5,5
23:07:00,5,1,6,0,1,4,4,3,3
23:08:00,6,4,1,4,4,7,3,4,4
23:09:00,2,3,4,3,4,13,2,3,4
23:10:00,3,7,4,7,9,4,3,6,5
23:11:00,1,4,3,3,6,3,5,3,4
23:12:00,0,3,7,6,6,3,3,4,4
23:13:00,5,0,8,7,7,12,7,5,7
23:14:00,5,4,6,5,4,6,1,5,4
23:15:00,3,1,3,2,8,7,0,3,3
23:16:00,7,7,7,5,7,8,5,7,7
23:17:00,2,5,3,2,7,8,6,4,5
23:18:00,1,4,2,5,6,3,3,4,3
23:19:00,5,3,0,5,8,4,6,4,4
23:20:00,3,2,2,7,8,5,2,4,4
23:21:00,3,2,0,1,3,2,9,2,3
23:22:00,4,3,3,5,4,6,4,4,4
23:23:00,5,3,5,4,3,4,2,4,4
23:24:00,5,3,5,1,10,2,3,5,4
23:25:00,5,6,3,4,8,3,4,5,5
23:26:00,0,1,9,4,3,4,1,3,3
23:27:00,5,2,2,4,7,2,2,4,3
23:28:00,2,2,1,3,4,4,3,2,3
23:29:00,4,2,3,3,4,10,4,3,4
23:30:00,2,3,3,4,2,6,2,3,3
23:31:00,0,2,1,1,2,4,2,1,2
23:32:00,4,6,4,5,2,5,1,4,4
23:33:00,3,1,7,1,4,5,5,3,4
23:34:00,2,3,4,1,5,3,1,3,3
23:35:00,3,1,5,6,3,6,2,4,4
23:36:00,2,1,3,2,5,9,5,3,4
23:37:00,4,4,1,1,5,8,2,3,4
23:38:00,2,5,1,2,3,6,0,3,3
23:39:00,2,3,5,3,6,7,3,4,4
23:40:00,4,1,3,3,2,1,1,3,2
23:41:00,1,1,5,2,5,4,2,3,3
23:42:00,1,4,3,0,4,4,1,2,2
23:43:00,0,1,2,1,1,7,5,1,2
23:44:00,1,1,1,2,5,5,3,2,3
23:45:00,1,2,1,3,1,9,1,2,3
23:46:00,1,2,2,0,1,7,0,1,2
23:47:00,5,2,4,3,5,3,2,4,3
23:48:00,2,0,3,1,5,7,1,2,3
23:49:00,2,2,2,1,6,1,0,3,2
23:50:00,3,3,3,2,2,4,3,3,3
23:51:00,0,1,4,1,5,4,0,2,2
23:52:00,1,6,1,3,2,7,1,3,3
23:53:00,1,1,0,1,2,6,1,1,2
23:54:00,4,2,1,2,6,4,2,3,3
23:55:00,3,1,2,3,1,5,2,2,2
23:56:00,2,0,2,1,3,10,1,2,3
23:57:00,1,0,4,1,1,6,1,1,2
23:58:00,3,2,5,4,3,2,3,3,3
23:59:00,1,1,1,4,4,3,2,2,2
,,,,,,,,,
Totals,,,,,,,,,
12H(7-19),18591,18577,19096,19063,19025,16351,14468,18870,17882
16H(6-22),21809,22071,23020,22704,22158,18575,16839,22352,21025
18H(6-24),22324,22655,23649,23352,22906,19315,17378,22977,21654
24H(0-24),22878,23216,24206,23936,23452,19763,18022,23538,22210
,,,,,,,,,
AM Peak,07:33:00,07:29:00,07:29:00,07:44:00,07:37:00,09:40:00,10:53:00,07:33:00,07:33:00
,1883,1894,1913,1914,1836,1625,1542,1875,1524
,,,,,,,,,
PM Peak,16:16:00,16:52:00,16:18:00,16:17:00,15:45:00,12:24:00,12:25:00,16:17:00,16:14:00
,1751,1731,1800,1784,1770,1717,1544,1748,1660
,,,,,,,,,
,,,,,,,,,
CA Traffic,,,,,,,,,VDA-net R2 22/05/2020
