Site Number,00008010,Unnamed: 2,Site Reference,00008010.1,Unnamed: 5,Unnamed: 6,Lat/Lng.,"52.08184,1.11873",Unnamed: 9
Radar 8010 Bury Road Ipswich,,,,,,,,,
Vehicle Count Report,,,,Week Begin: 13 January 2020,,,Channel:,Total Flow,
,,,,,,,,,
,,,,,,,,,
,2020-01-13 00:00:00,2020-01-14 00:00:00,2020-01-15 00:00:00,2020-01-16 00:00:00,2020-01-17 00:00:00,2020-01-18 00:00:00,2020-01-19 00:00:00,"5-Day
Ave.","7-Day
Ave."
00:00:00,0,2,2,0,1,3,5,1,2
00:01:00,2,3,4,2,2,4,2,3,3
00:02:00,2,1,2,2,2,1,3,2,2
00:03:00,0,2,5,1,3,4,4,2,3
00:04:00,3,2,2,3,7,1,6,3,3
00:05:00,0,1,5,2,2,5,2,2,2
00:06:00,0,5,0,3,1,0,6,2,2
00:07:00,1,3,1,3,2,4,4,2,3
00:08:00,3,2,1,1,1,0,4,2,2
00:09:00,1,3,6,3,4,5,4,3,4
00:10:00,2,3,1,1,2,1,4,2,2
00:11:00,2,2,1,5,1,7,6,2,3
00:12:00,4,0,4,1,3,3,7,2,3
00:13:00,4,3,1,2,2,2,6,2,3
00:14:00,1,1,1,2,2,5,6,1,3
00:15:00,1,3,5,0,2,1,6,2,3
00:16:00,0,4,4,2,1,3,4,2,3
00:17:00,1,1,3,0,4,8,1,2,3
00:18:00,1,3,2,3,0,7,2,2,3
00:19:00,1,0,4,2,2,1,3,2,2
00:20:00,2,1,3,5,2,4,4,3,3
00:21:00,0,2,3,2,0,1,3,1,2
00:22:00,2,1,4,0,0,3,5,1,2
00:23:00,5,1,2,0,1,1,4,2,2
00:24:00,1,0,2,2,0,3,5,1,2
00:25:00,1,0,4,1,3,2,2,2,2
00:26:00,1,0,0,2,2,2,3,1,1
00:27:00,1,0,3,1,3,3,1,2,2
00:28:00,0,2,1,1,0,2,2,1,1
00:29:00,3,1,2,2,2,3,1,2,2
00:30:00,2,3,2,2,0,4,2,2,2
00:31:00,1,2,1,0,6,5,8,2,3
00:32:00,3,3,3,1,1,5,2,2,3
00:33:00,4,0,1,2,3,2,3,2,2
00:34:00,4,3,1,1,2,0,3,2,2
00:35:00,2,4,1,2,1,1,1,2,2
00:36:00,1,1,1,0,0,3,6,1,2
00:37:00,1,2,3,2,0,2,1,2,2
00:38:00,1,2,1,0,2,2,1,1,1
00:39:00,0,3,1,2,1,1,1,1,1
00:40:00,1,1,1,0,1,2,4,1,1
00:41:00,3,2,0,2,3,3,5,2,3
00:42:00,2,1,2,1,1,1,5,1,2
00:43:00,2,0,2,3,0,3,3,1,2
00:44:00,2,0,0,1,1,2,3,1,1
00:45:00,1,3,1,4,7,4,2,3,3
00:46:00,0,0,3,0,2,5,2,1,2
00:47:00,0,0,3,0,2,2,2,1,1
00:48:00,2,1,0,1,2,1,4,1,2
00:49:00,1,2,1,0,1,3,0,1,1
00:50:00,0,0,4,2,1,3,2,1,2
00:51:00,1,4,5,2,1,3,1,3,2
00:52:00,0,2,4,1,2,2,2,2,2
00:53:00,0,1,2,0,0,2,4,1,1
00:54:00,0,1,3,0,3,1,1,1,1
00:55:00,1,1,1,0,0,0,2,1,1
00:56:00,1,1,2,0,2,1,3,1,1
00:57:00,0,0,1,1,0,0,4,0,1
00:58:00,2,2,0,4,0,2,1,2,2
00:59:00,3,0,1,2,1,2,1,1,1
01:00:00,0,0,2,1,1,3,1,1,1
01:01:00,0,2,1,1,2,0,1,1,1
01:02:00,1,1,2,1,0,1,2,1,1
01:03:00,0,0,3,1,0,4,0,1,1
01:04:00,1,3,4,0,0,0,3,2,2
01:05:00,2,0,2,4,1,3,2,2,2
01:06:00,2,0,3,1,2,5,1,2,2
01:07:00,1,0,1,0,1,3,1,1,1
01:08:00,2,2,1,2,2,0,2,2,2
01:09:00,1,1,0,2,1,3,0,1,1
01:10:00,0,3,0,0,1,3,2,1,1
01:11:00,0,1,3,1,1,0,3,1,1
01:12:00,0,0,1,3,0,1,1,1,1
01:13:00,2,1,0,2,1,1,6,1,2
01:14:00,1,0,4,0,0,1,1,1,1
01:15:00,0,3,3,0,2,2,1,2,2
01:16:00,0,0,0,0,0,2,2,0,1
01:17:00,1,1,0,1,1,2,2,1,1
01:18:00,0,0,1,2,3,3,3,1,2
01:19:00,2,0,2,0,0,1,1,1,1
01:20:00,0,0,1,0,0,0,2,0,0
01:21:00,0,0,1,0,1,2,2,0,1
01:22:00,1,0,1,1,2,0,1,1,1
01:23:00,0,0,0,1,0,5,2,0,1
01:24:00,2,0,1,1,0,1,0,1,1
01:25:00,0,2,1,0,0,0,2,1,1
01:26:00,1,1,4,0,0,7,3,1,2
01:27:00,0,1,0,0,0,6,2,0,1
01:28:00,0,1,2,1,1,2,1,1,1
01:29:00,1,0,0,2,0,0,4,1,1
01:30:00,0,0,3,4,1,1,0,2,1
01:31:00,0,1,1,2,0,1,3,1,1
01:32:00,0,0,3,1,1,3,2,1,1
01:33:00,3,1,1,0,1,2,3,1,2
01:34:00,1,1,2,2,1,2,2,1,2
01:35:00,1,1,0,1,0,0,0,1,0
01:36:00,0,0,2,3,2,1,0,1,1
01:37:00,1,1,0,0,0,0,0,0,0
01:38:00,0,3,1,1,1,5,2,1,2
01:39:00,1,0,3,2,2,2,0,2,1
01:40:00,1,1,3,1,1,2,0,1,1
01:41:00,1,2,1,0,0,1,2,1,1
01:42:00,1,0,1,2,1,4,3,1,2
01:43:00,1,1,0,2,0,2,2,1,1
01:44:00,2,0,1,1,0,0,1,1,1
01:45:00,0,0,0,0,0,1,3,0,1
01:46:00,0,1,1,0,1,2,0,1,1
01:47:00,0,2,1,0,0,0,3,1,1
01:48:00,0,0,0,0,1,1,0,0,0
01:49:00,0,0,0,2,0,2,2,0,1
01:50:00,0,1,1,0,0,3,1,0,1
01:51:00,0,0,3,1,1,2,3,1,1
01:52:00,0,0,1,2,0,2,0,1,1
01:53:00,0,2,1,3,0,0,1,1,1
01:54:00,1,1,3,4,2,2,1,2,2
01:55:00,1,1,0,1,1,1,0,1,1
01:56:00,1,2,3,0,3,1,2,2,2
01:57:00,0,0,1,0,1,0,5,0,1
01:58:00,0,0,2,0,1,2,0,1,1
01:59:00,1,1,0,1,0,1,2,1,1
02:00:00,0,1,3,1,0,1,1,1,1
02:01:00,1,1,1,0,1,0,0,1,1
02:02:00,1,0,0,1,0,1,2,0,1
02:03:00,0,1,0,1,0,1,4,0,1
02:04:00,1,0,0,0,0,1,1,0,0
02:05:00,0,0,0,0,1,0,1,0,0
02:06:00,0,0,1,1,0,0,1,0,0
02:07:00,0,0,0,0,2,4,3,0,1
02:08:00,1,2,3,0,1,2,1,1,1
02:09:00,1,0,2,1,2,0,0,1,1
02:10:00,4,1,3,2,0,3,1,2,2
02:11:00,1,1,0,1,1,1,2,1,1
02:12:00,0,1,0,1,0,2,4,0,1
02:13:00,0,1,1,0,2,0,3,1,1
02:14:00,2,1,1,0,0,1,4,1,1
02:15:00,0,0,2,1,0,1,2,1,1
02:16:00,2,1,1,1,0,0,0,1,1
02:17:00,1,1,1,1,1,1,4,1,1
02:18:00,1,0,0,1,1,0,0,1,0
02:19:00,0,0,3,0,0,0,1,1,1
02:20:00,1,1,3,1,1,1,2,1,1
02:21:00,1,0,0,0,1,1,2,0,1
02:22:00,1,1,1,0,1,1,0,1,1
02:23:00,0,1,1,1,1,2,0,1,1
02:24:00,0,0,3,2,0,1,1,1,1
02:25:00,1,0,1,1,2,0,0,1,1
02:26:00,0,0,3,3,0,0,1,1,1
02:27:00,0,5,1,0,1,0,1,1,1
02:28:00,1,0,0,1,0,0,1,0,0
02:29:00,0,0,1,1,1,1,0,1,1
02:30:00,0,1,3,0,1,4,3,1,2
02:31:00,0,1,1,0,1,1,3,1,1
02:32:00,2,2,0,1,0,2,1,1,1
02:33:00,0,1,0,0,0,1,0,0,0
02:34:00,2,0,1,0,0,1,1,1,1
02:35:00,0,0,3,2,1,1,1,1,1
02:36:00,1,2,2,0,0,2,1,1,1
02:37:00,1,1,1,1,2,1,2,1,1
02:38:00,0,1,1,1,0,1,1,1,1
02:39:00,0,1,0,0,1,1,1,0,1
02:40:00,0,1,0,2,2,1,0,1,1
02:41:00,1,0,0,0,2,2,1,1,1
02:42:00,0,1,1,1,0,0,1,1,1
02:43:00,0,0,0,0,0,0,1,0,0
02:44:00,1,0,1,1,1,1,0,1,1
02:45:00,0,2,1,0,2,1,0,1,1
02:46:00,5,1,0,1,0,0,2,1,1
02:47:00,2,0,2,0,0,1,1,1,1
02:48:00,0,1,1,0,2,0,1,1,1
02:49:00,0,1,1,3,1,0,0,1,1
02:50:00,0,1,4,4,3,4,3,2,3
02:51:00,0,3,0,3,2,0,1,2,1
02:52:00,1,3,1,1,4,6,1,2,2
02:53:00,0,2,3,4,2,3,0,2,2
02:54:00,1,1,3,0,4,1,1,2,2
02:55:00,0,0,1,0,0,1,5,0,1
02:56:00,2,0,1,1,2,0,2,1,1
02:57:00,0,0,0,1,1,0,1,0,0
02:58:00,0,0,0,1,0,0,1,0,0
02:59:00,1,3,0,1,0,0,2,1,1
03:00:00,0,0,0,3,1,4,3,1,2
03:01:00,0,2,0,1,1,3,1,1,1
03:02:00,0,1,0,1,2,1,0,1,1
03:03:00,0,1,1,1,2,2,2,1,1
03:04:00,3,0,2,1,0,1,5,1,2
03:05:00,2,1,0,0,0,1,0,1,1
03:06:00,1,1,4,0,3,1,0,2,1
03:07:00,0,0,1,2,1,0,2,1,1
03:08:00,1,1,1,0,1,0,0,1,1
03:09:00,0,1,2,1,1,0,3,1,1
03:10:00,1,0,2,2,1,0,1,1,1
03:11:00,0,2,0,0,1,1,2,1,1
03:12:00,0,0,0,1,0,1,1,0,0
03:13:00,1,0,1,2,2,2,1,1,1
03:14:00,0,0,0,0,1,0,1,0,0
03:15:00,2,1,0,0,1,3,3,1,1
03:16:00,1,1,2,0,2,1,0,1,1
03:17:00,1,2,2,1,1,1,2,1,1
03:18:00,3,0,1,2,0,0,0,1,1
03:19:00,0,0,0,2,0,3,2,0,1
03:20:00,1,1,1,0,1,1,0,1,1
03:21:00,2,1,0,2,2,0,0,1,1
03:22:00,0,2,2,2,2,2,0,2,1
03:23:00,0,1,2,0,1,0,1,1,1
03:24:00,0,2,1,0,0,1,1,1,1
03:25:00,0,2,0,0,1,0,3,1,1
03:26:00,1,2,0,1,1,0,1,1,1
03:27:00,2,4,5,2,0,1,2,3,2
03:28:00,1,2,4,4,3,1,0,3,2
03:29:00,1,0,3,4,2,1,1,2,2
03:30:00,0,0,1,0,2,0,0,1,0
03:31:00,1,0,2,1,3,0,0,1,1
03:32:00,1,2,1,0,2,1,0,1,1
03:33:00,2,2,0,1,0,1,1,1,1
03:34:00,0,1,1,1,2,1,3,1,1
03:35:00,2,2,2,0,2,2,1,2,2
03:36:00,0,2,2,1,1,3,0,1,1
03:37:00,0,0,0,3,1,1,2,1,1
03:38:00,0,0,1,0,1,2,0,0,1
03:39:00,1,1,0,4,0,0,1,1,1
03:40:00,3,0,4,0,0,0,2,1,1
03:41:00,2,1,4,1,1,0,0,2,1
03:42:00,1,2,0,1,1,0,2,1,1
03:43:00,0,1,4,0,1,0,1,1,1
03:44:00,0,0,0,1,1,0,0,0,0
03:45:00,2,2,0,0,0,0,2,1,1
03:46:00,1,1,0,1,1,0,0,1,1
03:47:00,1,1,0,2,0,1,0,1,1
03:48:00,1,1,2,2,2,2,0,2,1
03:49:00,2,3,1,1,0,1,0,1,1
03:50:00,2,2,1,2,2,1,1,2,2
03:51:00,0,0,3,1,1,1,0,1,1
03:52:00,1,1,0,1,1,2,0,1,1
03:53:00,3,1,0,0,2,1,0,1,1
03:54:00,2,2,1,2,0,4,4,1,2
03:55:00,2,2,2,1,0,0,1,1,1
03:56:00,2,4,2,0,0,2,0,2,1
03:57:00,0,1,4,0,1,3,1,1,1
03:58:00,1,2,1,0,4,0,0,2,1
03:59:00,1,1,2,2,1,0,1,1,1
04:00:00,2,0,2,1,1,1,0,1,1
04:01:00,3,1,0,1,2,0,0,1,1
04:02:00,1,1,1,1,1,1,3,1,1
04:03:00,0,2,0,0,2,0,0,1,1
04:04:00,0,1,1,2,2,0,2,1,1
04:05:00,2,2,3,1,1,1,3,2,2
04:06:00,1,2,0,1,1,3,2,1,1
04:07:00,2,2,1,0,2,0,1,1,1
04:08:00,1,2,2,1,3,2,1,2,2
04:09:00,2,2,3,1,3,1,2,2,2
04:10:00,1,1,0,0,1,1,4,1,1
04:11:00,2,1,0,2,1,2,0,1,1
04:12:00,1,2,1,3,2,2,2,2,2
04:13:00,2,2,2,0,2,1,1,2,1
04:14:00,1,1,2,3,1,0,1,2,1
04:15:00,3,1,2,1,1,0,0,2,1
04:16:00,0,1,4,1,2,4,0,2,2
04:17:00,1,0,0,2,0,0,0,1,0
04:18:00,3,0,4,4,2,0,0,3,2
04:19:00,2,4,2,1,4,1,1,3,2
04:20:00,2,0,4,0,2,0,0,2,1
04:21:00,3,1,1,0,2,0,1,1,1
04:22:00,4,3,3,2,0,1,0,2,2
04:23:00,0,2,2,4,3,1,1,2,2
04:24:00,2,1,2,1,0,1,2,1,1
04:25:00,1,1,6,0,2,3,2,2,2
04:26:00,0,1,1,4,1,1,1,1,1
04:27:00,1,1,3,3,2,2,0,2,2
04:28:00,1,7,2,1,4,2,2,3,3
04:29:00,0,0,1,2,4,0,1,1,1
04:30:00,1,4,2,1,0,2,2,2,2
04:31:00,5,3,6,4,3,1,2,4,3
04:32:00,1,1,2,3,2,1,0,2,1
04:33:00,1,1,3,4,4,0,1,3,2
04:34:00,2,3,1,2,4,1,2,2,2
04:35:00,2,4,4,2,4,0,1,3,2
04:36:00,2,1,0,1,4,0,1,2,1
04:37:00,2,4,3,1,4,0,2,3,2
04:38:00,8,2,3,3,1,4,0,3,3
04:39:00,2,4,2,8,5,4,3,4,4
04:40:00,0,2,2,4,3,3,3,2,2
04:41:00,4,4,6,5,1,3,4,4,4
04:42:00,1,4,10,1,6,0,4,4,4
04:43:00,2,4,1,2,7,2,0,3,3
04:44:00,1,4,8,7,6,4,3,5,5
04:45:00,6,2,3,2,4,1,4,3,3
04:46:00,1,6,6,4,4,2,0,4,3
04:47:00,1,6,5,3,3,3,1,4,3
04:48:00,2,4,5,5,4,4,6,4,4
04:49:00,5,3,5,1,5,0,2,4,3
04:50:00,2,8,1,9,6,3,2,5,4
04:51:00,4,4,6,5,3,3,1,4,4
04:52:00,4,6,3,7,5,3,2,5,4
04:53:00,2,2,6,7,5,2,2,4,4
04:54:00,5,2,5,1,3,1,4,3,3
04:55:00,2,3,2,2,8,3,2,3,3
04:56:00,8,6,8,9,7,3,8,8,7
04:57:00,2,7,6,4,5,2,1,5,4
04:58:00,1,5,4,4,7,3,2,4,4
04:59:00,3,6,6,1,4,3,2,4,4
05:00:00,2,5,5,6,5,3,1,5,4
05:01:00,5,5,8,4,4,0,2,5,4
05:02:00,5,3,4,8,4,2,0,5,4
05:03:00,4,4,8,9,5,4,0,6,5
05:04:00,3,7,4,2,6,1,0,4,3
05:05:00,6,12,6,10,7,3,1,8,6
05:06:00,2,8,12,4,5,4,2,6,5
05:07:00,3,10,4,9,8,2,3,7,6
05:08:00,8,5,5,3,8,6,1,6,5
05:09:00,6,4,11,10,7,7,0,8,6
05:10:00,9,10,6,3,9,0,2,7,6
05:11:00,7,7,9,10,5,0,1,8,6
05:12:00,7,11,7,8,11,4,2,9,7
05:13:00,13,7,4,14,5,1,2,9,7
05:14:00,3,13,11,5,14,5,7,9,8
05:15:00,8,8,18,6,7,1,0,9,7
05:16:00,7,8,8,13,11,6,1,9,8
05:17:00,7,6,10,15,9,3,8,9,8
05:18:00,6,6,10,5,12,9,2,8,7
05:19:00,12,10,4,10,2,4,1,8,6
05:20:00,3,6,7,8,6,5,2,6,5
05:21:00,8,8,12,6,8,4,2,8,7
05:22:00,6,4,8,8,8,6,2,7,6
05:23:00,7,2,9,6,4,1,3,6,5
05:24:00,9,11,10,9,17,4,1,11,9
05:25:00,12,4,4,9,4,8,6,7,7
05:26:00,10,12,4,4,9,6,3,8,7
05:27:00,8,10,8,9,10,6,6,9,8
05:28:00,8,8,12,10,4,3,3,8,7
05:29:00,7,5,5,9,7,5,3,7,6
05:30:00,2,12,11,7,5,4,4,7,6
05:31:00,17,7,9,6,15,5,6,11,9
05:32:00,6,8,5,13,11,2,1,9,7
05:33:00,9,14,14,10,8,8,5,11,10
05:34:00,2,5,8,8,6,7,5,6,6
05:35:00,11,9,11,11,2,7,1,9,7
05:36:00,7,12,11,9,15,8,3,11,9
05:37:00,6,15,7,10,10,4,1,10,8
05:38:00,15,13,16,8,13,3,3,13,10
05:39:00,12,12,11,10,11,2,5,11,9
05:40:00,11,10,8,11,12,5,5,10,9
05:41:00,11,10,17,14,4,2,4,11,9
05:42:00,5,7,11,7,10,3,2,8,6
05:43:00,12,7,13,12,6,3,2,10,8
05:44:00,15,16,3,12,10,8,1,11,9
05:45:00,13,13,12,8,11,6,0,11,9
05:46:00,8,10,10,12,10,3,3,10,8
05:47:00,7,4,6,10,12,4,2,8,6
05:48:00,13,10,11,8,5,5,2,9,8
05:49:00,13,8,6,15,12,1,1,11,8
05:50:00,10,8,8,8,8,5,9,8,8
05:51:00,8,14,12,9,10,1,5,11,8
05:52:00,9,9,6,7,6,5,2,7,6
05:53:00,17,14,12,10,11,1,1,13,9
05:54:00,5,14,8,7,6,4,2,8,7
05:55:00,8,8,8,11,14,2,3,10,8
05:56:00,12,8,9,11,10,6,0,10,8
05:57:00,10,9,8,8,6,6,2,8,7
05:58:00,8,12,13,12,3,8,2,10,8
05:59:00,8,14,8,8,16,7,2,11,9
06:00:00,10,5,10,17,16,2,1,12,9
06:01:00,5,15,10,14,13,5,0,11,9
06:02:00,10,4,1,9,11,3,6,7,6
06:03:00,7,9,18,6,15,7,2,11,9
06:04:00,13,16,10,14,18,3,2,14,11
06:05:00,12,12,17,19,8,5,0,14,10
06:06:00,11,12,10,14,13,5,4,12,10
06:07:00,10,16,12,5,10,6,6,11,9
06:08:00,15,14,19,16,10,7,4,15,12
06:09:00,21,14,13,18,14,9,1,16,13
06:10:00,16,13,20,20,15,8,2,17,13
06:11:00,11,15,16,20,9,6,4,14,12
06:12:00,11,19,15,15,12,3,4,14,11
06:13:00,7,16,10,14,15,7,2,12,10
06:14:00,11,10,14,14,16,8,6,13,11
06:15:00,10,17,12,8,13,6,4,12,10
06:16:00,15,13,10,22,9,4,2,14,11
06:17:00,13,15,21,19,18,4,3,17,13
06:18:00,13,17,9,5,11,5,2,11,9
06:19:00,18,14,19,13,12,5,4,15,12
06:20:00,8,18,17,16,8,4,3,13,11
06:21:00,16,11,17,19,11,3,2,15,11
06:22:00,10,11,13,23,20,10,7,15,13
06:23:00,22,17,17,16,23,2,1,19,14
06:24:00,16,11,15,18,13,5,5,15,12
06:25:00,12,12,12,16,15,1,2,13,10
06:26:00,17,25,21,10,17,6,4,18,14
06:27:00,13,17,15,26,12,6,3,17,13
06:28:00,16,20,22,20,20,5,3,20,15
06:29:00,12,10,14,14,24,14,1,15,13
06:30:00,23,19,18,19,19,4,4,20,15
06:31:00,15,11,26,18,21,6,5,18,15
06:32:00,15,28,22,22,15,5,3,20,16
06:33:00,9,15,20,20,17,7,5,16,13
06:34:00,24,23,18,24,13,7,1,20,16
06:35:00,13,24,27,22,24,6,6,22,17
06:36:00,20,23,18,25,14,9,4,20,16
06:37:00,17,23,18,13,22,4,4,19,14
06:38:00,18,16,18,14,27,10,4,19,15
06:39:00,21,14,17,14,15,8,2,16,13
06:40:00,16,27,18,13,17,7,4,18,15
06:41:00,21,25,25,16,17,12,7,21,18
06:42:00,15,25,27,18,19,4,3,21,16
06:43:00,21,23,17,24,24,7,3,22,17
06:44:00,25,23,20,25,29,12,2,24,19
06:45:00,28,31,24,17,22,9,2,24,19
06:46:00,26,23,22,30,20,9,2,24,19
06:47:00,23,17,18,23,25,11,4,21,17
06:48:00,27,21,30,26,11,7,9,23,19
06:49:00,26,24,26,22,18,9,8,23,19
06:50:00,21,24,19,26,25,10,7,23,19
06:51:00,22,16,27,22,25,8,7,22,18
06:52:00,27,30,25,27,32,11,8,28,23
06:53:00,16,26,28,34,25,7,1,26,20
06:54:00,28,24,24,18,20,7,6,23,18
06:55:00,24,28,23,21,31,6,7,25,20
06:56:00,17,29,25,26,29,11,4,25,20
06:57:00,23,33,23,33,26,14,3,28,22
06:58:00,22,31,22,26,26,9,2,25,20
06:59:00,21,24,34,24,17,6,0,24,18
07:00:00,20,21,23,27,21,7,5,22,18
07:01:00,11,32,18,20,32,5,8,23,18
07:02:00,20,22,38,30,20,7,3,26,20
07:03:00,21,29,30,21,28,7,3,26,20
07:04:00,21,30,28,24,16,6,6,24,19
07:05:00,26,22,23,18,28,4,3,23,18
07:06:00,18,36,20,23,29,11,3,25,20
07:07:00,20,37,15,34,30,10,4,27,21
07:08:00,23,36,25,24,25,7,1,27,20
07:09:00,19,30,19,25,28,5,8,24,19
07:10:00,32,25,33,28,38,4,5,31,24
07:11:00,13,27,24,25,22,9,2,22,17
07:12:00,30,34,26,29,16,11,4,27,21
07:13:00,26,25,20,35,26,11,2,26,21
07:14:00,30,36,33,20,33,13,4,30,24
07:15:00,30,29,21,28,29,6,2,27,21
07:16:00,31,25,33,33,37,7,11,32,25
07:17:00,27,28,28,35,14,6,3,26,20
07:18:00,23,35,27,26,32,6,4,29,22
07:19:00,37,22,24,14,35,12,3,26,21
07:20:00,34,26,25,26,42,12,6,31,24
07:21:00,24,28,25,23,28,10,3,26,20
07:22:00,30,28,29,24,26,6,1,27,21
07:23:00,34,26,29,22,23,7,1,27,20
07:24:00,42,25,35,24,20,7,3,29,22
07:25:00,27,31,27,33,28,6,3,29,22
07:26:00,32,22,33,22,21,18,5,26,22
07:27:00,27,27,24,31,28,13,4,27,22
07:28:00,37,26,25,36,24,7,3,30,23
07:29:00,31,28,22,31,16,16,3,26,21
07:30:00,29,27,22,21,30,11,3,26,20
07:31:00,30,22,25,31,27,5,6,27,21
07:32:00,21,25,27,25,25,7,2,25,19
07:33:00,28,30,22,33,21,12,2,27,21
07:34:00,28,30,33,27,25,11,4,29,23
07:35:00,33,31,31,27,27,12,7,30,24
07:36:00,35,29,32,30,37,6,11,33,26
07:37:00,29,30,29,28,27,10,2,29,22
07:38:00,26,24,30,29,17,9,4,25,20
07:39:00,22,32,28,25,28,10,14,27,23
07:40:00,18,23,26,24,27,12,6,24,19
07:41:00,35,25,23,31,33,14,5,29,24
07:42:00,32,22,24,23,22,10,2,25,19
07:43:00,23,31,25,30,29,13,7,28,23
07:44:00,17,28,23,31,21,11,9,24,20
07:45:00,26,22,27,22,31,8,6,26,20
07:46:00,21,31,31,33,32,13,0,30,23
07:47:00,36,28,33,31,24,11,2,30,24
07:48:00,31,20,18,17,18,7,7,21,17
07:49:00,23,33,24,26,23,8,6,26,20
07:50:00,30,26,21,23,23,9,3,25,19
07:51:00,31,22,23,29,23,7,4,26,20
07:52:00,18,19,13,28,25,12,2,21,17
07:53:00,32,27,12,23,31,10,7,25,20
07:54:00,24,28,20,24,23,11,11,24,20
07:55:00,25,25,27,28,25,11,7,26,21
07:56:00,30,28,27,28,25,16,4,28,23
07:57:00,22,24,24,19,24,12,7,23,19
07:58:00,21,20,18,25,31,18,9,23,20
07:59:00,22,24,26,21,24,8,5,23,19
08:00:00,9,26,19,29,24,16,4,21,18
08:01:00,23,17,26,25,25,13,6,23,19
08:02:00,28,22,12,16,27,6,0,21,16
08:03:00,18,23,26,31,29,9,3,25,20
08:04:00,20,21,19,31,29,10,2,24,19
08:05:00,19,27,19,30,21,15,8,23,20
08:06:00,17,23,20,33,22,7,1,23,18
08:07:00,30,15,14,26,32,12,6,23,19
08:08:00,24,6,24,37,31,18,2,24,20
08:09:00,17,22,27,19,31,15,2,23,19
08:10:00,32,19,19,28,26,11,4,25,20
08:11:00,25,21,24,27,4,13,9,20,18
08:12:00,23,24,24,22,21,11,7,23,19
08:13:00,20,27,27,33,13,19,3,24,20
08:14:00,24,29,15,23,23,9,13,23,19
08:15:00,29,29,25,12,19,7,8,23,18
08:16:00,30,16,18,14,22,3,6,20,16
08:17:00,30,13,19,13,19,20,8,19,17
08:18:00,27,20,16,26,27,19,5,23,20
08:19:00,21,20,31,26,17,14,7,23,19
08:20:00,14,13,23,21,6,12,7,15,14
08:21:00,28,14,26,20,8,13,5,19,16
08:22:00,26,16,19,21,18,22,8,20,19
08:23:00,22,17,27,24,13,23,6,21,19
08:24:00,25,8,23,22,27,19,8,21,19
08:25:00,30,20,28,21,21,13,5,24,20
08:26:00,23,17,27,24,22,10,6,23,18
08:27:00,24,29,25,26,20,11,3,25,20
08:28:00,21,15,30,8,15,16,7,18,16
08:29:00,24,11,30,15,23,21,9,21,19
08:30:00,29,30,22,29,33,16,4,29,23
08:31:00,29,27,20,19,18,13,5,23,19
08:32:00,23,21,24,25,20,23,3,23,20
08:33:00,25,27,29,16,18,14,9,23,20
08:34:00,13,22,32,18,21,21,6,21,19
08:35:00,27,23,26,12,31,13,16,24,21
08:36:00,29,23,22,22,29,13,9,25,21
08:37:00,29,16,15,21,17,17,9,20,18
08:38:00,21,30,20,25,16,18,5,22,19
08:39:00,25,27,27,18,21,23,4,24,21
08:40:00,23,26,17,22,18,14,7,21,18
08:41:00,31,17,16,26,11,21,11,20,19
08:42:00,25,28,25,22,20,26,10,24,22
08:43:00,27,21,26,17,29,18,7,24,21
08:44:00,24,16,21,26,23,14,9,22,19
08:45:00,26,20,24,22,28,14,8,24,20
08:46:00,27,22,25,24,23,26,11,24,23
08:47:00,22,17,23,22,22,21,10,21,20
08:48:00,23,20,26,14,18,14,12,20,18
08:49:00,31,9,27,21,12,18,5,20,18
08:50:00,28,12,17,23,26,12,10,21,18
08:51:00,29,7,23,9,24,20,16,18,18
08:52:00,24,19,18,11,26,24,11,20,19
08:53:00,27,17,22,17,28,10,10,22,19
08:54:00,17,30,25,31,23,20,12,25,23
08:55:00,21,19,24,18,25,19,10,21,19
08:56:00,23,25,24,27,23,22,3,24,21
08:57:00,25,13,23,25,23,16,13,22,20
08:58:00,19,10,24,33,29,21,12,23,21
08:59:00,28,12,19,23,25,20,7,21,19
09:00:00,27,4,26,26,25,18,8,22,19
09:01:00,23,20,32,25,31,12,11,26,22
09:02:00,25,26,9,24,22,20,11,21,20
09:03:00,35,19,16,27,26,16,10,25,21
09:04:00,25,35,9,25,19,18,10,23,20
09:05:00,30,22,14,31,26,22,18,25,23
09:06:00,25,23,18,25,29,8,4,24,19
09:07:00,35,29,24,30,37,26,10,31,27
09:08:00,31,22,19,30,26,15,11,26,22
09:09:00,26,29,29,38,20,17,19,28,25
09:10:00,14,21,19,27,32,18,9,23,20
09:11:00,26,23,13,26,32,26,10,24,22
09:12:00,27,22,18,26,22,19,9,23,20
09:13:00,27,28,22,35,23,22,15,27,25
09:14:00,22,22,25,25,35,10,9,26,21
09:15:00,28,24,29,29,22,17,13,26,23
09:16:00,26,31,20,29,25,22,15,26,24
09:17:00,27,25,25,25,24,17,11,25,22
09:18:00,23,18,23,20,42,27,16,25,24
09:19:00,37,18,30,15,33,22,13,27,24
09:20:00,27,30,28,30,26,22,12,28,25
09:21:00,32,37,33,31,26,19,7,32,26
09:22:00,28,32,20,20,31,19,13,26,23
09:23:00,23,27,23,24,28,24,15,25,23
09:24:00,13,20,31,29,33,19,20,25,24
09:25:00,13,22,33,25,27,24,10,24,22
09:26:00,24,29,28,28,34,14,13,29,24
09:27:00,36,21,25,29,17,36,15,26,26
09:28:00,27,31,20,19,23,18,20,24,23
09:29:00,27,26,22,17,29,27,15,24,23
09:30:00,19,28,19,16,20,22,16,20,20
09:31:00,30,27,26,19,27,24,19,26,25
09:32:00,23,29,25,18,20,33,13,23,23
09:33:00,27,30,33,13,24,17,17,25,23
09:34:00,23,29,22,23,22,25,18,24,23
09:35:00,20,36,27,32,29,23,21,29,27
09:36:00,22,15,10,26,24,24,14,19,19
09:37:00,25,32,26,19,19,31,28,24,26
09:38:00,26,21,20,22,22,13,23,22,21
09:39:00,23,22,19,24,20,30,21,22,23
09:40:00,25,13,20,23,34,31,22,23,24
09:41:00,28,22,29,39,27,27,26,29,28
09:42:00,20,22,25,23,13,37,15,21,22
09:43:00,27,23,5,22,25,29,14,20,21
09:44:00,15,36,22,23,25,27,19,24,24
09:45:00,16,28,32,16,37,31,20,26,26
09:46:00,18,24,22,22,23,26,25,22,23
09:47:00,27,21,34,24,39,33,27,29,29
09:48:00,28,30,22,24,25,22,21,26,25
09:49:00,21,29,19,30,20,31,14,24,23
09:50:00,20,25,25,23,14,25,16,21,21
09:51:00,20,22,21,23,21,26,23,21,22
09:52:00,17,24,19,19,37,23,25,23,23
09:53:00,26,26,23,11,22,20,19,22,21
09:54:00,21,30,18,15,28,26,23,22,23
09:55:00,22,28,23,27,34,20,27,27,26
09:56:00,28,19,27,12,24,25,15,22,21
09:57:00,33,27,27,20,21,33,22,26,26
09:58:00,15,23,13,13,25,28,20,18,20
09:59:00,14,14,32,16,24,20,26,20,21
10:00:00,26,20,18,24,16,37,24,21,24
10:01:00,30,24,23,20,27,34,17,25,25
10:02:00,26,20,22,28,15,20,24,22,22
10:03:00,26,17,16,24,20,37,31,21,24
10:04:00,25,30,10,18,18,24,21,20,21
10:05:00,24,37,15,23,23,21,20,24,23
10:06:00,24,27,27,21,20,28,17,24,23
10:07:00,29,18,24,27,26,15,33,25,25
10:08:00,18,26,36,29,25,17,21,27,25
10:09:00,22,20,25,26,27,29,21,24,24
10:10:00,25,12,14,29,19,19,28,20,21
10:11:00,28,22,32,23,23,34,22,26,26
10:12:00,22,17,23,20,23,15,15,21,19
10:13:00,20,14,20,22,27,40,23,21,24
10:14:00,17,34,27,24,21,28,22,25,25
10:15:00,27,31,25,21,13,39,22,23,25
10:16:00,25,23,13,22,28,30,28,22,24
10:17:00,22,17,17,19,26,27,20,20,21
10:18:00,31,38,32,25,24,27,36,30,30
10:19:00,18,30,28,21,20,26,21,23,23
10:20:00,17,27,26,28,33,37,25,26,28
10:21:00,30,21,25,28,30,33,14,27,26
10:22:00,30,17,16,26,30,28,23,24,24
10:23:00,37,24,24,21,21,18,15,25,23
10:24:00,23,13,25,16,25,24,21,20,21
10:25:00,28,26,31,28,31,34,27,29,29
10:26:00,22,30,16,23,23,29,27,23,24
10:27:00,35,23,26,15,24,33,27,25,26
10:28:00,27,22,17,21,31,26,20,24,23
10:29:00,23,30,25,25,22,28,23,25,25
10:30:00,18,20,14,21,24,30,21,19,21
10:31:00,29,26,16,24,27,21,23,24,24
10:32:00,30,20,26,28,24,20,21,26,24
10:33:00,21,14,26,28,18,26,28,21,23
10:34:00,20,27,22,22,26,31,29,23,25
10:35:00,16,31,25,26,24,29,23,24,25
10:36:00,21,33,31,24,18,39,29,25,28
10:37:00,20,19,26,29,22,33,34,23,26
10:38:00,21,26,28,31,24,27,27,26,26
10:39:00,16,29,29,24,20,20,23,24,23
10:40:00,22,32,24,32,33,22,26,29,27
10:41:00,24,17,16,26,31,29,28,23,24
10:42:00,31,25,15,21,24,26,26,23,24
10:43:00,24,24,28,28,25,25,21,26,25
10:44:00,22,23,18,18,31,26,32,22,24
10:45:00,30,26,19,30,23,31,24,26,26
10:46:00,16,18,24,24,22,30,30,21,23
10:47:00,18,19,24,33,20,20,19,23,22
10:48:00,10,21,17,20,20,26,29,18,20
10:49:00,37,29,21,26,27,39,24,28,29
10:50:00,34,30,25,31,27,28,33,29,30
10:51:00,22,14,19,20,22,27,32,19,22
10:52:00,27,24,25,21,31,22,23,26,25
10:53:00,24,21,24,26,32,36,29,25,27
10:54:00,22,23,33,27,13,33,24,24,25
10:55:00,24,28,24,15,17,28,24,22,23
10:56:00,22,20,24,21,21,23,25,22,22
10:57:00,28,21,21,26,30,30,26,25,26
10:58:00,14,21,23,22,23,24,23,21,21
10:59:00,22,22,21,17,30,20,36,22,24
11:00:00,23,26,22,26,27,29,19,25,25
11:01:00,18,23,30,19,24,31,28,23,25
11:02:00,25,24,25,24,21,31,22,24,25
11:03:00,22,19,18,18,41,30,18,24,24
11:04:00,32,22,14,20,29,22,26,23,24
11:05:00,23,21,36,17,17,21,21,23,22
11:06:00,24,22,26,26,25,32,19,25,25
11:07:00,25,25,27,15,18,29,28,22,24
11:08:00,32,13,21,18,19,26,23,21,22
11:09:00,27,20,24,29,29,35,26,26,27
11:10:00,30,26,22,25,35,25,20,28,26
11:11:00,22,29,30,29,35,28,32,29,29
11:12:00,24,24,19,15,23,34,31,21,24
11:13:00,24,23,29,16,26,38,20,24,25
11:14:00,15,31,21,34,31,26,29,26,27
11:15:00,22,20,25,33,24,25,19,25,24
11:16:00,23,24,25,20,22,30,29,23,25
11:17:00,20,26,12,20,32,32,19,22,23
11:18:00,19,28,24,31,20,26,29,24,25
11:19:00,31,25,30,26,32,26,28,29,28
11:20:00,25,30,19,29,23,29,31,25,27
11:21:00,30,21,18,26,33,33,20,26,26
11:22:00,33,28,31,14,14,19,22,24,23
11:23:00,20,23,27,25,36,14,40,26,26
11:24:00,19,19,17,21,27,23,40,21,24
11:25:00,22,25,34,27,27,22,23,27,26
11:26:00,11,27,13,17,20,33,27,18,21
11:27:00,20,22,23,26,27,38,28,24,26
11:28:00,24,26,29,37,13,25,30,26,26
11:29:00,15,16,16,17,34,14,31,20,20
11:30:00,19,24,21,24,39,31,25,25,26
11:31:00,24,23,34,15,25,24,32,24,25
11:32:00,24,23,21,19,28,32,24,23,24
11:33:00,21,6,24,22,34,22,23,21,22
11:34:00,23,10,17,23,26,34,21,20,22
11:35:00,28,28,32,24,29,29,32,28,29
11:36:00,28,42,21,23,27,27,29,28,28
11:37:00,27,27,16,28,26,34,13,25,24
11:38:00,25,33,27,16,22,24,35,25,26
11:39:00,22,22,29,19,24,25,27,23,24
11:40:00,21,29,25,20,23,13,27,24,23
11:41:00,26,29,34,28,24,13,31,28,26
11:42:00,27,28,28,30,26,27,18,28,26
11:43:00,26,32,18,18,32,32,25,25,26
11:44:00,25,17,27,11,30,18,14,22,20
11:45:00,33,17,20,27,20,30,30,23,25
11:46:00,23,29,25,19,25,18,30,24,24
11:47:00,33,24,16,25,25,33,35,25,27
11:48:00,24,34,39,18,29,14,31,29,27
11:49:00,26,24,23,24,17,28,31,23,25
11:50:00,25,18,27,16,27,26,30,23,24
11:51:00,32,32,33,25,28,28,33,30,30
11:52:00,24,28,17,24,28,29,29,24,26
11:53:00,20,27,23,32,25,21,29,25,25
11:54:00,32,32,17,25,31,31,29,27,28
11:55:00,16,28,23,35,21,27,23,25,25
11:56:00,31,23,23,28,30,26,27,27,27
11:57:00,19,22,27,14,29,22,30,22,23
11:58:00,23,32,31,19,32,30,27,27,28
11:59:00,20,17,20,29,35,11,27,24,23
12:00:00,23,31,22,16,30,19,40,24,26
12:01:00,27,28,26,23,23,23,25,25,25
12:02:00,31,27,28,24,34,28,16,29,27
12:03:00,29,22,13,13,23,25,33,20,23
12:04:00,29,27,31,21,27,21,30,27,27
12:05:00,21,30,28,24,24,16,26,25,24
12:06:00,19,26,19,25,29,19,35,24,25
12:07:00,30,21,25,18,14,29,28,22,24
12:08:00,31,33,31,21,21,25,22,27,26
12:09:00,21,25,28,31,25,23,30,26,26
12:10:00,21,22,19,24,20,25,25,21,22
12:11:00,23,16,22,25,21,17,27,21,22
12:12:00,30,30,19,27,31,36,29,27,29
12:13:00,30,31,38,24,27,28,30,30,30
12:14:00,22,26,22,19,30,23,24,24,24
12:15:00,28,23,14,29,34,21,30,26,26
12:16:00,22,27,17,25,24,25,20,23,23
12:17:00,18,28,25,17,22,18,35,22,23
12:18:00,26,28,32,24,26,15,37,27,27
12:19:00,24,36,28,21,32,22,29,28,27
12:20:00,19,26,24,22,24,21,32,23,24
12:21:00,25,25,28,37,26,23,27,28,27
12:22:00,23,29,26,22,19,19,19,24,22
12:23:00,27,20,14,32,32,22,11,25,23
12:24:00,21,26,24,19,28,37,22,24,25
12:25:00,18,29,34,30,25,25,26,27,27
12:26:00,18,30,15,30,22,20,24,23,23
12:27:00,36,25,28,27,18,33,34,27,29
12:28:00,31,28,25,32,23,24,20,28,26
12:29:00,25,29,23,28,30,11,29,27,25
12:30:00,29,15,19,24,37,19,16,25,23
12:31:00,27,21,18,14,20,13,16,20,18
12:32:00,24,19,19,25,28,13,10,23,20
12:33:00,35,27,24,23,29,25,23,28,27
12:34:00,10,15,26,30,21,25,23,20,21
12:35:00,31,29,21,36,19,18,28,27,26
12:36:00,24,26,23,20,24,27,25,23,24
12:37:00,28,26,20,34,21,12,29,26,24
12:38:00,21,25,28,29,34,15,31,27,26
12:39:00,29,30,21,25,26,19,23,26,25
12:40:00,21,14,21,20,31,22,16,21,21
12:41:00,19,21,27,23,29,20,15,24,22
12:42:00,33,19,31,21,22,22,31,25,26
12:43:00,15,27,27,26,17,21,36,22,24
12:44:00,28,24,15,23,31,21,35,24,25
12:45:00,27,25,18,25,33,17,27,26,25
12:46:00,23,17,27,17,22,24,19,21,21
12:47:00,25,26,31,13,20,29,23,23,24
12:48:00,26,23,21,20,26,29,24,23,24
12:49:00,21,17,31,16,21,28,28,21,23
12:50:00,20,35,16,25,34,27,32,26,27
12:51:00,25,21,21,26,23,26,26,23,24
12:52:00,31,34,21,27,27,21,34,28,28
12:53:00,22,22,28,17,24,36,35,23,26
12:54:00,23,25,19,27,22,35,24,23,25
12:55:00,26,23,18,32,18,31,30,23,25
12:56:00,24,26,21,19,17,25,32,21,23
12:57:00,23,29,19,23,34,28,30,26,27
12:58:00,19,15,21,22,26,19,29,21,22
12:59:00,24,32,23,27,27,21,29,27,26
13:00:00,29,19,23,25,20,27,23,23,24
13:01:00,21,15,32,30,27,18,33,25,25
13:02:00,20,28,27,10,18,26,17,21,21
13:03:00,23,27,17,22,21,25,30,22,24
13:04:00,29,27,23,22,26,20,23,25,24
13:05:00,25,28,26,27,22,26,25,26,26
13:06:00,23,24,30,31,24,20,21,26,25
13:07:00,29,26,30,33,32,13,26,30,27
13:08:00,26,29,16,26,20,12,22,23,22
13:09:00,39,30,22,12,24,19,28,25,25
13:10:00,17,23,24,26,20,26,24,22,23
13:11:00,20,22,28,24,31,26,30,25,26
13:12:00,19,25,23,32,21,18,31,24,24
13:13:00,23,29,27,20,31,18,23,26,24
13:14:00,24,36,23,13,28,11,22,25,22
13:15:00,35,32,22,23,11,25,34,25,26
13:16:00,24,22,21,21,16,28,24,21,22
13:17:00,24,18,28,24,24,30,35,24,26
13:18:00,41,24,22,23,28,18,31,28,27
13:19:00,26,24,21,26,19,20,24,23,23
13:20:00,33,22,23,30,15,26,29,25,25
13:21:00,23,14,31,24,18,24,23,22,22
13:22:00,27,16,40,27,17,20,21,25,24
13:23:00,28,31,21,32,13,9,21,25,22
13:24:00,29,23,14,19,8,23,31,19,21
13:25:00,28,30,29,15,13,24,33,23,25
13:26:00,30,23,31,24,27,20,28,27,26
13:27:00,20,14,29,17,42,25,30,24,25
13:28:00,22,24,33,9,26,33,26,23,25
13:29:00,27,14,19,18,25,32,29,21,23
13:30:00,26,30,26,24,31,39,27,27,29
13:31:00,26,36,23,27,29,26,23,28,27
13:32:00,22,32,28,19,24,21,34,25,26
13:33:00,23,35,35,17,14,26,27,25,25
13:34:00,22,26,26,11,27,31,25,22,24
13:35:00,25,16,27,19,22,37,31,22,25
13:36:00,26,14,23,32,33,30,25,26,26
13:37:00,19,28,28,34,28,22,42,27,29
13:38:00,23,30,28,33,36,18,19,30,27
13:39:00,22,14,21,27,22,24,27,21,22
13:40:00,30,27,24,29,20,27,29,26,27
13:41:00,17,9,26,27,25,22,26,21,22
13:42:00,11,19,26,26,25,32,23,21,23
13:43:00,27,27,22,25,35,26,23,27,26
13:44:00,19,28,17,32,26,27,28,24,25
13:45:00,30,28,20,19,36,30,32,27,28
13:46:00,29,23,32,29,25,34,27,28,28
13:47:00,25,32,27,29,26,29,36,28,29
13:48:00,23,17,29,26,29,20,23,25,24
13:49:00,28,29,18,24,34,26,27,27,27
13:50:00,22,24,34,21,31,28,23,26,26
13:51:00,29,19,26,19,36,28,39,26,28
13:52:00,30,20,21,36,24,29,12,26,25
13:53:00,25,13,20,20,32,15,33,22,23
13:54:00,28,22,24,32,21,26,32,25,26
13:55:00,23,26,22,19,18,22,34,22,23
13:56:00,22,25,32,25,21,36,29,25,27
13:57:00,24,17,14,17,35,29,32,21,24
13:58:00,33,30,28,28,33,31,28,30,30
13:59:00,28,28,36,26,31,24,34,30,30
14:00:00,12,16,28,30,28,21,31,23,24
14:01:00,27,19,23,24,26,28,24,24,24
14:02:00,17,26,27,26,25,28,28,24,25
14:03:00,20,27,30,33,31,25,18,28,26
14:04:00,18,27,16,22,31,37,26,23,25
14:05:00,17,22,26,15,17,16,29,19,20
14:06:00,33,19,28,22,23,26,31,25,26
14:07:00,22,20,27,26,30,26,23,25,25
14:08:00,22,32,23,24,29,30,25,26,26
14:09:00,20,26,25,21,24,33,30,23,26
14:10:00,23,18,35,29,30,39,18,27,27
14:11:00,18,25,25,29,31,25,14,26,24
14:12:00,23,16,23,28,23,33,9,23,22
14:13:00,24,15,32,26,33,20,29,26,26
14:14:00,24,27,23,27,25,24,29,25,26
14:15:00,30,24,32,17,18,26,21,24,24
14:16:00,31,34,39,28,34,27,25,33,31
14:17:00,32,30,34,23,32,30,29,30,30
14:18:00,28,26,26,28,30,28,19,28,26
14:19:00,19,35,27,26,23,29,30,26,27
14:20:00,32,27,27,31,26,15,33,29,27
14:21:00,25,19,21,22,20,23,32,21,23
14:22:00,24,30,25,29,22,19,26,26,25
14:23:00,35,18,26,33,30,24,19,28,26
14:24:00,24,25,28,16,27,26,24,24,24
14:25:00,21,26,35,32,29,34,14,29,27
14:26:00,26,22,31,27,21,33,25,25,26
14:27:00,24,27,23,31,28,30,31,27,28
14:28:00,25,28,35,30,27,24,31,29,29
14:29:00,30,26,23,25,21,33,23,25,26
14:30:00,27,29,34,26,32,25,28,30,29
14:31:00,28,27,30,27,15,30,29,25,27
14:32:00,30,26,27,30,29,30,29,28,29
14:33:00,27,30,31,18,41,27,32,29,29
14:34:00,28,22,28,26,17,32,24,24,25
14:35:00,35,31,27,21,24,17,21,28,25
14:36:00,25,29,30,19,30,25,25,27,26
14:37:00,21,33,22,23,22,26,29,24,25
14:38:00,18,27,24,33,19,29,32,24,26
14:39:00,26,26,28,34,25,24,20,28,26
14:40:00,23,27,21,28,23,30,29,24,26
14:41:00,23,26,21,27,28,26,17,25,24
14:42:00,30,19,14,36,22,25,33,24,26
14:43:00,26,37,32,20,27,32,20,28,28
14:44:00,24,21,21,34,29,34,25,26,27
14:45:00,33,28,24,22,30,34,29,27,29
14:46:00,40,28,33,28,24,30,26,31,30
14:47:00,15,23,30,24,25,29,29,23,25
14:48:00,25,25,22,34,15,31,20,24,25
14:49:00,23,26,22,24,22,19,21,23,22
14:50:00,29,31,16,25,26,26,31,25,26
14:51:00,29,32,8,29,22,33,32,24,26
14:52:00,29,33,25,26,27,28,24,28,27
14:53:00,23,29,27,24,21,25,32,25,26
14:54:00,19,19,21,16,23,25,31,20,22
14:55:00,18,27,22,30,25,31,30,24,26
14:56:00,31,21,28,18,34,25,29,26,27
14:57:00,29,23,27,33,24,39,18,27,28
14:58:00,19,31,30,26,24,27,33,26,27
14:59:00,37,33,26,36,19,25,27,30,29
15:00:00,31,27,31,18,19,28,34,25,27
15:01:00,25,19,29,29,25,33,26,25,27
15:02:00,23,11,20,25,13,29,28,18,21
15:03:00,22,15,27,23,19,16,40,21,23
15:04:00,37,21,32,28,4,20,23,24,24
15:05:00,25,33,23,25,25,24,37,26,27
15:06:00,31,30,22,25,30,30,27,28,28
15:07:00,27,26,27,31,37,31,13,30,27
15:08:00,34,29,32,24,35,23,34,31,30
15:09:00,21,30,23,28,27,26,24,26,26
15:10:00,27,21,32,29,23,30,23,26,26
15:11:00,21,27,20,33,32,36,32,27,29
15:12:00,32,33,34,32,22,21,26,31,29
15:13:00,30,31,37,37,21,25,28,31,30
15:14:00,26,30,23,29,25,23,24,27,26
15:15:00,27,30,22,31,27,23,28,27,27
15:16:00,34,29,24,19,16,21,31,24,25
15:17:00,27,24,19,35,23,24,34,26,27
15:18:00,25,25,25,18,33,31,26,25,26
15:19:00,29,30,22,25,21,26,27,25,26
15:20:00,25,24,31,23,28,23,29,26,26
15:21:00,22,30,24,33,36,29,26,29,29
15:22:00,33,24,33,33,31,12,30,31,28
15:23:00,20,20,25,40,37,24,18,28,26
15:24:00,32,18,23,25,36,32,26,27,27
15:25:00,17,24,32,39,34,34,28,29,30
15:26:00,27,16,21,15,16,28,32,19,22
15:27:00,34,40,28,28,23,28,31,31,30
15:28:00,23,29,32,22,28,25,29,27,27
15:29:00,26,33,27,28,31,21,24,29,27
15:30:00,31,29,33,28,26,30,21,29,28
15:31:00,30,37,30,29,13,24,21,28,26
15:32:00,23,23,37,26,26,39,23,27,28
15:33:00,34,36,24,34,23,29,26,30,29
15:34:00,25,19,27,25,33,31,30,26,27
15:35:00,30,30,29,36,26,22,28,30,29
15:36:00,28,30,30,23,20,28,19,26,25
15:37:00,27,35,26,36,18,24,23,28,27
15:38:00,20,25,28,28,27,24,17,26,24
15:39:00,25,26,34,27,22,19,27,27,26
15:40:00,18,28,24,31,25,26,27,25,26
15:41:00,31,31,36,29,20,26,29,29,29
15:42:00,32,23,32,19,33,30,27,28,28
15:43:00,34,34,36,28,25,31,25,31,30
15:44:00,24,29,22,32,21,19,21,26,24
15:45:00,27,27,34,32,18,31,27,28,28
15:46:00,32,19,35,41,31,26,36,32,31
15:47:00,30,21,25,29,35,23,26,28,27
15:48:00,16,23,32,23,42,41,20,27,28
15:49:00,31,35,24,27,28,29,16,29,27
15:50:00,22,23,38,28,22,25,25,27,26
15:51:00,20,20,16,29,26,29,30,22,24
15:52:00,14,27,27,34,32,25,24,27,26
15:53:00,25,33,20,26,25,28,33,26,27
15:54:00,31,25,16,18,27,19,22,23,23
15:55:00,33,31,30,20,30,24,26,29,28
15:56:00,28,27,35,35,41,27,30,33,32
15:57:00,24,32,34,36,12,36,21,28,28
15:58:00,31,24,19,32,23,32,25,26,27
15:59:00,33,23,32,26,29,37,29,29,30
16:00:00,35,31,31,33,32,18,33,32,30
16:01:00,20,17,34,34,18,23,19,25,24
16:02:00,26,15,31,31,20,18,26,25,24
16:03:00,36,14,32,32,19,26,29,27,27
16:04:00,33,20,37,29,20,25,34,28,28
16:05:00,21,19,23,20,22,24,23,21,22
16:06:00,29,34,33,24,23,28,21,29,27
16:07:00,19,21,32,28,26,19,20,25,24
16:08:00,25,16,31,26,14,21,30,22,23
16:09:00,27,24,24,27,18,13,19,24,22
16:10:00,27,30,28,35,28,23,29,30,29
16:11:00,23,32,30,21,14,18,26,24,23
16:12:00,35,34,32,28,25,27,31,31,30
16:13:00,24,21,31,32,17,36,24,25,26
16:14:00,45,14,26,32,29,25,25,29,28
16:15:00,24,19,30,24,16,19,17,23,21
16:16:00,28,25,28,30,22,29,14,27,25
16:17:00,29,28,35,28,29,31,27,30,30
16:18:00,19,24,25,34,30,28,23,26,26
16:19:00,32,23,20,31,25,22,27,26,26
16:20:00,24,19,22,30,14,24,17,22,21
16:21:00,19,16,31,28,9,23,26,21,22
16:22:00,21,14,33,18,20,27,26,21,23
16:23:00,22,24,24,33,24,26,24,25,25
16:24:00,18,10,24,19,30,18,27,20,21
16:25:00,22,24,29,25,20,22,31,24,25
16:26:00,22,31,24,29,35,38,25,28,29
16:27:00,27,23,27,27,12,32,21,23,24
16:28:00,28,26,22,17,27,25,22,24,24
16:29:00,28,32,21,27,9,25,19,23,23
16:30:00,30,22,23,28,19,24,10,24,22
16:31:00,29,21,24,26,12,24,20,22,22
16:32:00,20,32,37,26,33,21,21,30,27
16:33:00,19,20,37,26,9,22,23,22,22
16:34:00,19,18,25,27,33,26,21,24,24
16:35:00,27,18,23,22,15,27,21,21,22
16:36:00,28,27,23,10,23,23,29,22,23
16:37:00,22,13,29,22,16,27,21,20,21
16:38:00,20,15,14,18,22,28,19,18,19
16:39:00,29,18,22,27,22,26,23,24,24
16:40:00,27,24,33,17,26,24,16,25,24
16:41:00,24,24,37,18,23,31,29,25,27
16:42:00,27,15,31,20,23,29,20,23,24
16:43:00,18,29,20,29,23,24,21,24,23
16:44:00,26,24,16,29,30,32,27,25,26
16:45:00,15,25,22,21,11,30,12,19,19
16:46:00,10,6,25,30,22,27,28,19,21
16:47:00,23,27,14,28,25,21,11,23,21
16:48:00,34,11,27,26,24,23,24,24,24
16:49:00,32,21,31,16,15,29,21,23,24
16:50:00,29,28,25,24,19,20,17,25,23
16:51:00,25,20,25,33,15,30,12,24,23
16:52:00,33,17,25,29,21,26,18,25,24
16:53:00,19,22,28,15,30,22,28,23,23
16:54:00,28,26,20,19,29,23,22,24,24
16:55:00,14,31,22,17,26,23,17,22,21
16:56:00,29,32,26,32,36,35,15,31,29
16:57:00,24,18,36,20,9,36,22,21,24
16:58:00,24,18,21,21,13,17,19,19,19
16:59:00,28,28,35,35,17,34,23,29,29
17:00:00,29,16,23,18,24,30,22,22,23
17:01:00,16,32,27,23,23,37,20,24,25
17:02:00,22,19,22,20,27,26,20,22,22
17:03:00,24,21,25,24,23,26,13,23,22
17:04:00,25,25,17,26,26,22,17,24,23
17:05:00,11,25,25,26,18,32,18,21,22
17:06:00,25,22,16,25,19,25,9,21,20
17:07:00,31,20,29,27,6,29,25,23,24
17:08:00,24,23,14,37,16,26,19,23,23
17:09:00,22,25,24,38,5,19,13,23,21
17:10:00,24,18,26,26,23,31,27,23,25
17:11:00,28,30,30,24,21,35,15,27,26
17:12:00,22,26,21,6,24,34,13,20,21
17:13:00,16,23,31,26,25,35,23,24,26
17:14:00,25,18,11,33,28,30,16,23,23
17:15:00,21,10,31,27,20,21,12,22,20
17:16:00,28,24,23,26,38,17,16,28,25
17:17:00,24,29,23,26,28,22,13,26,24
17:18:00,18,32,15,25,14,33,9,21,21
17:19:00,26,10,26,29,10,27,17,20,21
17:20:00,29,18,27,24,14,33,19,22,23
17:21:00,14,29,29,28,18,23,14,24,22
17:22:00,11,27,16,24,26,28,19,21,22
17:23:00,9,20,26,32,28,22,18,23,22
17:24:00,22,14,16,35,20,21,13,21,20
17:25:00,24,15,35,14,24,18,16,22,21
17:26:00,22,26,19,26,16,22,16,22,21
17:27:00,20,31,13,37,27,27,17,26,25
17:28:00,31,29,26,25,34,23,21,29,27
17:29:00,20,26,34,25,25,30,22,26,26
17:30:00,21,16,29,23,32,27,14,24,23
17:31:00,29,13,25,32,24,35,15,25,25
17:32:00,26,32,13,25,12,30,20,22,23
17:33:00,28,22,10,24,18,25,21,20,21
17:34:00,36,15,20,25,29,34,17,25,25
17:35:00,25,25,31,36,27,20,14,29,25
17:36:00,27,26,29,23,24,24,18,26,24
17:37:00,29,35,33,33,9,33,19,28,27
17:38:00,28,33,19,30,25,21,14,27,24
17:39:00,23,24,34,27,24,22,17,26,24
17:40:00,30,15,22,31,32,23,15,26,24
17:41:00,22,29,16,19,26,34,15,22,23
17:42:00,24,28,20,24,32,32,19,26,26
17:43:00,29,18,22,16,17,13,15,20,19
17:44:00,24,23,16,20,29,27,11,22,21
17:45:00,24,31,17,21,29,29,6,24,22
17:46:00,29,34,17,12,26,27,13,24,23
17:47:00,32,30,27,23,22,27,12,27,25
17:48:00,21,17,11,34,19,16,15,20,19
17:49:00,21,28,14,32,24,28,18,24,24
17:50:00,28,24,29,28,22,29,8,26,24
17:51:00,24,30,31,36,19,16,20,28,25
17:52:00,25,25,11,26,33,16,10,24,21
17:53:00,19,34,27,26,15,23,20,24,23
17:54:00,22,28,31,18,35,21,17,27,25
17:55:00,38,19,28,23,22,27,12,26,24
17:56:00,31,24,30,23,26,27,20,27,26
17:57:00,28,31,31,22,27,18,14,28,24
17:58:00,25,29,17,27,29,23,12,25,23
17:59:00,29,35,24,25,33,32,12,29,27
18:00:00,33,17,22,21,26,29,16,24,23
18:01:00,35,33,35,29,22,22,19,31,28
18:02:00,26,25,30,26,27,22,18,27,25
18:03:00,28,24,37,33,20,28,11,28,26
18:04:00,24,17,27,18,35,23,13,24,22
18:05:00,16,23,27,26,26,20,16,24,22
18:06:00,18,16,16,23,27,20,19,20,20
18:07:00,21,22,27,22,20,37,17,22,24
18:08:00,24,23,22,20,28,31,16,23,23
18:09:00,29,20,31,25,32,24,17,27,25
18:10:00,25,26,22,26,18,20,20,23,22
18:11:00,35,17,15,32,22,25,13,24,23
18:12:00,23,17,19,27,17,23,18,21,21
18:13:00,22,18,17,36,30,11,19,25,22
18:14:00,19,21,23,26,26,10,14,23,20
18:15:00,28,11,33,28,32,21,20,26,25
18:16:00,31,29,12,23,31,29,15,25,24
18:17:00,30,14,28,32,28,18,15,26,24
18:18:00,23,21,29,31,37,21,18,28,26
18:19:00,25,27,34,23,29,20,15,28,25
18:20:00,15,17,24,25,16,21,17,19,19
18:21:00,18,41,30,18,30,16,21,27,25
18:22:00,16,27,33,28,26,16,11,26,22
18:23:00,19,25,18,19,25,22,23,21,22
18:24:00,43,22,30,31,40,10,16,33,27
18:25:00,17,23,10,20,25,13,16,19,18
18:26:00,23,32,27,36,21,19,19,28,25
18:27:00,22,36,34,26,25,15,12,29,24
18:28:00,20,27,23,21,31,17,19,24,23
18:29:00,20,34,20,17,35,22,13,25,23
18:30:00,30,26,31,20,40,23,18,29,27
18:31:00,32,34,32,25,37,18,17,32,28
18:32:00,34,27,24,26,26,26,17,27,26
18:33:00,22,22,15,20,27,15,18,21,20
18:34:00,24,18,24,28,18,21,18,22,22
18:35:00,24,33,15,25,30,26,17,25,24
18:36:00,20,29,23,29,32,30,15,27,25
18:37:00,20,29,26,17,30,20,11,24,22
18:38:00,17,18,29,27,29,16,17,24,22
18:39:00,27,30,23,13,22,19,20,23,22
18:40:00,24,14,26,21,30,20,15,23,21
18:41:00,28,18,21,27,25,15,17,24,22
18:42:00,33,16,25,32,19,17,17,25,23
18:43:00,14,27,25,25,30,20,15,24,22
18:44:00,24,28,22,26,25,15,20,25,23
18:45:00,30,23,19,28,19,15,20,24,22
18:46:00,19,28,25,26,18,22,18,23,22
18:47:00,23,21,22,26,26,21,21,24,23
18:48:00,21,27,17,25,19,20,13,22,20
18:49:00,14,24,28,27,19,11,13,22,19
18:50:00,21,23,22,20,17,21,16,21,20
18:51:00,27,23,24,27,16,29,13,23,23
18:52:00,20,25,22,29,20,20,22,23,23
18:53:00,14,20,28,24,22,18,21,22,21
18:54:00,22,22,26,26,16,9,7,22,18
18:55:00,29,25,26,16,22,22,16,24,22
18:56:00,27,29,31,20,30,21,12,27,24
18:57:00,18,23,30,20,18,22,15,22,21
18:58:00,16,30,24,25,28,13,8,25,21
18:59:00,21,23,27,24,21,23,16,23,22
19:00:00,24,27,21,18,22,21,26,22,23
19:01:00,21,30,27,20,19,20,13,23,21
19:02:00,27,13,20,18,23,12,13,20,18
19:03:00,20,12,27,27,15,22,15,20,20
19:04:00,21,3,28,19,21,14,20,18,18
19:05:00,23,20,32,20,16,16,9,22,19
19:06:00,18,27,27,18,32,28,17,24,24
19:07:00,16,24,18,18,22,23,9,20,19
19:08:00,26,15,21,14,28,22,21,21,21
19:09:00,11,17,22,24,14,19,16,18,18
19:10:00,24,26,19,21,33,18,15,25,22
19:11:00,20,24,18,21,24,19,16,21,20
19:12:00,16,16,24,31,23,18,13,22,20
19:13:00,27,19,16,32,30,17,17,25,23
19:14:00,16,19,25,17,27,16,19,21,20
19:15:00,20,16,22,22,22,23,17,20,20
19:16:00,18,17,29,19,20,27,16,21,21
19:17:00,18,17,15,27,26,17,13,21,19
19:18:00,19,17,27,19,21,16,6,21,18
19:19:00,17,21,24,16,28,23,13,21,20
19:20:00,18,22,27,17,27,10,18,22,20
19:21:00,27,26,31,16,14,19,15,23,21
19:22:00,26,29,21,16,21,17,11,23,20
19:23:00,24,26,20,18,25,18,8,23,20
19:24:00,19,17,22,19,15,17,14,18,18
19:25:00,21,23,20,13,19,14,14,19,18
19:26:00,19,20,24,16,16,23,18,19,19
19:27:00,19,15,17,15,20,7,15,17,15
19:28:00,23,25,22,19,16,21,13,21,20
19:29:00,20,22,20,13,25,16,11,20,18
19:30:00,23,23,17,26,26,23,10,23,21
19:31:00,25,23,20,12,20,11,12,20,18
19:32:00,17,20,18,19,16,19,12,18,17
19:33:00,20,16,15,17,19,13,11,17,16
19:34:00,23,11,21,18,23,16,14,19,18
19:35:00,16,19,24,19,10,15,5,18,15
19:36:00,22,22,17,25,15,13,10,20,18
19:37:00,8,17,18,16,15,18,13,15,15
19:38:00,19,12,16,19,22,16,12,18,17
19:39:00,20,17,22,19,19,14,18,19,18
19:40:00,19,21,23,8,18,20,10,18,17
19:41:00,18,16,18,22,15,13,9,18,16
19:42:00,20,23,12,16,23,15,14,19,18
19:43:00,19,16,25,17,15,19,11,18,17
19:44:00,20,30,16,17,19,11,12,20,18
19:45:00,21,21,22,32,14,13,7,22,19
19:46:00,16,9,11,16,15,11,16,13,13
19:47:00,13,17,10,14,24,15,11,16,15
19:48:00,15,20,19,23,24,17,16,20,19
19:49:00,12,17,18,15,19,14,6,16,14
19:50:00,14,15,9,17,14,17,17,14,15
19:51:00,18,21,18,13,26,17,7,19,17
19:52:00,13,23,22,20,11,15,3,18,15
19:53:00,16,10,13,13,13,10,14,13,13
19:54:00,18,13,12,12,20,9,8,15,13
19:55:00,8,14,14,10,17,9,6,13,11
19:56:00,18,18,11,20,12,7,10,16,14
19:57:00,30,12,11,20,15,11,7,18,15
19:58:00,12,20,22,12,19,13,5,17,15
19:59:00,17,12,3,17,18,7,5,13,11
20:00:00,18,13,15,19,16,5,11,16,14
20:01:00,17,17,17,7,9,2,9,13,11
20:02:00,14,10,14,11,21,13,7,14,13
20:03:00,14,14,11,27,11,11,9,15,14
20:04:00,14,8,16,14,11,17,9,13,13
20:05:00,20,6,16,15,16,15,7,15,14
20:06:00,18,19,9,18,13,13,4,15,13
20:07:00,18,15,13,12,15,7,6,15,12
20:08:00,13,9,19,16,20,16,6,15,14
20:09:00,18,14,21,19,16,10,12,18,16
20:10:00,5,17,15,15,19,6,13,14,13
20:11:00,17,11,17,15,11,10,11,14,13
20:12:00,11,20,22,17,8,7,10,16,14
20:13:00,26,13,15,15,14,13,18,17,16
20:14:00,16,20,7,15,15,15,12,15,14
20:15:00,11,20,19,18,18,10,12,17,15
20:16:00,14,7,15,17,16,9,9,14,12
20:17:00,13,12,17,20,17,5,10,16,13
20:18:00,13,18,16,10,10,6,14,13,12
20:19:00,9,10,12,14,16,14,7,12,12
20:20:00,13,13,9,13,21,11,6,14,12
20:21:00,11,14,13,11,14,12,8,13,12
20:22:00,23,19,15,11,9,16,10,15,15
20:23:00,16,10,10,22,18,14,18,15,15
20:24:00,7,13,11,9,11,17,17,10,12
20:25:00,22,15,12,17,9,5,4,15,12
20:26:00,16,21,17,14,15,6,6,17,14
20:27:00,15,8,15,13,17,8,11,14,12
20:28:00,21,15,7,19,14,14,9,15,14
20:29:00,13,12,15,16,15,6,11,14,13
20:30:00,9,21,10,12,10,9,11,12,12
20:31:00,9,21,12,10,7,13,11,12,12
20:32:00,15,15,13,14,8,15,13,13,13
20:33:00,12,15,16,13,10,10,13,13,13
20:34:00,10,8,9,13,10,6,10,10,9
20:35:00,16,6,16,15,11,10,12,13,12
20:36:00,23,9,8,6,15,8,6,12,11
20:37:00,15,8,7,9,9,7,10,10,9
20:38:00,10,15,12,15,6,10,17,12,12
20:39:00,6,13,11,6,6,6,11,8,8
20:40:00,6,11,1,11,9,9,8,8,8
20:41:00,14,8,11,7,12,8,4,10,9
20:42:00,15,12,13,12,12,6,9,13,11
20:43:00,9,7,12,13,4,8,9,9,9
20:44:00,10,10,6,13,10,7,5,10,9
20:45:00,8,7,3,11,13,14,6,8,9
20:46:00,10,10,5,17,11,7,10,11,10
20:47:00,17,8,12,10,13,5,11,12,11
20:48:00,9,5,7,14,10,13,3,9,9
20:49:00,11,19,11,7,8,17,7,11,11
20:50:00,18,13,9,16,11,10,7,13,12
20:51:00,20,10,7,12,3,7,4,10,9
20:52:00,14,13,5,12,14,5,11,12,11
20:53:00,10,16,15,10,17,12,4,14,12
20:54:00,13,12,12,12,7,8,7,11,10
20:55:00,11,14,15,14,7,6,9,12,11
20:56:00,13,7,7,12,16,7,10,11,10
20:57:00,16,11,7,13,17,5,4,13,10
20:58:00,11,8,8,14,9,6,9,10,9
20:59:00,12,13,15,6,16,8,9,12,11
21:00:00,7,9,16,7,5,9,2,9,8
21:01:00,11,12,8,12,11,12,10,11,11
21:02:00,9,10,8,11,7,9,6,9,9
21:03:00,6,14,3,8,9,7,11,8,8
21:04:00,12,5,11,15,15,14,2,12,11
21:05:00,9,9,16,7,10,7,11,10,10
21:06:00,11,11,12,11,12,12,13,11,12
21:07:00,7,10,7,7,10,6,4,8,7
21:08:00,12,8,11,12,5,8,3,10,8
21:09:00,12,12,3,12,12,8,12,10,10
21:10:00,5,11,9,12,13,1,0,10,7
21:11:00,9,10,14,15,13,7,7,12,11
21:12:00,9,4,21,9,7,11,8,10,10
21:13:00,7,6,10,9,6,7,4,8,7
21:14:00,12,19,3,8,11,7,6,11,9
21:15:00,14,9,7,15,7,7,6,10,9
21:16:00,8,11,11,10,17,6,6,11,10
21:17:00,9,5,18,9,8,9,11,10,10
21:18:00,7,8,16,12,6,12,4,10,9
21:19:00,10,8,11,8,5,5,4,8,7
21:20:00,6,8,16,10,17,14,8,11,11
21:21:00,9,25,14,11,5,7,6,13,11
21:22:00,17,11,16,10,11,7,5,13,11
21:23:00,8,12,10,6,13,5,9,10,9
21:24:00,8,13,8,2,8,15,4,8,8
21:25:00,11,10,10,8,11,6,4,10,9
21:26:00,10,7,12,14,16,7,5,12,10
21:27:00,4,7,10,7,4,5,10,6,7
21:28:00,8,6,9,10,8,10,5,8,8
21:29:00,15,9,17,13,9,13,2,13,11
21:30:00,5,17,7,9,5,8,7,9,8
21:31:00,3,8,19,7,14,5,7,10,9
21:32:00,12,10,12,5,4,8,6,9,8
21:33:00,15,10,13,11,12,8,6,12,11
21:34:00,13,4,8,9,7,11,1,8,8
21:35:00,10,12,8,7,15,3,6,10,9
21:36:00,5,14,10,10,5,7,7,9,8
21:37:00,10,5,11,12,11,6,0,10,8
21:38:00,11,3,10,9,3,9,5,7,7
21:39:00,11,10,6,8,12,8,7,9,9
21:40:00,10,8,11,13,7,6,4,10,8
21:41:00,10,17,7,12,12,6,4,12,10
21:42:00,9,10,11,4,5,7,2,8,7
21:43:00,8,6,11,12,8,10,6,9,9
21:44:00,6,13,11,13,9,12,8,10,10
21:45:00,8,5,8,14,7,12,2,8,8
21:46:00,8,8,11,5,12,9,9,9,9
21:47:00,10,14,7,18,7,4,5,11,9
21:48:00,8,2,8,16,5,9,6,8,8
21:49:00,6,8,12,9,8,7,5,9,8
21:50:00,7,8,7,12,9,9,8,9,9
21:51:00,3,9,6,11,3,3,10,6,6
21:52:00,8,7,8,7,9,9,6,8,8
21:53:00,9,5,13,3,6,5,13,7,8
21:54:00,6,4,5,13,5,7,5,7,6
21:55:00,14,7,13,6,11,5,7,10,9
21:56:00,10,8,10,5,10,14,1,9,8
21:57:00,3,9,9,9,5,4,2,7,6
21:58:00,8,10,7,7,3,8,5,7,7
21:59:00,7,7,9,6,14,8,4,9,8
22:00:00,6,10,9,11,4,3,3,8,7
22:01:00,9,9,5,8,8,9,4,8,7
22:02:00,5,12,8,14,7,3,3,9,7
22:03:00,10,8,10,7,7,11,9,8,9
22:04:00,4,12,4,8,5,9,7,7,7
22:05:00,10,8,9,8,7,7,2,8,7
22:06:00,14,8,15,12,6,14,6,11,11
22:07:00,14,11,7,8,10,9,2,10,9
22:08:00,8,7,15,5,3,10,7,8,8
22:09:00,9,6,7,13,11,8,4,9,8
22:10:00,10,8,8,10,5,6,3,8,7
22:11:00,9,12,10,7,11,7,6,10,9
22:12:00,7,14,13,11,8,6,3,11,9
22:13:00,8,8,10,13,14,11,4,11,10
22:14:00,14,18,9,14,12,7,6,13,11
22:15:00,3,14,6,10,10,5,3,9,7
22:16:00,6,9,5,6,7,4,6,7,6
22:17:00,15,7,10,10,9,9,3,10,9
22:18:00,9,7,14,8,2,10,4,8,8
22:19:00,6,9,14,8,7,16,4,9,9
22:20:00,9,11,5,7,6,6,7,8,7
22:21:00,12,6,14,13,10,9,7,11,10
22:22:00,11,6,9,11,6,9,3,9,8
22:23:00,8,4,13,10,9,12,8,9,9
22:24:00,9,4,6,12,2,10,2,7,6
22:25:00,7,12,5,5,10,8,4,8,7
22:26:00,5,9,4,5,7,9,4,6,6
22:27:00,6,7,10,5,8,6,3,7,6
22:28:00,7,8,3,10,11,10,6,8,8
22:29:00,4,9,4,11,11,4,3,8,7
22:30:00,6,8,11,5,8,9,4,8,7
22:31:00,9,9,1,6,6,5,3,6,6
22:32:00,3,7,4,11,6,6,5,6,6
22:33:00,2,2,11,9,2,6,3,5,5
22:34:00,2,3,3,5,5,14,4,4,5
22:35:00,8,4,3,7,9,9,3,6,6
22:36:00,7,3,4,7,5,11,6,5,6
22:37:00,8,8,6,12,3,18,0,7,8
22:38:00,5,8,7,6,9,15,3,7,8
22:39:00,4,5,5,3,9,3,5,5,5
22:40:00,6,7,6,3,8,14,2,6,7
22:41:00,3,5,7,6,9,3,6,6,6
22:42:00,4,10,6,6,4,7,4,6,6
22:43:00,2,10,4,7,6,6,0,6,5
22:44:00,7,6,8,1,11,16,5,7,8
22:45:00,3,1,4,6,9,4,2,5,4
22:46:00,6,4,3,3,3,10,4,4,5
22:47:00,6,12,7,1,7,0,3,7,5
22:48:00,3,3,10,3,2,5,5,4,4
22:49:00,5,5,3,8,5,6,5,5,5
22:50:00,0,8,9,11,8,7,2,7,6
22:51:00,6,0,6,4,6,3,4,4,4
22:52:00,4,7,7,8,10,7,2,7,6
22:53:00,11,4,7,5,7,2,9,7,6
22:54:00,10,8,8,9,9,6,1,9,7
22:55:00,3,6,4,5,7,7,3,5,5
22:56:00,7,4,6,8,6,3,3,6,5
22:57:00,5,4,5,1,8,5,4,5,5
22:58:00,1,2,2,4,7,8,3,3,4
22:59:00,6,9,1,1,5,5,1,4,4
23:00:00,5,7,6,4,10,7,3,6,6
23:01:00,4,3,6,4,4,9,1,4,4
23:02:00,7,5,3,3,4,7,2,4,4
23:03:00,4,3,4,6,5,3,2,4,4
23:04:00,4,4,6,2,4,5,4,4,4
23:05:00,6,3,1,0,5,5,1,3,3
23:06:00,3,3,7,5,4,11,2,4,5
23:07:00,3,1,2,3,4,8,4,3,4
23:08:00,6,2,2,4,2,13,1,3,4
23:09:00,5,3,4,4,5,4,2,4,4
23:10:00,3,4,8,5,11,6,2,6,6
23:11:00,6,5,2,0,5,2,4,4,3
23:12:00,4,5,6,2,9,6,1,5,5
23:13:00,3,4,6,7,6,7,4,5,5
23:14:00,5,4,5,0,3,7,5,3,4
23:15:00,3,2,5,3,5,4,1,4,3
23:16:00,5,6,7,2,4,5,6,5,5
23:17:00,2,2,4,4,7,5,1,4,4
23:18:00,4,1,6,5,11,5,0,5,5
23:19:00,2,4,2,9,2,6,2,4,4
23:20:00,4,8,5,3,4,4,2,5,4
23:21:00,5,5,5,6,4,11,3,5,6
23:22:00,7,8,3,6,3,8,4,5,6
23:23:00,2,7,5,3,3,7,3,4,4
23:24:00,1,6,2,5,6,5,1,4,4
23:25:00,2,3,6,3,4,7,4,4,4
23:26:00,4,1,2,3,1,7,7,2,4
23:27:00,3,0,5,5,8,9,2,4,5
23:28:00,0,5,4,5,3,7,2,3,4
23:29:00,2,9,5,5,2,7,4,5,5
23:30:00,3,4,4,3,4,3,0,4,3
23:31:00,5,3,4,0,5,12,6,3,5
23:32:00,5,5,2,2,2,5,2,3,3
23:33:00,3,1,3,2,6,7,3,3,4
23:34:00,1,1,3,3,4,4,4,2,3
23:35:00,5,5,6,1,3,7,0,4,4
23:36:00,1,3,3,4,5,10,3,3,4
23:37:00,2,1,1,4,5,5,3,3,3
23:38:00,3,3,2,3,3,12,4,3,4
23:39:00,2,2,1,4,7,7,1,3,3
23:40:00,1,1,3,5,5,2,4,3,3
23:41:00,6,2,0,0,1,15,3,2,4
23:42:00,1,2,2,0,6,4,3,2,3
23:43:00,3,2,2,1,1,4,1,2,2
23:44:00,6,3,1,1,1,15,1,2,4
23:45:00,4,3,0,1,6,4,2,3,3
23:46:00,2,6,4,2,3,6,1,3,3
23:47:00,4,7,3,3,7,9,0,5,5
23:48:00,2,4,3,5,5,5,2,4,4
23:49:00,1,2,8,5,8,6,0,5,4
23:50:00,2,2,6,6,9,5,2,5,5
23:51:00,6,5,2,4,4,0,2,4,3
23:52:00,3,2,0,2,2,1,3,2,2
23:53:00,3,3,1,6,4,4,3,3,3
23:54:00,2,4,3,2,4,0,2,3,2
23:55:00,4,4,0,3,3,11,1,3,4
23:56:00,4,3,1,1,4,8,4,3,4
23:57:00,2,5,2,2,2,7,2,3,3
23:58:00,4,2,3,3,4,5,1,3,3
23:59:00,3,1,2,4,3,2,2,3,2
,,,,,,,,,
Totals,,,,,,,,,
12H(7-19),17947,17528,17730,17900,17833,16549,14441,17788,17133
16H(6-22),21463,21094,21371,21519,21379,18984,16318,21365,20304
18H(6-24),22076,21753,22009,22168,22085,19833,16703,22018,20947
24H(0-24),22916,22706,23071,23117,23034,20559,17387,22969,21827
,,,,,,,,,
AM Peak,07:12:00,06:52:00,06:48:00,07:09:00,11:00:00,10:13:00,10:59:00,06:52:00,10:01:00
,1612,1664,1579,1620,1601,1701,1604,1594,1463
,,,,,,,,,
PM Peak,15:04:00,14:45:00,15:19:00,15:21:00,13:26:00,14:03:00,13:10:00,15:05:00,15:05:00
,1638,1623,1736,1739,1646,1664,1664,1650,1632
,,,,,,,,,
,,,,,,,,,
CA Traffic,,,,,,,,,VDA-net R2 13/02/2020
