Site Number,00008027,Unnamed: 2,Site Reference,00008027.1,Unnamed: 5,Unnamed: 6,Lat/Lng.,"52.08032,1.11894",Unnamed: 9
Radar 8027 White House Road,,,,,,,,,
Vehicle Count Report,,,,Week Begin: 17 February 2020,,,Channel:,Total Flow,
,,,,,,,,,
,,,,,,,,,
,2020-02-17 00:00:00,2020-02-18 00:00:00,2020-02-19 00:00:00,2020-02-20 00:00:00,2020-02-21 00:00:00,2020-02-22 00:00:00,2020-02-23 00:00:00,"5-Day
Ave.","7-Day
Ave."
00:00:00,1,0,1,0,0,2,0,0,1
00:01:00,0,1,1,0,1,0,2,1,1
00:02:00,0,0,0,0,0,0,0,0,0
00:03:00,2,1,1,0,0,0,1,1,1
00:04:00,0,1,0,0,1,0,1,0,0
00:05:00,0,1,0,0,0,2,0,0,0
00:06:00,0,0,1,0,1,0,1,0,0
00:07:00,1,2,0,1,1,0,0,1,1
00:08:00,0,1,1,1,1,0,1,1,1
00:09:00,0,0,1,1,0,1,1,0,1
00:10:00,0,1,0,0,0,0,0,0,0
00:11:00,0,0,2,0,0,0,2,0,1
00:12:00,1,0,0,0,1,0,1,0,0
00:13:00,1,0,0,0,0,0,0,0,0
00:14:00,0,0,0,1,1,0,0,0,0
00:15:00,1,0,0,1,1,0,0,1,0
00:16:00,1,0,0,0,0,2,0,0,0
00:17:00,0,1,1,0,0,0,0,0,0
00:18:00,4,0,0,0,1,1,0,1,1
00:19:00,1,0,1,0,1,0,0,1,0
00:20:00,0,1,0,0,1,3,0,0,1
00:21:00,0,0,0,0,0,0,1,0,0
00:22:00,0,0,0,1,1,0,0,0,0
00:23:00,0,1,0,0,0,0,1,0,0
00:24:00,0,0,0,0,2,1,3,0,1
00:25:00,0,0,0,0,0,0,2,0,0
00:26:00,0,0,0,0,0,0,0,0,0
00:27:00,0,0,0,1,0,0,1,0,0
00:28:00,0,0,0,0,0,0,3,0,0
00:29:00,0,1,0,0,1,0,1,0,0
00:30:00,0,0,0,2,0,0,0,0,0
00:31:00,0,1,0,1,0,1,0,0,0
00:32:00,0,0,0,0,0,1,2,0,0
00:33:00,0,1,0,0,0,0,0,0,0
00:34:00,0,0,0,0,0,1,1,0,0
00:35:00,1,1,0,1,0,1,1,1,1
00:36:00,0,0,0,1,0,1,0,0,0
00:37:00,0,0,0,0,0,0,0,0,0
00:38:00,4,0,1,0,2,0,0,1,1
00:39:00,0,1,0,0,0,0,0,0,0
00:40:00,0,0,0,0,0,1,0,0,0
00:41:00,0,0,0,0,0,0,1,0,0
00:42:00,0,0,0,0,0,0,0,0,0
00:43:00,2,0,0,0,0,1,1,0,1
00:44:00,0,0,0,0,1,0,0,0,0
00:45:00,0,0,0,1,0,1,0,0,0
00:46:00,0,0,0,0,0,0,0,0,0
00:47:00,0,0,2,0,0,0,0,0,0
00:48:00,0,0,0,0,1,0,0,0,0
00:49:00,3,0,0,0,0,1,1,1,1
00:50:00,0,0,0,0,0,0,0,0,0
00:51:00,0,0,1,1,0,0,0,0,0
00:52:00,0,0,0,0,0,0,2,0,0
00:53:00,0,0,0,0,0,0,0,0,0
00:54:00,0,0,1,0,2,1,2,1,1
00:55:00,0,0,0,0,1,1,1,0,0
00:56:00,0,0,0,0,0,0,0,0,0
00:57:00,0,0,0,0,0,0,0,0,0
00:58:00,0,0,0,0,1,0,0,0,0
00:59:00,0,1,0,0,0,0,0,0,0
01:00:00,0,0,0,0,0,0,0,0,0
01:01:00,0,0,0,0,0,1,1,0,0
01:02:00,0,0,0,0,0,1,1,0,0
01:03:00,0,0,1,0,2,0,0,1,0
01:04:00,0,0,0,0,0,0,0,0,0
01:05:00,2,1,0,0,0,0,2,1,1
01:06:00,0,0,0,0,0,0,0,0,0
01:07:00,0,0,0,0,0,0,0,0,0
01:08:00,0,0,0,1,0,0,1,0,0
01:09:00,0,1,0,0,0,0,0,0,0
01:10:00,0,0,1,1,0,0,1,0,0
01:11:00,0,0,0,0,1,0,1,0,0
01:12:00,0,0,0,0,0,0,0,0,0
01:13:00,0,0,0,0,1,0,2,0,0
01:14:00,0,1,0,0,0,0,0,0,0
01:15:00,0,0,0,0,1,0,1,0,0
01:16:00,0,1,0,0,0,0,0,0,0
01:17:00,0,0,0,0,0,0,1,0,0
01:18:00,0,1,0,0,0,0,0,0,0
01:19:00,0,1,0,1,0,1,0,0,0
01:20:00,0,0,0,0,0,1,1,0,0
01:21:00,0,0,4,0,0,1,0,1,1
01:22:00,0,0,0,0,0,0,1,0,0
01:23:00,0,0,0,0,0,1,1,0,0
01:24:00,1,0,0,0,0,0,0,0,0
01:25:00,2,0,0,0,0,0,0,0,0
01:26:00,0,0,0,0,0,0,0,0,0
01:27:00,0,0,0,0,1,1,0,0,0
01:28:00,0,0,1,0,1,0,0,0,0
01:29:00,0,0,0,0,0,0,0,0,0
01:30:00,0,1,0,0,0,0,0,0,0
01:31:00,0,0,0,0,0,0,0,0,0
01:32:00,0,0,0,0,0,0,0,0,0
01:33:00,0,1,0,0,0,0,0,0,0
01:34:00,0,0,0,0,1,0,0,0,0
01:35:00,0,0,0,0,0,0,1,0,0
01:36:00,0,1,0,0,1,0,0,0,0
01:37:00,0,0,0,0,0,0,0,0,0
01:38:00,0,0,0,0,0,0,0,0,0
01:39:00,0,0,0,0,0,0,0,0,0
01:40:00,0,0,0,0,0,0,1,0,0
01:41:00,0,0,0,0,1,0,1,0,0
01:42:00,0,0,0,0,0,1,0,0,0
01:43:00,0,0,0,0,1,0,0,0,0
01:44:00,0,0,0,0,0,0,0,0,0
01:45:00,0,0,0,0,1,0,0,0,0
01:46:00,0,0,0,0,1,0,1,0,0
01:47:00,0,0,0,0,0,2,1,0,0
01:48:00,0,0,0,0,1,1,1,0,0
01:49:00,0,0,0,0,0,0,1,0,0
01:50:00,0,0,1,0,0,2,0,0,0
01:51:00,0,0,0,0,0,0,1,0,0
01:52:00,0,0,1,0,0,0,0,0,0
01:53:00,0,0,0,0,0,0,0,0,0
01:54:00,0,0,1,0,0,0,0,0,0
01:55:00,0,1,0,0,0,0,0,0,0
01:56:00,0,0,0,0,0,0,0,0,0
01:57:00,0,0,0,0,0,0,0,0,0
01:58:00,0,0,0,0,0,0,0,0,0
01:59:00,0,0,0,0,0,0,0,0,0
02:00:00,0,0,0,0,0,0,0,0,0
02:01:00,0,0,0,0,0,1,0,0,0
02:02:00,0,0,0,0,1,0,0,0,0
02:03:00,0,0,1,0,0,0,0,0,0
02:04:00,0,0,0,0,0,0,0,0,0
02:05:00,0,0,0,0,0,0,0,0,0
02:06:00,0,1,0,0,0,0,0,0,0
02:07:00,0,0,0,0,1,0,0,0,0
02:08:00,0,0,0,0,0,0,0,0,0
02:09:00,0,0,0,0,0,1,2,0,0
02:10:00,0,0,0,0,0,0,0,0,0
02:11:00,0,0,0,0,0,0,1,0,0
02:12:00,0,1,0,0,0,0,2,0,0
02:13:00,0,0,1,1,0,0,1,0,0
02:14:00,0,0,0,0,1,1,1,0,0
02:15:00,0,0,0,0,0,0,0,0,0
02:16:00,0,0,0,0,0,0,0,0,0
02:17:00,0,0,0,0,0,0,1,0,0
02:18:00,0,0,0,0,0,0,0,0,0
02:19:00,0,0,0,0,0,0,0,0,0
02:20:00,0,0,0,0,0,0,0,0,0
02:21:00,0,0,0,0,1,1,2,0,1
02:22:00,0,0,0,0,0,0,0,0,0
02:23:00,0,0,0,0,0,0,0,0,0
02:24:00,0,1,0,0,0,1,0,0,0
02:25:00,0,0,0,0,0,0,0,0,0
02:26:00,0,0,1,0,0,0,0,0,0
02:27:00,0,0,0,0,0,0,0,0,0
02:28:00,0,0,0,0,0,0,3,0,0
02:29:00,0,0,0,0,0,0,0,0,0
02:30:00,0,0,0,0,0,0,0,0,0
02:31:00,0,0,0,0,0,0,0,0,0
02:32:00,0,0,0,0,0,0,1,0,0
02:33:00,0,0,0,0,0,0,0,0,0
02:34:00,0,0,0,0,0,0,0,0,0
02:35:00,0,0,0,0,1,0,0,0,0
02:36:00,0,0,0,0,0,0,0,0,0
02:37:00,0,0,0,1,0,0,1,0,0
02:38:00,0,0,0,0,0,1,1,0,0
02:39:00,0,0,0,0,1,0,1,0,0
02:40:00,0,0,0,0,0,0,0,0,0
02:41:00,0,0,0,0,0,0,0,0,0
02:42:00,0,0,0,0,0,0,0,0,0
02:43:00,0,0,0,0,0,1,0,0,0
02:44:00,0,0,0,0,1,0,0,0,0
02:45:00,0,0,0,0,0,0,0,0,0
02:46:00,0,0,0,0,0,0,0,0,0
02:47:00,0,1,0,0,0,0,1,0,0
02:48:00,1,0,0,0,1,0,0,0,0
02:49:00,0,0,0,0,0,0,0,0,0
02:50:00,0,0,0,0,0,0,2,0,0
02:51:00,0,0,0,0,0,0,0,0,0
02:52:00,0,0,0,0,0,0,0,0,0
02:53:00,0,1,0,0,0,0,0,0,0
02:54:00,0,0,0,0,0,0,0,0,0
02:55:00,0,0,0,0,0,0,0,0,0
02:56:00,0,0,0,0,0,0,1,0,0
02:57:00,0,0,0,0,0,0,0,0,0
02:58:00,0,0,0,0,0,0,1,0,0
02:59:00,0,0,0,0,1,0,0,0,0
03:00:00,0,0,0,0,0,0,0,0,0
03:01:00,0,0,0,0,0,0,0,0,0
03:02:00,0,0,0,0,0,0,1,0,0
03:03:00,0,0,0,0,0,1,1,0,0
03:04:00,0,1,1,2,0,0,0,1,1
03:05:00,0,0,0,0,0,0,0,0,0
03:06:00,0,0,0,0,0,0,0,0,0
03:07:00,0,0,0,0,0,0,0,0,0
03:08:00,0,1,0,0,0,0,0,0,0
03:09:00,0,0,0,0,1,0,1,0,0
03:10:00,0,0,0,0,0,0,1,0,0
03:11:00,0,1,0,1,0,0,0,0,0
03:12:00,0,0,0,0,0,0,0,0,0
03:13:00,0,0,1,0,0,1,0,0,0
03:14:00,0,1,0,0,0,0,0,0,0
03:15:00,0,0,0,0,0,0,0,0,0
03:16:00,0,0,0,0,0,1,0,0,0
03:17:00,0,0,0,0,0,0,0,0,0
03:18:00,0,0,0,0,0,0,0,0,0
03:19:00,1,0,0,0,0,0,0,0,0
03:20:00,0,0,0,0,0,0,0,0,0
03:21:00,0,1,0,0,0,0,0,0,0
03:22:00,0,0,0,0,0,1,0,0,0
03:23:00,0,0,0,0,0,1,0,0,0
03:24:00,0,0,0,0,1,2,0,0,0
03:25:00,0,1,1,0,0,1,0,0,0
03:26:00,0,0,0,0,0,0,0,0,0
03:27:00,0,0,0,1,0,1,0,0,0
03:28:00,0,0,0,2,0,0,1,0,0
03:29:00,0,0,0,1,0,0,2,0,0
03:30:00,0,0,0,0,0,0,0,0,0
03:31:00,0,0,0,0,0,1,0,0,0
03:32:00,0,0,0,0,0,0,0,0,0
03:33:00,0,0,0,0,0,0,1,0,0
03:34:00,0,0,0,0,0,1,0,0,0
03:35:00,0,0,0,0,0,0,0,0,0
03:36:00,0,0,0,0,0,1,0,0,0
03:37:00,0,0,0,0,2,0,0,0,0
03:38:00,0,0,0,0,0,0,1,0,0
03:39:00,1,0,0,0,0,0,1,0,0
03:40:00,0,0,0,0,0,0,0,0,0
03:41:00,0,0,0,1,0,0,0,0,0
03:42:00,0,0,0,0,1,0,1,0,0
03:43:00,0,0,0,0,0,0,0,0,0
03:44:00,0,0,0,0,0,0,1,0,0
03:45:00,0,0,0,1,0,0,0,0,0
03:46:00,0,0,1,0,0,0,0,0,0
03:47:00,0,0,1,0,0,0,0,0,0
03:48:00,0,0,0,0,0,0,0,0,0
03:49:00,0,0,0,0,0,0,0,0,0
03:50:00,0,0,1,0,1,1,1,0,1
03:51:00,0,0,0,0,1,0,0,0,0
03:52:00,0,0,0,1,0,0,1,0,0
03:53:00,0,0,0,0,3,2,1,1,1
03:54:00,0,1,0,1,0,0,0,0,0
03:55:00,0,0,0,0,0,0,0,0,0
03:56:00,0,1,0,0,0,0,0,0,0
03:57:00,0,0,0,0,0,0,0,0,0
03:58:00,0,0,0,0,0,0,0,0,0
03:59:00,0,0,0,1,1,0,0,0,0
04:00:00,0,0,0,0,0,1,0,0,0
04:01:00,0,0,0,1,1,2,1,0,1
04:02:00,0,1,0,0,0,1,0,0,0
04:03:00,1,0,0,0,1,0,0,0,0
04:04:00,0,0,1,0,0,1,0,0,0
04:05:00,1,0,1,0,0,0,1,0,0
04:06:00,0,0,0,0,0,0,0,0,0
04:07:00,0,0,0,0,1,0,2,0,0
04:08:00,0,0,2,0,0,0,0,0,0
04:09:00,0,0,0,0,0,1,0,0,0
04:10:00,0,0,0,0,0,1,0,0,0
04:11:00,0,0,0,0,0,0,0,0,0
04:12:00,0,0,0,0,0,1,0,0,0
04:13:00,0,0,0,0,0,1,1,0,0
04:14:00,0,0,0,1,0,0,0,0,0
04:15:00,0,1,0,0,1,1,1,0,1
04:16:00,0,0,0,0,0,0,1,0,0
04:17:00,0,0,0,0,0,0,1,0,0
04:18:00,0,1,0,0,1,0,1,0,0
04:19:00,0,1,0,0,0,0,0,0,0
04:20:00,1,0,0,0,1,0,0,0,0
04:21:00,0,0,1,0,0,1,0,0,0
04:22:00,0,0,0,1,0,1,0,0,0
04:23:00,0,0,0,0,0,0,0,0,0
04:24:00,1,0,0,0,1,0,1,0,0
04:25:00,0,0,0,1,1,0,1,0,0
04:26:00,1,1,0,0,0,0,0,0,0
04:27:00,0,0,0,0,1,1,0,0,0
04:28:00,0,2,0,0,0,0,0,0,0
04:29:00,0,0,0,0,0,1,1,0,0
04:30:00,0,0,0,0,0,0,0,0,0
04:31:00,2,0,0,1,0,0,0,1,0
04:32:00,0,0,0,1,0,0,0,0,0
04:33:00,0,0,0,1,1,0,1,0,0
04:34:00,0,0,0,0,0,0,0,0,0
04:35:00,0,4,0,0,2,0,0,1,1
04:36:00,0,1,0,1,0,2,0,0,1
04:37:00,0,0,0,0,0,0,0,0,0
04:38:00,0,0,3,0,1,0,0,1,1
04:39:00,0,0,0,0,0,0,0,0,0
04:40:00,1,1,0,0,0,0,0,0,0
04:41:00,0,2,0,0,0,1,0,0,0
04:42:00,0,2,1,0,1,0,0,1,1
04:43:00,0,1,1,0,2,0,0,1,1
04:44:00,0,0,0,0,0,0,0,0,0
04:45:00,1,1,0,0,0,0,0,0,0
04:46:00,0,1,0,0,0,0,0,0,0
04:47:00,0,0,1,2,0,0,0,1,0
04:48:00,0,1,0,1,0,0,0,0,0
04:49:00,0,2,0,0,1,0,0,1,0
04:50:00,0,0,0,1,0,0,1,0,0
04:51:00,1,0,1,0,0,0,0,0,0
04:52:00,0,0,0,2,0,0,1,0,0
04:53:00,0,1,0,0,1,0,0,0,0
04:54:00,2,0,1,0,0,0,1,1,1
04:55:00,0,0,1,1,1,1,0,1,1
04:56:00,2,1,1,0,3,0,0,1,1
04:57:00,2,1,1,0,0,0,0,1,1
04:58:00,0,0,0,1,1,0,0,0,0
04:59:00,1,0,0,1,0,1,0,0,0
05:00:00,1,0,0,0,0,0,0,0,0
05:01:00,3,0,1,2,0,1,0,1,1
05:02:00,0,1,1,1,0,0,0,1,0
05:03:00,2,0,1,0,0,0,1,1,1
05:04:00,2,1,0,1,0,0,0,1,1
05:05:00,2,1,1,1,0,0,0,1,1
05:06:00,2,0,1,0,1,0,0,1,1
05:07:00,0,1,4,0,1,0,0,1,1
05:08:00,0,0,1,2,2,0,0,1,1
05:09:00,0,2,0,1,1,0,0,1,1
05:10:00,1,1,0,1,0,0,0,1,0
05:11:00,1,0,0,0,2,1,0,1,1
05:12:00,0,0,0,0,0,0,0,0,0
05:13:00,0,0,0,1,0,0,0,0,0
05:14:00,0,1,0,1,0,0,0,0,0
05:15:00,0,0,0,0,1,0,0,0,0
05:16:00,0,2,0,1,1,0,2,1,1
05:17:00,0,2,1,2,0,0,0,1,1
05:18:00,1,0,2,0,2,0,0,1,1
05:19:00,0,2,0,1,0,0,0,1,0
05:20:00,0,1,0,0,0,2,0,0,0
05:21:00,1,0,1,1,0,0,1,1,1
05:22:00,0,1,0,0,0,1,0,0,0
05:23:00,0,1,0,4,0,0,0,1,1
05:24:00,0,4,0,0,3,2,0,1,1
05:25:00,1,1,0,0,1,1,0,1,1
05:26:00,0,1,1,0,0,0,0,0,0
05:27:00,0,0,1,1,0,0,1,0,0
05:28:00,1,1,1,0,3,0,0,1,1
05:29:00,0,2,0,0,0,0,0,0,0
05:30:00,0,1,0,1,0,0,1,0,0
05:31:00,1,0,0,1,0,1,1,0,1
05:32:00,2,1,0,0,0,0,0,1,0
05:33:00,1,3,0,0,2,0,0,1,1
05:34:00,0,1,2,1,4,0,0,2,1
05:35:00,0,0,2,0,0,0,0,0,0
05:36:00,1,1,0,1,2,0,0,1,1
05:37:00,1,0,1,1,0,0,0,1,0
05:38:00,2,2,0,3,0,1,1,1,1
05:39:00,1,2,1,0,0,1,0,1,1
05:40:00,2,0,0,0,2,1,0,1,1
05:41:00,1,1,0,1,1,1,0,1,1
05:42:00,3,4,0,0,1,0,2,2,1
05:43:00,1,3,1,1,1,0,0,1,1
05:44:00,0,0,1,1,0,0,0,0,0
05:45:00,0,0,3,1,3,1,0,1,1
05:46:00,0,0,0,1,0,0,0,0,0
05:47:00,1,2,1,2,1,0,1,1,1
05:48:00,3,2,0,2,1,2,0,2,1
05:49:00,0,2,2,3,1,0,0,2,1
05:50:00,3,0,4,3,4,0,1,3,2
05:51:00,2,1,3,2,1,0,0,2,1
05:52:00,2,4,3,2,2,0,1,3,2
05:53:00,1,0,3,2,2,1,1,2,1
05:54:00,4,1,3,4,1,0,0,3,2
05:55:00,0,3,3,0,2,0,1,2,1
05:56:00,1,2,2,1,1,1,0,1,1
05:57:00,1,2,4,3,2,1,1,2,2
05:58:00,5,1,3,1,1,0,0,2,2
05:59:00,3,4,1,5,4,1,1,3,3
06:00:00,1,2,5,1,4,0,1,3,2
06:01:00,6,1,2,3,1,0,2,3,2
06:02:00,1,5,3,0,2,1,0,2,2
06:03:00,2,4,2,0,2,0,0,2,1
06:04:00,3,1,3,1,1,0,0,2,1
06:05:00,4,3,2,1,3,1,1,3,2
06:06:00,3,3,4,1,6,0,1,3,3
06:07:00,3,4,2,1,2,0,0,2,2
06:08:00,6,3,3,2,0,2,0,3,2
06:09:00,1,2,2,1,4,0,1,2,2
06:10:00,3,0,0,1,1,2,0,1,1
06:11:00,0,0,3,4,0,0,1,1,1
06:12:00,2,0,3,0,3,0,1,2,1
06:13:00,1,2,1,1,2,0,2,1,1
06:14:00,0,1,2,3,0,1,0,1,1
06:15:00,1,0,2,2,2,0,0,1,1
06:16:00,0,0,1,1,3,0,1,1,1
06:17:00,2,1,1,0,1,1,0,1,1
06:18:00,0,2,2,0,0,0,0,1,1
06:19:00,1,7,0,2,0,0,0,2,1
06:20:00,1,2,2,4,0,1,1,2,2
06:21:00,1,2,5,0,3,1,0,2,2
06:22:00,2,1,3,3,3,0,0,2,2
06:23:00,2,1,1,4,0,1,0,2,1
06:24:00,1,0,1,4,2,1,0,2,1
06:25:00,3,0,7,4,5,1,0,4,3
06:26:00,3,1,4,2,2,1,0,2,2
06:27:00,4,2,2,2,2,1,0,2,2
06:28:00,1,0,2,4,2,1,1,2,2
06:29:00,5,1,1,1,1,0,0,2,1
06:30:00,2,2,2,0,1,1,1,1,1
06:31:00,4,3,0,1,4,2,0,2,2
06:32:00,0,1,2,5,0,0,0,2,1
06:33:00,1,4,0,4,0,1,0,2,1
06:34:00,1,4,5,4,4,1,0,4,3
06:35:00,3,1,2,4,2,0,0,2,2
06:36:00,5,2,6,2,2,2,2,3,3
06:37:00,1,4,2,4,4,3,1,3,3
06:38:00,4,3,3,1,3,0,1,3,2
06:39:00,3,6,3,2,1,1,0,3,2
06:40:00,5,3,4,2,2,2,2,3,3
06:41:00,6,2,1,3,0,1,1,2,2
06:42:00,4,4,4,3,5,1,1,4,3
06:43:00,0,6,2,2,4,2,1,3,2
06:44:00,2,5,2,2,0,1,1,2,2
06:45:00,2,3,2,3,1,3,0,2,2
06:46:00,3,1,5,4,3,0,2,3,3
06:47:00,5,3,2,3,1,1,0,3,2
06:48:00,2,3,1,2,0,2,0,2,1
06:49:00,4,0,1,4,4,0,0,3,2
06:50:00,4,3,0,1,3,1,1,2,2
06:51:00,2,5,4,3,2,1,1,3,3
06:52:00,0,1,1,5,6,1,1,3,2
06:53:00,5,2,2,7,3,1,1,4,3
06:54:00,1,2,1,2,5,2,2,2,2
06:55:00,5,0,1,2,2,3,0,2,2
06:56:00,2,2,1,5,6,1,0,3,2
06:57:00,6,3,2,4,1,3,0,3,3
06:58:00,3,2,3,4,3,0,0,3,2
06:59:00,1,3,6,3,3,3,1,3,3
07:00:00,5,2,4,3,4,0,0,4,3
07:01:00,3,6,5,5,5,2,1,5,4
07:02:00,4,4,4,4,6,2,1,4,4
07:03:00,5,4,3,4,4,0,0,4,3
07:04:00,0,2,7,4,4,0,0,3,2
07:05:00,3,3,6,3,7,1,0,4,3
07:06:00,6,2,0,1,1,0,1,2,2
07:07:00,4,7,2,1,4,1,0,4,3
07:08:00,0,4,3,0,3,0,0,2,1
07:09:00,7,1,1,3,3,2,0,3,2
07:10:00,3,2,5,4,5,5,0,4,3
07:11:00,3,3,4,2,7,0,0,4,3
07:12:00,3,5,7,1,6,1,1,4,3
07:13:00,11,3,2,7,4,1,0,5,4
07:14:00,4,3,4,6,5,0,0,4,3
07:15:00,8,7,4,4,3,0,1,5,4
07:16:00,3,4,3,5,3,2,0,4,3
07:17:00,5,3,6,3,3,0,1,4,3
07:18:00,5,5,8,4,5,0,1,5,4
07:19:00,2,2,7,3,4,4,2,4,3
07:20:00,6,6,4,2,4,4,0,4,4
07:21:00,2,6,6,3,0,3,0,3,3
07:22:00,6,5,3,2,3,2,0,4,3
07:23:00,5,2,7,2,6,2,0,4,3
07:24:00,10,5,5,4,2,1,1,5,4
07:25:00,4,7,1,7,7,1,1,5,4
07:26:00,3,6,7,6,8,2,0,6,5
07:27:00,7,11,9,9,7,0,0,9,6
07:28:00,9,8,6,6,6,1,1,7,5
07:29:00,5,5,9,7,9,1,1,7,5
07:30:00,5,5,3,6,3,2,1,4,4
07:31:00,1,9,8,6,9,1,2,7,5
07:32:00,8,6,5,4,4,1,0,5,4
07:33:00,5,8,5,6,4,2,0,6,4
07:34:00,6,3,8,9,6,0,1,6,5
07:35:00,9,6,8,6,8,0,0,7,5
07:36:00,8,6,5,6,4,1,1,6,4
07:37:00,7,8,8,4,5,2,1,6,5
07:38:00,4,8,5,6,8,4,0,6,5
07:39:00,9,8,8,3,12,3,1,8,6
07:40:00,8,5,12,5,5,2,2,7,6
07:41:00,11,6,7,15,9,2,0,10,7
07:42:00,10,10,8,6,3,2,1,7,6
07:43:00,9,11,7,11,9,2,0,9,7
07:44:00,8,12,10,8,7,4,0,9,7
07:45:00,9,10,7,9,11,1,1,9,7
07:46:00,10,7,10,7,4,1,1,8,6
07:47:00,6,5,8,5,3,2,2,5,4
07:48:00,7,10,6,6,10,5,0,8,6
07:49:00,9,9,6,7,9,0,0,8,6
07:50:00,9,5,9,3,8,1,1,7,5
07:51:00,7,6,6,9,5,2,1,7,5
07:52:00,5,8,10,7,6,3,2,7,6
07:53:00,8,9,11,9,3,2,0,8,6
07:54:00,8,11,9,9,9,2,0,9,7
07:55:00,15,10,15,16,16,5,1,14,11
07:56:00,7,7,10,6,4,2,0,7,5
07:57:00,7,5,18,6,4,2,1,8,6
07:58:00,4,8,8,5,7,0,4,6,5
07:59:00,7,6,7,6,13,1,1,8,6
08:00:00,11,5,9,14,7,2,0,9,7
08:01:00,7,5,6,6,8,6,0,6,5
08:02:00,9,6,5,2,5,2,0,5,4
08:03:00,5,1,7,7,5,1,1,5,4
08:04:00,12,4,7,6,5,2,2,7,5
08:05:00,3,7,5,10,7,2,0,6,5
08:06:00,5,9,8,5,7,4,1,7,6
08:07:00,4,7,7,6,5,2,2,6,5
08:08:00,8,7,11,5,5,5,2,7,6
08:09:00,6,7,6,10,7,2,0,7,5
08:10:00,6,5,6,13,4,3,1,7,5
08:11:00,8,8,8,5,9,6,1,8,6
08:12:00,11,6,5,9,8,2,1,8,6
08:13:00,9,6,4,7,13,1,2,8,6
08:14:00,7,7,1,15,9,7,1,8,7
08:15:00,2,12,7,8,8,2,0,7,6
08:16:00,11,9,5,8,6,4,1,8,6
08:17:00,5,12,8,8,8,1,2,8,6
08:18:00,9,7,8,15,7,1,0,9,7
08:19:00,7,12,5,9,7,1,1,8,6
08:20:00,6,14,8,4,5,3,0,7,6
08:21:00,13,5,9,8,9,4,1,9,7
08:22:00,9,10,11,10,5,3,1,9,7
08:23:00,8,9,8,17,6,2,0,10,7
08:24:00,6,9,14,9,7,3,1,9,7
08:25:00,8,6,11,11,7,4,0,9,7
08:26:00,5,11,5,12,10,4,0,9,7
08:27:00,9,5,6,5,8,3,1,7,5
08:28:00,8,7,15,7,13,2,1,10,8
08:29:00,12,9,10,2,8,4,1,8,7
08:30:00,9,11,5,11,7,4,1,9,7
08:31:00,14,4,2,15,8,2,1,9,7
08:32:00,7,9,6,7,8,2,0,7,6
08:33:00,6,7,4,9,14,0,1,8,6
08:34:00,7,10,9,7,8,3,1,8,6
08:35:00,9,8,6,6,5,1,1,7,5
08:36:00,3,13,5,6,8,3,1,7,6
08:37:00,8,8,12,3,10,4,0,8,6
08:38:00,7,12,10,8,6,2,1,9,7
08:39:00,4,8,6,6,3,4,0,5,4
08:40:00,12,11,9,8,3,3,0,9,7
08:41:00,5,4,13,5,6,3,0,7,5
08:42:00,7,3,9,4,8,1,0,6,5
08:43:00,10,4,6,9,3,7,1,6,6
08:44:00,7,10,8,8,4,3,0,7,6
08:45:00,12,11,2,10,4,3,0,8,6
08:46:00,2,6,7,5,4,0,1,5,4
08:47:00,4,7,9,4,7,2,1,6,5
08:48:00,8,7,8,7,8,7,4,8,7
08:49:00,10,9,4,4,10,1,1,7,6
08:50:00,8,7,7,8,6,1,2,7,6
08:51:00,9,5,7,8,4,5,0,7,5
08:52:00,8,5,5,3,10,3,0,6,5
08:53:00,6,6,6,9,9,5,4,7,6
08:54:00,3,9,5,12,6,1,4,7,6
08:55:00,4,8,6,7,4,6,1,6,5
08:56:00,6,11,5,11,1,5,2,7,6
08:57:00,5,6,4,4,7,2,1,5,4
08:58:00,6,3,8,10,3,3,3,6,5
08:59:00,5,8,6,6,7,4,0,6,5
09:00:00,4,7,4,6,6,3,1,5,4
09:01:00,4,6,2,7,8,4,0,5,4
09:02:00,5,4,6,5,8,3,3,6,5
09:03:00,6,1,2,6,5,4,1,4,4
09:04:00,5,5,6,7,3,4,2,5,5
09:05:00,5,5,8,7,9,1,2,7,5
09:06:00,7,5,10,3,7,2,2,6,5
09:07:00,5,6,7,5,6,2,1,6,5
09:08:00,8,7,1,4,8,3,0,6,4
09:09:00,3,5,5,7,4,4,1,5,4
09:10:00,7,4,5,2,3,3,0,4,3
09:11:00,7,4,6,5,3,1,2,5,4
09:12:00,3,4,5,8,7,3,4,5,5
09:13:00,5,5,5,6,3,5,1,5,4
09:14:00,2,6,6,9,6,2,4,6,5
09:15:00,5,6,3,12,7,0,1,7,5
09:16:00,4,6,10,3,7,3,2,6,5
09:17:00,11,10,4,5,4,4,4,7,6
09:18:00,10,6,5,4,2,4,0,5,4
09:19:00,4,11,5,2,4,4,0,5,4
09:20:00,4,7,3,5,7,2,2,5,4
09:21:00,6,6,5,2,4,6,2,5,4
09:22:00,8,2,7,4,1,2,1,4,4
09:23:00,4,6,4,5,0,3,3,4,4
09:24:00,5,4,4,5,4,1,3,4,4
09:25:00,2,2,5,1,8,2,0,4,3
09:26:00,2,2,5,2,1,4,1,2,2
09:27:00,5,4,1,9,12,1,3,6,5
09:28:00,5,7,1,3,6,1,4,4,4
09:29:00,4,3,12,2,4,4,2,5,4
09:30:00,8,6,3,3,14,0,2,7,5
09:31:00,1,4,2,11,5,2,1,5,4
09:32:00,2,4,10,6,6,2,2,6,5
09:33:00,8,5,5,8,4,2,3,6,5
09:34:00,5,5,3,5,2,6,4,4,4
09:35:00,7,3,3,7,5,6,5,5,5
09:36:00,1,3,6,3,4,3,4,3,3
09:37:00,8,2,4,3,8,3,4,5,5
09:38:00,4,3,6,11,9,5,1,7,6
09:39:00,2,1,4,4,5,1,0,3,2
09:40:00,5,3,4,2,5,4,1,4,3
09:41:00,8,1,7,4,7,1,1,5,4
09:42:00,5,6,5,8,5,4,4,6,5
09:43:00,5,3,4,5,5,2,3,4,4
09:44:00,7,5,5,3,4,2,1,5,4
09:45:00,5,4,6,3,8,2,2,5,4
09:46:00,3,5,7,3,4,5,3,4,4
09:47:00,6,5,3,4,6,2,1,5,4
09:48:00,7,4,4,4,1,7,0,4,4
09:49:00,4,8,6,5,4,4,3,5,5
09:50:00,6,4,9,1,7,7,3,5,5
09:51:00,7,6,5,7,2,2,2,5,4
09:52:00,5,5,2,3,5,11,3,4,5
09:53:00,3,4,2,3,3,5,3,3,3
09:54:00,7,7,5,3,5,4,1,5,5
09:55:00,9,4,9,2,3,5,2,5,5
09:56:00,6,3,2,3,4,1,2,4,3
09:57:00,5,6,5,4,5,5,3,5,5
09:58:00,4,4,7,1,6,5,1,4,4
09:59:00,7,2,4,7,6,1,5,5,5
10:00:00,5,2,1,6,4,3,2,4,3
10:01:00,8,6,3,6,4,7,0,5,5
10:02:00,8,6,5,3,1,9,0,5,5
10:03:00,5,5,3,3,3,4,2,4,4
10:04:00,6,2,10,3,4,3,2,5,4
10:05:00,5,9,5,4,4,3,3,5,5
10:06:00,3,7,10,6,5,0,3,6,5
10:07:00,10,6,3,7,6,5,1,6,5
10:08:00,1,8,5,5,7,3,6,5,5
10:09:00,7,3,4,4,3,2,3,4,4
10:10:00,0,6,4,3,6,9,4,4,5
10:11:00,5,5,8,4,4,5,3,5,5
10:12:00,5,4,2,7,5,6,4,5,5
10:13:00,4,1,6,2,5,2,0,4,3
10:14:00,10,1,3,1,2,3,4,3,3
10:15:00,1,5,7,7,4,2,4,5,4
10:16:00,4,5,4,3,6,4,2,4,4
10:17:00,6,5,7,6,3,5,4,5,5
10:18:00,3,2,8,3,4,3,1,4,3
10:19:00,1,4,7,7,7,5,6,5,5
10:20:00,7,4,6,4,2,6,5,5,5
10:21:00,6,9,3,2,2,1,5,4,4
10:22:00,1,2,2,6,4,3,4,3,3
10:23:00,3,1,8,6,5,3,1,5,4
10:24:00,2,2,5,5,7,2,3,4,4
10:25:00,4,3,4,4,4,7,2,4,4
10:26:00,5,7,3,1,7,4,3,5,4
10:27:00,4,2,4,2,7,6,6,4,4
10:28:00,6,4,6,6,8,7,2,6,6
10:29:00,2,5,4,4,2,9,3,3,4
10:30:00,2,9,6,8,6,3,9,6,6
10:31:00,8,4,1,4,3,6,3,4,4
10:32:00,6,6,0,5,4,3,3,4,4
10:33:00,5,2,6,5,6,3,5,5,5
10:34:00,3,4,4,2,3,2,8,3,4
10:35:00,8,4,6,2,1,4,1,4,4
10:36:00,4,6,4,4,5,4,2,5,4
10:37:00,2,7,4,6,8,2,2,5,4
10:38:00,5,8,3,5,1,5,1,4,4
10:39:00,7,3,3,5,4,5,3,4,4
10:40:00,7,5,5,8,4,9,2,6,6
10:41:00,3,6,6,8,3,5,2,5,5
10:42:00,6,5,4,12,7,2,4,7,6
10:43:00,6,7,4,3,4,8,4,5,5
10:44:00,5,2,8,3,5,3,3,5,4
10:45:00,1,4,4,3,3,9,4,3,4
10:46:00,3,7,2,3,8,4,4,5,4
10:47:00,3,4,3,2,7,5,3,4,4
10:48:00,3,6,4,3,5,7,2,4,4
10:49:00,5,3,3,7,3,8,4,4,5
10:50:00,3,5,7,2,8,4,4,5,5
10:51:00,4,5,2,2,7,3,2,4,4
10:52:00,8,4,4,3,12,3,1,6,5
10:53:00,5,5,5,6,3,4,6,5,5
10:54:00,4,9,2,1,6,6,3,4,4
10:55:00,1,5,4,3,5,4,5,4,4
10:56:00,2,5,9,6,9,7,1,6,6
10:57:00,3,8,6,4,4,9,3,5,5
10:58:00,3,2,2,2,1,10,2,2,3
10:59:00,2,4,5,7,7,6,5,5,5
11:00:00,5,2,4,6,5,5,3,4,4
11:01:00,3,6,6,4,4,5,2,5,4
11:02:00,7,8,6,6,7,5,6,7,6
11:03:00,5,6,5,5,2,8,3,5,5
11:04:00,1,3,3,6,6,1,3,4,3
11:05:00,5,5,6,6,3,11,2,5,5
11:06:00,1,9,4,9,7,6,1,6,5
11:07:00,5,4,3,7,9,6,0,6,5
11:08:00,3,9,3,3,5,3,3,5,4
11:09:00,5,9,4,2,6,5,5,5,5
11:10:00,4,3,1,3,3,5,4,3,3
11:11:00,5,3,2,6,3,6,6,4,4
11:12:00,3,2,6,4,8,6,0,5,4
11:13:00,2,7,4,3,4,1,6,4,4
11:14:00,3,7,6,2,9,4,4,5,5
11:15:00,6,6,11,5,2,6,4,6,6
11:16:00,6,4,5,6,1,6,2,4,4
11:17:00,3,7,9,5,4,4,6,6,5
11:18:00,7,2,7,6,4,5,3,5,5
11:19:00,2,7,4,2,2,1,1,3,3
11:20:00,2,10,4,9,3,4,2,6,5
11:21:00,3,3,3,4,3,2,6,3,3
11:22:00,6,8,4,7,8,2,4,7,6
11:23:00,5,8,3,2,6,6,6,5,5
11:24:00,4,4,3,5,4,7,3,4,4
11:25:00,8,5,6,11,2,3,5,6,6
11:26:00,6,11,4,3,11,3,3,7,6
11:27:00,5,4,1,9,7,8,1,5,5
11:28:00,4,5,4,6,4,2,7,5,5
11:29:00,4,3,3,0,4,2,4,3,3
11:30:00,3,2,2,3,6,7,2,3,4
11:31:00,7,2,7,4,1,4,4,4,4
11:32:00,7,4,9,3,8,6,6,6,6
11:33:00,4,4,3,3,4,6,4,4,4
11:34:00,4,4,4,5,4,2,3,4,4
11:35:00,10,8,3,6,2,5,6,6,6
11:36:00,8,3,4,5,5,7,7,5,6
11:37:00,2,6,5,3,1,7,5,3,4
11:38:00,3,7,8,8,6,2,4,6,5
11:39:00,6,6,4,3,5,4,1,5,4
11:40:00,6,6,4,3,4,10,5,5,5
11:41:00,3,3,3,8,2,11,3,4,5
11:42:00,3,5,5,6,3,5,1,4,4
11:43:00,3,8,4,6,5,10,2,5,5
11:44:00,8,6,6,3,5,6,2,6,5
11:45:00,5,6,7,1,7,4,6,5,5
11:46:00,2,7,5,5,7,3,3,5,5
11:47:00,3,5,6,9,7,8,4,6,6
11:48:00,3,6,2,5,3,8,4,4,4
11:49:00,9,2,8,7,6,3,6,6,6
11:50:00,5,6,7,2,9,8,2,6,6
11:51:00,3,2,3,5,3,7,5,3,4
11:52:00,8,2,5,3,5,5,4,5,5
11:53:00,6,8,4,4,5,4,4,5,5
11:54:00,8,6,3,4,5,8,2,5,5
11:55:00,7,3,3,2,4,4,2,4,4
11:56:00,5,3,2,6,5,4,5,4,4
11:57:00,6,6,8,3,8,0,0,6,4
11:58:00,8,5,3,3,15,4,5,7,6
11:59:00,5,7,5,4,7,5,6,6,6
12:00:00,5,4,4,3,3,2,2,4,3
12:01:00,6,4,3,3,6,5,2,4,4
12:02:00,6,6,1,10,4,2,2,5,4
12:03:00,5,2,9,12,5,4,8,7,6
12:04:00,5,4,5,1,5,8,2,4,4
12:05:00,3,6,4,7,5,6,6,5,5
12:06:00,4,8,7,4,5,5,2,6,5
12:07:00,5,4,4,5,10,6,4,6,5
12:08:00,3,7,5,7,2,13,4,5,6
12:09:00,1,6,4,7,7,6,7,5,5
12:10:00,6,1,4,7,3,6,6,4,5
12:11:00,6,7,7,6,2,6,2,6,5
12:12:00,9,7,5,7,2,6,5,6,6
12:13:00,9,4,5,5,8,3,4,6,5
12:14:00,4,7,7,3,5,9,7,5,6
12:15:00,3,4,7,6,8,1,7,6,5
12:16:00,5,2,5,3,7,1,7,4,4
12:17:00,5,6,6,3,5,4,3,5,5
12:18:00,5,10,6,8,6,4,5,7,6
12:19:00,5,9,7,5,7,1,3,7,5
12:20:00,5,7,2,10,3,5,5,5,5
12:21:00,3,6,6,5,7,7,5,5,6
12:22:00,5,5,6,8,6,1,5,6,5
12:23:00,4,4,4,6,5,4,4,5,4
12:24:00,9,6,5,3,5,4,1,6,5
12:25:00,8,1,9,6,4,2,2,6,5
12:26:00,5,7,4,2,6,8,6,5,5
12:27:00,5,1,4,8,9,3,2,5,5
12:28:00,10,4,6,3,8,6,4,6,6
12:29:00,5,4,4,5,4,3,3,4,4
12:30:00,6,5,6,4,6,12,6,5,6
12:31:00,3,5,7,2,6,10,6,5,6
12:32:00,7,7,3,3,8,9,4,6,6
12:33:00,6,5,5,6,7,4,5,6,5
12:34:00,13,8,7,7,6,4,3,8,7
12:35:00,4,9,4,4,5,2,3,5,4
12:36:00,5,5,6,9,10,4,4,7,6
12:37:00,5,3,7,5,12,7,6,6,6
12:38:00,1,1,10,9,7,3,6,6,5
12:39:00,8,7,7,3,6,4,4,6,6
12:40:00,6,4,6,8,6,7,0,6,5
12:41:00,1,6,3,5,5,11,2,4,5
12:42:00,7,3,4,3,5,3,4,4,4
12:43:00,6,8,7,6,4,8,4,6,6
12:44:00,3,5,7,5,7,7,7,5,6
12:45:00,5,9,3,8,7,6,8,6,7
12:46:00,3,4,4,10,6,2,3,5,5
12:47:00,6,6,7,8,7,6,5,7,6
12:48:00,4,3,6,8,10,5,2,6,5
12:49:00,10,7,4,7,9,3,1,7,6
12:50:00,6,9,4,8,3,5,2,6,5
12:51:00,6,4,8,4,4,3,3,5,5
12:52:00,3,4,5,4,5,7,4,4,5
12:53:00,3,7,1,9,4,4,4,5,5
12:54:00,7,6,5,7,5,6,3,6,6
12:55:00,4,6,6,8,7,6,8,6,6
12:56:00,5,5,4,10,6,4,6,6,6
12:57:00,7,10,5,11,12,9,3,9,8
12:58:00,2,12,9,9,6,4,2,8,6
12:59:00,10,11,4,4,9,6,3,8,7
13:00:00,3,5,3,5,7,6,2,5,4
13:01:00,9,4,0,8,9,5,4,6,6
13:02:00,10,7,4,10,6,1,4,7,6
13:03:00,9,12,12,8,6,9,2,9,8
13:04:00,9,7,8,9,7,5,2,8,7
13:05:00,7,4,4,3,10,4,9,6,6
13:06:00,5,3,7,7,9,5,0,6,5
13:07:00,3,7,10,9,8,5,4,7,7
13:08:00,7,8,6,7,8,4,1,7,6
13:09:00,9,7,6,9,4,2,3,7,6
13:10:00,10,8,4,4,11,9,5,7,7
13:11:00,3,5,9,9,6,6,4,6,6
13:12:00,8,8,10,4,4,3,7,7,6
13:13:00,7,9,4,7,5,4,5,6,6
13:14:00,2,4,4,7,10,5,3,5,5
13:15:00,3,5,5,10,10,7,3,7,6
13:16:00,5,9,6,3,7,10,2,6,6
13:17:00,6,7,7,6,5,7,2,6,6
13:18:00,8,5,6,6,8,7,2,7,6
13:19:00,6,7,6,8,3,7,5,6,6
13:20:00,4,7,3,5,10,6,4,6,6
13:21:00,5,4,6,6,7,6,1,6,5
13:22:00,4,8,9,10,9,3,4,8,7
13:23:00,1,11,2,7,7,4,3,6,5
13:24:00,5,4,7,7,5,4,3,6,5
13:25:00,8,6,9,10,7,3,1,8,6
13:26:00,6,6,7,5,6,10,5,6,6
13:27:00,5,5,7,7,5,4,2,6,5
13:28:00,3,2,7,9,8,3,5,6,5
13:29:00,8,4,5,2,3,6,1,4,4
13:30:00,6,6,5,3,3,4,3,5,4
13:31:00,10,12,6,2,3,7,6,7,7
13:32:00,9,5,7,9,10,4,5,8,7
13:33:00,8,6,2,4,4,6,4,5,5
13:34:00,9,5,10,4,5,7,3,7,6
13:35:00,5,5,3,5,6,3,6,5,5
13:36:00,4,7,3,2,3,6,4,4,4
13:37:00,5,10,8,2,9,6,4,7,6
13:38:00,5,5,3,5,10,6,4,6,5
13:39:00,6,5,9,5,5,7,2,6,6
13:40:00,7,3,5,8,7,10,6,6,7
13:41:00,7,4,10,3,9,6,5,7,6
13:42:00,5,6,5,6,7,5,5,6,6
13:43:00,6,8,12,5,7,4,5,8,7
13:44:00,5,3,3,7,6,4,1,5,4
13:45:00,4,2,5,4,8,10,4,5,5
13:46:00,2,3,7,4,9,3,3,5,4
13:47:00,5,4,10,6,7,9,4,6,6
13:48:00,8,5,8,5,8,4,1,7,6
13:49:00,9,8,8,9,7,2,2,8,6
13:50:00,14,8,10,9,6,3,3,9,8
13:51:00,6,13,8,3,6,6,3,7,6
13:52:00,6,4,3,5,8,4,7,5,5
13:53:00,9,6,9,8,5,8,1,7,7
13:54:00,6,3,9,6,13,10,4,7,7
13:55:00,8,7,7,8,6,3,3,7,6
13:56:00,10,7,4,2,5,12,3,6,6
13:57:00,3,3,4,5,4,7,2,4,4
13:58:00,7,5,7,12,6,5,1,7,6
13:59:00,2,8,3,8,4,2,1,5,4
14:00:00,10,8,6,6,7,6,0,7,6
14:01:00,7,5,3,4,5,8,4,5,5
14:02:00,10,4,4,4,9,5,7,6,6
14:03:00,4,3,6,6,8,5,2,5,5
14:04:00,6,5,3,6,8,10,1,6,6
14:05:00,3,6,5,10,9,7,2,7,6
14:06:00,8,6,4,7,8,5,4,7,6
14:07:00,7,3,2,6,5,6,2,5,4
14:08:00,6,1,6,2,5,6,4,4,4
14:09:00,4,10,7,11,4,4,3,7,6
14:10:00,4,5,10,9,6,4,3,7,6
14:11:00,3,2,5,4,6,7,4,4,4
14:12:00,7,3,6,3,7,5,2,5,5
14:13:00,4,9,12,5,5,5,5,7,6
14:14:00,5,6,9,6,4,7,2,6,6
14:15:00,7,8,6,5,7,3,4,7,6
14:16:00,7,6,11,6,3,3,4,7,6
14:17:00,6,3,5,6,6,3,5,5,5
14:18:00,6,1,6,4,2,2,4,4,4
14:19:00,4,8,5,6,1,5,5,5,5
14:20:00,6,6,7,6,7,4,0,6,5
14:21:00,4,5,4,4,6,3,5,5,4
14:22:00,4,5,10,6,10,3,5,7,6
14:23:00,9,5,9,5,5,5,1,7,6
14:24:00,4,5,5,5,4,5,8,5,5
14:25:00,3,5,3,3,6,5,2,4,4
14:26:00,6,7,8,5,9,4,5,7,6
14:27:00,7,2,10,4,7,3,1,6,5
14:28:00,4,3,4,3,10,6,5,5,5
14:29:00,12,5,6,5,4,4,1,6,5
14:30:00,7,7,7,4,5,9,1,6,6
14:31:00,7,7,6,2,7,6,5,6,6
14:32:00,10,7,7,3,6,9,2,7,6
14:33:00,3,3,6,8,6,1,1,5,4
14:34:00,8,5,7,3,6,2,5,6,5
14:35:00,6,5,7,5,2,3,3,5,4
14:36:00,6,8,7,5,4,7,2,6,6
14:37:00,8,5,1,5,1,4,2,4,4
14:38:00,6,5,4,7,5,4,2,5,5
14:39:00,4,6,5,5,5,5,3,5,5
14:40:00,4,5,5,5,7,1,2,5,4
14:41:00,5,4,4,7,6,2,4,5,5
14:42:00,2,6,7,5,6,1,8,5,5
14:43:00,3,5,4,7,5,3,5,5,5
14:44:00,4,5,9,5,1,4,5,5,5
14:45:00,5,8,7,6,5,2,4,6,5
14:46:00,1,9,7,5,4,4,5,5,5
14:47:00,4,3,5,4,6,3,3,4,4
14:48:00,3,8,10,4,5,5,2,6,5
14:49:00,5,6,11,4,4,2,1,6,5
14:50:00,8,5,9,2,4,5,6,6,6
14:51:00,6,8,7,6,2,4,1,6,5
14:52:00,6,2,6,4,6,5,2,5,4
14:53:00,3,6,7,2,7,4,7,5,5
14:54:00,3,9,7,7,2,5,2,6,5
14:55:00,6,7,3,6,2,4,3,5,4
14:56:00,7,4,5,5,7,3,3,6,5
14:57:00,7,5,7,2,2,7,4,5,5
14:58:00,8,6,3,7,7,3,3,6,5
14:59:00,6,1,8,4,6,3,7,5,5
15:00:00,5,4,4,2,7,5,2,4,4
15:01:00,3,4,5,7,6,2,5,5,5
15:02:00,4,4,3,5,2,8,4,4,4
15:03:00,5,9,5,6,8,6,1,7,6
15:04:00,5,7,6,3,7,5,9,6,6
15:05:00,6,4,8,5,5,3,2,6,5
15:06:00,5,6,7,4,6,2,4,6,5
15:07:00,4,5,5,5,10,5,4,6,5
15:08:00,7,7,5,3,7,5,1,6,5
15:09:00,5,8,5,5,6,6,7,6,6
15:10:00,5,3,6,3,7,7,2,5,5
15:11:00,5,10,5,6,5,2,2,6,5
15:12:00,3,6,8,4,6,4,7,5,5
15:13:00,4,2,11,9,7,4,5,7,6
15:14:00,12,3,5,3,8,5,1,6,5
15:15:00,5,6,5,4,5,5,5,5,5
15:16:00,9,1,3,6,7,2,4,5,5
15:17:00,5,10,7,5,4,4,7,6,6
15:18:00,3,5,6,4,5,2,3,5,4
15:19:00,5,8,13,3,10,5,4,8,7
15:20:00,7,4,5,4,6,4,2,5,5
15:21:00,8,10,5,7,7,5,4,7,7
15:22:00,2,6,4,9,5,5,1,5,5
15:23:00,2,3,3,1,7,1,3,3,3
15:24:00,7,8,7,3,4,0,0,6,4
15:25:00,4,6,7,4,7,5,1,6,5
15:26:00,6,4,7,6,6,3,4,6,5
15:27:00,6,2,3,7,6,3,2,5,4
15:28:00,6,6,6,5,7,5,2,6,5
15:29:00,2,5,7,6,6,5,6,5,5
15:30:00,5,6,5,3,5,7,4,5,5
15:31:00,7,3,5,5,8,5,3,6,5
15:32:00,8,4,5,7,8,2,5,6,6
15:33:00,5,8,9,4,4,3,6,6,6
15:34:00,5,5,6,3,6,3,5,5,5
15:35:00,5,6,6,5,7,3,2,6,5
15:36:00,4,4,6,3,8,5,1,5,4
15:37:00,9,8,5,6,3,2,6,6,6
15:38:00,5,11,5,5,4,4,3,6,5
15:39:00,12,6,7,3,6,4,3,7,6
15:40:00,5,7,4,5,5,5,1,5,5
15:41:00,4,5,9,7,5,2,3,6,5
15:42:00,5,7,9,9,5,3,2,7,6
15:43:00,1,6,4,7,5,2,0,5,4
15:44:00,9,4,6,5,9,3,4,7,6
15:45:00,7,5,3,4,4,5,2,5,4
15:46:00,3,2,6,6,3,5,3,4,4
15:47:00,5,3,8,4,12,1,1,6,5
15:48:00,7,5,8,8,5,4,0,7,5
15:49:00,4,5,6,4,5,9,2,5,5
15:50:00,3,8,3,5,6,3,2,5,4
15:51:00,12,4,8,4,4,3,3,6,5
15:52:00,7,15,4,5,11,5,2,8,7
15:53:00,5,10,6,5,11,6,1,7,6
15:54:00,6,6,8,7,5,2,3,6,5
15:55:00,8,10,6,8,6,2,7,8,7
15:56:00,5,7,5,6,3,3,2,5,4
15:57:00,13,8,4,4,9,1,7,8,7
15:58:00,5,6,4,1,8,4,3,5,4
15:59:00,7,4,8,4,10,3,1,7,5
16:00:00,6,7,6,6,8,6,5,7,6
16:01:00,6,11,8,5,3,6,2,7,6
16:02:00,6,5,6,9,8,4,3,7,6
16:03:00,7,11,9,8,8,3,2,9,7
16:04:00,11,7,8,9,7,5,3,8,7
16:05:00,7,5,10,5,6,4,4,7,6
16:06:00,4,5,8,8,7,3,2,6,5
16:07:00,5,6,10,5,4,2,2,6,5
16:08:00,8,4,6,6,7,3,2,6,5
16:09:00,9,4,9,5,7,1,0,7,5
16:10:00,11,7,7,5,5,2,0,7,5
16:11:00,6,10,7,8,7,4,3,8,6
16:12:00,3,8,6,9,10,8,1,7,6
16:13:00,7,6,7,6,8,7,3,7,6
16:14:00,5,3,10,7,7,0,3,6,5
16:15:00,9,5,4,10,6,7,3,7,6
16:16:00,6,6,1,7,2,5,2,4,4
16:17:00,10,3,4,6,3,2,0,5,4
16:18:00,6,10,6,2,12,3,3,7,6
16:19:00,6,7,5,8,10,2,5,7,6
16:20:00,9,7,4,3,8,4,2,6,5
16:21:00,7,5,3,7,10,2,1,6,5
16:22:00,5,6,6,9,6,4,3,6,6
16:23:00,3,7,11,6,10,4,4,7,6
16:24:00,12,5,5,5,9,2,6,7,6
16:25:00,3,4,6,5,8,2,2,5,4
16:26:00,14,5,11,11,5,5,2,9,8
16:27:00,4,6,5,6,6,5,2,5,5
16:28:00,7,6,5,4,11,2,2,7,5
16:29:00,2,3,9,6,13,3,4,7,6
16:30:00,8,4,5,10,5,8,3,6,6
16:31:00,8,5,7,7,7,1,5,7,6
16:32:00,6,7,6,7,6,1,4,6,5
16:33:00,7,2,7,7,12,3,0,7,5
16:34:00,7,8,10,5,11,5,0,8,7
16:35:00,14,8,9,8,10,4,4,10,8
16:36:00,10,3,5,7,11,6,2,7,6
16:37:00,8,10,9,14,9,4,1,10,8
16:38:00,7,5,3,6,7,7,2,6,5
16:39:00,8,3,10,6,5,2,1,6,5
16:40:00,6,3,9,4,11,2,2,7,5
16:41:00,4,7,7,3,9,6,1,6,5
16:42:00,5,5,9,5,10,3,2,7,6
16:43:00,7,11,6,7,7,2,2,8,6
16:44:00,9,6,6,4,5,4,5,6,6
16:45:00,8,11,8,13,9,3,1,10,8
16:46:00,9,6,9,5,7,4,1,7,6
16:47:00,11,7,8,12,6,2,1,9,7
16:48:00,8,7,16,7,10,5,0,10,8
16:49:00,14,6,10,8,2,7,1,8,7
16:50:00,8,4,8,8,4,1,4,6,5
16:51:00,7,4,5,9,12,4,1,7,6
16:52:00,8,6,14,12,3,4,4,9,7
16:53:00,6,8,6,5,8,2,2,7,5
16:54:00,5,9,13,8,13,5,2,10,8
16:55:00,8,3,5,8,11,5,1,7,6
16:56:00,12,11,6,7,5,5,3,8,7
16:57:00,5,8,7,9,7,6,2,7,6
16:58:00,9,7,5,3,9,7,2,7,6
16:59:00,15,13,6,9,9,7,3,10,9
17:00:00,7,6,4,5,9,4,1,6,5
17:01:00,14,11,4,12,6,3,3,9,8
17:02:00,6,5,12,8,7,4,1,8,6
17:03:00,7,7,9,9,9,2,1,8,6
17:04:00,12,10,9,8,12,5,1,10,8
17:05:00,11,8,13,9,4,1,1,9,7
17:06:00,9,8,9,9,7,4,3,8,7
17:07:00,10,7,6,7,11,2,4,8,7
17:08:00,12,12,10,7,4,3,5,9,8
17:09:00,10,11,3,7,3,4,2,7,6
17:10:00,15,3,6,6,9,2,3,8,6
17:11:00,6,7,9,9,3,6,0,7,6
17:12:00,9,3,6,11,9,9,1,8,7
17:13:00,9,7,7,6,4,8,1,7,6
17:14:00,11,5,6,9,3,4,2,7,6
17:15:00,10,9,7,9,9,6,6,9,8
17:16:00,7,7,7,3,6,5,3,6,5
17:17:00,7,5,8,8,6,1,1,7,5
17:18:00,4,9,5,2,3,6,3,5,5
17:19:00,6,3,15,4,8,3,2,7,6
17:20:00,5,8,8,4,4,3,4,6,5
17:21:00,8,9,7,7,7,2,4,8,6
17:22:00,9,5,7,6,3,1,3,6,5
17:23:00,7,7,7,6,7,8,3,7,6
17:24:00,7,6,9,5,6,2,2,7,5
17:25:00,8,6,14,8,4,2,0,8,6
17:26:00,7,8,7,8,5,2,3,7,6
17:27:00,10,12,5,9,10,6,1,9,8
17:28:00,8,6,6,11,5,4,4,7,6
17:29:00,13,8,7,5,5,4,5,8,7
17:30:00,10,7,10,9,4,5,5,8,7
17:31:00,12,6,4,8,8,3,2,8,6
17:32:00,8,10,6,8,8,6,4,8,7
17:33:00,9,6,9,9,9,3,6,8,7
17:34:00,9,7,11,9,6,2,2,8,7
17:35:00,6,9,7,13,6,4,2,8,7
17:36:00,7,9,4,7,3,2,2,6,5
17:37:00,5,8,6,5,10,4,1,7,6
17:38:00,13,6,10,5,3,6,3,7,7
17:39:00,7,3,5,9,3,6,4,5,5
17:40:00,8,10,8,10,3,3,1,8,6
17:41:00,10,3,10,8,4,3,4,7,6
17:42:00,10,5,1,5,2,9,1,5,5
17:43:00,13,7,9,8,3,5,7,8,7
17:44:00,8,7,9,9,7,6,1,8,7
17:45:00,4,5,4,5,6,0,1,5,4
17:46:00,4,8,6,3,5,3,2,5,4
17:47:00,3,7,9,2,5,4,3,5,5
17:48:00,7,3,3,2,4,3,6,4,4
17:49:00,7,4,12,5,4,5,2,6,6
17:50:00,5,6,3,7,5,6,3,5,5
17:51:00,7,6,5,8,4,2,1,6,5
17:52:00,2,6,5,6,0,0,6,4,4
17:53:00,4,7,6,1,5,1,1,5,4
17:54:00,7,1,5,2,6,2,2,4,4
17:55:00,5,4,3,5,7,7,3,5,5
17:56:00,8,2,4,7,2,5,1,5,4
17:57:00,5,2,6,4,8,1,1,5,4
17:58:00,5,5,7,4,4,8,1,5,5
17:59:00,8,3,6,3,3,2,4,5,4
18:00:00,6,2,2,2,4,3,4,3,3
18:01:00,3,5,6,1,4,4,3,4,4
18:02:00,3,4,5,4,5,2,1,4,3
18:03:00,3,7,7,3,7,4,3,5,5
18:04:00,5,3,5,12,4,7,1,6,5
18:05:00,7,5,4,8,6,6,3,6,6
18:06:00,4,3,8,6,3,2,2,5,4
18:07:00,7,9,8,5,6,2,2,7,6
18:08:00,2,4,7,5,2,4,4,4,4
18:09:00,5,8,2,1,3,3,1,4,3
18:10:00,3,4,6,4,10,5,1,5,5
18:11:00,1,5,3,3,4,4,1,3,3
18:12:00,6,3,7,8,1,3,3,5,4
18:13:00,2,7,6,4,5,4,3,5,4
18:14:00,7,1,0,5,3,2,0,3,3
18:15:00,2,6,6,5,0,2,1,4,3
18:16:00,4,2,6,3,3,2,1,4,3
18:17:00,0,5,2,4,4,1,1,3,2
18:18:00,2,6,7,8,3,0,0,5,4
18:19:00,9,3,3,2,5,7,0,4,4
18:20:00,7,5,2,3,4,3,0,4,3
18:21:00,4,11,5,2,3,4,1,5,4
18:22:00,3,1,6,3,3,5,2,3,3
18:23:00,5,7,4,6,2,1,0,5,4
18:24:00,6,4,6,4,2,6,1,4,4
18:25:00,3,4,7,5,4,3,3,5,4
18:26:00,1,3,3,5,5,5,0,3,3
18:27:00,4,3,3,6,4,2,5,4,4
18:28:00,2,4,2,2,6,5,1,3,3
18:29:00,7,4,2,2,1,2,0,3,3
18:30:00,6,2,1,6,3,5,5,4,4
18:31:00,6,2,1,6,3,2,2,4,3
18:32:00,5,2,5,3,5,1,2,4,3
18:33:00,5,5,1,3,4,2,1,4,3
18:34:00,3,4,4,3,5,4,3,4,4
18:35:00,5,3,6,5,5,1,2,5,4
18:36:00,6,4,3,9,2,3,1,5,4
18:37:00,8,3,6,4,2,4,1,5,4
18:38:00,2,5,3,4,5,2,4,4,4
18:39:00,6,3,6,3,5,4,0,5,4
18:40:00,8,2,1,0,2,2,0,3,2
18:41:00,2,1,7,5,3,1,0,4,3
18:42:00,4,4,2,5,3,2,1,4,3
18:43:00,4,3,1,5,4,2,1,3,3
18:44:00,5,1,5,6,7,7,4,5,5
18:45:00,3,5,2,2,6,4,4,4,4
18:46:00,3,2,7,6,3,4,1,4,4
18:47:00,5,3,4,4,6,3,1,4,4
18:48:00,5,2,3,3,4,3,1,3,3
18:49:00,2,11,5,2,4,1,6,5,4
18:50:00,6,3,5,7,6,0,2,5,4
18:51:00,9,6,4,5,8,3,5,6,6
18:52:00,3,1,6,5,3,4,1,4,3
18:53:00,4,4,3,8,5,5,0,5,4
18:54:00,4,8,4,7,2,4,3,5,5
18:55:00,4,2,5,6,2,2,1,4,3
18:56:00,4,4,5,5,1,2,2,4,3
18:57:00,2,3,6,5,4,1,0,4,3
18:58:00,3,3,0,4,1,1,2,2,2
18:59:00,2,1,6,1,2,3,2,2,2
19:00:00,4,5,5,6,4,1,1,5,4
19:01:00,6,2,2,6,2,3,1,4,3
19:02:00,1,1,3,6,2,1,2,3,2
19:03:00,2,3,0,5,6,2,0,3,3
19:04:00,3,2,5,1,6,2,1,3,3
19:05:00,3,6,3,2,11,1,3,5,4
19:06:00,5,2,3,2,4,1,3,3,3
19:07:00,6,3,3,3,6,1,2,4,3
19:08:00,1,1,3,1,3,2,4,2,2
19:09:00,6,5,3,4,1,0,2,4,3
19:10:00,9,2,3,5,5,1,0,5,4
19:11:00,3,4,3,3,5,1,2,4,3
19:12:00,4,6,3,4,1,3,4,4,4
19:13:00,5,2,3,1,3,1,2,3,2
19:14:00,3,2,1,4,4,2,1,3,2
19:15:00,3,0,5,3,6,3,1,3,3
19:16:00,6,5,1,1,3,2,0,3,3
19:17:00,1,2,2,1,2,4,2,2,2
19:18:00,1,3,1,4,2,1,0,2,2
19:19:00,2,4,4,2,0,3,4,2,3
19:20:00,3,3,6,2,5,2,2,4,3
19:21:00,6,5,2,4,2,2,2,4,3
19:22:00,2,4,3,3,4,3,3,3,3
19:23:00,1,0,5,2,2,1,1,2,2
19:24:00,3,5,6,4,1,0,4,4,3
19:25:00,5,1,9,2,0,3,2,3,3
19:26:00,5,3,5,1,2,6,1,3,3
19:27:00,1,4,7,2,3,2,4,3,3
19:28:00,4,3,5,0,3,0,3,3,3
19:29:00,3,1,1,3,3,2,1,2,2
19:30:00,3,5,4,4,4,3,1,4,3
19:31:00,1,2,4,5,2,4,2,3,3
19:32:00,2,8,3,0,2,4,2,3,3
19:33:00,1,1,2,0,1,1,3,1,1
19:34:00,1,5,2,3,1,1,1,2,2
19:35:00,2,1,2,3,3,4,5,2,3
19:36:00,4,3,2,1,2,1,2,2,2
19:37:00,2,3,2,4,3,2,0,3,2
19:38:00,5,3,4,1,3,1,2,3,3
19:39:00,4,1,1,2,6,3,5,3,3
19:40:00,4,3,3,0,2,1,2,2,2
19:41:00,2,3,3,1,1,0,1,2,2
19:42:00,3,1,3,0,3,4,1,2,2
19:43:00,2,3,2,2,0,4,1,2,2
19:44:00,1,3,0,1,1,2,0,1,1
19:45:00,3,1,2,0,0,3,3,1,2
19:46:00,4,3,3,0,2,1,1,2,2
19:47:00,2,2,0,1,1,1,1,1,1
19:48:00,4,6,4,1,1,1,0,3,2
19:49:00,2,4,2,6,0,2,3,3,3
19:50:00,4,2,3,4,2,1,2,3,3
19:51:00,4,6,5,0,4,1,0,4,3
19:52:00,2,5,4,4,2,1,3,3,3
19:53:00,3,1,4,1,3,2,2,2,2
19:54:00,3,1,1,3,3,3,3,2,2
19:55:00,0,4,4,3,8,1,4,4,3
19:56:00,1,3,2,0,4,1,2,2,2
19:57:00,0,1,1,0,2,3,0,1,1
19:58:00,4,3,3,3,4,1,2,3,3
19:59:00,3,4,4,2,3,1,0,3,2
20:00:00,7,0,3,2,2,1,2,3,2
20:01:00,1,0,2,2,3,2,0,2,1
20:02:00,3,1,3,3,2,3,1,2,2
20:03:00,2,4,4,3,4,2,4,3,3
20:04:00,3,0,6,3,2,2,0,3,2
20:05:00,2,3,1,3,1,3,1,2,2
20:06:00,5,3,4,4,0,1,4,3,3
20:07:00,1,3,4,1,4,1,1,3,2
20:08:00,3,2,4,1,3,0,2,3,2
20:09:00,1,1,4,0,1,2,0,1,1
20:10:00,1,1,2,2,5,1,0,2,2
20:11:00,2,2,3,1,2,0,0,2,1
20:12:00,3,2,3,1,1,4,1,2,2
20:13:00,5,3,3,0,2,2,3,3,3
20:14:00,2,4,2,2,1,1,2,2,2
20:15:00,4,4,2,2,2,4,1,3,3
20:16:00,3,2,1,1,1,1,2,2,2
20:17:00,4,3,1,1,4,1,1,3,2
20:18:00,2,3,3,4,4,3,1,3,3
20:19:00,2,2,2,1,3,4,2,2,2
20:20:00,1,1,4,2,2,1,5,2,2
20:21:00,3,1,1,3,5,1,2,3,2
20:22:00,2,1,1,1,2,0,5,1,2
20:23:00,2,2,3,4,3,3,2,3,3
20:24:00,1,0,1,1,2,0,2,1,1
20:25:00,2,2,3,3,3,1,0,3,2
20:26:00,1,2,1,1,2,2,2,1,2
20:27:00,2,4,8,6,2,0,1,4,3
20:28:00,3,2,3,1,4,0,2,3,2
20:29:00,2,3,3,2,2,2,1,2,2
20:30:00,2,2,1,1,3,2,0,2,2
20:31:00,2,2,1,1,1,2,0,1,1
20:32:00,1,2,2,6,2,0,1,3,2
20:33:00,0,2,0,2,0,3,1,1,1
20:34:00,2,1,1,2,2,2,0,2,1
20:35:00,2,5,2,2,3,0,0,3,2
20:36:00,2,3,1,2,5,0,1,3,2
20:37:00,2,4,2,0,0,1,2,2,2
20:38:00,3,0,1,2,1,3,0,1,1
20:39:00,1,0,2,2,3,3,1,2,2
20:40:00,4,0,4,1,2,1,3,2,2
20:41:00,1,1,0,2,5,1,1,2,2
20:42:00,0,3,2,1,1,3,1,1,2
20:43:00,0,1,2,0,1,2,3,1,1
20:44:00,2,1,1,2,1,2,0,1,1
20:45:00,1,2,0,4,1,2,1,2,2
20:46:00,1,1,3,1,0,1,3,1,1
20:47:00,3,2,2,2,1,2,0,2,2
20:48:00,1,2,4,4,1,3,1,2,2
20:49:00,0,1,0,0,5,1,2,1,1
20:50:00,3,2,1,0,1,1,2,1,1
20:51:00,3,3,2,3,1,2,0,2,2
20:52:00,2,2,4,2,4,0,4,3,3
20:53:00,4,2,4,4,2,0,0,3,2
20:54:00,1,0,4,1,2,0,2,2,1
20:55:00,2,0,5,1,0,0,1,2,1
20:56:00,0,1,0,2,1,3,0,1,1
20:57:00,0,0,2,4,2,2,1,2,2
20:58:00,0,2,1,2,0,2,1,1,1
20:59:00,0,2,3,3,2,1,0,2,2
21:00:00,0,1,4,1,0,0,2,1,1
21:01:00,3,0,3,5,0,0,0,2,2
21:02:00,2,1,0,5,2,2,1,2,2
21:03:00,2,1,0,8,2,2,2,3,2
21:04:00,1,1,0,2,1,1,1,1,1
21:05:00,3,2,1,3,0,0,2,2,2
21:06:00,1,1,2,1,1,4,1,1,2
21:07:00,2,0,1,1,2,1,0,1,1
21:08:00,0,0,0,5,3,1,1,2,1
21:09:00,1,1,1,2,0,1,0,1,1
21:10:00,2,1,2,1,2,1,0,2,1
21:11:00,4,1,1,1,1,0,0,2,1
21:12:00,4,2,2,0,0,2,3,2,2
21:13:00,1,3,1,1,2,0,0,2,1
21:14:00,1,1,0,1,1,3,1,1,1
21:15:00,1,1,4,0,0,0,1,1,1
21:16:00,1,1,1,3,6,1,2,2,2
21:17:00,2,1,2,5,1,1,1,2,2
21:18:00,1,3,3,1,5,1,2,3,2
21:19:00,2,0,1,3,3,3,2,2,2
21:20:00,2,1,1,4,1,1,2,2,2
21:21:00,0,0,2,2,2,1,2,1,1
21:22:00,1,3,0,1,2,0,0,1,1
21:23:00,7,2,2,1,5,1,4,3,3
21:24:00,1,1,2,5,3,1,0,2,2
21:25:00,1,0,0,1,0,2,0,0,1
21:26:00,1,2,3,0,2,1,0,2,1
21:27:00,4,4,4,1,0,1,1,3,2
21:28:00,0,0,0,0,1,1,0,0,0
21:29:00,5,0,4,1,0,1,1,2,2
21:30:00,1,1,1,1,0,0,1,1,1
21:31:00,1,1,1,1,3,1,2,1,1
21:32:00,0,0,2,2,1,2,0,1,1
21:33:00,0,5,2,1,3,1,3,2,2
21:34:00,0,2,2,0,4,3,1,2,2
21:35:00,1,0,1,3,2,0,2,1,1
21:36:00,3,0,1,0,1,1,3,1,1
21:37:00,0,2,2,1,0,0,2,1,1
21:38:00,1,0,0,1,1,0,1,1,1
21:39:00,0,2,1,2,2,2,0,1,1
21:40:00,1,0,2,0,1,0,1,1,1
21:41:00,0,3,4,2,2,0,0,2,2
21:42:00,2,0,0,0,0,0,0,0,0
21:43:00,1,2,3,2,1,1,2,2,2
21:44:00,1,2,0,0,0,2,0,1,1
21:45:00,0,3,1,0,0,1,0,1,1
21:46:00,1,1,2,1,1,0,1,1,1
21:47:00,0,1,0,0,1,1,1,0,1
21:48:00,1,0,2,0,1,0,2,1,1
21:49:00,1,3,0,1,2,3,0,1,1
21:50:00,1,0,4,3,0,1,0,2,1
21:51:00,3,0,2,1,0,0,0,1,1
21:52:00,3,2,1,1,1,0,0,2,1
21:53:00,0,1,0,1,1,1,2,1,1
21:54:00,1,3,0,1,2,2,0,1,1
21:55:00,1,1,1,0,1,0,1,1,1
21:56:00,0,3,4,2,1,1,0,2,2
21:57:00,0,2,1,1,3,1,0,1,1
21:58:00,1,0,3,0,3,5,2,1,2
21:59:00,0,2,1,1,2,3,0,1,1
22:00:00,0,1,2,1,1,2,0,1,1
22:01:00,1,2,0,2,1,0,2,1,1
22:02:00,2,0,0,1,2,3,0,1,1
22:03:00,1,2,1,0,1,1,1,1,1
22:04:00,0,1,1,2,3,0,2,1,1
22:05:00,2,1,0,1,0,1,3,1,1
22:06:00,3,1,2,0,2,1,1,2,1
22:07:00,4,2,3,2,2,2,0,3,2
22:08:00,1,1,2,0,2,0,4,1,1
22:09:00,0,0,1,2,4,3,2,1,2
22:10:00,2,0,2,0,2,1,0,1,1
22:11:00,2,0,1,1,4,2,1,2,2
22:12:00,3,0,2,0,0,0,0,1,1
22:13:00,1,2,2,0,0,2,2,1,1
22:14:00,0,3,1,0,1,1,0,1,1
22:15:00,1,0,1,3,1,1,0,1,1
22:16:00,2,0,1,2,2,2,0,1,1
22:17:00,1,1,1,0,0,1,1,1,1
22:18:00,0,1,3,1,0,1,0,1,1
22:19:00,1,2,2,3,3,3,0,2,2
22:20:00,1,1,0,1,0,0,0,1,0
22:21:00,0,1,0,1,3,1,0,1,1
22:22:00,0,0,1,1,2,2,1,1,1
22:23:00,2,1,1,0,1,2,1,1,1
22:24:00,0,1,2,1,1,1,1,1,1
22:25:00,4,1,1,2,1,2,1,2,2
22:26:00,0,0,0,1,1,1,0,0,0
22:27:00,2,1,1,2,0,0,0,1,1
22:28:00,0,3,1,1,3,2,1,2,2
22:29:00,0,1,1,1,1,2,1,1,1
22:30:00,0,2,0,0,4,1,2,1,1
22:31:00,3,2,0,2,0,1,2,1,1
22:32:00,0,0,0,0,1,1,1,0,0
22:33:00,2,0,1,2,1,6,1,1,2
22:34:00,2,0,0,1,1,1,0,1,1
22:35:00,1,1,0,0,1,0,1,1,1
22:36:00,1,0,1,0,3,1,0,1,1
22:37:00,0,2,1,1,1,0,1,1,1
22:38:00,0,1,1,0,2,0,0,1,1
22:39:00,1,2,1,1,1,0,1,1,1
22:40:00,1,0,1,4,0,0,1,1,1
22:41:00,2,0,0,1,2,1,1,1,1
22:42:00,2,0,0,0,0,1,0,0,0
22:43:00,1,0,0,1,0,0,0,0,0
22:44:00,1,0,0,0,0,0,1,0,0
22:45:00,2,2,1,2,1,1,0,2,1
22:46:00,1,1,2,1,1,4,0,1,1
22:47:00,1,0,1,2,0,0,0,1,1
22:48:00,0,1,1,1,1,0,0,1,1
22:49:00,1,0,0,0,1,2,2,0,1
22:50:00,1,0,0,1,0,2,2,0,1
22:51:00,0,1,0,1,4,0,1,1,1
22:52:00,0,0,0,0,0,0,0,0,0
22:53:00,0,0,0,1,0,0,0,0,0
22:54:00,0,0,1,0,0,1,2,0,1
22:55:00,0,1,2,0,1,1,0,1,1
22:56:00,1,2,3,0,0,3,1,1,1
22:57:00,3,0,2,1,1,1,2,1,1
22:58:00,2,1,1,2,3,1,0,2,1
22:59:00,1,0,1,1,0,3,0,1,1
23:00:00,1,2,0,1,0,1,1,1,1
23:01:00,2,1,0,1,0,3,0,1,1
23:02:00,1,0,1,0,2,1,0,1,1
23:03:00,0,3,1,2,0,0,0,1,1
23:04:00,0,0,1,0,2,2,0,1,1
23:05:00,0,1,1,2,3,2,1,1,1
23:06:00,1,1,0,0,1,3,2,1,1
23:07:00,1,0,1,1,1,1,0,1,1
23:08:00,0,2,1,1,0,1,0,1,1
23:09:00,1,0,1,2,0,1,0,1,1
23:10:00,2,1,0,1,0,0,0,1,1
23:11:00,2,0,1,0,1,0,2,1,1
23:12:00,2,1,1,0,0,1,1,1,1
23:13:00,0,0,0,1,1,0,0,0,0
23:14:00,1,0,0,0,0,0,0,0,0
23:15:00,1,1,0,1,4,1,1,1,1
23:16:00,2,1,0,0,0,1,1,1,1
23:17:00,1,0,0,0,1,1,1,0,1
23:18:00,0,0,2,0,0,3,0,0,1
23:19:00,1,0,1,0,1,0,0,1,0
23:20:00,2,0,1,0,0,0,0,1,0
23:21:00,1,1,2,1,0,0,1,1,1
23:22:00,0,1,0,1,1,1,0,1,1
23:23:00,0,0,0,1,0,0,0,0,0
23:24:00,0,1,0,0,0,0,1,0,0
23:25:00,1,1,1,0,1,0,0,1,1
23:26:00,1,0,1,0,0,0,0,0,0
23:27:00,0,0,0,0,0,1,0,0,0
23:28:00,0,2,0,1,1,0,0,1,1
23:29:00,1,0,1,0,0,0,0,0,0
23:30:00,0,0,1,0,1,1,0,0,0
23:31:00,2,1,0,0,0,0,0,1,0
23:32:00,1,0,0,1,0,0,0,0,0
23:33:00,0,1,0,0,0,0,2,0,0
23:34:00,0,2,0,0,2,4,1,1,1
23:35:00,1,0,0,0,2,2,1,1,1
23:36:00,1,0,1,0,0,3,0,0,1
23:37:00,4,1,2,1,2,2,2,2,2
23:38:00,1,0,2,0,2,3,0,1,1
23:39:00,1,3,0,0,3,0,0,1,1
23:40:00,0,4,2,0,0,0,0,1,1
23:41:00,3,1,0,0,0,2,0,1,1
23:42:00,2,1,0,0,3,2,0,1,1
23:43:00,0,0,0,0,0,0,0,0,0
23:44:00,0,0,0,1,1,1,1,0,1
23:45:00,1,0,0,0,1,0,0,0,0
23:46:00,0,0,0,0,0,0,0,0,0
23:47:00,0,0,0,1,2,0,0,1,0
23:48:00,1,0,0,0,0,0,0,0,0
23:49:00,1,1,0,1,0,2,0,1,1
23:50:00,1,0,1,2,0,0,1,1,1
23:51:00,0,0,0,0,0,0,0,0,0
23:52:00,0,0,0,1,0,0,0,0,0
23:53:00,0,1,2,1,0,0,0,1,1
23:54:00,0,1,0,0,0,1,1,0,0
23:55:00,0,0,1,0,0,1,0,0,0
23:56:00,0,0,0,1,2,0,0,1,0
23:57:00,2,0,0,0,1,1,0,1,1
23:58:00,1,0,2,0,0,1,0,1,1
23:59:00,0,0,1,1,1,0,0,1,0
,,,,,,,,,
Totals,,,,,,,,,
12H(7-19),4236,4087,4206,4059,4157,2853,1865,4149,3638
16H(6-22),4769,4588,4764,4559,4678,3182,2151,4672,4099
18H(6-24),4883,4674,4854,4645,4795,3304,2219,4770,4196
24H(0-24),4991,4809,4964,4757,4932,3401,2345,4891,4314
,,,,,,,,,
AM Peak,07:36:00,07:41:00,07:43:00,07:41:00,07:38:00,10:56:00,10:53:00,07:39:00,07:39:00
,473,483,478,489,451,324,219,471,366
,,,,,,,,,
PM Peak,16:44:00,16:41:00,16:39:00,16:45:00,16:08:00,13:15:00,12:03:00,16:35:00,16:35:00
,533,438,472,462,475,350,250,458,382
,,,,,,,,,
,,,,,,,,,
CA Traffic,,,,,,,,,VDA-net R2 26/05/2020
