Site Number,00008004,Unnamed: 2,Site Reference,00008004.1,Unnamed: 5,Unnamed: 6,Lat/Lng.,"52.03730,1.20277",Unnamed: 9
Warren Heath Ipswich,,,,,,,,,
Vehicle Count Report,,,,Week Begin: 30 December 2019,,,Channel:,Total Flow,
,,,,,,,,,
,,,,,,,,,
,2019-12-30 00:00:00,2019-12-31 00:00:00,2020-01-01 00:00:00,2020-01-02 00:00:00,2020-01-03 00:00:00,2020-01-04 00:00:00,2020-01-05 00:00:00,"5-Day
Ave.","7-Day
Ave."
00:00:00,2,1,2,0,2,2,4,1,2
00:01:00,1,2,1,1,2,1,9,1,2
00:02:00,1,1,1,1,1,5,4,1,2
00:03:00,2,2,2,0,0,1,3,1,1
00:04:00,1,2,1,1,3,7,8,2,3
00:05:00,3,2,0,2,1,1,1,2,1
00:06:00,2,2,1,0,1,8,4,1,3
00:07:00,2,1,0,3,3,3,4,2,2
00:08:00,5,0,2,1,3,4,1,2,2
00:09:00,2,2,2,2,2,4,4,2,3
00:10:00,3,3,5,1,0,2,4,2,3
00:11:00,0,1,3,1,4,5,3,2,2
00:12:00,1,4,0,2,2,2,4,2,2
00:13:00,2,2,4,0,2,1,3,2,2
00:14:00,1,2,0,1,2,4,0,1,1
00:15:00,1,4,4,1,2,5,2,2,3
00:16:00,1,0,4,1,1,1,2,1,1
00:17:00,1,1,3,1,2,5,2,2,2
00:18:00,4,0,1,1,3,2,1,2,2
00:19:00,2,1,2,0,1,1,3,1,1
00:20:00,0,4,5,2,0,4,2,2,2
00:21:00,2,0,10,1,2,3,3,3,3
00:22:00,1,1,7,2,0,2,0,2,2
00:23:00,2,0,2,1,0,1,0,1,1
00:24:00,0,0,8,1,0,1,4,2,2
00:25:00,1,1,5,0,1,2,3,2,2
00:26:00,0,1,9,0,2,6,3,2,3
00:27:00,0,2,2,0,2,3,2,1,2
00:28:00,1,0,10,0,1,2,4,2,3
00:29:00,2,2,1,0,1,1,3,1,1
00:30:00,0,1,4,1,1,1,4,1,2
00:31:00,0,2,3,1,3,1,1,2,2
00:32:00,0,1,4,1,0,5,0,1,2
00:33:00,2,1,9,0,1,0,6,3,3
00:34:00,1,2,10,2,0,1,4,3,3
00:35:00,2,4,9,2,1,1,3,4,3
00:36:00,4,0,7,1,1,2,7,3,3
00:37:00,2,1,10,0,3,3,2,3,3
00:38:00,1,0,5,1,1,1,2,2,2
00:39:00,0,1,11,2,1,4,3,3,3
00:40:00,0,1,9,0,0,0,5,2,2
00:41:00,0,1,3,1,0,0,3,1,1
00:42:00,0,1,7,1,2,1,3,2,2
00:43:00,2,0,7,0,0,2,2,2,2
00:44:00,0,0,16,0,2,2,2,4,3
00:45:00,1,1,5,0,0,4,0,1,2
00:46:00,3,1,6,1,2,3,1,3,2
00:47:00,1,2,10,0,4,1,1,3,3
00:48:00,1,1,10,1,1,2,2,3,3
00:49:00,0,2,7,1,1,1,2,2,2
00:50:00,0,2,7,1,2,3,1,2,2
00:51:00,0,0,7,0,1,1,1,2,1
00:52:00,2,0,5,0,0,3,3,1,2
00:53:00,2,1,15,0,1,1,2,4,3
00:54:00,3,1,6,0,0,1,3,2,2
00:55:00,0,1,10,1,1,2,7,3,3
00:56:00,0,1,5,1,1,1,0,2,1
00:57:00,0,2,7,1,0,2,2,2,2
00:58:00,0,5,7,1,1,1,3,3,3
00:59:00,0,0,6,0,0,3,0,1,1
01:00:00,0,1,6,0,1,1,2,2,2
01:01:00,0,0,5,1,0,0,1,1,1
01:02:00,1,0,3,0,2,1,1,1,1
01:03:00,2,0,4,0,1,2,4,1,2
01:04:00,1,2,4,1,0,2,3,2,2
01:05:00,0,2,3,0,3,2,2,2,2
01:06:00,0,1,6,0,0,3,3,1,2
01:07:00,2,0,5,0,1,2,1,2,2
01:08:00,0,0,12,0,1,1,3,3,2
01:09:00,0,0,9,1,0,2,3,2,2
01:10:00,1,2,6,0,0,1,2,2,2
01:11:00,3,1,9,1,1,0,7,3,3
01:12:00,0,1,7,0,2,3,1,2,2
01:13:00,1,0,6,1,1,2,3,2,2
01:14:00,1,3,4,0,0,6,2,2,2
01:15:00,0,0,2,0,0,1,4,0,1
01:16:00,0,2,3,1,0,0,4,1,1
01:17:00,1,0,8,0,0,2,4,2,2
01:18:00,1,1,3,2,1,3,4,2,2
01:19:00,2,1,4,0,0,2,4,1,2
01:20:00,2,1,4,0,0,1,4,1,2
01:21:00,1,0,7,0,1,2,1,2,2
01:22:00,1,1,2,0,1,2,2,1,1
01:23:00,1,0,7,2,0,1,1,2,2
01:24:00,0,2,4,0,0,2,2,1,1
01:25:00,1,1,4,0,0,1,6,1,2
01:26:00,0,1,5,1,0,0,1,1,1
01:27:00,1,1,5,0,1,1,5,2,2
01:28:00,1,2,4,1,1,0,1,2,1
01:29:00,1,0,8,0,1,2,0,2,2
01:30:00,0,0,3,1,0,2,0,1,1
01:31:00,1,0,4,0,0,2,2,1,1
01:32:00,0,1,2,1,1,0,0,1,1
01:33:00,2,1,3,0,1,0,1,1,1
01:34:00,0,2,3,0,1,1,2,1,1
01:35:00,0,2,6,0,0,2,1,2,2
01:36:00,0,1,5,0,1,0,0,1,1
01:37:00,2,0,4,1,0,1,1,1,1
01:38:00,0,1,4,0,0,0,1,1,1
01:39:00,2,1,6,0,2,2,1,2,2
01:40:00,0,0,5,0,1,0,0,1,1
01:41:00,0,1,4,1,1,0,1,1,1
01:42:00,1,0,3,0,0,0,1,1,1
01:43:00,2,1,2,0,0,0,1,1,1
01:44:00,1,2,5,0,1,1,0,2,1
01:45:00,1,0,5,0,1,2,1,1,1
01:46:00,0,0,2,0,0,0,0,0,0
01:47:00,1,0,5,0,2,2,1,2,2
01:48:00,1,0,1,1,0,1,1,1,1
01:49:00,1,0,2,0,0,0,1,1,1
01:50:00,0,0,2,1,0,0,0,1,0
01:51:00,3,0,2,0,0,1,1,1,1
01:52:00,1,1,3,0,1,0,1,1,1
01:53:00,0,0,4,2,0,0,3,1,1
01:54:00,0,0,2,0,1,0,2,1,1
01:55:00,0,0,2,0,2,0,1,1,1
01:56:00,1,2,4,1,0,0,2,2,1
01:57:00,1,0,1,1,0,1,1,1,1
01:58:00,0,2,2,0,0,0,1,1,1
01:59:00,0,1,5,0,0,0,0,1,1
02:00:00,0,0,4,0,0,1,1,1,1
02:01:00,0,2,3,0,1,0,0,1,1
02:02:00,0,0,1,0,0,0,1,0,0
02:03:00,0,0,4,1,0,0,2,1,1
02:04:00,0,2,1,0,2,1,2,1,1
02:05:00,1,1,0,0,1,3,0,1,1
02:06:00,0,1,5,0,0,0,1,1,1
02:07:00,2,5,2,2,1,3,0,2,2
02:08:00,1,0,3,1,1,4,0,1,1
02:09:00,3,1,3,1,0,0,0,2,1
02:10:00,0,2,4,0,0,1,1,1,1
02:11:00,2,0,2,1,0,2,0,1,1
02:12:00,1,0,0,0,1,0,1,0,0
02:13:00,0,0,3,1,0,2,0,1,1
02:14:00,1,0,2,0,1,0,1,1,1
02:15:00,1,1,4,0,0,3,0,1,1
02:16:00,1,1,1,0,1,1,1,1,1
02:17:00,1,1,3,1,2,1,0,2,1
02:18:00,0,1,2,1,0,1,1,1,1
02:19:00,0,0,2,0,1,1,0,1,1
02:20:00,0,1,1,0,0,1,0,0,0
02:21:00,0,0,2,0,0,1,1,0,1
02:22:00,0,1,2,1,1,0,2,1,1
02:23:00,0,1,0,0,0,1,0,0,0
02:24:00,1,2,1,0,2,0,1,1,1
02:25:00,1,0,3,2,0,0,0,1,1
02:26:00,1,1,2,0,1,0,0,1,1
02:27:00,1,0,2,3,1,0,0,1,1
02:28:00,1,0,1,0,0,0,1,0,0
02:29:00,1,0,1,0,1,1,1,1,1
02:30:00,0,0,2,0,1,1,2,1,1
02:31:00,0,1,2,0,0,0,2,1,1
02:32:00,1,1,1,0,2,0,0,1,1
02:33:00,1,0,4,2,2,0,0,2,1
02:34:00,2,1,1,0,1,1,0,1,1
02:35:00,0,0,2,0,0,0,2,0,1
02:36:00,0,5,0,0,2,1,0,1,1
02:37:00,0,0,1,0,0,0,0,0,0
02:38:00,0,3,4,0,0,2,1,1,1
02:39:00,0,0,1,0,1,3,0,0,1
02:40:00,1,2,4,0,0,0,0,1,1
02:41:00,0,2,0,1,0,1,0,1,1
02:42:00,0,2,1,0,0,1,0,1,1
02:43:00,2,0,3,0,3,2,0,2,1
02:44:00,1,0,1,0,0,0,2,0,1
02:45:00,0,1,0,0,1,2,2,0,1
02:46:00,0,2,3,1,1,1,1,1,1
02:47:00,0,0,3,0,0,0,0,1,0
02:48:00,1,1,4,1,0,1,0,1,1
02:49:00,1,2,1,1,1,0,4,1,1
02:50:00,0,0,1,0,0,1,1,0,0
02:51:00,1,0,2,0,0,2,4,1,1
02:52:00,0,0,2,1,0,1,0,1,1
02:53:00,0,0,1,0,0,2,0,0,0
02:54:00,0,1,2,0,0,1,0,1,1
02:55:00,0,0,0,1,0,0,1,0,0
02:56:00,0,0,2,2,0,0,1,1,1
02:57:00,2,1,1,0,2,1,0,1,1
02:58:00,1,0,0,0,3,0,0,1,1
02:59:00,0,0,1,0,0,1,1,0,0
03:00:00,1,0,4,0,1,0,0,1,1
03:01:00,0,2,0,0,0,1,2,0,1
03:02:00,2,2,2,1,1,0,1,2,1
03:03:00,0,0,1,0,0,1,0,0,0
03:04:00,1,0,2,0,0,1,0,1,1
03:05:00,1,0,1,0,1,0,0,1,0
03:06:00,0,1,0,0,1,1,0,0,0
03:07:00,0,0,0,1,0,2,0,0,0
03:08:00,0,0,3,0,1,0,0,1,1
03:09:00,0,1,2,0,1,1,1,1,1
03:10:00,1,0,4,0,0,1,0,1,1
03:11:00,0,0,2,0,0,0,1,0,0
03:12:00,1,0,2,1,0,0,0,1,1
03:13:00,0,0,3,1,0,0,1,1,1
03:14:00,0,0,1,0,1,0,1,0,0
03:15:00,0,0,0,0,0,1,0,0,0
03:16:00,0,1,2,0,1,0,1,1,1
03:17:00,0,0,0,1,0,0,1,0,0
03:18:00,1,1,0,0,0,0,1,0,0
03:19:00,0,1,1,0,0,1,0,0,0
03:20:00,1,0,2,0,0,2,0,1,1
03:21:00,0,0,1,0,0,0,1,0,0
03:22:00,2,0,0,1,1,1,4,1,1
03:23:00,1,0,3,1,0,0,1,1,1
03:24:00,0,0,3,0,2,0,0,1,1
03:25:00,0,0,2,0,0,0,0,0,0
03:26:00,1,1,2,0,0,0,0,1,1
03:27:00,0,0,1,1,1,0,0,1,0
03:28:00,0,3,5,1,0,0,0,2,1
03:29:00,0,1,2,0,0,0,2,1,1
03:30:00,0,0,0,0,0,0,1,0,0
03:31:00,0,0,2,0,1,0,1,1,1
03:32:00,0,1,1,0,0,1,2,0,1
03:33:00,0,1,1,0,1,2,2,1,1
03:34:00,0,0,0,0,1,0,1,0,0
03:35:00,0,0,0,2,0,0,1,0,0
03:36:00,0,0,1,0,1,0,0,0,0
03:37:00,0,3,1,0,1,0,0,1,1
03:38:00,0,0,2,0,0,0,0,0,0
03:39:00,1,1,1,0,5,2,0,2,1
03:40:00,3,0,6,1,1,0,0,2,2
03:41:00,1,0,0,0,0,0,0,0,0
03:42:00,0,1,0,0,0,0,1,0,0
03:43:00,1,0,0,1,1,1,0,1,1
03:44:00,1,1,2,0,2,0,1,1,1
03:45:00,1,0,3,0,1,0,0,1,1
03:46:00,0,1,0,1,3,0,0,1,1
03:47:00,3,2,0,2,1,0,0,2,1
03:48:00,2,1,4,0,2,0,2,2,2
03:49:00,0,0,1,1,0,0,2,0,1
03:50:00,1,2,0,3,1,0,1,1,1
03:51:00,2,0,2,3,1,2,0,2,1
03:52:00,1,0,1,0,1,2,1,1,1
03:53:00,1,0,1,0,1,1,0,1,1
03:54:00,1,2,1,2,1,1,1,1,1
03:55:00,0,1,3,0,1,1,0,1,1
03:56:00,1,1,0,0,2,3,0,1,1
03:57:00,1,1,1,0,1,0,0,1,1
03:58:00,0,1,0,0,0,2,1,0,1
03:59:00,0,0,0,1,0,1,1,0,0
04:00:00,1,1,0,1,1,0,3,1,1
04:01:00,1,0,0,0,1,1,0,0,0
04:02:00,2,0,3,0,1,0,0,1,1
04:03:00,0,1,1,0,0,1,1,0,1
04:04:00,0,2,3,0,1,0,0,1,1
04:05:00,0,0,4,1,1,2,1,1,1
04:06:00,1,0,1,1,1,0,1,1,1
04:07:00,1,0,0,2,0,0,0,1,0
04:08:00,1,0,0,0,1,0,0,0,0
04:09:00,0,0,1,0,0,1,0,0,0
04:10:00,0,1,0,0,0,0,0,0,0
04:11:00,0,1,1,1,0,1,1,1,1
04:12:00,0,0,0,1,1,0,4,0,1
04:13:00,1,1,0,1,2,1,0,1,1
04:14:00,0,1,1,2,1,0,1,1,1
04:15:00,1,0,4,1,0,0,1,1,1
04:16:00,0,0,1,1,0,0,1,0,0
04:17:00,2,1,1,1,0,0,1,1,1
04:18:00,1,3,0,0,0,0,1,1,1
04:19:00,0,1,0,1,1,1,2,1,1
04:20:00,0,3,0,0,2,0,0,1,1
04:21:00,3,1,0,1,2,0,0,1,1
04:22:00,0,0,0,2,0,1,1,0,1
04:23:00,1,0,2,0,4,1,0,1,1
04:24:00,0,3,2,1,1,1,1,1,1
04:25:00,2,0,4,1,1,1,0,2,1
04:26:00,2,0,1,0,1,0,1,1,1
04:27:00,2,2,0,0,0,0,1,1,1
04:28:00,3,0,1,0,2,1,0,1,1
04:29:00,2,1,1,0,2,0,1,1,1
04:30:00,0,1,0,1,0,1,1,0,1
04:31:00,0,0,1,3,2,1,1,1,1
04:32:00,3,0,0,1,0,1,2,1,1
04:33:00,2,1,0,0,0,0,0,1,0
04:34:00,0,1,1,1,1,0,1,1,1
04:35:00,1,2,0,1,0,1,2,1,1
04:36:00,0,0,0,1,1,0,0,0,0
04:37:00,0,1,2,2,0,0,0,1,1
04:38:00,2,0,0,2,0,1,0,1,1
04:39:00,0,2,0,4,2,0,1,2,1
04:40:00,3,1,0,2,2,0,0,2,1
04:41:00,1,2,0,1,2,2,2,1,1
04:42:00,0,2,0,0,2,1,0,1,1
04:43:00,5,0,0,2,0,1,2,1,1
04:44:00,2,0,1,1,3,2,2,1,2
04:45:00,4,3,0,4,1,1,1,2,2
04:46:00,2,1,1,1,1,0,0,1,1
04:47:00,1,1,1,1,4,1,1,2,1
04:48:00,1,3,0,3,3,1,0,2,2
04:49:00,3,0,0,1,3,3,4,1,2
04:50:00,2,1,1,4,2,1,1,2,2
04:51:00,1,0,0,4,3,0,1,2,1
04:52:00,1,1,0,1,4,1,0,1,1
04:53:00,4,0,0,4,6,2,3,3,3
04:54:00,0,2,0,1,3,1,0,1,1
04:55:00,1,1,1,3,4,2,2,2,2
04:56:00,0,6,2,0,0,0,3,2,2
04:57:00,2,0,1,2,4,2,1,2,2
04:58:00,0,4,1,1,1,0,2,1,1
04:59:00,0,1,1,2,3,3,0,1,1
05:00:00,1,1,0,3,2,0,0,1,1
05:01:00,0,3,1,1,0,0,3,1,1
05:02:00,0,1,1,1,2,1,0,1,1
05:03:00,0,2,0,1,4,1,0,1,1
05:04:00,1,0,0,1,3,2,0,1,1
05:05:00,0,2,4,3,1,1,1,2,2
05:06:00,0,0,1,0,3,1,1,1,1
05:07:00,3,1,0,2,1,2,1,1,1
05:08:00,0,0,0,0,0,0,1,0,0
05:09:00,1,2,0,2,2,3,0,1,1
05:10:00,3,1,0,2,4,1,0,2,2
05:11:00,1,2,2,1,0,1,0,1,1
05:12:00,1,0,0,0,3,1,1,1,1
05:13:00,0,0,0,0,0,1,1,0,0
05:14:00,4,0,1,1,3,2,2,2,2
05:15:00,2,0,2,2,1,0,3,1,1
05:16:00,1,1,2,2,1,2,1,1,1
05:17:00,3,3,0,5,2,3,1,3,2
05:18:00,0,1,1,1,2,3,2,1,1
05:19:00,2,0,0,4,2,2,1,2,2
05:20:00,1,1,1,1,3,0,0,1,1
05:21:00,4,1,1,6,2,1,2,3,2
05:22:00,1,3,2,1,1,2,1,2,2
05:23:00,2,2,1,2,2,1,0,2,1
05:24:00,4,2,2,2,1,2,1,2,2
05:25:00,1,0,0,3,3,3,0,1,1
05:26:00,3,3,0,2,5,2,1,3,2
05:27:00,1,0,0,3,3,3,0,1,1
05:28:00,2,0,2,1,3,1,1,2,1
05:29:00,3,3,0,0,1,2,4,1,2
05:30:00,3,4,2,2,2,1,1,3,2
05:31:00,1,2,1,2,1,2,0,1,1
05:32:00,5,0,1,4,6,2,2,3,3
05:33:00,4,2,2,1,1,1,2,2,2
05:34:00,5,1,0,6,2,1,0,3,2
05:35:00,0,3,2,6,5,3,1,3,3
05:36:00,3,8,0,5,3,0,1,4,3
05:37:00,3,2,0,4,7,2,1,3,3
05:38:00,3,2,0,1,5,3,3,2,2
05:39:00,6,2,3,6,6,2,1,5,4
05:40:00,5,1,1,5,3,5,1,3,3
05:41:00,6,5,0,3,2,4,1,3,3
05:42:00,4,5,0,9,11,4,1,6,5
05:43:00,4,5,3,0,2,6,4,3,3
05:44:00,4,3,3,7,6,2,4,5,4
05:45:00,2,3,1,7,3,2,1,3,3
05:46:00,4,6,1,2,4,5,3,3,4
05:47:00,5,4,0,3,1,3,0,3,2
05:48:00,0,3,0,8,13,3,2,5,4
05:49:00,4,2,0,7,0,1,0,3,2
05:50:00,5,5,1,2,10,4,0,5,4
05:51:00,4,3,1,6,7,3,1,4,4
05:52:00,5,8,1,7,4,3,3,5,4
05:53:00,2,4,1,4,5,3,1,3,3
05:54:00,4,1,0,5,2,2,1,2,2
05:55:00,2,2,1,4,4,6,5,3,3
05:56:00,3,2,1,3,1,4,3,2,2
05:57:00,3,3,1,9,5,3,0,4,3
05:58:00,5,5,0,3,4,3,2,3,3
05:59:00,4,2,2,4,3,4,0,3,3
06:00:00,2,3,1,7,3,4,2,3,3
06:01:00,4,1,1,5,3,1,2,3,2
06:02:00,2,7,2,3,13,1,0,5,4
06:03:00,4,2,0,8,5,1,4,4,3
06:04:00,1,3,2,4,3,3,2,3,3
06:05:00,4,8,1,3,4,2,3,4,4
06:06:00,3,6,3,10,6,4,6,6,5
06:07:00,3,3,0,8,3,3,2,3,3
06:08:00,7,5,0,6,6,6,2,5,5
06:09:00,6,4,3,3,6,3,1,4,4
06:10:00,5,6,4,6,4,5,2,5,5
06:11:00,8,5,2,2,6,2,4,5,4
06:12:00,4,5,0,6,7,2,1,4,4
06:13:00,7,7,0,6,5,6,2,5,5
06:14:00,2,0,3,4,9,8,4,4,4
06:15:00,5,4,3,2,6,7,2,4,4
06:16:00,3,6,3,8,8,10,4,6,6
06:17:00,8,3,2,10,5,5,2,6,5
06:18:00,1,8,0,9,10,2,3,6,5
06:19:00,5,6,2,4,6,4,0,5,4
06:20:00,7,4,1,10,4,3,0,5,4
06:21:00,7,7,0,6,4,6,6,5,5
06:22:00,0,6,1,6,12,4,1,5,4
06:23:00,9,4,2,8,7,4,3,6,5
06:24:00,2,8,1,8,9,3,3,6,5
06:25:00,8,5,7,10,11,5,3,8,7
06:26:00,6,7,4,14,7,4,3,8,6
06:27:00,5,1,1,11,9,5,2,5,5
06:28:00,4,9,6,7,3,8,2,6,6
06:29:00,9,7,1,11,7,6,3,7,6
06:30:00,7,4,2,7,9,4,1,6,5
06:31:00,10,8,1,4,5,7,3,6,5
06:32:00,6,4,2,10,19,4,3,8,7
06:33:00,5,5,3,10,8,3,6,6,6
06:34:00,5,7,2,13,9,4,2,7,6
06:35:00,8,6,4,11,11,7,5,8,7
06:36:00,12,11,1,7,10,1,5,8,7
06:37:00,11,12,1,15,9,14,7,10,10
06:38:00,8,6,3,10,13,7,6,8,8
06:39:00,13,7,8,11,11,9,6,10,9
06:40:00,7,15,3,5,11,5,4,8,7
06:41:00,6,5,5,13,16,2,2,9,7
06:42:00,15,5,2,17,18,7,4,11,10
06:43:00,5,7,2,9,17,6,6,8,7
06:44:00,7,9,1,8,5,4,3,6,5
06:45:00,9,7,4,12,15,7,7,9,9
06:46:00,10,9,4,12,10,6,2,9,8
06:47:00,12,11,4,16,12,4,6,11,9
06:48:00,6,10,1,16,8,7,3,8,7
06:49:00,13,7,5,13,7,10,4,9,8
06:50:00,14,8,1,10,14,4,5,9,8
06:51:00,6,7,1,11,9,6,5,7,6
06:52:00,8,14,2,13,18,9,2,11,9
06:53:00,8,7,3,9,13,7,3,8,7
06:54:00,8,10,0,9,7,6,6,7,7
06:55:00,13,8,4,18,14,5,7,11,10
06:56:00,10,8,2,12,18,5,4,10,8
06:57:00,10,13,4,18,10,9,6,11,10
06:58:00,5,4,3,4,12,3,2,6,5
06:59:00,11,10,2,15,7,7,0,9,7
07:00:00,6,10,1,15,11,3,2,9,7
07:01:00,12,5,1,16,13,7,1,9,8
07:02:00,13,12,2,5,11,8,10,9,9
07:03:00,9,9,7,20,20,11,5,13,12
07:04:00,15,9,6,22,15,11,6,13,12
07:05:00,13,17,2,13,20,7,2,13,11
07:06:00,12,10,1,14,19,7,0,11,9
07:07:00,8,4,1,21,14,6,9,10,9
07:08:00,16,7,1,10,16,7,3,10,9
07:09:00,19,19,2,14,23,6,3,15,12
07:10:00,10,13,2,15,15,13,5,11,10
07:11:00,7,11,7,11,28,5,9,13,11
07:12:00,19,16,4,16,18,9,4,15,12
07:13:00,6,14,2,13,28,7,11,13,12
07:14:00,15,14,2,20,19,7,6,14,12
07:15:00,15,10,2,20,24,8,6,14,12
07:16:00,8,15,6,18,19,8,2,13,11
07:17:00,24,19,3,22,26,4,3,19,14
07:18:00,5,16,4,20,21,14,7,13,12
07:19:00,20,15,3,15,21,8,8,15,13
07:20:00,12,6,1,31,21,8,6,14,12
07:21:00,10,13,2,17,21,8,4,13,11
07:22:00,12,20,2,23,17,2,6,15,12
07:23:00,22,16,4,16,27,9,6,17,14
07:24:00,15,17,3,20,24,6,6,16,13
07:25:00,21,13,1,28,23,12,13,17,16
07:26:00,20,15,2,20,21,8,5,16,13
07:27:00,17,14,2,22,35,6,1,18,14
07:28:00,15,14,3,18,16,8,8,13,12
07:29:00,20,15,3,23,18,9,7,16,14
07:30:00,25,14,1,25,20,8,8,17,14
07:31:00,17,6,1,16,18,7,2,12,10
07:32:00,19,12,1,15,29,18,3,15,14
07:33:00,21,21,1,27,15,11,5,17,14
07:34:00,21,16,1,37,27,4,5,20,16
07:35:00,19,27,4,36,35,10,6,24,20
07:36:00,23,12,4,26,22,6,8,17,14
07:37:00,21,22,3,27,20,14,7,19,16
07:38:00,21,22,3,36,24,9,4,21,17
07:39:00,23,8,4,29,19,7,4,17,13
07:40:00,32,24,3,23,23,10,11,21,18
07:41:00,17,17,3,33,27,12,7,19,17
07:42:00,23,20,1,27,24,7,7,19,16
07:43:00,13,26,2,35,28,13,3,21,17
07:44:00,20,18,7,22,36,7,3,21,16
07:45:00,18,29,9,25,28,16,3,22,18
07:46:00,23,22,5,32,27,12,6,22,18
07:47:00,21,25,5,21,41,14,6,23,19
07:48:00,17,32,3,35,36,11,9,25,20
07:49:00,20,20,4,32,28,14,3,21,17
07:50:00,20,22,1,31,32,8,4,21,17
07:51:00,20,20,2,27,31,15,8,20,18
07:52:00,21,24,2,35,30,17,5,22,19
07:53:00,26,17,8,21,40,8,8,22,18
07:54:00,17,24,3,24,19,14,9,17,16
07:55:00,17,15,4,28,21,12,14,17,16
07:56:00,16,23,4,29,35,12,4,21,18
07:57:00,20,17,3,33,29,12,4,20,17
07:58:00,15,20,3,17,23,12,7,16,14
07:59:00,18,18,3,28,22,14,5,18,15
08:00:00,20,13,2,23,18,15,6,15,14
08:01:00,19,20,6,22,20,14,5,17,15
08:02:00,14,23,6,26,13,14,5,16,14
08:03:00,21,12,1,17,21,5,4,14,12
08:04:00,15,23,0,23,27,12,7,18,15
08:05:00,22,16,4,30,20,10,4,18,15
08:06:00,17,29,2,29,31,10,1,22,17
08:07:00,17,19,3,31,25,7,4,19,15
08:08:00,16,16,3,31,30,12,6,19,16
08:09:00,18,17,4,30,27,10,5,19,16
08:10:00,16,21,2,32,27,8,5,20,16
08:11:00,22,25,4,31,23,13,4,21,17
08:12:00,19,22,4,19,26,15,11,18,17
08:13:00,21,24,1,32,28,16,2,21,18
08:14:00,24,17,1,22,25,13,8,18,16
08:15:00,20,16,2,29,29,12,5,19,16
08:16:00,20,18,2,38,22,21,7,20,18
08:17:00,23,18,1,12,28,10,8,16,14
08:18:00,12,34,6,31,36,16,4,24,20
08:19:00,17,15,2,27,35,22,10,19,18
08:20:00,23,25,3,22,30,12,3,21,17
08:21:00,19,16,4,28,29,14,7,19,17
08:22:00,13,16,2,25,26,15,6,16,15
08:23:00,21,21,4,23,29,21,6,20,18
08:24:00,22,18,6,41,25,15,6,22,19
08:25:00,22,20,3,21,24,21,6,18,17
08:26:00,21,22,3,23,24,6,4,19,15
08:27:00,23,21,3,19,30,12,9,19,17
08:28:00,26,19,3,21,33,24,9,20,19
08:29:00,16,11,4,33,32,16,9,19,17
08:30:00,24,25,6,30,30,17,6,23,20
08:31:00,27,24,3,26,18,16,6,20,17
08:32:00,25,16,3,21,34,23,8,20,19
08:33:00,25,22,2,30,31,16,2,22,18
08:34:00,20,18,6,19,26,15,5,18,16
08:35:00,20,17,3,26,31,17,11,19,18
08:36:00,20,34,4,31,29,14,6,24,20
08:37:00,23,20,8,37,25,16,4,23,19
08:38:00,26,21,3,36,28,17,9,23,20
08:39:00,19,24,7,29,29,16,11,22,19
08:40:00,33,12,4,27,26,20,7,20,18
08:41:00,27,22,5,24,30,23,6,22,20
08:42:00,25,23,5,32,32,22,12,23,22
08:43:00,26,23,2,27,33,20,9,22,20
08:44:00,22,28,5,20,32,20,6,21,19
08:45:00,23,33,3,26,27,6,10,22,18
08:46:00,27,26,6,34,22,23,9,23,21
08:47:00,30,24,4,21,16,19,14,19,18
08:48:00,27,33,9,30,25,28,13,25,24
08:49:00,21,21,6,24,29,25,8,20,19
08:50:00,24,32,5,24,29,16,20,23,21
08:51:00,22,23,4,31,37,26,5,23,21
08:52:00,30,28,6,25,24,18,7,23,20
08:53:00,16,12,7,18,29,16,16,16,16
08:54:00,32,27,5,23,20,13,10,21,19
08:55:00,25,11,3,22,32,22,18,19,19
08:56:00,20,13,3,23,20,16,8,16,15
08:57:00,20,31,2,12,14,14,11,16,15
08:58:00,30,19,6,19,24,14,5,20,17
08:59:00,23,15,5,23,35,11,7,20,17
09:00:00,22,22,5,20,22,23,8,18,17
09:01:00,21,17,0,21,20,15,13,16,15
09:02:00,17,17,5,17,14,16,12,14,14
09:03:00,21,23,5,19,22,15,8,18,16
09:04:00,16,11,4,23,25,14,11,16,15
09:05:00,22,30,7,14,25,14,9,20,17
09:06:00,19,17,6,22,14,15,7,16,14
09:07:00,25,21,6,19,24,20,4,19,17
09:08:00,17,27,4,22,23,20,10,19,18
09:09:00,23,22,9,26,24,24,8,21,19
09:10:00,12,13,5,27,20,13,14,15,15
09:11:00,20,17,6,24,33,15,8,20,18
09:12:00,16,22,9,26,27,27,10,20,20
09:13:00,20,23,5,16,15,17,13,16,16
09:14:00,27,18,5,16,25,24,9,18,18
09:15:00,22,19,7,23,20,13,13,18,17
09:16:00,15,18,8,16,23,21,11,16,16
09:17:00,18,28,7,22,28,25,10,21,20
09:18:00,30,28,9,27,29,10,15,25,21
09:19:00,18,22,8,17,20,18,11,17,16
09:20:00,32,19,10,27,20,26,12,22,21
09:21:00,16,21,13,31,27,21,23,22,22
09:22:00,35,17,6,29,25,34,17,22,23
09:23:00,24,18,5,26,35,12,12,22,19
09:24:00,22,21,5,15,16,22,14,16,16
09:25:00,28,36,4,28,33,18,17,26,23
09:26:00,26,20,5,27,22,23,12,20,19
09:27:00,27,32,7,35,27,27,14,26,24
09:28:00,16,16,6,22,39,15,15,20,18
09:29:00,23,29,13,20,24,19,13,22,20
09:30:00,20,22,8,26,24,22,17,20,20
09:31:00,25,22,9,32,27,17,11,23,20
09:32:00,27,21,15,30,20,18,16,23,21
09:33:00,31,21,9,27,23,16,8,22,19
09:34:00,21,25,9,26,31,18,8,22,20
09:35:00,25,25,11,28,27,22,18,23,22
09:36:00,23,28,3,16,29,27,16,20,20
09:37:00,29,27,10,23,24,17,9,23,20
09:38:00,26,17,12,27,26,27,18,22,22
09:39:00,20,23,6,20,29,26,11,20,19
09:40:00,22,18,8,23,18,32,17,18,20
09:41:00,29,24,5,18,34,28,21,22,23
09:42:00,32,34,10,32,21,21,11,26,23
09:43:00,24,16,6,25,29,23,21,20,21
09:44:00,35,21,14,20,27,28,21,23,24
09:45:00,26,29,11,31,27,27,13,25,23
09:46:00,23,31,12,25,25,22,19,23,22
09:47:00,32,33,9,23,29,25,19,25,24
09:48:00,22,26,13,24,32,34,18,23,24
09:49:00,28,33,15,21,28,24,22,25,24
09:50:00,25,26,10,24,27,23,25,22,23
09:51:00,26,31,16,32,24,33,22,26,26
09:52:00,33,24,13,32,32,29,30,27,28
09:53:00,26,37,10,34,29,36,25,27,28
09:54:00,26,22,11,38,31,26,19,26,25
09:55:00,32,35,12,23,31,33,25,27,27
09:56:00,31,29,14,27,34,25,17,27,25
09:57:00,21,30,14,23,30,20,24,24,23
09:58:00,22,33,9,30,34,29,6,26,23
09:59:00,29,26,9,19,26,30,17,22,22
10:00:00,24,29,22,34,20,26,19,26,25
10:01:00,29,31,18,29,30,20,21,27,25
10:02:00,25,26,16,24,32,32,17,25,25
10:03:00,29,26,11,32,27,27,31,25,26
10:04:00,25,34,21,34,29,26,21,29,27
10:05:00,36,30,16,25,30,35,17,27,27
10:06:00,37,31,21,28,22,29,24,28,27
10:07:00,25,27,12,20,24,24,23,22,22
10:08:00,37,27,16,33,35,31,19,30,28
10:09:00,24,26,13,24,27,27,27,23,24
10:10:00,25,33,16,7,29,35,18,22,23
10:11:00,28,24,9,45,34,28,26,28,28
10:12:00,22,28,13,25,26,29,19,23,23
10:13:00,30,22,21,41,31,36,16,29,28
10:14:00,28,25,14,19,28,29,26,23,24
10:15:00,35,22,14,28,21,32,21,24,25
10:16:00,28,32,14,32,33,26,28,28,28
10:17:00,35,28,20,31,25,33,28,28,29
10:18:00,29,35,13,27,29,29,22,27,26
10:19:00,27,27,14,25,24,39,27,23,26
10:20:00,29,36,10,29,31,25,22,27,26
10:21:00,32,29,14,27,26,31,30,26,27
10:22:00,39,36,13,22,31,32,22,28,28
10:23:00,34,38,13,28,30,30,33,29,29
10:24:00,37,35,13,33,39,39,17,31,30
10:25:00,39,24,18,19,28,25,21,26,25
10:26:00,22,26,21,40,25,28,37,27,28
10:27:00,40,23,8,24,34,32,25,26,27
10:28:00,33,39,13,31,21,22,28,27,27
10:29:00,31,29,16,36,29,27,29,28,28
10:30:00,40,33,17,25,32,26,31,29,29
10:31:00,36,27,19,38,37,37,30,31,32
10:32:00,33,28,8,35,26,33,18,26,26
10:33:00,36,26,7,22,22,23,25,23,23
10:34:00,31,31,18,21,28,35,22,26,27
10:35:00,29,36,13,23,33,24,34,27,27
10:36:00,31,29,15,34,25,42,23,27,28
10:37:00,36,39,17,25,26,32,32,29,30
10:38:00,18,35,17,25,29,32,18,25,25
10:39:00,41,37,13,30,31,29,34,30,31
10:40:00,28,30,22,31,35,24,32,29,29
10:41:00,35,34,20,35,33,32,16,31,29
10:42:00,44,29,14,40,31,36,25,32,31
10:43:00,35,32,15,24,35,33,27,28,29
10:44:00,43,34,19,33,22,27,32,30,30
10:45:00,37,35,22,37,25,30,31,31,31
10:46:00,32,23,14,33,27,26,37,26,27
10:47:00,40,38,19,15,29,35,20,28,28
10:48:00,42,25,26,31,33,25,33,31,31
10:49:00,38,43,17,29,31,40,30,32,33
10:50:00,29,29,14,37,33,43,28,28,30
10:51:00,22,34,22,25,37,40,32,28,30
10:52:00,39,37,20,40,29,29,34,33,33
10:53:00,41,33,25,23,39,37,35,32,33
10:54:00,33,37,25,31,24,34,30,30,31
10:55:00,40,40,19,32,27,32,26,32,31
10:56:00,34,34,14,41,19,32,27,28,29
10:57:00,27,31,13,38,38,31,40,29,31
10:58:00,39,43,18,21,21,27,27,28,28
10:59:00,28,34,20,30,30,30,33,28,29
11:00:00,31,32,12,33,32,31,35,28,29
11:01:00,21,31,15,47,33,32,24,29,29
11:02:00,34,39,18,29,33,22,23,31,28
11:03:00,30,29,12,24,26,32,37,24,27
11:04:00,36,41,14,29,34,34,30,31,31
11:05:00,31,35,11,34,37,34,23,30,29
11:06:00,37,25,26,36,25,44,45,30,34
11:07:00,25,40,20,35,41,28,26,32,31
11:08:00,32,30,19,40,40,42,28,32,33
11:09:00,42,38,13,37,36,19,28,33,30
11:10:00,37,36,17,36,24,29,26,30,29
11:11:00,24,37,22,32,31,41,27,29,31
11:12:00,38,39,24,31,30,27,30,32,31
11:13:00,42,36,10,33,34,41,27,31,32
11:14:00,35,36,16,27,46,37,31,32,33
11:15:00,28,27,25,26,30,24,39,27,28
11:16:00,33,41,25,33,32,30,25,33,31
11:17:00,47,36,20,45,34,49,23,36,36
11:18:00,30,27,16,32,30,31,34,27,29
11:19:00,39,34,25,39,36,30,21,35,32
11:20:00,32,44,25,35,29,40,40,33,35
11:21:00,28,45,23,30,42,33,24,34,32
11:22:00,36,33,24,28,35,35,38,31,33
11:23:00,40,39,15,31,20,30,37,29,30
11:24:00,39,36,19,36,24,28,27,31,30
11:25:00,40,36,19,35,36,27,24,33,31
11:26:00,31,27,26,33,26,36,39,29,31
11:27:00,35,42,23,23,32,37,28,31,31
11:28:00,32,31,19,33,30,19,28,29,27
11:29:00,32,40,21,26,48,42,22,33,33
11:30:00,27,33,29,34,32,24,19,31,28
11:31:00,35,42,24,27,24,33,34,30,31
11:32:00,26,35,27,44,30,39,34,32,34
11:33:00,43,36,24,29,32,37,29,33,33
11:34:00,33,39,22,32,40,38,31,33,34
11:35:00,32,40,14,39,21,37,24,29,30
11:36:00,34,37,20,30,29,37,36,30,32
11:37:00,42,38,14,35,34,33,26,33,32
11:38:00,37,33,27,32,35,28,37,33,33
11:39:00,39,41,14,29,40,34,24,33,32
11:40:00,26,39,15,43,43,30,25,33,32
11:41:00,36,33,27,26,30,31,29,30,30
11:42:00,39,32,20,33,26,26,41,30,31
11:43:00,33,33,19,22,36,31,29,29,29
11:44:00,41,43,14,41,32,29,29,34,33
11:45:00,32,36,26,29,32,28,32,31,31
11:46:00,37,29,20,37,38,33,37,32,33
11:47:00,26,24,30,38,30,41,34,30,32
11:48:00,31,34,21,43,30,26,43,32,33
11:49:00,37,32,25,35,35,39,41,33,35
11:50:00,41,31,29,37,45,33,32,37,35
11:51:00,31,30,29,37,42,34,35,34,34
11:52:00,37,48,31,39,28,40,39,37,37
11:53:00,36,31,23,24,36,26,46,30,32
11:54:00,36,38,24,23,42,33,38,33,33
11:55:00,37,39,23,39,38,37,26,35,34
11:56:00,28,34,25,41,35,31,36,33,33
11:57:00,39,39,21,40,32,34,29,34,33
11:58:00,35,39,33,34,40,27,49,36,37
11:59:00,31,43,33,30,31,18,19,34,29
12:00:00,47,35,28,39,31,43,34,36,37
12:01:00,35,31,23,30,21,43,42,28,32
12:02:00,42,36,23,37,37,31,38,35,35
12:03:00,32,34,29,35,32,26,42,32,33
12:04:00,37,35,25,35,38,42,29,34,34
12:05:00,40,40,27,35,38,37,26,36,35
12:06:00,33,49,29,31,29,40,39,34,36
12:07:00,37,41,22,39,32,45,28,34,35
12:08:00,33,30,27,37,32,37,31,32,32
12:09:00,47,36,24,34,24,33,41,33,34
12:10:00,23,35,32,44,34,45,42,34,36
12:11:00,38,38,13,36,41,39,30,33,34
12:12:00,38,42,33,33,35,27,40,36,35
12:13:00,36,46,25,32,34,36,33,35,35
12:14:00,41,46,23,40,33,41,45,37,38
12:15:00,43,38,15,38,39,42,28,35,35
12:16:00,51,48,31,31,42,29,39,41,39
12:17:00,24,51,27,45,32,38,41,36,37
12:18:00,31,26,23,27,27,36,30,27,29
12:19:00,37,37,21,40,27,33,31,32,32
12:20:00,20,41,23,40,30,36,33,31,32
12:21:00,39,34,31,34,42,31,27,36,34
12:22:00,40,39,31,25,35,38,49,34,37
12:23:00,44,44,28,41,34,46,39,38,39
12:24:00,37,37,36,41,45,30,28,39,36
12:25:00,30,37,30,26,26,37,31,30,31
12:26:00,32,34,20,43,29,36,42,32,34
12:27:00,36,46,35,21,32,34,26,34,33
12:28:00,30,27,28,32,43,42,41,32,35
12:29:00,39,35,24,29,36,29,19,33,30
12:30:00,41,30,22,40,28,25,39,32,32
12:31:00,36,34,25,22,36,32,26,31,30
12:32:00,38,34,25,33,39,34,36,34,34
12:33:00,42,27,34,30,30,39,28,33,33
12:34:00,35,28,22,32,14,36,29,26,28
12:35:00,46,42,25,31,36,30,37,36,35
12:36:00,33,30,33,26,36,41,27,32,32
12:37:00,39,37,26,29,41,35,37,34,35
12:38:00,44,37,40,32,36,40,34,38,38
12:39:00,46,32,17,28,24,30,37,29,31
12:40:00,30,45,27,39,27,42,31,34,34
12:41:00,37,52,21,34,46,42,32,38,38
12:42:00,41,42,23,33,39,30,35,36,35
12:43:00,41,41,21,31,34,26,40,34,33
12:44:00,40,34,32,28,33,28,33,33,33
12:45:00,36,37,34,38,43,36,35,38,37
12:46:00,37,37,19,42,39,27,37,35,34
12:47:00,35,41,17,22,29,28,34,29,29
12:48:00,38,40,30,36,41,36,20,37,34
12:49:00,39,32,27,27,22,47,33,29,32
12:50:00,33,40,28,39,42,49,30,36,37
12:51:00,38,39,24,27,42,28,47,34,35
12:52:00,37,35,20,24,28,35,32,29,30
12:53:00,37,32,34,29,39,46,44,34,37
12:54:00,34,38,25,38,45,32,33,36,35
12:55:00,35,47,30,39,33,32,37,37,36
12:56:00,36,43,30,30,30,36,27,34,33
12:57:00,23,33,21,38,35,36,42,30,33
12:58:00,31,42,19,28,37,31,26,31,31
12:59:00,51,32,25,28,37,36,38,35,35
13:00:00,33,34,30,38,31,29,42,33,34
13:01:00,48,31,33,31,37,40,27,36,35
13:02:00,37,29,27,41,42,44,37,35,37
13:03:00,34,33,25,35,36,40,36,33,34
13:04:00,28,44,35,31,29,31,28,33,32
13:05:00,42,39,26,39,28,24,27,35,32
13:06:00,41,32,26,44,32,33,21,35,33
13:07:00,40,39,33,33,45,40,42,38,39
13:08:00,39,32,25,23,39,38,42,32,34
13:09:00,34,41,24,32,38,24,32,34,32
13:10:00,40,42,29,37,34,25,35,36,35
13:11:00,32,44,27,37,32,26,31,34,33
13:12:00,39,34,29,31,36,25,32,34,32
13:13:00,41,31,28,29,30,34,27,32,31
13:14:00,44,39,24,42,42,43,35,38,38
13:15:00,37,38,43,35,37,37,36,38,38
13:16:00,37,41,27,30,42,38,34,35,36
13:17:00,38,34,34,23,39,20,27,34,31
13:18:00,37,49,25,38,22,27,33,34,33
13:19:00,39,33,28,30,37,39,33,33,34
13:20:00,37,40,30,41,31,39,42,36,37
13:21:00,40,42,21,28,33,35,35,33,33
13:22:00,41,37,27,40,28,40,30,35,35
13:23:00,33,27,23,35,27,37,43,29,32
13:24:00,29,39,29,32,33,42,29,32,33
13:25:00,31,38,25,33,40,31,29,33,32
13:26:00,41,35,28,33,29,38,36,33,34
13:27:00,32,44,26,34,46,34,31,36,35
13:28:00,35,32,22,34,40,39,32,33,33
13:29:00,43,31,21,31,33,34,41,32,33
13:30:00,30,34,32,33,32,37,37,32,34
13:31:00,55,45,18,37,35,28,27,38,35
13:32:00,29,39,24,44,37,32,35,35,34
13:33:00,44,35,27,27,42,33,17,35,32
13:34:00,32,39,28,30,42,38,29,34,34
13:35:00,35,33,30,36,29,39,25,33,32
13:36:00,37,33,19,33,38,35,41,32,34
13:37:00,26,33,24,43,37,29,32,33,32
13:38:00,42,28,29,37,37,24,32,35,33
13:39:00,30,37,38,35,31,34,33,34,34
13:40:00,39,36,26,31,38,32,37,34,34
13:41:00,40,40,24,35,29,41,34,34,35
13:42:00,34,20,23,33,28,41,33,28,30
13:43:00,41,37,30,44,45,33,30,39,37
13:44:00,42,43,31,36,30,35,41,36,37
13:45:00,41,30,26,26,44,26,32,33,32
13:46:00,39,34,18,43,35,45,40,34,36
13:47:00,36,34,25,34,38,43,32,33,35
13:48:00,47,39,24,32,42,29,42,37,36
13:49:00,30,44,31,29,31,38,40,33,35
13:50:00,36,40,25,37,31,35,39,34,35
13:51:00,47,38,19,27,27,42,36,32,34
13:52:00,40,34,31,43,30,32,27,36,34
13:53:00,36,35,23,31,42,40,35,33,35
13:54:00,46,45,17,38,34,31,36,36,35
13:55:00,35,27,26,29,36,22,37,31,30
13:56:00,39,47,24,28,32,34,27,34,33
13:57:00,38,45,19,28,40,42,40,34,36
13:58:00,33,38,23,27,33,38,38,31,33
13:59:00,36,38,27,39,38,31,39,36,35
14:00:00,32,32,28,35,34,39,35,32,34
14:01:00,37,42,21,32,37,34,25,34,33
14:02:00,28,39,22,28,34,30,30,30,30
14:03:00,35,34,22,36,33,38,48,32,35
14:04:00,36,37,23,22,29,37,35,29,31
14:05:00,28,42,24,52,34,35,37,36,36
14:06:00,25,37,27,28,36,36,33,31,32
14:07:00,44,46,21,33,41,32,45,37,37
14:08:00,38,46,20,40,27,27,37,34,34
14:09:00,39,32,27,23,32,30,23,31,29
14:10:00,40,41,26,33,30,35,31,34,34
14:11:00,41,47,29,35,33,40,34,37,37
14:12:00,36,37,14,30,40,31,32,31,31
14:13:00,38,44,35,46,35,30,30,40,37
14:14:00,33,42,24,33,36,29,44,34,34
14:15:00,33,37,32,29,36,37,26,33,33
14:16:00,35,31,22,40,37,39,38,33,35
14:17:00,35,44,20,46,37,24,24,36,33
14:18:00,41,35,20,40,30,30,33,33,33
14:19:00,39,45,29,28,35,27,32,35,34
14:20:00,29,48,28,38,33,36,37,35,36
14:21:00,40,34,26,36,38,31,29,35,33
14:22:00,41,48,21,36,25,37,36,34,35
14:23:00,37,48,22,34,37,34,38,36,36
14:24:00,34,32,23,48,31,29,37,34,33
14:25:00,39,40,20,21,48,38,33,34,34
14:26:00,34,41,22,48,44,32,37,38,37
14:27:00,33,42,30,27,40,32,35,34,34
14:28:00,44,41,23,35,40,40,31,37,36
14:29:00,36,39,32,39,36,40,33,36,36
14:30:00,28,44,26,33,39,42,44,34,37
14:31:00,44,42,25,42,27,23,30,36,33
14:32:00,38,37,33,44,37,36,34,38,37
14:33:00,40,32,19,32,41,30,30,33,32
14:34:00,39,41,21,31,39,36,24,34,33
14:35:00,42,46,31,37,20,32,23,35,33
14:36:00,42,36,22,27,41,34,43,34,35
14:37:00,42,44,25,33,36,21,26,36,32
14:38:00,38,36,18,47,39,26,26,36,33
14:39:00,27,39,17,24,41,41,48,30,34
14:40:00,38,36,27,42,29,28,41,34,34
14:41:00,28,40,28,36,39,32,33,34,34
14:42:00,44,32,20,26,33,35,24,31,31
14:43:00,37,43,15,30,45,33,34,34,34
14:44:00,37,44,20,36,39,39,35,35,36
14:45:00,33,35,24,38,38,46,41,34,36
14:46:00,32,37,27,42,31,23,32,34,32
14:47:00,35,44,30,25,41,34,42,35,36
14:48:00,43,45,30,26,40,33,23,37,34
14:49:00,38,37,17,39,39,36,38,34,35
14:50:00,36,31,27,36,35,37,42,33,35
14:51:00,43,45,18,25,37,33,35,34,34
14:52:00,40,34,12,49,38,36,29,35,34
14:53:00,28,47,22,29,38,33,28,33,32
14:54:00,35,41,36,30,49,47,33,38,39
14:55:00,36,45,21,33,35,33,29,34,33
14:56:00,34,39,22,31,31,33,32,31,32
14:57:00,29,36,12,31,30,33,33,28,29
14:58:00,35,39,34,39,36,30,29,37,35
14:59:00,38,39,22,30,38,34,36,33,34
15:00:00,35,47,26,41,29,41,35,36,36
15:01:00,35,42,28,32,40,24,36,35,34
15:02:00,34,39,23,25,42,34,38,33,34
15:03:00,38,45,20,43,30,32,37,35,35
15:04:00,40,39,26,39,28,37,40,34,36
15:05:00,33,40,20,26,35,22,32,31,30
15:06:00,41,33,25,38,39,45,27,35,35
15:07:00,38,52,32,32,28,32,36,36,36
15:08:00,42,35,12,40,45,26,32,35,33
15:09:00,40,42,21,39,34,31,37,35,35
15:10:00,34,49,21,36,34,35,17,35,32
15:11:00,51,41,29,41,37,37,40,40,39
15:12:00,34,35,21,23,39,37,24,30,30
15:13:00,46,28,22,30,35,31,38,32,33
15:14:00,31,43,24,35,34,36,38,33,34
15:15:00,47,46,28,41,27,30,29,38,35
15:16:00,38,44,15,31,27,34,30,31,31
15:17:00,39,34,23,29,39,42,22,33,33
15:18:00,41,34,31,23,31,17,38,32,31
15:19:00,37,32,26,43,21,45,30,32,33
15:20:00,41,38,26,43,37,25,35,37,35
15:21:00,37,40,27,35,38,24,26,35,32
15:22:00,27,26,20,34,31,25,26,28,27
15:23:00,33,32,15,31,36,27,27,29,29
15:24:00,42,39,18,41,40,29,24,36,33
15:25:00,40,47,17,30,40,40,32,35,35
15:26:00,34,44,12,47,37,34,28,35,34
15:27:00,46,25,19,35,35,33,37,32,33
15:28:00,40,41,17,24,42,31,37,33,33
15:29:00,30,36,21,32,34,22,29,31,29
15:30:00,41,37,24,28,31,37,35,32,33
15:31:00,37,45,20,30,29,38,28,32,32
15:32:00,33,32,25,26,28,33,41,29,31
15:33:00,29,49,20,41,36,26,34,35,34
15:34:00,46,31,19,40,39,35,22,35,33
15:35:00,31,37,24,46,25,28,30,33,32
15:36:00,43,38,25,35,44,36,36,37,37
15:37:00,41,31,19,32,34,34,42,31,33
15:38:00,44,31,27,23,27,32,34,30,31
15:39:00,45,43,13,32,21,24,34,31,30
15:40:00,36,31,18,40,44,34,18,34,32
15:41:00,50,39,27,41,43,35,29,40,38
15:42:00,33,30,21,32,38,31,32,31,31
15:43:00,30,38,19,25,44,26,31,31,30
15:44:00,38,36,23,48,39,36,22,37,35
15:45:00,40,35,19,41,43,42,25,36,35
15:46:00,44,32,20,35,35,34,31,33,33
15:47:00,39,51,17,32,25,31,24,33,31
15:48:00,29,30,22,45,32,33,31,32,32
15:49:00,29,32,14,33,50,35,29,32,32
15:50:00,35,23,12,35,25,28,38,26,28
15:51:00,30,32,18,31,40,35,34,30,31
15:52:00,44,37,17,39,42,33,23,36,34
15:53:00,37,30,29,37,48,37,26,36,35
15:54:00,30,30,12,40,41,36,22,31,30
15:55:00,29,39,29,30,37,25,23,33,30
15:56:00,46,31,15,30,37,20,19,32,28
15:57:00,27,36,23,29,44,42,26,32,32
15:58:00,36,25,27,36,39,27,21,33,30
15:59:00,39,34,23,25,36,30,33,31,31
16:00:00,39,19,24,32,30,33,24,29,29
16:01:00,36,38,20,39,33,33,29,33,33
16:02:00,24,32,16,23,28,26,31,25,26
16:03:00,38,46,18,39,36,28,28,35,33
16:04:00,28,44,21,21,35,33,30,30,30
16:05:00,33,43,17,35,26,37,36,31,32
16:06:00,48,42,28,32,33,27,20,37,33
16:07:00,44,32,21,30,31,36,36,32,33
16:08:00,42,37,11,28,38,27,23,31,29
16:09:00,32,39,17,30,38,33,30,31,31
16:10:00,36,36,24,36,39,42,29,34,35
16:11:00,44,43,12,43,38,28,20,36,33
16:12:00,29,35,17,34,38,39,23,31,31
16:13:00,31,34,13,38,27,26,13,29,26
16:14:00,28,31,15,29,35,45,25,28,30
16:15:00,31,39,15,36,46,32,20,33,31
16:16:00,36,37,19,42,32,27,11,33,29
16:17:00,32,41,20,30,38,32,21,32,31
16:18:00,45,30,19,32,31,23,22,31,29
16:19:00,45,26,14,34,50,24,16,34,30
16:20:00,42,37,16,32,38,38,22,33,32
16:21:00,33,29,13,37,27,26,23,28,27
16:22:00,46,19,26,25,37,31,15,31,28
16:23:00,34,45,15,21,34,26,24,30,28
16:24:00,32,35,21,32,30,32,21,30,29
16:25:00,39,41,10,26,56,35,23,34,33
16:26:00,40,40,18,30,35,31,12,33,29
16:27:00,45,27,13,30,34,31,15,30,28
16:28:00,34,36,13,38,39,41,12,32,30
16:29:00,43,31,22,25,42,29,22,33,31
16:30:00,36,40,18,26,32,28,8,30,27
16:31:00,37,38,18,41,26,28,18,32,29
16:32:00,32,35,17,31,39,26,17,31,28
16:33:00,34,40,16,32,28,25,17,30,27
16:34:00,40,35,12,28,34,26,22,30,28
16:35:00,33,43,12,27,30,26,9,29,26
16:36:00,42,27,15,45,32,27,16,32,29
16:37:00,31,33,9,33,40,37,16,29,28
16:38:00,41,36,17,55,32,34,17,36,33
16:39:00,40,32,21,25,38,35,16,31,30
16:40:00,35,37,7,38,38,20,26,31,29
16:41:00,41,32,8,41,33,29,12,31,28
16:42:00,38,27,19,43,38,35,22,33,32
16:43:00,34,39,17,42,37,37,14,34,31
16:44:00,38,30,8,26,35,27,19,27,26
16:45:00,37,23,16,38,38,31,18,30,29
16:46:00,47,26,17,34,45,15,17,34,29
16:47:00,39,34,14,29,43,23,13,32,28
16:48:00,21,29,18,33,33,33,16,27,26
16:49:00,40,29,17,33,32,33,19,30,29
16:50:00,32,15,13,28,30,35,12,24,24
16:51:00,31,37,12,34,36,32,19,30,29
16:52:00,34,26,15,43,40,24,14,32,28
16:53:00,36,28,17,38,36,34,17,31,29
16:54:00,29,29,10,31,24,16,22,25,23
16:55:00,24,36,19,34,40,45,13,31,30
16:56:00,35,37,9,29,51,35,13,32,30
16:57:00,54,25,19,37,23,17,14,32,27
16:58:00,34,28,13,34,39,20,13,30,26
16:59:00,32,20,19,39,41,39,19,30,30
17:00:00,28,25,23,40,27,27,10,29,26
17:01:00,31,31,14,37,42,21,15,31,27
17:02:00,34,17,11,29,42,30,13,27,25
17:03:00,39,37,8,25,35,33,12,29,27
17:04:00,37,27,9,40,36,24,12,30,26
17:05:00,35,25,10,35,42,32,17,29,28
17:06:00,36,28,11,24,31,41,12,26,26
17:07:00,39,23,14,47,37,26,17,32,29
17:08:00,45,27,21,32,40,26,21,33,30
17:09:00,33,36,20,48,35,27,10,34,30
17:10:00,24,27,19,24,38,29,18,26,26
17:11:00,37,31,20,51,40,27,13,36,31
17:12:00,36,36,24,44,30,34,18,34,32
17:13:00,37,17,17,32,37,17,19,28,25
17:14:00,30,19,16,49,48,44,8,32,31
17:15:00,32,28,14,56,35,34,16,33,31
17:16:00,32,20,19,40,39,18,16,30,26
17:17:00,38,28,9,38,41,31,11,31,28
17:18:00,36,24,16,41,42,28,12,32,28
17:19:00,41,36,14,39,49,24,11,36,31
17:20:00,28,26,9,40,47,25,13,30,27
17:21:00,36,20,11,52,51,29,12,34,30
17:22:00,35,25,12,37,38,35,17,29,28
17:23:00,31,20,9,34,47,27,8,28,25
17:24:00,23,28,11,48,33,26,10,29,26
17:25:00,30,26,18,39,36,34,13,30,28
17:26:00,31,15,14,29,41,23,18,26,24
17:27:00,35,26,15,30,17,25,18,25,24
17:28:00,18,29,14,33,37,13,16,26,23
17:29:00,29,18,19,24,25,24,12,23,22
17:30:00,29,31,17,35,23,17,13,27,24
17:31:00,22,22,11,37,40,18,13,26,23
17:32:00,24,14,11,26,35,23,13,22,21
17:33:00,35,26,12,37,35,21,10,29,25
17:34:00,21,20,14,32,29,31,18,23,24
17:35:00,36,27,17,48,46,23,9,35,29
17:36:00,29,25,9,43,43,21,13,30,26
17:37:00,33,37,13,37,35,31,9,31,28
17:38:00,39,18,9,41,36,24,13,29,26
17:39:00,36,25,11,48,40,27,10,32,28
17:40:00,18,17,12,31,41,21,7,24,21
17:41:00,26,16,11,46,35,32,17,27,26
17:42:00,27,15,8,28,31,22,10,22,20
17:43:00,29,22,13,41,33,29,25,28,27
17:44:00,21,16,9,42,29,22,16,23,22
17:45:00,32,17,21,27,32,25,13,26,24
17:46:00,39,24,15,39,36,28,9,31,27
17:47:00,37,19,13,41,37,36,13,29,28
17:48:00,25,32,14,35,45,32,11,30,28
17:49:00,31,16,13,36,47,27,13,29,26
17:50:00,25,30,7,31,37,27,17,26,25
17:51:00,20,12,12,28,32,30,22,21,22
17:52:00,27,19,5,36,32,19,15,24,22
17:53:00,25,23,23,31,32,21,13,27,24
17:54:00,35,19,11,31,18,29,10,23,22
17:55:00,20,15,17,23,35,23,7,22,20
17:56:00,18,24,6,29,50,16,9,25,22
17:57:00,22,16,13,31,20,21,7,20,19
17:58:00,22,17,13,22,26,20,18,20,20
17:59:00,22,14,19,29,32,24,12,23,22
18:00:00,25,18,18,23,25,23,12,22,21
18:01:00,19,20,13,24,31,22,12,21,20
18:02:00,20,20,12,32,31,19,21,23,22
18:03:00,27,23,16,44,23,28,11,27,25
18:04:00,24,17,23,26,25,17,8,23,20
18:05:00,22,23,7,24,23,27,12,20,20
18:06:00,37,21,12,33,40,26,18,29,27
18:07:00,18,20,7,34,27,30,9,21,21
18:08:00,27,17,14,29,30,30,9,23,22
18:09:00,15,19,11,37,30,27,17,22,22
18:10:00,28,11,12,26,42,17,8,24,21
18:11:00,34,29,9,31,25,28,18,26,25
18:12:00,32,14,9,26,22,12,20,21,19
18:13:00,27,17,7,23,38,24,9,22,21
18:14:00,29,18,21,40,28,34,10,27,26
18:15:00,28,20,10,33,32,16,17,25,22
18:16:00,24,14,7,35,29,32,10,22,22
18:17:00,22,15,16,21,38,19,12,22,20
18:18:00,27,12,16,20,28,18,13,21,19
18:19:00,24,22,11,20,23,24,10,20,19
18:20:00,12,20,12,13,45,22,13,20,20
18:21:00,31,20,12,26,24,25,14,23,22
18:22:00,27,13,7,29,33,28,13,22,21
18:23:00,20,17,15,24,40,16,6,23,20
18:24:00,27,17,7,22,30,25,10,21,20
18:25:00,22,21,13,21,37,25,11,23,21
18:26:00,18,11,3,22,20,19,8,15,14
18:27:00,22,13,8,17,31,28,8,18,18
18:28:00,24,16,13,30,27,11,11,22,19
18:29:00,15,13,5,23,29,29,11,17,18
18:30:00,20,21,15,24,23,18,18,21,20
18:31:00,13,17,14,18,30,27,13,18,19
18:32:00,25,22,18,19,27,24,10,22,21
18:33:00,20,21,7,23,34,27,13,21,21
18:34:00,15,13,10,15,30,15,15,17,16
18:35:00,19,23,7,19,17,20,16,17,17
18:36:00,26,13,13,17,28,17,6,19,17
18:37:00,21,10,7,21,16,14,11,15,14
18:38:00,16,25,7,18,26,22,7,18,17
18:39:00,22,18,10,21,19,21,15,18,18
18:40:00,23,27,10,16,25,17,13,20,19
18:41:00,16,18,12,25,25,15,9,19,17
18:42:00,16,11,10,16,19,17,9,14,14
18:43:00,39,17,10,25,21,20,17,22,21
18:44:00,25,19,10,16,27,17,7,19,17
18:45:00,21,7,15,24,21,26,14,18,18
18:46:00,20,19,12,24,26,20,9,20,19
18:47:00,19,14,8,22,32,17,16,19,18
18:48:00,19,16,9,17,18,16,8,16,15
18:49:00,22,14,8,26,19,18,8,18,16
18:50:00,16,18,13,17,27,12,4,18,15
18:51:00,14,20,6,27,17,26,9,17,17
18:52:00,21,21,13,22,25,17,18,20,20
18:53:00,23,17,9,19,20,12,6,18,15
18:54:00,26,16,8,23,18,14,15,18,17
18:55:00,15,12,9,24,20,10,10,16,14
18:56:00,21,13,10,25,20,19,4,18,16
18:57:00,19,13,10,10,23,24,11,15,16
18:58:00,23,11,12,26,22,18,6,19,17
18:59:00,17,7,10,25,28,13,7,17,15
19:00:00,18,16,8,29,21,12,13,18,17
19:01:00,14,15,14,21,24,22,12,18,17
19:02:00,17,12,5,35,21,19,14,18,18
19:03:00,19,19,9,23,32,18,19,20,20
19:04:00,26,15,10,23,30,21,14,21,20
19:05:00,27,24,4,10,21,13,13,17,16
19:06:00,27,10,15,26,31,15,11,22,19
19:07:00,21,19,12,22,26,21,11,20,19
19:08:00,18,16,10,26,25,19,12,19,18
19:09:00,23,16,9,26,29,31,9,21,20
19:10:00,21,20,13,14,20,20,11,18,17
19:11:00,21,12,10,24,32,24,6,20,18
19:12:00,20,16,10,20,25,13,17,18,17
19:13:00,18,12,8,32,24,18,8,19,17
19:14:00,21,13,10,22,26,12,7,18,16
19:15:00,17,12,8,19,25,23,9,16,16
19:16:00,18,10,15,20,23,16,11,17,16
19:17:00,18,12,5,10,24,16,10,14,14
19:18:00,29,15,11,25,16,24,13,19,19
19:19:00,19,12,13,11,25,26,4,16,16
19:20:00,8,8,10,19,19,15,11,13,13
19:21:00,18,15,8,26,22,19,13,18,17
19:22:00,20,12,9,16,16,13,10,15,14
19:23:00,14,13,19,21,23,14,13,18,17
19:24:00,18,15,7,12,25,16,11,15,15
19:25:00,17,9,11,18,25,15,8,16,15
19:26:00,25,12,7,20,16,19,12,16,16
19:27:00,14,8,13,20,19,15,9,15,14
19:28:00,19,12,6,7,15,15,7,12,12
19:29:00,15,12,5,14,21,21,7,13,14
19:30:00,19,19,14,20,9,13,7,16,14
19:31:00,14,15,5,13,18,14,4,13,12
19:32:00,11,12,9,18,16,16,8,13,13
19:33:00,19,15,9,9,19,17,8,14,14
19:34:00,18,13,6,12,18,13,12,13,13
19:35:00,10,14,13,16,14,19,10,13,14
19:36:00,22,13,9,16,30,23,7,18,17
19:37:00,7,16,7,22,12,21,10,13,14
19:38:00,17,12,8,15,17,18,11,14,14
19:39:00,13,16,9,13,12,8,6,13,11
19:40:00,14,9,6,18,17,13,7,13,12
19:41:00,10,10,10,18,18,16,17,13,14
19:42:00,9,11,7,14,18,14,9,12,12
19:43:00,18,15,9,13,14,16,13,14,14
19:44:00,16,15,14,13,13,8,8,14,12
19:45:00,15,14,6,8,24,22,10,13,14
19:46:00,21,14,13,16,14,8,9,16,14
19:47:00,13,16,3,13,23,15,6,14,13
19:48:00,11,10,11,12,21,18,8,13,13
19:49:00,17,12,7,17,13,8,14,13,13
19:50:00,17,9,8,15,12,15,10,12,12
19:51:00,17,15,14,17,9,11,5,14,13
19:52:00,13,16,12,7,16,12,7,13,12
19:53:00,13,17,7,12,12,12,8,12,12
19:54:00,21,10,12,10,13,8,7,13,12
19:55:00,15,8,7,30,18,11,9,16,14
19:56:00,9,10,6,15,12,11,7,10,10
19:57:00,9,14,6,16,22,11,4,13,12
19:58:00,15,6,4,19,10,17,8,11,11
19:59:00,10,11,3,13,16,7,10,11,10
20:00:00,14,9,6,12,22,10,13,13,12
20:01:00,18,8,7,13,15,8,8,12,11
20:02:00,11,10,9,17,15,7,6,12,11
20:03:00,9,13,8,14,14,14,5,12,11
20:04:00,12,10,9,14,22,6,10,13,12
20:05:00,23,14,5,17,12,11,6,14,13
20:06:00,10,8,4,18,32,7,12,14,13
20:07:00,15,13,8,13,19,12,6,14,12
20:08:00,13,10,12,16,19,13,9,14,13
20:09:00,13,10,16,21,12,20,11,14,15
20:10:00,15,12,7,17,16,15,3,13,12
20:11:00,12,13,4,18,16,5,9,13,11
20:12:00,16,7,12,13,12,7,6,12,10
20:13:00,10,17,9,13,13,11,8,12,12
20:14:00,20,10,10,12,11,13,7,13,12
20:15:00,12,5,6,9,9,8,7,8,8
20:16:00,9,8,9,14,8,10,7,10,9
20:17:00,13,7,7,16,12,12,7,11,11
20:18:00,14,10,6,9,9,12,7,10,10
20:19:00,13,8,4,18,19,16,11,12,13
20:20:00,9,12,6,17,16,6,8,12,11
20:21:00,11,7,3,11,8,8,6,8,8
20:22:00,5,7,9,16,11,12,7,10,10
20:23:00,12,11,8,15,10,9,6,11,10
20:24:00,12,5,5,8,9,4,5,8,7
20:25:00,14,10,9,14,12,9,5,12,10
20:26:00,7,9,3,20,14,9,6,11,10
20:27:00,9,12,4,3,11,6,5,8,7
20:28:00,15,12,4,15,13,9,3,12,10
20:29:00,10,7,4,11,11,6,6,9,8
20:30:00,5,12,5,12,11,7,5,9,8
20:31:00,5,9,5,13,6,10,4,8,7
20:32:00,6,9,8,10,19,4,10,10,9
20:33:00,7,8,9,14,14,7,5,10,9
20:34:00,16,4,8,9,13,7,2,10,8
20:35:00,9,9,9,9,6,10,9,8,9
20:36:00,10,9,8,10,10,12,9,9,10
20:37:00,15,3,11,17,12,11,6,12,11
20:38:00,11,10,4,11,13,10,6,10,9
20:39:00,8,8,2,13,11,10,4,8,8
20:40:00,11,5,10,11,12,12,7,10,10
20:41:00,15,13,7,11,12,12,12,12,12
20:42:00,9,4,10,7,13,6,5,9,8
20:43:00,10,3,8,5,13,10,8,8,8
20:44:00,12,5,6,7,10,6,5,8,7
20:45:00,7,5,11,5,12,7,9,8,8
20:46:00,6,8,3,13,14,8,12,9,9
20:47:00,9,8,8,8,7,12,5,8,8
20:48:00,9,8,6,12,12,12,10,9,10
20:49:00,7,11,7,5,10,12,5,8,8
20:50:00,9,8,7,5,11,8,6,8,8
20:51:00,9,10,5,10,12,5,7,9,8
20:52:00,11,9,7,10,11,12,6,10,9
20:53:00,11,6,8,4,5,12,14,7,9
20:54:00,7,7,7,12,13,12,5,9,9
20:55:00,8,7,9,4,10,10,2,8,7
20:56:00,5,3,4,16,12,9,8,8,8
20:57:00,8,4,4,7,5,9,5,6,6
20:58:00,10,1,10,17,5,2,1,9,7
20:59:00,13,5,6,10,8,9,7,8,8
21:00:00,9,4,5,7,7,7,4,6,6
21:01:00,5,4,3,7,11,8,3,6,6
21:02:00,10,2,6,7,7,5,6,6,6
21:03:00,6,4,9,15,13,11,4,9,9
21:04:00,7,5,2,15,9,7,4,8,7
21:05:00,7,11,6,5,15,4,11,9,8
21:06:00,4,8,5,7,10,7,4,7,6
21:07:00,12,5,1,6,8,6,7,6,6
21:08:00,7,3,6,6,8,11,3,6,6
21:09:00,10,12,5,8,7,9,11,8,9
21:10:00,15,6,6,12,11,3,9,10,9
21:11:00,9,5,6,10,7,5,9,7,7
21:12:00,11,5,7,6,7,1,9,7,7
21:13:00,4,9,4,9,9,9,5,7,7
21:14:00,6,10,5,9,6,2,3,7,6
21:15:00,7,4,4,3,13,9,4,6,6
21:16:00,10,6,7,10,6,6,6,8,7
21:17:00,8,5,4,7,3,4,4,5,5
21:18:00,6,4,7,8,8,9,8,7,7
21:19:00,10,3,4,9,6,9,6,6,7
21:20:00,8,6,5,15,8,9,4,8,8
21:21:00,11,4,5,6,5,4,11,6,7
21:22:00,11,5,5,3,6,4,2,6,5
21:23:00,3,5,10,15,9,9,6,8,8
21:24:00,8,4,1,7,8,2,5,6,5
21:25:00,11,5,4,7,9,8,1,7,6
21:26:00,10,4,5,9,5,6,4,7,6
21:27:00,3,3,4,6,17,6,3,7,6
21:28:00,9,2,5,12,10,1,8,8,7
21:29:00,6,6,6,10,5,9,3,7,6
21:30:00,14,2,6,6,6,4,4,7,6
21:31:00,7,4,3,4,9,8,5,5,6
21:32:00,9,3,5,4,10,9,6,6,7
21:33:00,5,5,4,8,6,7,7,6,6
21:34:00,8,6,3,7,11,5,4,7,6
21:35:00,2,4,5,5,12,8,1,6,5
21:36:00,5,4,4,9,7,6,8,6,6
21:37:00,6,6,4,5,10,7,2,6,6
21:38:00,1,6,6,9,8,4,6,6,6
21:39:00,12,3,1,10,6,10,3,6,6
21:40:00,6,7,2,5,5,5,11,5,6
21:41:00,9,7,2,6,8,8,1,6,6
21:42:00,11,3,6,9,7,5,3,7,6
21:43:00,8,2,7,9,7,5,5,7,6
21:44:00,8,6,1,6,8,3,5,6,5
21:45:00,6,4,3,10,9,7,3,6,6
21:46:00,10,11,2,4,7,6,15,7,8
21:47:00,3,2,2,5,5,7,4,3,4
21:48:00,9,3,5,5,7,1,6,6,5
21:49:00,8,5,5,8,2,8,5,6,6
21:50:00,9,4,4,6,10,4,7,7,6
21:51:00,6,6,7,7,2,6,2,6,5
21:52:00,6,7,4,7,7,9,3,6,6
21:53:00,4,4,5,6,6,6,6,5,5
21:54:00,3,4,1,5,9,4,3,4,4
21:55:00,5,6,3,8,3,4,2,5,4
21:56:00,5,4,4,8,7,7,3,6,5
21:57:00,2,2,1,7,13,4,2,5,4
21:58:00,5,7,5,4,8,3,3,6,5
21:59:00,3,2,0,5,6,2,5,3,3
22:00:00,4,3,8,8,6,3,7,6,6
22:01:00,2,5,4,9,4,4,7,5,5
22:02:00,3,4,3,8,10,9,3,6,6
22:03:00,5,3,8,6,12,2,3,7,6
22:04:00,13,6,6,7,4,8,8,7,7
22:05:00,11,7,2,6,5,9,4,6,6
22:06:00,10,12,9,15,5,5,1,10,8
22:07:00,6,4,3,4,8,7,4,5,5
22:08:00,6,4,10,10,10,11,0,8,7
22:09:00,4,7,6,7,5,9,4,6,6
22:10:00,6,0,0,7,6,15,4,4,5
22:11:00,7,3,4,8,2,7,1,5,5
22:12:00,5,7,4,7,6,14,7,6,7
22:13:00,5,4,2,12,5,2,2,6,5
22:14:00,3,2,2,6,5,1,5,4,3
22:15:00,9,4,5,9,13,6,1,8,7
22:16:00,6,0,5,5,3,6,6,4,4
22:17:00,2,3,7,6,4,3,3,4,4
22:18:00,11,9,7,7,10,4,4,9,7
22:19:00,5,5,5,4,10,4,6,6,6
22:20:00,8,3,4,8,7,6,3,6,6
22:21:00,4,6,6,2,4,4,5,4,4
22:22:00,5,3,5,5,8,6,1,5,5
22:23:00,1,2,2,6,6,8,4,3,4
22:24:00,1,4,4,8,4,3,8,4,5
22:25:00,10,5,5,3,5,14,5,6,7
22:26:00,6,7,4,7,7,4,4,6,6
22:27:00,3,4,6,3,3,8,5,4,5
22:28:00,5,5,6,6,3,7,5,5,5
22:29:00,6,2,4,2,4,6,0,4,3
22:30:00,8,4,4,8,4,4,5,6,5
22:31:00,4,4,4,4,6,4,1,4,4
22:32:00,7,5,6,4,7,7,6,6,6
22:33:00,5,3,3,9,9,6,4,6,6
22:34:00,4,3,0,5,2,5,3,3,3
22:35:00,6,5,4,4,5,6,1,5,4
22:36:00,6,2,2,2,7,11,6,4,5
22:37:00,5,4,2,3,8,5,4,4,4
22:38:00,5,3,2,3,7,5,2,4,4
22:39:00,3,3,2,1,8,7,4,3,4
22:40:00,6,2,1,6,3,5,3,4,4
22:41:00,2,4,1,3,6,4,3,3,3
22:42:00,6,6,2,3,5,3,4,4,4
22:43:00,4,1,3,2,8,5,5,4,4
22:44:00,6,2,1,6,3,3,0,4,3
22:45:00,2,1,1,0,4,4,2,2,2
22:46:00,2,1,6,4,5,7,2,4,4
22:47:00,4,4,4,3,9,7,0,5,4
22:48:00,1,6,1,3,9,3,4,4,4
22:49:00,3,5,3,6,3,4,0,4,3
22:50:00,2,2,3,5,1,9,4,3,4
22:51:00,3,3,1,8,3,4,2,4,3
22:52:00,5,6,1,2,3,5,4,3,4
22:53:00,3,2,3,4,5,3,2,3,3
22:54:00,2,4,1,4,6,6,2,3,4
22:55:00,9,4,4,3,6,9,1,5,5
22:56:00,3,2,1,4,5,6,0,3,3
22:57:00,2,4,1,5,0,7,1,2,3
22:58:00,6,2,0,7,4,2,0,4,3
22:59:00,1,4,4,2,2,3,0,3,2
23:00:00,6,1,1,4,5,5,0,3,3
23:01:00,4,3,0,1,9,9,2,3,4
23:02:00,3,1,3,3,7,6,2,3,4
23:03:00,3,3,2,7,2,4,4,3,4
23:04:00,2,1,2,2,4,2,1,2,2
23:05:00,3,5,2,6,3,11,0,4,4
23:06:00,4,2,0,4,2,9,0,2,3
23:07:00,2,5,5,6,4,1,1,4,3
23:08:00,3,3,4,6,1,11,2,3,4
23:09:00,1,4,2,2,1,5,1,2,2
23:10:00,7,2,1,3,3,3,0,3,3
23:11:00,2,1,5,0,6,5,1,3,3
23:12:00,2,5,0,2,3,5,2,2,3
23:13:00,4,1,6,2,5,8,1,4,4
23:14:00,2,2,1,2,6,3,1,3,2
23:15:00,0,2,0,3,2,4,3,1,2
23:16:00,4,1,3,2,3,4,1,3,3
23:17:00,1,4,1,6,5,2,2,3,3
23:18:00,3,5,2,5,1,3,1,3,3
23:19:00,1,2,2,2,2,3,0,2,2
23:20:00,2,2,1,5,6,3,0,3,3
23:21:00,3,3,3,3,2,4,2,3,3
23:22:00,1,2,2,2,0,7,2,1,2
23:23:00,1,2,0,1,3,5,0,1,2
23:24:00,3,5,3,2,4,3,2,3,3
23:25:00,2,3,2,4,2,6,3,3,3
23:26:00,1,3,1,3,3,2,2,2,2
23:27:00,0,3,1,4,4,5,1,2,3
23:28:00,3,2,0,3,3,1,3,2,2
23:29:00,2,7,4,0,2,1,3,3,3
23:30:00,5,2,1,4,4,3,1,3,3
23:31:00,6,3,2,1,5,10,1,3,4
23:32:00,4,4,1,1,3,2,2,3,2
23:33:00,2,3,0,0,5,4,1,2,2
23:34:00,0,4,3,0,1,6,1,2,2
23:35:00,5,2,3,1,7,1,1,4,3
23:36:00,4,2,0,2,5,4,2,3,3
23:37:00,4,2,0,2,3,1,3,2,2
23:38:00,2,4,1,4,1,4,4,2,3
23:39:00,6,2,1,5,2,7,2,3,4
23:40:00,1,5,3,0,6,8,5,3,4
23:41:00,6,3,0,3,5,2,0,3,3
23:42:00,6,3,1,3,5,1,2,4,3
23:43:00,0,1,2,0,2,4,1,1,1
23:44:00,4,0,1,0,2,3,0,1,1
23:45:00,2,3,1,0,3,4,0,2,2
23:46:00,1,0,1,1,6,4,1,2,2
23:47:00,2,0,3,1,2,8,1,2,2
23:48:00,2,4,2,1,4,3,1,3,2
23:49:00,4,2,1,2,4,2,0,3,2
23:50:00,6,1,2,1,3,6,0,3,3
23:51:00,4,1,5,0,2,10,2,2,3
23:52:00,3,0,1,2,4,4,1,2,2
23:53:00,3,5,3,0,5,1,0,3,2
23:54:00,3,3,0,0,3,3,1,2,2
23:55:00,1,2,0,2,5,3,3,2,2
23:56:00,2,0,2,5,2,9,0,2,3
23:57:00,2,0,1,2,4,2,3,2,2
23:58:00,0,0,2,2,5,2,1,2,2
23:59:00,1,0,1,0,5,2,0,1,1
,,,,,,,,,
Totals,,,,,,,,,
12H(7-19),22035,21199,11491,21967,22700,19453,15697,19878,19220
16H(6-22),24549,23195,12862,24745,25635,21649,17201,22197,21405
18H(6-24),25012,23575,13182,25209,26188,22266,17479,22633,21844
24H(0-24),25420,23976,14064,25591,26652,22732,17962,23141,22342
,,,,,,,,,
AM Peak,10:39:00,11:00:00,11:00:00,11:00:00,11:00:00,10:49:00,10:59:00,10:01:00,10:01:00
,2073,2143,1277,2010,2004,1974,1886,1661,1677
,,,,,,,,,
PM Peak,14:48:00,14:11:00,12:21:00,16:51:00,16:25:00,12:04:00,12:01:00,14:12:00,14:12:00
,2279,2424,1647,2237,2251,2157,2068,2070,2052
,,,,,,,,,
,,,,,,,,,
CA Traffic,,,,,,,,,VDA-net R2 16/01/2020
