Site Number,00008023,Unnamed: 2,Site Reference,00008023.1,Unnamed: 5,Unnamed: 6,Lat/Lng.,"52.07076,1.17594",Unnamed: 9
Radar 8023 Colchester Road Ipswich,,,,,,,,,
Vehicle Count Report,,,,Week Begin: 27 January 2020,,,Channel:,Total Flow,
,,,,,,,,,
,,,,,,,,,
,2020-01-27 00:00:00,2020-01-28 00:00:00,2020-01-29 00:00:00,2020-01-30 00:00:00,2020-01-31 00:00:00,2020-02-01 00:00:00,2020-02-02 00:00:00,"5-Day
Ave.","7-Day
Ave."
00:00:00,3,1,0,3,3,6,5,2,3
00:01:00,0,2,0,2,8,2,3,2,2
00:02:00,0,3,3,2,2,6,4,2,3
00:03:00,1,4,2,3,2,3,6,2,3
00:04:00,1,3,3,1,1,6,5,2,3
00:05:00,2,2,1,1,1,3,3,1,2
00:06:00,4,2,0,1,2,2,3,2,2
00:07:00,1,1,1,4,3,5,7,2,3
00:08:00,3,7,3,1,1,6,8,3,4
00:09:00,3,0,2,1,1,2,1,1,1
00:10:00,5,2,2,3,1,3,4,3,3
00:11:00,2,2,2,2,1,3,1,2,2
00:12:00,2,4,1,1,1,1,6,2,2
00:13:00,2,1,2,1,4,3,2,2,2
00:14:00,0,4,0,1,1,3,2,1,2
00:15:00,2,2,2,3,2,1,0,2,2
00:16:00,5,1,2,2,2,5,3,2,3
00:17:00,0,1,2,4,3,2,4,2,2
00:18:00,1,0,3,0,2,3,7,1,2
00:19:00,2,3,1,0,2,4,3,2,2
00:20:00,1,2,3,1,2,3,6,2,3
00:21:00,1,0,0,0,1,2,3,0,1
00:22:00,1,3,2,1,3,3,7,2,3
00:23:00,2,2,1,0,2,5,7,1,3
00:24:00,1,2,1,2,1,3,2,1,2
00:25:00,3,1,0,1,2,2,5,1,2
00:26:00,1,0,2,1,4,3,1,2,2
00:27:00,2,1,2,4,1,8,6,2,3
00:28:00,1,1,0,3,2,4,1,1,2
00:29:00,2,2,1,0,2,3,3,1,2
00:30:00,1,0,1,2,1,3,6,1,2
00:31:00,0,2,1,0,1,4,1,1,1
00:32:00,3,0,1,1,3,2,3,2,2
00:33:00,0,1,1,1,1,4,2,1,1
00:34:00,1,0,1,0,0,2,1,0,1
00:35:00,0,1,3,4,1,4,3,2,2
00:36:00,0,0,0,2,1,4,5,1,2
00:37:00,1,0,1,1,0,3,1,1,1
00:38:00,1,1,0,1,1,2,2,1,1
00:39:00,3,1,1,0,1,1,1,1,1
00:40:00,1,1,2,1,5,3,1,2,2
00:41:00,0,3,1,1,0,1,0,1,1
00:42:00,0,0,3,1,1,2,4,1,2
00:43:00,0,0,4,1,1,2,3,1,2
00:44:00,1,3,1,0,0,3,2,1,1
00:45:00,1,0,1,0,0,3,1,0,1
00:46:00,1,0,1,1,0,2,3,1,1
00:47:00,1,2,2,1,1,2,2,1,2
00:48:00,0,0,0,1,2,2,3,1,1
00:49:00,1,2,1,0,1,5,3,1,2
00:50:00,2,0,0,0,0,0,1,0,0
00:51:00,0,1,1,2,1,5,2,1,2
00:52:00,0,0,2,0,0,1,1,0,1
00:53:00,0,0,2,0,0,0,3,0,1
00:54:00,2,1,0,1,0,1,1,1,1
00:55:00,0,1,0,2,0,1,2,1,1
00:56:00,0,0,1,1,3,3,0,1,1
00:57:00,2,2,1,0,0,4,0,1,1
00:58:00,0,2,0,1,1,2,2,1,1
00:59:00,2,1,1,1,0,3,1,1,1
01:00:00,1,0,1,0,0,1,3,0,1
01:01:00,2,0,2,0,1,1,2,1,1
01:02:00,0,2,0,1,1,2,3,1,1
01:03:00,2,1,1,0,0,1,0,1,1
01:04:00,0,1,0,1,0,4,1,0,1
01:05:00,0,0,1,1,1,6,0,1,1
01:06:00,0,0,4,0,0,1,2,1,1
01:07:00,2,1,1,1,1,1,4,1,2
01:08:00,1,2,0,1,0,0,0,1,1
01:09:00,2,1,0,0,2,1,1,1,1
01:10:00,0,1,2,2,0,0,1,1,1
01:11:00,1,1,1,0,2,2,3,1,1
01:12:00,0,5,3,1,3,0,1,2,2
01:13:00,1,0,0,1,1,4,1,1,1
01:14:00,0,0,0,1,0,3,3,0,1
01:15:00,0,3,0,0,1,3,3,1,1
01:16:00,0,0,1,0,2,1,2,1,1
01:17:00,1,0,0,0,0,0,1,0,0
01:18:00,1,1,1,0,0,1,1,1,1
01:19:00,0,2,0,1,0,2,0,1,1
01:20:00,0,0,1,2,1,1,1,1,1
01:21:00,0,0,0,0,0,1,1,0,0
01:22:00,0,1,1,0,0,3,0,0,1
01:23:00,1,0,0,0,1,3,1,0,1
01:24:00,0,1,1,0,0,3,1,0,1
01:25:00,0,0,2,0,0,1,1,0,1
01:26:00,0,0,0,0,1,4,0,0,1
01:27:00,0,0,1,1,2,1,2,1,1
01:28:00,0,0,0,0,0,1,2,0,0
01:29:00,0,1,0,0,0,2,2,0,1
01:30:00,0,0,1,1,1,0,2,1,1
01:31:00,0,1,0,0,1,3,1,0,1
01:32:00,1,0,3,0,1,0,1,1,1
01:33:00,0,1,0,0,0,1,1,0,0
01:34:00,0,1,0,0,1,0,0,0,0
01:35:00,0,2,0,1,0,1,1,1,1
01:36:00,0,0,1,1,0,2,1,0,1
01:37:00,1,0,1,1,0,0,1,1,1
01:38:00,0,0,0,0,0,3,2,0,1
01:39:00,0,3,1,0,1,2,4,1,2
01:40:00,1,0,2,1,0,1,0,1,1
01:41:00,0,1,2,2,0,1,0,1,1
01:42:00,1,2,0,1,0,1,1,1,1
01:43:00,2,0,1,0,0,1,0,1,1
01:44:00,0,0,2,1,1,2,0,1,1
01:45:00,0,0,1,0,1,0,1,0,0
01:46:00,0,0,0,1,2,1,0,1,1
01:47:00,0,1,1,1,1,2,1,1,1
01:48:00,0,0,1,0,1,2,1,0,1
01:49:00,1,1,2,0,1,4,1,1,1
01:50:00,1,0,0,1,1,3,0,1,1
01:51:00,0,0,0,0,2,1,1,0,1
01:52:00,0,0,0,1,1,2,0,0,1
01:53:00,0,1,0,0,0,0,2,0,0
01:54:00,0,0,0,0,1,1,1,0,0
01:55:00,2,0,1,0,1,0,1,1,1
01:56:00,0,0,2,0,2,1,0,1,1
01:57:00,1,0,0,0,1,0,0,0,0
01:58:00,0,0,1,1,1,0,0,1,0
01:59:00,1,0,0,0,1,2,1,0,1
02:00:00,0,0,0,1,0,0,1,0,0
02:01:00,1,0,0,1,0,4,4,0,1
02:02:00,0,0,1,0,0,0,1,0,0
02:03:00,0,0,1,0,2,0,0,1,0
02:04:00,0,1,0,1,1,0,1,1,1
02:05:00,1,0,0,0,0,0,1,0,0
02:06:00,1,0,0,0,1,1,1,0,1
02:07:00,0,0,0,0,2,0,0,0,0
02:08:00,1,1,0,0,1,2,1,1,1
02:09:00,1,0,0,1,0,1,0,0,0
02:10:00,1,1,0,1,0,1,0,1,1
02:11:00,0,0,0,1,0,1,3,0,1
02:12:00,1,0,1,0,0,1,4,0,1
02:13:00,0,0,1,2,2,0,0,1,1
02:14:00,2,0,1,1,0,1,1,1,1
02:15:00,0,1,0,1,2,1,2,1,1
02:16:00,0,0,0,0,0,1,1,0,0
02:17:00,0,0,2,0,3,0,3,1,1
02:18:00,0,0,0,1,0,1,1,0,0
02:19:00,0,0,0,0,0,2,1,0,0
02:20:00,0,1,1,0,0,1,2,0,1
02:21:00,0,1,0,1,2,0,0,1,1
02:22:00,0,0,0,2,0,2,2,0,1
02:23:00,0,1,0,0,0,1,1,0,0
02:24:00,0,0,0,0,1,1,2,0,1
02:25:00,0,0,1,0,0,0,0,0,0
02:26:00,0,0,0,1,0,1,1,0,0
02:27:00,0,0,0,0,0,1,1,0,0
02:28:00,0,2,0,0,0,0,2,0,1
02:29:00,0,0,0,0,1,0,1,0,0
02:30:00,0,0,3,0,0,0,1,1,1
02:31:00,0,0,0,0,0,2,1,0,0
02:32:00,0,0,0,0,0,0,0,0,0
02:33:00,0,2,0,0,1,1,0,1,1
02:34:00,0,0,0,0,1,1,0,0,0
02:35:00,0,1,0,0,0,0,2,0,0
02:36:00,1,1,1,0,0,0,0,1,0
02:37:00,0,0,0,0,0,0,4,0,1
02:38:00,0,0,1,0,0,0,0,0,0
02:39:00,1,1,0,0,1,2,1,1,1
02:40:00,0,0,0,1,1,0,1,0,0
02:41:00,0,0,0,0,0,1,1,0,0
02:42:00,0,2,0,0,0,0,2,0,1
02:43:00,0,1,0,1,0,0,3,0,1
02:44:00,1,0,2,0,0,1,1,1,1
02:45:00,1,0,0,1,2,0,0,1,1
02:46:00,1,0,2,1,1,2,1,1,1
02:47:00,1,0,0,0,0,2,1,0,1
02:48:00,1,0,2,1,1,3,2,1,1
02:49:00,1,0,3,0,0,0,0,1,1
02:50:00,1,1,0,0,1,2,0,1,1
02:51:00,1,1,2,1,0,0,1,1,1
02:52:00,0,0,0,0,0,2,1,0,0
02:53:00,2,0,0,1,1,0,2,1,1
02:54:00,0,0,0,0,0,0,1,0,0
02:55:00,0,1,0,0,0,1,0,0,0
02:56:00,0,0,0,0,1,1,1,0,0
02:57:00,0,0,0,0,0,1,1,0,0
02:58:00,0,1,0,3,0,0,0,1,1
02:59:00,0,0,1,0,0,0,0,0,0
03:00:00,1,1,0,0,2,0,0,1,1
03:01:00,0,1,1,0,1,0,0,1,0
03:02:00,0,0,2,0,3,0,3,1,1
03:03:00,0,1,0,1,2,0,0,1,1
03:04:00,1,0,0,3,0,1,0,1,1
03:05:00,2,2,0,2,0,0,0,1,1
03:06:00,0,0,2,0,1,2,1,1,1
03:07:00,0,1,0,0,1,1,1,0,1
03:08:00,1,0,1,0,0,1,0,0,0
03:09:00,0,1,1,1,0,0,0,1,0
03:10:00,1,1,1,0,0,1,0,1,1
03:11:00,0,1,2,0,1,0,1,1,1
03:12:00,1,1,0,1,0,0,1,1,1
03:13:00,0,1,0,0,0,1,1,0,0
03:14:00,1,1,0,2,1,1,0,1,1
03:15:00,0,1,0,1,1,0,1,1,1
03:16:00,0,0,0,0,2,2,0,0,1
03:17:00,0,0,3,1,0,1,0,1,1
03:18:00,0,1,0,0,2,0,1,1,1
03:19:00,0,0,1,0,0,0,0,0,0
03:20:00,1,2,3,2,0,0,0,2,1
03:21:00,2,0,2,0,0,0,2,1,1
03:22:00,0,0,0,1,0,0,3,0,1
03:23:00,0,0,1,0,0,0,1,0,0
03:24:00,0,0,1,0,0,2,0,0,0
03:25:00,0,1,1,0,1,1,1,1,1
03:26:00,0,1,2,0,0,0,0,1,0
03:27:00,0,1,0,0,0,0,0,0,0
03:28:00,1,1,1,2,0,1,0,1,1
03:29:00,0,0,1,1,0,0,0,0,0
03:30:00,1,2,2,1,1,0,0,1,1
03:31:00,0,0,0,2,1,0,3,1,1
03:32:00,1,0,1,0,0,1,1,0,1
03:33:00,0,1,2,2,0,1,0,1,1
03:34:00,0,0,1,0,0,0,0,0,0
03:35:00,0,2,0,2,0,1,0,1,1
03:36:00,1,0,2,1,0,0,1,1,1
03:37:00,1,0,3,0,0,2,0,1,1
03:38:00,0,2,0,0,0,1,0,0,0
03:39:00,0,1,0,0,0,1,1,0,0
03:40:00,1,0,0,0,1,1,1,0,1
03:41:00,1,1,3,1,1,0,0,1,1
03:42:00,1,0,1,1,0,3,0,1,1
03:43:00,0,1,0,0,0,1,3,0,1
03:44:00,0,0,0,0,0,2,1,0,0
03:45:00,0,1,0,1,1,1,1,1,1
03:46:00,0,0,0,0,1,0,1,0,0
03:47:00,2,1,0,0,0,0,1,1,1
03:48:00,0,1,0,1,0,0,1,0,0
03:49:00,2,1,0,2,0,1,0,1,1
03:50:00,0,1,1,0,0,3,0,0,1
03:51:00,0,0,0,0,0,1,3,0,1
03:52:00,1,1,2,2,2,0,1,2,1
03:53:00,0,0,1,0,0,0,2,0,0
03:54:00,1,0,0,1,0,1,0,0,0
03:55:00,1,0,1,1,1,1,1,1,1
03:56:00,1,0,0,1,1,0,0,1,0
03:57:00,0,0,1,0,1,0,1,0,0
03:58:00,1,1,1,1,0,1,0,1,1
03:59:00,0,0,1,0,1,1,1,0,1
04:00:00,0,0,1,1,2,0,1,1,1
04:01:00,1,0,1,0,0,0,0,0,0
04:02:00,2,1,3,1,0,0,1,1,1
04:03:00,0,1,1,0,1,2,2,1,1
04:04:00,1,0,1,1,2,1,0,1,1
04:05:00,0,2,0,0,1,0,3,1,1
04:06:00,1,2,2,0,0,1,1,1,1
04:07:00,0,2,2,1,1,0,0,1,1
04:08:00,2,2,0,1,0,0,0,1,1
04:09:00,2,2,0,0,0,1,1,1,1
04:10:00,1,0,0,0,1,0,2,0,1
04:11:00,1,0,0,1,0,1,0,0,0
04:12:00,0,3,1,1,1,1,2,1,1
04:13:00,2,0,2,0,0,0,1,1,1
04:14:00,1,0,2,0,1,0,2,1,1
04:15:00,1,2,1,0,0,0,0,1,1
04:16:00,0,1,1,0,0,1,2,0,1
04:17:00,2,1,2,1,0,0,1,1,1
04:18:00,1,0,0,2,2,1,0,1,1
04:19:00,1,0,1,1,0,2,0,1,1
04:20:00,0,2,0,1,2,0,1,1,1
04:21:00,2,2,0,1,1,3,0,1,1
04:22:00,0,2,1,1,1,1,0,1,1
04:23:00,1,0,1,3,4,1,0,2,1
04:24:00,0,1,2,2,0,0,0,1,1
04:25:00,1,2,1,1,1,2,0,1,1
04:26:00,0,3,0,1,0,2,0,1,1
04:27:00,0,3,1,0,2,0,0,1,1
04:28:00,1,2,3,0,0,1,0,1,1
04:29:00,4,0,1,2,4,2,1,2,2
04:30:00,2,1,2,0,1,1,0,1,1
04:31:00,0,0,3,3,2,0,2,2,1
04:32:00,1,2,0,1,0,0,1,1,1
04:33:00,1,1,2,1,0,0,0,1,1
04:34:00,3,1,1,0,4,2,0,2,2
04:35:00,1,1,1,2,1,0,1,1,1
04:36:00,3,1,4,6,5,2,3,4,3
04:37:00,3,3,2,4,1,1,0,3,2
04:38:00,0,1,2,1,4,0,1,2,1
04:39:00,4,5,1,3,2,0,1,3,2
04:40:00,6,0,3,3,1,0,0,3,2
04:41:00,1,3,0,1,0,3,2,1,1
04:42:00,1,6,1,0,1,0,1,2,1
04:43:00,3,1,0,2,1,0,0,1,1
04:44:00,5,3,3,2,2,2,1,3,3
04:45:00,1,3,4,2,1,1,1,2,2
04:46:00,2,2,1,2,1,1,1,2,1
04:47:00,3,1,3,1,3,2,2,2,2
04:48:00,5,3,2,3,2,1,1,3,2
04:49:00,4,3,1,4,2,0,0,3,2
04:50:00,2,5,4,2,2,3,0,3,3
04:51:00,4,1,2,5,1,2,0,3,2
04:52:00,4,1,2,2,1,2,2,2,2
04:53:00,1,3,4,1,4,3,0,3,2
04:54:00,1,0,2,3,4,0,0,2,1
04:55:00,1,3,1,1,2,2,0,2,1
04:56:00,2,3,1,2,2,2,1,2,2
04:57:00,5,7,1,0,1,1,1,3,2
04:58:00,2,1,3,2,2,1,2,2,2
04:59:00,4,2,1,1,1,0,3,2,2
05:00:00,1,1,2,2,1,1,2,1,1
05:01:00,1,5,2,3,2,0,1,3,2
05:02:00,6,2,0,3,0,0,3,2,2
05:03:00,3,7,2,2,5,2,0,4,3
05:04:00,1,1,2,4,1,2,2,2,2
05:05:00,3,2,1,1,1,0,0,2,1
05:06:00,2,2,1,4,3,2,3,2,2
05:07:00,2,2,2,2,3,4,1,2,2
05:08:00,2,3,4,2,1,2,1,2,2
05:09:00,5,2,1,2,6,0,1,3,2
05:10:00,5,1,3,2,1,2,2,2,2
05:11:00,2,0,4,1,2,4,0,2,2
05:12:00,1,5,5,3,4,1,0,4,3
05:13:00,7,4,2,1,6,1,1,4,3
05:14:00,0,3,5,3,2,0,1,3,2
05:15:00,6,4,3,3,1,3,5,3,4
05:16:00,3,4,4,3,2,0,0,3,2
05:17:00,5,6,3,1,1,3,1,3,3
05:18:00,2,1,1,1,2,0,1,1,1
05:19:00,8,4,0,3,1,0,0,3,2
05:20:00,6,3,2,4,2,3,0,3,3
05:21:00,2,5,5,1,5,2,0,4,3
05:22:00,2,7,4,2,1,2,0,3,3
05:23:00,3,2,2,1,6,1,4,3,3
05:24:00,6,6,2,6,6,2,1,5,4
05:25:00,3,6,4,4,3,3,0,4,3
05:26:00,2,2,5,6,4,4,1,4,3
05:27:00,0,5,6,4,5,1,1,4,3
05:28:00,2,2,4,2,1,1,1,2,2
05:29:00,5,5,3,2,5,1,0,4,3
05:30:00,5,3,3,6,4,1,3,4,4
05:31:00,7,3,5,3,8,2,1,5,4
05:32:00,2,6,3,2,6,2,4,4,4
05:33:00,9,5,5,2,6,3,1,5,4
05:34:00,3,8,2,7,5,3,1,5,4
05:35:00,7,7,6,5,6,3,1,6,5
05:36:00,3,4,7,6,5,2,0,5,4
05:37:00,8,6,7,5,3,3,2,6,5
05:38:00,10,6,3,3,4,1,0,5,4
05:39:00,2,5,10,6,5,2,1,6,4
05:40:00,7,3,6,1,10,2,0,5,4
05:41:00,8,6,6,7,5,2,1,6,5
05:42:00,4,8,4,11,9,5,1,7,6
05:43:00,7,5,5,1,3,3,0,4,3
05:44:00,5,4,3,5,4,3,0,4,3
05:45:00,7,8,8,10,7,2,0,8,6
05:46:00,8,6,9,10,3,0,2,7,5
05:47:00,7,7,7,10,5,1,1,7,5
05:48:00,4,7,2,4,3,5,0,4,4
05:49:00,4,5,7,6,7,2,4,6,5
05:50:00,5,7,6,4,5,2,1,5,4
05:51:00,8,7,4,7,5,1,1,6,5
05:52:00,7,10,10,10,10,2,0,9,7
05:53:00,4,8,4,8,5,3,1,6,5
05:54:00,7,4,12,6,10,2,5,8,7
05:55:00,6,7,12,6,10,1,3,8,6
05:56:00,4,11,3,4,8,2,1,6,5
05:57:00,4,8,6,5,7,7,1,6,5
05:58:00,13,8,4,6,5,3,0,7,6
05:59:00,5,5,9,6,7,3,1,6,5
06:00:00,6,7,6,7,4,1,1,6,5
06:01:00,9,5,7,6,7,3,3,7,6
06:02:00,6,5,14,7,11,2,0,9,6
06:03:00,10,9,6,11,4,3,3,8,7
06:04:00,6,7,4,5,11,4,2,7,6
06:05:00,8,10,4,2,8,6,3,6,6
06:06:00,9,10,8,11,7,1,2,9,7
06:07:00,9,15,7,12,9,1,0,10,8
06:08:00,7,9,13,9,9,2,4,9,8
06:09:00,12,10,7,8,5,5,0,8,7
06:10:00,13,10,9,6,12,3,3,10,8
06:11:00,14,9,11,7,8,4,2,10,8
06:12:00,9,12,10,13,9,0,1,11,8
06:13:00,10,12,12,10,14,4,2,12,9
06:14:00,11,15,9,11,11,3,4,11,9
06:15:00,9,8,12,21,6,4,1,11,9
06:16:00,13,15,10,6,6,3,2,10,8
06:17:00,10,10,7,10,5,9,1,8,7
06:18:00,11,13,8,8,15,6,8,11,10
06:19:00,5,9,7,13,9,5,1,9,7
06:20:00,11,10,5,14,8,4,4,10,8
06:21:00,9,15,15,12,9,5,2,12,10
06:22:00,13,15,6,10,7,2,3,10,8
06:23:00,6,9,8,11,14,0,0,10,7
06:24:00,15,13,18,15,22,0,2,17,12
06:25:00,11,16,9,13,12,3,6,12,10
06:26:00,7,6,14,11,12,1,1,10,7
06:27:00,18,10,12,11,14,3,1,13,10
06:28:00,17,18,17,6,9,7,1,13,11
06:29:00,8,15,10,10,10,5,4,11,9
06:30:00,14,12,9,14,9,7,3,12,10
06:31:00,11,26,10,11,11,4,2,14,11
06:32:00,15,14,15,11,10,5,4,13,11
06:33:00,13,16,16,14,13,3,4,14,11
06:34:00,13,14,18,14,20,7,4,16,13
06:35:00,20,16,14,14,13,9,3,15,13
06:36:00,12,12,13,17,12,9,3,13,11
06:37:00,16,19,23,17,18,8,9,19,16
06:38:00,13,14,14,8,22,8,5,14,12
06:39:00,17,15,25,15,12,6,6,17,14
06:40:00,16,20,15,16,19,8,4,17,14
06:41:00,11,18,12,18,18,7,3,15,12
06:42:00,27,14,13,20,22,6,3,19,15
06:43:00,12,14,15,12,14,6,4,13,11
06:44:00,27,15,29,15,24,9,5,22,18
06:45:00,19,25,17,22,20,2,3,21,15
06:46:00,21,23,17,15,19,10,3,19,15
06:47:00,15,23,17,21,21,5,2,19,15
06:48:00,25,10,22,18,16,10,3,18,15
06:49:00,24,8,15,24,26,5,2,19,15
06:50:00,15,20,27,10,19,11,5,18,15
06:51:00,22,14,17,13,17,4,7,17,13
06:52:00,13,14,15,20,20,8,5,16,14
06:53:00,22,17,15,19,20,6,3,19,15
06:54:00,23,18,19,13,23,7,5,19,15
06:55:00,11,31,15,22,10,6,3,18,14
06:56:00,18,14,11,18,12,2,4,15,11
06:57:00,20,19,18,16,12,6,1,17,13
06:58:00,13,15,10,26,12,5,3,15,12
06:59:00,25,23,20,21,20,4,3,22,17
07:00:00,22,12,16,24,12,8,0,17,13
07:01:00,10,16,21,19,29,7,3,19,15
07:02:00,24,16,18,15,20,9,1,19,15
07:03:00,20,36,21,34,25,5,7,27,21
07:04:00,27,29,23,14,26,12,2,24,19
07:05:00,19,29,15,34,16,7,2,23,17
07:06:00,25,28,28,31,23,8,3,27,21
07:07:00,19,31,22,24,24,9,2,24,19
07:08:00,34,25,29,21,21,6,2,26,20
07:09:00,42,30,34,26,32,11,7,33,26
07:10:00,28,24,34,34,31,7,5,30,23
07:11:00,20,36,36,32,10,7,1,27,20
07:12:00,35,28,22,30,29,4,2,29,21
07:13:00,41,39,32,19,36,13,4,33,26
07:14:00,30,35,27,21,25,10,4,28,22
07:15:00,26,30,32,31,23,4,7,28,22
07:16:00,31,31,30,36,30,9,5,32,25
07:17:00,41,26,25,30,33,16,4,31,25
07:18:00,28,42,34,48,35,6,2,37,28
07:19:00,30,34,25,32,26,14,9,29,24
07:20:00,22,22,41,39,36,6,5,32,24
07:21:00,40,32,42,20,27,12,4,32,25
07:22:00,30,24,42,30,35,14,9,32,26
07:23:00,34,36,34,18,33,8,5,31,24
07:24:00,25,37,27,27,25,8,11,28,23
07:25:00,36,31,33,29,21,11,5,30,24
07:26:00,33,34,31,32,28,8,3,32,24
07:27:00,34,24,28,36,39,5,3,32,24
07:28:00,37,38,37,35,38,9,5,37,28
07:29:00,34,39,30,37,35,10,4,35,27
07:30:00,36,42,39,29,27,8,3,35,26
07:31:00,37,36,26,30,32,12,5,32,25
07:32:00,44,30,24,37,29,7,7,33,25
07:33:00,36,39,35,42,27,9,9,36,28
07:34:00,38,33,29,30,33,11,8,33,26
07:35:00,34,32,41,40,45,10,8,38,30
07:36:00,31,35,31,37,30,9,4,33,25
07:37:00,36,37,46,22,29,10,7,34,27
07:38:00,33,49,36,33,29,9,16,36,29
07:39:00,38,25,46,26,44,18,6,36,29
07:40:00,18,39,34,26,36,11,8,31,25
07:41:00,32,43,28,45,33,15,6,36,29
07:42:00,32,27,33,33,31,13,7,31,25
07:43:00,34,39,30,39,32,16,12,35,29
07:44:00,35,36,43,38,36,15,10,38,30
07:45:00,32,22,35,41,37,11,8,33,27
07:46:00,42,30,30,33,30,16,8,33,27
07:47:00,33,22,25,34,28,11,9,28,23
07:48:00,36,29,35,37,34,13,5,34,27
07:49:00,31,30,28,42,26,12,6,31,25
07:50:00,34,32,34,28,37,9,5,33,26
07:51:00,40,28,33,35,23,13,4,32,25
07:52:00,36,37,29,30,36,18,5,34,27
07:53:00,30,17,33,29,41,12,10,30,25
07:54:00,30,26,35,27,32,20,3,30,25
07:55:00,33,28,42,30,33,6,5,33,25
07:56:00,41,35,29,30,37,15,8,34,28
07:57:00,37,38,36,37,30,19,13,36,30
07:58:00,29,31,34,32,26,20,3,30,25
07:59:00,22,27,30,31,45,10,5,31,24
08:00:00,28,26,31,31,32,9,6,30,23
08:01:00,34,27,22,23,35,12,13,28,24
08:02:00,38,30,29,34,34,8,8,33,26
08:03:00,33,35,40,30,25,8,2,33,25
08:04:00,22,19,32,39,34,16,6,29,24
08:05:00,37,30,32,37,28,15,7,33,27
08:06:00,34,32,28,31,37,12,11,32,26
08:07:00,27,21,30,32,43,16,3,31,25
08:08:00,35,27,27,35,29,11,7,31,24
08:09:00,24,36,31,28,39,15,10,32,26
08:10:00,29,25,27,32,35,13,4,30,24
08:11:00,34,32,23,26,24,15,10,28,23
08:12:00,30,30,30,33,33,15,10,31,26
08:13:00,30,21,38,39,39,19,5,33,27
08:14:00,33,28,25,18,25,16,6,26,22
08:15:00,30,33,26,28,37,16,3,31,25
08:16:00,42,26,45,23,18,15,12,31,26
08:17:00,27,23,25,19,34,13,4,26,21
08:18:00,24,32,24,23,30,13,8,27,22
08:19:00,22,29,40,33,29,10,12,31,25
08:20:00,28,26,32,38,31,16,4,31,25
08:21:00,31,21,29,16,16,13,8,23,19
08:22:00,21,19,28,25,36,17,8,26,22
08:23:00,28,30,40,35,33,13,6,33,26
08:24:00,30,37,26,29,26,19,7,30,25
08:25:00,35,26,18,28,25,22,5,26,23
08:26:00,25,19,25,28,25,18,6,24,21
08:27:00,32,18,29,27,25,19,5,26,22
08:28:00,22,30,16,33,33,11,10,27,22
08:29:00,35,30,39,26,31,20,9,32,27
08:30:00,23,24,25,22,30,19,10,25,22
08:31:00,28,24,25,33,34,25,15,29,26
08:32:00,27,31,24,21,33,24,11,27,24
08:33:00,27,30,32,28,34,13,4,30,24
08:34:00,25,28,26,38,32,22,6,30,25
08:35:00,32,34,28,31,34,16,3,32,25
08:36:00,20,21,23,26,31,15,7,24,20
08:37:00,27,29,26,26,14,20,15,24,22
08:38:00,20,29,22,24,35,22,8,26,23
08:39:00,33,21,28,30,34,12,13,29,24
08:40:00,29,25,27,34,26,33,13,28,27
08:41:00,22,22,33,25,28,13,8,26,22
08:42:00,29,21,32,28,32,25,10,28,25
08:43:00,32,23,38,26,24,28,12,29,26
08:44:00,27,24,31,27,20,19,9,26,22
08:45:00,28,34,37,21,33,22,12,31,27
08:46:00,25,28,38,20,35,18,8,29,25
08:47:00,29,26,28,23,28,20,12,27,24
08:48:00,33,28,30,28,34,27,2,31,26
08:49:00,27,39,27,32,32,27,15,31,28
08:50:00,36,28,25,30,24,20,7,29,24
08:51:00,30,38,33,27,26,23,10,31,27
08:52:00,35,41,28,33,27,16,10,33,27
08:53:00,23,35,34,31,29,19,7,30,25
08:54:00,25,28,27,25,31,20,11,27,24
08:55:00,31,36,30,33,29,21,9,32,27
08:56:00,27,39,23,26,34,17,11,30,25
08:57:00,29,33,35,20,23,16,15,28,24
08:58:00,24,40,28,29,24,15,13,29,25
08:59:00,31,28,24,29,31,27,14,29,26
09:00:00,26,21,30,21,32,22,15,26,24
09:01:00,27,30,37,27,30,22,14,30,27
09:02:00,26,34,34,37,30,28,6,32,28
09:03:00,24,23,30,30,39,19,15,29,26
09:04:00,32,23,28,17,26,24,8,25,23
09:05:00,25,34,28,26,27,24,10,28,25
09:06:00,25,14,35,28,26,31,10,26,24
09:07:00,27,35,27,24,34,19,10,29,25
09:08:00,36,27,33,35,14,23,22,29,27
09:09:00,34,35,22,30,41,11,16,32,27
09:10:00,30,28,37,42,35,19,15,34,29
09:11:00,35,30,31,22,37,29,16,31,29
09:12:00,29,22,27,45,29,17,17,30,27
09:13:00,33,23,24,18,21,22,11,24,22
09:14:00,39,28,23,41,39,31,18,34,31
09:15:00,31,42,34,23,30,28,11,32,28
09:16:00,19,21,40,25,19,31,20,25,25
09:17:00,29,18,27,35,34,28,23,29,28
09:18:00,30,27,25,27,34,23,24,29,27
09:19:00,18,19,28,33,27,34,20,25,26
09:20:00,30,27,31,31,25,20,14,29,25
09:21:00,26,33,36,29,23,28,23,29,28
09:22:00,18,15,35,28,28,23,18,25,24
09:23:00,21,29,28,27,29,25,27,27,27
09:24:00,29,40,25,26,25,22,11,29,25
09:25:00,18,40,23,17,31,28,27,26,26
09:26:00,34,31,33,24,32,30,23,31,30
09:27:00,24,23,28,14,24,30,19,23,23
09:28:00,24,30,21,29,25,29,14,26,25
09:29:00,30,21,24,16,29,27,17,24,23
09:30:00,30,30,24,25,11,37,11,24,24
09:31:00,14,30,18,29,8,34,21,20,22
09:32:00,15,34,24,19,21,41,22,23,25
09:33:00,39,38,22,31,19,27,16,30,27
09:34:00,29,34,25,31,22,23,15,28,26
09:35:00,34,39,24,26,15,41,14,28,28
09:36:00,31,32,25,31,16,31,24,27,27
09:37:00,39,29,36,34,18,29,22,31,30
09:38:00,10,29,25,31,24,29,25,24,25
09:39:00,34,26,23,20,14,35,25,23,25
09:40:00,27,43,34,31,25,32,21,32,30
09:41:00,19,31,35,35,13,30,26,27,27
09:42:00,11,44,22,19,23,17,18,24,22
09:43:00,36,32,28,32,14,30,32,28,29
09:44:00,28,29,36,26,22,34,28,28,29
09:45:00,30,38,28,23,20,31,33,28,29
09:46:00,34,32,26,26,23,32,17,28,27
09:47:00,31,33,28,31,21,29,19,29,27
09:48:00,21,40,29,24,14,30,31,26,27
09:49:00,35,28,31,44,18,32,28,31,31
09:50:00,29,33,19,30,15,36,23,25,26
09:51:00,21,25,26,22,19,29,31,23,25
09:52:00,26,30,27,26,16,26,23,25,25
09:53:00,22,32,19,23,22,29,25,24,25
09:54:00,27,33,25,23,14,30,29,24,26
09:55:00,24,29,36,31,27,37,21,29,29
09:56:00,22,31,27,33,14,32,20,25,26
09:57:00,24,25,33,31,24,39,27,27,29
09:58:00,22,23,24,26,21,30,21,23,24
09:59:00,27,33,25,28,26,36,18,28,28
10:00:00,24,31,22,19,20,37,19,23,25
10:01:00,29,36,24,25,18,22,18,26,25
10:02:00,20,20,30,32,20,39,26,24,27
10:03:00,25,30,31,23,31,26,17,28,26
10:04:00,15,20,25,18,32,33,12,22,22
10:05:00,25,12,29,32,32,28,22,26,26
10:06:00,19,33,28,20,39,17,19,28,25
10:07:00,22,30,27,29,30,42,15,28,28
10:08:00,40,46,28,30,30,22,23,35,31
10:09:00,25,30,31,27,30,30,25,29,28
10:10:00,33,25,28,36,28,28,26,30,29
10:11:00,27,26,38,22,34,27,20,29,28
10:12:00,20,33,24,25,28,35,30,26,28
10:13:00,18,35,30,23,21,24,14,25,24
10:14:00,29,32,36,31,21,31,21,30,29
10:15:00,29,28,33,11,37,42,24,28,29
10:16:00,29,23,28,29,35,37,30,29,30
10:17:00,21,18,19,35,20,19,35,23,24
10:18:00,31,16,33,32,21,27,35,27,28
10:19:00,34,30,31,24,21,27,20,28,27
10:20:00,27,32,30,24,26,39,26,28,29
10:21:00,34,26,24,20,37,33,24,28,28
10:22:00,27,22,29,28,31,25,33,27,28
10:23:00,23,20,19,26,27,32,13,23,23
10:24:00,17,27,25,17,19,26,28,21,23
10:25:00,32,28,21,25,30,34,23,27,28
10:26:00,32,28,33,23,17,22,19,27,25
10:27:00,37,17,13,34,23,30,23,25,25
10:28:00,24,38,19,24,14,30,29,24,25
10:29:00,32,26,24,24,24,20,18,26,24
10:30:00,22,24,34,30,24,37,27,27,28
10:31:00,26,35,22,35,32,50,29,30,33
10:32:00,22,37,26,17,23,30,19,25,25
10:33:00,26,27,32,13,32,34,19,26,26
10:34:00,26,25,23,27,26,20,27,25,25
10:35:00,22,21,32,27,20,33,25,24,26
10:36:00,21,17,17,34,23,36,22,22,24
10:37:00,28,31,18,26,34,29,19,27,26
10:38:00,27,28,32,27,23,22,33,27,27
10:39:00,28,26,33,27,22,31,29,27,28
10:40:00,21,19,28,28,30,21,30,25,25
10:41:00,29,32,27,25,24,23,13,27,25
10:42:00,22,19,25,25,22,30,19,23,23
10:43:00,25,27,28,24,25,25,21,26,25
10:44:00,22,33,18,23,21,35,34,23,27
10:45:00,20,33,28,33,28,33,29,28,29
10:46:00,25,29,23,20,22,27,24,24,24
10:47:00,30,22,29,33,23,35,26,27,28
10:48:00,25,36,21,24,25,32,19,26,26
10:49:00,28,27,28,27,33,35,29,29,30
10:50:00,24,26,22,30,24,37,33,25,28
10:51:00,27,22,23,25,27,27,23,25,25
10:52:00,23,32,27,30,37,36,16,30,29
10:53:00,28,17,26,25,24,38,23,24,26
10:54:00,21,25,22,36,39,31,20,29,28
10:55:00,26,20,33,27,17,23,25,25,24
10:56:00,27,32,19,27,8,27,20,23,23
10:57:00,21,24,22,25,41,31,29,27,28
10:58:00,20,24,14,26,28,22,28,22,23
10:59:00,31,23,28,34,43,37,26,32,32
11:00:00,25,26,28,19,37,27,14,27,25
11:01:00,22,23,20,21,27,34,27,23,25
11:02:00,24,28,26,31,33,25,27,28,28
11:03:00,31,23,32,18,19,26,19,25,24
11:04:00,20,16,29,41,35,29,12,28,26
11:05:00,31,22,20,19,17,21,33,22,23
11:06:00,18,29,19,33,27,38,9,25,25
11:07:00,24,34,24,32,29,29,33,29,29
11:08:00,25,24,28,31,30,24,27,28,27
11:09:00,25,31,23,18,35,30,17,26,26
11:10:00,19,26,42,35,24,25,27,29,28
11:11:00,23,24,24,17,29,25,26,23,24
11:12:00,22,33,20,30,28,32,31,27,28
11:13:00,25,28,20,18,25,32,34,23,26
11:14:00,25,24,19,38,27,30,20,27,26
11:15:00,28,31,19,22,25,26,21,25,25
11:16:00,18,28,20,23,30,26,19,24,23
11:17:00,29,39,30,21,24,34,30,29,30
11:18:00,14,26,30,21,40,15,31,26,25
11:19:00,27,34,33,16,26,29,36,27,29
11:20:00,34,26,20,25,31,28,29,27,28
11:21:00,19,29,32,32,32,36,27,29,30
11:22:00,35,22,40,26,25,33,26,30,30
11:23:00,28,26,27,41,29,20,26,30,28
11:24:00,28,27,27,27,22,26,32,26,27
11:25:00,26,22,24,14,27,20,27,23,23
11:26:00,21,19,23,29,21,37,36,23,27
11:27:00,32,27,30,28,27,33,21,29,28
11:28:00,22,36,35,33,31,34,19,31,30
11:29:00,29,22,20,23,18,34,27,22,25
11:30:00,15,36,32,23,34,27,19,28,27
11:31:00,35,29,35,25,25,28,30,30,30
11:32:00,29,19,33,19,33,33,15,27,26
11:33:00,29,23,30,23,30,24,31,27,27
11:34:00,26,33,35,37,12,35,25,29,29
11:35:00,16,26,19,19,20,28,24,20,22
11:36:00,25,29,26,34,43,23,19,31,28
11:37:00,25,33,32,13,28,36,19,26,27
11:38:00,20,30,23,23,31,28,30,25,26
11:39:00,30,35,26,30,28,28,31,30,30
11:40:00,28,17,26,24,34,25,24,26,25
11:41:00,42,31,27,31,23,33,30,31,31
11:42:00,31,39,22,24,39,28,20,31,29
11:43:00,34,30,30,27,33,26,37,31,31
11:44:00,17,34,27,22,30,36,25,26,27
11:45:00,25,28,20,24,41,30,33,28,29
11:46:00,26,25,26,18,34,28,24,26,26
11:47:00,35,21,19,20,30,32,33,25,27
11:48:00,23,20,35,26,19,42,30,25,28
11:49:00,24,30,28,27,26,34,18,27,27
11:50:00,22,28,18,27,34,41,24,26,28
11:51:00,29,24,24,33,30,35,34,28,30
11:52:00,21,25,16,20,31,28,20,23,23
11:53:00,27,34,40,26,26,36,23,31,30
11:54:00,45,28,24,27,31,31,34,31,31
11:55:00,31,42,22,37,27,33,25,32,31
11:56:00,27,27,32,12,29,27,33,25,27
11:57:00,28,32,23,30,29,18,27,28,27
11:58:00,32,27,34,34,25,43,25,30,31
11:59:00,25,29,25,28,17,26,29,25,26
12:00:00,28,39,21,21,31,23,33,28,28
12:01:00,28,23,27,36,27,22,36,28,28
12:02:00,21,26,36,18,28,23,27,26,26
12:03:00,27,36,28,29,21,27,37,28,29
12:04:00,30,22,29,22,29,29,36,26,28
12:05:00,23,28,37,31,36,29,21,31,29
12:06:00,16,30,29,31,22,30,25,26,26
12:07:00,28,24,28,23,48,33,24,30,30
12:08:00,42,31,24,26,31,30,29,31,30
12:09:00,41,27,32,29,20,27,34,30,30
12:10:00,29,19,36,36,39,28,20,32,30
12:11:00,24,27,23,23,29,31,38,25,28
12:12:00,22,30,26,26,30,30,33,27,28
12:13:00,33,23,29,26,35,33,32,29,30
12:14:00,27,24,25,33,41,39,25,30,31
12:15:00,24,29,36,22,27,39,35,28,30
12:16:00,25,15,20,23,24,37,29,21,25
12:17:00,28,33,28,28,23,34,37,28,30
12:18:00,33,31,21,24,38,35,20,29,29
12:19:00,33,24,19,30,23,37,26,26,27
12:20:00,28,22,17,20,28,37,38,23,27
12:21:00,32,21,33,27,24,23,29,27,27
12:22:00,23,33,30,21,32,30,29,28,28
12:23:00,27,29,27,28,14,27,34,25,27
12:24:00,28,30,25,23,27,43,26,27,29
12:25:00,23,24,23,35,43,32,40,30,31
12:26:00,29,36,16,28,34,37,26,29,29
12:27:00,32,27,27,17,30,33,32,27,28
12:28:00,33,18,21,27,26,46,26,25,28
12:29:00,26,33,31,25,20,32,21,27,27
12:30:00,34,17,28,21,15,34,39,23,27
12:31:00,29,36,28,25,23,31,26,28,28
12:32:00,24,17,27,26,21,39,28,23,26
12:33:00,28,39,21,24,30,23,30,28,28
12:34:00,26,22,31,36,27,28,35,28,29
12:35:00,33,27,28,25,35,33,31,30,30
12:36:00,13,16,31,23,37,37,38,24,28
12:37:00,18,27,25,26,26,51,28,24,29
12:38:00,31,36,26,32,34,33,32,32,32
12:39:00,37,24,28,33,22,35,38,29,31
12:40:00,24,40,18,25,37,33,32,29,30
12:41:00,36,34,22,39,22,29,23,31,29
12:42:00,18,36,26,25,26,28,30,26,27
12:43:00,24,29,27,24,22,29,39,25,28
12:44:00,25,18,21,35,21,32,28,24,26
12:45:00,29,25,41,27,35,34,38,31,33
12:46:00,33,30,27,18,28,21,31,27,27
12:47:00,28,25,36,25,23,41,33,27,30
12:48:00,34,23,28,26,25,31,32,27,28
12:49:00,39,23,24,26,33,45,25,29,31
12:50:00,31,28,28,27,25,28,27,28,28
12:51:00,34,32,20,32,30,27,35,30,30
12:52:00,32,40,22,37,27,30,29,32,31
12:53:00,31,24,40,31,20,42,28,29,31
12:54:00,30,20,29,27,22,40,23,26,27
12:55:00,29,40,21,28,21,29,26,28,28
12:56:00,30,14,27,28,23,19,28,24,24
12:57:00,31,26,21,32,26,31,45,27,30
12:58:00,26,19,37,16,28,37,34,25,28
12:59:00,32,24,17,30,31,27,31,27,27
13:00:00,20,23,16,20,25,37,37,21,25
13:01:00,23,32,27,16,22,30,36,24,27
13:02:00,30,25,39,36,29,32,32,32,32
13:03:00,15,25,29,26,25,23,31,24,25
13:04:00,34,40,34,38,24,32,29,34,33
13:05:00,36,25,20,26,32,39,38,28,31
13:06:00,39,27,29,21,28,39,33,29,31
13:07:00,23,34,28,27,28,30,35,28,29
13:08:00,26,27,23,25,29,29,14,26,25
13:09:00,21,29,22,29,20,38,30,24,27
13:10:00,28,34,27,32,33,24,27,31,29
13:11:00,29,34,30,21,37,29,26,30,29
13:12:00,30,30,25,30,32,33,32,29,30
13:13:00,25,14,20,22,28,26,22,22,22
13:14:00,36,27,24,30,24,39,32,28,30
13:15:00,28,25,32,23,29,33,27,27,28
13:16:00,28,27,25,33,27,37,22,28,28
13:17:00,18,28,28,22,22,32,28,24,25
13:18:00,37,19,24,35,19,30,29,27,28
13:19:00,37,28,26,29,34,20,32,31,29
13:20:00,22,30,29,20,21,37,36,24,28
13:21:00,26,22,20,33,34,38,28,27,29
13:22:00,37,21,35,38,37,36,29,34,33
13:23:00,18,34,27,20,31,23,22,26,25
13:24:00,30,21,26,29,26,42,22,26,28
13:25:00,26,24,29,32,27,42,21,28,29
13:26:00,20,19,21,38,29,36,23,25,27
13:27:00,31,28,26,27,26,29,38,28,29
13:28:00,21,18,30,23,28,34,24,24,25
13:29:00,31,37,27,31,38,33,29,33,32
13:30:00,24,22,27,21,31,33,28,25,27
13:31:00,21,22,23,26,29,32,32,24,26
13:32:00,20,36,16,27,29,30,23,26,26
13:33:00,19,36,25,22,23,32,32,25,27
13:34:00,20,25,30,24,37,30,21,27,27
13:35:00,32,17,19,28,23,42,28,24,27
13:36:00,17,19,24,27,20,26,22,21,22
13:37:00,30,31,25,22,37,28,32,29,29
13:38:00,26,25,17,30,28,41,26,25,28
13:39:00,28,32,30,16,32,34,31,28,29
13:40:00,32,29,31,29,33,33,19,31,29
13:41:00,22,34,28,25,20,32,41,26,29
13:42:00,40,22,31,17,26,41,23,27,29
13:43:00,28,30,30,30,40,21,28,32,30
13:44:00,22,26,38,28,27,34,23,28,28
13:45:00,26,21,25,23,27,24,25,24,24
13:46:00,25,34,28,21,35,34,22,29,28
13:47:00,28,15,30,28,26,30,28,25,26
13:48:00,28,19,22,27,32,22,32,26,26
13:49:00,25,36,19,27,28,31,32,27,28
13:50:00,30,33,24,17,30,36,31,27,29
13:51:00,33,27,30,28,28,32,31,29,30
13:52:00,24,32,34,18,21,26,36,26,27
13:53:00,18,22,21,18,25,33,31,21,24
13:54:00,23,33,26,20,32,32,20,27,27
13:55:00,17,28,22,31,34,29,28,26,27
13:56:00,16,26,22,19,22,24,31,21,23
13:57:00,18,20,24,19,31,35,28,22,25
13:58:00,16,26,19,25,28,33,29,23,25
13:59:00,26,24,33,27,32,15,26,28,26
14:00:00,30,27,33,29,23,19,22,28,26
14:01:00,42,37,26,19,37,40,27,32,33
14:02:00,15,25,26,19,21,28,22,21,22
14:03:00,22,20,24,31,30,28,39,25,28
14:04:00,31,30,31,21,37,31,21,30,29
14:05:00,33,27,33,24,25,34,18,28,28
14:06:00,28,23,30,30,27,42,30,28,30
14:07:00,35,19,38,35,28,32,17,31,29
14:08:00,27,25,25,31,42,36,39,30,32
14:09:00,25,29,37,29,29,28,14,30,27
14:10:00,23,33,39,31,27,27,36,31,31
14:11:00,35,21,34,28,31,32,21,30,29
14:12:00,31,26,31,23,33,36,32,29,30
14:13:00,21,29,30,34,17,28,30,26,27
14:14:00,30,41,24,27,32,31,22,31,30
14:15:00,32,25,24,28,31,34,35,28,30
14:16:00,34,34,31,26,29,25,29,31,30
14:17:00,23,24,20,28,36,28,19,26,25
14:18:00,27,29,17,26,36,36,25,27,28
14:19:00,30,33,33,32,24,27,32,30,30
14:20:00,30,21,27,36,22,33,22,27,27
14:21:00,36,26,25,32,30,32,21,30,29
14:22:00,31,32,35,27,30,31,39,31,32
14:23:00,23,23,27,24,17,40,22,23,25
14:24:00,37,30,29,39,24,28,21,32,30
14:25:00,32,22,26,34,20,29,27,27,27
14:26:00,26,39,25,18,24,21,34,26,27
14:27:00,29,27,41,41,34,28,27,34,32
14:28:00,24,35,21,30,28,29,28,28,28
14:29:00,24,37,34,22,25,26,24,28,27
14:30:00,27,30,24,28,23,19,23,26,25
14:31:00,35,34,31,27,41,27,25,34,31
14:32:00,38,21,42,24,25,22,24,30,28
14:33:00,27,24,22,37,20,33,26,26,27
14:34:00,35,36,31,31,25,26,24,32,30
14:35:00,23,35,19,31,22,39,16,26,26
14:36:00,29,32,30,31,26,26,32,30,29
14:37:00,27,24,36,24,32,23,31,29,28
14:38:00,35,26,19,39,34,20,16,31,27
14:39:00,27,26,36,34,25,26,24,30,28
14:40:00,27,38,41,29,25,37,23,32,31
14:41:00,27,31,34,42,37,21,31,34,32
14:42:00,26,28,17,37,28,25,16,27,25
14:43:00,31,32,40,24,41,34,19,34,32
14:44:00,26,31,26,30,26,39,15,28,28
14:45:00,40,28,24,35,30,33,24,31,31
14:46:00,24,21,31,27,27,23,31,26,26
14:47:00,23,29,20,25,33,35,21,26,27
14:48:00,32,29,33,27,34,25,33,31,30
14:49:00,42,35,18,37,32,37,19,33,31
14:50:00,32,26,31,30,29,31,44,30,32
14:51:00,40,43,33,28,36,28,24,36,33
14:52:00,34,32,31,31,37,28,30,33,32
14:53:00,34,39,32,43,24,35,30,34,34
14:54:00,33,42,43,29,32,33,21,36,33
14:55:00,19,27,40,27,40,23,25,31,29
14:56:00,35,36,39,30,40,27,27,36,33
14:57:00,29,20,34,29,36,30,34,30,30
14:58:00,32,32,30,33,23,27,27,30,29
14:59:00,31,28,34,33,37,25,30,33,31
15:00:00,27,24,38,32,27,23,15,30,27
15:01:00,27,30,23,29,24,21,24,27,25
15:02:00,24,23,36,29,28,14,32,28,27
15:03:00,26,30,32,27,25,28,16,28,26
15:04:00,31,31,36,38,24,26,26,32,30
15:05:00,29,30,40,32,37,22,18,34,30
15:06:00,28,31,23,37,37,23,25,31,29
15:07:00,35,32,38,38,39,26,20,36,33
15:08:00,29,28,27,35,31,26,20,30,28
15:09:00,26,23,33,33,33,22,26,30,28
15:10:00,32,27,29,21,26,21,26,27,26
15:11:00,23,27,24,33,28,26,28,27,27
15:12:00,30,29,28,30,29,21,21,29,27
15:13:00,32,32,22,24,19,38,24,26,27
15:14:00,26,20,23,27,28,34,28,25,27
15:15:00,31,34,23,13,20,28,14,24,23
15:16:00,29,29,14,30,21,24,31,25,25
15:17:00,23,26,24,26,28,26,18,25,24
15:18:00,25,27,25,34,28,24,28,28,27
15:19:00,22,23,25,25,28,22,16,25,23
15:20:00,22,26,22,21,27,27,24,24,24
15:21:00,27,24,27,31,26,30,23,27,27
15:22:00,27,33,22,32,28,24,20,28,27
15:23:00,20,25,23,20,33,28,23,24,25
15:24:00,31,20,20,25,23,26,25,24,24
15:25:00,32,31,33,31,27,21,18,31,28
15:26:00,28,26,32,20,31,30,20,27,27
15:27:00,27,25,28,38,38,25,15,31,28
15:28:00,32,27,32,28,29,24,23,30,28
15:29:00,28,28,26,31,25,20,25,28,26
15:30:00,30,31,38,32,33,20,25,33,30
15:31:00,23,24,27,31,32,25,27,27,27
15:32:00,36,30,34,32,30,21,26,32,30
15:33:00,20,41,27,34,34,17,30,31,29
15:34:00,28,31,34,21,22,30,11,27,25
15:35:00,30,32,29,34,25,34,24,30,30
15:36:00,34,31,35,31,31,21,23,32,29
15:37:00,29,43,29,26,38,23,24,33,30
15:38:00,32,27,32,26,25,27,18,28,27
15:39:00,36,26,30,29,26,23,28,29,28
15:40:00,40,28,39,31,24,20,25,32,30
15:41:00,32,35,30,24,34,26,19,31,29
15:42:00,36,29,30,25,25,29,16,29,27
15:43:00,25,30,32,22,33,19,15,28,25
15:44:00,32,17,33,30,32,26,28,29,28
15:45:00,28,33,19,31,30,31,15,28,27
15:46:00,39,31,35,30,34,21,27,34,31
15:47:00,25,29,29,31,25,23,26,28,27
15:48:00,27,38,36,28,36,27,19,33,30
15:49:00,25,33,21,25,32,26,19,27,26
15:50:00,36,33,33,37,35,26,16,35,31
15:51:00,36,29,26,32,40,19,23,33,29
15:52:00,38,29,25,27,32,23,23,30,28
15:53:00,34,35,29,29,25,30,22,30,29
15:54:00,28,28,37,20,32,28,33,29,29
15:55:00,39,21,40,46,36,23,19,36,32
15:56:00,32,44,36,20,32,26,29,33,31
15:57:00,30,36,30,26,21,32,10,29,26
15:58:00,21,33,30,27,27,29,18,28,26
15:59:00,34,23,33,34,32,19,18,31,28
16:00:00,27,37,21,26,21,23,19,26,25
16:01:00,28,46,43,27,22,26,24,33,31
16:02:00,30,22,33,29,34,32,23,30,29
16:03:00,36,42,29,29,23,21,25,32,29
16:04:00,29,29,40,30,28,28,28,31,30
16:05:00,32,34,30,35,32,29,31,33,32
16:06:00,27,20,25,35,30,19,27,27,26
16:07:00,25,31,34,35,26,24,25,30,29
16:08:00,42,32,28,28,26,24,20,31,29
16:09:00,38,29,30,38,26,26,24,32,30
16:10:00,28,34,37,29,23,23,28,30,29
16:11:00,28,25,32,39,31,24,26,31,29
16:12:00,38,34,28,23,21,26,28,29,28
16:13:00,22,28,39,25,28,25,18,28,26
16:14:00,39,42,26,41,26,28,22,35,32
16:15:00,29,42,32,32,35,32,20,34,32
16:16:00,36,31,40,27,41,32,32,35,34
16:17:00,31,31,31,29,34,15,23,31,28
16:18:00,41,38,40,43,41,27,28,41,37
16:19:00,29,27,37,32,32,37,32,31,32
16:20:00,42,29,37,35,31,27,22,35,32
16:21:00,33,33,37,32,34,26,25,34,31
16:22:00,36,26,32,33,43,29,17,34,31
16:23:00,33,30,27,31,34,25,13,31,28
16:24:00,27,28,21,31,33,20,24,28,26
16:25:00,31,35,42,41,35,23,28,37,34
16:26:00,30,38,26,41,37,33,40,34,35
16:27:00,32,29,34,36,39,18,22,34,30
16:28:00,29,35,36,34,30,28,28,33,31
16:29:00,28,39,30,31,30,32,27,32,31
16:30:00,39,33,38,37,34,21,27,36,33
16:31:00,28,31,25,33,41,26,15,32,28
16:32:00,37,30,43,31,45,25,25,37,34
16:33:00,34,32,40,32,30,29,44,34,34
16:34:00,25,30,33,30,36,28,15,31,28
16:35:00,35,31,41,32,31,24,22,34,31
16:36:00,27,43,40,34,39,25,24,37,33
16:37:00,23,34,32,36,28,27,19,31,28
16:38:00,31,25,33,38,43,34,16,34,31
16:39:00,31,28,36,33,37,36,16,33,31
16:40:00,28,34,35,31,30,23,23,32,29
16:41:00,34,28,36,30,42,26,21,34,31
16:42:00,32,38,25,33,37,34,20,33,31
16:43:00,34,40,37,39,37,25,22,37,33
16:44:00,42,26,36,36,27,39,26,33,33
16:45:00,30,40,32,33,29,27,24,33,31
16:46:00,27,29,36,31,35,35,17,32,30
16:47:00,42,27,31,29,42,25,23,34,31
16:48:00,30,27,39,29,36,14,24,32,28
16:49:00,37,34,32,38,38,31,19,36,33
16:50:00,31,32,37,35,33,16,24,34,30
16:51:00,19,32,35,32,34,33,20,30,29
16:52:00,32,32,35,33,26,23,23,32,29
16:53:00,19,39,28,34,44,29,22,33,31
16:54:00,19,33,36,28,34,37,30,30,31
16:55:00,32,30,30,33,28,23,22,31,28
16:56:00,30,24,30,28,33,32,20,29,28
16:57:00,36,41,40,33,34,32,17,37,33
16:58:00,34,32,27,18,27,28,25,28,27
16:59:00,30,31,32,32,30,37,14,31,29
17:00:00,27,32,29,34,28,39,35,30,32
17:01:00,33,27,40,30,27,28,18,31,29
17:02:00,33,41,31,33,37,25,24,35,32
17:03:00,46,20,34,37,29,22,22,33,30
17:04:00,29,30,24,24,34,23,18,28,26
17:05:00,26,38,36,35,31,18,28,33,30
17:06:00,16,34,34,36,32,29,25,30,29
17:07:00,36,32,34,32,35,31,20,34,31
17:08:00,33,31,32,29,26,40,23,30,31
17:09:00,31,41,39,31,40,26,20,36,33
17:10:00,39,34,34,38,35,38,22,36,34
17:11:00,40,30,33,39,33,28,13,35,31
17:12:00,23,33,36,39,38,25,31,34,32
17:13:00,37,31,37,33,41,36,19,36,33
17:14:00,35,36,35,40,31,25,17,35,31
17:15:00,38,39,36,39,38,35,26,38,36
17:16:00,36,31,33,37,35,33,10,34,31
17:17:00,25,47,37,36,31,35,29,35,34
17:18:00,40,39,39,33,30,24,10,36,31
17:19:00,25,27,31,26,38,27,14,29,27
17:20:00,40,32,39,40,33,27,19,37,33
17:21:00,34,32,39,25,33,36,27,33,32
17:22:00,36,38,36,37,46,22,20,39,34
17:23:00,28,33,34,36,33,30,22,33,31
17:24:00,28,32,37,33,33,27,20,33,30
17:25:00,40,34,38,35,32,31,22,36,33
17:26:00,28,31,33,25,37,40,20,31,31
17:27:00,36,40,33,37,38,34,21,37,34
17:28:00,37,38,42,43,36,40,23,39,37
17:29:00,35,41,41,39,31,31,12,37,33
17:30:00,37,32,40,37,32,32,18,36,33
17:31:00,32,32,37,27,29,27,17,31,29
17:32:00,37,34,36,29,37,20,15,35,30
17:33:00,28,30,34,16,33,33,20,28,28
17:34:00,38,26,34,37,40,34,15,35,32
17:35:00,32,35,32,31,35,40,14,33,31
17:36:00,30,41,46,29,33,27,22,36,33
17:37:00,26,32,27,33,35,29,14,31,28
17:38:00,38,38,30,34,22,23,24,32,30
17:39:00,24,33,34,29,36,26,28,31,30
17:40:00,33,35,31,36,38,19,14,35,29
17:41:00,38,31,31,35,28,35,24,33,32
17:42:00,33,46,36,33,29,24,28,35,33
17:43:00,30,41,29,35,36,26,18,34,31
17:44:00,35,31,41,29,35,25,17,34,30
17:45:00,28,25,41,38,36,20,23,34,30
17:46:00,33,32,33,39,29,19,21,33,29
17:47:00,29,30,32,36,24,28,24,30,29
17:48:00,38,35,36,27,34,25,7,34,29
17:49:00,29,28,38,32,29,24,15,31,28
17:50:00,36,24,36,37,35,25,21,34,31
17:51:00,31,34,32,31,25,12,11,31,25
17:52:00,36,34,41,41,34,22,15,37,32
17:53:00,38,31,31,40,32,28,18,34,31
17:54:00,31,39,28,38,38,18,11,35,29
17:55:00,36,37,32,33,20,25,22,32,29
17:56:00,34,35,33,26,31,24,17,32,29
17:57:00,30,35,33,34,28,21,14,32,28
17:58:00,32,36,26,43,22,19,15,32,28
17:59:00,28,25,32,31,26,20,20,28,26
18:00:00,31,33,34,27,20,22,20,29,27
18:01:00,32,30,36,32,38,18,14,34,29
18:02:00,27,41,28,36,36,17,20,34,29
18:03:00,37,34,36,34,30,19,18,34,30
18:04:00,37,33,35,25,31,12,6,32,26
18:05:00,21,30,22,19,28,26,13,24,23
18:06:00,27,26,33,39,31,24,17,31,28
18:07:00,29,24,35,37,30,28,14,31,28
18:08:00,38,25,29,33,36,24,14,32,28
18:09:00,26,27,26,35,28,22,15,28,26
18:10:00,23,32,33,42,39,18,15,34,29
18:11:00,31,27,30,34,29,15,18,30,26
18:12:00,19,33,35,38,35,20,21,32,29
18:13:00,33,36,35,36,25,27,16,33,30
18:14:00,33,37,29,33,33,24,19,33,30
18:15:00,32,24,21,40,36,26,13,31,27
18:16:00,41,29,24,36,32,24,8,32,28
18:17:00,24,26,27,30,33,23,19,28,26
18:18:00,39,23,28,27,37,12,13,31,26
18:19:00,44,35,33,23,26,10,16,32,27
18:20:00,29,31,38,34,34,24,27,33,31
18:21:00,34,44,32,45,16,29,11,34,30
18:22:00,31,27,32,29,31,16,26,30,27
18:23:00,29,17,31,40,32,21,12,30,26
18:24:00,34,22,30,25,25,14,15,27,24
18:25:00,24,33,34,29,32,35,22,30,30
18:26:00,29,31,25,36,20,21,16,28,25
18:27:00,30,35,36,26,39,19,10,33,28
18:28:00,22,25,33,37,28,23,19,29,27
18:29:00,31,20,38,26,21,25,14,27,25
18:30:00,30,32,28,26,27,20,18,29,26
18:31:00,34,33,26,30,24,31,16,29,28
18:32:00,25,32,19,33,18,24,18,25,24
18:33:00,22,35,21,23,18,17,14,24,21
18:34:00,30,29,23,33,23,20,20,28,25
18:35:00,26,26,32,24,33,27,17,28,26
18:36:00,28,21,32,28,19,16,11,26,22
18:37:00,22,27,37,29,36,22,16,30,27
18:38:00,28,19,29,22,24,22,10,24,22
18:39:00,28,23,33,28,21,24,16,27,25
18:40:00,32,25,24,34,38,22,20,31,28
18:41:00,30,27,36,34,31,20,10,32,27
18:42:00,36,33,30,24,27,20,13,30,26
18:43:00,34,24,29,19,22,19,20,26,24
18:44:00,25,19,25,28,34,17,7,26,22
18:45:00,39,31,29,39,29,23,20,33,30
18:46:00,24,25,27,22,23,23,14,24,23
18:47:00,32,27,33,23,22,24,19,27,26
18:48:00,19,19,26,34,27,17,15,25,22
18:49:00,30,30,36,24,23,24,13,29,26
18:50:00,26,22,24,26,22,16,17,24,22
18:51:00,26,23,39,25,20,20,20,27,25
18:52:00,33,36,30,34,28,23,18,32,29
18:53:00,23,37,41,21,30,19,25,30,28
18:54:00,15,18,28,36,26,16,20,25,23
18:55:00,30,23,25,32,23,20,9,27,23
18:56:00,25,26,21,34,24,17,18,26,24
18:57:00,32,32,30,26,32,20,9,30,26
18:58:00,22,16,26,29,25,22,17,24,22
18:59:00,17,36,23,17,21,17,12,23,20
19:00:00,25,21,26,32,30,19,13,27,24
19:01:00,22,27,22,31,22,17,16,25,22
19:02:00,22,26,25,27,28,17,10,26,22
19:03:00,25,23,29,35,24,12,10,27,23
19:04:00,27,22,23,27,30,24,16,26,24
19:05:00,29,17,23,39,30,16,11,28,24
19:06:00,23,34,34,32,22,20,19,29,26
19:07:00,29,28,21,31,31,19,20,28,26
19:08:00,33,24,22,28,16,21,13,25,22
19:09:00,14,33,38,27,31,11,9,29,23
19:10:00,31,25,42,27,34,12,14,32,26
19:11:00,32,27,23,45,32,21,13,32,28
19:12:00,19,27,22,21,34,14,17,25,22
19:13:00,18,24,32,33,35,12,11,28,24
19:14:00,22,37,23,34,22,22,16,28,25
19:15:00,29,28,33,30,17,10,13,27,23
19:16:00,20,35,32,24,21,18,17,26,24
19:17:00,26,29,21,39,22,20,15,27,25
19:18:00,27,22,26,28,26,27,14,26,24
19:19:00,11,30,31,23,21,17,12,23,21
19:20:00,21,33,24,30,23,19,4,26,22
19:21:00,21,24,29,27,34,17,19,27,24
19:22:00,15,26,31,18,26,30,13,23,23
19:23:00,22,40,24,27,17,16,10,26,22
19:24:00,18,18,25,30,29,19,15,24,22
19:25:00,18,27,25,23,27,14,15,24,21
19:26:00,22,19,30,19,21,17,14,22,20
19:27:00,14,24,28,32,28,12,16,25,22
19:28:00,28,26,28,14,15,13,10,22,19
19:29:00,25,21,14,27,18,8,16,21,18
19:30:00,15,17,20,26,21,20,11,20,19
19:31:00,19,20,33,24,18,16,16,23,21
19:32:00,17,21,16,33,16,14,10,21,18
19:33:00,17,22,15,20,18,15,9,18,17
19:34:00,19,20,11,25,11,17,12,17,16
19:35:00,22,25,13,26,21,12,14,21,19
19:36:00,23,19,24,30,15,17,13,22,20
19:37:00,20,19,19,33,32,24,29,25,25
19:38:00,14,13,24,21,19,9,10,18,16
19:39:00,31,24,23,14,16,14,16,22,20
19:40:00,17,16,23,21,19,22,8,19,18
19:41:00,21,36,22,18,25,19,15,24,22
19:42:00,27,28,20,26,13,11,19,23,21
19:43:00,26,22,18,17,23,14,21,21,20
19:44:00,22,24,19,28,23,11,17,23,21
19:45:00,17,19,21,20,17,17,11,19,17
19:46:00,18,14,17,12,13,11,10,15,14
19:47:00,22,15,24,27,23,16,13,22,20
19:48:00,18,23,29,16,17,18,10,21,19
19:49:00,18,19,20,14,17,11,10,18,16
19:50:00,21,22,18,21,16,12,12,20,17
19:51:00,17,22,27,19,18,8,8,21,17
19:52:00,19,19,17,26,15,9,13,19,17
19:53:00,23,15,18,17,22,17,13,19,18
19:54:00,12,18,24,19,13,13,15,17,16
19:55:00,6,13,10,14,16,15,17,12,13
19:56:00,17,25,23,18,19,8,14,20,18
19:57:00,10,21,21,21,20,9,7,19,16
19:58:00,12,21,22,17,17,10,10,18,16
19:59:00,16,17,18,22,17,15,18,18,18
20:00:00,12,22,18,25,21,11,10,20,17
20:01:00,16,14,11,18,15,14,10,15,14
20:02:00,11,14,24,24,24,15,15,19,18
20:03:00,14,21,13,25,18,3,6,18,14
20:04:00,20,9,26,12,22,18,9,18,17
20:05:00,10,26,17,13,16,10,15,16,15
20:06:00,15,19,17,17,13,10,10,16,14
20:07:00,15,13,17,24,25,8,19,19,17
20:08:00,14,27,14,14,19,13,15,18,17
20:09:00,10,21,17,22,16,9,17,17,16
20:10:00,16,26,23,32,12,15,12,22,19
20:11:00,23,19,12,17,15,14,14,17,16
20:12:00,23,15,13,16,19,9,4,17,14
20:13:00,21,22,19,23,14,21,10,20,19
20:14:00,19,19,26,19,19,8,12,20,17
20:15:00,17,29,19,27,22,14,17,23,21
20:16:00,15,13,16,22,15,5,8,16,13
20:17:00,16,17,15,16,21,16,13,17,16
20:18:00,16,11,20,19,14,10,7,16,14
20:19:00,12,19,10,24,15,9,15,16,15
20:20:00,17,15,11,11,22,16,9,15,14
20:21:00,17,5,20,21,8,6,10,14,12
20:22:00,23,22,14,19,13,9,5,18,15
20:23:00,11,10,17,23,7,9,10,14,12
20:24:00,7,13,11,15,11,11,11,11,11
20:25:00,16,11,10,13,17,12,12,13,13
20:26:00,11,13,16,13,11,13,14,13,13
20:27:00,18,23,13,17,17,10,10,18,15
20:28:00,11,11,7,13,12,15,7,11,11
20:29:00,7,8,12,21,10,10,13,12,12
20:30:00,14,10,11,15,11,9,9,12,11
20:31:00,13,7,11,16,10,9,14,11,11
20:32:00,13,17,10,18,15,8,13,15,13
20:33:00,16,8,15,19,15,6,10,15,13
20:34:00,14,13,16,8,8,6,9,12,11
20:35:00,10,13,21,14,15,7,6,15,12
20:36:00,13,8,8,18,11,11,12,12,12
20:37:00,14,19,11,7,6,9,6,11,10
20:38:00,12,12,14,15,8,7,11,12,11
20:39:00,13,16,11,16,11,9,8,13,12
20:40:00,12,8,21,10,6,9,7,11,10
20:41:00,11,7,14,9,10,8,8,10,10
20:42:00,21,10,10,10,8,9,7,12,11
20:43:00,10,20,6,14,10,8,7,12,11
20:44:00,11,18,15,10,11,10,9,13,12
20:45:00,8,13,9,12,13,8,5,11,10
20:46:00,18,16,8,23,12,5,19,15,14
20:47:00,19,15,9,12,15,10,8,14,13
20:48:00,13,20,15,10,14,10,14,14,14
20:49:00,9,8,18,11,20,8,12,13,12
20:50:00,12,17,6,7,18,4,11,12,11
20:51:00,11,12,12,11,11,7,7,11,10
20:52:00,11,6,16,9,9,4,9,10,9
20:53:00,9,11,13,7,8,8,6,10,9
20:54:00,16,7,10,22,12,8,9,13,12
20:55:00,12,17,12,13,8,8,11,12,12
20:56:00,8,15,9,13,14,12,12,12,12
20:57:00,9,9,14,14,12,9,7,12,11
20:58:00,7,11,8,9,15,4,9,10,9
20:59:00,7,8,9,11,7,9,12,8,9
21:00:00,2,9,14,7,12,12,2,9,8
21:01:00,11,13,5,6,8,9,3,9,8
21:02:00,7,14,10,11,9,5,7,10,9
21:03:00,6,11,4,3,7,7,10,6,7
21:04:00,7,7,14,7,5,4,6,8,7
21:05:00,6,22,17,10,13,3,2,14,10
21:06:00,12,12,9,17,10,7,12,12,11
21:07:00,13,6,14,9,10,7,4,10,9
21:08:00,14,6,5,9,8,8,5,8,8
21:09:00,8,9,15,9,17,4,6,12,10
21:10:00,10,14,12,16,15,5,8,13,11
21:11:00,16,8,14,11,7,9,10,11,11
21:12:00,11,13,13,15,12,6,10,13,11
21:13:00,9,11,16,9,10,8,7,11,10
21:14:00,12,19,13,23,11,6,10,16,13
21:15:00,10,19,14,12,18,7,11,15,13
21:16:00,7,18,17,20,10,6,8,14,12
21:17:00,8,12,15,14,9,11,6,12,11
21:18:00,6,16,16,11,8,9,6,11,10
21:19:00,15,17,20,12,15,4,3,16,12
21:20:00,6,11,14,8,9,5,5,10,8
21:21:00,11,12,11,16,7,7,7,11,10
21:22:00,10,18,17,6,11,8,13,12,12
21:23:00,16,20,14,17,15,10,6,16,14
21:24:00,12,13,11,13,16,9,11,13,12
21:25:00,5,14,15,13,10,4,6,11,10
21:26:00,9,8,11,11,10,9,9,10,10
21:27:00,7,13,16,17,11,6,6,13,11
21:28:00,9,7,12,21,8,6,13,11,11
21:29:00,11,9,14,12,3,6,5,10,9
21:30:00,5,7,12,7,8,4,2,8,6
21:31:00,10,11,12,13,9,4,7,11,9
21:32:00,10,5,9,11,13,10,8,10,9
21:33:00,8,7,11,9,13,12,7,10,10
21:34:00,7,3,11,9,8,6,5,8,7
21:35:00,18,3,11,14,13,5,6,12,10
21:36:00,6,13,8,9,10,18,6,9,10
21:37:00,12,10,9,13,11,8,4,11,10
21:38:00,7,9,10,20,11,5,5,11,10
21:39:00,9,14,16,15,9,3,4,13,10
21:40:00,11,18,11,15,7,5,4,12,10
21:41:00,16,19,7,8,17,7,6,13,11
21:42:00,5,20,8,9,6,6,6,10,9
21:43:00,7,14,8,15,12,3,4,11,9
21:44:00,12,20,17,13,11,6,2,15,12
21:45:00,10,6,10,9,15,7,9,10,9
21:46:00,9,9,12,14,6,7,4,10,9
21:47:00,7,10,9,9,5,9,1,8,7
21:48:00,6,10,12,10,8,7,8,9,9
21:49:00,15,9,12,7,12,11,9,11,11
21:50:00,10,13,13,10,14,5,4,12,10
21:51:00,4,6,10,11,13,5,4,9,8
21:52:00,11,6,10,5,8,10,4,8,8
21:53:00,10,12,6,6,11,7,3,9,8
21:54:00,7,7,8,7,6,12,2,7,7
21:55:00,7,12,6,8,9,8,4,8,8
21:56:00,9,9,7,5,12,9,4,8,8
21:57:00,8,12,13,9,3,4,5,9,8
21:58:00,8,8,10,9,6,8,2,8,7
21:59:00,12,8,9,9,9,9,3,9,8
22:00:00,6,4,7,8,9,6,7,7,7
22:01:00,5,9,12,8,15,12,3,10,9
22:02:00,10,8,15,7,5,8,9,9,9
22:03:00,2,9,14,10,12,14,6,9,10
22:04:00,6,10,8,11,14,14,6,10,10
22:05:00,13,5,12,14,9,7,3,11,9
22:06:00,8,8,10,19,13,6,8,12,10
22:07:00,8,8,7,11,12,6,3,9,8
22:08:00,11,5,17,4,15,8,5,10,9
22:09:00,7,13,8,19,3,14,7,10,10
22:10:00,7,13,11,9,13,10,7,11,10
22:11:00,8,11,12,11,12,5,5,11,9
22:12:00,11,10,9,16,15,14,7,12,12
22:13:00,7,9,7,10,12,9,9,9,9
22:14:00,10,8,15,10,8,12,7,10,10
22:15:00,7,7,8,9,6,8,4,7,7
22:16:00,11,8,6,7,5,9,8,7,8
22:17:00,12,7,9,14,16,10,8,12,11
22:18:00,5,11,14,14,8,7,7,10,9
22:19:00,4,17,8,11,11,13,6,10,10
22:20:00,10,8,13,7,9,5,3,9,8
22:21:00,7,9,7,7,9,6,7,8,7
22:22:00,10,6,9,9,7,9,4,8,8
22:23:00,7,11,4,11,14,12,3,9,9
22:24:00,6,9,9,8,6,8,4,8,7
22:25:00,10,3,7,8,7,9,5,7,7
22:26:00,10,8,11,8,9,3,4,9,8
22:27:00,8,11,13,12,4,10,2,10,9
22:28:00,4,8,5,10,6,11,2,7,7
22:29:00,7,11,6,8,10,2,9,8,8
22:30:00,11,9,5,12,10,9,3,9,8
22:31:00,4,7,12,11,12,8,5,9,8
22:32:00,12,5,9,14,11,4,3,10,8
22:33:00,5,8,6,8,7,8,4,7,7
22:34:00,5,3,7,8,8,5,6,6,6
22:35:00,5,9,12,7,9,7,3,8,7
22:36:00,10,7,9,3,13,7,5,8,8
22:37:00,3,12,11,9,14,9,4,10,9
22:38:00,6,4,2,8,7,5,6,5,5
22:39:00,3,4,6,9,7,2,6,6,5
22:40:00,2,7,8,7,8,11,4,6,7
22:41:00,3,3,5,10,7,0,4,6,5
22:42:00,3,4,9,7,5,5,6,6,6
22:43:00,4,2,7,6,9,13,1,6,6
22:44:00,4,3,5,5,10,3,7,5,5
22:45:00,5,4,7,8,5,9,4,6,6
22:46:00,6,5,7,5,8,9,3,6,6
22:47:00,4,7,9,6,6,7,0,6,6
22:48:00,8,3,6,2,6,8,3,5,5
22:49:00,4,3,3,5,10,2,3,5,4
22:50:00,4,8,7,3,8,8,5,6,6
22:51:00,4,5,5,4,11,5,3,6,5
22:52:00,2,4,4,5,8,4,2,5,4
22:53:00,6,1,4,5,3,7,0,4,4
22:54:00,7,4,9,4,5,5,2,6,5
22:55:00,3,5,5,5,6,6,2,5,5
22:56:00,7,2,6,7,10,5,2,6,6
22:57:00,8,3,3,6,11,9,2,6,6
22:58:00,6,7,3,5,5,9,2,5,5
22:59:00,1,7,5,5,5,2,3,5,4
23:00:00,2,3,4,1,8,4,1,4,3
23:01:00,2,2,9,10,11,13,4,7,7
23:02:00,3,2,7,2,4,8,1,4,4
23:03:00,7,5,3,5,5,9,2,5,5
23:04:00,3,3,2,7,12,7,3,5,5
23:05:00,2,9,5,4,7,7,3,5,5
23:06:00,3,3,5,3,4,6,2,4,4
23:07:00,5,4,4,6,7,13,3,5,6
23:08:00,3,2,5,1,8,6,2,4,4
23:09:00,4,3,5,6,3,4,2,4,4
23:10:00,4,4,3,2,4,13,3,3,5
23:11:00,6,5,4,5,4,14,1,5,6
23:12:00,2,5,6,3,7,13,2,5,5
23:13:00,4,6,3,4,6,5,2,5,4
23:14:00,3,3,7,7,2,8,2,4,5
23:15:00,5,5,4,2,3,4,3,4,4
23:16:00,3,0,5,3,5,6,5,3,4
23:17:00,6,6,2,4,8,6,3,5,5
23:18:00,6,1,1,6,5,4,2,4,4
23:19:00,4,1,2,3,10,6,1,4,4
23:20:00,3,2,8,2,3,2,3,4,3
23:21:00,5,2,2,3,4,6,5,3,4
23:22:00,1,4,6,0,8,11,0,4,4
23:23:00,2,3,0,5,5,6,2,3,3
23:24:00,5,4,3,1,3,13,3,3,5
23:25:00,4,3,1,4,5,9,3,3,4
23:26:00,2,3,1,3,6,1,1,3,2
23:27:00,2,6,3,3,6,8,3,4,4
23:28:00,0,5,0,5,3,6,5,3,3
23:29:00,0,1,2,2,8,6,0,3,3
23:30:00,2,1,4,1,5,5,3,3,3
23:31:00,0,3,2,7,5,10,1,3,4
23:32:00,0,0,1,3,5,12,0,2,3
23:33:00,2,0,0,4,2,7,5,2,3
23:34:00,1,2,1,0,7,8,0,2,3
23:35:00,1,3,2,3,8,5,0,3,3
23:36:00,3,4,4,1,5,10,2,3,4
23:37:00,5,4,4,2,4,3,3,4,4
23:38:00,1,1,5,3,4,7,0,3,3
23:39:00,2,2,1,0,4,6,2,2,2
23:40:00,3,0,0,5,2,12,0,2,3
23:41:00,3,1,3,1,6,6,1,3,3
23:42:00,1,4,2,2,3,7,1,2,3
23:43:00,0,4,3,0,4,8,1,2,3
23:44:00,1,3,4,3,3,6,1,3,3
23:45:00,0,0,2,1,7,3,3,2,2
23:46:00,3,0,2,4,3,6,4,2,3
23:47:00,2,1,3,3,4,7,1,3,3
23:48:00,2,4,8,4,3,4,4,4,4
23:49:00,1,1,1,2,4,7,2,2,3
23:50:00,1,1,1,4,4,2,0,2,2
23:51:00,1,3,0,1,2,7,0,1,2
23:52:00,1,0,1,4,4,4,1,2,2
23:53:00,1,3,3,1,5,3,0,3,2
23:54:00,2,3,2,6,6,2,2,4,3
23:55:00,4,3,2,0,8,3,2,3,3
23:56:00,2,3,3,2,1,4,0,2,2
23:57:00,1,3,0,1,9,3,0,3,2
23:58:00,1,1,4,1,4,8,3,2,3
23:59:00,4,1,2,1,4,4,2,2,3
,,,,,,,,,
Totals,,,,,,,,,
12H(7-19),20780,21049,21113,20848,20868,18627,14975,20932,19751
16H(6-22),24230,24864,24848,24774,24410,20866,16953,24625,22992
18H(6-24),24774,25447,25519,25465,25257,21727,17340,25292,23647
24H(0-24),25307,26019,26069,25965,25792,22257,17811,25830,24174
,,,,,,,,,
AM Peak,07:09:00,07:03:00,07:20:00,07:14:00,07:16:00,09:32:00,10:57:00,07:16:00,09:32:00
,1985,1907,1959,1954,1958,1848,1556,1939,1609
,,,,,,,,,
PM Peak,16:57:00,17:05:00,16:32:00,16:59:00,16:16:00,12:10:00,12:08:00,17:05:00,16:32:00
,1980,2042,2100,2028,2069,1989,1872,2016,1871
,,,,,,,,,
,,,,,,,,,
CA Traffic,,,,,,,,,VDA-net R2 14/02/2020
