Site Number,00008023,Unnamed: 2,Site Reference,00008023.1,Unnamed: 5,Unnamed: 6,Lat/Lng.,"52.07076,1.17594",Unnamed: 9
Radar 8023 Colchester Road Ipswich,,,,,,,,,
Vehicle Count Report,,,,Week Begin: 13 January 2020,,,Channel:,Total Flow,
,,,,,,,,,
,,,,,,,,,
,2020-01-13 00:00:00,2020-01-14 00:00:00,2020-01-15 00:00:00,2020-01-16 00:00:00,2020-01-17 00:00:00,2020-01-18 00:00:00,2020-01-19 00:00:00,"5-Day
Ave.","7-Day
Ave."
00:00:00,1,4,3,2,2,1,4,2,2
00:01:00,3,2,2,2,0,4,2,2,2
00:02:00,1,2,7,0,2,5,6,2,3
00:03:00,2,3,5,2,4,4,4,3,3
00:04:00,2,2,7,4,3,6,3,4,4
00:05:00,0,3,3,2,0,3,8,2,3
00:06:00,3,4,3,2,2,2,5,3,3
00:07:00,1,6,6,1,5,5,2,4,4
00:08:00,0,5,8,1,2,4,3,3,3
00:09:00,3,4,5,2,1,2,2,3,3
00:10:00,1,3,2,1,2,4,4,2,2
00:11:00,3,3,4,3,5,2,5,4,4
00:12:00,1,2,0,2,1,7,2,1,2
00:13:00,1,3,1,4,1,1,4,2,2
00:14:00,4,3,1,2,2,4,4,2,3
00:15:00,2,1,6,2,0,1,6,2,3
00:16:00,0,5,0,0,1,3,6,1,2
00:17:00,3,5,1,4,0,4,3,3,3
00:18:00,4,5,0,0,4,1,5,3,3
00:19:00,1,4,4,0,2,4,2,2,2
00:20:00,1,6,1,2,0,1,3,2,2
00:21:00,0,6,3,0,2,4,2,2,2
00:22:00,1,3,1,1,1,3,3,1,2
00:23:00,1,3,2,1,2,1,4,2,2
00:24:00,1,4,0,0,2,5,5,1,2
00:25:00,3,4,2,2,4,3,6,3,3
00:26:00,0,4,4,4,1,1,3,3,2
00:27:00,0,2,4,0,0,2,0,1,1
00:28:00,0,3,2,0,0,3,2,1,1
00:29:00,0,4,5,0,3,3,2,2,2
00:30:00,4,9,1,0,2,4,4,3,3
00:31:00,1,5,1,2,1,2,1,2,2
00:32:00,1,6,0,2,1,4,6,2,3
00:33:00,1,2,4,1,2,1,2,2,2
00:34:00,1,5,0,4,0,2,3,2,2
00:35:00,1,2,1,1,1,2,6,1,2
00:36:00,0,1,2,3,1,2,1,1,1
00:37:00,0,0,3,1,2,5,4,1,2
00:38:00,2,3,2,2,1,1,5,2,2
00:39:00,0,0,5,1,2,1,0,2,1
00:40:00,1,1,5,1,3,2,0,2,2
00:41:00,3,0,9,3,2,1,3,3,3
00:42:00,1,0,2,1,1,2,1,1,1
00:43:00,1,3,6,1,1,3,4,2,3
00:44:00,1,7,7,0,0,1,2,3,3
00:45:00,0,2,3,1,0,5,4,1,2
00:46:00,3,3,2,0,4,1,2,2,2
00:47:00,0,0,4,1,1,1,2,1,1
00:48:00,2,5,2,1,0,3,2,2,2
00:49:00,1,2,1,0,3,2,4,1,2
00:50:00,3,3,2,0,2,3,6,2,3
00:51:00,1,1,2,1,1,0,1,1,1
00:52:00,0,4,2,3,3,1,2,2,2
00:53:00,0,3,3,0,3,0,3,2,2
00:54:00,0,2,1,0,1,2,4,1,1
00:55:00,0,0,1,0,1,1,1,0,1
00:56:00,1,0,3,0,0,1,1,1,1
00:57:00,1,0,7,1,2,1,2,2,2
00:58:00,0,1,3,4,0,3,1,2,2
00:59:00,2,0,1,1,0,2,2,1,1
01:00:00,0,3,1,0,1,4,2,1,2
01:01:00,0,3,2,1,2,2,1,2,2
01:02:00,0,2,1,0,1,3,2,1,1
01:03:00,0,0,2,1,1,1,1,1,1
01:04:00,1,1,1,1,0,0,2,1,1
01:05:00,0,1,3,1,1,1,5,1,2
01:06:00,0,4,1,2,0,0,1,1,1
01:07:00,0,3,2,0,0,1,2,1,1
01:08:00,0,1,1,0,1,1,2,1,1
01:09:00,3,3,1,3,0,1,1,2,2
01:10:00,0,0,0,0,0,2,2,0,1
01:11:00,2,0,2,0,0,1,1,1,1
01:12:00,2,0,0,4,2,1,1,2,1
01:13:00,0,1,1,1,3,1,0,1,1
01:14:00,0,2,2,0,1,2,4,1,2
01:15:00,1,1,3,0,1,1,1,1,1
01:16:00,1,2,2,1,3,3,2,2,2
01:17:00,1,2,4,1,2,4,1,2,2
01:18:00,0,3,1,0,1,0,1,1,1
01:19:00,2,1,3,1,0,3,1,1,2
01:20:00,2,1,3,0,2,2,3,2,2
01:21:00,0,1,1,1,0,2,5,1,1
01:22:00,0,0,4,2,0,1,0,1,1
01:23:00,0,0,4,0,1,3,0,1,1
01:24:00,1,2,1,0,0,0,1,1,1
01:25:00,1,0,5,0,1,2,2,1,2
01:26:00,0,1,1,2,0,2,0,1,1
01:27:00,0,0,1,0,0,1,1,0,0
01:28:00,1,0,1,0,0,2,1,0,1
01:29:00,1,0,3,0,0,0,1,1,1
01:30:00,0,2,1,2,0,0,0,1,1
01:31:00,1,0,3,2,0,2,1,1,1
01:32:00,0,0,3,1,0,2,0,1,1
01:33:00,0,1,4,1,0,3,2,1,2
01:34:00,0,2,2,0,0,1,1,1,1
01:35:00,1,1,8,0,3,2,2,3,2
01:36:00,0,0,0,2,0,2,1,0,1
01:37:00,0,0,3,0,1,2,0,1,1
01:38:00,0,1,2,0,0,3,3,1,1
01:39:00,1,1,1,0,0,0,0,1,0
01:40:00,0,1,4,1,1,0,0,1,1
01:41:00,0,2,2,0,0,1,2,1,1
01:42:00,0,0,0,0,0,0,1,0,0
01:43:00,0,1,0,0,0,2,1,0,1
01:44:00,1,1,2,1,0,3,2,1,1
01:45:00,0,0,2,1,0,0,1,1,1
01:46:00,0,2,1,1,1,3,0,1,1
01:47:00,0,0,5,1,0,1,1,1,1
01:48:00,1,0,1,2,1,0,0,1,1
01:49:00,0,1,0,3,1,1,2,1,1
01:50:00,0,0,1,1,0,0,0,0,0
01:51:00,0,0,3,0,1,1,0,1,1
01:52:00,0,1,3,0,1,1,0,1,1
01:53:00,0,0,0,0,0,1,0,0,0
01:54:00,0,0,2,0,0,0,1,0,0
01:55:00,1,0,4,0,1,0,0,1,1
01:56:00,0,0,3,0,0,0,1,1,1
01:57:00,1,0,0,0,0,0,1,0,0
01:58:00,2,0,0,2,0,2,2,1,1
01:59:00,2,0,3,0,1,1,0,1,1
02:00:00,2,0,3,0,0,1,0,1,1
02:01:00,0,0,2,1,0,1,0,1,1
02:02:00,1,0,2,1,1,3,2,1,1
02:03:00,0,0,1,2,2,0,0,1,1
02:04:00,0,0,0,0,0,0,0,0,0
02:05:00,1,0,2,0,1,0,0,1,1
02:06:00,0,0,1,0,0,1,1,0,0
02:07:00,0,0,2,1,0,1,1,1,1
02:08:00,1,0,0,0,2,3,1,1,1
02:09:00,0,0,4,0,0,0,1,1,1
02:10:00,0,1,2,1,1,3,2,1,1
02:11:00,0,0,4,1,0,0,0,1,1
02:12:00,0,0,3,0,0,1,0,1,1
02:13:00,0,0,0,0,0,1,0,0,0
02:14:00,0,0,2,2,0,4,0,1,1
02:15:00,0,0,0,1,0,1,4,0,1
02:16:00,0,1,2,0,1,3,0,1,1
02:17:00,2,1,3,1,0,1,0,1,1
02:18:00,0,1,0,0,0,2,0,0,0
02:19:00,0,3,1,0,0,1,1,1,1
02:20:00,0,0,4,2,0,1,1,1,1
02:21:00,0,1,1,0,4,1,0,1,1
02:22:00,1,0,0,1,0,0,4,0,1
02:23:00,0,0,5,2,1,0,0,2,1
02:24:00,0,0,1,0,0,0,0,0,0
02:25:00,0,0,1,1,0,1,0,0,0
02:26:00,1,0,1,0,0,0,1,0,0
02:27:00,1,1,3,0,1,0,0,1,1
02:28:00,0,0,1,1,0,0,2,0,1
02:29:00,0,0,4,1,0,2,2,1,1
02:30:00,0,0,0,0,0,1,2,0,0
02:31:00,0,0,1,2,0,2,3,1,1
02:32:00,0,0,0,0,0,1,1,0,0
02:33:00,0,0,0,3,4,1,2,1,1
02:34:00,0,1,1,0,0,0,0,0,0
02:35:00,1,0,0,0,0,1,2,0,1
02:36:00,0,0,1,0,1,3,1,0,1
02:37:00,0,1,3,0,0,1,1,1,1
02:38:00,0,0,4,0,0,0,1,1,1
02:39:00,0,0,1,1,2,1,1,1,1
02:40:00,0,0,2,1,0,1,0,1,1
02:41:00,0,1,0,0,1,0,1,0,0
02:42:00,0,0,1,0,1,0,0,0,0
02:43:00,0,2,1,1,1,0,2,1,1
02:44:00,0,0,2,3,0,0,0,1,1
02:45:00,0,2,0,2,0,0,0,1,1
02:46:00,0,0,1,1,1,0,1,1,1
02:47:00,0,0,2,0,0,1,0,0,0
02:48:00,1,0,0,0,0,1,0,0,0
02:49:00,1,0,2,1,0,0,1,1,1
02:50:00,2,2,4,2,0,1,0,2,2
02:51:00,0,0,0,1,0,0,0,0,0
02:52:00,0,0,0,1,0,0,0,0,0
02:53:00,0,0,1,0,0,1,0,0,0
02:54:00,0,0,3,0,1,1,0,1,1
02:55:00,1,0,0,0,0,0,1,0,0
02:56:00,0,0,3,0,0,0,1,1,1
02:57:00,1,1,0,1,0,2,1,1,1
02:58:00,0,2,2,1,0,1,0,1,1
02:59:00,0,2,1,0,0,0,1,1,1
03:00:00,0,1,0,0,1,3,1,0,1
03:01:00,0,0,4,1,1,0,1,1,1
03:02:00,0,1,2,1,1,0,1,1,1
03:03:00,0,1,0,0,1,0,2,0,1
03:04:00,0,0,7,1,0,1,0,2,1
03:05:00,0,0,2,1,0,0,0,1,0
03:06:00,0,0,1,0,0,0,2,0,0
03:07:00,1,1,0,0,0,1,0,0,0
03:08:00,0,0,1,0,0,0,0,0,0
03:09:00,1,1,2,0,0,0,0,1,1
03:10:00,1,1,1,2,1,0,1,1,1
03:11:00,1,2,2,1,0,0,1,1,1
03:12:00,2,1,3,0,0,1,2,1,1
03:13:00,1,1,0,1,0,0,0,1,0
03:14:00,2,1,2,0,1,0,2,1,1
03:15:00,0,0,1,2,0,1,0,1,1
03:16:00,0,0,4,0,0,0,0,1,1
03:17:00,0,1,1,1,1,0,1,1,1
03:18:00,1,0,3,0,1,0,0,1,1
03:19:00,0,0,2,0,1,1,1,1,1
03:20:00,0,0,0,2,0,1,0,0,0
03:21:00,1,0,0,0,1,0,2,0,1
03:22:00,1,0,1,0,0,0,1,0,0
03:23:00,1,0,1,0,2,1,1,1,1
03:24:00,0,0,0,0,1,0,0,0,0
03:25:00,0,0,1,0,0,1,1,0,0
03:26:00,1,0,2,1,0,0,1,1,1
03:27:00,1,1,3,0,0,0,1,1,1
03:28:00,1,1,0,1,0,1,0,1,1
03:29:00,1,1,4,0,0,0,1,1,1
03:30:00,1,0,2,0,2,0,0,1,1
03:31:00,0,0,0,1,1,0,2,0,1
03:32:00,3,3,1,1,0,1,1,2,1
03:33:00,0,1,2,0,0,2,1,1,1
03:34:00,0,2,6,1,3,2,1,2,2
03:35:00,0,0,0,1,1,0,1,0,0
03:36:00,2,1,3,0,0,3,2,1,2
03:37:00,0,1,1,0,0,0,0,0,0
03:38:00,1,0,1,1,1,0,1,1,1
03:39:00,0,1,0,0,2,0,0,1,0
03:40:00,2,0,4,0,0,1,1,1,1
03:41:00,1,1,1,1,1,1,0,1,1
03:42:00,0,1,5,1,0,0,1,1,1
03:43:00,0,0,2,1,0,1,1,1,1
03:44:00,0,0,0,0,0,2,0,0,0
03:45:00,1,0,2,1,0,0,0,1,1
03:46:00,0,1,1,0,0,0,0,0,0
03:47:00,0,0,2,0,0,0,0,0,0
03:48:00,0,2,0,1,0,0,1,1,1
03:49:00,0,0,1,0,1,0,2,0,1
03:50:00,1,2,1,1,1,2,0,1,1
03:51:00,2,0,3,2,0,1,0,1,1
03:52:00,0,1,1,0,0,0,2,0,1
03:53:00,0,0,0,0,1,2,1,0,1
03:54:00,0,0,0,1,0,1,1,0,0
03:55:00,0,2,0,1,1,0,0,1,1
03:56:00,3,1,3,1,1,1,0,2,1
03:57:00,2,0,0,1,1,0,1,1,1
03:58:00,0,0,0,0,1,2,1,0,1
03:59:00,0,1,0,0,0,0,0,0,0
04:00:00,3,1,0,0,3,0,0,1,1
04:01:00,0,1,0,0,1,0,0,0,0
04:02:00,1,0,2,0,1,0,0,1,1
04:03:00,2,0,1,0,2,0,0,1,1
04:04:00,0,0,0,1,2,1,0,1,1
04:05:00,3,2,0,1,1,1,0,1,1
04:06:00,1,1,0,1,1,1,0,1,1
04:07:00,2,0,1,3,0,0,1,1,1
04:08:00,2,0,2,1,3,0,0,2,1
04:09:00,0,1,0,2,2,1,1,1,1
04:10:00,1,1,0,1,1,2,0,1,1
04:11:00,0,1,2,2,1,1,1,1,1
04:12:00,0,0,1,1,0,0,2,0,1
04:13:00,2,1,1,0,0,2,2,1,1
04:14:00,1,2,0,1,2,3,0,1,1
04:15:00,2,0,1,0,0,0,0,1,0
04:16:00,2,3,0,4,1,0,3,2,2
04:17:00,2,1,1,2,1,1,2,1,1
04:18:00,0,1,0,1,0,0,2,0,1
04:19:00,0,1,3,1,0,1,0,1,1
04:20:00,0,0,0,1,1,0,0,0,0
04:21:00,0,1,2,2,0,0,0,1,1
04:22:00,1,1,0,0,2,0,0,1,1
04:23:00,0,1,2,0,2,2,0,1,1
04:24:00,0,0,0,2,1,1,1,1,1
04:25:00,6,4,2,3,2,2,1,3,3
04:26:00,0,1,2,0,0,1,1,1,1
04:27:00,0,1,1,1,1,1,0,1,1
04:28:00,2,1,4,1,1,0,0,2,1
04:29:00,3,0,1,3,5,1,2,2,2
04:30:00,0,2,1,1,0,2,0,1,1
04:31:00,2,2,2,2,1,1,0,2,1
04:32:00,1,0,0,2,1,1,1,1,1
04:33:00,0,1,1,2,2,1,2,1,1
04:34:00,2,2,1,1,0,2,0,1,1
04:35:00,3,2,3,0,2,2,1,2,2
04:36:00,4,2,3,1,1,2,2,2,2
04:37:00,4,2,1,3,2,1,1,2,2
04:38:00,2,3,4,0,2,1,0,2,2
04:39:00,2,2,2,1,2,0,2,2,2
04:40:00,1,1,1,0,2,1,1,1,1
04:41:00,1,1,3,1,2,0,1,2,1
04:42:00,4,4,5,4,2,0,1,4,3
04:43:00,2,2,3,2,0,0,1,2,1
04:44:00,0,1,6,3,2,2,1,2,2
04:45:00,3,4,1,4,0,1,1,2,2
04:46:00,0,2,2,2,4,0,0,2,1
04:47:00,0,1,3,2,0,1,3,1,1
04:48:00,3,1,1,2,2,3,0,2,2
04:49:00,1,2,1,2,3,0,0,2,1
04:50:00,4,0,5,0,8,4,0,3,3
04:51:00,2,2,3,6,1,1,2,3,2
04:52:00,3,1,7,1,4,1,1,3,3
04:53:00,2,3,0,6,3,1,0,3,2
04:54:00,2,2,5,4,2,4,1,3,3
04:55:00,3,3,0,0,3,0,1,2,1
04:56:00,1,0,0,3,0,2,1,1,1
04:57:00,4,2,4,3,1,2,0,3,2
04:58:00,1,2,0,2,1,2,0,1,1
04:59:00,2,1,0,1,0,1,1,1,1
05:00:00,2,2,2,0,1,1,3,1,2
05:01:00,2,2,1,2,2,0,0,2,1
05:02:00,2,1,1,2,1,1,1,1,1
05:03:00,4,3,2,2,3,1,1,3,2
05:04:00,4,1,1,1,2,3,3,2,2
05:05:00,1,4,4,2,2,0,2,3,2
05:06:00,8,4,1,2,2,0,1,3,3
05:07:00,3,4,4,2,1,0,2,3,2
05:08:00,1,3,2,2,2,1,0,2,2
05:09:00,4,4,2,1,5,2,0,3,3
05:10:00,2,2,1,1,2,1,1,2,1
05:11:00,3,2,3,6,3,4,1,3,3
05:12:00,5,6,4,2,2,2,2,4,3
05:13:00,2,3,11,6,7,1,1,6,4
05:14:00,4,1,2,3,1,2,2,2,2
05:15:00,3,2,4,4,1,3,0,3,2
05:16:00,1,4,2,3,4,2,0,3,2
05:17:00,5,2,2,1,2,0,2,2,2
05:18:00,4,5,3,2,4,3,2,4,3
05:19:00,3,5,4,1,1,1,1,3,2
05:20:00,1,3,3,2,2,2,1,2,2
05:21:00,1,3,1,3,1,3,0,2,2
05:22:00,10,3,4,0,4,1,0,4,3
05:23:00,3,3,2,1,6,0,1,3,2
05:24:00,2,2,2,3,2,1,1,2,2
05:25:00,3,4,4,0,3,3,1,3,3
05:26:00,5,5,2,7,2,2,0,4,3
05:27:00,3,7,3,5,2,4,1,4,4
05:28:00,2,1,0,2,3,2,0,2,1
05:29:00,2,1,4,7,2,4,0,3,3
05:30:00,3,2,4,3,2,3,0,3,2
05:31:00,5,4,6,4,8,0,0,5,4
05:32:00,5,9,3,2,4,3,4,5,4
05:33:00,4,2,5,4,0,0,1,3,2
05:34:00,12,4,5,3,5,3,3,6,5
05:35:00,2,6,4,5,10,1,0,5,4
05:36:00,6,5,12,7,4,1,1,7,5
05:37:00,6,7,5,4,5,1,1,5,4
05:38:00,7,3,3,9,8,4,0,6,5
05:39:00,5,7,1,9,4,3,0,5,4
05:40:00,6,7,7,4,5,4,2,6,5
05:41:00,10,5,5,6,7,2,1,7,5
05:42:00,2,6,5,6,6,1,1,5,4
05:43:00,5,8,6,5,2,2,0,5,4
05:44:00,7,9,3,9,4,3,4,6,6
05:45:00,5,4,8,6,7,1,6,6,5
05:46:00,5,6,4,6,7,6,3,6,5
05:47:00,6,7,4,5,3,0,1,5,4
05:48:00,6,12,1,9,5,2,1,7,5
05:49:00,2,6,10,3,9,6,2,6,5
05:50:00,6,6,6,6,2,3,1,5,4
05:51:00,10,5,13,7,2,2,0,7,6
05:52:00,8,2,6,4,7,3,0,5,4
05:53:00,9,4,4,3,6,3,3,5,5
05:54:00,8,4,6,9,7,4,0,7,5
05:55:00,4,6,5,8,8,3,1,6,5
05:56:00,6,5,4,5,3,2,0,5,4
05:57:00,6,8,10,7,6,2,2,7,6
05:58:00,9,4,9,9,1,1,1,6,5
05:59:00,7,9,6,5,10,2,1,7,6
06:00:00,7,9,6,3,16,3,1,8,6
06:01:00,4,4,7,10,2,2,0,5,4
06:02:00,9,6,12,9,4,1,0,8,6
06:03:00,7,15,3,8,4,1,2,7,6
06:04:00,8,9,10,11,3,4,3,8,7
06:05:00,9,12,7,4,8,3,2,8,6
06:06:00,3,6,4,9,6,3,1,6,5
06:07:00,8,8,10,9,5,0,4,8,6
06:08:00,9,10,6,12,5,5,3,8,7
06:09:00,8,8,11,11,4,3,4,8,7
06:10:00,9,7,12,9,6,3,2,9,7
06:11:00,8,15,10,5,13,5,1,10,8
06:12:00,8,16,10,8,12,3,1,11,8
06:13:00,12,6,6,15,13,3,4,10,8
06:14:00,8,4,11,7,12,6,0,8,7
06:15:00,10,10,4,14,8,4,3,9,8
06:16:00,7,15,12,11,10,4,3,11,9
06:17:00,14,7,7,7,16,4,4,10,8
06:18:00,10,10,15,10,7,2,1,10,8
06:19:00,4,11,9,10,11,6,2,9,8
06:20:00,9,12,9,8,10,4,2,10,8
06:21:00,8,7,17,11,16,3,1,12,9
06:22:00,10,16,14,10,14,3,3,13,10
06:23:00,8,15,12,14,13,3,2,12,10
06:24:00,15,13,16,12,16,5,1,14,11
06:25:00,22,16,12,17,13,0,6,16,12
06:26:00,9,14,11,13,12,8,1,12,10
06:27:00,16,20,15,17,7,3,3,15,12
06:28:00,12,10,12,14,15,3,2,13,10
06:29:00,13,10,10,11,9,9,3,11,9
06:30:00,10,9,11,5,13,1,5,10,8
06:31:00,11,9,15,12,11,6,3,12,10
06:32:00,16,19,17,14,19,2,3,17,13
06:33:00,21,16,17,14,8,5,2,15,12
06:34:00,9,14,18,10,12,3,5,13,10
06:35:00,15,10,20,13,16,4,5,15,12
06:36:00,17,14,17,11,17,6,2,15,12
06:37:00,21,16,15,15,20,8,5,17,14
06:38:00,15,16,25,13,13,7,1,16,13
06:39:00,9,14,11,21,20,2,3,15,11
06:40:00,10,15,18,14,23,8,10,16,14
06:41:00,18,18,14,18,19,10,6,17,15
06:42:00,18,19,13,18,12,8,6,16,13
06:43:00,18,18,18,16,26,6,5,19,15
06:44:00,23,21,25,25,14,10,1,22,17
06:45:00,21,21,11,23,19,6,5,19,15
06:46:00,17,20,19,18,18,8,2,18,15
06:47:00,23,16,16,20,22,5,7,19,16
06:48:00,18,24,16,17,17,5,3,18,14
06:49:00,22,10,21,14,16,5,5,17,13
06:50:00,12,17,18,19,14,8,4,16,13
06:51:00,16,21,19,16,19,7,2,18,14
06:52:00,14,25,16,23,18,8,6,19,16
06:53:00,14,8,21,21,16,5,1,16,12
06:54:00,16,28,13,20,13,3,5,18,14
06:55:00,21,10,24,12,11,8,5,16,13
06:56:00,12,16,17,13,19,8,5,15,13
06:57:00,16,23,19,21,16,3,5,19,15
06:58:00,20,13,17,17,17,6,2,17,13
06:59:00,18,23,18,24,15,8,8,20,16
07:00:00,15,18,27,11,16,6,1,17,13
07:01:00,18,22,22,16,31,1,8,22,17
07:02:00,21,24,25,29,19,6,3,24,18
07:03:00,18,20,23,25,30,4,5,23,18
07:04:00,32,21,27,28,23,5,1,26,20
07:05:00,13,40,32,24,35,7,5,29,22
07:06:00,34,30,23,25,26,8,2,28,21
07:07:00,49,26,31,32,22,14,3,32,25
07:08:00,30,28,25,20,18,6,5,24,19
07:09:00,24,34,17,37,32,7,2,29,22
07:10:00,32,32,22,32,25,5,5,29,22
07:11:00,23,32,31,37,29,7,4,30,23
07:12:00,25,16,35,42,27,10,5,29,23
07:13:00,33,37,30,21,39,9,6,32,25
07:14:00,24,35,19,37,42,12,3,31,25
07:15:00,35,37,22,27,32,8,6,31,24
07:16:00,33,38,34,21,18,7,8,29,23
07:17:00,29,27,28,36,23,7,7,29,22
07:18:00,32,24,36,36,35,11,10,33,26
07:19:00,30,27,23,34,34,9,3,30,23
07:20:00,27,36,16,43,25,1,9,29,22
07:21:00,39,28,39,36,43,7,9,37,29
07:22:00,37,32,34,35,27,13,7,33,26
07:23:00,43,28,39,27,29,5,4,33,25
07:24:00,36,22,21,33,24,10,11,27,22
07:25:00,33,39,31,34,32,8,7,34,26
07:26:00,30,35,32,34,29,8,4,32,25
07:27:00,29,25,39,35,32,4,7,32,24
07:28:00,35,38,37,37,29,20,4,35,29
07:29:00,38,36,33,31,36,9,5,35,27
07:30:00,37,29,21,21,19,11,5,25,20
07:31:00,36,38,37,31,38,10,4,36,28
07:32:00,30,31,33,28,32,7,5,31,24
07:33:00,34,46,34,35,47,12,7,39,31
07:34:00,29,39,38,47,26,11,10,36,29
07:35:00,33,42,29,39,39,14,7,36,29
07:36:00,37,34,27,39,31,14,7,34,27
07:37:00,34,42,35,35,41,12,7,37,29
07:38:00,40,39,39,41,42,17,7,40,32
07:39:00,31,34,31,26,38,9,8,32,25
07:40:00,31,41,32,44,38,8,7,37,29
07:41:00,40,43,39,37,33,15,4,38,30
07:42:00,34,28,41,25,31,17,5,32,26
07:43:00,38,39,35,33,32,9,6,35,27
07:44:00,39,23,38,36,34,13,6,34,27
07:45:00,45,33,32,36,30,14,7,35,28
07:46:00,37,35,36,36,35,13,6,36,28
07:47:00,21,37,40,31,23,12,7,30,24
07:48:00,33,28,30,42,39,12,4,34,27
07:49:00,33,24,39,35,24,11,9,31,25
07:50:00,40,26,34,26,34,18,7,32,26
07:51:00,28,36,35,20,32,16,4,30,24
07:52:00,33,32,19,33,41,5,7,32,24
07:53:00,37,36,37,31,38,12,5,36,28
07:54:00,30,34,21,34,33,13,8,30,25
07:55:00,29,29,34,36,28,10,7,31,25
07:56:00,38,40,36,30,34,6,4,36,27
07:57:00,30,40,36,29,40,16,3,35,28
07:58:00,35,38,33,33,29,16,9,34,28
07:59:00,35,15,34,42,31,12,6,31,25
08:00:00,33,32,32,31,26,13,5,31,25
08:01:00,32,35,24,22,23,9,6,27,22
08:02:00,42,33,36,35,36,12,6,36,29
08:03:00,26,29,30,24,26,8,2,27,21
08:04:00,30,35,24,27,27,8,12,29,23
08:05:00,36,30,14,36,30,10,8,29,23
08:06:00,33,34,36,35,33,14,8,34,28
08:07:00,28,33,34,23,35,13,7,31,25
08:08:00,31,39,20,35,34,9,6,32,25
08:09:00,23,30,30,35,25,8,5,29,22
08:10:00,41,35,31,34,38,17,5,36,29
08:11:00,38,36,31,35,31,17,4,34,27
08:12:00,32,18,14,40,29,15,3,27,22
08:13:00,48,35,25,39,31,12,13,36,29
08:14:00,31,38,25,25,28,18,3,29,24
08:15:00,42,32,30,29,23,11,5,31,25
08:16:00,32,24,24,16,40,19,10,27,24
08:17:00,26,40,24,25,30,13,7,29,24
08:18:00,22,22,17,21,32,13,6,23,19
08:19:00,33,31,19,30,30,13,7,29,23
08:20:00,28,27,27,31,35,16,2,30,24
08:21:00,28,27,24,34,26,19,9,28,24
08:22:00,32,29,29,24,32,10,10,29,24
08:23:00,27,31,24,31,33,12,3,29,23
08:24:00,40,13,27,28,26,16,5,27,22
08:25:00,31,18,33,30,33,16,9,29,24
08:26:00,30,35,29,26,27,19,3,29,24
08:27:00,28,29,31,29,30,22,5,29,25
08:28:00,34,29,25,29,33,20,11,30,26
08:29:00,25,29,21,26,25,11,5,25,20
08:30:00,34,35,26,29,23,15,5,29,24
08:31:00,18,33,30,30,29,8,12,28,23
08:32:00,22,26,31,26,27,18,6,26,22
08:33:00,36,29,25,33,36,14,10,32,26
08:34:00,24,24,27,33,31,17,6,28,23
08:35:00,25,31,27,25,26,9,7,27,21
08:36:00,31,37,26,24,27,23,9,29,25
08:37:00,26,31,34,16,37,12,12,29,24
08:38:00,36,25,25,19,27,22,10,26,23
08:39:00,26,36,37,26,33,21,10,32,27
08:40:00,29,30,22,32,23,16,8,27,23
08:41:00,27,26,34,31,22,16,14,28,24
08:42:00,23,33,38,23,39,22,10,31,27
08:43:00,18,33,27,34,24,18,15,27,24
08:44:00,33,32,22,37,23,25,15,29,27
08:45:00,40,32,31,30,35,12,9,34,27
08:46:00,31,37,31,25,33,13,15,31,26
08:47:00,40,19,21,23,35,33,9,28,26
08:48:00,39,31,29,32,28,23,10,32,27
08:49:00,25,27,15,27,29,23,13,25,23
08:50:00,32,40,30,28,33,29,15,33,30
08:51:00,40,31,33,32,29,23,12,33,29
08:52:00,37,23,25,29,36,29,15,30,28
08:53:00,17,28,48,21,36,22,8,30,26
08:54:00,27,26,25,39,28,13,16,29,25
08:55:00,32,33,26,27,34,25,10,30,27
08:56:00,23,33,37,31,27,11,10,30,25
08:57:00,26,41,19,26,33,22,10,29,25
08:58:00,34,29,25,28,32,24,13,30,26
08:59:00,32,32,28,25,24,21,13,28,25
09:00:00,32,27,31,28,33,19,14,30,26
09:01:00,27,29,30,30,30,26,9,29,26
09:02:00,43,20,23,38,26,23,10,30,26
09:03:00,27,24,28,24,38,25,7,28,25
09:04:00,29,24,24,35,26,18,12,28,24
09:05:00,29,27,32,29,23,20,5,28,24
09:06:00,20,32,33,28,35,20,13,30,26
09:07:00,30,34,30,33,27,22,9,31,26
09:08:00,29,26,27,16,29,16,10,25,22
09:09:00,27,36,23,36,31,21,13,31,27
09:10:00,26,31,33,30,28,25,10,30,26
09:11:00,33,20,33,24,25,25,22,27,26
09:12:00,31,29,24,27,22,19,8,27,23
09:13:00,23,35,22,36,27,18,18,29,26
09:14:00,34,29,33,41,28,23,20,33,30
09:15:00,18,30,31,30,28,20,8,27,24
09:16:00,28,30,28,29,24,21,20,28,26
09:17:00,26,39,37,30,29,23,23,32,30
09:18:00,27,31,34,34,23,22,11,30,26
09:19:00,32,29,16,16,29,25,16,24,23
09:20:00,22,21,29,22,33,19,24,25,24
09:21:00,38,21,26,34,24,29,19,29,27
09:22:00,36,35,27,25,24,26,11,29,26
09:23:00,19,27,31,30,25,18,20,26,24
09:24:00,19,21,23,13,31,20,20,21,21
09:25:00,24,27,19,15,17,25,20,20,21
09:26:00,25,33,28,33,39,24,16,32,28
09:27:00,26,26,18,22,26,27,18,24,23
09:28:00,30,26,40,14,27,24,19,27,26
09:29:00,31,23,24,42,23,31,17,29,27
09:30:00,27,28,28,17,30,30,15,26,25
09:31:00,20,19,33,28,28,26,9,26,23
09:32:00,30,17,20,23,15,31,19,21,22
09:33:00,27,29,20,33,33,24,18,28,26
09:34:00,31,23,29,30,27,25,23,28,27
09:35:00,32,31,32,24,20,20,19,28,25
09:36:00,34,31,21,23,30,25,16,28,26
09:37:00,29,27,36,28,23,20,23,29,27
09:38:00,22,33,31,30,19,41,15,27,27
09:39:00,34,25,27,33,22,27,20,28,27
09:40:00,31,26,26,40,12,31,23,27,27
09:41:00,28,25,28,23,22,27,9,25,23
09:42:00,27,32,21,20,18,33,20,24,24
09:43:00,26,28,32,19,30,20,17,27,25
09:44:00,35,29,34,20,24,27,33,28,29
09:45:00,28,27,25,25,20,29,26,25,26
09:46:00,31,22,31,19,19,39,33,24,28
09:47:00,33,30,30,28,25,34,13,29,28
09:48:00,27,32,26,31,28,45,29,29,31
09:49:00,30,30,28,36,18,30,29,28,29
09:50:00,27,25,25,30,27,29,16,27,26
09:51:00,27,28,36,36,22,36,29,30,31
09:52:00,33,35,32,32,19,34,20,30,29
09:53:00,33,22,21,21,17,29,28,23,24
09:54:00,22,29,32,34,22,23,24,28,27
09:55:00,38,35,17,30,19,35,31,28,29
09:56:00,35,23,30,24,19,43,22,26,28
09:57:00,19,23,31,29,23,30,18,25,25
09:58:00,23,26,26,28,22,33,25,25,26
09:59:00,35,26,24,31,26,33,13,28,27
10:00:00,28,22,25,31,20,27,27,25,26
10:01:00,21,28,22,33,24,40,25,26,28
10:02:00,25,31,29,22,20,30,18,25,25
10:03:00,22,27,24,18,22,37,22,23,25
10:04:00,25,35,34,33,25,19,19,30,27
10:05:00,29,33,26,21,12,24,27,24,25
10:06:00,38,33,16,28,28,24,26,29,28
10:07:00,38,18,32,35,27,19,28,30,28
10:08:00,25,25,24,24,20,25,30,24,25
10:09:00,19,37,25,16,20,27,19,23,23
10:10:00,21,30,17,24,15,33,35,21,25
10:11:00,23,18,28,24,19,34,17,22,23
10:12:00,29,14,37,19,15,29,26,23,24
10:13:00,22,15,25,23,16,26,21,20,21
10:14:00,17,25,27,23,21,35,24,23,25
10:15:00,24,27,22,25,18,36,22,23,25
10:16:00,21,30,26,24,18,32,32,24,26
10:17:00,22,38,23,35,25,38,19,29,29
10:18:00,24,14,22,33,17,20,29,22,23
10:19:00,40,28,37,25,21,29,23,30,29
10:20:00,31,26,26,25,8,29,24,23,24
10:21:00,20,31,21,36,17,21,25,25,24
10:22:00,26,33,25,32,22,32,32,28,29
10:23:00,19,18,31,14,13,33,21,19,21
10:24:00,22,21,25,24,20,29,21,22,23
10:25:00,29,27,37,30,20,21,21,29,26
10:26:00,27,20,31,29,19,24,23,25,25
10:27:00,26,13,26,29,19,31,23,23,24
10:28:00,37,30,33,25,23,19,26,30,28
10:29:00,28,34,34,19,24,27,19,28,26
10:30:00,24,24,39,22,15,27,20,25,24
10:31:00,29,26,15,30,18,12,27,24,22
10:32:00,32,25,20,14,20,19,23,22,22
10:33:00,33,21,27,21,18,34,22,24,25
10:34:00,27,27,27,25,17,29,13,25,24
10:35:00,21,24,19,9,15,29,23,18,20
10:36:00,37,24,23,27,20,31,19,26,26
10:37:00,23,30,23,33,13,30,18,24,24
10:38:00,32,18,27,27,24,34,28,26,27
10:39:00,23,24,32,36,17,33,24,26,27
10:40:00,21,18,28,36,20,24,23,25,24
10:41:00,23,25,24,28,28,41,15,26,26
10:42:00,33,32,29,39,22,31,32,31,31
10:43:00,18,21,19,29,20,30,16,21,22
10:44:00,18,30,35,26,24,36,24,27,28
10:45:00,31,23,22,20,24,31,25,24,25
10:46:00,28,24,22,24,15,29,23,23,24
10:47:00,25,18,19,26,18,19,15,21,20
10:48:00,32,19,25,32,24,45,26,26,29
10:49:00,17,22,31,15,22,36,21,21,23
10:50:00,29,22,25,26,11,36,17,23,24
10:51:00,29,26,26,22,24,27,23,25,25
10:52:00,31,24,31,36,17,30,28,28,28
10:53:00,36,30,25,30,9,34,21,26,26
10:54:00,25,27,18,29,21,31,26,24,25
10:55:00,25,22,17,21,21,25,29,21,23
10:56:00,29,26,14,18,21,35,22,22,24
10:57:00,27,29,29,35,18,37,26,28,29
10:58:00,21,25,23,23,28,28,26,24,25
10:59:00,28,24,32,27,18,32,18,26,26
11:00:00,28,27,19,18,26,32,24,24,25
11:01:00,32,24,20,21,18,25,20,23,23
11:02:00,28,25,17,25,15,26,21,22,22
11:03:00,24,29,22,28,18,29,25,24,25
11:04:00,38,29,26,21,13,34,22,25,26
11:05:00,18,31,24,21,20,23,28,23,24
11:06:00,23,22,22,26,24,22,31,23,24
11:07:00,12,29,23,38,25,30,21,25,25
11:08:00,29,24,14,33,15,34,22,23,24
11:09:00,29,26,18,23,17,36,32,23,26
11:10:00,33,22,29,23,22,32,23,26,26
11:11:00,21,29,32,21,18,37,27,24,26
11:12:00,29,30,24,30,20,30,26,27,27
11:13:00,21,30,22,17,15,34,24,21,23
11:14:00,26,25,30,20,13,22,22,23,23
11:15:00,24,27,12,26,22,19,31,22,23
11:16:00,24,30,14,30,11,36,31,22,25
11:17:00,22,19,25,17,22,26,32,21,23
11:18:00,40,22,22,23,14,27,28,24,25
11:19:00,26,33,21,31,21,20,26,26,25
11:20:00,26,24,23,27,21,28,19,24,24
11:21:00,27,33,31,36,19,33,25,29,29
11:22:00,35,25,31,19,19,40,16,26,26
11:23:00,23,18,32,39,18,28,26,26,26
11:24:00,22,19,22,28,14,23,19,21,21
11:25:00,28,29,30,10,28,38,25,25,27
11:26:00,18,25,21,19,10,41,23,19,22
11:27:00,23,27,31,28,19,28,19,26,25
11:28:00,32,28,22,26,15,31,35,25,27
11:29:00,33,40,18,13,17,30,30,24,26
11:30:00,23,40,23,28,37,43,27,30,32
11:31:00,26,31,18,25,27,34,11,25,25
11:32:00,22,35,33,23,21,34,28,27,28
11:33:00,45,28,33,32,26,29,18,33,30
11:34:00,31,22,19,29,23,21,20,25,24
11:35:00,27,23,29,24,29,32,33,26,28
11:36:00,36,23,26,25,35,29,29,29,29
11:37:00,34,29,38,34,27,37,16,32,31
11:38:00,21,35,32,36,34,31,24,32,30
11:39:00,30,28,23,30,34,19,31,29,28
11:40:00,34,33,34,30,28,29,30,32,31
11:41:00,19,29,21,35,33,37,34,27,30
11:42:00,32,32,33,26,35,29,29,32,31
11:43:00,31,28,28,29,26,37,31,28,30
11:44:00,29,34,27,28,30,41,25,30,31
11:45:00,21,32,22,22,25,32,30,24,26
11:46:00,33,20,26,32,30,28,29,28,28
11:47:00,35,24,33,29,29,41,27,30,31
11:48:00,32,28,28,28,40,25,23,31,29
11:49:00,28,28,25,29,24,35,30,27,28
11:50:00,18,23,25,36,19,33,18,24,25
11:51:00,27,22,19,32,27,32,35,25,28
11:52:00,23,32,36,21,34,34,19,29,28
11:53:00,32,29,27,36,22,36,29,29,30
11:54:00,17,27,35,34,32,43,26,29,31
11:55:00,23,28,20,19,29,37,29,24,26
11:56:00,20,35,33,25,34,29,20,29,28
11:57:00,32,27,40,20,26,38,26,29,30
11:58:00,28,23,33,28,25,34,18,27,27
11:59:00,32,22,28,25,25,29,26,26,27
12:00:00,25,18,34,33,22,26,26,26,26
12:01:00,40,21,28,21,26,33,31,27,29
12:02:00,23,36,26,31,28,38,34,29,31
12:03:00,28,28,22,29,23,35,25,26,27
12:04:00,25,32,21,28,23,29,35,26,28
12:05:00,31,24,31,31,24,28,26,28,28
12:06:00,27,30,23,24,19,30,32,25,26
12:07:00,20,25,30,33,34,21,26,28,27
12:08:00,25,28,27,22,28,34,26,26,27
12:09:00,23,35,26,28,20,38,34,26,29
12:10:00,21,24,40,45,27,35,27,31,31
12:11:00,24,29,28,15,34,37,23,26,27
12:12:00,36,29,27,30,33,38,24,31,31
12:13:00,23,34,31,30,27,27,25,29,28
12:14:00,30,32,40,22,35,25,30,32,31
12:15:00,22,30,26,29,19,40,21,25,27
12:16:00,20,31,33,27,25,34,35,27,29
12:17:00,16,24,30,35,27,34,31,26,28
12:18:00,7,31,30,31,32,33,36,26,29
12:19:00,29,40,25,25,26,39,25,29,30
12:20:00,35,28,29,23,28,34,42,29,31
12:21:00,23,35,30,29,21,29,27,28,28
12:22:00,41,29,35,24,34,39,25,33,32
12:23:00,22,14,32,25,21,28,21,23,23
12:24:00,28,23,22,21,31,32,28,25,26
12:25:00,26,27,26,38,22,32,23,28,28
12:26:00,29,35,18,27,28,35,25,27,28
12:27:00,34,20,30,32,25,31,27,28,28
12:28:00,24,29,32,26,32,28,28,29,28
12:29:00,28,27,30,31,26,40,36,28,31
12:30:00,26,37,22,23,27,28,21,27,26
12:31:00,28,22,28,27,25,33,27,26,27
12:32:00,19,29,31,15,26,39,25,24,26
12:33:00,23,29,26,37,28,33,29,29,29
12:34:00,25,30,33,29,34,34,31,30,31
12:35:00,18,30,41,29,40,27,24,32,30
12:36:00,30,33,28,32,27,32,28,30,30
12:37:00,26,27,29,29,21,27,30,26,27
12:38:00,31,26,29,20,24,32,27,26,27
12:39:00,37,27,26,21,28,18,36,28,28
12:40:00,33,28,44,26,35,39,37,33,35
12:41:00,30,21,21,23,31,31,22,25,26
12:42:00,32,26,26,32,30,39,34,29,31
12:43:00,30,36,20,24,27,42,21,27,29
12:44:00,23,28,26,27,18,38,38,24,28
12:45:00,24,27,24,30,35,31,32,28,29
12:46:00,28,26,27,40,33,32,27,31,30
12:47:00,35,23,20,15,27,35,39,24,28
12:48:00,23,28,25,28,33,28,30,27,28
12:49:00,20,26,24,26,36,31,38,26,29
12:50:00,23,35,24,29,35,37,24,29,30
12:51:00,23,29,38,23,30,21,38,29,29
12:52:00,31,28,25,20,28,34,35,26,29
12:53:00,24,27,25,15,29,32,35,24,27
12:54:00,38,31,27,16,22,30,28,27,27
12:55:00,19,29,35,24,36,26,32,29,29
12:56:00,31,19,19,22,26,30,25,23,25
12:57:00,33,32,17,37,35,34,32,31,31
12:58:00,28,32,23,34,27,38,25,29,30
12:59:00,28,22,26,34,25,23,32,27,27
13:00:00,18,28,29,14,25,35,25,23,25
13:01:00,30,29,27,23,35,30,23,29,28
13:02:00,22,33,16,32,32,27,28,27,27
13:03:00,30,16,27,18,31,39,33,24,28
13:04:00,25,29,30,13,35,30,32,26,28
13:05:00,22,23,29,29,34,24,34,27,28
13:06:00,35,16,18,18,43,42,33,26,29
13:07:00,29,23,37,36,24,26,31,30,29
13:08:00,23,31,25,21,24,30,23,25,25
13:09:00,36,41,29,27,36,28,26,34,32
13:10:00,18,26,21,26,35,30,28,25,26
13:11:00,23,24,25,31,36,31,32,28,29
13:12:00,32,24,26,35,25,37,27,28,29
13:13:00,35,27,14,30,32,36,28,28,29
13:14:00,29,26,37,18,27,27,26,27,27
13:15:00,24,22,21,25,33,21,27,25,25
13:16:00,16,31,27,25,26,29,27,25,26
13:17:00,35,38,25,25,24,18,28,29,28
13:18:00,25,25,29,33,22,22,33,27,27
13:19:00,37,26,30,21,21,34,19,27,27
13:20:00,28,26,19,30,30,28,31,27,27
13:21:00,24,33,25,25,38,33,26,29,29
13:22:00,32,34,15,31,33,31,25,29,29
13:23:00,29,23,24,27,28,36,33,26,29
13:24:00,24,23,24,21,27,35,28,24,26
13:25:00,29,33,24,34,26,30,18,29,28
13:26:00,24,29,31,27,30,32,25,28,28
13:27:00,28,27,23,31,23,38,32,26,29
13:28:00,29,17,27,37,26,20,34,27,27
13:29:00,26,26,34,22,29,27,34,27,28
13:30:00,33,17,38,35,25,43,22,30,30
13:31:00,22,28,29,26,26,37,29,26,28
13:32:00,26,32,28,28,28,32,15,28,27
13:33:00,29,28,21,31,30,41,37,28,31
13:34:00,25,32,34,13,28,35,20,26,27
13:35:00,25,20,28,39,32,32,20,29,28
13:36:00,34,24,28,24,13,37,18,25,25
13:37:00,30,33,26,26,37,28,35,30,31
13:38:00,27,23,24,29,18,37,21,24,26
13:39:00,25,30,11,36,29,28,25,26,26
13:40:00,28,31,24,37,27,35,30,29,30
13:41:00,33,24,20,31,20,36,24,26,27
13:42:00,24,21,30,21,21,34,31,23,26
13:43:00,25,48,19,24,15,32,34,26,28
13:44:00,26,23,23,23,29,37,33,25,28
13:45:00,28,29,37,36,28,32,28,32,31
13:46:00,29,26,36,26,26,32,24,29,28
13:47:00,21,31,31,26,39,23,16,30,27
13:48:00,36,32,37,30,28,34,25,33,32
13:49:00,17,23,23,30,39,19,23,26,25
13:50:00,31,33,24,23,27,36,22,28,28
13:51:00,35,18,39,23,30,33,28,29,29
13:52:00,26,27,28,23,32,19,19,27,25
13:53:00,34,27,13,30,23,40,19,25,27
13:54:00,29,26,17,31,31,24,34,27,27
13:55:00,40,34,29,22,16,37,24,28,29
13:56:00,27,32,36,26,36,38,17,31,30
13:57:00,25,32,22,20,22,28,24,24,25
13:58:00,31,34,34,26,25,24,28,30,29
13:59:00,29,22,26,23,26,34,24,25,26
14:00:00,31,21,19,20,33,37,24,25,26
14:01:00,38,30,24,29,27,34,28,30,30
14:02:00,22,24,26,23,40,31,21,27,27
14:03:00,22,23,27,26,19,27,27,23,24
14:04:00,23,32,39,24,27,14,28,29,27
14:05:00,32,28,23,23,45,46,20,30,31
14:06:00,28,25,28,40,29,31,30,30,30
14:07:00,31,32,44,24,25,33,22,31,30
14:08:00,38,32,23,21,15,20,24,26,25
14:09:00,35,31,32,39,43,32,20,36,33
14:10:00,25,26,21,28,31,27,17,26,25
14:11:00,32,32,38,34,36,33,34,34,34
14:12:00,27,30,28,35,35,22,34,31,30
14:13:00,27,25,33,24,24,36,22,27,27
14:14:00,25,21,28,27,30,26,23,26,26
14:15:00,32,24,22,22,30,26,15,26,24
14:16:00,29,39,26,35,31,31,35,32,32
14:17:00,31,30,30,26,25,29,22,28,28
14:18:00,26,29,14,35,28,34,17,26,26
14:19:00,30,22,44,32,40,35,30,34,33
14:20:00,27,28,30,36,25,34,24,29,29
14:21:00,19,33,20,29,25,31,30,25,27
14:22:00,29,29,27,26,24,26,17,27,25
14:23:00,24,23,40,34,29,30,24,30,29
14:24:00,33,26,19,32,32,31,28,28,29
14:25:00,27,26,32,31,19,23,19,27,25
14:26:00,34,33,25,30,24,26,28,29,29
14:27:00,23,28,24,28,34,15,35,27,27
14:28:00,35,32,35,18,21,34,26,28,29
14:29:00,32,21,24,34,32,28,15,29,27
14:30:00,29,39,31,30,35,24,29,33,31
14:31:00,28,29,31,35,34,30,20,31,30
14:32:00,13,25,40,16,27,32,28,24,26
14:33:00,36,33,29,29,30,30,35,31,32
14:34:00,26,27,33,28,28,24,29,28,28
14:35:00,27,32,36,26,35,32,26,31,31
14:36:00,35,39,34,29,28,23,26,33,31
14:37:00,24,26,20,37,32,27,16,28,26
14:38:00,26,32,28,30,28,34,34,29,30
14:39:00,37,43,26,28,32,23,25,33,31
14:40:00,37,37,14,23,29,29,30,28,28
14:41:00,31,29,23,20,32,31,27,27,28
14:42:00,21,37,35,41,28,33,18,32,30
14:43:00,25,26,37,34,29,29,29,30,30
14:44:00,33,40,34,40,42,23,17,38,33
14:45:00,33,33,43,28,25,35,22,32,31
14:46:00,37,25,26,29,28,32,18,29,28
14:47:00,32,34,27,23,43,28,31,32,31
14:48:00,38,35,21,22,29,28,30,29,29
14:49:00,29,39,34,35,30,28,27,33,32
14:50:00,32,26,36,33,33,33,22,32,31
14:51:00,28,21,34,40,28,30,28,30,30
14:52:00,32,35,26,43,43,32,19,36,33
14:53:00,31,34,25,29,31,30,29,30,30
14:54:00,37,31,31,32,39,19,25,34,31
14:55:00,39,36,25,19,37,26,27,31,30
14:56:00,30,37,26,28,30,24,34,30,30
14:57:00,38,29,33,40,23,31,27,33,32
14:58:00,38,39,37,32,36,27,28,36,34
14:59:00,32,33,37,24,34,27,24,32,30
15:00:00,32,32,29,34,32,28,36,32,32
15:01:00,40,32,34,38,28,26,28,34,32
15:02:00,27,32,28,34,37,30,19,32,30
15:03:00,18,23,35,37,36,16,31,30,28
15:04:00,41,24,35,26,25,31,28,30,30
15:05:00,30,25,35,23,19,30,25,26,27
15:06:00,22,27,35,29,36,25,25,30,28
15:07:00,43,27,30,42,29,30,20,34,32
15:08:00,31,27,28,22,37,26,27,29,28
15:09:00,22,35,41,34,24,31,22,31,30
15:10:00,36,37,31,32,25,23,25,32,30
15:11:00,28,31,21,28,30,27,15,28,26
15:12:00,28,30,22,31,25,21,15,27,25
15:13:00,27,26,26,29,31,29,18,28,27
15:14:00,25,24,30,23,26,23,23,26,25
15:15:00,31,26,34,28,25,35,23,29,29
15:16:00,24,22,25,24,31,33,20,25,26
15:17:00,24,26,25,29,24,31,23,26,26
15:18:00,29,26,32,28,24,28,23,28,27
15:19:00,31,23,32,30,21,28,35,27,29
15:20:00,20,28,28,27,26,27,20,26,25
15:21:00,28,28,23,21,29,26,19,26,25
15:22:00,25,20,21,18,23,17,20,21,21
15:23:00,28,16,21,28,30,28,18,25,24
15:24:00,18,15,24,27,24,23,24,22,22
15:25:00,36,23,20,30,24,22,27,27,26
15:26:00,33,21,34,23,19,26,15,26,24
15:27:00,22,28,33,26,35,19,27,29,27
15:28:00,27,33,23,29,24,19,22,27,25
15:29:00,39,37,35,31,31,32,29,35,33
15:30:00,37,19,28,31,36,27,21,30,28
15:31:00,31,33,27,25,31,32,17,29,28
15:32:00,25,23,23,38,33,31,23,28,28
15:33:00,18,24,39,30,30,21,26,28,27
15:34:00,33,37,38,33,32,31,24,35,33
15:35:00,35,25,37,24,42,23,9,33,28
15:36:00,29,35,24,30,30,22,29,30,28
15:37:00,27,28,25,22,30,24,18,26,25
15:38:00,25,24,31,25,23,28,32,26,27
15:39:00,30,21,31,22,30,20,24,27,25
15:40:00,21,29,28,31,32,27,24,28,27
15:41:00,31,25,23,35,29,18,24,29,26
15:42:00,31,30,32,28,27,34,16,30,28
15:43:00,36,30,23,30,28,22,25,29,28
15:44:00,34,33,27,35,38,23,29,33,31
15:45:00,25,32,27,29,34,32,23,29,29
15:46:00,25,33,34,25,37,21,21,31,28
15:47:00,27,28,31,40,31,30,23,31,30
15:48:00,23,40,35,35,21,16,24,31,28
15:49:00,34,33,32,30,26,22,32,31,30
15:50:00,23,28,22,24,32,33,15,26,25
15:51:00,33,28,38,36,27,22,28,32,30
15:52:00,37,37,30,39,35,27,39,36,35
15:53:00,29,32,28,27,43,24,24,32,30
15:54:00,35,32,42,23,25,25,26,31,30
15:55:00,31,33,27,35,29,30,21,31,29
15:56:00,27,26,25,26,27,33,25,26,27
15:57:00,37,38,33,30,28,25,18,33,30
15:58:00,26,26,25,30,36,33,36,29,30
15:59:00,37,40,29,36,27,40,15,34,32
16:00:00,25,25,22,27,31,19,37,26,27
16:01:00,41,29,32,24,38,21,22,33,30
16:02:00,24,28,27,30,20,21,34,26,26
16:03:00,31,40,33,32,30,42,30,33,34
16:04:00,35,33,38,29,35,27,21,34,31
16:05:00,29,28,31,29,29,20,22,29,27
16:06:00,30,31,33,35,36,29,24,33,31
16:07:00,28,33,29,39,28,34,22,31,30
16:08:00,36,27,34,30,37,25,22,33,30
16:09:00,38,28,33,35,35,20,26,34,31
16:10:00,21,31,39,29,28,32,28,30,30
16:11:00,36,32,27,26,42,31,38,33,33
16:12:00,33,31,25,42,19,27,37,30,31
16:13:00,38,32,40,34,36,27,23,36,33
16:14:00,32,38,30,32,38,25,40,34,34
16:15:00,24,27,42,36,37,33,25,33,32
16:16:00,42,44,34,33,31,25,28,37,34
16:17:00,29,34,44,31,25,24,37,33,32
16:18:00,34,35,27,33,39,33,20,34,32
16:19:00,28,30,29,39,34,20,25,32,29
16:20:00,33,40,30,33,36,29,33,34,33
16:21:00,34,32,37,29,42,27,36,35,34
16:22:00,31,35,39,41,20,21,28,33,31
16:23:00,19,35,33,32,33,27,41,30,31
16:24:00,39,33,36,29,27,28,29,33,32
16:25:00,37,42,35,35,25,26,20,35,31
16:26:00,34,34,37,38,46,25,24,38,34
16:27:00,26,27,20,29,30,21,27,26,26
16:28:00,41,36,34,32,29,23,27,34,32
16:29:00,27,43,25,27,38,29,13,32,29
16:30:00,35,31,36,33,41,20,18,35,31
16:31:00,35,37,31,35,37,25,33,35,33
16:32:00,31,33,24,34,28,30,26,30,29
16:33:00,24,39,35,23,41,28,18,32,30
16:34:00,29,35,39,42,32,21,33,35,33
16:35:00,29,46,32,32,31,24,30,34,32
16:36:00,35,18,27,35,34,29,29,30,30
16:37:00,33,26,27,33,37,34,20,31,30
16:38:00,33,38,31,27,30,30,14,32,29
16:39:00,38,35,38,35,44,32,28,38,36
16:40:00,32,32,20,32,33,32,33,30,31
16:41:00,26,38,38,29,40,21,31,34,32
16:42:00,40,25,33,33,41,27,21,34,31
16:43:00,32,45,34,34,33,26,27,36,33
16:44:00,38,45,29,34,33,26,19,36,32
16:45:00,40,34,28,37,33,30,24,34,32
16:46:00,30,36,34,38,35,24,20,35,31
16:47:00,35,26,26,35,32,34,10,31,28
16:48:00,38,34,40,32,32,28,18,35,32
16:49:00,41,30,24,45,32,32,24,34,33
16:50:00,33,37,43,37,29,23,16,36,31
16:51:00,33,26,35,34,33,25,19,32,29
16:52:00,29,42,38,25,28,34,25,32,32
16:53:00,30,32,32,33,41,29,21,34,31
16:54:00,41,43,26,41,37,22,17,38,32
16:55:00,34,41,37,31,32,28,25,35,33
16:56:00,29,30,29,45,31,20,13,33,28
16:57:00,38,37,40,37,29,22,21,36,32
16:58:00,27,46,23,39,36,27,28,34,32
16:59:00,32,33,33,36,28,23,25,32,30
17:00:00,33,20,34,39,30,28,16,31,29
17:01:00,30,20,36,32,29,27,15,29,27
17:02:00,35,33,26,32,29,33,28,31,31
17:03:00,28,33,38,35,28,29,12,32,29
17:04:00,29,35,36,41,31,27,19,34,31
17:05:00,29,31,38,29,29,24,19,31,28
17:06:00,34,36,41,39,46,26,22,39,35
17:07:00,35,26,32,37,28,26,19,32,29
17:08:00,30,32,42,24,41,34,21,34,32
17:09:00,37,41,38,33,30,30,15,36,32
17:10:00,40,35,33,33,32,32,21,35,32
17:11:00,28,15,33,37,34,32,21,29,29
17:12:00,29,37,36,34,43,29,21,36,33
17:13:00,35,31,28,35,35,35,18,33,31
17:14:00,43,40,32,38,35,25,17,38,33
17:15:00,30,26,40,40,40,23,12,35,30
17:16:00,39,27,29,33,41,27,22,34,31
17:17:00,42,27,34,38,41,27,20,36,33
17:18:00,30,31,34,32,32,34,11,32,29
17:19:00,33,33,39,44,35,28,19,37,33
17:20:00,42,35,34,27,27,33,22,33,31
17:21:00,32,30,41,35,28,26,13,33,29
17:22:00,38,30,25,33,31,21,21,31,28
17:23:00,35,19,36,36,39,22,16,33,29
17:24:00,29,22,32,46,28,35,13,31,29
17:25:00,36,28,36,31,32,23,23,33,30
17:26:00,41,25,32,37,42,23,16,35,31
17:27:00,39,20,44,30,32,17,19,33,29
17:28:00,42,21,32,42,35,27,15,34,31
17:29:00,36,32,34,31,30,18,9,33,27
17:30:00,30,25,42,36,34,35,18,33,31
17:31:00,37,25,32,34,36,19,21,33,29
17:32:00,37,37,29,26,34,28,11,33,29
17:33:00,33,37,34,44,40,33,21,38,35
17:34:00,33,28,33,37,37,15,21,34,29
17:35:00,44,40,31,40,34,27,23,38,34
17:36:00,35,27,39,33,24,24,21,32,29
17:37:00,28,34,37,33,33,12,24,33,29
17:38:00,39,31,29,30,22,21,18,30,27
17:39:00,41,29,29,30,43,18,21,34,30
17:40:00,36,24,37,29,36,19,21,32,29
17:41:00,32,27,36,34,39,18,16,34,29
17:42:00,30,26,31,27,27,27,13,28,26
17:43:00,42,31,40,40,34,24,15,37,32
17:44:00,44,34,32,37,27,24,19,35,31
17:45:00,24,32,29,43,33,14,23,32,28
17:46:00,39,21,30,37,21,25,14,30,27
17:47:00,38,24,30,27,29,17,18,30,26
17:48:00,40,24,41,38,33,24,23,35,32
17:49:00,31,33,30,28,29,26,12,30,27
17:50:00,34,29,39,35,35,28,18,34,31
17:51:00,37,35,25,36,34,36,14,33,31
17:52:00,33,26,29,33,38,19,10,32,27
17:53:00,31,30,24,30,31,32,15,29,28
17:54:00,37,26,40,36,30,28,13,34,30
17:55:00,32,27,43,45,28,18,19,35,30
17:56:00,24,30,32,29,30,24,12,29,26
17:57:00,33,25,19,33,23,31,17,27,26
17:58:00,29,45,32,39,30,26,9,35,30
17:59:00,30,26,42,34,36,15,14,34,28
18:00:00,26,26,33,29,26,23,13,28,25
18:01:00,31,29,31,42,27,28,15,32,29
18:02:00,38,34,28,29,21,17,22,30,27
18:03:00,29,13,39,20,31,24,15,26,24
18:04:00,27,29,20,32,35,21,18,29,26
18:05:00,45,31,24,37,27,14,13,33,27
18:06:00,38,26,22,35,34,13,18,31,27
18:07:00,35,34,31,30,21,32,21,30,29
18:08:00,37,30,41,34,31,21,15,35,30
18:09:00,28,32,30,34,32,20,16,31,27
18:10:00,25,34,38,30,38,20,20,33,29
18:11:00,30,28,29,36,27,30,18,30,28
18:12:00,31,25,38,30,30,17,17,31,27
18:13:00,37,31,36,26,24,18,18,31,27
18:14:00,30,35,31,30,25,21,13,30,26
18:15:00,24,34,32,32,29,22,13,30,27
18:16:00,28,27,39,38,32,11,17,33,27
18:17:00,40,34,30,33,31,19,11,34,28
18:18:00,19,31,30,33,30,18,17,29,25
18:19:00,24,37,33,35,28,14,9,31,26
18:20:00,28,37,28,30,25,21,17,30,27
18:21:00,38,18,33,43,24,16,22,31,28
18:22:00,26,34,33,42,29,20,13,33,28
18:23:00,35,32,33,23,27,20,17,30,27
18:24:00,35,32,41,33,29,19,20,34,30
18:25:00,28,21,35,24,25,30,18,27,26
18:26:00,28,23,21,31,22,23,14,25,23
18:27:00,24,20,32,27,22,16,13,25,22
18:28:00,21,19,32,27,23,33,16,24,24
18:29:00,26,20,32,31,36,22,11,29,25
18:30:00,29,34,17,40,28,23,15,30,27
18:31:00,24,37,33,20,34,24,21,30,28
18:32:00,20,27,48,16,14,18,18,25,23
18:33:00,33,33,28,26,22,22,13,28,25
18:34:00,27,40,22,49,25,23,16,33,29
18:35:00,22,32,28,30,30,24,16,28,26
18:36:00,35,28,22,31,26,14,9,28,24
18:37:00,26,39,37,34,25,21,17,32,28
18:38:00,28,29,25,35,27,22,18,29,26
18:39:00,30,31,22,31,13,12,18,25,22
18:40:00,27,29,25,17,22,25,17,24,23
18:41:00,27,22,22,22,28,8,19,24,21
18:42:00,33,27,32,20,22,25,19,27,25
18:43:00,29,34,32,33,31,24,12,32,28
18:44:00,33,26,26,46,28,12,18,32,27
18:45:00,35,45,33,31,19,22,11,33,28
18:46:00,34,27,30,31,24,19,17,29,26
18:47:00,27,41,25,32,28,14,18,31,26
18:48:00,21,23,23,35,24,22,8,25,22
18:49:00,23,23,46,18,35,21,18,29,26
18:50:00,28,27,37,21,27,21,14,28,25
18:51:00,32,24,33,25,23,18,18,27,25
18:52:00,23,36,39,30,23,24,19,30,28
18:53:00,29,31,34,25,22,17,17,28,25
18:54:00,33,31,35,24,42,11,19,33,28
18:55:00,25,25,31,23,25,22,10,26,23
18:56:00,31,32,26,30,21,15,17,28,25
18:57:00,28,27,26,29,32,19,10,28,24
18:58:00,32,24,28,27,20,27,13,26,24
18:59:00,26,17,27,25,22,21,13,23,22
19:00:00,22,41,31,22,24,21,12,28,25
19:01:00,26,26,24,26,37,27,18,28,26
19:02:00,23,24,35,25,28,19,12,27,24
19:03:00,19,38,21,30,13,13,10,24,21
19:04:00,25,33,28,25,30,23,12,28,25
19:05:00,28,31,25,24,24,25,15,26,25
19:06:00,34,27,19,32,26,14,13,28,24
19:07:00,23,24,32,25,25,23,15,26,24
19:08:00,35,35,19,29,24,20,12,28,25
19:09:00,26,23,34,34,26,16,15,29,25
19:10:00,34,35,30,24,26,21,15,30,26
19:11:00,26,26,32,28,27,18,13,28,24
19:12:00,33,32,26,30,22,17,11,29,24
19:13:00,33,29,23,25,30,24,13,28,25
19:14:00,28,33,25,28,40,23,14,31,27
19:15:00,27,27,26,24,28,18,13,26,23
19:16:00,18,31,33,25,26,21,12,27,24
19:17:00,31,28,21,33,24,18,14,27,24
19:18:00,28,27,24,23,26,12,16,26,22
19:19:00,29,37,25,31,19,10,16,28,24
19:20:00,10,38,20,39,35,16,15,28,25
19:21:00,35,30,25,20,22,10,16,26,23
19:22:00,16,28,26,30,30,17,14,26,23
19:23:00,24,22,26,30,28,11,12,26,22
19:24:00,28,22,24,33,25,16,13,26,23
19:25:00,25,36,35,30,20,19,17,29,26
19:26:00,24,29,32,25,19,14,14,26,22
19:27:00,30,21,17,19,15,17,8,20,18
19:28:00,31,44,26,41,18,14,18,32,27
19:29:00,25,25,18,21,18,13,12,21,19
19:30:00,25,24,20,22,23,16,14,23,21
19:31:00,20,40,26,23,19,9,21,26,23
19:32:00,25,30,10,20,14,17,10,20,18
19:33:00,36,38,30,20,17,16,9,28,24
19:34:00,22,32,20,25,19,14,14,24,21
19:35:00,21,25,20,25,19,14,16,22,20
19:36:00,23,22,21,24,20,19,16,22,21
19:37:00,21,31,29,13,15,15,13,22,20
19:38:00,38,28,15,24,16,11,12,24,21
19:39:00,24,30,27,15,22,19,17,24,22
19:40:00,24,25,17,19,15,10,17,20,18
19:41:00,20,24,25,21,23,17,11,23,20
19:42:00,26,30,27,19,25,11,9,25,21
19:43:00,21,36,24,26,15,14,20,24,22
19:44:00,21,34,30,20,17,19,12,24,22
19:45:00,26,32,17,15,9,15,6,20,17
19:46:00,15,31,17,27,16,15,12,21,19
19:47:00,27,34,39,20,26,20,22,29,27
19:48:00,26,22,30,21,15,12,14,23,20
19:49:00,28,24,28,13,15,11,11,22,19
19:50:00,27,36,22,33,17,11,10,27,22
19:51:00,22,24,22,19,19,15,9,21,19
19:52:00,28,28,27,25,22,14,7,26,22
19:53:00,22,28,20,19,19,16,13,22,20
19:54:00,24,21,13,24,12,17,10,19,17
19:55:00,29,26,21,20,14,9,8,22,18
19:56:00,21,30,25,20,22,16,20,24,22
19:57:00,21,23,11,27,19,10,17,20,18
19:58:00,20,15,19,26,15,11,16,19,17
19:59:00,27,18,16,18,15,9,10,19,16
20:00:00,18,27,27,24,14,9,19,22,20
20:01:00,18,22,20,15,24,13,15,20,18
20:02:00,12,19,18,25,19,7,9,19,16
20:03:00,20,22,20,19,18,5,11,20,16
20:04:00,30,26,19,19,14,12,11,22,19
20:05:00,22,23,14,27,15,13,7,20,17
20:06:00,20,23,20,29,11,9,7,21,17
20:07:00,23,33,23,31,19,7,16,26,22
20:08:00,28,27,23,24,16,8,14,24,20
20:09:00,24,25,18,23,20,13,14,22,20
20:10:00,29,17,24,27,26,10,7,25,20
20:11:00,24,31,28,21,16,22,14,24,22
20:12:00,26,29,17,23,22,12,6,23,19
20:13:00,26,18,36,15,12,9,8,21,18
20:14:00,21,27,16,28,20,11,8,22,19
20:15:00,28,23,16,19,18,8,9,21,17
20:16:00,31,19,22,20,16,11,13,22,19
20:17:00,15,22,24,22,12,13,20,19,18
20:18:00,21,19,18,20,21,12,9,20,17
20:19:00,27,22,17,21,22,10,8,22,18
20:20:00,19,14,17,28,21,14,7,20,17
20:21:00,18,25,17,11,13,17,12,17,16
20:22:00,21,16,19,16,13,8,5,17,14
20:23:00,22,9,17,13,16,8,10,15,14
20:24:00,19,23,22,22,13,11,11,20,17
20:25:00,27,21,10,19,18,7,7,19,16
20:26:00,21,14,19,13,12,13,8,16,14
20:27:00,26,16,17,14,14,6,3,17,14
20:28:00,17,24,20,11,18,9,10,18,16
20:29:00,26,11,16,6,5,5,6,13,11
20:30:00,14,17,17,10,12,9,13,14,13
20:31:00,16,7,14,14,7,9,13,12,11
20:32:00,14,13,13,16,11,12,7,13,12
20:33:00,14,11,12,18,10,6,6,13,11
20:34:00,20,19,16,11,13,7,5,16,13
20:35:00,18,15,12,14,12,8,12,14,13
20:36:00,8,15,13,9,16,7,14,12,12
20:37:00,19,12,14,16,9,13,19,14,15
20:38:00,19,20,13,10,9,7,10,14,13
20:39:00,15,15,12,16,12,8,15,14,13
20:40:00,30,13,17,13,4,8,12,15,14
20:41:00,23,15,14,13,10,9,5,15,13
20:42:00,29,11,16,13,7,10,23,15,16
20:43:00,17,28,17,19,16,8,13,19,17
20:44:00,17,15,10,14,18,6,11,15,13
20:45:00,14,10,20,7,11,9,13,12,12
20:46:00,23,32,12,12,8,10,9,17,15
20:47:00,23,13,15,5,5,12,10,12,12
20:48:00,18,18,11,12,10,5,5,14,11
20:49:00,24,8,17,8,11,8,9,14,12
20:50:00,21,16,6,15,10,10,5,14,12
20:51:00,10,15,13,11,7,10,9,11,11
20:52:00,15,14,5,13,5,4,9,10,9
20:53:00,9,16,19,7,18,9,4,14,12
20:54:00,14,7,10,9,8,7,4,10,8
20:55:00,16,19,11,21,8,5,7,15,12
20:56:00,17,9,14,12,17,6,7,14,12
20:57:00,13,3,6,13,7,7,2,8,7
20:58:00,20,18,12,13,10,11,11,15,14
20:59:00,26,17,12,12,14,7,3,16,13
21:00:00,9,15,4,12,8,10,12,10,10
21:01:00,13,9,12,9,11,8,4,11,9
21:02:00,20,11,9,10,8,7,10,12,11
21:03:00,10,10,13,16,11,5,4,12,10
21:04:00,12,16,16,8,11,7,13,13,12
21:05:00,16,15,11,8,17,9,8,13,12
21:06:00,13,7,13,13,16,7,8,12,11
21:07:00,8,13,12,16,9,13,8,12,11
21:08:00,16,12,13,12,5,9,3,12,10
21:09:00,13,21,11,14,9,7,6,14,12
21:10:00,26,15,17,18,16,7,5,18,15
21:11:00,19,13,14,12,13,9,8,14,13
21:12:00,15,21,13,9,3,6,5,12,10
21:13:00,15,16,22,15,14,7,9,16,14
21:14:00,9,13,12,15,10,9,9,12,11
21:15:00,7,19,24,15,14,3,3,16,12
21:16:00,18,20,15,15,13,10,7,16,14
21:17:00,12,8,22,14,17,8,9,15,13
21:18:00,16,14,14,17,17,9,5,16,13
21:19:00,9,12,14,8,7,4,9,10,9
21:20:00,11,11,18,10,5,9,7,11,10
21:21:00,12,7,10,14,11,7,4,11,9
21:22:00,10,11,8,5,9,5,7,9,8
21:23:00,9,15,5,8,8,6,9,9,9
21:24:00,15,9,9,15,14,11,8,12,12
21:25:00,15,15,12,21,8,11,4,14,12
21:26:00,8,18,18,14,3,4,6,12,10
21:27:00,21,11,14,8,12,9,5,13,11
21:28:00,18,19,13,20,6,7,7,15,13
21:29:00,6,12,9,15,12,5,5,11,9
21:30:00,13,9,10,17,8,13,4,11,11
21:31:00,19,18,15,13,10,6,5,15,12
21:32:00,10,8,20,14,7,4,7,12,10
21:33:00,11,6,15,8,12,6,4,10,9
21:34:00,14,19,13,15,5,6,7,13,11
21:35:00,8,8,11,10,9,10,5,9,9
21:36:00,11,12,20,12,8,5,4,13,10
21:37:00,7,12,11,16,12,5,2,12,9
21:38:00,11,16,11,15,3,9,5,11,10
21:39:00,13,17,7,19,11,5,4,13,11
21:40:00,11,11,15,16,12,4,9,13,11
21:41:00,18,10,14,15,8,10,9,13,12
21:42:00,12,13,12,12,12,6,6,12,10
21:43:00,11,13,16,9,8,9,12,11,11
21:44:00,11,14,7,16,7,9,4,11,10
21:45:00,15,11,13,15,11,8,9,13,12
21:46:00,10,15,9,6,8,11,4,10,9
21:47:00,13,10,11,13,11,14,5,12,11
21:48:00,14,19,12,12,7,8,7,13,11
21:49:00,10,11,6,8,8,12,6,9,9
21:50:00,15,9,14,12,10,8,5,12,10
21:51:00,11,11,10,18,14,8,1,13,10
21:52:00,6,10,13,8,6,6,5,9,8
21:53:00,10,8,14,10,10,8,3,10,9
21:54:00,14,7,10,11,9,7,11,10,10
21:55:00,8,16,15,16,15,7,4,14,12
21:56:00,8,10,8,10,8,6,3,9,8
21:57:00,9,10,11,10,11,13,8,10,10
21:58:00,10,22,12,10,9,5,5,13,10
21:59:00,10,6,10,5,6,8,5,7,7
22:00:00,7,13,13,6,7,15,6,9,10
22:01:00,11,14,7,7,7,6,6,9,8
22:02:00,8,9,13,8,8,7,5,9,8
22:03:00,17,15,11,11,6,10,8,12,11
22:04:00,22,9,11,10,8,12,3,12,11
22:05:00,16,11,11,15,7,10,7,12,11
22:06:00,13,10,13,9,6,8,4,10,9
22:07:00,11,10,9,9,8,11,9,9,10
22:08:00,8,14,11,9,10,8,5,10,9
22:09:00,21,13,9,9,11,14,5,13,12
22:10:00,12,12,9,15,11,10,6,12,11
22:11:00,14,11,14,7,8,17,5,11,11
22:12:00,13,12,11,16,14,11,7,13,12
22:13:00,13,10,14,7,8,8,1,10,9
22:14:00,16,13,13,8,17,8,8,13,12
22:15:00,16,11,12,14,16,16,3,14,13
22:16:00,9,8,10,6,15,15,2,10,9
22:17:00,12,13,13,12,11,9,6,12,11
22:18:00,15,11,6,8,9,10,8,10,10
22:19:00,9,6,9,13,6,9,6,9,8
22:20:00,15,13,7,7,6,12,10,10,10
22:21:00,13,8,16,4,7,8,4,10,9
22:22:00,13,12,8,13,4,1,3,10,8
22:23:00,12,12,11,8,7,9,7,10,9
22:24:00,11,13,9,6,6,11,4,9,9
22:25:00,3,8,7,17,5,10,5,8,8
22:26:00,10,12,11,12,10,14,3,11,10
22:27:00,13,7,6,7,8,10,5,8,8
22:28:00,9,3,8,3,9,6,5,6,6
22:29:00,3,8,8,10,2,13,2,6,7
22:30:00,9,8,8,13,7,8,2,9,8
22:31:00,9,17,13,12,9,13,4,12,11
22:32:00,14,5,13,7,7,6,1,9,8
22:33:00,8,5,3,7,9,5,8,6,6
22:34:00,9,10,8,12,8,4,10,9,9
22:35:00,6,8,6,5,2,6,7,5,6
22:36:00,12,13,10,9,10,5,5,11,9
22:37:00,6,9,7,10,5,6,4,7,7
22:38:00,7,13,5,5,12,5,2,8,7
22:39:00,9,5,2,7,5,11,2,6,6
22:40:00,14,11,7,5,8,7,6,9,8
22:41:00,9,14,7,10,6,8,5,9,8
22:42:00,7,2,6,9,4,5,5,6,5
22:43:00,9,7,6,8,9,7,3,8,7
22:44:00,8,13,6,7,8,9,3,8,8
22:45:00,10,7,2,10,8,7,5,7,7
22:46:00,7,5,2,9,4,7,1,5,5
22:47:00,4,6,5,8,4,4,3,5,5
22:48:00,10,4,4,2,5,3,4,5,5
22:49:00,10,4,2,4,11,6,2,6,6
22:50:00,10,5,1,10,8,8,5,7,7
22:51:00,5,5,3,3,8,11,2,5,5
22:52:00,2,3,4,5,3,10,3,3,4
22:53:00,4,7,3,3,10,6,7,5,6
22:54:00,5,8,10,5,11,8,3,8,7
22:55:00,4,9,2,5,8,9,0,6,5
22:56:00,4,5,1,11,10,6,1,6,5
22:57:00,9,0,6,6,7,2,3,6,5
22:58:00,0,6,3,3,4,4,6,3,4
22:59:00,6,8,7,8,3,9,4,6,6
23:00:00,6,2,5,3,9,6,2,5,5
23:01:00,4,3,5,4,7,3,8,5,5
23:02:00,17,5,1,5,4,5,1,6,5
23:03:00,1,4,9,9,7,5,5,6,6
23:04:00,4,4,2,3,5,5,1,4,3
23:05:00,5,7,3,1,4,10,2,4,5
23:06:00,7,4,2,8,7,9,2,6,6
23:07:00,1,3,3,9,3,12,0,4,4
23:08:00,4,6,6,3,4,6,1,5,4
23:09:00,6,4,3,5,8,12,1,5,6
23:10:00,4,13,8,2,6,8,3,7,6
23:11:00,4,5,4,7,8,10,4,6,6
23:12:00,8,8,5,2,8,9,2,6,6
23:13:00,5,8,4,10,2,7,5,6,6
23:14:00,14,4,2,3,7,10,4,6,6
23:15:00,5,2,6,2,1,8,1,3,4
23:16:00,3,4,3,5,3,8,2,4,4
23:17:00,11,3,1,6,4,9,1,5,5
23:18:00,4,3,3,0,4,8,7,3,4
23:19:00,5,5,7,3,4,4,0,5,4
23:20:00,5,3,1,4,9,6,3,4,4
23:21:00,7,6,6,3,4,5,0,5,4
23:22:00,9,1,3,4,10,5,1,5,5
23:23:00,1,6,1,4,3,3,2,3,3
23:24:00,8,7,3,0,11,4,3,6,5
23:25:00,7,5,2,5,7,4,1,5,4
23:26:00,1,5,8,4,5,4,3,5,4
23:27:00,9,5,2,1,7,4,1,5,4
23:28:00,13,3,2,3,5,0,0,5,4
23:29:00,3,6,1,0,4,6,3,3,3
23:30:00,3,2,1,2,6,9,0,3,3
23:31:00,4,3,1,3,4,5,2,3,3
23:32:00,3,3,6,1,5,4,2,4,3
23:33:00,4,4,1,2,6,2,3,3,3
23:34:00,2,3,5,2,7,3,1,4,3
23:35:00,3,6,0,3,6,8,2,4,4
23:36:00,4,3,1,4,4,9,1,3,4
23:37:00,5,5,4,2,3,7,0,4,4
23:38:00,2,2,1,4,5,9,4,3,4
23:39:00,0,0,1,4,4,6,0,2,2
23:40:00,5,4,3,1,5,7,1,4,4
23:41:00,5,3,1,2,2,6,2,3,3
23:42:00,1,3,1,4,6,1,3,3,3
23:43:00,3,0,3,3,4,6,0,3,3
23:44:00,4,5,0,5,2,3,1,3,3
23:45:00,0,6,1,2,0,6,0,2,2
23:46:00,4,2,3,1,1,4,1,2,2
23:47:00,4,2,2,3,4,4,0,3,3
23:48:00,2,2,2,0,4,3,1,2,2
23:49:00,5,3,2,3,3,4,1,3,3
23:50:00,5,9,0,0,3,6,2,3,4
23:51:00,1,6,1,2,3,3,3,3,3
23:52:00,8,6,2,1,9,7,2,5,5
23:53:00,3,5,0,2,5,12,2,3,4
23:54:00,4,2,4,4,2,5,2,3,3
23:55:00,4,2,2,4,2,2,2,3,3
23:56:00,5,0,1,1,2,5,0,2,2
23:57:00,1,6,2,2,3,6,1,3,3
23:58:00,2,7,0,3,2,4,1,3,3
23:59:00,3,3,1,1,5,5,0,3,3
,,,,,,,,,
Totals,,,,,,,,,
12H(7-19),21321,20990,20871,21145,20316,18300,14670,20929,19659
16H(6-22),25581,25414,24889,25163,23793,20560,16632,24968,23147
18H(6-24),26452,26208,25524,25856,24550,21429,17015,25718,23862
24H(0-24),26982,26844,26352,26396,25060,21930,17480,26327,24435
,,,,,,,,,
AM Peak,07:16:00,07:15:00,07:12:00,07:14:00,07:21:00,10:59:00,10:52:00,07:14:00,09:09:00
,2044,1995,1895,1998,1935,1885,1527,1963,1565
,,,,,,,,,
PM Peak,17:09:00,16:11:00,16:50:00,16:46:00,16:29:00,12:08:00,12:16:00,16:38:00,16:11:00
,2095,2052,2052,2114,2044,1949,1767,2028,1874
,,,,,,,,,
,,,,,,,,,
CA Traffic,,,,,,,,,VDA-net R2 14/02/2020
