Site Number,00008030,Unnamed: 2,Site Reference,00008030.1,Unnamed: 5,Unnamed: 6,Unnamed: 7,Unnamed: 8,Unnamed: 9
Radar 8030 London Road,,,,,,,,,
Vehicle Count Report,,,,Week Begin: 20 January 2020,,,Channel:,Total Flow,
,,,,,,,,,
,,,,,,,,,
,2020-01-20 00:00:00,2020-01-21 00:00:00,2020-01-22 00:00:00,2020-01-23 00:00:00,2020-01-24 00:00:00,2020-01-25 00:00:00,2020-01-26 00:00:00,"5-Day
Ave.","7-Day
Ave."
00:00:00,1,1,1,1,1,1,3,1,1
00:01:00,0,2,1,0,2,0,0,1,1
00:02:00,0,0,0,0,1,2,4,0,1
00:03:00,0,0,1,0,0,1,2,0,1
00:04:00,1,3,0,3,2,1,1,2,2
00:05:00,1,0,2,0,0,0,5,1,1
00:06:00,2,2,1,1,0,2,5,1,2
00:07:00,2,1,0,0,1,3,1,1,1
00:08:00,0,0,1,2,1,0,3,1,1
00:09:00,1,2,1,1,0,1,3,1,1
00:10:00,0,0,0,1,1,0,4,0,1
00:11:00,1,0,1,2,2,3,5,1,2
00:12:00,2,2,2,1,0,1,2,1,1
00:13:00,0,0,0,1,0,0,1,0,0
00:14:00,1,0,0,1,0,0,2,0,1
00:15:00,1,0,0,1,0,1,0,0,0
00:16:00,1,1,0,2,0,3,1,1,1
00:17:00,0,0,0,0,1,2,3,0,1
00:18:00,1,2,1,0,0,1,2,1,1
00:19:00,0,1,0,1,3,2,1,1,1
00:20:00,0,0,0,2,1,0,3,1,1
00:21:00,0,0,0,1,1,0,2,0,1
00:22:00,1,0,0,0,0,2,1,0,1
00:23:00,1,1,1,1,0,1,1,1,1
00:24:00,0,0,0,0,0,1,0,0,0
00:25:00,1,0,0,0,0,3,3,0,1
00:26:00,1,0,0,0,0,1,2,0,1
00:27:00,2,0,0,1,1,1,5,1,1
00:28:00,0,0,0,0,0,1,3,0,1
00:29:00,0,1,0,2,0,1,0,1,1
00:30:00,1,0,0,1,3,0,1,1,1
00:31:00,0,1,0,1,0,0,0,0,0
00:32:00,3,1,1,0,0,3,2,1,1
00:33:00,0,0,0,1,2,1,1,1,1
00:34:00,0,1,0,1,0,0,1,0,0
00:35:00,1,1,0,0,2,0,3,1,1
00:36:00,0,1,0,0,3,1,2,1,1
00:37:00,0,1,1,1,2,0,3,1,1
00:38:00,1,0,2,0,0,0,0,1,0
00:39:00,1,0,0,0,0,0,3,0,1
00:40:00,1,0,0,2,0,1,1,1,1
00:41:00,0,1,0,3,0,3,2,1,1
00:42:00,1,1,2,0,3,0,0,1,1
00:43:00,1,2,0,1,0,1,2,1,1
00:44:00,1,0,1,2,1,3,0,1,1
00:45:00,1,1,1,3,1,1,2,1,1
00:46:00,0,0,0,0,0,0,0,0,0
00:47:00,0,2,1,0,1,2,1,1,1
00:48:00,0,0,2,0,0,0,0,0,0
00:49:00,0,1,0,0,1,1,0,0,0
00:50:00,1,0,0,0,0,0,2,0,0
00:51:00,0,0,1,2,1,1,2,1,1
00:52:00,0,1,0,1,2,2,2,1,1
00:53:00,0,0,1,0,1,2,1,0,1
00:54:00,0,0,0,0,1,1,0,0,0
00:55:00,0,0,0,0,0,1,3,0,1
00:56:00,0,0,0,1,0,1,0,0,0
00:57:00,0,0,1,0,1,0,1,0,0
00:58:00,0,1,1,0,0,2,0,0,1
00:59:00,0,0,0,2,1,0,1,1,1
01:00:00,0,2,1,0,0,1,1,1,1
01:01:00,2,1,0,1,1,4,1,1,1
01:02:00,0,1,0,0,0,2,3,0,1
01:03:00,0,1,0,0,0,1,1,0,0
01:04:00,1,0,1,4,1,2,1,1,1
01:05:00,0,2,2,0,1,0,1,1,1
01:06:00,0,2,0,1,2,2,0,1,1
01:07:00,0,1,0,0,1,2,3,0,1
01:08:00,0,1,1,2,1,1,1,1,1
01:09:00,1,0,1,1,1,1,1,1,1
01:10:00,0,1,0,1,3,0,3,1,1
01:11:00,1,0,1,0,0,0,1,0,0
01:12:00,0,0,0,0,0,3,3,0,1
01:13:00,1,1,1,0,0,0,2,1,1
01:14:00,0,0,0,0,1,2,1,0,1
01:15:00,0,0,0,0,2,3,1,0,1
01:16:00,0,1,0,0,1,1,2,0,1
01:17:00,1,1,1,1,0,0,1,1,1
01:18:00,1,0,0,1,0,0,0,0,0
01:19:00,0,0,0,1,0,2,1,0,1
01:20:00,0,1,1,0,2,0,0,1,1
01:21:00,0,0,2,0,1,1,2,1,1
01:22:00,1,2,0,1,0,2,1,1,1
01:23:00,0,1,0,0,0,1,0,0,0
01:24:00,0,0,0,0,1,1,1,0,0
01:25:00,0,1,1,0,0,0,1,0,0
01:26:00,0,5,0,0,1,1,1,1,1
01:27:00,0,0,0,0,1,0,1,0,0
01:28:00,0,0,0,4,0,0,0,1,1
01:29:00,0,0,0,2,0,1,0,0,0
01:30:00,0,1,1,0,0,0,2,0,1
01:31:00,0,1,0,0,1,0,1,0,0
01:32:00,0,0,0,1,0,2,3,0,1
01:33:00,1,1,2,0,1,0,1,1,1
01:34:00,0,0,0,0,1,3,2,0,1
01:35:00,0,0,0,0,1,1,1,0,0
01:36:00,0,1,1,1,3,0,1,1,1
01:37:00,0,0,0,1,1,1,1,0,1
01:38:00,0,2,1,0,0,2,1,1,1
01:39:00,0,0,4,1,1,0,2,1,1
01:40:00,0,0,0,0,0,0,2,0,0
01:41:00,1,1,0,0,2,0,1,1,1
01:42:00,0,0,0,1,1,0,0,0,0
01:43:00,1,0,0,0,1,0,1,0,0
01:44:00,0,0,1,0,0,0,0,0,0
01:45:00,0,2,0,0,0,1,1,0,1
01:46:00,0,0,0,0,0,2,1,0,0
01:47:00,2,0,0,0,0,2,1,0,1
01:48:00,0,0,1,0,2,1,0,1,1
01:49:00,0,0,1,0,1,0,1,0,0
01:50:00,1,0,0,0,0,1,0,0,0
01:51:00,0,0,0,0,0,0,1,0,0
01:52:00,0,2,1,0,1,0,0,1,1
01:53:00,1,0,0,0,0,1,0,0,0
01:54:00,0,0,1,1,0,0,2,0,1
01:55:00,1,0,0,0,1,1,1,0,1
01:56:00,0,0,0,0,0,1,0,0,0
01:57:00,1,0,1,0,0,1,1,0,1
01:58:00,0,0,1,0,0,2,2,0,1
01:59:00,0,0,2,0,0,0,0,0,0
02:00:00,0,0,0,0,1,0,3,0,1
02:01:00,0,2,1,0,0,0,0,1,0
02:02:00,0,0,0,0,0,1,0,0,0
02:03:00,1,0,1,0,0,1,0,0,0
02:04:00,2,0,0,1,0,0,2,1,1
02:05:00,0,0,1,1,3,1,0,1,1
02:06:00,1,0,1,0,0,0,2,0,1
02:07:00,1,0,0,0,0,1,1,0,0
02:08:00,0,0,0,2,0,0,0,0,0
02:09:00,0,0,1,1,0,0,2,0,1
02:10:00,1,1,0,0,1,0,0,1,0
02:11:00,0,0,1,0,0,1,1,0,0
02:12:00,1,0,1,1,1,0,0,1,1
02:13:00,0,3,0,0,1,0,3,1,1
02:14:00,0,0,1,0,1,2,0,0,1
02:15:00,0,0,1,1,0,2,3,0,1
02:16:00,0,0,0,0,1,2,0,0,0
02:17:00,0,1,0,2,0,0,1,1,1
02:18:00,0,2,2,0,1,0,2,1,1
02:19:00,1,0,0,1,1,1,1,1,1
02:20:00,0,0,1,0,0,0,1,0,0
02:21:00,0,2,1,2,0,2,0,1,1
02:22:00,0,0,1,0,0,1,1,0,0
02:23:00,0,0,0,0,1,0,2,0,0
02:24:00,0,1,0,0,2,0,3,1,1
02:25:00,0,0,1,0,1,0,0,0,0
02:26:00,1,1,1,0,0,0,2,1,1
02:27:00,0,0,0,1,0,1,0,0,0
02:28:00,1,0,2,2,0,0,1,1,1
02:29:00,0,1,0,0,0,1,1,0,0
02:30:00,0,0,1,2,0,1,0,1,1
02:31:00,0,0,0,1,0,1,2,0,1
02:32:00,0,1,0,0,0,0,1,0,0
02:33:00,0,1,1,0,0,0,1,0,0
02:34:00,0,0,0,0,1,1,1,0,0
02:35:00,0,1,0,0,0,0,1,0,0
02:36:00,0,0,0,1,0,1,2,0,1
02:37:00,0,1,1,0,1,0,2,1,1
02:38:00,1,0,0,0,0,0,1,0,0
02:39:00,0,1,0,0,1,2,0,0,1
02:40:00,0,0,1,0,0,0,0,0,0
02:41:00,0,0,1,0,0,1,0,0,0
02:42:00,1,0,0,0,0,0,0,0,0
02:43:00,0,0,0,0,0,0,0,0,0
02:44:00,0,1,0,2,1,1,0,1,1
02:45:00,0,0,0,0,1,2,0,0,0
02:46:00,1,0,0,0,0,1,0,0,0
02:47:00,0,0,0,1,1,2,0,0,1
02:48:00,1,1,2,0,0,0,0,1,1
02:49:00,1,0,1,1,1,0,0,1,1
02:50:00,1,0,0,1,0,0,2,0,1
02:51:00,1,0,0,3,0,1,2,1,1
02:52:00,1,2,0,0,0,1,0,1,1
02:53:00,0,0,1,0,2,0,2,1,1
02:54:00,0,0,0,0,0,0,0,0,0
02:55:00,0,0,0,2,0,2,0,0,1
02:56:00,0,0,1,0,0,1,1,0,0
02:57:00,1,2,0,0,0,0,1,1,1
02:58:00,1,0,0,1,1,0,2,1,1
02:59:00,0,4,0,0,1,0,0,1,1
03:00:00,0,0,1,1,0,3,0,0,1
03:01:00,1,0,0,0,0,1,1,0,0
03:02:00,1,0,1,0,1,0,1,1,1
03:03:00,0,0,0,1,0,0,0,0,0
03:04:00,0,1,0,0,0,1,2,0,1
03:05:00,0,1,0,0,0,0,2,0,0
03:06:00,0,1,1,0,1,1,1,1,1
03:07:00,0,0,0,0,1,1,1,0,0
03:08:00,2,0,0,1,3,0,0,1,1
03:09:00,0,0,0,1,0,1,2,0,1
03:10:00,0,2,0,1,1,0,0,1,1
03:11:00,1,3,1,0,0,1,2,1,1
03:12:00,1,0,0,0,0,0,1,0,0
03:13:00,2,1,0,1,0,0,1,1,1
03:14:00,0,0,1,1,1,0,0,1,0
03:15:00,1,2,0,1,0,0,1,1,1
03:16:00,0,0,0,1,0,1,0,0,0
03:17:00,0,0,0,1,0,0,0,0,0
03:18:00,0,1,0,0,3,0,1,1,1
03:19:00,1,1,1,0,1,1,1,1,1
03:20:00,0,0,2,0,0,0,1,0,0
03:21:00,0,0,0,2,1,0,0,1,0
03:22:00,0,1,1,0,0,1,0,0,0
03:23:00,0,2,1,1,1,1,1,1,1
03:24:00,1,0,1,0,0,0,0,0,0
03:25:00,2,0,0,2,1,0,0,1,1
03:26:00,0,0,1,1,1,0,1,1,1
03:27:00,0,0,1,0,0,1,0,0,0
03:28:00,1,0,1,0,0,0,1,0,0
03:29:00,1,0,0,0,0,0,1,0,0
03:30:00,0,0,0,1,0,1,1,0,0
03:31:00,0,2,1,1,0,0,0,1,1
03:32:00,1,1,2,0,0,0,1,1,1
03:33:00,0,1,0,0,1,1,1,0,1
03:34:00,1,0,1,1,2,1,2,1,1
03:35:00,1,1,0,1,0,0,0,1,0
03:36:00,0,1,2,1,1,0,0,1,1
03:37:00,0,0,1,3,0,0,0,1,1
03:38:00,2,0,0,0,0,1,0,0,0
03:39:00,2,0,0,0,2,2,0,1,1
03:40:00,0,0,0,0,1,0,2,0,0
03:41:00,2,0,0,0,0,1,0,0,0
03:42:00,2,0,0,2,1,1,0,1,1
03:43:00,1,0,0,0,1,0,1,0,0
03:44:00,0,0,0,0,3,2,1,1,1
03:45:00,0,1,0,1,0,0,1,0,0
03:46:00,1,2,0,1,0,1,0,1,1
03:47:00,0,1,0,1,1,1,2,1,1
03:48:00,2,0,3,0,0,0,3,1,1
03:49:00,1,0,2,0,1,1,3,1,1
03:50:00,1,3,0,0,1,1,0,1,1
03:51:00,3,0,0,1,0,0,0,1,1
03:52:00,1,0,2,2,1,0,1,1,1
03:53:00,1,1,1,1,2,0,0,1,1
03:54:00,0,2,0,1,0,0,0,1,0
03:55:00,0,1,0,3,2,1,0,1,1
03:56:00,1,0,0,1,1,0,0,1,0
03:57:00,2,2,2,2,1,2,1,2,2
03:58:00,0,0,1,1,0,0,0,0,0
03:59:00,0,0,2,1,2,1,0,1,1
04:00:00,0,2,0,0,1,0,0,1,0
04:01:00,0,2,4,0,0,0,0,1,1
04:02:00,2,0,0,1,3,1,2,1,1
04:03:00,0,0,0,1,1,2,0,0,1
04:04:00,2,0,0,2,2,1,1,1,1
04:05:00,1,0,0,1,0,0,0,0,0
04:06:00,0,0,0,2,0,0,0,0,0
04:07:00,2,1,1,0,1,0,1,1,1
04:08:00,1,0,0,1,1,0,0,1,0
04:09:00,0,1,1,1,0,0,1,1,1
04:10:00,0,1,2,0,0,1,0,1,1
04:11:00,1,0,0,0,3,2,1,1,1
04:12:00,1,0,0,1,0,1,0,0,0
04:13:00,1,0,2,0,0,0,1,1,1
04:14:00,0,0,4,2,3,2,0,2,2
04:15:00,1,0,0,0,3,0,0,1,1
04:16:00,0,3,1,3,3,1,0,2,2
04:17:00,2,1,2,2,1,1,0,2,1
04:18:00,2,0,2,0,1,1,1,1,1
04:19:00,1,0,0,2,2,1,0,1,1
04:20:00,0,1,1,0,0,1,2,0,1
04:21:00,0,0,5,0,1,0,0,1,1
04:22:00,1,2,0,4,2,0,0,2,1
04:23:00,1,1,1,5,2,0,0,2,1
04:24:00,1,1,1,0,5,2,1,2,2
04:25:00,4,0,0,1,1,1,0,1,1
04:26:00,0,1,3,2,2,1,1,2,1
04:27:00,2,1,0,2,0,0,0,1,1
04:28:00,1,5,0,0,0,1,1,1,1
04:29:00,2,2,1,0,3,1,2,2,2
04:30:00,0,1,0,1,1,2,0,1,1
04:31:00,4,0,0,1,2,1,0,1,1
04:32:00,0,1,2,0,0,1,0,1,1
04:33:00,4,3,0,0,2,2,1,2,2
04:34:00,1,1,2,2,0,1,0,1,1
04:35:00,1,1,2,5,0,4,1,2,2
04:36:00,1,0,4,1,0,3,1,1,1
04:37:00,2,0,5,2,2,0,1,2,2
04:38:00,0,0,2,1,3,1,0,1,1
04:39:00,0,4,2,4,4,1,2,3,2
04:40:00,2,1,2,2,1,2,1,2,2
04:41:00,2,4,1,2,0,0,1,2,1
04:42:00,3,0,1,1,0,0,1,1,1
04:43:00,0,1,1,1,1,0,3,1,1
04:44:00,1,1,1,1,1,1,0,1,1
04:45:00,3,1,2,0,0,3,0,1,1
04:46:00,1,0,0,3,3,1,0,1,1
04:47:00,1,1,0,0,2,0,0,1,1
04:48:00,1,3,1,1,4,0,0,2,1
04:49:00,3,1,2,0,2,2,0,2,1
04:50:00,0,1,2,0,2,1,0,1,1
04:51:00,1,2,4,0,1,1,0,2,1
04:52:00,4,1,1,0,1,0,1,1,1
04:53:00,0,0,0,2,0,1,2,0,1
04:54:00,4,0,1,0,2,0,0,1,1
04:55:00,2,3,2,2,3,0,1,2,2
04:56:00,2,0,3,0,1,1,1,1,1
04:57:00,2,2,1,3,3,1,0,2,2
04:58:00,0,1,1,4,2,1,0,2,1
04:59:00,4,0,0,0,0,1,2,1,1
05:00:00,3,1,1,2,0,2,1,1,1
05:01:00,2,1,1,0,0,1,2,1,1
05:02:00,4,3,1,3,1,1,1,2,2
05:03:00,3,2,2,4,1,1,1,2,2
05:04:00,4,1,4,0,3,2,0,2,2
05:05:00,4,1,0,3,0,1,2,2,2
05:06:00,0,2,2,4,1,1,3,2,2
05:07:00,1,2,1,2,0,4,1,1,2
05:08:00,1,0,0,2,3,1,1,1,1
05:09:00,2,2,1,3,1,2,1,2,2
05:10:00,4,2,2,3,2,0,1,3,2
05:11:00,3,3,3,2,4,2,0,3,2
05:12:00,3,1,2,5,0,2,2,2,2
05:13:00,4,2,4,3,2,2,3,3,3
05:14:00,3,0,5,4,5,3,1,3,3
05:15:00,2,6,2,3,1,1,1,3,2
05:16:00,3,4,4,0,0,5,0,2,2
05:17:00,3,2,2,6,1,1,2,3,2
05:18:00,1,5,2,5,3,1,0,3,2
05:19:00,2,0,4,4,2,0,0,2,2
05:20:00,2,6,6,3,2,1,1,4,3
05:21:00,4,6,5,6,0,0,2,4,3
05:22:00,1,2,4,3,3,0,0,3,2
05:23:00,2,7,4,3,3,3,0,4,3
05:24:00,6,4,6,3,2,2,0,4,3
05:25:00,2,4,6,3,2,4,0,3,3
05:26:00,4,4,5,2,3,3,1,4,3
05:27:00,2,1,3,0,2,1,1,2,1
05:28:00,3,2,5,6,3,0,0,4,3
05:29:00,2,5,2,1,2,3,3,2,3
05:30:00,7,3,1,0,8,1,0,4,3
05:31:00,2,3,6,6,4,1,0,4,3
05:32:00,4,6,2,3,2,2,1,3,3
05:33:00,4,6,3,6,3,1,2,4,4
05:34:00,8,3,1,2,1,1,1,3,2
05:35:00,4,3,1,0,3,0,0,2,2
05:36:00,2,7,1,2,3,2,1,3,3
05:37:00,6,4,10,4,3,2,1,5,4
05:38:00,4,4,7,5,7,4,1,5,5
05:39:00,3,4,4,1,2,0,0,3,2
05:40:00,5,4,3,3,2,3,2,3,3
05:41:00,5,5,2,1,3,2,2,3,3
05:42:00,0,2,2,5,2,1,0,2,2
05:43:00,5,1,2,2,4,0,3,3,2
05:44:00,5,5,3,3,6,4,3,4,4
05:45:00,3,3,2,2,2,2,2,2,2
05:46:00,7,8,5,3,6,0,0,6,4
05:47:00,4,7,7,5,4,2,2,5,4
05:48:00,3,5,3,2,7,0,0,4,3
05:49:00,7,3,8,5,1,1,2,5,4
05:50:00,5,3,2,7,4,3,2,4,4
05:51:00,6,6,5,3,1,2,1,4,3
05:52:00,0,2,2,4,2,1,1,2,2
05:53:00,3,5,4,4,5,1,0,4,3
05:54:00,6,3,2,3,6,1,1,4,3
05:55:00,2,5,3,5,4,1,3,4,3
05:56:00,3,3,6,7,4,2,0,5,4
05:57:00,4,5,2,3,3,2,0,3,3
05:58:00,7,5,3,4,1,3,3,4,4
05:59:00,5,4,6,9,3,0,0,5,4
06:00:00,5,2,5,9,4,5,2,5,5
06:01:00,7,5,4,5,4,1,2,5,4
06:02:00,5,2,3,3,5,3,2,4,3
06:03:00,7,3,3,5,5,3,2,5,4
06:04:00,4,5,3,2,6,0,2,4,3
06:05:00,4,1,7,6,5,2,5,5,4
06:06:00,3,8,3,4,5,2,1,5,4
06:07:00,10,5,10,2,1,4,3,6,5
06:08:00,5,8,4,8,2,2,3,5,5
06:09:00,5,9,7,6,6,1,1,7,5
06:10:00,2,6,5,8,7,2,2,6,5
06:11:00,4,5,8,5,2,6,2,5,5
06:12:00,3,2,6,6,0,0,1,3,3
06:13:00,2,7,5,8,7,2,0,6,4
06:14:00,1,3,4,3,5,3,2,3,3
06:15:00,9,5,3,7,6,2,1,6,5
06:16:00,8,6,5,4,1,3,1,5,4
06:17:00,3,7,3,6,6,1,0,5,4
06:18:00,5,9,2,4,4,0,2,5,4
06:19:00,2,4,2,3,7,3,1,4,3
06:20:00,6,5,6,10,8,2,0,7,5
06:21:00,3,6,5,4,10,2,0,6,4
06:22:00,7,4,5,7,6,3,3,6,5
06:23:00,2,7,6,3,2,2,0,4,3
06:24:00,4,3,4,2,7,4,0,4,3
06:25:00,3,7,3,5,10,1,2,6,4
06:26:00,7,5,4,5,2,2,1,5,4
06:27:00,8,8,7,3,5,3,0,6,5
06:28:00,7,8,5,6,3,5,1,6,5
06:29:00,3,2,8,3,4,2,3,4,4
06:30:00,4,9,5,3,2,2,1,5,4
06:31:00,7,3,6,5,4,1,2,5,4
06:32:00,3,9,9,3,5,5,1,6,5
06:33:00,7,4,2,6,7,2,4,5,5
06:34:00,7,6,8,7,6,3,2,7,6
06:35:00,5,6,11,4,5,3,3,6,5
06:36:00,3,1,6,8,6,4,4,5,5
06:37:00,4,8,3,7,9,3,3,6,5
06:38:00,3,10,7,3,8,2,1,6,5
06:39:00,3,8,6,6,4,2,2,5,4
06:40:00,12,7,6,5,10,4,0,8,6
06:41:00,3,7,8,5,4,2,4,5,5
06:42:00,7,3,5,5,3,2,3,5,4
06:43:00,7,8,9,8,4,7,0,7,6
06:44:00,9,6,4,5,3,3,3,5,5
06:45:00,6,12,5,9,11,0,0,9,6
06:46:00,4,5,8,3,7,2,1,5,4
06:47:00,2,9,5,9,8,4,0,7,5
06:48:00,10,5,2,10,7,2,0,7,5
06:49:00,6,10,9,2,3,2,0,6,5
06:50:00,7,8,10,7,7,4,1,8,6
06:51:00,7,8,3,7,3,1,2,6,4
06:52:00,4,4,6,5,7,1,2,5,4
06:53:00,2,8,9,5,6,2,0,6,5
06:54:00,5,12,3,7,5,5,3,6,6
06:55:00,6,9,5,6,6,0,3,6,5
06:56:00,4,6,7,2,3,3,2,4,4
06:57:00,7,8,5,9,4,0,3,7,5
06:58:00,8,7,6,10,4,2,1,7,5
06:59:00,9,8,9,8,7,5,4,8,7
07:00:00,5,10,3,7,4,3,3,6,5
07:01:00,6,7,6,6,6,2,3,6,5
07:02:00,4,5,5,10,5,5,1,6,5
07:03:00,5,12,4,5,8,4,1,7,6
07:04:00,5,10,7,6,9,6,6,7,7
07:05:00,4,4,7,7,5,2,0,5,4
07:06:00,5,6,5,8,6,4,3,6,5
07:07:00,4,7,3,3,6,3,2,5,4
07:08:00,4,8,6,10,4,2,1,6,5
07:09:00,4,10,7,11,11,5,2,9,7
07:10:00,8,6,5,5,5,1,3,6,5
07:11:00,7,8,8,5,6,3,2,7,6
07:12:00,6,11,3,7,10,5,3,7,6
07:13:00,10,6,8,4,4,3,1,6,5
07:14:00,12,6,4,7,4,2,2,7,5
07:15:00,10,8,8,6,4,4,0,7,6
07:16:00,5,10,7,5,5,4,0,6,5
07:17:00,8,10,8,4,1,3,1,6,5
07:18:00,11,5,10,10,7,4,1,9,7
07:19:00,5,11,8,12,4,5,1,8,7
07:20:00,5,13,6,5,12,4,2,8,7
07:21:00,5,3,1,11,9,2,0,6,4
07:22:00,8,11,5,5,6,2,2,7,6
07:23:00,8,8,13,7,4,1,0,8,6
07:24:00,3,8,4,5,8,3,2,6,5
07:25:00,10,8,8,7,3,4,3,7,6
07:26:00,3,5,6,10,6,3,2,6,5
07:27:00,10,6,6,3,4,5,3,6,5
07:28:00,6,11,6,5,8,5,1,7,6
07:29:00,6,7,3,7,10,4,3,7,6
07:30:00,9,8,7,9,5,6,3,8,7
07:31:00,6,10,4,5,7,4,4,6,6
07:32:00,2,10,7,7,5,2,5,6,5
07:33:00,5,5,7,9,7,3,4,7,6
07:34:00,10,6,7,5,6,4,3,7,6
07:35:00,11,2,4,9,9,4,2,7,6
07:36:00,7,9,8,9,6,4,3,8,7
07:37:00,7,8,5,6,9,6,2,7,6
07:38:00,7,5,13,5,6,1,2,7,6
07:39:00,4,6,9,10,12,5,1,8,7
07:40:00,10,7,5,7,3,0,1,6,5
07:41:00,5,7,8,4,8,5,4,6,6
07:42:00,9,8,2,10,8,2,1,7,6
07:43:00,5,4,7,8,12,2,2,7,6
07:44:00,5,7,8,6,7,2,2,7,5
07:45:00,7,7,7,4,8,6,8,7,7
07:46:00,7,15,7,7,4,5,2,8,7
07:47:00,9,9,3,5,5,2,4,6,5
07:48:00,9,7,7,5,3,6,3,6,6
07:49:00,4,9,4,6,11,7,2,7,6
07:50:00,8,7,11,3,1,8,3,6,6
07:51:00,7,7,7,7,9,3,0,7,6
07:52:00,6,7,9,4,1,3,4,5,5
07:53:00,4,6,6,8,8,4,2,6,5
07:54:00,8,10,8,9,5,6,5,8,7
07:55:00,6,3,4,9,7,4,2,6,5
07:56:00,10,9,12,5,7,3,1,9,7
07:57:00,4,2,5,10,10,7,2,6,6
07:58:00,12,8,14,8,6,2,4,10,8
07:59:00,2,14,6,6,8,4,0,7,6
08:00:00,10,11,6,8,6,1,3,8,6
08:01:00,4,5,10,7,7,7,4,7,6
08:02:00,4,2,9,8,5,0,2,6,4
08:03:00,3,3,9,11,7,4,0,7,5
08:04:00,4,4,10,6,5,5,1,6,5
08:05:00,9,8,5,9,8,3,7,8,7
08:06:00,10,8,7,5,7,4,1,7,6
08:07:00,12,5,6,8,5,5,5,7,7
08:08:00,8,0,9,4,6,5,1,5,5
08:09:00,6,4,3,6,11,3,2,6,5
08:10:00,7,5,10,7,5,6,3,7,6
08:11:00,6,9,10,10,14,6,1,10,8
08:12:00,8,8,7,2,5,6,3,6,6
08:13:00,8,12,5,8,14,7,6,9,9
08:14:00,14,11,11,6,5,2,3,9,7
08:15:00,5,4,9,7,5,4,2,6,5
08:16:00,13,6,9,5,11,2,4,9,7
08:17:00,6,8,8,9,8,6,3,8,7
08:18:00,11,10,7,6,12,7,3,9,8
08:19:00,7,5,9,8,5,4,0,7,5
08:20:00,7,12,12,8,7,7,1,9,8
08:21:00,13,11,8,6,2,5,1,8,7
08:22:00,7,7,10,9,3,13,3,7,7
08:23:00,6,8,5,5,7,3,2,6,5
08:24:00,10,5,4,6,7,8,3,6,6
08:25:00,9,10,12,7,3,2,0,8,6
08:26:00,6,5,10,9,8,6,1,8,6
08:27:00,7,5,7,8,7,3,0,7,5
08:28:00,10,9,8,5,3,10,1,7,7
08:29:00,8,9,10,7,5,4,3,8,7
08:30:00,12,7,9,5,8,4,3,8,7
08:31:00,7,10,8,11,5,2,3,8,7
08:32:00,15,8,7,5,10,5,3,9,8
08:33:00,5,12,3,11,10,7,3,8,7
08:34:00,8,12,9,4,5,3,4,8,6
08:35:00,4,7,7,10,9,1,1,7,6
08:36:00,5,9,8,6,6,7,1,7,6
08:37:00,9,4,5,7,10,4,1,7,6
08:38:00,8,8,2,6,7,6,4,6,6
08:39:00,4,12,6,9,8,0,3,8,6
08:40:00,6,3,10,4,3,6,8,5,6
08:41:00,8,11,7,6,8,2,3,8,6
08:42:00,8,5,5,3,3,3,2,5,4
08:43:00,4,7,9,4,5,4,1,6,5
08:44:00,8,5,9,8,6,5,4,7,6
08:45:00,4,6,8,12,1,8,2,6,6
08:46:00,10,1,10,4,4,5,3,6,5
08:47:00,7,6,4,13,6,7,5,7,7
08:48:00,11,3,10,7,6,4,8,7,7
08:49:00,4,10,4,5,5,3,4,6,5
08:50:00,7,4,5,7,6,6,3,6,5
08:51:00,5,5,6,9,11,5,4,7,6
08:52:00,6,11,4,5,3,5,9,6,6
08:53:00,6,1,0,8,8,12,5,5,6
08:54:00,7,6,7,12,10,4,4,8,7
08:55:00,1,7,12,6,7,9,2,7,6
08:56:00,15,4,9,5,8,7,3,8,7
08:57:00,3,7,8,7,8,4,2,7,6
08:58:00,6,5,6,4,7,5,6,6,6
08:59:00,2,9,3,5,16,6,4,7,6
09:00:00,2,8,5,12,8,4,4,7,6
09:01:00,8,11,5,9,7,3,0,8,6
09:02:00,7,1,6,2,7,7,2,5,5
09:03:00,6,6,5,8,5,6,4,6,6
09:04:00,6,12,7,4,7,4,4,7,6
09:05:00,7,11,4,11,2,10,5,7,7
09:06:00,4,5,14,8,6,4,1,7,6
09:07:00,3,10,8,11,6,7,8,8,8
09:08:00,6,4,11,6,7,6,6,7,7
09:09:00,3,5,5,10,5,5,5,6,5
09:10:00,8,3,9,6,8,7,6,7,7
09:11:00,5,7,11,7,8,8,6,8,7
09:12:00,2,2,4,4,4,4,4,3,3
09:13:00,2,7,4,11,13,8,3,7,7
09:14:00,3,11,14,4,10,8,4,8,8
09:15:00,3,7,6,9,7,7,7,6,7
09:16:00,4,4,9,7,7,5,10,6,7
09:17:00,6,7,1,8,4,10,4,5,6
09:18:00,13,6,9,4,9,12,6,8,8
09:19:00,2,8,6,8,10,6,5,7,6
09:20:00,6,2,13,5,9,5,7,7,7
09:21:00,2,10,5,8,5,10,5,6,6
09:22:00,6,5,8,4,10,6,5,7,6
09:23:00,0,15,3,11,7,5,8,7,7
09:24:00,9,2,8,3,11,6,5,7,6
09:25:00,2,9,8,9,13,6,6,8,8
09:26:00,4,5,6,7,6,5,8,6,6
09:27:00,4,5,4,5,7,15,4,5,6
09:28:00,6,2,5,5,10,4,11,6,6
09:29:00,5,10,4,11,3,9,8,7,7
09:30:00,7,7,5,10,12,7,5,8,8
09:31:00,1,3,6,15,4,10,6,6,6
09:32:00,3,9,4,6,5,3,5,5,5
09:33:00,5,2,11,8,7,11,8,7,7
09:34:00,8,5,7,4,9,8,4,7,6
09:35:00,7,11,4,7,6,13,7,7,8
09:36:00,8,12,7,1,10,11,1,8,7
09:37:00,4,11,6,7,4,3,10,6,6
09:38:00,14,5,10,8,9,10,7,9,9
09:39:00,1,10,4,8,6,9,5,6,6
09:40:00,8,6,10,6,14,6,0,9,7
09:41:00,7,9,8,14,9,7,8,9,9
09:42:00,4,8,10,5,9,6,7,7,7
09:43:00,6,5,1,7,10,10,7,6,7
09:44:00,7,8,11,5,9,7,4,8,7
09:45:00,4,5,5,10,11,7,8,7,7
09:46:00,3,7,9,1,6,9,5,5,6
09:47:00,9,14,7,8,10,8,9,10,9
09:48:00,6,2,5,3,3,11,2,4,5
09:49:00,7,8,10,6,6,10,5,7,7
09:50:00,5,4,7,7,3,10,6,5,6
09:51:00,3,16,7,7,8,9,4,8,8
09:52:00,4,5,9,6,14,13,7,8,8
09:53:00,6,9,8,13,8,7,7,9,8
09:54:00,11,2,15,7,6,12,2,8,8
09:55:00,5,7,6,6,9,3,9,7,6
09:56:00,6,9,11,5,5,9,5,7,7
09:57:00,9,10,6,11,7,13,3,9,8
09:58:00,7,5,8,5,10,8,9,7,7
09:59:00,11,9,5,8,3,5,10,7,7
10:00:00,9,12,10,7,14,10,7,10,10
10:01:00,9,6,8,10,10,6,5,9,8
10:02:00,6,12,4,6,6,13,9,7,8
10:03:00,12,3,10,11,9,3,6,9,8
10:04:00,4,10,2,12,12,10,5,8,8
10:05:00,8,6,13,6,10,7,8,9,8
10:06:00,6,3,9,6,8,11,3,6,7
10:07:00,2,10,9,13,8,8,5,8,8
10:08:00,9,7,7,5,9,9,8,7,8
10:09:00,10,6,10,3,2,6,11,6,7
10:10:00,9,10,7,9,16,10,12,10,10
10:11:00,6,5,8,8,5,3,6,6,6
10:12:00,7,14,10,11,12,6,5,11,9
10:13:00,10,10,15,5,9,15,6,10,10
10:14:00,5,10,7,15,6,9,8,9,9
10:15:00,13,12,10,9,4,7,10,10,9
10:16:00,9,4,6,9,11,8,4,8,7
10:17:00,7,9,15,5,4,2,10,8,7
10:18:00,8,2,8,5,7,17,5,6,7
10:19:00,7,6,14,8,8,10,12,9,9
10:20:00,4,10,10,8,10,7,8,8,8
10:21:00,8,11,12,3,8,6,5,8,8
10:22:00,6,8,2,7,9,11,10,6,8
10:23:00,12,6,12,4,13,8,3,9,8
10:24:00,7,10,6,8,10,16,11,8,10
10:25:00,9,5,14,9,4,12,3,8,8
10:26:00,7,8,7,7,8,11,7,7,8
10:27:00,12,5,11,5,4,9,12,7,8
10:28:00,11,10,7,6,9,9,8,9,9
10:29:00,7,6,8,2,5,4,9,6,6
10:30:00,12,8,9,12,9,12,10,10,10
10:31:00,3,6,8,5,11,10,6,7,7
10:32:00,9,16,8,7,9,8,8,10,9
10:33:00,3,11,5,7,4,6,9,6,6
10:34:00,7,13,8,8,14,10,6,10,9
10:35:00,9,9,10,7,7,7,10,8,8
10:36:00,9,16,6,11,7,11,5,10,9
10:37:00,7,3,6,9,7,12,7,6,7
10:38:00,9,8,11,6,7,12,8,8,9
10:39:00,10,8,5,10,2,5,7,7,7
10:40:00,7,13,14,6,13,6,8,11,10
10:41:00,4,5,10,3,13,5,7,7,7
10:42:00,12,8,4,13,8,8,9,9,9
10:43:00,9,9,8,9,5,6,9,8,8
10:44:00,7,12,6,6,5,12,12,7,9
10:45:00,10,6,5,9,7,8,8,7,8
10:46:00,12,8,4,3,9,10,12,7,8
10:47:00,4,4,15,12,7,4,10,8,8
10:48:00,8,15,4,10,11,12,9,10,10
10:49:00,6,7,10,7,9,13,10,8,9
10:50:00,11,12,6,8,13,11,6,10,10
10:51:00,6,7,11,8,9,8,10,8,8
10:52:00,9,6,4,10,9,11,14,8,9
10:53:00,6,12,6,12,5,10,8,8,8
10:54:00,14,11,9,5,9,11,7,10,9
10:55:00,7,8,12,5,3,14,13,7,9
10:56:00,4,12,7,12,11,6,7,9,8
10:57:00,5,3,9,6,7,14,15,6,8
10:58:00,7,12,4,12,15,10,9,10,10
10:59:00,5,4,15,12,6,7,7,8,8
11:00:00,10,11,7,9,7,11,7,9,9
11:01:00,3,8,15,7,3,6,7,7,7
11:02:00,12,8,8,11,11,10,13,10,10
11:03:00,6,12,11,4,11,11,13,9,10
11:04:00,8,12,6,5,8,6,10,8,8
11:05:00,9,7,9,8,6,12,14,8,9
11:06:00,10,7,5,6,7,8,7,7,7
11:07:00,3,10,11,10,7,14,19,8,11
11:08:00,7,15,7,8,11,5,9,10,9
11:09:00,11,7,13,9,4,14,12,9,10
11:10:00,7,4,9,7,12,12,5,8,8
11:11:00,6,12,11,7,6,11,11,8,9
11:12:00,11,12,4,4,11,13,2,8,8
11:13:00,7,12,14,13,8,8,9,11,10
11:14:00,15,8,7,6,7,13,6,9,9
11:15:00,3,10,15,6,6,8,8,8,8
11:16:00,13,13,8,12,11,5,10,11,10
11:17:00,9,5,13,14,5,15,11,9,10
11:18:00,6,12,5,8,8,5,10,8,8
11:19:00,10,9,8,7,13,17,11,9,11
11:20:00,11,11,8,15,13,10,10,12,11
11:21:00,10,3,13,7,4,11,11,7,8
11:22:00,15,11,8,6,9,8,12,10,10
11:23:00,2,2,9,8,10,10,8,6,7
11:24:00,6,13,8,10,12,12,4,10,9
11:25:00,8,5,7,8,4,8,12,6,7
11:26:00,12,5,6,10,8,8,9,8,8
11:27:00,8,11,10,8,8,11,13,9,10
11:28:00,7,10,2,17,10,10,6,9,9
11:29:00,5,14,6,9,7,12,7,8,9
11:30:00,8,8,7,9,7,7,9,8,8
11:31:00,6,7,14,3,4,11,9,7,8
11:32:00,9,8,5,9,9,8,10,8,8
11:33:00,9,11,12,6,9,11,9,9,10
11:34:00,12,6,9,9,7,5,4,9,7
11:35:00,9,11,10,14,14,9,13,12,11
11:36:00,16,11,8,6,11,12,6,10,10
11:37:00,5,5,10,6,8,8,10,7,7
11:38:00,6,11,8,11,9,6,5,9,8
11:39:00,9,12,11,1,13,11,7,9,9
11:40:00,10,6,8,15,10,10,14,10,10
11:41:00,7,10,8,5,6,12,9,7,8
11:42:00,11,9,5,7,5,8,12,7,8
11:43:00,8,11,10,5,2,12,8,7,8
11:44:00,12,8,10,11,11,12,8,10,10
11:45:00,10,10,9,6,12,3,8,9,8
11:46:00,13,16,4,10,12,8,9,11,10
11:47:00,13,9,10,8,4,13,11,9,10
11:48:00,4,15,10,10,13,12,9,10,10
11:49:00,12,6,8,7,10,14,14,9,10
11:50:00,3,12,8,10,7,5,9,8,8
11:51:00,12,6,11,9,10,9,5,10,9
11:52:00,8,7,9,13,9,12,14,9,10
11:53:00,10,16,22,7,5,14,6,12,11
11:54:00,10,16,8,8,4,6,12,9,9
11:55:00,16,9,9,6,10,14,9,10,10
11:56:00,7,9,12,11,6,2,6,9,8
11:57:00,8,9,9,5,4,9,7,7,7
11:58:00,6,9,5,17,8,8,7,9,9
11:59:00,15,11,9,6,11,10,11,10,10
12:00:00,5,13,6,16,5,4,8,9,8
12:01:00,11,9,9,7,13,10,10,10,10
12:02:00,6,6,3,18,13,6,6,9,8
12:03:00,9,12,12,8,11,12,5,10,10
12:04:00,9,14,6,12,7,6,19,10,10
12:05:00,11,12,8,11,10,10,11,10,10
12:06:00,7,9,13,10,10,6,13,10,10
12:07:00,12,13,14,5,14,4,7,12,10
12:08:00,10,4,5,11,11,12,11,8,9
12:09:00,14,12,9,6,7,13,16,10,11
12:10:00,12,7,8,9,7,11,10,9,9
12:11:00,8,3,9,6,8,8,11,7,8
12:12:00,8,12,8,9,6,7,10,9,9
12:13:00,13,11,13,6,6,10,8,10,10
12:14:00,11,11,8,13,13,9,12,11,11
12:15:00,10,14,6,7,7,10,11,9,9
12:16:00,8,14,10,10,11,6,13,11,10
12:17:00,10,14,6,9,11,8,13,10,10
12:18:00,6,11,13,8,13,6,11,10,10
12:19:00,6,10,11,7,6,11,7,8,8
12:20:00,7,7,10,16,7,8,7,9,9
12:21:00,14,10,12,8,4,11,13,10,10
12:22:00,7,8,11,15,8,7,14,10,10
12:23:00,14,11,9,7,15,16,11,11,12
12:24:00,8,12,9,5,12,11,11,9,10
12:25:00,9,12,10,16,15,10,8,12,11
12:26:00,6,9,6,12,6,4,17,8,9
12:27:00,12,16,11,9,14,8,10,12,11
12:28:00,6,11,8,8,5,10,11,8,8
12:29:00,14,9,9,16,15,9,4,13,11
12:30:00,3,11,10,18,13,11,15,11,12
12:31:00,9,12,6,13,8,11,10,10,10
12:32:00,4,7,10,10,10,7,12,8,9
12:33:00,11,15,9,10,14,11,14,12,12
12:34:00,10,8,15,17,8,10,13,12,12
12:35:00,10,8,11,10,18,12,11,11,11
12:36:00,4,5,7,12,10,4,10,8,7
12:37:00,13,11,7,5,7,14,6,9,9
12:38:00,8,8,12,13,10,8,11,10,10
12:39:00,7,12,10,16,9,9,8,11,10
12:40:00,13,9,13,7,9,5,12,10,10
12:41:00,9,14,8,8,11,9,11,10,10
12:42:00,4,11,7,7,6,6,10,7,7
12:43:00,8,7,13,7,12,7,5,9,8
12:44:00,6,6,8,7,14,5,9,8,8
12:45:00,14,17,11,13,11,9,13,13,13
12:46:00,5,7,11,8,12,8,7,9,8
12:47:00,15,15,7,5,7,5,11,10,9
12:48:00,7,5,10,5,11,5,9,8,7
12:49:00,8,3,8,12,13,5,14,9,9
12:50:00,11,8,12,12,12,10,7,11,10
12:51:00,13,13,9,12,10,10,4,11,10
12:52:00,7,7,14,9,10,9,15,9,10
12:53:00,8,11,15,13,13,10,10,12,11
12:54:00,5,15,9,7,9,5,11,9,9
12:55:00,13,9,10,7,12,16,6,10,10
12:56:00,5,7,11,13,10,10,6,9,9
12:57:00,11,14,8,9,15,4,2,11,9
12:58:00,10,5,5,10,7,8,14,7,8
12:59:00,8,12,11,8,18,6,7,11,10
13:00:00,13,2,9,9,15,6,15,10,10
13:01:00,14,11,13,15,10,15,5,13,12
13:02:00,17,11,9,9,12,10,13,12,12
13:03:00,12,10,12,11,14,9,8,12,11
13:04:00,13,6,13,16,9,10,10,11,11
13:05:00,9,9,10,11,10,11,5,10,9
13:06:00,6,10,12,9,11,10,16,10,11
13:07:00,12,9,11,8,19,9,4,12,10
13:08:00,10,5,6,7,2,13,10,6,8
13:09:00,13,13,5,13,14,9,2,12,10
13:10:00,4,10,10,12,4,4,12,8,8
13:11:00,8,10,5,10,15,15,7,10,10
13:12:00,10,10,15,7,7,6,7,10,9
13:13:00,5,14,3,9,5,12,9,7,8
13:14:00,7,2,3,13,5,11,11,6,7
13:15:00,15,5,14,7,8,12,1,10,9
13:16:00,8,13,10,8,8,5,12,9,9
13:17:00,10,7,5,14,13,13,14,10,11
13:18:00,7,5,9,8,4,6,15,7,8
13:19:00,9,9,7,14,13,6,5,10,9
13:20:00,14,4,7,12,5,6,12,8,9
13:21:00,9,18,8,11,18,9,11,13,12
13:22:00,14,5,9,6,7,9,9,8,8
13:23:00,12,11,9,11,13,14,8,11,11
13:24:00,12,0,9,7,3,7,11,6,7
13:25:00,8,6,9,16,16,11,10,11,11
13:26:00,4,11,18,3,8,9,12,9,9
13:27:00,11,9,9,11,8,10,9,10,10
13:28:00,9,6,12,9,11,11,8,9,9
13:29:00,5,6,5,14,13,11,10,9,9
13:30:00,5,6,15,10,12,6,16,10,10
13:31:00,14,8,6,9,10,8,2,9,8
13:32:00,5,7,8,7,8,18,5,7,8
13:33:00,9,11,15,16,16,4,12,13,12
13:34:00,4,8,8,3,6,12,12,6,8
13:35:00,16,7,11,12,16,4,8,12,11
13:36:00,3,10,9,9,11,11,9,8,9
13:37:00,9,14,6,9,13,7,11,10,10
13:38:00,7,4,10,5,9,6,11,7,7
13:39:00,18,10,6,13,10,6,9,11,10
13:40:00,7,13,10,7,6,14,10,9,10
13:41:00,11,12,7,10,12,9,8,10,10
13:42:00,9,10,9,5,10,7,15,9,9
13:43:00,11,9,4,9,17,7,5,10,9
13:44:00,5,6,10,12,11,10,16,9,10
13:45:00,7,11,9,10,5,10,8,8,9
13:46:00,7,8,12,4,10,10,6,8,8
13:47:00,9,9,8,18,16,6,10,12,11
13:48:00,9,3,12,9,8,7,14,8,9
13:49:00,6,12,4,13,10,8,6,9,8
13:50:00,15,7,6,7,11,5,13,9,9
13:51:00,11,9,8,10,9,8,2,9,8
13:52:00,9,14,9,3,6,12,14,8,10
13:53:00,11,7,10,9,10,13,8,9,10
13:54:00,5,10,13,4,9,9,10,8,9
13:55:00,7,11,3,11,13,8,5,9,8
13:56:00,7,5,8,7,8,8,9,7,7
13:57:00,11,8,5,11,9,7,11,9,9
13:58:00,7,6,9,7,9,11,9,8,8
13:59:00,11,8,8,12,10,11,9,10,10
14:00:00,11,7,10,8,11,6,9,9,9
14:01:00,8,6,9,9,9,9,8,8,8
14:02:00,15,7,6,0,9,10,11,7,8
14:03:00,6,6,14,11,11,11,13,10,10
14:04:00,11,14,10,6,8,10,8,10,10
14:05:00,8,9,5,7,10,10,11,8,9
14:06:00,8,9,10,11,13,10,9,10,10
14:07:00,9,11,4,13,8,2,8,9,8
14:08:00,6,6,2,8,9,13,8,6,7
14:09:00,9,6,11,13,8,3,10,9,9
14:10:00,8,12,9,9,13,10,9,10,10
14:11:00,9,6,10,11,10,5,11,9,9
14:12:00,12,9,11,6,9,14,9,9,10
14:13:00,16,7,11,10,13,9,11,11,11
14:14:00,11,11,10,10,13,10,10,11,11
14:15:00,9,8,12,10,16,7,10,11,10
14:16:00,11,9,15,9,6,7,16,10,10
14:17:00,11,12,8,13,11,5,9,11,10
14:18:00,13,12,12,7,13,10,9,11,11
14:19:00,8,6,7,6,8,8,6,7,7
14:20:00,14,9,6,9,7,8,8,9,9
14:21:00,9,6,13,15,17,6,10,12,11
14:22:00,4,13,12,4,14,10,9,9,9
14:23:00,11,12,9,9,10,8,11,10,10
14:24:00,11,8,12,6,9,6,7,9,8
14:25:00,7,6,10,10,10,3,9,9,8
14:26:00,13,14,13,8,10,12,11,12,12
14:27:00,14,6,9,11,9,7,9,10,9
14:28:00,7,12,8,8,12,9,18,9,11
14:29:00,10,16,6,6,7,4,9,9,8
14:30:00,12,10,11,8,13,9,5,11,10
14:31:00,4,7,8,8,2,4,11,6,6
14:32:00,14,16,11,8,17,7,8,13,12
14:33:00,10,12,10,9,7,11,8,10,10
14:34:00,17,17,6,13,16,12,4,14,12
14:35:00,8,7,16,8,11,9,10,10,10
14:36:00,11,9,6,13,13,9,6,10,10
14:37:00,7,11,13,13,12,7,6,11,10
14:38:00,8,10,11,6,12,7,8,9,9
14:39:00,13,10,5,10,7,9,11,9,9
14:40:00,11,16,15,13,13,7,6,14,12
14:41:00,7,8,7,8,13,5,10,9,8
14:42:00,17,10,12,18,18,14,11,15,14
14:43:00,8,4,12,12,6,7,7,8,8
14:44:00,10,12,10,12,13,10,7,11,11
14:45:00,11,8,9,8,12,9,13,10,10
14:46:00,14,6,13,13,11,12,9,11,11
14:47:00,10,7,12,5,10,5,14,9,9
14:48:00,8,15,12,16,19,10,7,14,12
14:49:00,9,9,11,12,8,8,10,10,10
14:50:00,16,11,16,6,9,10,5,12,10
14:51:00,4,4,10,12,9,6,13,8,8
14:52:00,10,22,9,9,8,12,10,12,11
14:53:00,6,10,14,3,5,5,17,8,9
14:54:00,11,9,14,14,11,5,7,12,10
14:55:00,6,12,8,4,8,10,9,8,8
14:56:00,8,14,12,13,12,6,7,12,10
14:57:00,6,8,7,8,6,9,9,7,8
14:58:00,12,9,13,12,11,11,7,11,11
14:59:00,9,7,15,9,11,9,4,10,9
15:00:00,14,13,11,9,10,10,8,11,11
15:01:00,10,10,13,9,5,4,15,9,9
15:02:00,10,11,9,8,13,14,5,10,10
15:03:00,6,6,9,6,4,8,12,6,7
15:04:00,12,14,10,7,11,12,7,11,10
15:05:00,8,6,12,2,5,12,14,7,8
15:06:00,8,15,13,11,16,4,7,13,11
15:07:00,11,4,4,8,10,11,8,7,8
15:08:00,9,4,12,9,11,10,10,9,9
15:09:00,9,17,6,13,11,13,10,11,11
15:10:00,15,9,9,10,6,20,9,10,11
15:11:00,7,4,14,8,6,6,15,8,9
15:12:00,11,14,7,9,14,13,6,11,11
15:13:00,11,8,6,6,8,7,14,8,9
15:14:00,9,10,11,10,15,9,5,11,10
15:15:00,4,15,13,10,7,9,13,10,10
15:16:00,8,12,7,12,9,12,3,10,9
15:17:00,7,8,16,6,9,9,15,9,10
15:18:00,16,10,8,13,12,7,9,12,11
15:19:00,8,8,10,5,7,7,7,8,7
15:20:00,14,11,10,13,11,8,7,12,11
15:21:00,10,9,8,7,6,16,17,8,10
15:22:00,10,7,8,15,10,13,8,10,10
15:23:00,10,16,13,7,9,11,7,11,10
15:24:00,11,10,5,11,5,14,8,8,9
15:25:00,4,10,10,9,14,10,16,9,10
15:26:00,5,9,5,12,12,9,6,9,8
15:27:00,11,5,11,9,11,11,14,9,10
15:28:00,12,14,11,11,11,6,8,12,10
15:29:00,6,11,11,5,5,11,16,8,9
15:30:00,7,7,14,12,11,8,5,10,9
15:31:00,3,12,9,3,6,9,14,7,8
15:32:00,10,5,9,8,13,11,5,9,9
15:33:00,7,13,9,8,15,8,13,10,10
15:34:00,9,14,10,10,11,8,11,11,10
15:35:00,8,14,6,11,5,8,13,9,9
15:36:00,7,11,9,16,7,15,4,10,10
15:37:00,2,11,7,5,7,5,12,6,7
15:38:00,12,12,6,15,15,14,9,12,12
15:39:00,7,9,8,7,6,8,11,7,8
15:40:00,13,12,9,14,12,6,5,12,10
15:41:00,7,12,10,5,12,13,10,9,10
15:42:00,11,10,6,13,11,9,5,10,9
15:43:00,8,6,10,4,6,8,13,7,8
15:44:00,9,7,4,8,6,12,4,7,7
15:45:00,11,8,15,7,19,7,8,12,11
15:46:00,7,11,7,16,9,11,7,10,10
15:47:00,12,10,17,9,9,9,11,11,11
15:48:00,7,12,4,10,3,12,3,7,7
15:49:00,5,9,8,8,10,9,13,8,9
15:50:00,16,8,6,7,15,14,9,10,11
15:51:00,6,4,9,10,2,5,16,6,7
15:52:00,10,1,5,12,15,13,6,9,9
15:53:00,6,1,11,10,10,10,14,8,9
15:54:00,12,1,18,11,9,14,3,10,10
15:55:00,11,5,11,10,12,15,11,10,11
15:56:00,7,2,10,6,11,9,11,7,8
15:57:00,7,9,14,12,9,8,11,10,10
15:58:00,13,10,7,12,10,11,6,10,10
15:59:00,7,21,11,10,10,15,12,12,12
16:00:00,15,15,6,11,9,8,3,11,10
16:01:00,13,15,13,7,8,17,9,11,12
16:02:00,13,8,6,7,7,16,9,8,9
16:03:00,8,9,11,7,13,12,14,10,11
16:04:00,13,12,13,2,11,11,12,10,11
16:05:00,6,13,8,8,13,9,7,10,9
16:06:00,17,7,8,10,12,5,3,11,9
16:07:00,9,10,10,12,6,10,9,9,9
16:08:00,5,11,15,14,10,4,10,11,10
16:09:00,11,15,13,8,9,3,16,11,11
16:10:00,6,7,8,16,8,12,4,9,9
16:11:00,16,16,10,11,6,13,14,12,12
16:12:00,6,10,6,12,16,7,5,10,9
16:13:00,15,9,13,10,10,7,15,11,11
16:14:00,8,6,7,15,13,8,4,10,9
16:15:00,10,8,12,6,11,10,6,9,9
16:16:00,5,6,10,7,15,10,3,9,8
16:17:00,12,9,7,8,6,5,17,8,9
16:18:00,5,6,10,12,13,7,9,9,9
16:19:00,15,10,15,7,9,11,9,11,11
16:20:00,4,4,9,9,9,9,4,7,7
16:21:00,13,14,15,8,13,8,8,13,11
16:22:00,15,10,10,11,7,7,12,11,10
16:23:00,11,10,13,6,15,13,8,11,11
16:24:00,11,8,7,11,11,9,7,10,9
16:25:00,10,15,14,12,9,8,5,12,10
16:26:00,7,3,8,9,8,6,10,7,7
16:27:00,9,7,7,11,11,9,4,9,8
16:28:00,12,10,8,4,11,9,10,9,9
16:29:00,6,13,11,12,7,8,9,10,9
16:30:00,10,8,5,15,7,5,11,9,9
16:31:00,10,11,13,4,5,12,4,9,8
16:32:00,11,3,7,6,8,10,4,7,7
16:33:00,9,19,13,12,11,8,14,13,12
16:34:00,11,13,5,10,11,6,5,10,9
16:35:00,9,9,14,13,7,15,8,10,11
16:36:00,8,9,9,14,9,11,11,10,10
16:37:00,11,7,10,12,11,12,7,10,10
16:38:00,3,8,11,9,10,4,3,8,7
16:39:00,14,12,17,9,10,12,7,12,12
16:40:00,10,3,6,7,10,8,11,7,8
16:41:00,13,15,9,12,7,12,11,11,11
16:42:00,13,11,4,11,8,6,3,9,8
16:43:00,9,11,14,7,10,13,6,10,10
16:44:00,7,8,1,12,3,6,8,6,6
16:45:00,12,15,15,10,8,9,3,12,10
16:46:00,8,8,10,8,10,8,3,9,8
16:47:00,11,17,14,6,14,9,9,12,11
16:48:00,8,5,7,12,6,9,11,8,8
16:49:00,16,12,9,13,14,17,7,13,13
16:50:00,8,7,10,10,11,9,10,9,9
16:51:00,10,12,9,12,11,16,10,11,11
16:52:00,9,12,6,10,11,8,5,10,9
16:53:00,7,14,11,7,13,14,6,10,10
16:54:00,6,7,10,10,9,7,7,8,8
16:55:00,11,11,11,9,11,13,13,11,11
16:56:00,11,7,6,5,4,7,3,7,6
16:57:00,5,12,16,15,8,18,8,11,12
16:58:00,7,3,7,9,15,8,8,8,8
16:59:00,9,9,6,10,11,16,3,9,9
17:00:00,6,7,11,9,9,7,8,8,8
17:01:00,17,14,8,16,8,12,4,13,11
17:02:00,13,12,7,10,12,14,13,11,12
17:03:00,12,14,10,11,9,15,6,11,11
17:04:00,15,11,13,12,8,6,7,12,10
17:05:00,13,12,12,12,18,14,3,13,12
17:06:00,8,16,15,10,12,12,7,12,11
17:07:00,16,9,18,16,14,8,3,15,12
17:08:00,13,10,14,8,4,12,7,10,10
17:09:00,19,10,16,16,11,12,11,14,14
17:10:00,13,13,9,9,12,10,6,11,10
17:11:00,11,10,11,13,11,12,9,11,11
17:12:00,10,10,12,12,8,21,9,10,12
17:13:00,12,9,12,15,12,12,11,12,12
17:14:00,7,9,9,9,10,13,5,9,9
17:15:00,16,10,14,12,6,13,8,12,11
17:16:00,6,12,6,11,12,11,5,9,9
17:17:00,10,12,13,6,13,16,8,11,11
17:18:00,7,8,7,9,7,12,5,8,8
17:19:00,11,11,12,8,10,13,5,10,10
17:20:00,5,11,8,11,4,11,10,8,9
17:21:00,8,8,15,10,13,11,8,11,10
17:22:00,12,8,10,11,10,4,1,10,8
17:23:00,9,11,11,10,11,14,7,10,10
17:24:00,5,8,9,5,6,15,6,7,8
17:25:00,15,10,9,11,11,12,5,11,10
17:26:00,7,8,8,7,8,8,13,8,8
17:27:00,13,11,10,12,13,12,8,12,11
17:28:00,8,8,9,10,8,13,7,9,9
17:29:00,9,9,10,12,11,8,9,10,10
17:30:00,8,5,9,5,9,15,9,7,9
17:31:00,12,9,7,12,18,8,5,12,10
17:32:00,8,12,18,5,6,10,5,10,9
17:33:00,12,5,8,6,14,12,9,9,9
17:34:00,9,14,9,8,9,8,8,10,9
17:35:00,12,14,9,14,16,14,8,13,12
17:36:00,8,8,12,10,8,10,8,9,9
17:37:00,15,11,12,13,12,15,3,13,12
17:38:00,4,9,13,4,11,13,3,8,8
17:39:00,10,7,9,9,14,8,12,10,10
17:40:00,8,12,19,13,8,13,8,12,12
17:41:00,13,9,2,14,12,9,10,10,10
17:42:00,6,7,15,11,9,13,4,10,9
17:43:00,14,6,14,11,11,12,5,11,10
17:44:00,6,9,2,9,5,12,6,6,7
17:45:00,8,14,12,10,10,18,5,11,11
17:46:00,12,11,13,9,10,11,5,11,10
17:47:00,12,9,12,11,8,10,9,10,10
17:48:00,4,12,11,11,9,6,5,9,8
17:49:00,15,8,10,17,8,15,3,12,11
17:50:00,5,12,12,8,5,5,9,8,8
17:51:00,14,14,10,17,12,15,5,13,12
17:52:00,10,15,11,13,14,4,1,13,10
17:53:00,10,6,14,8,11,10,8,10,10
17:54:00,8,16,11,8,8,5,4,10,9
17:55:00,9,10,12,13,9,13,6,11,10
17:56:00,4,15,15,5,4,5,4,9,7
17:57:00,17,11,12,14,8,16,7,12,12
17:58:00,3,11,8,8,10,7,9,8,8
17:59:00,14,9,9,13,10,15,0,11,10
18:00:00,8,8,15,9,7,13,9,9,10
18:01:00,15,6,14,7,11,11,4,11,10
18:02:00,0,10,5,8,8,8,9,6,7
18:03:00,12,12,10,14,7,12,4,11,10
18:04:00,6,13,14,2,6,8,6,8,8
18:05:00,11,8,7,13,11,13,7,10,10
18:06:00,6,9,4,11,10,11,7,8,8
18:07:00,13,5,9,10,6,10,6,9,8
18:08:00,8,14,13,9,8,9,10,10,10
18:09:00,10,11,10,11,10,14,1,10,10
18:10:00,7,11,9,5,14,11,8,9,9
18:11:00,16,8,9,11,7,15,2,10,10
18:12:00,4,6,13,7,7,8,9,7,8
18:13:00,13,5,7,13,2,6,7,8,8
18:14:00,10,11,13,8,6,16,5,10,10
18:15:00,14,9,8,10,7,8,8,10,9
18:16:00,9,11,16,13,12,7,3,12,10
18:17:00,10,10,14,9,8,11,7,10,10
18:18:00,7,10,8,6,14,14,7,9,9
18:19:00,11,5,8,6,4,11,5,7,7
18:20:00,9,6,7,9,13,11,6,9,9
18:21:00,9,7,8,12,11,11,6,9,9
18:22:00,10,11,16,10,11,9,3,12,10
18:23:00,8,4,2,7,6,8,3,5,5
18:24:00,4,6,11,10,8,9,5,8,8
18:25:00,9,5,8,2,6,6,3,6,6
18:26:00,9,16,11,10,12,4,7,12,10
18:27:00,11,3,10,4,8,8,6,7,7
18:28:00,7,7,11,9,7,8,6,8,8
18:29:00,13,8,6,7,5,9,0,8,7
18:30:00,5,12,13,4,14,7,5,10,9
18:31:00,8,12,7,6,7,10,6,8,8
18:32:00,8,9,10,15,9,7,6,10,9
18:33:00,11,5,4,10,7,11,3,7,7
18:34:00,5,10,12,12,11,7,7,10,9
18:35:00,10,5,4,7,6,8,8,6,7
18:36:00,3,6,11,9,8,6,7,7,7
18:37:00,7,11,8,5,4,11,2,7,7
18:38:00,4,11,10,9,12,8,3,9,8
18:39:00,6,4,7,8,8,7,8,7,7
18:40:00,7,7,13,7,11,8,8,9,9
18:41:00,11,8,5,3,3,12,8,6,7
18:42:00,7,9,9,12,13,10,7,10,10
18:43:00,9,6,8,9,6,11,8,8,8
18:44:00,7,10,8,13,9,6,8,9,9
18:45:00,13,9,6,6,9,13,6,9,9
18:46:00,8,3,10,5,11,8,6,7,7
18:47:00,7,7,6,9,8,8,6,7,7
18:48:00,4,8,12,8,12,5,1,9,7
18:49:00,18,11,8,4,7,6,4,10,8
18:50:00,5,5,7,12,10,11,2,8,7
18:51:00,6,13,8,5,6,8,7,8,8
18:52:00,7,8,12,11,8,4,4,9,8
18:53:00,12,12,6,10,6,3,5,9,8
18:54:00,6,9,9,11,8,7,3,9,8
18:55:00,7,1,4,7,5,5,2,5,4
18:56:00,3,11,5,5,11,10,8,7,8
18:57:00,4,12,1,2,8,10,4,5,6
18:58:00,9,7,8,7,7,10,6,8,8
18:59:00,9,6,5,3,7,8,4,6,6
19:00:00,4,6,2,5,7,13,5,5,6
19:01:00,5,8,8,6,5,7,5,6,6
19:02:00,5,8,5,13,8,4,5,8,7
19:03:00,2,8,9,7,9,8,2,7,6
19:04:00,7,3,6,6,0,8,4,4,5
19:05:00,8,5,12,4,8,9,5,7,7
19:06:00,6,7,8,4,8,4,5,7,6
19:07:00,7,7,8,7,9,6,1,8,6
19:08:00,6,4,6,8,12,12,5,7,8
19:09:00,7,9,5,7,11,8,6,8,8
19:10:00,5,4,6,8,9,7,3,6,6
19:11:00,7,9,5,11,7,6,4,8,7
19:12:00,9,9,5,8,12,5,3,9,7
19:13:00,8,15,6,12,5,5,4,9,8
19:14:00,11,1,7,5,14,4,4,8,7
19:15:00,7,8,8,6,7,9,4,7,7
19:16:00,8,8,8,7,12,4,5,9,7
19:17:00,11,6,7,6,3,4,7,7,6
19:18:00,5,7,11,6,10,8,6,8,8
19:19:00,6,5,9,10,7,7,0,7,6
19:20:00,10,10,10,6,8,4,10,9,8
19:21:00,11,7,8,3,9,5,7,8,7
19:22:00,5,10,2,6,9,6,7,6,6
19:23:00,6,10,13,4,7,4,6,8,7
19:24:00,8,5,1,7,9,9,2,6,6
19:25:00,9,9,9,3,4,8,6,7,7
19:26:00,5,3,6,4,11,2,2,6,5
19:27:00,9,9,3,3,9,8,5,7,7
19:28:00,10,4,7,4,9,4,6,7,6
19:29:00,7,10,8,9,3,5,4,7,7
19:30:00,5,3,6,8,9,4,12,6,7
19:31:00,7,9,10,10,7,8,2,9,8
19:32:00,2,4,5,4,8,1,3,5,4
19:33:00,7,8,4,10,5,8,9,7,7
19:34:00,5,3,9,5,3,5,6,5,5
19:35:00,4,7,7,7,8,10,1,7,6
19:36:00,2,6,8,4,3,5,7,5,5
19:37:00,6,6,5,2,10,7,3,6,6
19:38:00,8,4,10,5,9,8,7,7,7
19:39:00,7,4,5,7,8,8,4,6,6
19:40:00,11,8,12,7,6,7,3,9,8
19:41:00,6,4,6,5,14,10,6,7,7
19:42:00,5,6,6,6,11,8,4,7,7
19:43:00,9,7,7,9,9,4,4,8,7
19:44:00,4,11,10,5,7,10,7,7,8
19:45:00,4,7,7,5,6,5,5,6,6
19:46:00,5,8,6,8,9,5,0,7,6
19:47:00,6,9,8,6,8,7,5,7,7
19:48:00,3,3,9,4,7,9,3,5,5
19:49:00,8,9,7,4,8,3,6,7,6
19:50:00,6,9,9,6,5,4,8,7,7
19:51:00,8,4,3,4,6,9,1,5,5
19:52:00,3,4,8,6,8,5,8,6,6
19:53:00,3,7,3,5,5,4,5,5,5
19:54:00,9,9,6,7,1,7,8,6,7
19:55:00,9,8,7,7,5,6,5,7,7
19:56:00,4,5,7,8,6,2,3,6,5
19:57:00,6,5,4,9,11,6,9,7,7
19:58:00,5,7,2,5,9,5,2,6,5
19:59:00,3,7,8,6,4,3,0,6,4
20:00:00,4,10,3,7,11,7,7,7,7
20:01:00,2,3,5,11,7,4,5,6,5
20:02:00,4,8,5,6,7,1,3,6,5
20:03:00,4,7,0,3,4,9,3,4,4
20:04:00,8,12,7,6,4,6,6,7,7
20:05:00,5,6,3,7,8,5,5,6,6
20:06:00,8,4,3,4,3,7,3,4,5
20:07:00,4,2,9,5,7,7,5,5,6
20:08:00,6,9,1,9,3,3,4,6,5
20:09:00,6,11,6,2,5,3,8,6,6
20:10:00,6,3,2,7,5,2,1,5,4
20:11:00,9,11,9,10,4,4,4,9,7
20:12:00,9,6,7,12,8,6,7,8,8
20:13:00,6,8,6,3,7,5,4,6,6
20:14:00,1,9,5,6,9,8,7,6,6
20:15:00,3,2,4,6,8,4,6,5,5
20:16:00,11,6,5,9,6,6,7,7,7
20:17:00,6,5,8,3,5,4,11,5,6
20:18:00,7,1,7,4,6,7,2,5,5
20:19:00,3,10,9,7,5,6,5,7,6
20:20:00,6,6,8,5,9,8,2,7,6
20:21:00,9,7,5,11,2,2,3,7,6
20:22:00,3,3,7,8,4,3,3,5,4
20:23:00,7,6,4,9,6,3,5,6,6
20:24:00,3,8,2,6,5,6,7,5,5
20:25:00,8,9,8,6,5,4,2,7,6
20:26:00,6,6,4,9,7,4,3,6,6
20:27:00,3,3,6,6,6,8,1,5,5
20:28:00,10,6,4,2,1,1,1,5,4
20:29:00,7,3,8,6,6,5,2,6,5
20:30:00,8,7,3,2,8,10,10,6,7
20:31:00,3,10,4,7,3,3,8,5,5
20:32:00,5,6,1,6,6,5,4,5,5
20:33:00,6,4,6,3,7,4,4,5,5
20:34:00,3,5,5,4,2,4,2,4,4
20:35:00,4,8,3,4,3,5,1,4,4
20:36:00,4,7,9,12,7,6,3,8,7
20:37:00,4,6,7,4,1,4,6,4,5
20:38:00,2,4,3,2,5,2,5,3,3
20:39:00,3,9,1,6,5,3,3,5,4
20:40:00,5,6,7,4,1,4,3,5,4
20:41:00,7,9,3,4,4,6,6,5,6
20:42:00,7,4,2,1,5,3,2,4,3
20:43:00,6,6,5,3,3,7,3,5,5
20:44:00,7,8,5,8,5,6,5,7,6
20:45:00,1,2,3,3,6,2,2,3,3
20:46:00,4,6,8,0,5,3,3,5,4
20:47:00,5,2,8,4,1,3,6,4,4
20:48:00,3,4,4,4,3,4,2,4,3
20:49:00,5,8,4,2,11,3,2,6,5
20:50:00,6,4,8,2,3,2,5,5,4
20:51:00,1,4,2,0,1,6,1,2,2
20:52:00,2,4,8,3,2,2,0,4,3
20:53:00,2,5,3,4,5,3,0,4,3
20:54:00,3,8,7,2,6,3,3,5,5
20:55:00,5,7,1,2,3,7,3,4,4
20:56:00,1,2,7,5,6,2,2,4,4
20:57:00,2,7,3,3,7,7,4,4,5
20:58:00,2,4,3,0,6,3,5,3,3
20:59:00,6,5,3,0,3,3,1,3,3
21:00:00,6,1,1,3,2,7,3,3,3
21:01:00,2,5,0,3,6,0,1,3,2
21:02:00,4,8,6,3,2,8,8,5,6
21:03:00,4,6,6,2,7,6,5,5,5
21:04:00,4,1,9,5,3,2,2,4,4
21:05:00,2,2,6,3,5,6,3,4,4
21:06:00,6,3,4,3,5,1,6,4,4
21:07:00,3,5,4,4,5,4,3,4,4
21:08:00,4,6,5,2,6,7,5,5,5
21:09:00,7,4,2,2,9,3,6,5,5
21:10:00,4,2,8,1,6,8,2,4,4
21:11:00,5,5,4,7,7,4,2,6,5
21:12:00,1,9,4,6,2,3,7,4,5
21:13:00,4,1,7,4,5,3,1,4,4
21:14:00,5,3,5,6,4,2,5,5,4
21:15:00,5,4,5,7,5,4,5,5,5
21:16:00,7,5,3,2,6,4,6,5,5
21:17:00,8,2,2,4,7,6,0,5,4
21:18:00,1,9,2,3,6,5,5,4,4
21:19:00,5,7,5,10,4,2,4,6,5
21:20:00,2,7,6,6,7,6,1,6,5
21:21:00,6,3,12,4,6,3,5,6,6
21:22:00,3,2,7,7,7,5,4,5,5
21:23:00,7,6,6,2,4,6,9,5,6
21:24:00,3,6,6,4,3,8,7,4,5
21:25:00,3,4,7,5,2,7,3,4,4
21:26:00,6,7,7,8,1,5,3,6,5
21:27:00,4,4,1,2,5,5,1,3,3
21:28:00,3,2,5,3,5,9,4,4,4
21:29:00,2,5,8,4,8,11,7,5,6
21:30:00,7,3,3,5,2,5,6,4,4
21:31:00,2,4,2,5,5,11,6,4,5
21:32:00,2,4,6,0,6,4,6,4,4
21:33:00,0,3,7,5,1,5,5,3,4
21:34:00,2,9,4,9,4,2,2,6,5
21:35:00,0,2,3,3,6,7,1,3,3
21:36:00,3,5,4,3,6,4,1,4,4
21:37:00,5,8,3,3,5,6,3,5,5
21:38:00,4,2,5,2,6,5,6,4,4
21:39:00,6,2,3,2,4,4,2,3,3
21:40:00,3,7,5,5,4,6,4,5,5
21:41:00,1,5,4,2,9,4,2,4,4
21:42:00,4,6,6,5,4,4,3,5,5
21:43:00,7,6,6,3,5,4,1,5,5
21:44:00,2,2,3,5,5,3,4,3,3
21:45:00,1,3,4,3,5,2,3,3,3
21:46:00,6,1,7,3,1,1,3,4,3
21:47:00,6,4,2,4,5,0,4,4,4
21:48:00,3,5,4,5,5,3,2,4,4
21:49:00,2,3,1,2,6,4,1,3,3
21:50:00,6,4,3,6,0,5,2,4,4
21:51:00,2,5,3,3,4,5,2,3,3
21:52:00,3,4,3,7,0,4,1,3,3
21:53:00,2,4,9,0,3,7,1,4,4
21:54:00,2,7,4,3,4,4,1,4,4
21:55:00,7,1,8,4,3,5,2,5,4
21:56:00,5,8,9,9,6,7,2,7,7
21:57:00,3,3,3,3,6,4,2,4,3
21:58:00,2,3,2,2,3,4,4,2,3
21:59:00,7,0,2,3,5,4,1,3,3
22:00:00,3,6,6,6,2,3,1,5,4
22:01:00,3,6,4,7,5,3,1,5,4
22:02:00,7,3,5,3,2,4,2,4,4
22:03:00,5,5,4,4,4,3,3,4,4
22:04:00,4,5,5,4,7,7,3,5,5
22:05:00,5,6,2,3,3,8,5,4,5
22:06:00,8,3,5,6,6,6,2,6,5
22:07:00,6,3,3,2,4,0,3,4,3
22:08:00,4,2,4,2,2,6,2,3,3
22:09:00,3,7,5,10,1,2,4,5,5
22:10:00,4,6,5,5,2,5,5,4,5
22:11:00,6,10,4,5,1,5,5,5,5
22:12:00,5,1,5,5,7,2,6,5,4
22:13:00,3,4,4,6,5,9,2,4,5
22:14:00,2,7,5,3,2,6,5,4,4
22:15:00,6,6,8,5,7,5,4,6,6
22:16:00,4,4,2,7,4,6,1,4,4
22:17:00,1,0,4,5,3,11,4,3,4
22:18:00,6,3,3,9,7,2,2,6,5
22:19:00,3,4,5,4,1,2,2,3,3
22:20:00,4,3,4,5,5,5,5,4,4
22:21:00,3,4,5,7,1,5,6,4,4
22:22:00,3,1,4,3,4,5,1,3,3
22:23:00,4,3,2,2,2,7,2,3,3
22:24:00,3,6,10,2,2,8,3,5,5
22:25:00,1,2,6,3,4,3,2,3,3
22:26:00,5,1,2,5,4,7,3,3,4
22:27:00,2,3,2,7,2,3,1,3,3
22:28:00,3,3,4,3,4,8,1,3,4
22:29:00,2,2,3,3,2,2,2,2,2
22:30:00,5,2,6,1,1,6,3,3,3
22:31:00,1,3,4,1,4,2,1,3,2
22:32:00,1,4,1,3,2,7,5,2,3
22:33:00,1,1,3,4,4,4,3,3,3
22:34:00,5,3,1,5,3,5,1,3,3
22:35:00,3,1,2,6,3,3,1,3,3
22:36:00,2,3,3,1,7,2,4,3,3
22:37:00,4,3,3,3,4,3,2,3,3
22:38:00,4,3,5,4,2,3,5,4,4
22:39:00,2,5,4,3,1,2,0,3,2
22:40:00,1,3,2,4,5,2,0,3,2
22:41:00,2,5,3,3,1,1,1,3,2
22:42:00,1,1,3,5,3,4,1,3,3
22:43:00,5,5,4,3,3,3,2,4,4
22:44:00,6,3,2,1,2,3,1,3,3
22:45:00,0,2,3,2,0,3,2,1,2
22:46:00,4,3,2,2,0,3,2,2,2
22:47:00,3,3,5,3,4,0,1,4,3
22:48:00,3,1,1,3,6,2,0,3,2
22:49:00,2,2,1,3,4,1,2,2,2
22:50:00,3,2,4,2,4,5,0,3,3
22:51:00,4,3,4,3,0,3,0,3,2
22:52:00,4,3,2,2,4,4,0,3,3
22:53:00,2,4,4,3,2,2,0,3,2
22:54:00,1,2,6,5,1,4,3,3,3
22:55:00,1,3,0,3,4,5,1,2,2
22:56:00,3,1,2,6,0,5,0,2,2
22:57:00,4,6,2,0,1,1,1,3,2
22:58:00,3,1,3,1,4,2,1,2,2
22:59:00,1,1,2,1,3,1,1,2,1
23:00:00,6,2,0,5,7,3,1,4,3
23:01:00,1,4,1,2,7,3,2,3,3
23:02:00,2,2,2,2,0,2,0,2,1
23:03:00,2,1,1,4,4,6,3,2,3
23:04:00,2,5,2,1,1,6,4,2,3
23:05:00,2,1,2,3,2,9,0,2,3
23:06:00,2,0,2,3,1,3,0,2,2
23:07:00,3,4,2,3,4,6,2,3,3
23:08:00,3,1,3,3,4,7,2,3,3
23:09:00,1,1,2,2,1,2,4,1,2
23:10:00,6,0,4,1,3,6,3,3,3
23:11:00,1,2,2,0,5,4,2,2,2
23:12:00,2,0,0,3,1,11,1,1,3
23:13:00,1,2,1,2,4,6,3,2,3
23:14:00,4,4,6,3,3,8,3,4,4
23:15:00,1,3,1,3,5,2,2,3,2
23:16:00,1,1,1,1,3,3,3,1,2
23:17:00,1,1,2,3,4,6,1,2,3
23:18:00,5,1,2,1,4,1,3,3,2
23:19:00,5,1,1,0,2,3,0,2,2
23:20:00,2,4,2,1,2,1,2,2,2
23:21:00,3,3,1,3,6,7,1,3,3
23:22:00,0,0,1,4,0,3,0,1,1
23:23:00,4,0,2,1,9,3,2,3,3
23:24:00,1,5,4,1,3,3,2,3,3
23:25:00,2,1,1,3,1,2,0,2,1
23:26:00,0,5,4,1,0,3,2,2,2
23:27:00,4,1,0,3,2,4,1,2,2
23:28:00,2,1,1,2,2,3,2,2,2
23:29:00,1,1,1,2,1,3,1,1,1
23:30:00,3,1,0,0,1,6,2,1,2
23:31:00,1,0,3,2,1,4,1,1,2
23:32:00,0,2,0,5,4,1,0,2,2
23:33:00,1,1,0,0,1,4,2,1,1
23:34:00,0,2,0,1,0,1,2,1,1
23:35:00,3,0,2,3,2,1,1,2,2
23:36:00,1,0,0,1,2,6,1,1,2
23:37:00,0,1,5,1,1,5,1,2,2
23:38:00,2,1,0,1,2,4,0,1,1
23:39:00,1,4,4,4,0,0,1,3,2
23:40:00,0,2,1,1,4,3,1,2,2
23:41:00,1,2,1,3,0,1,3,1,2
23:42:00,0,0,0,0,2,2,0,0,1
23:43:00,3,1,1,0,0,2,4,1,2
23:44:00,1,2,0,3,3,6,1,2,2
23:45:00,2,1,1,2,1,2,1,1,1
23:46:00,3,1,1,4,1,0,0,2,1
23:47:00,0,1,1,1,8,5,0,2,2
23:48:00,2,0,5,1,1,3,0,2,2
23:49:00,1,0,2,1,1,3,0,1,1
23:50:00,0,0,2,3,3,7,0,2,2
23:51:00,1,0,2,1,0,1,0,1,1
23:52:00,1,0,4,0,5,1,0,2,2
23:53:00,2,2,0,2,3,3,1,2,2
23:54:00,0,2,4,3,0,1,2,2,2
23:55:00,4,4,2,0,5,3,0,3,3
23:56:00,1,1,1,2,3,1,1,2,1
23:57:00,2,1,2,0,1,2,1,1,1
23:58:00,1,2,3,0,1,3,0,1,1
23:59:00,2,0,1,0,0,1,2,1,1
,,,,,,,,,
Totals,,,,,,,,,
12H(7-19),6133,6367,6380,6257,6385,6076,5197,6304,6114
16H(6-22),7359,7761,7701,7505,7738,7157,6023,7613,7321
18H(6-24),7667,8053,8020,7843,8072,7607,6235,7931,7642
24H(0-24),8066,8455,8414,8257,8463,7940,6598,8331,8028
,,,,,,,,,
AM Peak,11:00:00,11:00:00,10:59:00,10:59:00,10:40:00,10:54:00,10:51:00,10:00:00,10:00:00
,534,573,547,515,512,598,569,492,499
,,,,,,,,,
PM Peak,16:19:00,17:01:00,17:02:00,17:01:00,13:49:00,16:48:00,12:04:00,17:01:00,17:01:00
,623,622,668,632,642,706,623,626,602
,,,,,,,,,
,,,,,,,,,
CA Traffic,,,,,,,,,VDA-net R2 14/02/2020
