Site Number,00009177,Unnamed: 2,Site Reference,00009177.1,Unnamed: 5,Unnamed: 6,Lat/Lng.,"52.07513,1.12891",Unnamed: 9
Norwich Road Ipswich,,,,,,,,,
Vehicle Count Report,,,,Week Begin: 10 February 2020,,,Channel:,Total Flow,
,,,,,,,,,
,,,,,,,,,
,2020-02-10 00:00:00,2020-02-11 00:00:00,2020-02-12 00:00:00,2020-02-13 00:00:00,2020-02-14 00:00:00,2020-02-15 00:00:00,2020-02-16 00:00:00,"5-Day
Ave.","7-Day
Ave."
00:00:00,1,2,5,2,1,8,3,2,3
00:01:00,6,4,2,2,1,6,6,3,4
00:02:00,3,4,1,2,4,2,4,3,3
00:03:00,3,4,0,2,0,5,7,2,3
00:04:00,1,0,2,2,0,5,7,1,2
00:05:00,3,5,4,1,3,7,5,3,4
00:06:00,4,1,0,3,1,8,7,2,3
00:07:00,2,3,4,1,2,2,7,2,3
00:08:00,0,6,2,3,2,3,5,3,3
00:09:00,5,3,0,1,0,5,7,2,3
00:10:00,1,0,1,2,1,2,7,1,2
00:11:00,5,2,3,0,4,5,8,3,4
00:12:00,1,3,0,3,6,1,7,3,3
00:13:00,0,2,0,2,3,4,5,1,2
00:14:00,5,1,5,3,2,1,6,3,3
00:15:00,0,2,2,1,2,4,3,1,2
00:16:00,3,4,1,0,1,7,4,2,3
00:17:00,0,1,1,5,1,3,3,2,2
00:18:00,0,0,1,1,3,1,7,1,2
00:19:00,0,1,1,1,4,6,6,1,3
00:20:00,0,0,1,3,2,2,5,1,2
00:21:00,2,1,0,3,5,5,3,2,3
00:22:00,3,3,0,5,2,1,5,3,3
00:23:00,0,2,6,0,3,4,5,2,3
00:24:00,1,2,2,3,2,1,2,2,2
00:25:00,0,2,0,3,4,1,2,2,2
00:26:00,0,0,5,0,4,2,6,2,2
00:27:00,2,1,2,3,3,4,2,2,2
00:28:00,1,1,2,3,4,4,4,2,3
00:29:00,1,0,3,1,0,3,2,1,1
00:30:00,2,3,1,1,2,1,6,2,2
00:31:00,2,0,0,2,2,3,4,1,2
00:32:00,3,3,1,1,2,1,1,2,2
00:33:00,1,1,2,4,3,2,1,2,2
00:34:00,2,1,1,1,0,3,1,1,1
00:35:00,3,1,2,1,1,5,3,2,2
00:36:00,0,2,1,2,3,1,5,2,2
00:37:00,2,0,3,2,0,3,5,1,2
00:38:00,2,2,0,2,1,1,4,1,2
00:39:00,1,0,1,2,4,3,6,2,2
00:40:00,3,1,3,1,2,1,5,2,2
00:41:00,1,2,1,1,3,5,1,2,2
00:42:00,2,2,1,3,3,4,4,2,3
00:43:00,3,1,2,0,2,2,2,2,2
00:44:00,1,0,0,2,0,6,3,1,2
00:45:00,1,0,2,2,4,2,4,2,2
00:46:00,3,1,1,2,2,5,3,2,2
00:47:00,3,4,2,1,3,4,4,3,3
00:48:00,1,1,1,2,3,0,3,2,2
00:49:00,3,2,3,3,1,4,0,2,2
00:50:00,2,3,1,5,3,3,6,3,3
00:51:00,5,0,1,1,1,7,1,2,2
00:52:00,0,1,2,0,3,2,4,1,2
00:53:00,1,0,3,0,1,2,4,1,2
00:54:00,1,0,1,1,0,3,6,1,2
00:55:00,1,0,2,0,1,1,4,1,1
00:56:00,1,0,0,1,0,3,2,0,1
00:57:00,2,2,1,0,2,3,2,1,2
00:58:00,0,3,1,0,1,2,1,1,1
00:59:00,0,2,1,2,0,1,0,1,1
01:00:00,1,0,2,0,1,1,4,1,1
01:01:00,0,1,2,1,1,3,4,1,2
01:02:00,4,1,1,2,1,2,1,2,2
01:03:00,2,0,3,0,0,2,0,1,1
01:04:00,0,1,3,0,2,3,5,1,2
01:05:00,0,0,0,1,1,1,1,0,1
01:06:00,1,0,1,0,0,1,1,0,1
01:07:00,0,2,1,1,2,1,2,1,1
01:08:00,0,0,2,3,2,1,4,1,2
01:09:00,0,2,2,2,1,5,1,1,2
01:10:00,2,3,4,0,2,1,2,2,2
01:11:00,2,1,0,0,3,1,3,1,1
01:12:00,2,1,1,2,2,4,1,2,2
01:13:00,2,0,3,1,2,3,3,2,2
01:14:00,1,2,5,1,0,1,1,2,2
01:15:00,3,1,2,1,3,0,2,2,2
01:16:00,0,1,1,3,0,4,3,1,2
01:17:00,0,0,1,2,2,0,0,1,1
01:18:00,1,0,0,0,2,1,2,1,1
01:19:00,1,2,2,0,1,1,0,1,1
01:20:00,0,2,2,1,0,1,2,1,1
01:21:00,0,1,2,0,1,1,3,1,1
01:22:00,0,0,1,1,0,0,2,0,1
01:23:00,1,0,1,0,1,0,2,1,1
01:24:00,1,1,1,1,1,2,2,1,1
01:25:00,0,1,1,0,1,0,4,1,1
01:26:00,0,1,0,1,1,2,4,1,1
01:27:00,2,1,0,2,0,1,0,1,1
01:28:00,0,1,0,1,0,0,2,0,1
01:29:00,1,1,1,2,0,2,1,1,1
01:30:00,1,1,1,0,5,3,9,2,3
01:31:00,1,1,2,1,1,0,2,1,1
01:32:00,2,0,0,2,1,3,0,1,1
01:33:00,1,0,1,0,0,0,1,0,0
01:34:00,1,0,1,0,0,0,2,0,1
01:35:00,0,0,0,3,1,1,5,1,1
01:36:00,3,2,2,3,5,1,5,3,3
01:37:00,0,1,1,0,0,2,1,0,1
01:38:00,1,2,1,0,1,1,7,1,2
01:39:00,0,0,2,1,0,2,3,1,1
01:40:00,4,3,1,1,1,2,0,2,2
01:41:00,1,0,0,1,0,3,2,0,1
01:42:00,1,0,3,5,2,2,3,2,2
01:43:00,2,2,1,0,0,0,1,1,1
01:44:00,1,1,1,1,0,0,3,1,1
01:45:00,0,2,1,0,1,1,2,1,1
01:46:00,0,0,1,1,0,1,3,0,1
01:47:00,0,2,0,1,0,0,1,1,1
01:48:00,3,0,0,1,0,1,5,1,1
01:49:00,0,0,2,0,0,1,4,0,1
01:50:00,0,0,0,3,0,0,3,1,1
01:51:00,1,0,1,1,0,1,3,1,1
01:52:00,0,1,2,1,0,2,3,1,1
01:53:00,0,1,2,2,0,2,1,1,1
01:54:00,2,2,2,0,1,1,6,1,2
01:55:00,2,0,1,0,0,0,2,1,1
01:56:00,0,0,0,2,1,5,5,1,2
01:57:00,1,1,2,0,0,3,2,1,1
01:58:00,0,1,0,1,0,2,3,0,1
01:59:00,2,1,1,0,0,0,2,1,1
02:00:00,1,0,1,1,2,1,2,1,1
02:01:00,1,0,1,0,1,2,5,1,1
02:02:00,0,1,1,0,1,1,0,1,1
02:03:00,2,0,0,0,1,1,1,1,1
02:04:00,1,1,0,1,1,1,1,1,1
02:05:00,1,1,2,1,2,2,1,1,1
02:06:00,0,1,0,1,1,1,0,1,1
02:07:00,2,0,1,0,1,0,6,1,1
02:08:00,1,1,0,0,1,1,3,1,1
02:09:00,1,0,0,0,0,2,2,0,1
02:10:00,2,1,1,1,1,3,2,1,2
02:11:00,4,0,1,1,1,1,4,1,2
02:12:00,1,1,0,1,1,1,0,1,1
02:13:00,2,2,1,0,2,1,2,1,1
02:14:00,1,3,3,1,0,2,2,2,2
02:15:00,0,2,0,3,1,1,2,1,1
02:16:00,0,0,1,0,0,3,0,0,1
02:17:00,0,0,0,0,1,0,4,0,1
02:18:00,0,0,0,0,2,1,4,0,1
02:19:00,1,2,1,0,0,2,1,1,1
02:20:00,1,1,1,0,1,1,1,1,1
02:21:00,0,0,1,0,1,1,1,0,1
02:22:00,0,0,0,1,0,0,3,0,1
02:23:00,1,0,1,0,0,3,0,0,1
02:24:00,0,0,2,1,0,0,2,1,1
02:25:00,1,0,0,1,1,3,2,1,1
02:26:00,0,0,0,2,1,0,2,1,1
02:27:00,0,1,1,0,1,3,0,1,1
02:28:00,0,0,1,2,1,1,2,1,1
02:29:00,1,1,2,0,3,2,2,1,2
02:30:00,1,0,2,1,0,0,2,1,1
02:31:00,0,1,2,0,0,4,2,1,1
02:32:00,1,1,0,3,1,0,1,1,1
02:33:00,2,0,2,1,1,1,1,1,1
02:34:00,1,2,1,2,1,2,0,1,1
02:35:00,0,1,0,2,1,1,5,1,1
02:36:00,1,0,2,1,0,2,0,1,1
02:37:00,0,2,0,1,1,1,2,1,1
02:38:00,1,0,3,1,1,2,1,1,1
02:39:00,1,2,0,1,2,2,1,1,1
02:40:00,0,0,0,2,0,2,2,0,1
02:41:00,1,2,1,0,1,2,4,1,2
02:42:00,1,1,1,1,1,0,3,1,1
02:43:00,1,0,0,1,1,1,3,1,1
02:44:00,0,0,1,0,2,1,3,1,1
02:45:00,2,1,2,1,1,1,0,1,1
02:46:00,0,1,1,3,0,1,5,1,2
02:47:00,0,2,1,1,0,1,1,1,1
02:48:00,1,0,2,1,0,4,6,1,2
02:49:00,0,2,0,1,3,2,0,1,1
02:50:00,1,0,1,3,1,2,3,1,2
02:51:00,1,0,0,1,1,2,1,1,1
02:52:00,0,0,1,2,2,2,1,1,1
02:53:00,2,1,1,1,1,3,3,1,2
02:54:00,1,3,1,3,1,3,2,2,2
02:55:00,0,0,2,2,4,2,2,2,2
02:56:00,0,1,2,0,0,2,0,1,1
02:57:00,1,3,2,5,2,3,2,3,3
02:58:00,1,3,2,2,2,0,3,2,2
02:59:00,0,2,0,1,1,0,1,1,1
03:00:00,1,0,2,1,2,1,3,1,1
03:01:00,1,0,1,1,0,2,3,1,1
03:02:00,1,1,0,3,1,1,3,1,1
03:03:00,0,0,1,2,0,1,1,1,1
03:04:00,0,1,0,1,0,2,2,0,1
03:05:00,4,0,0,1,1,1,2,1,1
03:06:00,1,0,0,1,2,1,2,1,1
03:07:00,1,1,0,0,2,7,1,1,2
03:08:00,1,1,1,1,0,3,0,1,1
03:09:00,0,0,0,0,2,2,1,0,1
03:10:00,2,0,0,2,0,1,1,1,1
03:11:00,2,0,2,2,3,2,0,2,2
03:12:00,0,0,0,1,3,1,1,1,1
03:13:00,1,0,1,0,1,0,2,1,1
03:14:00,0,1,2,2,0,1,1,1,1
03:15:00,1,2,2,0,2,2,3,1,2
03:16:00,2,2,1,2,1,1,2,2,2
03:17:00,0,2,0,0,4,2,0,1,1
03:18:00,0,1,0,2,1,1,3,1,1
03:19:00,1,1,1,0,3,2,4,1,2
03:20:00,1,1,3,1,0,0,0,1,1
03:21:00,2,1,1,1,3,1,2,2,2
03:22:00,0,1,1,0,3,2,4,1,2
03:23:00,1,1,2,3,2,0,2,2,2
03:24:00,0,1,2,1,1,3,1,1,1
03:25:00,0,2,0,1,0,1,1,1,1
03:26:00,0,0,2,2,1,4,0,1,1
03:27:00,0,0,2,3,1,1,2,1,1
03:28:00,0,1,1,0,0,0,2,0,1
03:29:00,2,0,1,1,1,1,2,1,1
03:30:00,0,2,1,0,3,1,0,1,1
03:31:00,0,1,0,0,1,2,0,0,1
03:32:00,1,1,0,0,1,1,4,1,1
03:33:00,4,2,1,1,2,3,0,2,2
03:34:00,0,1,0,2,2,1,0,1,1
03:35:00,0,1,1,1,2,0,1,1,1
03:36:00,1,0,0,1,0,1,1,0,1
03:37:00,2,0,0,0,1,2,3,1,1
03:38:00,3,3,1,1,2,0,0,2,1
03:39:00,3,1,0,0,2,0,3,1,1
03:40:00,0,0,0,2,2,1,1,1,1
03:41:00,1,2,0,1,1,0,6,1,2
03:42:00,1,1,0,2,0,0,4,1,1
03:43:00,2,1,2,1,0,0,1,1,1
03:44:00,1,0,0,0,0,1,0,0,0
03:45:00,1,2,1,0,1,2,1,1,1
03:46:00,2,0,1,1,0,1,1,1,1
03:47:00,0,1,1,2,0,1,2,1,1
03:48:00,0,1,0,0,2,2,1,1,1
03:49:00,0,0,2,2,0,1,0,1,1
03:50:00,0,2,0,0,0,0,2,0,1
03:51:00,0,1,0,0,3,1,2,1,1
03:52:00,0,1,1,1,0,2,2,1,1
03:53:00,2,1,0,0,1,1,0,1,1
03:54:00,0,1,5,1,2,6,4,2,3
03:55:00,1,0,4,0,2,3,1,1,2
03:56:00,1,2,1,0,1,0,2,1,1
03:57:00,2,0,1,1,1,0,1,1,1
03:58:00,1,1,0,0,0,2,1,0,1
03:59:00,4,0,1,2,3,0,2,2,2
04:00:00,0,0,2,2,2,3,1,1,1
04:01:00,1,0,1,2,3,2,0,1,1
04:02:00,1,2,1,0,3,0,2,1,1
04:03:00,2,1,2,3,2,3,1,2,2
04:04:00,1,1,1,1,0,2,2,1,1
04:05:00,1,2,1,1,1,0,3,1,1
04:06:00,2,1,0,0,2,1,0,1,1
04:07:00,1,5,0,1,0,0,4,1,2
04:08:00,2,3,2,5,2,4,4,3,3
04:09:00,3,1,1,0,2,3,0,1,1
04:10:00,1,1,1,3,2,1,3,2,2
04:11:00,1,1,1,0,1,0,0,1,1
04:12:00,3,1,3,1,2,0,2,2,2
04:13:00,2,0,0,1,0,1,0,1,1
04:14:00,2,0,2,1,1,0,0,1,1
04:15:00,1,0,2,1,0,1,1,1,1
04:16:00,0,2,2,3,2,1,2,2,2
04:17:00,4,1,0,2,3,1,3,2,2
04:18:00,3,1,1,2,1,0,1,2,1
04:19:00,1,0,1,1,1,1,1,1,1
04:20:00,2,0,1,3,3,2,0,2,2
04:21:00,1,3,2,0,1,1,1,1,1
04:22:00,4,2,1,2,2,3,1,2,2
04:23:00,1,1,0,1,5,3,3,2,2
04:24:00,3,1,2,1,0,2,0,1,1
04:25:00,4,2,1,0,1,2,2,2,2
04:26:00,1,2,1,0,0,1,4,1,1
04:27:00,2,1,4,5,5,5,1,3,3
04:28:00,0,1,1,2,0,2,2,1,1
04:29:00,2,1,1,5,1,1,3,2,2
04:30:00,2,6,2,0,2,1,4,2,2
04:31:00,2,0,2,1,2,3,2,1,2
04:32:00,3,4,2,1,1,0,1,2,2
04:33:00,5,1,1,0,2,4,1,2,2
04:34:00,2,0,2,0,3,3,0,1,1
04:35:00,2,4,7,2,0,3,0,3,3
04:36:00,2,2,3,3,2,2,2,2,2
04:37:00,1,2,2,2,2,0,3,2,2
04:38:00,5,2,1,1,3,5,2,2,3
04:39:00,3,3,3,5,3,1,1,3,3
04:40:00,5,7,4,2,0,2,2,4,3
04:41:00,12,3,2,9,4,2,1,6,5
04:42:00,3,1,4,3,6,4,2,3,3
04:43:00,3,2,3,2,2,4,1,2,2
04:44:00,4,4,4,4,3,2,4,4,4
04:45:00,1,2,2,2,3,3,6,2,3
04:46:00,4,6,7,6,8,3,3,6,5
04:47:00,3,6,3,6,3,5,1,4,4
04:48:00,11,5,4,8,9,3,3,7,6
04:49:00,7,7,4,5,3,2,4,5,5
04:50:00,5,4,6,6,5,1,0,5,4
04:51:00,0,6,3,5,4,3,4,4,4
04:52:00,5,8,4,4,6,1,2,5,4
04:53:00,7,6,6,3,2,0,2,5,4
04:54:00,3,4,7,2,6,1,1,4,3
04:55:00,5,3,8,9,6,0,0,6,4
04:56:00,3,3,4,5,10,6,2,5,5
04:57:00,7,5,4,4,4,2,6,5,5
04:58:00,4,5,4,3,2,4,0,4,3
04:59:00,1,8,6,3,1,2,2,4,3
05:00:00,7,3,3,6,4,3,2,5,4
05:01:00,3,9,4,9,11,2,0,7,5
05:02:00,6,7,3,5,4,5,3,5,5
05:03:00,6,10,3,8,6,1,1,7,5
05:04:00,5,4,8,1,7,1,0,5,4
05:05:00,8,8,7,7,5,3,1,7,6
05:06:00,4,5,2,5,7,2,3,5,4
05:07:00,6,4,9,7,4,4,2,6,5
05:08:00,8,6,3,6,7,3,1,6,5
05:09:00,8,9,9,8,6,5,1,8,7
05:10:00,5,8,4,7,6,5,4,6,6
05:11:00,11,10,8,6,7,0,2,8,6
05:12:00,4,5,10,8,2,5,6,6,6
05:13:00,14,10,6,5,6,2,3,8,7
05:14:00,7,10,8,7,5,1,6,7,6
05:15:00,8,6,8,3,4,2,4,6,5
05:16:00,5,10,13,11,5,2,5,9,7
05:17:00,2,6,7,8,6,3,2,6,5
05:18:00,8,10,3,5,9,4,3,7,6
05:19:00,8,10,14,15,3,3,3,10,8
05:20:00,8,10,3,12,6,6,1,8,7
05:21:00,10,11,14,6,5,7,3,9,8
05:22:00,10,4,2,6,7,6,3,6,5
05:23:00,3,7,6,9,6,5,2,6,5
05:24:00,6,1,8,10,2,2,4,5,5
05:25:00,3,4,8,5,8,2,3,6,5
05:26:00,3,6,10,11,5,3,2,7,6
05:27:00,6,6,5,8,8,4,5,7,6
05:28:00,9,6,14,3,9,1,4,8,7
05:29:00,5,13,8,13,5,6,2,9,7
05:30:00,20,5,10,10,7,6,4,10,9
05:31:00,11,10,8,2,12,4,5,9,7
05:32:00,12,12,12,5,6,6,5,9,8
05:33:00,7,15,8,8,12,11,5,10,9
05:34:00,14,10,7,11,6,1,4,10,8
05:35:00,7,11,7,4,11,6,2,8,7
05:36:00,9,11,8,12,10,5,3,10,8
05:37:00,9,13,11,11,16,7,3,12,10
05:38:00,15,7,10,8,8,4,2,10,8
05:39:00,12,5,12,7,7,5,2,9,7
05:40:00,11,10,4,10,2,6,5,7,7
05:41:00,8,11,8,10,16,3,3,11,8
05:42:00,9,14,9,6,10,5,3,10,8
05:43:00,11,11,13,3,14,3,6,10,9
05:44:00,6,7,7,6,9,4,3,7,6
05:45:00,14,6,13,8,5,4,1,9,7
05:46:00,6,12,12,14,5,4,2,10,8
05:47:00,7,8,10,10,8,4,0,9,7
05:48:00,12,11,8,8,9,5,8,10,9
05:49:00,6,3,11,2,7,2,4,6,5
05:50:00,13,5,6,8,8,2,3,8,6
05:51:00,8,10,7,13,4,6,4,8,7
05:52:00,6,9,4,14,13,7,5,9,8
05:53:00,11,12,9,2,3,0,4,7,6
05:54:00,12,12,11,8,8,3,3,10,8
05:55:00,11,6,6,9,5,6,1,7,6
05:56:00,11,14,4,5,13,4,2,9,8
05:57:00,7,9,8,10,9,2,4,9,7
05:58:00,7,10,10,12,3,1,0,8,6
05:59:00,14,14,3,13,7,4,1,10,8
06:00:00,6,6,7,3,16,7,2,8,7
06:01:00,9,12,13,3,12,3,2,10,8
06:02:00,7,11,5,9,8,2,1,8,6
06:03:00,13,15,6,13,5,6,6,10,9
06:04:00,8,7,15,8,8,4,0,9,7
06:05:00,16,7,11,12,9,5,2,11,9
06:06:00,13,6,9,15,10,5,5,11,9
06:07:00,16,11,9,9,16,6,5,12,10
06:08:00,9,20,11,15,9,3,0,13,10
06:09:00,11,10,9,14,10,7,4,11,9
06:10:00,17,14,24,13,14,4,1,16,12
06:11:00,8,11,3,5,11,3,4,8,6
06:12:00,18,15,19,13,11,1,5,15,12
06:13:00,10,11,10,7,7,5,2,9,7
06:14:00,14,16,13,12,7,3,8,12,10
06:15:00,5,16,21,13,14,6,6,14,12
06:16:00,18,8,10,11,15,8,2,12,10
06:17:00,18,12,12,13,12,5,5,13,11
06:18:00,10,15,10,14,11,4,9,12,10
06:19:00,10,6,17,11,14,3,2,12,9
06:20:00,7,15,19,16,17,5,1,15,11
06:21:00,25,8,19,20,13,2,2,17,13
06:22:00,18,18,17,13,9,1,1,15,11
06:23:00,9,12,12,7,20,7,4,12,10
06:24:00,19,10,13,11,19,7,4,14,12
06:25:00,14,15,11,14,12,9,5,13,11
06:26:00,13,12,12,16,16,9,3,14,12
06:27:00,13,17,10,15,14,2,7,14,11
06:28:00,9,18,10,15,8,8,6,12,11
06:29:00,12,8,12,13,13,10,6,12,11
06:30:00,21,18,12,11,16,8,3,16,13
06:31:00,20,16,9,13,8,3,8,13,11
06:32:00,26,10,6,19,15,7,3,15,12
06:33:00,19,17,19,20,12,7,1,17,14
06:34:00,14,12,14,17,11,6,3,14,11
06:35:00,12,13,19,12,15,1,3,14,11
06:36:00,11,27,12,14,16,10,4,16,13
06:37:00,24,15,24,15,14,7,4,18,15
06:38:00,18,23,13,21,23,4,7,20,16
06:39:00,15,29,21,16,14,13,8,19,17
06:40:00,10,18,17,23,21,7,6,18,15
06:41:00,19,25,16,13,20,10,7,19,16
06:42:00,18,12,14,25,19,2,3,18,13
06:43:00,27,14,17,22,21,10,3,20,16
06:44:00,19,16,22,24,22,11,8,21,17
06:45:00,23,12,25,13,16,8,6,18,15
06:46:00,18,17,12,30,17,10,3,19,15
06:47:00,7,19,17,19,21,9,4,17,14
06:48:00,20,14,18,11,14,5,5,15,12
06:49:00,35,15,24,16,15,7,4,21,17
06:50:00,15,24,18,21,21,3,9,20,16
06:51:00,24,17,19,18,16,6,2,19,15
06:52:00,20,19,24,16,11,7,7,18,15
06:53:00,32,21,17,13,20,7,12,21,17
06:54:00,33,21,17,25,17,9,6,23,18
06:55:00,8,25,22,20,11,7,6,17,14
06:56:00,20,20,21,18,13,5,8,18,15
06:57:00,21,20,18,17,27,10,3,21,17
06:58:00,11,33,9,32,14,4,1,20,15
06:59:00,30,20,11,13,21,7,6,19,15
07:00:00,30,21,13,31,9,6,0,21,16
07:01:00,24,11,32,13,14,6,6,19,15
07:02:00,15,18,23,24,9,3,4,18,14
07:03:00,22,23,23,18,22,4,6,22,17
07:04:00,17,23,18,21,25,10,2,21,17
07:05:00,17,27,26,20,33,2,6,25,19
07:06:00,25,12,22,19,14,3,3,18,14
07:07:00,29,23,20,23,25,7,6,24,19
07:08:00,32,22,31,35,17,8,3,27,21
07:09:00,28,30,23,29,24,14,5,27,22
07:10:00,24,23,30,26,23,2,5,25,19
07:11:00,32,23,30,16,15,8,4,23,18
07:12:00,26,25,11,19,23,8,5,21,17
07:13:00,19,21,19,17,23,6,7,20,16
07:14:00,30,30,27,21,35,8,6,29,22
07:15:00,18,34,30,26,22,8,9,26,21
07:16:00,18,12,19,27,16,7,5,18,15
07:17:00,31,30,30,20,16,8,4,25,20
07:18:00,23,31,35,25,20,8,3,27,21
07:19:00,27,19,23,32,26,9,6,25,20
07:20:00,27,32,29,21,23,5,7,26,21
07:21:00,12,34,19,21,26,5,4,22,17
07:22:00,36,17,40,19,30,8,5,28,22
07:23:00,24,21,21,24,22,10,2,22,18
07:24:00,20,33,15,18,19,6,5,21,17
07:25:00,32,14,26,24,20,7,6,23,18
07:26:00,25,35,23,27,37,8,1,29,22
07:27:00,17,25,31,25,21,12,4,24,19
07:28:00,33,37,28,25,26,5,6,30,23
07:29:00,18,34,26,28,29,5,8,27,21
07:30:00,18,28,34,17,16,14,6,23,19
07:31:00,40,18,24,28,25,12,5,27,22
07:32:00,15,26,14,26,23,14,3,21,17
07:33:00,35,26,30,24,30,10,6,29,23
07:34:00,14,36,23,28,25,4,2,25,19
07:35:00,35,24,32,19,20,11,6,26,21
07:36:00,15,28,17,32,33,9,7,25,20
07:37:00,23,16,32,22,18,7,3,22,17
07:38:00,27,25,20,13,21,9,1,21,17
07:39:00,23,31,28,29,27,8,6,28,22
07:40:00,37,17,27,22,32,9,8,27,22
07:41:00,18,33,19,31,15,11,8,23,19
07:42:00,26,24,25,19,23,7,0,23,18
07:43:00,21,27,17,28,27,9,10,24,20
07:44:00,24,23,31,26,21,9,5,25,20
07:45:00,28,28,15,28,25,8,5,25,20
07:46:00,21,31,23,24,32,9,4,26,21
07:47:00,31,24,27,16,9,7,4,21,17
07:48:00,11,32,29,36,19,8,6,25,20
07:49:00,32,12,17,16,15,10,3,18,15
07:50:00,10,29,28,30,30,7,3,25,20
07:51:00,34,13,23,27,23,6,5,24,19
07:52:00,13,36,27,25,20,14,4,24,20
07:53:00,26,13,32,26,21,9,4,24,19
07:54:00,16,28,19,20,18,17,4,20,17
07:55:00,26,21,26,26,24,11,6,25,20
07:56:00,24,21,17,6,25,12,4,19,16
07:57:00,24,20,27,15,15,16,3,20,17
07:58:00,27,12,22,20,24,7,4,21,17
07:59:00,15,35,20,17,18,11,9,21,18
08:00:00,31,19,28,31,27,9,6,27,22
08:01:00,13,30,22,21,13,7,8,20,16
08:02:00,30,9,16,33,14,18,7,20,18
08:03:00,24,26,13,11,17,8,7,18,15
08:04:00,19,13,25,28,20,6,3,21,16
08:05:00,26,20,20,18,21,9,3,21,17
08:06:00,26,22,24,19,18,14,8,22,19
08:07:00,26,19,23,19,18,11,11,21,18
08:08:00,13,28,18,23,19,5,8,20,16
08:09:00,27,18,20,33,16,13,6,23,19
08:10:00,10,29,25,11,16,5,5,18,14
08:11:00,28,19,23,25,23,11,7,24,19
08:12:00,23,25,8,18,28,9,13,20,18
08:13:00,13,13,38,28,27,17,9,24,21
08:14:00,22,25,21,11,23,12,5,20,17
08:15:00,15,12,25,38,21,13,8,22,19
08:16:00,18,31,20,13,16,10,7,20,16
08:17:00,18,16,20,20,28,9,6,20,17
08:18:00,30,22,29,15,11,11,8,21,18
08:19:00,15,13,22,21,19,21,2,18,16
08:20:00,23,23,25,22,14,10,6,21,18
08:21:00,16,22,25,13,18,12,2,19,15
08:22:00,23,23,26,28,25,7,10,25,20
08:23:00,18,22,21,18,25,11,2,21,17
08:24:00,23,16,22,18,31,10,13,22,19
08:25:00,21,14,25,16,10,10,12,17,15
08:26:00,21,19,22,15,19,16,8,19,17
08:27:00,27,15,17,23,26,12,3,22,18
08:28:00,23,11,30,19,27,21,6,22,20
08:29:00,25,22,13,14,16,11,9,18,16
08:30:00,17,27,22,32,21,12,13,24,21
08:31:00,23,21,18,18,22,9,4,20,16
08:32:00,18,34,22,21,17,12,8,22,19
08:33:00,21,29,26,29,16,25,6,24,22
08:34:00,26,26,18,16,25,14,7,22,19
08:35:00,19,25,21,29,33,9,10,25,21
08:36:00,18,18,22,11,11,9,11,16,14
08:37:00,17,28,20,29,18,6,5,22,18
08:38:00,26,20,15,17,21,15,14,20,18
08:39:00,24,21,23,24,18,18,6,22,19
08:40:00,22,23,24,28,21,17,8,24,20
08:41:00,23,20,32,16,17,11,13,22,19
08:42:00,22,26,28,34,14,30,13,25,24
08:43:00,20,24,16,15,19,11,4,19,16
08:44:00,6,29,17,27,18,21,6,19,18
08:45:00,19,24,26,22,21,16,15,22,20
08:46:00,19,27,21,14,29,18,6,22,19
08:47:00,19,31,21,29,26,9,8,25,20
08:48:00,30,17,16,13,13,8,8,18,15
08:49:00,19,18,36,24,24,20,12,24,22
08:50:00,19,19,24,25,24,13,15,22,20
08:51:00,18,29,18,14,16,14,13,19,17
08:52:00,17,18,15,20,25,10,8,19,16
08:53:00,17,22,19,18,15,10,8,18,16
08:54:00,36,20,21,23,30,17,5,26,22
08:55:00,17,18,24,20,20,19,14,20,19
08:56:00,17,10,24,26,14,17,1,18,16
08:57:00,22,14,21,15,17,16,4,18,16
08:58:00,25,19,16,25,16,13,7,20,17
08:59:00,21,10,20,18,21,9,9,18,15
09:00:00,24,29,21,28,24,16,7,25,21
09:01:00,13,29,20,12,12,12,8,17,15
09:02:00,30,19,28,26,17,15,6,24,20
09:03:00,11,20,24,12,28,24,8,19,18
09:04:00,34,19,14,25,23,17,8,23,20
09:05:00,17,26,29,17,23,20,18,22,21
09:06:00,8,12,23,20,16,23,13,16,16
09:07:00,24,22,20,29,17,15,7,22,19
09:08:00,17,18,21,16,16,10,15,18,16
09:09:00,18,20,20,29,24,17,3,22,19
09:10:00,27,20,20,21,30,11,15,24,21
09:11:00,15,20,16,37,21,17,9,22,19
09:12:00,18,16,17,12,8,15,4,14,13
09:13:00,12,23,11,22,19,7,16,17,16
09:14:00,32,30,22,27,18,15,15,26,23
09:15:00,19,25,14,17,22,20,8,19,18
09:16:00,17,27,24,17,21,13,8,21,18
09:17:00,24,27,20,25,18,22,16,23,22
09:18:00,21,27,10,15,26,25,9,20,19
09:19:00,13,25,25,20,13,14,10,19,17
09:20:00,31,18,10,19,20,13,10,20,17
09:21:00,13,24,27,17,17,25,12,20,19
09:22:00,20,20,19,26,22,15,13,21,19
09:23:00,11,19,13,14,23,25,14,16,17
09:24:00,17,26,28,21,13,8,13,21,18
09:25:00,20,14,12,18,22,18,12,17,17
09:26:00,18,20,19,23,20,18,11,20,18
09:27:00,26,9,22,27,16,12,14,20,18
09:28:00,23,23,19,17,25,23,19,21,21
09:29:00,23,26,22,22,18,5,7,22,18
09:30:00,25,15,22,20,14,29,13,19,20
09:31:00,16,22,31,24,18,17,11,22,20
09:32:00,18,21,11,19,19,19,9,18,17
09:33:00,17,27,27,14,27,19,14,22,21
09:34:00,13,10,19,14,20,14,14,15,15
09:35:00,20,13,18,22,21,18,19,19,19
09:36:00,20,33,17,18,21,25,12,22,21
09:37:00,37,12,26,28,24,14,10,25,22
09:38:00,19,26,23,17,23,27,10,22,21
09:39:00,23,17,16,16,20,21,16,18,18
09:40:00,16,11,23,24,21,23,11,19,18
09:41:00,20,26,16,19,20,13,9,20,18
09:42:00,15,19,29,28,21,22,20,22,22
09:43:00,25,15,13,19,26,20,17,20,19
09:44:00,16,25,6,15,17,34,7,16,17
09:45:00,15,19,36,23,14,24,18,21,21
09:46:00,32,30,24,28,19,26,22,27,26
09:47:00,10,11,28,17,23,22,13,18,18
09:48:00,34,28,18,14,20,22,8,23,21
09:49:00,21,10,16,25,12,14,12,17,16
09:50:00,23,29,11,25,17,14,25,21,21
09:51:00,14,15,23,19,21,34,14,18,20
09:52:00,26,21,24,22,15,26,8,22,20
09:53:00,33,18,24,15,21,24,11,22,21
09:54:00,13,31,29,34,23,19,8,26,22
09:55:00,21,18,11,22,12,17,14,17,16
09:56:00,20,9,22,25,19,15,20,19,19
09:57:00,13,31,27,26,18,17,15,23,21
09:58:00,11,10,15,21,26,33,16,17,19
09:59:00,26,24,15,19,37,11,10,24,20
10:00:00,22,17,22,21,22,29,19,21,22
10:01:00,19,13,19,19,21,21,11,18,18
10:02:00,10,23,17,15,20,18,26,17,18
10:03:00,18,20,16,21,17,21,27,18,20
10:04:00,25,24,21,17,18,17,12,21,19
10:05:00,21,28,19,22,21,32,26,22,24
10:06:00,21,18,22,31,28,11,10,24,20
10:07:00,19,16,20,19,25,31,20,20,21
10:08:00,27,22,14,11,26,19,22,20,20
10:09:00,23,22,19,20,23,17,12,21,19
10:10:00,15,14,23,18,12,18,18,16,17
10:11:00,20,24,17,17,14,15,13,18,17
10:12:00,21,20,15,15,24,29,15,19,20
10:13:00,21,14,21,27,21,18,22,21,21
10:14:00,14,20,19,20,12,26,13,17,18
10:15:00,22,25,17,13,18,21,16,19,19
10:16:00,20,9,14,18,17,20,14,16,16
10:17:00,23,31,29,31,15,30,13,26,25
10:18:00,18,16,22,16,22,11,11,19,17
10:19:00,21,27,22,22,17,22,17,22,21
10:20:00,19,26,12,25,27,14,17,22,20
10:21:00,30,15,20,23,16,23,18,21,21
10:22:00,25,26,15,31,28,29,25,25,26
10:23:00,21,19,17,17,27,18,23,20,20
10:24:00,20,19,20,22,15,23,14,19,19
10:25:00,20,18,18,20,26,28,17,20,21
10:26:00,20,28,16,23,18,28,25,21,23
10:27:00,22,18,35,28,13,18,19,23,22
10:28:00,13,19,12,17,29,27,22,18,20
10:29:00,21,34,17,22,18,17,16,22,21
10:30:00,22,11,16,19,19,21,25,17,19
10:31:00,16,21,23,33,23,30,10,23,22
10:32:00,27,15,20,18,31,14,28,22,22
10:33:00,20,29,20,18,23,31,16,22,22
10:34:00,15,15,10,22,31,24,19,19,19
10:35:00,16,19,9,20,17,15,16,16,16
10:36:00,17,31,29,16,17,23,30,22,23
10:37:00,15,24,23,15,28,20,16,21,20
10:38:00,14,24,12,25,16,22,17,18,19
10:39:00,11,12,26,24,24,25,31,19,22
10:40:00,25,21,27,21,21,27,18,23,23
10:41:00,24,17,17,28,23,32,30,22,24
10:42:00,17,21,23,18,23,3,22,20,18
10:43:00,16,21,20,20,25,24,17,20,20
10:44:00,29,14,11,23,14,14,14,18,17
10:45:00,20,19,17,15,31,20,20,20,20
10:46:00,19,23,18,15,21,22,15,19,19
10:47:00,26,19,24,19,11,22,20,20,20
10:48:00,24,18,23,26,28,16,22,24,22
10:49:00,29,30,14,23,22,34,16,24,24
10:50:00,21,15,17,20,29,10,21,20,19
10:51:00,17,19,28,17,19,27,19,20,21
10:52:00,24,32,21,24,27,19,24,26,24
10:53:00,27,21,20,18,18,21,23,21,21
10:54:00,18,15,20,20,16,22,17,18,18
10:55:00,18,23,19,21,20,17,24,20,20
10:56:00,23,27,16,17,26,31,16,22,22
10:57:00,17,21,14,21,15,21,17,18,18
10:58:00,26,15,15,19,25,27,18,20,21
10:59:00,24,26,15,24,17,21,26,21,22
11:00:00,13,17,19,19,25,19,22,19,19
11:01:00,23,15,19,23,32,30,14,22,22
11:02:00,14,22,23,8,21,24,23,18,19
11:03:00,12,21,22,26,28,25,19,22,22
11:04:00,21,19,31,26,17,18,20,23,22
11:05:00,21,24,20,13,18,21,15,19,19
11:06:00,19,11,20,27,21,25,13,20,19
11:07:00,29,31,20,17,22,20,20,24,23
11:08:00,14,25,19,19,14,23,18,18,19
11:09:00,20,15,17,21,21,31,23,19,21
11:10:00,15,26,25,25,30,18,24,24,23
11:11:00,14,24,17,28,13,27,14,19,20
11:12:00,14,17,19,22,23,25,23,19,20
11:13:00,17,14,20,25,24,25,12,20,20
11:14:00,14,18,16,13,27,25,22,18,19
11:15:00,26,14,21,29,10,14,22,20,19
11:16:00,26,26,27,24,22,27,21,25,25
11:17:00,9,34,29,20,28,16,33,24,24
11:18:00,21,21,7,15,18,24,17,16,18
11:19:00,29,22,16,19,27,14,24,23,22
11:20:00,17,22,17,24,20,26,25,20,22
11:21:00,15,17,18,24,18,16,19,18,18
11:22:00,22,20,20,17,28,30,22,21,23
11:23:00,19,22,24,14,21,19,15,20,19
11:24:00,18,23,22,13,20,25,24,19,21
11:25:00,21,24,13,24,29,20,16,22,21
11:26:00,21,28,25,14,16,25,25,21,22
11:27:00,22,15,19,14,26,21,18,19,19
11:28:00,27,20,29,12,15,23,23,21,21
11:29:00,17,23,16,22,14,26,29,18,21
11:30:00,16,29,28,26,30,28,16,26,25
11:31:00,21,33,14,23,25,13,10,23,20
11:32:00,17,22,20,22,15,29,23,19,21
11:33:00,33,18,31,28,27,22,17,27,25
11:34:00,18,11,25,21,25,24,35,20,23
11:35:00,20,27,14,28,19,16,23,22,21
11:36:00,30,22,27,31,14,16,20,25,23
11:37:00,26,18,29,14,22,34,16,22,23
11:38:00,23,23,12,23,19,16,13,20,18
11:39:00,24,26,20,26,29,19,31,25,25
11:40:00,23,20,25,16,16,29,18,20,21
11:41:00,13,20,15,29,20,38,21,19,22
11:42:00,19,31,22,29,23,19,34,25,25
11:43:00,27,17,15,31,17,27,13,21,21
11:44:00,19,18,19,17,16,15,24,18,18
11:45:00,21,20,23,22,24,20,22,22,22
11:46:00,27,19,26,22,21,20,14,23,21
11:47:00,24,22,22,24,15,37,28,21,25
11:48:00,10,23,17,12,20,23,22,16,18
11:49:00,22,30,22,22,18,19,22,23,22
11:50:00,17,16,21,15,29,19,25,20,20
11:51:00,25,16,16,23,14,22,27,19,20
11:52:00,17,30,20,32,31,19,27,26,25
11:53:00,22,21,20,21,26,21,15,22,21
11:54:00,17,9,17,21,23,21,25,17,19
11:55:00,31,25,22,33,23,21,19,27,25
11:56:00,17,15,23,19,8,15,16,16,16
11:57:00,15,25,17,18,26,15,22,20,20
11:58:00,26,27,23,26,16,23,25,24,24
11:59:00,18,17,19,21,31,15,26,21,21
12:00:00,19,23,15,26,21,27,20,21,22
12:01:00,19,29,28,24,32,29,25,26,27
12:02:00,19,20,16,19,26,27,15,20,20
12:03:00,14,17,16,18,25,24,23,18,20
12:04:00,24,25,23,17,19,15,22,22,21
12:05:00,11,20,18,15,31,19,18,19,19
12:06:00,34,28,25,27,16,26,22,26,25
12:07:00,31,17,23,21,16,28,22,22,23
12:08:00,15,20,19,19,24,20,30,19,21
12:09:00,22,24,17,27,16,33,17,21,22
12:10:00,25,18,16,21,19,19,28,20,21
12:11:00,17,16,25,21,13,23,13,18,18
12:12:00,29,23,24,28,20,24,18,25,24
12:13:00,13,7,23,28,27,18,21,20,20
12:14:00,21,17,22,19,25,22,16,21,20
12:15:00,18,25,24,22,23,29,23,22,23
12:16:00,25,22,27,11,18,26,29,21,23
12:17:00,19,30,18,20,21,29,17,22,22
12:18:00,26,24,22,42,29,18,29,29,27
12:19:00,17,20,25,10,21,26,25,19,21
12:20:00,26,32,14,35,21,19,15,26,23
12:21:00,25,27,23,16,37,12,28,26,24
12:22:00,22,26,24,25,23,23,19,24,23
12:23:00,11,20,22,24,17,19,20,19,19
12:24:00,24,30,12,25,20,23,29,22,23
12:25:00,16,15,22,15,21,29,20,18,20
12:26:00,18,26,20,24,26,22,29,23,24
12:27:00,25,28,17,25,21,31,16,23,23
12:28:00,28,11,28,22,20,15,28,22,22
12:29:00,13,19,32,19,14,28,24,19,21
12:30:00,35,28,10,24,17,24,19,23,22
12:31:00,19,22,25,24,34,19,29,25,25
12:32:00,21,17,20,17,19,29,19,19,20
12:33:00,30,28,14,23,17,22,23,22,22
12:34:00,20,16,22,17,22,15,26,19,20
12:35:00,14,26,25,27,18,25,14,22,21
12:36:00,24,27,19,25,39,28,27,27,27
12:37:00,26,20,23,16,18,13,22,21,20
12:38:00,21,29,21,17,21,35,15,22,23
12:39:00,28,27,23,27,26,24,18,26,25
12:40:00,26,20,13,24,19,17,25,20,21
12:41:00,18,23,30,22,19,22,21,22,22
12:42:00,24,20,24,35,23,17,20,25,23
12:43:00,23,19,26,24,20,23,30,22,24
12:44:00,17,16,23,18,25,14,23,20,19
12:45:00,18,26,26,26,18,29,24,23,24
12:46:00,31,19,19,15,22,26,11,21,20
12:47:00,13,19,27,14,21,16,17,19,18
12:48:00,35,17,17,32,27,32,20,26,26
12:49:00,27,33,22,27,21,23,21,26,25
12:50:00,13,33,24,23,16,18,22,22,21
12:51:00,35,14,26,26,32,23,20,27,25
12:52:00,30,19,21,20,20,17,30,22,22
12:53:00,10,25,30,24,28,29,15,23,23
12:54:00,27,24,22,11,17,24,28,20,22
12:55:00,16,24,26,22,24,26,29,22,24
12:56:00,24,25,24,24,24,14,27,24,23
12:57:00,22,22,15,20,20,36,26,20,23
12:58:00,17,19,18,31,24,26,22,22,22
12:59:00,33,19,28,21,11,18,29,22,23
13:00:00,29,18,27,16,5,24,21,19,20
13:01:00,18,16,31,20,28,18,31,23,23
13:02:00,33,33,16,24,18,28,13,25,24
13:03:00,23,16,21,18,17,29,25,19,21
13:04:00,24,22,17,22,20,10,24,21,20
13:05:00,29,21,28,26,30,31,23,27,27
13:06:00,29,18,18,19,16,23,22,20,21
13:07:00,25,19,31,25,25,26,22,25,25
13:08:00,20,26,22,19,27,22,19,23,22
13:09:00,14,23,22,27,17,20,30,21,22
13:10:00,17,8,26,22,25,18,18,20,19
13:11:00,19,31,20,24,22,23,11,23,21
13:12:00,23,19,15,26,15,18,24,20,20
13:13:00,26,15,25,33,27,21,17,25,23
13:14:00,25,17,13,20,20,22,18,19,19
13:15:00,18,22,28,16,24,22,24,22,22
13:16:00,28,23,25,33,13,29,20,24,24
13:17:00,18,19,15,29,33,22,24,23,23
13:18:00,11,26,27,26,21,18,25,22,22
13:19:00,21,24,31,18,18,27,23,22,23
13:20:00,18,25,22,17,26,23,20,22,22
13:21:00,22,32,21,28,18,28,14,24,23
13:22:00,30,19,25,31,25,16,21,26,24
13:23:00,25,26,32,19,32,17,29,27,26
13:24:00,23,17,23,25,28,20,13,23,21
13:25:00,18,25,9,12,18,31,30,16,20
13:26:00,23,26,26,16,20,24,25,22,23
13:27:00,19,15,32,38,25,21,20,26,24
13:28:00,12,26,22,26,19,15,15,21,19
13:29:00,30,25,22,16,11,21,21,21,21
13:30:00,21,15,27,27,30,20,31,24,24
13:31:00,16,20,21,22,22,19,22,20,20
13:32:00,26,26,15,25,19,21,25,22,22
13:33:00,26,22,33,15,28,19,21,25,23
13:34:00,21,15,26,22,14,32,31,20,23
13:35:00,20,26,28,25,25,27,9,25,23
13:36:00,13,22,24,20,24,12,26,21,20
13:37:00,24,24,25,25,24,27,16,24,24
13:38:00,27,25,21,22,21,18,20,23,22
13:39:00,25,23,21,21,33,20,19,25,23
13:40:00,16,18,28,33,19,18,15,23,21
13:41:00,21,20,23,17,26,18,20,21,21
13:42:00,19,14,20,24,23,20,22,20,20
13:43:00,21,29,22,20,22,32,17,23,23
13:44:00,16,20,24,23,27,6,15,22,19
13:45:00,15,18,20,16,22,25,23,18,20
13:46:00,36,26,15,36,13,27,22,25,25
13:47:00,21,18,13,30,25,19,15,21,20
13:48:00,26,26,18,16,20,24,26,21,22
13:49:00,21,22,22,22,23,31,22,22,23
13:50:00,21,21,17,21,23,7,20,21,19
13:51:00,17,31,16,20,10,27,22,19,20
13:52:00,23,33,21,12,22,13,22,22,21
13:53:00,11,17,14,32,33,26,19,21,22
13:54:00,25,24,22,24,11,22,14,21,20
13:55:00,31,10,19,12,24,24,19,19,20
13:56:00,24,20,8,29,27,31,22,22,23
13:57:00,19,27,22,18,22,24,24,22,22
13:58:00,17,17,23,15,19,23,17,18,19
13:59:00,26,20,16,20,12,25,12,19,19
14:00:00,18,28,27,17,31,25,22,24,24
14:01:00,16,19,21,27,17,16,20,20,19
14:02:00,26,17,22,22,21,23,12,22,20
14:03:00,22,33,26,21,29,19,21,26,24
14:04:00,10,20,29,22,14,18,23,19,19
14:05:00,19,20,23,19,30,22,18,22,22
14:06:00,24,28,16,19,30,26,11,23,22
14:07:00,27,15,20,25,25,26,30,22,24
14:08:00,18,18,25,9,24,21,18,19,19
14:09:00,22,32,22,21,23,16,29,24,24
14:10:00,22,32,17,19,23,18,26,23,22
14:11:00,23,20,23,27,29,24,23,24,24
14:12:00,33,19,21,13,20,24,19,21,21
14:13:00,19,16,15,28,23,16,17,20,19
14:14:00,27,25,28,14,20,20,23,23,22
14:15:00,23,19,26,19,16,9,18,21,19
14:16:00,22,25,19,23,25,29,18,23,23
14:17:00,23,30,34,26,24,16,34,27,27
14:18:00,26,33,20,27,17,16,28,25,24
14:19:00,13,6,23,24,23,17,30,18,19
14:20:00,25,26,36,16,25,13,11,26,22
14:21:00,22,23,15,20,19,29,16,20,21
14:22:00,32,14,29,20,27,18,31,24,24
14:23:00,19,30,25,28,7,27,18,22,22
14:24:00,7,14,12,21,30,25,20,17,18
14:25:00,19,22,27,21,29,17,23,24,23
14:26:00,18,18,19,22,25,27,13,20,20
14:27:00,21,21,28,15,16,17,21,20,20
14:28:00,27,22,27,20,23,26,18,24,23
14:29:00,29,17,23,16,25,20,15,22,21
14:30:00,15,19,17,16,11,30,21,16,18
14:31:00,27,21,11,23,16,22,30,20,21
14:32:00,15,25,26,24,21,19,18,22,21
14:33:00,23,22,28,14,33,17,12,24,21
14:34:00,24,28,22,24,20,30,30,24,25
14:35:00,13,20,21,26,20,14,18,20,19
14:36:00,22,15,22,22,27,15,16,22,20
14:37:00,27,30,21,18,15,19,18,22,21
14:38:00,23,24,23,26,27,14,17,25,22
14:39:00,21,25,22,16,33,17,19,23,22
14:40:00,23,20,32,29,16,19,18,24,22
14:41:00,24,19,19,24,20,23,16,21,21
14:42:00,17,19,13,25,25,16,29,20,21
14:43:00,33,24,26,24,21,16,18,26,23
14:44:00,9,18,23,13,17,20,16,16,17
14:45:00,20,14,30,19,29,25,21,22,23
14:46:00,25,24,10,16,20,12,18,19,18
14:47:00,16,12,24,15,24,26,24,18,20
14:48:00,27,35,23,24,24,17,20,27,24
14:49:00,23,26,17,26,22,9,19,23,20
14:50:00,20,18,24,29,16,35,14,21,22
14:51:00,20,18,26,26,20,17,18,22,21
14:52:00,22,11,22,13,15,32,20,17,19
14:53:00,26,21,25,27,32,28,25,26,26
14:54:00,20,28,19,18,17,21,22,20,21
14:55:00,30,14,21,21,21,26,22,21,22
14:56:00,20,28,19,27,18,26,18,22,22
14:57:00,13,15,14,16,20,24,21,16,18
14:58:00,27,27,20,20,17,25,21,22,22
14:59:00,23,23,30,26,24,24,21,25,24
15:00:00,22,16,25,19,14,10,17,19,18
15:01:00,25,21,27,22,22,21,23,23,23
15:02:00,20,23,14,18,29,24,28,21,22
15:03:00,28,25,31,23,21,28,22,26,25
15:04:00,21,14,19,25,24,16,24,21,20
15:05:00,28,18,25,29,22,17,16,24,22
15:06:00,18,21,12,25,17,15,26,19,19
15:07:00,34,23,25,20,36,26,30,28,28
15:08:00,5,23,16,30,13,13,14,17,16
15:09:00,31,25,27,19,25,24,15,25,24
15:10:00,16,18,19,27,29,14,20,22,20
15:11:00,14,24,25,30,18,21,27,22,23
15:12:00,19,10,24,14,25,25,17,18,19
15:13:00,18,30,27,23,31,13,18,26,23
15:14:00,18,15,19,15,16,20,21,17,18
15:15:00,21,39,32,27,22,34,16,28,27
15:16:00,31,8,20,20,16,20,12,19,18
15:17:00,16,25,23,23,17,22,19,21,21
15:18:00,23,23,13,13,29,29,25,20,22
15:19:00,16,23,27,35,16,15,17,23,21
15:20:00,20,21,8,21,26,20,14,19,19
15:21:00,17,17,24,31,21,20,22,22,22
15:22:00,23,22,14,11,26,31,18,19,21
15:23:00,17,21,20,26,24,23,23,22,22
15:24:00,25,15,18,7,13,16,20,16,16
15:25:00,12,28,21,26,17,37,11,21,22
15:26:00,27,15,14,13,25,18,17,19,18
15:27:00,11,19,26,23,26,31,23,21,23
15:28:00,17,35,18,18,12,27,22,20,21
15:29:00,25,18,25,22,19,12,20,22,20
15:30:00,23,17,12,12,13,21,21,15,17
15:31:00,17,15,20,28,11,24,22,18,20
15:32:00,24,27,12,10,28,20,9,20,19
15:33:00,30,13,21,28,5,20,24,19,20
15:34:00,23,23,14,11,24,19,15,19,18
15:35:00,27,27,21,31,26,29,12,26,25
15:36:00,13,28,25,16,30,18,24,22,22
15:37:00,24,19,27,29,16,22,26,23,23
15:38:00,19,23,22,19,28,21,15,22,21
15:39:00,20,14,26,31,27,15,17,24,21
15:40:00,18,15,24,14,23,26,20,19,20
15:41:00,27,20,18,38,19,33,21,24,25
15:42:00,18,22,17,15,25,16,16,19,18
15:43:00,24,16,31,27,20,17,13,24,21
15:44:00,15,24,18,18,14,21,24,18,19
15:45:00,18,17,29,27,28,15,17,24,22
15:46:00,13,18,14,16,28,26,18,18,19
15:47:00,16,20,28,32,13,27,19,22,22
15:48:00,33,20,11,22,26,18,20,22,21
15:49:00,17,30,30,26,15,23,16,24,22
15:50:00,30,24,20,19,16,20,21,22,21
15:51:00,17,26,22,28,25,20,9,24,21
15:52:00,10,23,29,10,13,31,18,17,19
15:53:00,32,24,20,34,28,11,16,28,24
15:54:00,14,23,22,11,23,21,23,19,20
15:55:00,20,36,21,24,30,25,18,26,25
15:56:00,23,16,25,19,16,16,16,20,19
15:57:00,25,36,18,33,29,29,19,28,27
15:58:00,22,25,27,14,17,24,16,21,21
15:59:00,20,24,18,24,27,19,15,23,21
16:00:00,24,24,23,14,14,30,19,20,21
16:01:00,10,27,19,24,15,20,18,19,19
16:02:00,31,15,21,12,21,17,12,20,18
16:03:00,16,23,24,19,21,21,14,21,20
16:04:00,25,14,23,21,16,20,18,20,20
16:05:00,13,20,28,38,32,16,20,26,24
16:06:00,25,23,18,22,19,23,18,21,21
16:07:00,16,27,26,26,20,27,18,23,23
16:08:00,17,23,9,25,23,16,22,19,19
16:09:00,29,36,14,32,27,23,27,28,27
16:10:00,19,28,26,14,36,15,15,25,22
16:11:00,20,29,15,35,15,21,17,23,22
16:12:00,26,25,35,14,25,22,20,25,24
16:13:00,30,9,13,33,17,23,16,20,20
16:14:00,19,21,25,16,24,17,17,21,20
16:15:00,17,12,14,32,32,17,18,21,20
16:16:00,21,28,31,9,30,36,17,24,25
16:17:00,25,25,16,28,17,25,17,22,22
16:18:00,27,33,29,14,22,19,22,25,24
16:19:00,21,15,24,26,25,17,14,22,20
16:20:00,28,36,22,15,22,18,17,25,23
16:21:00,17,15,22,19,23,16,15,19,18
16:22:00,27,36,26,34,29,37,24,30,30
16:23:00,12,16,18,24,18,23,24,18,19
16:24:00,29,21,30,27,19,20,16,25,23
16:25:00,20,18,26,14,26,23,22,21,21
16:26:00,27,24,18,23,20,19,16,22,21
16:27:00,23,13,29,25,22,25,5,22,20
16:28:00,27,14,14,22,28,22,19,21,21
16:29:00,15,27,20,22,25,25,20,22,22
16:30:00,28,23,38,24,24,17,12,27,24
16:31:00,24,34,2,23,23,20,26,21,22
16:32:00,24,22,26,19,21,21,8,22,20
16:33:00,29,28,25,32,29,11,29,29,26
16:34:00,25,20,29,12,20,29,18,21,22
16:35:00,16,25,16,27,21,27,18,21,21
16:36:00,18,30,26,17,20,17,15,22,20
16:37:00,10,22,13,27,28,18,14,20,19
16:38:00,32,30,20,24,7,25,8,23,21
16:39:00,19,14,16,24,30,24,20,21,21
16:40:00,20,32,24,8,13,16,14,19,18
16:41:00,19,22,14,22,24,25,19,20,21
16:42:00,27,21,37,24,8,16,11,23,21
16:43:00,24,32,20,22,32,9,16,26,22
16:44:00,18,16,21,21,11,28,17,17,19
16:45:00,24,24,21,16,23,19,21,22,21
16:46:00,12,18,25,24,17,24,16,19,19
16:47:00,21,17,26,21,21,21,10,21,20
16:48:00,13,15,19,14,15,13,13,15,15
16:49:00,25,20,26,23,25,15,24,24,23
16:50:00,24,23,14,18,12,14,13,18,17
16:51:00,21,18,24,35,23,32,19,24,25
16:52:00,17,29,12,14,22,19,15,19,18
16:53:00,30,17,28,23,19,16,23,23,22
16:54:00,17,28,17,20,25,32,20,21,23
16:55:00,29,5,20,20,14,13,17,18,17
16:56:00,19,31,24,18,23,22,24,23,23
16:57:00,24,14,15,14,9,23,14,15,16
16:58:00,15,30,36,20,23,19,12,25,22
16:59:00,24,20,13,32,19,30,22,22,23
17:00:00,22,31,31,17,33,29,22,27,26
17:01:00,24,20,15,23,14,23,16,19,19
17:02:00,26,22,29,21,16,20,16,23,21
17:03:00,24,29,26,24,29,27,10,26,24
17:04:00,19,27,34,15,18,24,10,23,21
17:05:00,14,16,13,29,29,20,14,20,19
17:06:00,33,27,29,19,21,23,14,26,24
17:07:00,15,15,20,24,25,26,21,20,21
17:08:00,26,21,26,18,17,25,19,22,22
17:09:00,12,25,20,28,32,29,15,23,23
17:10:00,30,12,20,15,14,20,14,18,18
17:11:00,21,27,26,30,25,26,22,26,25
17:12:00,20,13,17,18,14,17,14,16,16
17:13:00,28,25,23,23,27,20,18,25,23
17:14:00,26,9,16,22,20,29,19,19,20
17:15:00,32,24,24,22,18,31,23,24,25
17:16:00,13,17,14,18,23,21,17,17,18
17:17:00,19,31,20,10,23,31,19,21,22
17:18:00,12,11,9,29,25,23,23,17,19
17:19:00,21,28,31,24,23,22,12,25,23
17:20:00,20,18,15,16,25,19,20,19,19
17:21:00,29,24,32,17,10,28,25,22,24
17:22:00,20,19,17,23,19,7,14,20,17
17:23:00,23,26,23,21,13,22,25,21,22
17:24:00,29,27,11,10,22,13,12,20,18
17:25:00,10,17,26,19,16,25,18,18,19
17:26:00,18,26,18,27,33,18,12,24,22
17:27:00,26,8,30,10,13,27,17,17,19
17:28:00,16,24,22,20,28,26,12,22,21
17:29:00,24,11,20,14,19,29,23,18,20
17:30:00,10,26,23,30,18,20,13,21,20
17:31:00,32,19,19,15,27,24,14,22,21
17:32:00,8,24,17,26,20,18,23,19,19
17:33:00,34,19,21,7,14,30,5,19,19
17:34:00,27,31,23,18,19,23,13,24,22
17:35:00,21,11,14,31,26,25,19,21,21
17:36:00,16,24,34,17,21,24,13,22,21
17:37:00,32,19,15,26,17,20,20,22,21
17:38:00,27,30,17,21,25,26,17,24,23
17:39:00,8,24,22,26,15,17,19,19,19
17:40:00,33,32,18,7,29,33,14,24,24
17:41:00,26,22,29,27,20,12,13,25,21
17:42:00,26,24,16,11,28,29,19,21,22
17:43:00,18,22,17,19,20,20,14,19,19
17:44:00,16,23,24,7,25,33,21,19,21
17:45:00,20,22,21,31,16,17,16,22,20
17:46:00,31,21,21,19,22,29,6,23,21
17:47:00,17,24,25,35,10,34,16,22,23
17:48:00,13,20,28,11,25,17,21,19,19
17:49:00,26,17,25,26,26,21,10,24,22
17:50:00,16,35,21,26,23,30,15,24,24
17:51:00,24,18,22,26,18,21,12,22,20
17:52:00,18,38,12,18,23,31,12,22,22
17:53:00,27,20,17,16,22,25,8,20,19
17:54:00,18,23,21,28,18,18,20,22,21
17:55:00,28,18,18,20,26,18,14,22,20
17:56:00,18,32,26,34,22,31,8,26,24
17:57:00,28,11,18,23,22,20,24,20,21
17:58:00,20,23,32,20,29,23,10,25,22
17:59:00,24,14,14,26,17,22,7,19,18
18:00:00,21,28,15,19,18,15,11,20,18
18:01:00,23,19,22,25,23,24,9,22,21
18:02:00,13,19,25,25,20,25,9,20,19
18:03:00,26,23,24,27,19,21,13,24,22
18:04:00,22,21,28,18,26,24,13,23,22
18:05:00,19,13,17,19,17,17,13,17,16
18:06:00,21,22,13,26,22,25,19,21,21
18:07:00,32,18,26,17,24,18,12,23,21
18:08:00,21,18,14,33,28,27,12,23,22
18:09:00,11,29,33,15,21,28,13,22,21
18:10:00,29,28,14,20,31,27,13,24,23
18:11:00,16,15,21,22,25,23,14,20,19
18:12:00,22,18,25,20,27,17,15,22,21
18:13:00,23,32,23,21,18,16,12,23,21
18:14:00,13,18,29,29,16,14,15,21,19
18:15:00,27,16,24,19,26,19,13,22,21
18:16:00,26,32,20,20,19,21,9,23,21
18:17:00,22,21,23,18,26,24,16,22,21
18:18:00,19,23,20,27,19,24,14,22,21
18:19:00,24,27,18,28,22,19,9,24,21
18:20:00,12,12,20,26,13,22,9,17,16
18:21:00,24,19,31,23,26,26,16,25,24
18:22:00,15,17,17,17,21,34,9,17,19
18:23:00,20,12,12,22,18,27,8,17,17
18:24:00,24,28,20,19,22,25,13,23,22
18:25:00,22,26,21,21,17,22,16,21,21
18:26:00,24,18,14,29,14,22,20,20,20
18:27:00,17,16,25,14,11,25,17,17,18
18:28:00,18,32,25,27,24,18,14,25,23
18:29:00,23,27,23,25,15,23,8,23,21
18:30:00,23,22,19,30,13,23,11,21,20
18:31:00,20,17,21,21,23,26,10,20,20
18:32:00,15,27,17,23,20,11,17,20,19
18:33:00,19,23,19,20,14,25,5,19,18
18:34:00,25,16,21,21,26,23,11,22,20
18:35:00,28,19,19,21,27,14,11,23,20
18:36:00,16,15,22,29,17,11,11,20,17
18:37:00,20,19,29,19,25,19,9,22,20
18:38:00,30,12,19,29,10,24,18,20,20
18:39:00,22,20,12,23,22,24,14,20,20
18:40:00,26,17,20,29,9,21,9,20,19
18:41:00,18,27,23,26,15,22,5,22,19
18:42:00,27,16,23,22,19,15,18,21,20
18:43:00,24,8,14,19,17,17,12,16,16
18:44:00,18,20,24,30,21,14,13,23,20
18:45:00,23,21,29,15,22,10,14,22,19
18:46:00,20,9,20,28,12,21,12,18,17
18:47:00,22,24,11,28,18,17,14,21,19
18:48:00,20,23,15,13,21,22,11,18,18
18:49:00,16,17,26,14,17,15,13,18,17
18:50:00,12,18,12,24,20,19,13,17,17
18:51:00,24,20,29,14,19,14,19,21,20
18:52:00,18,13,9,27,19,21,14,17,17
18:53:00,15,13,13,23,11,19,8,15,15
18:54:00,21,18,22,10,26,29,11,19,20
18:55:00,18,25,23,30,27,23,9,25,22
18:56:00,19,19,19,20,13,18,14,18,17
18:57:00,21,15,20,20,19,13,12,19,17
18:58:00,14,23,19,18,27,19,14,20,19
18:59:00,14,16,23,23,17,18,13,19,18
19:00:00,16,13,26,17,15,20,6,17,16
19:01:00,16,16,13,22,18,9,7,17,14
19:02:00,9,14,22,19,19,16,11,17,16
19:03:00,11,24,20,20,25,19,8,20,18
19:04:00,23,14,14,18,17,12,8,17,15
19:05:00,15,14,12,21,15,17,11,15,15
19:06:00,13,14,20,20,30,17,6,19,17
19:07:00,9,22,23,27,15,18,16,19,19
19:08:00,11,21,28,20,21,18,16,20,19
19:09:00,17,19,16,20,21,14,18,19,18
19:10:00,26,10,13,15,18,23,9,16,16
19:11:00,16,22,14,22,15,19,10,18,17
19:12:00,15,27,20,21,16,7,15,20,17
19:13:00,23,18,14,22,21,17,9,20,18
19:14:00,18,17,12,33,21,22,19,20,20
19:15:00,20,14,23,23,16,18,8,19,17
19:16:00,16,9,11,25,18,10,4,16,13
19:17:00,21,25,20,27,24,15,11,23,20
19:18:00,8,21,24,25,8,15,9,17,16
19:19:00,29,9,12,27,15,16,8,18,17
19:20:00,23,22,20,20,13,17,15,20,19
19:21:00,16,27,18,14,22,27,5,19,18
19:22:00,11,14,24,20,21,14,10,18,16
19:23:00,14,12,18,25,22,12,10,18,16
19:24:00,21,11,14,14,22,6,8,16,14
19:25:00,20,21,26,17,17,15,5,20,17
19:26:00,15,25,11,21,18,8,6,18,15
19:27:00,13,11,14,21,19,10,8,16,14
19:28:00,7,10,29,24,14,6,12,17,15
19:29:00,19,20,15,22,11,18,12,17,17
19:30:00,15,10,17,10,24,20,11,15,15
19:31:00,6,10,8,27,23,25,11,15,16
19:32:00,23,14,18,16,15,12,7,17,15
19:33:00,14,15,14,25,12,16,7,16,15
19:34:00,10,12,10,17,20,22,8,14,14
19:35:00,13,18,19,15,11,6,8,15,13
19:36:00,15,14,9,13,27,13,12,16,15
19:37:00,16,21,15,22,19,11,8,19,16
19:38:00,17,13,17,29,27,12,2,21,17
19:39:00,9,17,19,19,15,14,3,16,14
19:40:00,3,19,19,11,14,16,10,13,13
19:41:00,14,9,18,24,22,22,5,17,16
19:42:00,7,18,19,16,16,16,7,15,14
19:43:00,9,15,15,19,15,8,11,15,13
19:44:00,10,19,19,22,20,20,14,18,18
19:45:00,19,9,12,19,18,9,7,15,13
19:46:00,12,14,13,19,9,11,8,13,12
19:47:00,13,17,14,14,22,16,10,16,15
19:48:00,11,12,8,22,17,15,9,14,13
19:49:00,16,11,9,22,10,13,6,14,12
19:50:00,19,19,10,15,12,17,9,15,14
19:51:00,21,11,13,15,15,8,12,15,14
19:52:00,8,13,13,18,11,10,10,13,12
19:53:00,18,10,12,12,9,12,10,12,12
19:54:00,10,10,16,9,13,10,7,12,11
19:55:00,15,18,16,20,20,8,10,18,15
19:56:00,5,8,15,8,5,14,9,8,9
19:57:00,10,18,15,9,16,11,14,14,13
19:58:00,12,11,14,18,16,14,13,14,14
19:59:00,14,10,13,16,18,8,18,14,14
20:00:00,18,12,14,8,5,11,10,11,11
20:01:00,16,7,21,13,18,14,9,15,14
20:02:00,11,6,13,15,23,13,7,14,13
20:03:00,4,14,11,23,11,16,5,13,12
20:04:00,8,15,16,10,19,9,5,14,12
20:05:00,13,18,12,18,17,17,10,16,15
20:06:00,11,17,15,14,11,13,6,14,12
20:07:00,13,10,8,16,10,13,8,11,11
20:08:00,14,17,16,12,16,11,11,15,14
20:09:00,6,14,12,15,10,11,11,11,11
20:10:00,17,17,16,18,16,9,9,17,15
20:11:00,10,21,13,16,15,16,10,15,14
20:12:00,15,15,16,16,12,19,7,15,14
20:13:00,15,10,7,20,12,6,8,13,11
20:14:00,4,18,26,18,17,11,7,17,14
20:15:00,13,8,18,14,10,18,12,13,13
20:16:00,12,21,18,16,9,13,8,15,14
20:17:00,11,16,13,9,16,5,6,13,11
20:18:00,12,10,17,20,13,6,20,14,14
20:19:00,16,12,13,12,11,11,6,13,12
20:20:00,9,14,10,12,13,8,8,12,11
20:21:00,8,10,13,18,8,3,6,11,9
20:22:00,13,14,14,13,14,14,10,14,13
20:23:00,12,15,10,17,12,16,7,13,13
20:24:00,9,10,11,6,12,8,5,10,9
20:25:00,12,9,9,14,11,5,14,11,11
20:26:00,15,22,11,8,6,8,13,12,12
20:27:00,4,10,16,16,20,18,5,13,13
20:28:00,15,8,11,10,11,7,4,11,9
20:29:00,9,10,5,11,9,11,2,9,8
20:30:00,10,15,14,13,14,7,10,13,12
20:31:00,8,9,9,10,9,9,12,9,9
20:32:00,18,14,12,17,9,17,7,14,13
20:33:00,13,13,14,11,9,11,7,12,11
20:34:00,9,3,7,11,12,7,4,8,8
20:35:00,4,4,15,17,10,8,9,10,10
20:36:00,9,13,12,8,12,11,6,11,10
20:37:00,14,15,15,9,7,12,8,12,11
20:38:00,10,7,9,13,12,7,8,10,9
20:39:00,8,10,5,11,9,15,11,9,10
20:40:00,9,11,14,9,7,7,7,10,9
20:41:00,11,12,9,8,10,14,11,10,11
20:42:00,11,8,8,10,7,9,4,9,8
20:43:00,14,13,9,10,11,13,4,11,11
20:44:00,10,8,8,12,14,14,5,10,10
20:45:00,10,11,14,11,14,13,5,12,11
20:46:00,10,7,11,6,15,7,7,10,9
20:47:00,17,10,14,12,9,8,6,12,11
20:48:00,11,9,7,6,8,6,10,8,8
20:49:00,9,15,7,10,15,10,7,11,10
20:50:00,7,11,9,8,16,6,5,10,9
20:51:00,11,8,11,9,13,7,4,10,9
20:52:00,9,9,6,13,9,13,8,9,10
20:53:00,7,9,11,14,8,7,8,10,9
20:54:00,7,7,8,5,9,5,6,7,7
20:55:00,10,11,14,8,13,14,6,11,11
20:56:00,13,7,10,19,7,7,8,11,10
20:57:00,4,8,5,9,10,7,5,7,7
20:58:00,8,14,9,10,15,11,8,11,11
20:59:00,10,11,12,18,15,13,12,13,13
21:00:00,12,4,8,16,10,8,6,10,9
21:01:00,9,8,12,4,13,13,8,9,10
21:02:00,8,12,13,9,10,13,6,10,10
21:03:00,6,7,4,12,16,9,10,9,9
21:04:00,5,10,10,10,1,7,8,7,7
21:05:00,13,11,12,10,10,9,12,11,11
21:06:00,12,11,10,4,6,13,8,9,9
21:07:00,10,15,16,15,15,9,6,14,12
21:08:00,6,5,10,8,6,3,6,7,6
21:09:00,11,8,15,12,10,13,5,11,11
21:10:00,16,8,10,16,10,12,8,12,11
21:11:00,9,10,7,10,12,8,6,10,9
21:12:00,8,16,5,7,9,8,6,9,8
21:13:00,11,9,7,12,13,6,3,10,9
21:14:00,9,13,12,12,9,11,12,11,11
21:15:00,8,6,12,12,10,5,6,10,8
21:16:00,12,6,9,10,13,13,6,10,10
21:17:00,10,8,10,9,8,7,7,9,8
21:18:00,13,10,7,10,10,11,9,10,10
21:19:00,8,15,11,10,5,7,9,10,9
21:20:00,4,7,6,11,5,18,4,7,8
21:21:00,11,10,8,9,11,8,5,10,9
21:22:00,15,12,11,9,12,10,3,12,10
21:23:00,12,11,5,12,7,6,8,9,9
21:24:00,7,13,17,8,7,15,3,10,10
21:25:00,2,8,15,19,10,3,9,11,9
21:26:00,7,4,12,6,13,11,6,8,8
21:27:00,5,7,8,7,7,17,5,7,8
21:28:00,9,10,11,14,4,5,8,10,9
21:29:00,5,13,12,14,7,11,3,10,9
21:30:00,11,6,9,10,7,17,9,9,10
21:31:00,10,12,9,5,10,7,3,9,8
21:32:00,7,8,11,10,9,7,4,9,8
21:33:00,9,7,13,12,5,10,5,9,9
21:34:00,6,11,12,11,9,7,9,10,9
21:35:00,6,11,9,12,12,7,3,10,9
21:36:00,3,7,12,6,8,6,14,7,8
21:37:00,8,11,7,9,10,14,10,9,10
21:38:00,10,1,9,10,10,10,7,8,8
21:39:00,3,10,7,9,6,8,6,7,7
21:40:00,5,8,8,9,4,7,11,7,7
21:41:00,5,6,2,13,9,10,2,7,7
21:42:00,10,10,11,13,5,9,11,10,10
21:43:00,6,11,10,15,4,6,7,9,8
21:44:00,16,10,9,10,8,7,6,11,9
21:45:00,5,10,9,14,13,5,0,10,8
21:46:00,13,2,6,6,2,12,7,6,7
21:47:00,7,9,5,11,8,7,7,8,8
21:48:00,5,10,9,12,5,7,6,8,8
21:49:00,11,8,3,11,7,11,11,8,9
21:50:00,8,7,5,9,9,3,5,8,7
21:51:00,3,10,8,6,15,5,10,8,8
21:52:00,7,4,10,16,4,6,2,8,7
21:53:00,4,14,10,7,4,5,15,8,8
21:54:00,9,9,7,4,7,3,5,7,6
21:55:00,6,7,10,6,7,9,18,7,9
21:56:00,6,10,5,8,8,9,6,7,7
21:57:00,9,4,6,3,4,17,10,5,8
21:58:00,4,11,8,10,5,11,12,8,9
21:59:00,1,7,13,9,9,6,13,8,8
22:00:00,5,14,7,5,11,13,8,8,9
22:01:00,5,8,7,8,13,9,9,8,8
22:02:00,8,3,5,4,4,6,9,5,6
22:03:00,2,3,7,7,9,13,9,6,7
22:04:00,12,11,7,7,9,9,4,9,8
22:05:00,5,6,9,10,8,15,6,8,8
22:06:00,6,7,8,9,7,8,4,7,7
22:07:00,10,9,6,7,6,9,3,8,7
22:08:00,8,8,7,5,9,12,7,7,8
22:09:00,7,6,7,9,9,12,5,8,8
22:10:00,4,9,10,5,8,11,7,7,8
22:11:00,8,10,9,12,11,10,10,10,10
22:12:00,10,10,6,9,3,5,6,8,7
22:13:00,4,9,9,6,14,10,2,8,8
22:14:00,10,11,9,7,9,6,12,9,9
22:15:00,8,12,5,14,12,10,4,10,9
22:16:00,3,12,3,9,5,6,6,6,6
22:17:00,4,7,9,16,8,1,3,9,7
22:18:00,4,4,15,11,8,8,1,8,7
22:19:00,3,8,4,13,2,11,8,6,7
22:20:00,5,4,6,20,10,11,2,9,8
22:21:00,8,13,7,11,6,6,2,9,8
22:22:00,8,3,9,6,6,12,4,6,7
22:23:00,3,5,10,7,15,5,3,8,7
22:24:00,5,4,5,10,11,7,6,7,7
22:25:00,5,7,4,5,8,3,5,6,5
22:26:00,6,6,4,9,6,11,3,6,6
22:27:00,7,7,10,7,9,11,5,8,8
22:28:00,3,9,4,6,9,5,6,6,6
22:29:00,4,10,4,7,11,11,8,7,8
22:30:00,0,3,7,4,10,12,6,5,6
22:31:00,5,6,3,11,4,10,5,6,6
22:32:00,6,5,6,3,4,12,5,5,6
22:33:00,4,6,5,8,12,9,5,7,7
22:34:00,3,3,7,9,9,14,5,6,7
22:35:00,4,9,6,6,8,9,1,7,6
22:36:00,4,7,5,2,7,13,3,5,6
22:37:00,7,1,2,4,11,6,5,5,5
22:38:00,6,6,4,4,7,9,2,5,5
22:39:00,4,5,6,4,12,4,1,6,5
22:40:00,5,4,8,7,6,7,1,6,5
22:41:00,6,5,10,6,7,9,4,7,7
22:42:00,5,5,11,7,7,10,8,7,8
22:43:00,5,5,2,8,9,4,0,6,5
22:44:00,11,8,10,8,9,4,6,9,8
22:45:00,6,6,8,3,13,7,2,7,6
22:46:00,3,5,5,5,9,6,4,5,5
22:47:00,3,2,7,9,5,10,5,5,6
22:48:00,3,2,2,6,8,13,2,4,5
22:49:00,4,5,6,3,4,10,3,4,5
22:50:00,6,3,4,9,9,8,5,6,6
22:51:00,7,6,8,3,8,6,1,6,6
22:52:00,5,9,4,10,9,9,4,7,7
22:53:00,7,2,4,5,5,8,6,5,5
22:54:00,2,7,3,4,3,5,3,4,4
22:55:00,2,6,5,3,5,6,4,4,4
22:56:00,4,7,4,9,6,7,3,6,6
22:57:00,1,4,8,4,8,9,7,5,6
22:58:00,5,4,4,8,6,10,2,5,6
22:59:00,7,5,5,7,1,9,5,5,6
23:00:00,5,4,3,4,6,4,1,4,4
23:01:00,6,10,9,6,7,4,4,8,7
23:02:00,5,5,4,4,8,6,2,5,5
23:03:00,5,2,9,6,9,7,1,6,6
23:04:00,3,0,5,7,4,7,3,4,4
23:05:00,5,1,4,6,8,8,4,5,5
23:06:00,2,6,5,7,9,3,2,6,5
23:07:00,4,2,6,3,4,3,3,4,4
23:08:00,4,3,6,3,5,8,9,4,5
23:09:00,3,5,4,7,6,7,4,5,5
23:10:00,5,3,5,4,8,5,5,5,5
23:11:00,4,7,4,3,6,7,3,5,5
23:12:00,3,4,4,2,7,3,5,4,4
23:13:00,3,3,3,1,2,9,2,2,3
23:14:00,5,2,3,1,8,12,2,4,5
23:15:00,4,5,2,5,7,5,3,5,4
23:16:00,3,6,7,7,7,5,2,6,5
23:17:00,4,1,4,6,4,3,1,4,3
23:18:00,6,6,2,4,9,4,5,5,5
23:19:00,4,2,3,2,4,8,3,3,4
23:20:00,2,0,2,4,4,10,3,2,4
23:21:00,2,7,3,8,9,12,2,6,6
23:22:00,2,2,6,4,4,7,3,4,4
23:23:00,2,6,4,1,2,7,3,3,4
23:24:00,6,15,5,4,7,8,4,7,7
23:25:00,3,0,3,7,5,5,4,4,4
23:26:00,1,1,4,1,4,7,0,2,3
23:27:00,3,3,3,3,4,8,1,3,4
23:28:00,1,4,4,3,7,9,0,4,4
23:29:00,6,1,6,2,7,5,4,4,4
23:30:00,2,3,8,7,3,5,4,5,5
23:31:00,3,2,1,6,6,4,3,4,4
23:32:00,2,3,3,3,4,6,3,3,3
23:33:00,2,5,1,4,7,12,1,4,5
23:34:00,5,3,5,4,6,6,3,5,5
23:35:00,2,6,2,2,8,4,5,4,4
23:36:00,6,3,3,6,5,6,1,5,4
23:37:00,4,0,4,2,7,11,2,3,4
23:38:00,1,3,3,3,1,6,3,2,3
23:39:00,4,1,3,4,5,6,4,3,4
23:40:00,3,8,3,1,6,6,2,4,4
23:41:00,6,0,2,3,9,5,0,4,4
23:42:00,4,1,3,3,7,13,4,4,5
23:43:00,2,2,3,4,6,6,1,3,3
23:44:00,3,5,5,3,2,8,0,4,4
23:45:00,1,3,2,3,4,5,2,3,3
23:46:00,2,1,3,1,5,4,5,2,3
23:47:00,1,7,4,6,4,9,2,4,5
23:48:00,3,1,4,2,4,2,2,3,3
23:49:00,2,3,2,4,8,2,3,4,3
23:50:00,2,5,4,2,1,4,2,3,3
23:51:00,1,5,3,8,9,6,2,5,5
23:52:00,7,2,2,5,7,1,3,5,4
23:53:00,1,5,1,6,2,8,5,3,4
23:54:00,2,1,1,4,5,4,1,3,3
23:55:00,0,2,3,2,5,7,4,2,3
23:56:00,1,2,0,3,2,7,0,2,2
23:57:00,0,4,4,1,4,3,2,3,3
23:58:00,2,1,4,7,7,6,1,4,4
23:59:00,0,1,6,2,2,5,1,2,2
,,,,,,,,,
Totals,,,,,,,,,
12H(7-19),15391,15625,15434,15654,15327,14209,11586,15486,14747
16H(6-22),18363,18720,18555,19075,18443,16605,13327,18631,17584
18H(6-24),18868,19310,19160,19751,19252,17499,13766,19268,18229
24H(0-24),19808,20226,20061,20660,20147,18297,14663,20180,19123
,,,,,,,,,
AM Peak,07:07:00,07:02:00,07:01:00,06:56:00,07:03:00,10:49:00,11:00:00,07:03:00,10:00:00
,1459,1494,1483,1412,1360,1377,1264,1433,1223
,,,,,,,,,
PM Peak,12:06:00,15:44:00,12:41:00,12:48:00,15:34:00,16:59:00,12:10:00,12:36:00,12:36:00
,1373,1418,1409,1395,1366,1419,1349,1350,1347
,,,,,,,,,
,,,,,,,,,
CA Traffic,,,,,,,,,VDA-net R2 26/05/2020
