Site Number,00008012,Unnamed: 2,Site Reference,00008012.1,Unnamed: 5,Unnamed: 6,Lat/Lng.,"52.05994,1.13510",Unnamed: 9
Radar 8012 Yarrmouth Road Ipswich,,,,,,,,,
Vehicle Count Report,,,,Week Begin: 20 January 2020,,,Channel:,Total Flow,
,,,,,,,,,
,,,,,,,,,
,2020-01-20 00:00:00,2020-01-21 00:00:00,2020-01-22 00:00:00,2020-01-23 00:00:00,2020-01-24 00:00:00,2020-01-25 00:00:00,2020-01-26 00:00:00,"5-Day
Ave.","7-Day
Ave."
00:00:00,3,1,2,2,3,3,8,2,3
00:01:00,1,1,0,1,1,7,5,1,2
00:02:00,4,8,4,4,1,4,2,4,4
00:03:00,1,3,3,2,2,6,7,2,3
00:04:00,4,3,1,2,2,4,5,2,3
00:05:00,2,0,0,3,4,5,5,2,3
00:06:00,3,4,2,3,4,7,4,3,4
00:07:00,1,2,4,1,1,2,10,2,3
00:08:00,2,5,1,4,1,3,6,3,3
00:09:00,1,4,3,4,1,6,9,3,4
00:10:00,3,5,3,2,6,8,4,4,4
00:11:00,2,3,2,1,3,1,7,2,3
00:12:00,5,1,2,1,3,4,1,2,2
00:13:00,2,3,1,5,6,7,5,3,4
00:14:00,3,4,3,4,4,5,3,4,4
00:15:00,3,0,0,2,2,7,6,1,3
00:16:00,1,1,2,5,1,6,7,2,3
00:17:00,4,2,2,7,3,4,3,4,4
00:18:00,0,0,3,1,0,4,3,1,2
00:19:00,1,2,5,1,2,3,3,2,2
00:20:00,5,1,0,3,2,7,6,2,3
00:21:00,2,0,1,4,1,5,7,2,3
00:22:00,1,2,2,1,0,4,4,1,2
00:23:00,1,0,2,0,2,4,2,1,2
00:24:00,1,3,2,1,1,7,5,2,3
00:25:00,1,1,2,4,2,2,4,2,2
00:26:00,4,0,3,2,1,7,3,2,3
00:27:00,2,1,1,1,2,6,6,1,3
00:28:00,1,1,1,3,5,2,4,2,2
00:29:00,2,2,1,1,3,8,2,2,3
00:30:00,3,2,1,6,0,3,5,2,3
00:31:00,0,2,4,4,2,5,3,2,3
00:32:00,3,2,2,1,3,6,2,2,3
00:33:00,0,1,2,1,2,4,2,1,2
00:34:00,2,2,2,2,1,5,4,2,3
00:35:00,0,3,1,1,0,3,4,1,2
00:36:00,2,1,0,2,1,3,5,1,2
00:37:00,2,1,3,1,2,3,3,2,2
00:38:00,1,1,1,2,2,2,2,1,2
00:39:00,2,5,1,1,0,2,4,2,2
00:40:00,2,1,1,3,2,3,0,2,2
00:41:00,4,3,2,2,1,3,4,2,3
00:42:00,1,3,1,3,4,4,1,2,2
00:43:00,3,0,2,2,1,5,4,2,2
00:44:00,0,0,2,2,4,5,1,2,2
00:45:00,1,0,2,2,5,2,4,2,2
00:46:00,1,1,3,5,0,4,4,2,3
00:47:00,0,3,3,0,0,3,2,1,2
00:48:00,2,4,0,2,2,1,5,2,2
00:49:00,0,2,2,0,4,4,2,2,2
00:50:00,2,1,1,3,3,3,2,2,2
00:51:00,0,4,2,4,2,4,4,2,3
00:52:00,0,1,1,1,0,4,2,1,1
00:53:00,0,1,0,2,3,4,4,1,2
00:54:00,0,2,2,2,0,3,2,1,2
00:55:00,1,2,0,1,1,3,5,1,2
00:56:00,0,2,3,3,3,0,0,2,2
00:57:00,0,0,2,1,3,1,1,1,1
00:58:00,0,2,3,0,4,3,5,2,2
00:59:00,0,1,4,2,4,1,2,2,2
01:00:00,0,0,4,2,1,4,1,1,2
01:01:00,0,2,1,2,1,3,4,1,2
01:02:00,2,2,3,2,1,2,3,2,2
01:03:00,2,1,0,2,2,1,1,1,1
01:04:00,0,0,1,1,3,0,2,1,1
01:05:00,0,1,1,3,3,2,3,2,2
01:06:00,1,3,1,2,1,3,3,2,2
01:07:00,0,2,2,0,1,3,2,1,1
01:08:00,0,2,0,3,2,3,3,1,2
01:09:00,2,1,1,0,2,1,2,1,1
01:10:00,2,1,1,1,1,1,4,1,2
01:11:00,1,1,1,0,1,5,1,1,1
01:12:00,0,1,1,1,5,3,3,2,2
01:13:00,1,1,3,3,2,2,5,2,2
01:14:00,0,0,3,0,1,1,5,1,1
01:15:00,1,0,1,2,0,4,4,1,2
01:16:00,0,1,2,1,2,2,4,1,2
01:17:00,0,0,0,0,0,2,4,0,1
01:18:00,2,1,1,1,0,3,0,1,1
01:19:00,1,1,1,0,1,1,1,1,1
01:20:00,1,0,0,0,3,3,2,1,1
01:21:00,2,3,1,1,1,1,1,2,1
01:22:00,0,0,1,1,1,2,3,1,1
01:23:00,1,0,0,2,1,1,2,1,1
01:24:00,1,1,2,0,1,3,4,1,2
01:25:00,0,2,1,3,1,1,2,1,1
01:26:00,0,0,1,2,0,3,1,1,1
01:27:00,0,0,0,1,1,1,2,0,1
01:28:00,0,0,0,0,2,3,2,0,1
01:29:00,3,2,1,2,1,2,0,2,2
01:30:00,0,0,2,2,1,3,0,1,1
01:31:00,1,0,2,2,1,1,1,1,1
01:32:00,1,1,0,2,4,2,0,2,1
01:33:00,0,0,0,0,1,2,3,0,1
01:34:00,1,2,1,0,4,3,1,2,2
01:35:00,2,1,4,2,4,2,4,3,3
01:36:00,1,1,3,3,2,2,1,2,2
01:37:00,0,0,1,2,2,1,3,1,1
01:38:00,0,1,3,0,2,2,1,1,1
01:39:00,0,0,2,0,0,6,3,0,2
01:40:00,0,0,1,0,0,1,4,0,1
01:41:00,0,0,0,2,1,2,0,1,1
01:42:00,0,0,0,1,0,2,5,0,1
01:43:00,1,2,0,2,1,1,1,1,1
01:44:00,0,0,0,1,4,1,1,1,1
01:45:00,1,0,1,1,0,2,1,1,1
01:46:00,1,1,2,0,2,3,1,1,1
01:47:00,2,0,0,1,0,1,3,1,1
01:48:00,1,1,1,2,0,0,2,1,1
01:49:00,1,2,0,1,1,0,6,1,2
01:50:00,2,1,2,1,1,2,3,1,2
01:51:00,3,0,2,1,0,1,3,1,1
01:52:00,0,0,1,0,1,1,2,0,1
01:53:00,1,1,1,2,1,2,0,1,1
01:54:00,1,1,3,1,1,1,4,1,2
01:55:00,0,0,1,1,0,3,1,0,1
01:56:00,0,1,1,0,0,1,3,0,1
01:57:00,0,0,3,0,2,4,1,1,1
01:58:00,2,4,0,0,1,1,5,1,2
01:59:00,0,0,1,0,1,2,1,0,1
02:00:00,1,1,0,0,1,0,1,1,1
02:01:00,0,1,1,0,1,2,2,1,1
02:02:00,1,1,1,1,1,2,1,1,1
02:03:00,1,0,3,0,2,3,2,1,2
02:04:00,0,1,0,2,1,1,4,1,1
02:05:00,1,0,0,0,1,1,1,0,1
02:06:00,1,0,0,1,1,2,0,1,1
02:07:00,0,0,1,1,0,0,0,0,0
02:08:00,0,1,0,0,2,0,2,1,1
02:09:00,0,2,1,1,1,3,0,1,1
02:10:00,0,2,0,1,2,1,1,1,1
02:11:00,0,1,3,3,0,0,3,1,1
02:12:00,0,0,1,1,2,1,1,1,1
02:13:00,0,1,1,0,0,2,1,0,1
02:14:00,0,1,1,2,2,3,1,1,1
02:15:00,0,1,1,0,0,0,1,0,0
02:16:00,2,0,2,1,2,0,1,1,1
02:17:00,0,1,1,0,1,0,1,1,1
02:18:00,0,0,2,1,0,1,3,1,1
02:19:00,1,0,0,1,0,1,2,0,1
02:20:00,0,1,0,1,0,1,2,0,1
02:21:00,0,2,3,0,1,1,2,1,1
02:22:00,0,1,1,0,0,0,1,0,0
02:23:00,2,0,0,1,1,1,1,1,1
02:24:00,0,2,0,0,0,3,1,0,1
02:25:00,1,0,1,0,2,2,2,1,1
02:26:00,0,0,1,2,1,0,1,1,1
02:27:00,0,0,1,0,2,2,0,1,1
02:28:00,0,1,0,0,0,0,0,0,0
02:29:00,0,0,0,1,1,2,3,0,1
02:30:00,0,0,0,0,0,2,1,0,0
02:31:00,0,1,0,0,0,3,0,0,1
02:32:00,2,0,1,0,1,1,1,1,1
02:33:00,0,1,0,1,0,1,1,0,1
02:34:00,0,0,0,0,2,1,0,0,0
02:35:00,1,0,0,2,1,0,1,1,1
02:36:00,1,1,0,1,2,1,2,1,1
02:37:00,0,0,0,0,2,6,0,0,1
02:38:00,1,0,4,2,2,1,1,2,2
02:39:00,0,0,2,1,0,3,0,1,1
02:40:00,0,1,0,0,1,3,1,0,1
02:41:00,0,0,2,1,0,0,1,1,1
02:42:00,0,1,2,1,2,2,1,1,1
02:43:00,1,1,1,0,0,1,2,1,1
02:44:00,0,0,0,0,1,2,1,0,1
02:45:00,1,1,0,1,0,4,1,1,1
02:46:00,1,0,3,0,0,1,2,1,1
02:47:00,1,0,0,2,2,0,2,1,1
02:48:00,1,0,2,0,0,1,1,1,1
02:49:00,1,1,1,1,1,0,0,1,1
02:50:00,1,1,1,1,0,0,0,1,1
02:51:00,2,2,0,0,1,0,4,1,1
02:52:00,0,0,0,1,1,1,3,0,1
02:53:00,0,3,1,1,0,0,0,1,1
02:54:00,1,0,1,0,2,2,0,1,1
02:55:00,1,1,0,0,0,0,2,0,1
02:56:00,0,1,0,0,3,0,3,1,1
02:57:00,1,3,0,0,1,2,1,1,1
02:58:00,1,3,1,0,3,2,0,2,1
02:59:00,5,1,1,1,1,0,2,2,2
03:00:00,1,1,1,2,2,3,3,1,2
03:01:00,1,1,0,3,0,2,0,1,1
03:02:00,0,1,1,1,2,1,2,1,1
03:03:00,0,3,0,2,0,0,1,1,1
03:04:00,1,1,3,1,0,3,0,1,1
03:05:00,0,3,0,0,0,0,1,1,1
03:06:00,2,1,1,0,0,3,3,1,1
03:07:00,2,1,1,2,1,1,3,1,2
03:08:00,0,1,1,0,0,1,0,0,0
03:09:00,0,0,2,2,1,2,1,1,1
03:10:00,0,4,1,0,1,0,0,1,1
03:11:00,3,1,0,0,1,0,1,1,1
03:12:00,1,0,0,0,0,3,2,0,1
03:13:00,0,0,1,2,0,2,1,1,1
03:14:00,0,0,0,2,0,0,0,0,0
03:15:00,1,1,0,0,1,1,0,1,1
03:16:00,1,1,0,0,2,2,2,1,1
03:17:00,0,2,1,0,1,1,3,1,1
03:18:00,1,0,0,3,1,1,1,1,1
03:19:00,1,0,0,1,1,2,0,1,1
03:20:00,0,2,2,0,1,2,1,1,1
03:21:00,0,2,0,0,1,1,3,1,1
03:22:00,2,1,1,1,2,1,2,1,1
03:23:00,1,0,0,3,0,2,1,1,1
03:24:00,0,2,1,1,2,2,1,1,1
03:25:00,0,0,1,1,3,1,0,1,1
03:26:00,2,3,3,0,0,2,0,2,1
03:27:00,0,0,0,0,0,0,2,0,0
03:28:00,0,0,0,0,1,0,0,0,0
03:29:00,2,0,2,0,1,0,4,1,1
03:30:00,0,1,1,0,0,1,4,0,1
03:31:00,0,2,1,2,1,1,0,1,1
03:32:00,0,0,1,0,1,1,3,0,1
03:33:00,0,0,1,1,1,1,0,1,1
03:34:00,0,0,1,0,2,1,1,1,1
03:35:00,1,1,2,0,1,0,2,1,1
03:36:00,2,0,3,2,0,0,1,1,1
03:37:00,2,2,0,1,1,2,0,1,1
03:38:00,1,0,1,0,2,0,2,1,1
03:39:00,0,0,0,0,0,0,0,0,0
03:40:00,2,1,2,0,0,0,0,1,1
03:41:00,1,1,0,2,2,0,1,1,1
03:42:00,1,0,0,2,2,1,0,1,1
03:43:00,0,1,2,0,0,1,1,1,1
03:44:00,1,2,0,1,1,1,1,1,1
03:45:00,0,0,2,2,2,3,0,1,1
03:46:00,3,3,3,0,0,1,4,2,2
03:47:00,2,1,2,0,0,1,2,1,1
03:48:00,2,1,0,2,3,0,0,2,1
03:49:00,2,3,1,2,3,3,1,2,2
03:50:00,2,2,5,4,1,0,2,3,2
03:51:00,2,0,2,0,1,1,3,1,1
03:52:00,1,1,0,3,1,1,2,1,1
03:53:00,1,0,1,0,2,2,0,1,1
03:54:00,0,1,0,0,2,0,2,1,1
03:55:00,1,3,1,1,1,2,2,1,2
03:56:00,2,1,1,2,1,1,1,1,1
03:57:00,0,0,1,0,0,1,1,0,0
03:58:00,0,0,1,2,2,2,0,1,1
03:59:00,0,1,0,1,1,0,1,1,1
04:00:00,1,1,1,1,1,2,0,1,1
04:01:00,4,1,0,0,3,4,0,2,2
04:02:00,0,0,1,3,3,0,0,1,1
04:03:00,4,1,1,3,1,0,0,2,1
04:04:00,0,2,3,2,2,5,2,2,2
04:05:00,2,2,0,2,1,1,4,1,2
04:06:00,3,2,1,3,2,3,0,2,2
04:07:00,2,3,1,2,2,1,3,2,2
04:08:00,1,3,1,0,0,1,1,1,1
04:09:00,3,2,2,0,3,3,1,2,2
04:10:00,4,4,2,1,1,0,2,2,2
04:11:00,2,2,2,2,1,0,0,2,1
04:12:00,0,1,2,2,0,0,0,1,1
04:13:00,0,0,0,1,0,0,2,0,0
04:14:00,0,1,2,1,1,0,0,1,1
04:15:00,1,2,3,1,1,2,1,2,2
04:16:00,0,1,2,5,3,2,1,2,2
04:17:00,1,0,1,0,4,1,3,1,1
04:18:00,0,0,1,0,2,0,3,1,1
04:19:00,0,6,3,1,1,2,2,2,2
04:20:00,0,1,1,3,3,2,4,2,2
04:21:00,0,3,2,1,1,2,0,1,1
04:22:00,3,2,1,2,4,5,3,2,3
04:23:00,5,3,4,3,3,0,2,4,3
04:24:00,3,4,4,4,3,0,2,4,3
04:25:00,2,4,3,2,1,2,1,2,2
04:26:00,4,4,6,2,1,1,0,3,3
04:27:00,0,2,1,1,3,1,3,1,2
04:28:00,1,0,0,0,0,3,1,0,1
04:29:00,5,3,0,3,1,0,0,2,2
04:30:00,2,0,4,3,2,1,1,2,2
04:31:00,1,4,1,3,2,2,3,2,2
04:32:00,1,1,1,2,1,2,2,1,1
04:33:00,2,1,2,0,2,0,1,1,1
04:34:00,0,2,2,3,3,4,3,2,2
04:35:00,4,2,2,2,4,1,1,3,2
04:36:00,3,1,4,3,2,2,2,3,2
04:37:00,2,2,1,4,4,2,1,3,2
04:38:00,3,2,3,2,1,1,1,2,2
04:39:00,5,4,1,4,1,2,1,3,3
04:40:00,0,3,3,3,0,1,1,2,2
04:41:00,3,1,1,3,0,1,3,2,2
04:42:00,4,2,5,2,4,1,0,3,3
04:43:00,4,1,3,2,4,1,1,3,2
04:44:00,2,8,4,4,4,0,2,4,3
04:45:00,3,3,3,4,1,1,3,3,3
04:46:00,1,8,7,4,4,1,1,5,4
04:47:00,5,4,4,4,5,1,0,4,3
04:48:00,6,3,2,0,2,0,0,3,2
04:49:00,2,1,1,1,4,1,1,2,2
04:50:00,2,2,5,1,7,2,0,3,3
04:51:00,0,4,1,6,0,2,0,2,2
04:52:00,3,5,3,6,2,5,2,4,4
04:53:00,4,3,4,6,2,3,0,4,3
04:54:00,5,1,6,6,2,3,3,4,4
04:55:00,4,6,7,3,8,4,0,6,5
04:56:00,4,1,5,4,5,3,1,4,3
04:57:00,6,3,5,4,3,2,2,4,4
04:58:00,6,10,2,7,4,4,2,6,5
04:59:00,4,1,2,6,7,0,1,4,3
05:00:00,4,5,5,8,4,4,3,5,5
05:01:00,3,6,3,2,2,1,0,3,2
05:02:00,6,2,5,3,4,4,1,4,4
05:03:00,3,4,2,1,2,4,3,2,3
05:04:00,5,5,2,4,6,5,4,4,4
05:05:00,4,2,4,2,4,5,0,3,3
05:06:00,3,9,7,7,9,1,1,7,5
05:07:00,5,3,3,3,3,4,2,3,3
05:08:00,7,1,1,10,5,4,4,5,5
05:09:00,2,2,7,9,1,4,0,4,4
05:10:00,7,5,3,3,7,7,1,5,5
05:11:00,5,5,7,7,4,2,3,6,5
05:12:00,2,3,4,8,9,3,3,5,5
05:13:00,6,4,9,5,8,2,6,6,6
05:14:00,7,9,3,2,7,6,3,6,5
05:15:00,3,8,5,7,3,2,1,5,4
05:16:00,8,5,1,6,6,4,0,5,4
05:17:00,7,3,11,8,6,2,0,7,5
05:18:00,11,10,5,4,4,0,1,7,5
05:19:00,7,4,9,7,7,2,1,7,5
05:20:00,8,8,7,7,9,3,3,8,6
05:21:00,5,6,5,6,8,3,2,6,5
05:22:00,9,7,9,7,5,1,3,7,6
05:23:00,5,8,5,10,4,1,0,6,5
05:24:00,7,4,3,1,5,6,1,4,4
05:25:00,4,8,10,5,13,5,0,8,6
05:26:00,4,6,6,3,6,4,5,5,5
05:27:00,6,8,5,5,7,7,1,6,6
05:28:00,8,7,7,3,4,2,0,6,4
05:29:00,5,5,7,8,8,1,4,7,5
05:30:00,12,7,4,8,12,2,0,9,6
05:31:00,6,8,11,5,9,7,1,8,7
05:32:00,7,5,6,8,8,2,0,7,5
05:33:00,9,8,7,3,6,4,0,7,5
05:34:00,7,6,10,8,7,3,2,8,6
05:35:00,6,13,7,6,5,6,4,7,7
05:36:00,9,3,13,12,9,2,0,9,7
05:37:00,6,9,10,8,7,2,2,8,6
05:38:00,11,8,7,3,9,3,0,8,6
05:39:00,11,4,12,3,6,3,3,7,6
05:40:00,5,6,10,9,9,5,0,8,6
05:41:00,13,6,5,7,9,6,5,8,7
05:42:00,14,12,16,8,7,4,8,11,10
05:43:00,9,14,15,11,8,2,2,11,9
05:44:00,11,7,8,6,10,7,3,8,7
05:45:00,11,21,11,13,11,5,4,13,11
05:46:00,8,10,7,17,10,4,2,10,8
05:47:00,6,4,11,6,5,3,4,6,6
05:48:00,10,10,12,9,5,3,3,9,7
05:49:00,13,13,7,5,6,2,1,9,7
05:50:00,11,5,7,13,8,2,1,9,7
05:51:00,6,4,2,10,7,4,1,6,5
05:52:00,16,11,5,6,12,4,0,10,8
05:53:00,7,13,6,14,10,9,2,10,9
05:54:00,10,7,12,9,7,2,3,9,7
05:55:00,10,13,6,10,11,5,3,10,8
05:56:00,10,8,7,10,6,3,1,8,6
05:57:00,10,15,9,11,9,2,1,11,8
05:58:00,7,10,12,11,7,4,6,9,8
05:59:00,10,15,10,7,7,4,3,10,8
06:00:00,9,5,7,5,5,2,2,6,5
06:01:00,10,16,9,11,10,4,6,11,9
06:02:00,7,10,9,8,10,4,0,9,7
06:03:00,9,10,7,8,9,2,2,9,7
06:04:00,13,8,9,11,6,3,1,9,7
06:05:00,10,13,9,5,12,2,2,10,8
06:06:00,7,7,11,5,11,1,1,8,6
06:07:00,12,11,10,12,6,6,1,10,8
06:08:00,6,7,9,11,9,3,2,8,7
06:09:00,8,6,12,10,13,6,0,10,8
06:10:00,6,11,8,11,11,9,3,9,8
06:11:00,17,14,14,6,13,8,3,13,11
06:12:00,12,5,18,7,12,0,1,11,8
06:13:00,11,20,12,12,13,5,2,14,11
06:14:00,11,12,6,13,10,13,4,10,10
06:15:00,7,9,12,7,8,3,3,9,7
06:16:00,5,12,7,11,16,3,5,10,8
06:17:00,15,15,7,13,20,6,6,14,12
06:18:00,10,8,12,15,10,6,2,11,9
06:19:00,8,13,11,10,12,4,1,11,8
06:20:00,6,14,10,14,11,2,1,11,8
06:21:00,12,5,17,9,7,6,1,10,8
06:22:00,11,12,10,8,7,7,1,10,8
06:23:00,12,9,12,17,14,2,5,13,10
06:24:00,17,12,17,17,12,9,1,15,12
06:25:00,13,8,13,10,10,4,2,11,9
06:26:00,12,7,15,11,7,4,3,10,8
06:27:00,16,10,22,15,19,3,4,16,13
06:28:00,20,15,11,8,17,3,2,14,11
06:29:00,10,14,17,12,13,5,4,13,11
06:30:00,15,17,15,15,17,4,5,16,13
06:31:00,11,15,16,18,21,3,5,16,13
06:32:00,21,15,24,23,14,4,6,19,15
06:33:00,9,20,7,23,15,8,6,15,13
06:34:00,14,16,29,15,18,7,1,18,14
06:35:00,17,22,16,18,11,6,3,17,13
06:36:00,10,17,16,14,14,6,4,14,12
06:37:00,21,15,19,10,23,5,5,18,14
06:38:00,14,23,25,21,15,8,6,20,16
06:39:00,17,24,18,21,14,10,5,19,16
06:40:00,13,13,14,18,22,2,5,16,12
06:41:00,15,18,24,11,20,4,6,18,14
06:42:00,21,19,8,7,11,10,2,13,11
06:43:00,17,21,13,17,21,9,4,18,15
06:44:00,8,12,16,10,17,16,4,13,12
06:45:00,18,19,15,25,16,6,4,19,15
06:46:00,16,20,12,21,19,6,3,18,14
06:47:00,18,15,18,16,16,7,3,17,13
06:48:00,19,18,27,26,13,8,6,21,17
06:49:00,14,17,19,20,22,8,5,18,15
06:50:00,26,30,11,15,16,7,8,20,16
06:51:00,17,20,24,16,19,13,5,19,16
06:52:00,27,25,22,18,27,14,7,24,20
06:53:00,25,16,19,17,25,6,6,20,16
06:54:00,6,25,22,27,20,7,3,20,16
06:55:00,26,21,17,14,14,7,7,18,15
06:56:00,24,28,17,25,18,5,6,22,18
06:57:00,22,11,15,15,17,12,5,16,14
06:58:00,23,11,16,22,14,6,3,17,14
06:59:00,12,20,13,23,13,14,6,16,14
07:00:00,17,18,22,20,14,3,2,18,14
07:01:00,7,28,19,25,23,4,4,20,16
07:02:00,19,15,18,15,13,3,1,16,12
07:03:00,15,25,21,26,30,5,1,23,18
07:04:00,21,16,14,17,17,10,2,17,14
07:05:00,10,5,21,26,18,8,4,16,13
07:06:00,25,19,18,8,14,5,1,17,13
07:07:00,21,14,28,17,23,14,5,21,17
07:08:00,22,31,23,28,23,10,2,25,20
07:09:00,22,24,29,22,15,6,9,22,18
07:10:00,19,20,21,19,27,13,4,21,18
07:11:00,16,14,29,24,19,8,3,20,16
07:12:00,18,17,33,24,16,6,3,22,17
07:13:00,20,24,24,22,35,12,2,25,20
07:14:00,27,11,16,16,31,8,3,20,16
07:15:00,29,27,31,23,10,6,3,24,18
07:16:00,30,10,26,30,21,8,5,23,19
07:17:00,24,30,24,27,23,13,2,26,20
07:18:00,28,15,26,27,22,11,7,24,19
07:19:00,22,25,25,32,23,4,8,25,20
07:20:00,33,7,33,26,19,4,5,24,18
07:21:00,20,22,26,21,16,3,2,21,16
07:22:00,21,21,20,31,21,12,5,23,19
07:23:00,23,23,25,26,29,5,3,25,19
07:24:00,29,20,28,27,28,10,6,26,21
07:25:00,24,17,23,20,24,8,4,22,17
07:26:00,23,23,30,27,23,12,7,25,21
07:27:00,27,16,26,31,25,9,6,25,20
07:28:00,24,25,33,20,23,5,7,25,20
07:29:00,16,15,20,15,30,7,3,19,15
07:30:00,15,27,25,22,21,10,8,22,18
07:31:00,21,18,22,26,27,9,6,23,18
07:32:00,21,11,26,19,32,5,7,22,17
07:33:00,20,29,21,29,15,12,8,23,19
07:34:00,29,31,28,21,21,7,3,26,20
07:35:00,21,14,22,24,24,11,4,21,17
07:36:00,22,9,25,25,19,11,9,20,17
07:37:00,28,10,28,22,25,11,3,23,18
07:38:00,29,17,17,20,23,8,5,21,17
07:39:00,28,7,31,26,11,12,2,21,17
07:40:00,24,21,23,21,26,15,8,23,20
07:41:00,30,8,29,21,25,7,7,23,18
07:42:00,27,21,20,25,29,8,3,24,19
07:43:00,26,17,31,28,32,9,8,27,22
07:44:00,19,26,26,30,16,9,4,23,19
07:45:00,36,17,15,14,36,13,6,24,20
07:46:00,24,21,21,34,24,18,10,25,22
07:47:00,26,20,25,25,22,9,9,24,19
07:48:00,16,26,28,18,40,17,10,26,22
07:49:00,22,21,25,26,21,17,7,23,20
07:50:00,28,12,18,25,22,16,7,21,18
07:51:00,31,19,36,21,25,10,9,26,22
07:52:00,33,22,17,18,27,16,3,23,19
07:53:00,23,29,26,19,16,15,7,23,19
07:54:00,28,19,21,24,34,10,7,25,20
07:55:00,31,20,30,25,21,18,8,25,22
07:56:00,20,25,22,28,21,15,6,23,20
07:57:00,34,28,31,15,26,12,5,27,22
07:58:00,22,21,12,35,27,11,5,23,19
07:59:00,25,27,32,13,20,8,5,23,19
08:00:00,32,26,15,35,23,11,7,26,21
08:01:00,35,10,32,12,29,13,5,24,19
08:02:00,25,33,23,38,21,9,7,28,22
08:03:00,24,23,38,13,25,6,6,25,19
08:04:00,28,12,11,35,23,19,3,22,19
08:05:00,26,7,24,5,21,7,6,17,14
08:06:00,24,37,14,31,25,18,9,26,23
08:07:00,31,11,37,21,36,8,7,27,22
08:08:00,16,26,15,19,33,8,6,22,18
08:09:00,35,9,31,13,26,20,6,23,20
08:10:00,16,32,31,30,19,10,4,26,20
08:11:00,24,23,33,18,24,16,8,24,21
08:12:00,21,32,12,24,24,9,5,23,18
08:13:00,26,12,30,13,33,15,11,23,20
08:14:00,28,22,5,38,27,11,9,24,20
08:15:00,28,17,31,19,16,15,8,22,19
08:16:00,13,28,16,31,22,11,5,22,18
08:17:00,29,22,36,21,21,14,7,26,21
08:18:00,14,32,18,32,18,22,8,23,21
08:19:00,28,16,26,23,27,11,7,24,20
08:20:00,26,43,20,26,18,22,1,27,22
08:21:00,21,22,30,27,34,10,5,27,21
08:22:00,26,33,21,34,13,12,10,25,21
08:23:00,33,27,23,13,28,11,7,25,20
08:24:00,22,9,3,26,21,19,4,16,15
08:25:00,25,15,32,18,27,17,1,23,19
08:26:00,25,21,12,22,21,16,7,20,18
08:27:00,29,11,23,18,22,18,8,21,18
08:28:00,9,34,7,29,20,16,5,20,17
08:29:00,29,11,30,21,27,17,9,24,21
08:30:00,14,18,8,31,19,12,7,18,16
08:31:00,35,23,33,10,22,14,6,25,20
08:32:00,13,36,17,27,20,14,6,23,19
08:33:00,21,14,36,15,29,18,4,23,20
08:34:00,22,21,7,26,20,15,11,19,17
08:35:00,19,14,29,10,22,15,6,19,16
08:36:00,20,21,13,35,16,19,9,21,19
08:37:00,26,24,26,15,24,20,8,23,20
08:38:00,16,19,21,27,21,13,13,21,19
08:39:00,29,22,30,22,31,21,15,27,24
08:40:00,19,21,7,27,17,14,8,18,16
08:41:00,25,26,25,14,25,15,7,23,20
08:42:00,26,20,22,27,23,22,10,24,21
08:43:00,23,22,28,21,23,16,18,23,22
08:44:00,28,21,9,25,27,15,12,22,20
08:45:00,24,8,24,22,28,22,10,21,20
08:46:00,20,17,16,27,33,23,12,23,21
08:47:00,17,3,23,26,25,17,15,19,18
08:48:00,32,20,35,23,22,20,15,26,24
08:49:00,20,17,32,15,27,23,10,22,21
08:50:00,26,16,28,33,24,18,9,25,22
08:51:00,22,27,29,34,29,28,16,28,26
08:52:00,17,19,12,16,28,23,14,18,18
08:53:00,20,26,22,31,18,20,13,23,21
08:54:00,22,37,24,29,24,17,12,27,24
08:55:00,31,11,21,22,18,15,22,21,20
08:56:00,22,23,24,19,10,18,10,20,18
08:57:00,30,14,30,24,25,24,17,25,23
08:58:00,19,26,14,22,13,10,5,19,16
08:59:00,23,3,24,27,22,20,13,20,19
09:00:00,23,26,26,14,13,24,14,20,20
09:01:00,17,9,23,25,17,18,12,18,17
09:02:00,33,21,13,23,19,21,14,22,21
09:03:00,19,11,33,36,18,22,7,23,21
09:04:00,23,30,26,20,19,19,17,24,22
09:05:00,28,19,16,24,20,17,16,21,20
09:06:00,28,30,28,24,13,12,13,25,21
09:07:00,19,20,17,22,32,15,14,22,20
09:08:00,29,24,35,29,10,19,6,25,22
09:09:00,19,7,23,18,37,19,8,21,19
09:10:00,33,30,20,27,14,28,15,25,24
09:11:00,20,15,21,23,35,17,12,23,20
09:12:00,14,25,16,20,14,21,12,18,17
09:13:00,10,11,26,24,36,11,18,21,19
09:14:00,24,23,24,20,20,21,16,22,21
09:15:00,19,6,27,33,29,21,15,23,21
09:16:00,37,25,11,24,14,16,7,22,19
09:17:00,11,16,21,32,41,17,14,24,22
09:18:00,23,27,27,17,19,23,24,23,23
09:19:00,15,15,13,27,23,28,17,19,20
09:20:00,26,25,31,16,22,25,14,24,23
09:21:00,16,16,22,42,35,15,19,26,24
09:22:00,28,16,15,23,15,21,12,19,19
09:23:00,17,16,26,28,29,27,19,23,23
09:24:00,35,19,32,14,20,21,20,24,23
09:25:00,24,4,18,20,32,21,23,20,20
09:26:00,23,20,40,22,10,19,11,23,21
09:27:00,27,27,12,31,22,35,20,24,25
09:28:00,23,24,25,24,10,24,18,21,21
09:29:00,21,12,24,24,39,24,16,24,23
09:30:00,24,24,27,20,22,13,16,23,21
09:31:00,15,29,20,34,35,16,12,27,23
09:32:00,35,28,20,32,11,31,12,25,24
09:33:00,13,13,15,24,42,18,20,21,21
09:34:00,39,26,26,15,16,38,14,24,25
09:35:00,37,18,18,34,44,19,16,30,27
09:36:00,28,18,27,20,30,15,13,25,22
09:37:00,25,18,23,22,29,26,15,23,23
09:38:00,30,20,25,19,20,28,18,23,23
09:39:00,19,13,15,23,33,20,24,21,21
09:40:00,33,18,24,25,22,30,29,24,26
09:41:00,26,25,26,28,26,15,16,26,23
09:42:00,28,16,27,20,19,24,15,22,21
09:43:00,17,19,21,40,21,30,19,24,24
09:44:00,28,22,20,18,18,20,22,21,21
09:45:00,18,34,14,31,25,38,14,24,25
09:46:00,33,14,26,20,27,17,20,24,22
09:47:00,16,41,46,25,28,37,23,31,31
09:48:00,35,23,22,17,12,35,17,22,23
09:49:00,16,35,37,39,22,35,23,30,30
09:50:00,16,14,16,28,16,22,25,18,20
09:51:00,23,20,28,36,28,30,27,27,27
09:52:00,23,11,21,30,12,35,29,19,23
09:53:00,14,27,15,24,26,20,29,21,22
09:54:00,21,27,27,17,19,21,25,22,22
09:55:00,9,13,17,17,36,29,17,18,20
09:56:00,21,16,33,26,28,21,22,25,24
09:57:00,24,28,25,19,26,29,27,24,25
09:58:00,19,12,19,30,15,26,25,19,21
09:59:00,24,36,20,26,20,26,29,25,26
10:00:00,29,16,24,23,27,18,28,24,24
10:01:00,23,33,21,13,18,20,17,22,21
10:02:00,21,27,21,29,35,19,17,27,24
10:03:00,18,25,14,20,22,26,28,20,22
10:04:00,17,26,19,30,19,21,17,22,21
10:05:00,17,34,13,16,27,27,17,21,22
10:06:00,26,23,29,31,28,33,31,27,29
10:07:00,23,23,17,20,27,21,21,22,22
10:08:00,29,10,21,26,17,32,15,21,21
10:09:00,21,16,20,16,23,24,18,19,20
10:10:00,33,12,29,23,28,23,22,25,24
10:11:00,22,16,9,13,27,27,26,17,20
10:12:00,27,24,36,32,25,28,25,29,28
10:13:00,21,17,13,21,28,24,27,20,22
10:14:00,32,15,22,13,16,15,12,20,18
10:15:00,22,36,22,31,30,31,28,28,29
10:16:00,25,8,30,20,25,18,28,22,22
10:17:00,6,36,20,27,28,24,23,23,23
10:18:00,32,11,26,19,19,26,23,21,22
10:19:00,19,11,19,21,15,44,11,17,20
10:20:00,24,7,20,31,30,19,28,22,23
10:21:00,25,32,30,7,18,36,23,22,24
10:22:00,33,11,17,25,19,24,30,21,23
10:23:00,20,30,25,24,20,28,28,24,25
10:24:00,35,18,13,14,19,22,25,20,21
10:25:00,20,33,28,27,24,21,30,26,26
10:26:00,22,20,18,22,16,20,24,20,20
10:27:00,17,28,20,18,17,29,23,20,22
10:28:00,27,16,26,26,24,22,32,24,25
10:29:00,31,36,22,23,28,29,21,28,27
10:30:00,24,14,21,11,26,17,26,19,20
10:31:00,18,29,19,23,29,21,26,24,24
10:32:00,33,11,23,21,30,29,23,24,24
10:33:00,26,33,19,24,28,17,24,26,24
10:34:00,20,9,31,25,30,27,18,23,23
10:35:00,30,24,15,24,25,20,16,24,22
10:36:00,33,17,25,15,26,21,29,23,24
10:37:00,14,21,21,23,23,30,34,20,24
10:38:00,39,4,23,19,25,30,16,22,22
10:39:00,27,27,17,34,31,30,27,27,28
10:40:00,26,21,20,17,22,23,31,21,23
10:41:00,25,16,21,39,25,30,35,25,27
10:42:00,25,12,31,30,30,31,19,26,25
10:43:00,17,38,22,28,20,33,34,25,27
10:44:00,33,16,30,20,23,26,19,24,24
10:45:00,25,32,16,22,21,21,25,23,23
10:46:00,31,20,33,22,22,32,27,26,27
10:47:00,21,22,21,28,26,30,25,24,25
10:48:00,28,20,25,17,19,33,21,22,23
10:49:00,22,18,25,31,25,27,12,24,23
10:50:00,23,10,23,29,28,28,28,23,24
10:51:00,27,20,25,24,14,17,24,22,22
10:52:00,30,7,33,22,41,41,34,27,30
10:53:00,20,30,22,23,28,23,18,25,23
10:54:00,24,5,31,25,25,30,24,22,23
10:55:00,20,28,19,35,20,24,16,24,23
10:56:00,33,25,21,26,29,25,32,27,27
10:57:00,23,22,19,21,31,21,24,23,23
10:58:00,28,12,35,16,28,39,28,24,27
10:59:00,20,24,21,26,27,27,22,24,24
11:00:00,19,18,26,19,30,21,32,22,24
11:01:00,20,19,16,27,28,24,35,22,24
11:02:00,21,8,34,29,21,29,28,23,24
11:03:00,22,24,20,19,32,20,29,23,24
11:04:00,29,17,28,15,30,36,19,24,25
11:05:00,31,34,21,26,27,12,38,28,27
11:06:00,20,13,30,21,22,37,18,21,23
11:07:00,13,33,24,27,29,35,38,25,28
11:08:00,34,6,34,27,20,33,28,24,26
11:09:00,17,29,18,16,36,16,23,23,22
11:10:00,21,19,28,25,23,43,27,23,27
11:11:00,16,27,20,31,28,16,24,24,23
11:12:00,19,17,29,18,23,39,24,21,24
11:13:00,22,24,20,33,25,20,31,25,25
11:14:00,28,12,23,27,23,34,25,23,25
11:15:00,24,27,28,21,27,20,42,25,27
11:16:00,21,13,19,33,31,34,26,23,25
11:17:00,16,24,17,26,18,22,29,20,22
11:18:00,40,17,25,16,24,47,22,24,27
11:19:00,20,29,25,33,20,16,29,25,25
11:20:00,25,14,29,30,28,41,32,25,28
11:21:00,21,16,26,27,18,26,24,22,23
11:22:00,38,20,24,17,25,41,21,25,27
11:23:00,18,16,22,22,26,26,20,21,21
11:24:00,30,20,29,24,32,33,20,27,27
11:25:00,19,24,35,24,26,14,29,26,24
11:26:00,28,10,22,21,28,31,32,22,25
11:27:00,10,24,20,33,24,26,30,22,24
11:28:00,36,13,28,23,35,29,25,27,27
11:29:00,16,21,21,31,19,18,38,22,23
11:30:00,33,15,17,18,31,44,25,23,26
11:31:00,22,16,30,23,23,23,32,23,24
11:32:00,33,30,20,23,27,35,26,27,28
11:33:00,22,17,27,34,23,20,23,25,24
11:34:00,21,22,34,19,29,34,25,25,26
11:35:00,18,11,21,27,28,16,39,21,23
11:36:00,31,13,27,23,32,35,34,25,28
11:37:00,19,10,22,27,21,19,32,20,21
11:38:00,33,24,28,17,34,30,33,27,28
11:39:00,19,13,23,23,18,27,27,19,21
11:40:00,30,27,25,21,29,37,20,26,27
11:41:00,24,9,27,34,19,23,33,23,24
11:42:00,26,35,33,28,33,29,35,31,31
11:43:00,24,12,13,29,18,13,31,19,20
11:44:00,23,30,32,25,38,37,33,30,31
11:45:00,19,15,24,22,26,15,24,21,21
11:46:00,33,35,28,27,30,36,22,31,30
11:47:00,16,19,26,17,27,19,36,21,23
11:48:00,20,30,28,17,37,30,21,26,26
11:49:00,20,17,22,29,22,17,26,22,22
11:50:00,38,25,32,26,26,33,35,29,31
11:51:00,24,14,25,28,16,27,26,21,23
11:52:00,32,28,29,32,20,22,34,28,28
11:53:00,12,35,18,29,13,29,23,21,23
11:54:00,39,23,30,22,37,36,23,30,30
11:55:00,14,18,17,21,23,22,27,19,20
11:56:00,36,28,25,23,30,38,22,28,29
11:57:00,12,14,21,10,16,16,31,15,17
11:58:00,34,25,24,23,36,37,21,28,29
11:59:00,14,25,33,24,23,20,27,24,24
12:00:00,28,21,16,20,30,28,30,23,25
12:01:00,22,29,22,23,11,16,32,21,22
12:02:00,34,17,26,27,37,29,31,28,29
12:03:00,19,20,22,19,15,21,31,19,21
12:04:00,41,35,19,29,38,27,21,32,30
12:05:00,26,10,23,25,28,35,40,22,27
12:06:00,40,31,19,26,27,31,27,29,29
12:07:00,16,36,22,22,18,27,32,23,25
12:08:00,31,19,32,19,24,30,15,25,24
12:09:00,23,16,23,38,21,20,42,24,26
12:10:00,39,29,34,26,30,36,13,32,30
12:11:00,23,33,24,29,30,23,42,28,29
12:12:00,25,19,25,22,29,31,13,24,23
12:13:00,19,17,39,26,24,24,39,25,27
12:14:00,29,34,22,19,29,34,14,27,26
12:15:00,16,17,27,22,18,27,36,20,23
12:16:00,39,38,23,30,24,28,16,31,28
12:17:00,14,24,26,24,26,32,36,23,26
12:18:00,32,21,25,30,31,32,18,28,27
12:19:00,23,14,24,26,27,28,39,23,26
12:20:00,34,26,14,20,33,44,14,25,26
12:21:00,19,25,24,20,20,22,43,22,25
12:22:00,29,24,16,22,41,34,16,26,26
12:23:00,21,17,34,23,36,17,35,26,26
12:24:00,26,23,22,18,22,30,13,22,22
12:25:00,20,15,22,19,22,18,37,20,22
12:26:00,31,26,18,26,36,34,11,27,26
12:27:00,23,24,37,24,21,18,40,26,27
12:28:00,25,18,25,30,31,38,17,26,26
12:29:00,19,17,24,34,27,37,42,24,29
12:30:00,24,29,29,22,27,30,21,26,26
12:31:00,25,21,19,28,25,28,36,24,26
12:32:00,33,28,17,16,27,25,22,24,24
12:33:00,31,30,25,29,18,28,44,27,29
12:34:00,27,19,26,34,36,25,13,28,26
12:35:00,22,16,28,19,16,29,32,20,23
12:36:00,29,30,20,38,26,29,25,29,28
12:37:00,20,30,27,24,19,32,31,24,26
12:38:00,24,8,21,35,30,22,21,24,23
12:39:00,28,31,20,28,22,31,48,26,30
12:40:00,25,29,24,16,25,21,12,24,22
12:41:00,28,22,32,14,21,44,38,23,28
12:42:00,27,27,18,22,28,20,13,24,22
12:43:00,22,17,29,14,19,28,27,20,22
12:44:00,28,41,18,35,39,21,20,32,29
12:45:00,28,14,29,15,20,34,30,21,24
12:46:00,25,27,23,33,34,25,18,28,26
12:47:00,22,14,31,18,24,30,30,22,24
12:48:00,35,34,26,31,26,18,12,30,26
12:49:00,21,21,27,25,25,28,26,24,25
12:50:00,30,29,24,31,27,28,21,28,27
12:51:00,30,23,22,18,10,22,32,21,22
12:52:00,27,27,24,19,41,19,28,28,26
12:53:00,24,20,35,29,10,19,33,24,24
12:54:00,23,21,24,30,39,24,20,27,26
12:55:00,17,20,32,24,9,23,30,20,22
12:56:00,30,24,14,23,37,22,15,26,24
12:57:00,20,29,34,20,26,29,20,26,25
12:58:00,26,33,22,17,28,15,11,25,22
12:59:00,22,16,27,30,23,38,36,24,27
13:00:00,22,26,17,21,33,20,13,24,22
13:01:00,32,31,28,30,16,36,37,27,30
13:02:00,28,24,20,34,28,32,24,27,27
13:03:00,22,21,27,16,41,29,29,25,26
13:04:00,30,31,24,36,27,23,22,30,28
13:05:00,33,23,29,26,21,18,33,26,26
13:06:00,20,24,22,25,32,13,24,25,23
13:07:00,19,14,33,15,25,33,25,21,23
13:08:00,29,31,21,20,27,18,23,26,24
13:09:00,20,22,16,20,23,22,29,20,22
13:10:00,26,22,20,39,26,20,35,27,27
13:11:00,31,34,23,25,21,29,33,27,28
13:12:00,26,21,19,33,32,19,18,26,24
13:13:00,16,27,33,26,22,31,29,25,26
13:14:00,20,24,25,32,27,24,23,26,25
13:15:00,28,20,23,22,26,36,33,24,27
13:16:00,33,19,18,32,24,20,19,25,24
13:17:00,21,36,27,15,22,32,23,24,25
13:18:00,27,20,29,24,22,16,38,24,25
13:19:00,29,21,32,36,21,34,22,28,28
13:20:00,19,18,15,25,34,31,40,22,26
13:21:00,27,27,32,26,16,32,21,26,26
13:22:00,21,20,21,21,25,25,32,22,24
13:23:00,33,25,29,30,19,44,23,27,29
13:24:00,15,25,25,35,25,12,32,25,24
13:25:00,23,23,16,18,30,36,16,22,23
13:26:00,21,19,16,26,16,26,37,20,23
13:27:00,27,32,25,21,18,39,29,25,27
13:28:00,24,17,28,30,35,14,17,27,24
13:29:00,33,20,25,19,30,39,25,25,27
13:30:00,28,21,29,25,35,31,32,28,29
13:31:00,28,32,24,34,21,35,25,28,28
13:32:00,23,22,12,34,32,19,25,25,24
13:33:00,19,31,29,18,20,33,25,23,25
13:34:00,25,19,24,23,20,22,26,22,23
13:35:00,31,40,22,18,34,30,30,29,29
13:36:00,30,19,18,36,31,18,32,27,26
13:37:00,21,18,24,28,29,24,19,24,23
13:38:00,33,26,24,27,28,15,33,28,27
13:39:00,29,26,24,15,22,36,20,23,25
13:40:00,27,19,24,27,20,15,35,23,24
13:41:00,28,33,21,32,16,42,31,26,29
13:42:00,23,30,26,24,11,21,21,23,22
13:43:00,22,37,26,30,20,30,26,27,27
13:44:00,29,29,18,33,18,19,40,25,27
13:45:00,22,25,26,30,26,34,17,26,26
13:46:00,19,26,19,26,26,19,26,23,23
13:47:00,21,19,20,18,22,37,22,20,23
13:48:00,24,20,31,28,27,18,37,26,26
13:49:00,21,39,17,25,30,36,19,26,27
13:50:00,19,24,21,32,22,16,41,24,25
13:51:00,32,20,36,26,25,40,18,28,28
13:52:00,19,18,19,26,27,22,41,22,25
13:53:00,36,26,23,30,24,32,27,28,28
13:54:00,25,13,21,29,21,32,39,22,26
13:55:00,31,41,28,17,29,27,19,29,27
13:56:00,29,19,33,33,33,9,32,29,27
13:57:00,26,36,17,21,26,41,15,25,26
13:58:00,18,25,25,27,22,19,33,23,24
13:59:00,36,20,24,15,26,24,24,24,24
14:00:00,12,15,25,23,37,15,49,22,25
14:01:00,29,21,18,21,24,33,31,23,25
14:02:00,22,25,38,31,26,21,29,28,27
14:03:00,25,28,24,25,30,29,16,26,25
14:04:00,27,21,18,27,25,19,37,24,25
14:05:00,36,30,30,23,17,37,32,27,29
14:06:00,24,17,31,29,27,18,29,26,25
14:07:00,32,32,25,20,21,26,12,26,24
14:08:00,18,20,14,31,25,21,41,22,24
14:09:00,30,29,29,23,17,30,23,26,26
14:10:00,30,31,22,28,20,21,41,26,28
14:11:00,36,21,34,25,26,34,23,28,28
14:12:00,36,23,16,25,19,18,34,24,24
14:13:00,29,33,32,29,28,30,22,30,29
14:14:00,23,25,23,19,26,19,35,23,24
14:15:00,31,32,21,28,29,31,27,28,28
14:16:00,21,30,40,20,23,26,34,27,28
14:17:00,30,29,18,31,23,26,29,26,27
14:18:00,30,30,31,16,20,17,34,25,25
14:19:00,24,30,26,27,23,30,21,26,26
14:20:00,17,14,27,24,24,19,32,21,22
14:21:00,36,41,20,29,23,30,22,30,29
14:22:00,15,15,31,20,25,29,25,21,23
14:23:00,40,38,25,35,34,24,21,34,31
14:24:00,30,15,21,25,34,20,39,25,26
14:25:00,20,39,16,33,18,33,23,25,26
14:26:00,18,17,25,7,26,22,31,19,21
14:27:00,34,31,14,31,32,31,25,28,28
14:28:00,23,24,29,17,24,21,30,23,24
14:29:00,17,25,17,28,29,40,23,23,26
14:30:00,22,21,17,30,24,22,33,23,24
14:31:00,38,29,22,37,22,23,19,30,27
14:32:00,20,17,27,24,43,28,33,26,27
14:33:00,26,32,22,27,35,24,24,28,27
14:34:00,22,23,26,29,28,25,37,26,27
14:35:00,31,39,37,23,29,27,15,32,29
14:36:00,24,22,25,22,26,16,46,24,26
14:37:00,40,41,25,38,26,20,23,34,30
14:38:00,27,11,33,22,26,28,38,24,26
14:39:00,30,36,39,19,28,24,12,30,27
14:40:00,25,21,21,27,25,32,37,24,27
14:41:00,30,36,28,30,16,27,26,28,28
14:42:00,17,25,30,15,33,27,25,24,25
14:43:00,33,39,26,31,20,36,19,30,29
14:44:00,13,25,30,14,37,16,40,24,25
14:45:00,33,31,21,26,30,39,23,28,29
14:46:00,20,17,29,18,21,20,36,21,23
14:47:00,32,26,22,33,29,24,17,28,26
14:48:00,27,20,25,24,29,19,34,25,25
14:49:00,34,27,17,38,25,23,14,28,25
14:50:00,25,23,24,18,29,28,37,24,26
14:51:00,37,31,13,43,21,35,37,29,31
14:52:00,17,29,16,16,9,26,24,17,20
14:53:00,36,18,19,37,31,30,22,28,28
14:54:00,33,23,18,20,15,24,39,22,25
14:55:00,25,26,20,28,41,32,23,28,28
14:56:00,19,27,23,16,22,35,32,21,25
14:57:00,30,28,8,23,33,28,21,24,24
14:58:00,18,16,37,22,21,22,33,23,24
14:59:00,28,20,23,29,28,36,13,26,25
15:00:00,18,26,26,26,23,19,32,24,24
15:01:00,35,21,9,28,32,31,23,25,26
15:02:00,17,21,15,17,13,28,36,17,21
15:03:00,26,26,9,31,25,24,28,23,24
15:04:00,26,24,36,18,6,24,28,22,23
15:05:00,33,21,6,34,36,21,19,26,24
15:06:00,18,30,21,23,27,29,39,24,27
15:07:00,28,29,11,23,40,26,16,26,25
15:08:00,24,26,34,25,12,20,26,24,24
15:09:00,31,33,6,30,28,19,16,26,23
15:10:00,31,19,30,18,20,32,39,24,27
15:11:00,31,29,22,37,18,23,29,27,27
15:12:00,16,18,31,23,10,28,32,20,23
15:13:00,34,24,26,33,28,29,18,29,27
15:14:00,11,17,28,21,21,29,31,20,23
15:15:00,27,29,12,24,29,28,22,24,24
15:16:00,10,16,28,21,14,34,33,18,22
15:17:00,33,29,19,30,16,24,26,25,25
15:18:00,2,14,31,7,21,38,37,15,21
15:19:00,33,30,9,36,28,16,20,27,25
15:20:00,20,10,36,8,23,27,28,19,22
15:21:00,40,34,21,34,26,20,23,31,28
15:22:00,17,26,23,20,34,18,34,24,25
15:23:00,35,28,12,34,32,28,13,28,26
15:24:00,6,20,29,24,20,24,35,20,23
15:25:00,34,23,20,27,34,26,23,28,27
15:26:00,12,23,27,18,25,33,36,21,25
15:27:00,38,33,20,36,31,21,12,32,27
15:28:00,28,15,32,31,12,27,39,24,26
15:29:00,36,23,11,29,25,22,19,25,24
15:30:00,15,33,34,22,12,23,34,23,25
15:31:00,30,16,22,41,38,18,21,29,27
15:32:00,14,28,27,11,8,29,33,18,21
15:33:00,33,18,20,31,32,24,13,27,24
15:34:00,25,31,32,32,7,31,33,25,27
15:35:00,25,25,19,28,26,22,23,25,24
15:36:00,12,38,34,10,10,29,23,21,22
15:37:00,33,31,21,17,38,31,24,28,28
15:38:00,16,23,41,10,12,27,23,20,22
15:39:00,20,25,29,35,33,24,22,28,27
15:40:00,15,36,36,15,9,24,37,22,25
15:41:00,20,26,11,34,26,23,20,23,23
15:42:00,5,13,33,27,1,35,25,16,20
15:43:00,31,19,10,42,28,24,24,26,25
15:44:00,19,16,35,21,10,29,25,20,22
15:45:00,30,20,17,25,29,22,24,24,24
15:46:00,16,33,27,20,4,28,28,20,22
15:47:00,33,18,12,35,20,24,31,24,25
15:48:00,17,35,36,7,24,23,32,24,25
15:49:00,25,15,11,28,39,24,31,24,25
15:50:00,22,18,30,9,13,20,31,18,20
15:51:00,26,11,14,28,39,29,20,24,24
15:52:00,21,28,28,22,19,28,25,24,24
15:53:00,21,3,16,20,28,25,31,18,21
15:54:00,18,23,39,8,19,22,35,21,23
15:55:00,24,15,10,26,25,14,28,20,20
15:56:00,22,26,30,13,22,37,22,23,25
15:57:00,19,14,23,38,24,21,29,24,24
15:58:00,11,30,29,24,12,27,30,21,23
15:59:00,22,13,16,30,27,23,28,22,23
16:00:00,33,36,29,13,16,26,32,25,26
16:01:00,34,22,6,23,29,29,21,23,23
16:02:00,32,34,41,17,28,28,30,30,30
16:03:00,24,17,17,26,31,16,28,23,23
16:04:00,34,29,43,27,10,33,26,29,29
16:05:00,29,12,18,24,28,18,27,22,22
16:06:00,15,29,40,28,20,19,31,26,26
16:07:00,20,12,25,22,27,22,33,21,23
16:08:00,36,40,32,26,16,26,20,30,28
16:09:00,25,19,14,30,34,21,31,24,25
16:10:00,30,32,37,23,11,33,25,27,27
16:11:00,22,7,10,20,26,22,16,17,18
16:12:00,29,38,27,29,26,23,23,30,28
16:13:00,24,18,30,17,22,22,28,22,23
16:14:00,12,27,36,23,16,30,33,23,25
16:15:00,12,17,6,26,29,12,23,18,18
16:16:00,18,32,33,33,34,29,32,30,30
16:17:00,9,12,10,16,31,19,22,16,17
16:18:00,23,36,28,28,11,34,30,25,27
16:19:00,28,12,13,22,21,12,23,19,19
16:20:00,30,30,29,25,7,35,24,24,26
16:21:00,21,11,22,20,30,30,24,21,23
16:22:00,14,33,31,18,25,26,19,24,24
16:23:00,15,9,19,32,31,22,24,21,22
16:24:00,24,29,25,25,27,19,40,26,27
16:25:00,14,25,6,13,28,16,23,17,18
16:26:00,16,28,21,23,14,34,9,20,21
16:27:00,13,7,11,19,18,22,30,14,17
16:28:00,19,31,21,21,14,27,28,21,23
16:29:00,23,5,22,25,19,21,31,19,21
16:30:00,31,27,25,25,16,37,14,25,25
16:31:00,19,11,22,11,12,18,32,15,18
16:32:00,34,27,29,37,22,29,18,30,28
16:33:00,18,22,22,19,18,10,17,20,18
16:34:00,30,30,30,23,20,31,16,27,26
16:35:00,22,24,27,13,25,25,19,22,22
16:36:00,17,23,13,30,21,35,21,21,23
16:37:00,6,7,11,19,17,26,22,12,15
16:38:00,26,32,14,31,13,24,17,23,22
16:39:00,9,24,23,19,26,16,25,20,20
16:40:00,20,30,24,27,17,33,22,24,25
16:41:00,16,20,16,13,24,27,25,18,20
16:42:00,36,21,26,29,13,25,15,25,24
16:43:00,18,12,8,7,14,19,21,12,14
16:44:00,27,29,26,22,32,31,26,27,28
16:45:00,17,10,3,10,32,22,18,14,16
16:46:00,35,27,21,30,31,38,15,29,28
16:47:00,14,26,11,18,10,28,19,16,18
16:48:00,37,17,14,28,34,29,26,26,26
16:49:00,10,10,0,26,14,24,17,12,14
16:50:00,29,26,27,28,40,32,20,30,29
16:51:00,14,25,22,25,16,21,15,20,20
16:52:00,25,19,33,38,36,29,20,30,29
16:53:00,15,15,20,18,6,30,19,15,18
16:54:00,19,32,34,20,27,16,18,26,24
16:55:00,18,29,12,17,19,26,17,19,20
16:56:00,27,36,27,31,32,27,22,31,29
16:57:00,17,20,9,12,24,22,16,16,17
16:58:00,41,27,21,39,36,20,19,33,29
16:59:00,20,7,21,23,23,22,21,19,20
17:00:00,13,28,30,37,33,24,16,28,26
17:01:00,3,16,22,21,17,18,14,16,16
17:02:00,22,38,30,25,30,28,10,29,26
17:03:00,25,4,25,22,17,19,15,19,18
17:04:00,34,23,24,34,35,28,15,30,28
17:05:00,23,20,27,16,16,23,21,20,21
17:06:00,23,32,33,30,30,29,19,30,28
17:07:00,17,16,17,17,15,23,17,16,17
17:08:00,27,30,17,24,28,38,20,25,26
17:09:00,19,14,23,22,28,23,18,21,21
17:10:00,26,19,31,33,35,23,21,29,27
17:11:00,14,22,27,24,24,19,17,22,21
17:12:00,24,27,24,22,14,29,26,22,24
17:13:00,16,21,23,14,12,27,23,17,19
17:14:00,30,18,36,36,14,26,15,27,25
17:15:00,10,15,15,19,16,13,19,15,15
17:16:00,29,28,26,29,34,9,24,29,26
17:17:00,9,17,35,20,20,12,17,20,19
17:18:00,30,10,19,32,17,12,19,22,20
17:19:00,16,12,7,24,27,25,29,17,20
17:20:00,32,13,34,21,16,36,11,23,23
17:21:00,25,20,19,15,28,15,19,21,20
17:22:00,28,31,36,42,30,17,24,33,30
17:23:00,8,13,9,11,25,25,18,13,16
17:24:00,32,29,31,33,30,22,21,31,28
17:25:00,14,17,15,25,22,31,22,19,21
17:26:00,35,20,24,39,17,35,19,27,27
17:27:00,21,11,18,10,24,16,18,17,17
17:28:00,31,13,23,40,21,21,25,26,25
17:29:00,25,21,23,14,14,18,25,19,20
17:30:00,24,25,26,42,26,7,17,29,24
17:31:00,25,25,8,12,22,18,28,18,20
17:32:00,36,22,20,34,25,34,23,27,28
17:33:00,18,19,10,11,23,26,18,16,18
17:34:00,27,16,16,42,32,25,22,27,26
17:35:00,12,33,23,11,27,19,15,21,20
17:36:00,37,21,23,33,20,19,15,27,24
17:37:00,3,25,24,16,26,18,12,19,18
17:38:00,38,20,9,30,24,20,19,24,23
17:39:00,14,19,15,15,21,18,20,17,17
17:40:00,36,16,12,24,21,25,10,22,21
17:41:00,16,25,18,15,27,13,11,20,18
17:42:00,27,20,21,30,25,9,23,25,22
17:43:00,22,27,33,17,32,5,17,26,22
17:44:00,33,20,15,27,17,4,17,22,19
17:45:00,8,26,26,24,33,16,13,23,21
17:46:00,25,16,27,35,24,22,28,25,25
17:47:00,12,16,24,8,23,31,9,17,18
17:48:00,24,29,15,26,18,35,17,22,23
17:49:00,18,21,18,26,18,18,19,20,20
17:50:00,28,24,23,31,19,28,20,25,25
17:51:00,17,19,17,19,32,11,15,21,19
17:52:00,28,11,19,21,14,19,20,19,19
17:53:00,17,17,17,20,30,20,17,20,20
17:54:00,25,19,12,32,28,23,15,23,22
17:55:00,9,34,33,21,28,11,20,25,22
17:56:00,34,27,22,24,16,22,23,25,24
17:57:00,14,28,17,17,28,26,18,21,21
17:58:00,30,25,19,28,10,14,16,22,20
17:59:00,15,34,10,20,35,28,17,23,23
18:00:00,31,25,26,24,22,23,20,26,24
18:01:00,36,29,34,22,33,33,20,31,30
18:02:00,28,20,23,34,2,21,9,21,20
18:03:00,18,25,31,15,26,28,21,23,23
18:04:00,39,20,15,16,22,25,17,22,22
18:05:00,6,35,39,25,41,23,21,29,27
18:06:00,21,20,13,30,21,21,16,21,20
18:07:00,17,27,27,31,38,25,22,28,27
18:08:00,35,16,14,15,14,25,20,19,20
18:09:00,37,36,34,28,33,31,22,34,32
18:10:00,36,11,21,30,17,22,16,23,22
18:11:00,15,24,29,29,37,29,25,27,27
18:12:00,18,14,16,26,12,23,24,17,19
18:13:00,18,25,28,31,39,37,6,28,26
18:14:00,34,23,11,23,15,20,22,21,21
18:15:00,20,25,37,24,28,23,13,27,24
18:16:00,32,27,18,32,19,15,11,26,22
18:17:00,23,26,41,32,32,33,18,31,29
18:18:00,35,27,17,23,14,20,19,23,22
18:19:00,15,33,29,37,33,21,25,29,28
18:20:00,31,22,23,16,14,23,11,21,20
18:21:00,17,28,41,33,34,27,21,31,29
18:22:00,24,17,9,18,14,18,15,16,16
18:23:00,15,22,36,24,40,26,14,27,25
18:24:00,35,27,15,23,16,25,20,23,23
18:25:00,23,38,34,27,27,20,19,30,27
18:26:00,32,22,1,14,12,24,16,16,17
18:27:00,14,30,33,34,28,34,12,28,26
18:28:00,25,16,28,21,10,25,11,20,19
18:29:00,15,23,36,30,29,21,13,27,24
18:30:00,25,30,18,27,9,15,15,22,20
18:31:00,30,18,36,20,34,36,15,28,27
18:32:00,27,33,28,27,15,16,20,26,24
18:33:00,25,20,14,29,33,25,23,24,24
18:34:00,18,31,19,25,15,25,10,22,20
18:35:00,26,24,25,24,30,27,12,26,24
18:36:00,25,41,29,23,18,16,18,27,24
18:37:00,12,29,33,22,28,20,15,25,23
18:38:00,24,18,24,16,21,19,12,21,19
18:39:00,29,15,36,41,32,30,13,31,28
18:40:00,30,35,24,22,18,19,16,26,23
18:41:00,15,24,30,32,23,28,17,25,24
18:42:00,36,27,20,15,28,16,22,25,23
18:43:00,30,20,22,38,23,24,15,27,25
18:44:00,18,31,17,23,23,24,16,22,22
18:45:00,31,20,29,30,22,16,12,26,23
18:46:00,22,31,31,19,28,24,20,26,25
18:47:00,26,19,34,34,21,20,13,27,24
18:48:00,31,29,19,25,36,21,13,28,25
18:49:00,22,16,30,29,26,23,17,25,23
18:50:00,27,33,25,21,18,23,11,25,23
18:51:00,31,23,16,28,19,18,12,23,21
18:52:00,16,25,26,27,24,22,20,24,23
18:53:00,29,35,31,23,22,20,9,28,24
18:54:00,28,21,22,11,24,24,12,21,20
18:55:00,34,24,17,26,22,20,9,25,22
18:56:00,26,29,26,17,12,22,15,22,21
18:57:00,32,20,19,18,26,19,9,23,20
18:58:00,25,14,18,23,21,21,12,20,19
18:59:00,24,27,20,27,26,13,13,25,21
19:00:00,24,21,11,21,16,30,22,19,21
19:01:00,12,29,22,31,28,19,12,24,22
19:02:00,26,22,22,29,25,32,5,25,23
19:03:00,20,18,27,27,29,10,24,24,22
19:04:00,22,33,25,23,17,29,12,24,23
19:05:00,27,26,22,20,23,21,10,24,21
19:06:00,22,30,33,31,25,19,22,28,26
19:07:00,18,15,22,24,42,22,15,24,23
19:08:00,15,32,27,30,26,21,14,26,24
19:09:00,30,22,26,32,28,21,12,28,24
19:10:00,26,14,33,22,32,18,21,25,24
19:11:00,24,34,20,22,28,25,16,26,24
19:12:00,16,33,34,16,29,27,14,26,24
19:13:00,17,28,20,29,23,15,17,23,21
19:14:00,32,17,17,35,23,17,10,25,22
19:15:00,26,21,23,21,13,25,14,21,20
19:16:00,30,24,30,29,27,18,8,28,24
19:17:00,20,28,22,20,23,19,11,23,20
19:18:00,30,32,33,16,33,15,13,29,25
19:19:00,22,21,18,19,32,14,15,22,20
19:20:00,20,28,17,27,26,12,20,24,21
19:21:00,16,27,26,27,19,6,15,23,19
19:22:00,29,17,26,8,21,23,11,20,19
19:23:00,29,20,15,23,19,26,8,21,20
19:24:00,22,20,27,23,16,14,17,22,20
19:25:00,25,17,17,14,30,16,13,21,19
19:26:00,18,19,24,24,25,15,7,22,19
19:27:00,28,29,22,25,25,15,14,26,23
19:28:00,22,21,29,19,30,14,10,24,21
19:29:00,17,26,28,15,22,17,16,22,20
19:30:00,11,23,22,26,29,13,9,22,19
19:31:00,25,18,23,18,12,15,8,19,17
19:32:00,13,23,19,16,19,18,12,18,17
19:33:00,20,19,17,13,22,24,11,18,18
19:34:00,23,28,23,20,27,17,16,24,22
19:35:00,29,20,25,28,18,19,16,24,22
19:36:00,26,14,24,28,30,22,13,24,22
19:37:00,25,21,23,20,25,22,13,23,21
19:38:00,17,24,29,13,20,18,12,21,19
19:39:00,23,19,26,23,21,20,20,22,22
19:40:00,20,22,20,30,20,17,13,22,20
19:41:00,6,20,23,18,23,14,10,18,16
19:42:00,21,27,20,24,18,13,17,22,20
19:43:00,10,22,12,15,20,21,13,16,16
19:44:00,21,13,20,22,26,20,12,20,19
19:45:00,13,27,25,16,20,13,8,20,17
19:46:00,16,13,17,16,13,21,16,15,16
19:47:00,17,22,18,28,26,20,14,22,21
19:48:00,17,25,17,10,17,18,12,17,17
19:49:00,17,23,15,26,24,9,11,21,18
19:50:00,11,19,13,19,15,17,15,15,16
19:51:00,14,22,19,20,17,11,8,18,16
19:52:00,16,16,18,23,22,7,11,19,16
19:53:00,20,19,26,21,20,21,12,21,20
19:54:00,22,20,27,20,27,21,14,23,22
19:55:00,20,17,14,19,17,13,11,17,16
19:56:00,15,26,28,14,24,17,7,21,19
19:57:00,19,29,12,16,26,14,15,20,19
19:58:00,20,24,10,25,16,10,13,19,17
19:59:00,18,11,9,30,25,11,8,19,16
20:00:00,11,31,14,15,23,18,8,19,17
20:01:00,10,17,13,16,14,16,12,14,14
20:02:00,13,16,17,23,17,17,13,17,17
20:03:00,12,19,14,22,22,13,13,18,16
20:04:00,18,28,19,14,11,16,21,18,18
20:05:00,11,14,16,22,21,20,8,17,16
20:06:00,19,18,13,15,18,13,11,17,15
20:07:00,17,8,17,19,23,11,13,17,15
20:08:00,14,20,13,19,13,18,9,16,15
20:09:00,30,23,24,20,21,12,12,24,20
20:10:00,14,21,16,20,17,11,16,18,16
20:11:00,13,25,26,14,21,15,8,20,17
20:12:00,15,29,24,28,14,13,7,22,19
20:13:00,20,24,18,16,17,13,14,19,17
20:14:00,17,22,26,19,23,14,14,21,19
20:15:00,18,27,28,23,24,11,17,24,21
20:16:00,15,15,19,11,12,15,13,14,14
20:17:00,13,27,21,17,24,22,14,20,20
20:18:00,15,20,18,10,17,15,8,16,15
20:19:00,20,19,16,12,22,16,7,18,16
20:20:00,15,18,15,18,18,15,7,17,15
20:21:00,28,17,9,14,24,15,12,18,17
20:22:00,12,16,11,11,16,7,15,13,13
20:23:00,18,16,10,10,21,3,7,15,12
20:24:00,9,15,16,11,10,8,19,12,13
20:25:00,10,15,11,11,10,11,8,11,11
20:26:00,19,17,14,19,10,8,8,16,14
20:27:00,15,13,16,14,22,18,14,16,16
20:28:00,19,17,11,19,13,20,9,16,15
20:29:00,14,16,11,13,15,10,11,14,13
20:30:00,8,15,11,16,19,9,6,14,12
20:31:00,14,13,24,17,8,13,10,15,14
20:32:00,6,18,8,18,14,16,13,13,13
20:33:00,24,20,14,17,8,9,7,17,14
20:34:00,8,12,16,13,14,11,7,13,12
20:35:00,14,18,7,20,24,8,20,17,16
20:36:00,13,13,12,19,14,7,12,14,13
20:37:00,10,17,21,10,9,5,10,13,12
20:38:00,18,20,14,11,19,15,7,16,15
20:39:00,15,23,21,8,17,8,11,17,15
20:40:00,16,12,12,12,14,9,8,13,12
20:41:00,13,10,27,18,15,11,10,17,15
20:42:00,12,12,11,22,19,19,13,15,15
20:43:00,9,19,19,9,10,7,13,13,12
20:44:00,11,20,19,15,6,10,6,14,12
20:45:00,9,14,14,16,6,11,13,12,12
20:46:00,15,9,16,19,20,12,8,16,14
20:47:00,7,19,16,16,17,10,8,15,13
20:48:00,11,18,14,8,17,10,15,14,13
20:49:00,8,16,13,9,10,12,6,11,11
20:50:00,11,11,12,21,16,9,9,14,13
20:51:00,17,14,19,12,8,13,11,14,13
20:52:00,9,16,12,12,12,20,11,12,13
20:53:00,16,10,16,18,16,13,11,15,14
20:54:00,6,11,17,13,11,13,12,12,12
20:55:00,13,16,10,9,13,6,9,12,11
20:56:00,11,11,15,8,19,7,9,13,11
20:57:00,13,14,11,10,18,12,8,13,12
20:58:00,9,9,16,13,9,14,11,11,12
20:59:00,15,11,15,18,11,10,4,14,12
21:00:00,13,15,12,18,10,13,10,14,13
21:01:00,7,12,15,16,9,10,12,12,12
21:02:00,7,5,12,14,16,5,5,11,9
21:03:00,17,11,18,10,13,18,8,14,14
21:04:00,8,16,12,14,11,17,12,12,13
21:05:00,12,16,6,11,6,8,6,10,9
21:06:00,11,14,16,6,11,10,17,12,12
21:07:00,11,11,14,10,14,8,11,12,11
21:08:00,10,16,13,10,10,6,10,12,11
21:09:00,12,19,11,12,13,8,6,13,12
21:10:00,12,13,13,11,16,13,9,13,12
21:11:00,10,10,15,24,11,10,3,14,12
21:12:00,15,17,8,13,14,11,10,13,13
21:13:00,7,20,17,15,14,8,9,15,13
21:14:00,4,17,6,12,22,6,12,12,11
21:15:00,10,13,13,12,15,11,17,13,13
21:16:00,18,9,11,14,14,8,10,13,12
21:17:00,17,15,13,13,16,12,13,15,14
21:18:00,8,13,17,14,19,12,5,14,13
21:19:00,9,20,22,25,20,8,7,19,16
21:20:00,20,16,18,20,16,4,11,18,15
21:21:00,10,17,10,17,11,11,9,13,12
21:22:00,17,19,15,15,19,11,12,17,15
21:23:00,15,11,21,19,15,10,7,16,14
21:24:00,13,14,19,18,13,7,4,15,13
21:25:00,11,14,11,12,8,8,5,11,10
21:26:00,14,12,12,10,22,16,10,14,14
21:27:00,20,15,13,9,9,15,9,13,13
21:28:00,4,10,20,11,13,15,7,12,11
21:29:00,8,12,10,10,12,16,11,10,11
21:30:00,10,12,13,11,9,10,9,11,11
21:31:00,12,14,14,12,19,12,2,14,12
21:32:00,10,11,18,8,5,15,6,10,10
21:33:00,13,14,11,11,10,13,8,12,11
21:34:00,12,15,11,14,9,7,7,12,11
21:35:00,8,19,13,8,8,10,11,11,11
21:36:00,10,10,10,5,12,17,4,9,10
21:37:00,16,7,15,10,10,13,10,12,12
21:38:00,7,14,7,8,18,9,9,11,10
21:39:00,15,7,12,6,8,9,5,10,9
21:40:00,8,5,15,10,9,5,7,9,8
21:41:00,10,19,6,15,14,7,13,13,12
21:42:00,7,12,7,7,16,8,8,10,9
21:43:00,7,14,12,10,6,7,9,10,9
21:44:00,7,17,16,9,14,9,8,13,11
21:45:00,15,10,15,8,12,5,6,12,10
21:46:00,8,15,8,18,11,12,4,12,11
21:47:00,10,10,11,8,11,6,10,10,9
21:48:00,10,7,16,12,16,10,11,12,12
21:49:00,12,8,17,15,10,12,9,12,12
21:50:00,10,16,6,12,10,5,8,11,10
21:51:00,11,19,11,6,15,11,8,12,12
21:52:00,12,9,14,13,8,15,13,11,12
21:53:00,10,6,16,12,7,15,3,10,10
21:54:00,11,15,17,7,15,11,2,13,11
21:55:00,12,4,9,10,11,12,9,9,10
21:56:00,5,15,6,9,8,5,5,9,8
21:57:00,6,6,10,9,10,8,5,8,8
21:58:00,9,7,11,7,16,8,9,10,10
21:59:00,5,9,15,12,10,11,5,10,10
22:00:00,5,9,8,17,8,8,7,9,9
22:01:00,11,7,12,8,21,14,6,12,11
22:02:00,6,10,12,15,10,11,4,11,10
22:03:00,14,14,13,9,12,7,9,12,11
22:04:00,6,10,10,9,11,12,3,9,9
22:05:00,7,8,11,8,10,9,3,9,8
22:06:00,7,9,7,13,9,13,5,9,9
22:07:00,15,13,14,3,8,9,6,11,10
22:08:00,9,14,9,11,11,8,9,11,10
22:09:00,13,9,7,8,5,9,7,8,8
22:10:00,10,15,11,16,15,6,2,13,11
22:11:00,6,12,7,7,14,10,6,9,9
22:12:00,12,6,10,9,8,15,3,9,9
22:13:00,7,6,8,15,17,9,2,11,9
22:14:00,9,12,13,7,14,13,11,11,11
22:15:00,5,6,9,10,11,6,9,8,8
22:16:00,16,11,14,4,3,6,7,10,9
22:17:00,8,13,10,8,13,13,12,10,11
22:18:00,9,10,10,10,15,10,7,11,10
22:19:00,2,8,10,18,11,12,4,10,9
22:20:00,9,6,2,9,9,14,9,7,8
22:21:00,7,15,10,10,6,8,8,10,9
22:22:00,7,4,13,9,15,16,12,10,11
22:23:00,9,6,11,7,10,11,8,9,9
22:24:00,11,7,11,4,15,11,8,10,10
22:25:00,6,17,6,11,8,8,4,10,9
22:26:00,7,13,6,4,12,7,6,8,8
22:27:00,6,7,2,9,5,13,6,6,7
22:28:00,3,9,11,7,11,12,6,8,8
22:29:00,6,10,6,7,7,10,5,7,7
22:30:00,6,12,4,5,5,9,4,6,6
22:31:00,11,6,3,1,7,8,7,6,6
22:32:00,7,4,6,6,8,6,4,6,6
22:33:00,7,3,5,5,6,8,4,5,5
22:34:00,4,5,5,5,5,12,5,5,6
22:35:00,6,8,6,9,6,8,8,7,7
22:36:00,7,8,11,10,8,7,1,9,7
22:37:00,15,11,7,6,6,8,5,9,8
22:38:00,5,8,6,5,4,10,11,6,7
22:39:00,2,9,6,13,10,8,2,8,7
22:40:00,6,7,9,7,11,10,3,8,8
22:41:00,3,7,5,12,9,7,5,7,7
22:42:00,9,8,7,11,7,10,3,8,8
22:43:00,4,5,5,5,13,6,4,6,6
22:44:00,4,7,3,4,6,11,5,5,6
22:45:00,6,4,7,8,11,9,7,7,7
22:46:00,4,6,10,6,7,4,4,7,6
22:47:00,3,8,9,8,9,13,5,7,8
22:48:00,5,9,8,9,8,5,3,8,7
22:49:00,6,5,6,8,7,6,3,6,6
22:50:00,1,10,10,6,6,9,4,7,7
22:51:00,4,6,12,5,4,12,1,6,6
22:52:00,5,10,12,12,9,6,3,10,8
22:53:00,6,7,9,3,7,13,4,6,7
22:54:00,5,10,4,10,12,9,9,8,8
22:55:00,9,7,9,11,10,6,5,9,8
22:56:00,6,7,5,4,12,8,3,7,6
22:57:00,1,4,7,8,5,1,1,5,4
22:58:00,6,10,4,5,11,11,3,7,7
22:59:00,8,7,5,5,5,11,2,6,6
23:00:00,3,7,6,4,10,3,4,6,5
23:01:00,5,10,1,6,3,15,7,5,7
23:02:00,3,4,6,5,8,11,7,5,6
23:03:00,3,9,5,3,7,8,6,5,6
23:04:00,5,6,5,7,12,9,3,7,7
23:05:00,7,5,12,6,10,6,2,8,7
23:06:00,4,7,6,4,5,7,7,5,6
23:07:00,6,2,6,4,3,13,7,4,6
23:08:00,7,4,4,2,8,10,3,5,5
23:09:00,4,7,12,6,5,9,6,7,7
23:10:00,3,7,3,4,13,8,3,6,6
23:11:00,6,4,5,11,5,9,3,6,6
23:12:00,1,4,3,4,9,6,5,4,5
23:13:00,9,3,8,5,7,9,6,6,7
23:14:00,4,6,6,7,9,11,2,6,6
23:15:00,6,6,3,5,16,11,1,7,7
23:16:00,6,8,3,2,4,12,1,5,5
23:17:00,4,5,2,2,8,3,4,4,4
23:18:00,6,11,3,2,11,9,5,7,7
23:19:00,6,2,8,4,8,13,2,6,6
23:20:00,2,5,8,4,11,8,2,6,6
23:21:00,4,7,6,2,6,5,6,5,5
23:22:00,6,9,5,5,9,6,2,7,6
23:23:00,0,4,9,2,3,10,4,4,5
23:24:00,3,3,3,10,5,2,6,5,5
23:25:00,3,3,8,2,3,9,0,4,4
23:26:00,3,4,6,6,5,6,3,5,5
23:27:00,3,2,2,7,4,5,2,4,4
23:28:00,2,6,4,3,6,6,1,4,4
23:29:00,4,4,2,6,9,13,4,5,6
23:30:00,4,2,6,6,6,4,2,5,4
23:31:00,1,5,4,2,10,9,4,4,5
23:32:00,2,3,6,4,6,12,3,4,5
23:33:00,4,2,3,3,8,8,3,4,4
23:34:00,4,4,4,4,5,4,1,4,4
23:35:00,3,1,6,1,5,6,1,3,3
23:36:00,3,0,4,4,6,5,3,3,4
23:37:00,1,4,2,5,3,6,1,3,3
23:38:00,1,2,2,3,5,4,1,3,3
23:39:00,2,2,2,1,6,2,4,3,3
23:40:00,1,4,5,3,4,3,1,3,3
23:41:00,2,3,3,4,3,5,2,3,3
23:42:00,4,5,1,6,3,12,3,4,5
23:43:00,3,3,5,0,9,6,2,4,4
23:44:00,6,4,4,0,5,7,1,4,4
23:45:00,2,1,3,4,10,4,3,4,4
23:46:00,1,2,4,5,5,4,4,3,4
23:47:00,4,3,1,2,2,7,3,2,3
23:48:00,4,3,4,2,11,7,3,5,5
23:49:00,3,1,6,3,3,6,2,3,3
23:50:00,2,1,2,2,6,6,1,3,3
23:51:00,3,5,5,3,4,11,2,4,5
23:52:00,5,2,6,5,5,6,1,5,4
23:53:00,1,3,3,4,11,9,2,4,5
23:54:00,2,2,2,4,3,5,1,3,3
23:55:00,4,1,4,3,4,4,3,3,3
23:56:00,5,3,4,4,10,3,0,5,4
23:57:00,4,1,3,1,3,3,2,2,2
23:58:00,5,3,4,4,6,3,1,4,4
23:59:00,4,6,2,3,8,6,2,5,4
,,,,,,,,,
Totals,,,,,,,,,
12H(7-19),17432,16100,16886,17523,17387,16614,15004,17066,16707
16H(6-22),20983,20123,20791,21334,21331,19403,17153,20912,20160
18H(6-24),21620,20882,21549,22063,22286,20393,17651,21680,20921
24H(0-24),22437,21737,22410,22932,23164,21209,18374,22536,21752
,,,,,,,,,
AM Peak,07:15:00,07:44:00,10:52:00,08:53:00,10:49:00,10:41:00,10:56:00,07:23:00,09:59:00
,1523,1310,1506,1500,1597,1697,1689,1424,1419
,,,,,,,,,
PM Peak,13:55:00,13:55:00,13:48:00,12:59:00,12:04:00,12:04:00,13:52:00,13:52:00,13:52:00
,1627,1584,1515,1580,1588,1661,1725,1556,1578
,,,,,,,,,
,,,,,,,,,
CA Traffic,,,,,,,,,VDA-net R2 13/02/2020
