Site Number,00008012,Unnamed: 2,Site Reference,00008012.1,Unnamed: 5,Unnamed: 6,Lat/Lng.,"52.05994,1.13510",Unnamed: 9
Radar 8012 Yarrmouth Road Ipswich,,,,,,,,,
Vehicle Count Report,,,,Week Begin: 27 January 2020,,,Channel:,Total Flow,
,,,,,,,,,
,,,,,,,,,
,2020-01-27 00:00:00,2020-01-28 00:00:00,2020-01-29 00:00:00,2020-01-30 00:00:00,2020-01-31 00:00:00,2020-02-01 00:00:00,2020-02-02 00:00:00,"5-Day
Ave.","7-Day
Ave."
00:00:00,7,2,3,2,1,7,4,3,4
00:01:00,3,2,5,4,1,3,4,3,3
00:02:00,1,1,0,6,3,6,9,2,4
00:03:00,3,1,2,1,4,8,7,2,4
00:04:00,1,3,2,1,3,6,7,2,3
00:05:00,6,3,4,1,1,4,6,3,4
00:06:00,1,1,1,2,5,8,3,2,3
00:07:00,1,2,1,2,3,7,6,2,3
00:08:00,2,4,4,4,5,3,5,4,4
00:09:00,1,3,1,5,1,6,3,2,3
00:10:00,0,0,2,4,4,5,11,2,4
00:11:00,0,2,1,2,6,5,4,2,3
00:12:00,2,1,2,3,4,5,5,2,3
00:13:00,2,1,1,1,2,5,5,1,2
00:14:00,2,1,1,2,1,4,5,1,2
00:15:00,1,1,1,1,4,5,3,2,2
00:16:00,1,1,1,5,2,4,7,2,3
00:17:00,2,3,5,1,4,3,9,3,4
00:18:00,3,0,3,0,3,4,5,2,3
00:19:00,1,2,5,0,1,6,4,2,3
00:20:00,3,2,2,3,2,5,6,2,3
00:21:00,2,2,1,2,1,2,1,2,2
00:22:00,3,2,5,0,6,3,2,3,3
00:23:00,1,3,0,1,5,4,5,2,3
00:24:00,3,3,0,2,3,4,2,2,2
00:25:00,2,2,1,0,3,5,9,2,3
00:26:00,1,1,0,1,0,4,5,1,2
00:27:00,2,2,2,3,5,8,4,3,4
00:28:00,0,3,0,2,5,3,7,2,3
00:29:00,1,2,4,2,2,2,6,2,3
00:30:00,3,3,0,0,1,6,6,1,3
00:31:00,1,3,2,0,5,6,3,2,3
00:32:00,2,2,1,2,1,4,5,2,2
00:33:00,0,3,0,1,4,8,2,2,3
00:34:00,1,2,3,2,3,3,2,2,2
00:35:00,0,0,2,2,3,4,4,1,2
00:36:00,3,2,2,4,3,4,4,3,3
00:37:00,1,1,4,0,3,4,4,2,2
00:38:00,1,1,1,4,3,2,4,2,2
00:39:00,3,2,2,1,2,2,5,2,2
00:40:00,1,2,4,1,3,2,4,2,2
00:41:00,2,0,0,0,0,4,3,0,1
00:42:00,0,2,3,1,3,2,3,2,2
00:43:00,2,2,3,1,1,6,3,2,3
00:44:00,1,1,4,1,2,5,0,2,2
00:45:00,3,1,2,3,0,2,3,2,2
00:46:00,0,2,0,2,1,10,2,1,2
00:47:00,1,1,3,5,4,2,3,3,3
00:48:00,0,1,2,4,3,4,5,2,3
00:49:00,2,2,3,0,3,1,3,2,2
00:50:00,1,1,1,2,2,2,6,1,2
00:51:00,0,1,4,4,2,2,1,2,2
00:52:00,2,1,3,2,3,7,2,2,3
00:53:00,0,1,1,3,1,6,6,1,3
00:54:00,3,0,4,1,2,0,4,2,2
00:55:00,1,1,1,2,4,3,2,2,2
00:56:00,0,1,2,0,1,5,4,1,2
00:57:00,1,1,0,0,3,4,4,1,2
00:58:00,1,1,0,1,0,3,3,1,1
00:59:00,0,1,0,0,1,3,3,0,1
01:00:00,0,2,1,1,2,5,4,1,2
01:01:00,0,0,1,1,1,0,3,1,1
01:02:00,0,3,1,1,2,2,1,1,1
01:03:00,0,0,2,0,0,2,2,0,1
01:04:00,1,1,0,1,2,0,2,1,1
01:05:00,0,1,4,2,1,2,6,2,2
01:06:00,1,1,0,1,5,4,4,2,2
01:07:00,1,3,1,1,3,4,3,2,2
01:08:00,2,3,1,2,1,2,2,2,2
01:09:00,2,2,3,1,1,2,2,2,2
01:10:00,1,2,0,0,1,5,3,1,2
01:11:00,1,0,0,0,1,2,5,0,1
01:12:00,1,2,1,1,1,2,2,1,1
01:13:00,0,1,1,1,1,3,1,1,1
01:14:00,3,1,1,1,1,2,2,1,2
01:15:00,2,2,1,1,2,3,2,2,2
01:16:00,0,1,2,4,1,1,1,2,1
01:17:00,1,2,0,0,0,2,2,1,1
01:18:00,0,0,1,0,2,2,3,1,1
01:19:00,1,2,1,1,0,1,4,1,1
01:20:00,0,3,1,1,0,3,2,1,1
01:21:00,2,0,1,0,0,2,2,1,1
01:22:00,1,0,0,2,0,2,0,1,1
01:23:00,0,0,2,0,0,0,2,0,1
01:24:00,1,1,1,2,1,0,2,1,1
01:25:00,0,1,0,1,3,2,5,1,2
01:26:00,2,0,0,0,0,2,5,0,1
01:27:00,0,0,1,0,2,2,0,1,1
01:28:00,0,1,1,0,2,5,4,1,2
01:29:00,0,2,0,0,2,2,3,1,1
01:30:00,0,0,1,3,0,4,0,1,1
01:31:00,0,1,1,1,1,1,2,1,1
01:32:00,1,0,1,0,2,1,2,1,1
01:33:00,0,1,0,0,0,4,3,0,1
01:34:00,0,0,0,3,1,6,0,1,1
01:35:00,0,0,0,1,5,5,2,1,2
01:36:00,0,0,2,0,0,4,2,0,1
01:37:00,3,2,1,0,2,2,1,2,2
01:38:00,2,3,0,0,1,2,2,1,1
01:39:00,0,2,0,0,0,2,3,0,1
01:40:00,0,0,0,0,3,2,3,1,1
01:41:00,1,0,1,1,1,2,1,1,1
01:42:00,0,1,0,2,4,1,3,1,2
01:43:00,0,1,1,1,2,2,6,1,2
01:44:00,1,1,1,2,2,2,3,1,2
01:45:00,1,0,0,0,0,0,1,0,0
01:46:00,1,2,1,2,0,1,2,1,1
01:47:00,1,1,1,2,1,3,3,1,2
01:48:00,0,1,0,1,2,1,1,1,1
01:49:00,0,1,1,0,0,3,1,0,1
01:50:00,1,1,0,1,0,1,2,1,1
01:51:00,1,0,0,0,1,2,2,0,1
01:52:00,1,1,1,1,0,6,2,1,2
01:53:00,1,1,1,2,1,3,1,1,1
01:54:00,1,2,3,0,1,1,1,1,1
01:55:00,1,2,1,3,0,2,2,1,2
01:56:00,1,0,0,1,0,2,1,0,1
01:57:00,0,0,1,1,1,1,3,1,1
01:58:00,0,2,1,0,1,1,1,1,1
01:59:00,0,0,2,0,2,0,2,1,1
02:00:00,1,1,0,1,0,1,1,1,1
02:01:00,0,1,1,0,3,1,1,1,1
02:02:00,0,1,0,1,2,1,0,1,1
02:03:00,1,1,1,2,1,2,0,1,1
02:04:00,0,1,1,0,1,1,2,1,1
02:05:00,1,1,0,0,2,0,2,1,1
02:06:00,2,1,0,1,2,0,0,1,1
02:07:00,1,0,3,0,0,1,2,1,1
02:08:00,1,0,2,0,0,2,0,1,1
02:09:00,1,1,1,1,2,2,5,1,2
02:10:00,1,0,4,0,1,0,1,1,1
02:11:00,0,1,2,1,0,0,3,1,1
02:12:00,0,0,3,0,1,2,0,1,1
02:13:00,0,2,2,1,0,1,0,1,1
02:14:00,1,0,1,0,1,0,2,1,1
02:15:00,3,2,2,1,1,2,2,2,2
02:16:00,0,1,1,3,1,1,0,1,1
02:17:00,1,0,1,1,0,2,0,1,1
02:18:00,0,2,1,2,0,0,2,1,1
02:19:00,0,0,2,0,1,2,2,1,1
02:20:00,0,1,1,1,1,0,3,1,1
02:21:00,2,0,0,0,0,2,0,0,1
02:22:00,0,1,0,0,1,4,3,0,1
02:23:00,0,1,0,1,0,0,2,0,1
02:24:00,1,2,0,2,0,3,2,1,1
02:25:00,1,2,1,0,2,0,1,1,1
02:26:00,0,0,1,0,1,0,3,0,1
02:27:00,0,1,1,0,0,1,0,0,0
02:28:00,1,0,0,0,0,1,3,0,1
02:29:00,2,0,1,1,3,0,4,1,2
02:30:00,2,3,1,2,0,4,0,2,2
02:31:00,0,2,0,2,3,0,1,1,1
02:32:00,1,1,1,3,0,1,1,1,1
02:33:00,0,1,2,1,0,0,2,1,1
02:34:00,2,2,0,1,0,0,1,1,1
02:35:00,1,1,2,1,0,3,4,1,2
02:36:00,1,0,0,0,0,0,1,0,0
02:37:00,0,1,0,0,2,1,4,1,1
02:38:00,0,0,0,0,0,1,3,0,1
02:39:00,1,0,2,3,0,1,2,1,1
02:40:00,1,1,4,0,0,1,2,1,1
02:41:00,1,0,0,1,2,3,3,1,1
02:42:00,0,2,2,1,1,1,0,1,1
02:43:00,2,0,0,1,0,0,4,1,1
02:44:00,0,1,0,0,0,1,3,0,1
02:45:00,2,1,2,1,0,2,3,1,2
02:46:00,2,0,2,0,0,0,4,1,1
02:47:00,0,1,1,0,3,2,2,1,1
02:48:00,0,0,1,0,2,0,2,1,1
02:49:00,0,0,1,0,0,2,0,0,0
02:50:00,2,0,3,1,1,0,1,1,1
02:51:00,1,2,3,0,0,2,1,1,1
02:52:00,1,0,2,0,0,2,0,1,1
02:53:00,0,3,1,1,1,3,2,1,2
02:54:00,2,3,0,0,0,2,1,1,1
02:55:00,1,0,2,0,0,1,0,1,1
02:56:00,1,1,0,2,0,4,2,1,1
02:57:00,0,0,2,1,0,2,1,1,1
02:58:00,0,0,0,2,0,0,1,0,0
02:59:00,1,2,0,0,3,0,0,1,1
03:00:00,2,2,0,0,0,1,1,1,1
03:01:00,0,1,0,1,0,0,1,0,0
03:02:00,0,1,0,1,0,1,1,0,1
03:03:00,0,1,1,1,1,2,0,1,1
03:04:00,0,5,1,0,0,4,2,1,2
03:05:00,0,0,0,1,1,1,0,0,0
03:06:00,1,0,1,0,0,2,1,0,1
03:07:00,1,1,0,0,1,2,0,1,1
03:08:00,3,0,0,0,3,1,2,1,1
03:09:00,0,1,0,1,1,3,3,1,1
03:10:00,2,2,1,1,1,0,3,1,1
03:11:00,1,2,2,3,2,1,0,2,2
03:12:00,1,0,2,1,2,0,4,1,1
03:13:00,2,1,3,1,0,1,2,1,1
03:14:00,0,1,0,1,0,1,1,0,1
03:15:00,1,1,3,0,2,0,3,1,1
03:16:00,0,0,0,1,2,1,3,1,1
03:17:00,1,0,0,1,0,0,0,0,0
03:18:00,0,2,0,5,0,0,2,1,1
03:19:00,2,2,0,1,1,2,1,1,1
03:20:00,1,1,0,1,2,1,1,1,1
03:21:00,0,0,1,0,2,0,0,1,0
03:22:00,2,1,1,1,0,3,2,1,1
03:23:00,0,3,1,1,0,0,0,1,1
03:24:00,2,1,2,1,0,2,0,1,1
03:25:00,0,1,2,1,0,0,2,1,1
03:26:00,0,1,2,0,3,1,1,1,1
03:27:00,2,0,0,1,0,1,1,1,1
03:28:00,3,0,1,2,0,1,4,1,2
03:29:00,2,0,0,0,0,0,1,0,0
03:30:00,0,2,3,2,1,1,2,2,2
03:31:00,0,4,0,1,2,2,1,1,1
03:32:00,1,2,1,0,1,0,1,1,1
03:33:00,0,1,0,0,3,0,1,1,1
03:34:00,0,0,2,1,0,1,0,1,1
03:35:00,4,0,0,1,0,2,0,1,1
03:36:00,2,0,3,0,2,0,1,1,1
03:37:00,2,0,1,2,1,2,1,1,1
03:38:00,1,1,0,2,2,2,0,1,1
03:39:00,2,0,0,3,0,2,1,1,1
03:40:00,0,0,0,1,0,1,1,0,0
03:41:00,0,3,0,0,1,1,3,1,1
03:42:00,0,1,1,0,2,1,0,1,1
03:43:00,2,2,0,1,0,0,1,1,1
03:44:00,0,3,3,3,1,1,1,2,2
03:45:00,1,1,3,0,2,0,1,1,1
03:46:00,2,2,2,1,0,2,1,1,1
03:47:00,2,3,2,1,3,1,2,2,2
03:48:00,2,2,0,2,2,3,2,2,2
03:49:00,5,1,2,1,3,1,2,2,2
03:50:00,2,1,0,2,1,1,2,1,1
03:51:00,1,3,2,2,0,2,0,2,1
03:52:00,2,2,3,2,4,1,2,3,2
03:53:00,1,0,2,3,2,1,1,2,1
03:54:00,1,0,0,1,2,1,3,1,1
03:55:00,2,3,1,0,0,0,1,1,1
03:56:00,4,2,2,4,2,2,1,3,2
03:57:00,1,0,1,0,1,2,3,1,1
03:58:00,0,1,0,0,1,0,1,0,0
03:59:00,0,1,2,0,0,4,0,1,1
04:00:00,4,0,1,0,0,0,0,1,1
04:01:00,0,1,1,0,2,1,3,1,1
04:02:00,3,1,1,1,2,1,1,2,1
04:03:00,1,1,2,2,2,2,1,2,2
04:04:00,0,4,2,0,1,3,0,1,1
04:05:00,2,0,5,2,0,3,4,2,2
04:06:00,1,2,2,1,1,0,4,1,2
04:07:00,4,2,0,4,3,3,1,3,2
04:08:00,0,3,1,2,1,1,2,1,1
04:09:00,2,4,1,1,1,2,1,2,2
04:10:00,1,2,1,1,0,1,2,1,1
04:11:00,1,2,0,2,0,1,0,1,1
04:12:00,1,3,1,1,0,0,2,1,1
04:13:00,1,0,1,2,3,3,1,1,2
04:14:00,1,1,0,1,2,5,1,1,2
04:15:00,0,3,1,0,1,3,0,1,1
04:16:00,3,3,0,3,1,1,2,2,2
04:17:00,1,1,4,1,2,1,1,2,2
04:18:00,0,3,1,2,3,2,1,2,2
04:19:00,0,1,1,3,4,1,1,2,2
04:20:00,1,2,2,2,1,1,0,2,1
04:21:00,0,0,2,1,3,2,3,1,2
04:22:00,2,3,2,0,1,0,1,2,1
04:23:00,3,2,1,0,3,1,0,2,1
04:24:00,3,2,1,1,1,2,2,2,2
04:25:00,0,0,2,2,5,0,0,2,1
04:26:00,4,1,0,2,1,2,1,2,2
04:27:00,6,1,2,2,0,3,1,2,2
04:28:00,4,1,1,3,2,3,1,2,2
04:29:00,2,3,1,0,0,0,1,1,1
04:30:00,1,2,3,6,4,1,1,3,3
04:31:00,0,2,2,2,0,1,2,1,1
04:32:00,1,1,2,2,1,2,2,1,2
04:33:00,2,0,2,3,2,0,2,2,2
04:34:00,1,2,2,1,1,4,1,1,2
04:35:00,3,2,4,2,2,1,0,3,2
04:36:00,3,3,2,1,0,2,1,2,2
04:37:00,2,2,4,2,2,4,2,2,3
04:38:00,5,4,1,4,0,0,1,3,2
04:39:00,2,1,4,4,6,0,2,3,3
04:40:00,3,8,2,3,4,0,2,4,3
04:41:00,2,1,3,4,2,2,1,2,2
04:42:00,5,1,5,3,3,1,3,3,3
04:43:00,3,1,5,0,4,1,0,3,2
04:44:00,4,2,5,3,4,4,3,4,4
04:45:00,4,3,1,3,2,3,1,3,2
04:46:00,2,3,3,6,2,2,0,3,3
04:47:00,8,6,2,0,5,3,4,4,4
04:48:00,2,7,6,6,3,0,1,5,4
04:49:00,1,4,4,3,3,0,2,3,2
04:50:00,4,5,4,2,4,4,1,4,3
04:51:00,7,2,4,1,2,4,0,3,3
04:52:00,4,3,5,5,4,7,3,4,4
04:53:00,3,1,1,3,7,2,0,3,2
04:54:00,1,2,6,4,5,1,0,4,3
04:55:00,5,4,3,2,5,2,0,4,3
04:56:00,2,5,3,6,6,1,3,4,4
04:57:00,7,2,6,4,2,0,3,4,3
04:58:00,6,6,3,5,4,0,3,5,4
04:59:00,4,3,8,6,6,4,2,5,5
05:00:00,5,7,2,6,3,1,1,5,4
05:01:00,1,2,4,5,6,3,0,4,3
05:02:00,3,4,1,4,5,4,1,3,3
05:03:00,6,4,4,8,7,2,2,6,5
05:04:00,1,6,10,2,5,1,1,5,4
05:05:00,2,13,5,10,3,3,0,7,5
05:06:00,1,6,5,8,5,6,1,5,5
05:07:00,5,4,5,3,5,4,4,4,4
05:08:00,5,7,4,2,1,4,0,4,3
05:09:00,6,2,3,2,7,2,0,4,3
05:10:00,4,1,3,4,6,4,1,4,3
05:11:00,3,8,4,4,7,3,2,5,4
05:12:00,4,2,9,5,4,4,0,5,4
05:13:00,11,4,6,3,7,5,4,6,6
05:14:00,11,5,6,4,6,1,0,6,5
05:15:00,2,5,4,6,3,5,2,4,4
05:16:00,3,3,5,3,8,5,5,4,5
05:17:00,6,5,8,3,9,1,4,6,5
05:18:00,3,6,9,7,4,4,0,6,5
05:19:00,3,5,9,4,12,2,1,7,5
05:20:00,7,8,3,7,3,3,3,6,5
05:21:00,3,6,2,3,4,2,0,4,3
05:22:00,4,9,2,2,3,3,1,4,3
05:23:00,3,5,5,5,2,4,2,4,4
05:24:00,11,5,5,6,8,5,1,7,6
05:25:00,6,7,4,8,2,2,0,5,4
05:26:00,6,8,8,4,10,0,1,7,5
05:27:00,11,3,6,8,2,4,2,6,5
05:28:00,7,12,6,2,9,2,1,7,6
05:29:00,9,5,3,2,10,3,2,6,5
05:30:00,5,7,7,6,3,2,2,6,5
05:31:00,7,12,10,5,8,2,1,8,6
05:32:00,7,4,7,5,8,2,0,6,5
05:33:00,5,13,8,9,6,1,1,8,6
05:34:00,8,8,3,10,4,4,2,7,6
05:35:00,10,8,10,11,5,3,2,9,7
05:36:00,6,6,8,5,10,3,3,7,6
05:37:00,5,7,6,9,14,8,4,8,8
05:38:00,9,12,12,10,8,2,0,10,8
05:39:00,4,7,4,12,6,5,2,7,6
05:40:00,8,10,10,7,9,8,0,9,7
05:41:00,14,14,9,3,7,6,4,9,8
05:42:00,8,7,7,13,16,6,3,10,9
05:43:00,17,13,7,13,9,5,5,12,10
05:44:00,8,4,17,5,3,2,2,7,6
05:45:00,11,5,17,12,9,4,0,11,8
05:46:00,12,14,13,11,12,6,4,12,10
05:47:00,3,9,5,10,8,6,2,7,6
05:48:00,13,7,9,8,3,3,2,8,6
05:49:00,8,11,13,4,5,3,3,8,7
05:50:00,10,11,16,8,10,5,1,11,9
05:51:00,15,11,9,14,7,6,2,11,9
05:52:00,6,8,9,6,6,5,3,7,6
05:53:00,11,4,11,8,13,4,2,9,8
05:54:00,8,15,14,10,10,4,1,11,9
05:55:00,12,9,3,6,6,1,3,7,6
05:56:00,5,10,12,7,6,6,0,8,7
05:57:00,9,6,10,10,12,5,3,9,8
05:58:00,11,10,10,6,8,4,0,9,7
05:59:00,8,10,11,6,13,5,1,10,8
06:00:00,9,16,6,9,9,3,5,10,8
06:01:00,12,8,11,7,8,5,3,9,8
06:02:00,9,8,10,9,5,2,0,8,6
06:03:00,17,9,8,7,3,3,4,9,7
06:04:00,6,14,10,5,16,7,4,10,9
06:05:00,5,14,6,8,8,0,4,8,6
06:06:00,3,6,4,8,13,6,1,7,6
06:07:00,7,9,13,16,8,9,1,11,9
06:08:00,6,8,9,14,6,2,3,9,7
06:09:00,12,11,9,9,12,6,2,11,9
06:10:00,8,17,9,9,10,4,3,11,9
06:11:00,11,10,11,4,9,2,2,9,7
06:12:00,8,15,17,8,7,6,1,11,9
06:13:00,15,12,9,8,10,3,5,11,9
06:14:00,8,11,8,15,16,2,2,12,9
06:15:00,14,14,16,8,8,5,1,12,9
06:16:00,13,13,17,14,11,3,0,14,10
06:17:00,11,12,16,15,14,6,2,14,11
06:18:00,9,11,15,12,10,6,3,11,9
06:19:00,8,9,5,7,21,4,2,10,8
06:20:00,10,13,14,11,2,4,3,10,8
06:21:00,13,13,13,10,10,5,2,12,9
06:22:00,12,10,18,16,12,4,4,14,11
06:23:00,8,16,11,13,11,1,0,12,9
06:24:00,6,10,15,16,12,5,1,12,9
06:25:00,10,16,17,17,15,4,1,15,11
06:26:00,19,14,19,25,17,1,3,19,14
06:27:00,14,21,9,16,11,4,3,14,11
06:28:00,10,16,10,12,10,4,4,12,9
06:29:00,21,18,21,14,8,3,4,16,13
06:30:00,13,15,16,17,22,11,7,17,14
06:31:00,15,17,22,13,25,6,5,18,15
06:32:00,15,19,16,20,8,6,4,16,13
06:33:00,23,21,14,16,20,5,3,19,15
06:34:00,11,15,17,11,11,11,3,13,11
06:35:00,19,22,18,14,14,11,2,17,14
06:36:00,15,23,9,20,20,6,4,17,14
06:37:00,20,23,25,14,22,2,2,21,15
06:38:00,21,16,23,13,14,10,2,17,14
06:39:00,14,15,17,11,19,11,3,15,13
06:40:00,22,14,16,21,24,9,1,19,15
06:41:00,16,12,15,22,10,8,5,15,13
06:42:00,20,23,19,18,19,8,3,20,16
06:43:00,7,14,16,14,14,8,7,13,11
06:44:00,9,14,20,13,21,12,5,15,13
06:45:00,10,14,19,17,21,6,10,16,14
06:46:00,15,17,20,16,13,4,6,16,13
06:47:00,22,21,12,29,16,9,6,20,16
06:48:00,17,24,12,14,16,10,6,17,14
06:49:00,9,25,25,20,13,6,8,18,15
06:50:00,24,13,22,17,21,14,2,19,16
06:51:00,29,17,19,23,18,6,5,21,17
06:52:00,22,21,9,21,12,5,6,17,14
06:53:00,15,24,28,10,15,9,4,18,15
06:54:00,19,14,22,20,18,8,7,19,15
06:55:00,23,25,26,26,25,9,8,25,20
06:56:00,16,22,22,24,19,5,5,21,16
06:57:00,17,17,19,16,17,9,3,17,14
06:58:00,17,13,17,15,22,5,3,17,13
06:59:00,20,13,14,24,12,8,1,17,13
07:00:00,13,18,14,14,9,5,5,14,11
07:01:00,8,22,25,29,12,9,3,19,15
07:02:00,20,11,20,12,17,5,6,16,13
07:03:00,18,19,19,34,17,3,4,21,16
07:04:00,19,14,21,10,16,9,3,16,13
07:05:00,28,24,21,24,23,6,5,24,19
07:06:00,16,20,23,17,18,8,4,19,15
07:07:00,17,20,19,22,23,6,6,20,16
07:08:00,17,22,23,28,18,7,2,22,17
07:09:00,27,26,15,35,23,9,5,25,20
07:10:00,29,21,26,11,22,6,6,22,17
07:11:00,19,19,32,27,20,9,10,23,19
07:12:00,29,28,20,27,16,4,4,24,18
07:13:00,29,27,29,32,23,4,3,28,21
07:14:00,22,25,23,17,25,4,3,22,17
07:15:00,27,24,20,28,21,10,11,24,20
07:16:00,23,27,34,19,27,8,8,26,21
07:17:00,28,19,20,21,22,6,3,22,17
07:18:00,35,18,18,27,17,10,3,23,18
07:19:00,23,22,25,35,25,5,4,26,20
07:20:00,18,14,18,20,28,14,8,20,17
07:21:00,19,39,19,16,20,3,6,23,17
07:22:00,22,25,31,36,32,11,6,29,23
07:23:00,25,26,13,28,18,12,1,22,18
07:24:00,24,32,31,31,23,13,5,28,23
07:25:00,19,28,29,23,28,8,7,25,20
07:26:00,24,19,31,31,29,12,3,27,21
07:27:00,26,21,25,19,33,6,2,25,19
07:28:00,22,33,18,21,27,10,8,24,20
07:29:00,23,21,27,22,24,9,7,23,19
07:30:00,28,20,24,32,23,8,2,25,20
07:31:00,21,17,25,15,33,7,5,22,18
07:32:00,25,21,26,29,25,5,3,25,19
07:33:00,18,19,26,24,29,9,6,23,19
07:34:00,32,22,28,33,18,8,4,27,21
07:35:00,19,28,28,16,23,13,12,23,20
07:36:00,24,28,28,39,32,4,6,30,23
07:37:00,28,32,24,20,19,11,4,25,20
07:38:00,26,22,27,26,24,12,5,25,20
07:39:00,25,32,20,22,16,12,2,23,18
07:40:00,18,14,27,32,25,5,3,23,18
07:41:00,24,38,19,24,30,15,5,27,22
07:42:00,33,19,31,25,22,18,2,26,21
07:43:00,13,32,19,22,22,9,6,22,18
07:44:00,33,27,28,20,32,12,7,28,23
07:45:00,28,23,9,32,21,17,4,23,19
07:46:00,24,20,35,27,29,8,4,27,21
07:47:00,20,38,18,21,26,19,12,25,22
07:48:00,31,12,28,17,25,15,2,23,19
07:49:00,18,34,6,28,27,11,2,23,18
07:50:00,27,9,43,19,19,11,9,23,20
07:51:00,19,32,29,25,22,15,10,25,22
07:52:00,30,26,32,25,30,8,11,29,23
07:53:00,25,29,15,30,27,9,5,25,20
07:54:00,34,12,29,20,28,14,5,25,20
07:55:00,17,33,13,21,24,9,5,22,17
07:56:00,41,22,37,30,22,10,4,30,24
07:57:00,22,26,12,13,14,14,3,17,15
07:58:00,30,19,38,30,12,18,4,26,22
07:59:00,11,29,23,37,6,17,5,21,18
08:00:00,34,21,17,21,25,3,3,24,18
08:01:00,22,29,21,20,8,16,4,20,17
08:02:00,32,22,21,42,35,13,4,30,24
08:03:00,27,37,7,26,11,8,7,22,18
08:04:00,33,12,30,20,29,13,7,25,21
08:05:00,10,40,10,24,16,13,6,20,17
08:06:00,29,19,33,30,32,14,11,29,24
08:07:00,13,29,25,22,17,11,11,21,18
08:08:00,31,21,28,41,26,10,4,29,23
08:09:00,29,33,25,17,19,13,5,25,20
08:10:00,39,20,27,28,30,14,3,29,23
08:11:00,14,40,20,14,19,10,4,21,17
08:12:00,38,12,30,30,24,19,11,27,23
08:13:00,20,40,17,15,16,7,4,22,17
08:14:00,27,9,28,29,30,15,7,25,21
08:15:00,14,32,21,14,13,10,2,19,15
08:16:00,37,19,24,33,36,17,7,30,25
08:17:00,12,36,11,13,15,24,9,17,17
08:18:00,32,25,29,21,33,8,7,28,22
08:19:00,19,20,28,20,11,12,14,20,18
08:20:00,24,19,35,23,30,15,8,26,22
08:21:00,11,36,20,27,29,13,9,25,21
08:22:00,27,26,27,33,28,9,6,28,22
08:23:00,18,37,17,14,8,18,7,19,17
08:24:00,24,14,20,34,33,21,6,25,22
08:25:00,16,36,14,13,16,10,4,19,16
08:26:00,30,19,31,33,30,10,6,29,23
08:27:00,16,37,8,6,12,21,9,16,16
08:28:00,30,13,40,31,30,18,8,29,24
08:29:00,15,30,12,14,22,13,8,19,16
08:30:00,30,17,25,35,30,10,12,27,23
08:31:00,21,33,24,17,16,16,2,22,18
08:32:00,34,12,27,26,25,16,9,25,21
08:33:00,8,38,14,8,24,12,9,18,16
08:34:00,30,14,28,32,24,18,11,26,22
08:35:00,7,24,22,18,26,21,11,19,18
08:36:00,31,17,32,37,16,22,9,27,23
08:37:00,18,26,20,8,19,15,7,18,16
08:38:00,28,17,31,33,15,13,5,25,20
08:39:00,12,34,15,16,31,18,8,22,19
08:40:00,30,21,27,16,17,20,10,22,20
08:41:00,26,33,26,22,20,14,11,25,22
08:42:00,27,15,26,27,26,15,10,24,21
08:43:00,14,31,24,18,24,22,11,22,21
08:44:00,34,16,40,26,27,18,10,29,24
08:45:00,16,35,18,20,37,19,8,25,22
08:46:00,27,25,26,25,23,17,9,25,22
08:47:00,24,31,19,18,23,27,10,23,22
08:48:00,32,10,26,19,32,21,8,24,21
08:49:00,16,40,22,22,22,20,10,24,22
08:50:00,28,33,24,37,27,28,7,30,26
08:51:00,13,33,23,20,30,20,12,24,22
08:52:00,30,17,21,31,20,27,11,24,22
08:53:00,12,37,31,29,30,19,22,28,26
08:54:00,27,23,19,27,30,11,2,25,20
08:55:00,17,32,30,22,22,22,14,25,23
08:56:00,35,22,37,25,25,21,8,29,25
08:57:00,23,32,12,23,21,25,9,22,21
08:58:00,25,24,30,23,25,19,8,25,22
08:59:00,18,31,21,23,23,17,4,23,20
09:00:00,28,17,32,33,22,26,10,26,24
09:01:00,27,40,25,21,24,25,15,27,25
09:02:00,22,30,30,21,29,16,13,26,23
09:03:00,31,24,21,32,23,11,8,26,21
09:04:00,22,10,20,17,27,21,14,19,19
09:05:00,30,22,18,19,19,25,16,22,21
09:06:00,36,24,17,34,32,20,11,29,25
09:07:00,22,17,30,27,17,23,13,23,21
09:08:00,23,27,20,31,26,18,20,25,24
09:09:00,27,18,23,14,22,14,11,21,18
09:10:00,22,29,21,30,20,24,20,24,24
09:11:00,20,30,30,31,23,20,24,27,25
09:12:00,33,32,19,23,25,26,7,26,24
09:13:00,23,18,21,22,27,14,19,22,21
09:14:00,19,24,16,28,36,27,15,25,24
09:15:00,17,14,17,26,22,16,10,19,17
09:16:00,25,14,13,29,28,19,19,22,21
09:17:00,34,21,26,33,22,18,14,27,24
09:18:00,32,23,19,18,30,20,24,24,24
09:19:00,25,29,27,23,21,22,22,25,24
09:20:00,20,36,27,32,30,12,9,29,24
09:21:00,31,33,31,8,21,35,15,25,25
09:22:00,17,32,25,29,32,24,10,27,24
09:23:00,23,21,29,8,31,22,21,22,22
09:24:00,22,36,17,38,21,35,27,27,28
09:25:00,24,25,9,16,29,25,6,21,19
09:26:00,24,35,17,34,27,17,11,27,24
09:27:00,25,19,34,30,30,23,17,28,25
09:28:00,20,34,22,37,20,18,12,27,23
09:29:00,20,16,26,24,40,25,12,25,23
09:30:00,21,27,26,30,20,20,16,25,23
09:31:00,21,25,22,18,28,23,20,23,22
09:32:00,28,30,17,18,26,25,24,24,24
09:33:00,15,23,25,15,28,18,12,21,19
09:34:00,25,30,28,18,19,22,17,24,23
09:35:00,20,16,31,17,32,31,21,23,24
09:36:00,23,24,21,23,25,15,13,23,21
09:37:00,23,24,20,17,30,27,12,23,22
09:38:00,22,17,18,29,27,24,25,23,23
09:39:00,24,34,31,25,18,30,13,26,25
09:40:00,28,29,21,32,40,26,23,30,28
09:41:00,21,35,21,19,20,24,23,23,23
09:42:00,31,22,22,31,20,21,17,25,23
09:43:00,27,25,21,25,29,30,16,25,25
09:44:00,24,19,12,24,25,14,27,21,21
09:45:00,20,23,22,14,28,41,24,21,25
09:46:00,24,24,20,29,26,12,20,25,22
09:47:00,24,15,25,26,31,15,19,24,22
09:48:00,24,28,15,35,16,28,16,24,23
09:49:00,30,19,28,20,25,36,21,24,26
09:50:00,21,28,20,29,34,22,12,26,24
09:51:00,30,30,23,23,30,9,18,27,23
09:52:00,19,20,31,29,21,35,21,24,25
09:53:00,27,30,18,31,36,19,28,28,27
09:54:00,20,26,23,29,23,34,16,24,24
09:55:00,33,13,22,19,29,25,26,23,24
09:56:00,22,21,29,26,12,29,22,22,23
09:57:00,15,9,27,26,25,15,20,20,20
09:58:00,27,14,16,30,14,29,16,20,21
09:59:00,19,25,25,10,28,29,25,21,23
10:00:00,22,21,11,25,23,33,15,20,21
10:01:00,16,30,28,29,25,20,18,26,24
10:02:00,19,35,14,28,18,34,13,23,23
10:03:00,24,28,25,20,23,18,22,24,23
10:04:00,22,22,13,24,23,43,14,21,23
10:05:00,15,29,22,12,22,18,32,20,21
10:06:00,19,31,30,18,15,27,12,23,22
10:07:00,22,29,20,31,37,25,21,28,26
10:08:00,14,28,14,26,23,29,26,21,23
10:09:00,24,27,18,16,26,15,25,22,22
10:10:00,29,21,21,18,25,38,18,23,24
10:11:00,33,17,30,22,21,24,19,25,24
10:12:00,19,35,36,18,15,34,32,25,27
10:13:00,13,26,13,27,31,18,21,22,21
10:14:00,32,25,17,22,20,37,23,23,25
10:15:00,25,19,34,25,29,20,31,26,26
10:16:00,15,21,27,23,20,24,16,21,21
10:17:00,19,30,28,32,33,25,21,28,27
10:18:00,16,20,27,34,25,18,30,24,24
10:19:00,41,16,22,20,30,31,24,26,26
10:20:00,24,28,21,21,22,20,24,23,23
10:21:00,17,25,36,8,30,31,17,23,23
10:22:00,19,18,27,17,29,28,25,22,23
10:23:00,31,23,27,9,17,19,26,21,22
10:24:00,33,36,27,23,20,34,20,28,28
10:25:00,24,28,34,26,32,19,26,29,27
10:26:00,34,21,21,26,16,35,16,24,24
10:27:00,22,27,31,30,34,11,24,29,26
10:28:00,24,24,18,18,24,36,27,22,24
10:29:00,32,14,35,23,30,18,28,27,26
10:30:00,30,23,16,22,29,37,23,24,26
10:31:00,21,24,30,17,25,18,28,23,23
10:32:00,28,19,14,22,26,34,27,22,24
10:33:00,26,31,34,24,31,9,33,29,27
10:34:00,28,13,26,17,18,35,31,20,24
10:35:00,10,15,26,28,32,20,36,22,24
10:36:00,27,25,24,13,16,38,28,21,24
10:37:00,15,21,26,35,36,11,18,27,23
10:38:00,24,23,23,20,13,39,27,21,24
10:39:00,19,22,25,34,35,16,24,27,25
10:40:00,32,33,21,24,22,34,33,26,28
10:41:00,31,33,24,17,30,23,20,27,25
10:42:00,19,18,27,20,23,31,31,21,24
10:43:00,30,33,27,24,25,25,26,28,27
10:44:00,24,23,25,20,22,33,29,23,25
10:45:00,28,13,20,25,30,17,22,23,22
10:46:00,20,30,20,24,20,34,34,23,26
10:47:00,22,35,31,32,26,9,19,29,25
10:48:00,23,29,22,6,18,34,31,20,23
10:49:00,22,27,18,30,33,17,21,26,24
10:50:00,26,29,25,22,27,35,32,26,28
10:51:00,20,27,20,29,33,15,22,26,24
10:52:00,26,28,21,10,24,35,34,22,25
10:53:00,22,14,34,29,23,19,23,24,23
10:54:00,28,29,16,22,10,28,22,21,22
10:55:00,11,20,34,29,36,17,29,26,25
10:56:00,28,17,16,17,20,32,17,20,21
10:57:00,18,26,30,26,31,20,21,26,25
10:58:00,27,18,17,14,25,27,20,20,21
10:59:00,20,25,32,25,37,24,25,28,27
11:00:00,37,30,17,34,24,31,23,28,28
11:01:00,16,21,28,25,20,23,18,22,22
11:02:00,30,31,20,11,24,31,23,23,24
11:03:00,26,24,28,28,25,34,26,26,27
11:04:00,33,19,16,20,17,20,30,21,22
11:05:00,20,23,31,27,19,18,28,24,24
11:06:00,26,21,19,14,21,25,32,20,23
11:07:00,20,22,32,35,35,20,27,29,27
11:08:00,29,29,17,19,12,27,24,21,22
11:09:00,21,22,27,29,27,33,17,25,25
11:10:00,23,22,20,19,16,36,29,20,24
11:11:00,26,21,23,28,36,17,24,27,25
11:12:00,19,22,20,17,32,26,28,22,23
11:13:00,15,23,37,31,27,33,16,27,26
11:14:00,26,19,17,20,14,33,38,19,24
11:15:00,34,22,27,34,27,23,33,29,29
11:16:00,24,20,14,22,15,24,25,19,21
11:17:00,26,25,27,28,31,30,24,27,27
11:18:00,31,26,21,26,27,19,31,26,26
11:19:00,34,28,25,27,25,29,32,28,29
11:20:00,23,17,19,19,24,28,35,20,24
11:21:00,14,14,36,25,27,32,15,23,23
11:22:00,31,24,18,23,9,27,28,21,23
11:23:00,19,20,28,24,20,21,9,22,20
11:24:00,27,37,28,21,16,21,39,26,27
11:25:00,21,34,26,31,30,27,15,28,26
11:26:00,28,18,7,22,18,20,41,19,22
11:27:00,21,19,26,36,31,43,16,27,27
11:28:00,33,28,24,16,26,22,37,25,27
11:29:00,28,37,29,29,26,35,19,30,29
11:30:00,20,24,12,20,18,28,46,19,24
11:31:00,24,22,43,34,30,27,28,31,30
11:32:00,28,23,19,18,19,28,27,21,23
11:33:00,23,19,27,33,29,25,18,26,25
11:34:00,29,33,10,17,23,23,42,22,25
11:35:00,21,21,40,27,35,38,12,29,28
11:36:00,24,29,14,17,23,34,41,21,26
11:37:00,16,16,33,29,30,32,19,25,25
11:38:00,34,39,36,12,22,23,35,29,29
11:39:00,23,25,36,40,25,32,13,30,28
11:40:00,24,26,15,22,26,23,38,23,25
11:41:00,21,26,33,37,33,32,12,30,28
11:42:00,37,27,22,13,18,16,28,23,23
11:43:00,25,15,27,40,26,34,12,27,26
11:44:00,31,24,16,16,21,22,25,22,22
11:45:00,14,29,34,37,40,24,13,31,27
11:46:00,38,22,29,24,24,26,39,27,29
11:47:00,24,22,21,33,41,25,30,28,28
11:48:00,20,31,29,22,25,19,26,25,25
11:49:00,27,25,25,33,24,40,8,27,26
11:50:00,30,28,29,21,18,21,34,25,26
11:51:00,29,25,26,26,32,39,19,28,28
11:52:00,27,28,13,15,24,17,33,21,22
11:53:00,21,21,35,32,19,28,21,26,25
11:54:00,38,28,25,13,30,21,42,27,28
11:55:00,17,25,24,31,28,24,23,25,25
11:56:00,32,29,22,13,17,31,41,23,26
11:57:00,28,22,30,37,22,34,25,28,28
11:58:00,28,22,20,31,27,25,42,26,28
11:59:00,11,24,27,14,23,32,18,20,21
12:00:00,41,27,21,24,35,20,30,30,28
12:01:00,20,22,29,33,24,40,22,26,27
12:02:00,23,24,25,21,29,18,36,24,25
12:03:00,17,22,27,30,29,26,27,25,25
12:04:00,30,19,29,18,32,13,36,26,25
12:05:00,23,19,29,34,31,40,18,27,28
12:06:00,35,18,22,18,28,20,29,24,24
12:07:00,31,31,19,29,20,35,18,26,26
12:08:00,30,20,11,23,40,11,34,25,24
12:09:00,25,21,36,42,32,42,31,31,33
12:10:00,9,21,17,21,43,17,39,22,24
12:11:00,33,23,41,26,22,29,30,29,29
12:12:00,24,24,29,18,34,17,31,26,25
12:13:00,26,23,29,34,23,38,19,27,27
12:14:00,14,31,17,21,32,17,33,23,24
12:15:00,27,39,38,28,27,38,23,32,31
12:16:00,35,26,21,13,22,19,36,23,25
12:17:00,36,18,24,27,19,29,22,25,25
12:18:00,24,23,34,27,22,22,32,26,26
12:19:00,23,32,30,32,16,31,19,27,26
12:20:00,33,32,30,27,23,17,33,29,28
12:21:00,32,25,31,25,14,45,20,25,27
12:22:00,41,27,22,24,29,9,25,29,25
12:23:00,22,27,36,22,20,44,21,25,27
12:24:00,25,16,32,18,19,17,31,22,23
12:25:00,22,31,23,30,19,23,30,25,25
12:26:00,25,31,17,19,30,16,28,24,24
12:27:00,28,33,22,32,15,37,24,26,27
12:28:00,27,19,21,22,33,13,25,24,23
12:29:00,24,26,21,35,25,29,32,26,27
12:30:00,24,18,21,22,27,6,22,22,20
12:31:00,23,18,22,21,16,34,38,20,25
12:32:00,33,31,20,23,30,22,22,27,26
12:33:00,25,33,29,35,22,29,32,29,29
12:34:00,29,22,38,21,27,13,19,27,24
12:35:00,20,33,27,21,10,37,31,22,26
12:36:00,9,24,22,16,32,20,28,21,22
12:37:00,26,25,33,20,17,27,37,24,26
12:38:00,20,29,26,20,29,19,22,25,24
12:39:00,28,33,29,24,25,31,38,28,30
12:40:00,26,25,26,23,31,19,25,26,25
12:41:00,15,32,21,24,10,39,38,20,26
12:42:00,28,16,25,17,40,17,22,25,24
12:43:00,19,34,35,29,9,25,38,25,27
12:44:00,36,30,23,25,37,16,14,30,26
12:45:00,30,33,33,23,20,30,24,28,28
12:46:00,26,23,22,23,37,18,21,26,24
12:47:00,24,24,35,34,17,17,40,27,27
12:48:00,22,21,20,33,27,17,27,25,24
12:49:00,31,31,27,25,27,27,34,28,29
12:50:00,22,9,27,23,27,19,32,22,23
12:51:00,25,28,23,22,13,37,25,22,25
12:52:00,23,16,22,29,32,15,10,24,21
12:53:00,34,31,20,29,21,22,33,27,27
12:54:00,31,23,30,32,33,12,30,30,27
12:55:00,13,25,28,21,29,34,25,23,25
12:56:00,28,27,17,31,17,13,16,24,21
12:57:00,16,24,37,29,23,22,34,26,26
12:58:00,27,17,21,21,41,25,17,25,24
12:59:00,22,37,25,30,29,24,27,29,28
13:00:00,25,18,21,31,36,11,13,26,22
13:01:00,23,32,28,15,29,22,39,25,27
13:02:00,29,17,29,23,26,20,18,25,23
13:03:00,21,24,17,21,30,30,27,23,24
13:04:00,26,22,25,20,20,14,27,23,22
13:05:00,21,29,23,22,22,27,36,23,26
13:06:00,27,11,27,26,32,8,18,25,21
13:07:00,18,31,21,29,13,35,41,22,27
13:08:00,31,19,28,20,24,11,16,24,21
13:09:00,20,36,27,23,16,29,30,24,26
13:10:00,21,22,32,21,27,21,23,25,24
13:11:00,25,29,27,21,20,27,34,24,26
13:12:00,22,24,22,29,26,20,12,25,22
13:13:00,26,25,17,16,31,32,35,23,26
13:14:00,18,21,27,43,33,16,11,28,24
13:15:00,35,34,20,27,15,30,36,26,28
13:16:00,21,19,24,30,23,15,11,23,20
13:17:00,28,26,34,26,9,31,37,25,27
13:18:00,19,33,28,19,34,25,13,27,24
13:19:00,28,30,24,31,13,29,39,25,28
13:20:00,22,24,29,28,35,40,17,28,28
13:21:00,38,19,12,21,13,37,26,21,24
13:22:00,20,26,26,28,35,23,16,27,25
13:23:00,31,26,24,24,26,34,32,26,28
13:24:00,25,18,30,26,23,18,14,24,22
13:25:00,28,32,24,21,31,35,30,27,29
13:26:00,19,19,20,28,30,17,11,23,21
13:27:00,25,32,32,25,24,33,34,28,29
13:28:00,24,11,19,24,33,19,25,22,22
13:29:00,25,36,29,29,27,29,30,29,29
13:30:00,23,24,21,28,24,24,13,24,22
13:31:00,31,25,17,28,26,32,32,25,27
13:32:00,33,18,27,28,26,19,21,26,25
13:33:00,23,26,42,15,30,32,25,27,28
13:34:00,20,25,30,28,22,16,15,25,22
13:35:00,29,30,17,27,20,39,32,25,28
13:36:00,21,22,28,29,24,12,14,25,21
13:37:00,30,29,25,24,35,28,35,29,29
13:38:00,24,30,23,28,21,20,18,25,23
13:39:00,27,28,28,24,27,31,37,27,29
13:40:00,34,18,19,31,14,11,24,23,22
13:41:00,22,26,26,23,25,22,36,24,26
13:42:00,16,33,22,23,33,24,14,25,24
13:43:00,27,30,28,23,22,30,31,26,27
13:44:00,21,16,34,14,29,15,18,23,21
13:45:00,26,31,13,17,18,27,36,21,24
13:46:00,14,37,25,37,21,28,19,27,26
13:47:00,32,31,17,32,41,17,35,31,29
13:48:00,23,31,27,35,22,32,13,28,26
13:49:00,24,26,26,14,23,32,39,23,26
13:50:00,29,20,36,42,32,23,15,32,28
13:51:00,31,35,28,19,18,25,40,26,28
13:52:00,15,22,39,31,25,32,15,26,26
13:53:00,31,30,19,15,15,31,32,22,25
13:54:00,18,19,29,23,19,34,17,22,23
13:55:00,33,26,15,23,30,28,26,25,26
13:56:00,21,27,33,29,22,17,31,26,26
13:57:00,21,36,16,28,32,19,34,27,27
13:58:00,24,19,24,20,29,32,20,23,24
13:59:00,33,24,24,29,35,23,26,29,28
14:00:00,14,35,27,24,25,20,16,25,23
14:01:00,27,29,20,17,20,15,35,23,23
14:02:00,21,14,15,31,34,37,20,23,25
14:03:00,44,30,28,14,24,17,38,28,28
14:04:00,18,22,32,30,25,24,17,25,24
14:05:00,35,24,21,23,17,21,32,24,25
14:06:00,19,23,29,17,27,22,32,23,24
14:07:00,31,30,13,27,31,27,26,26,26
14:08:00,30,26,31,29,28,38,29,29,30
14:09:00,32,26,15,29,18,27,17,24,23
14:10:00,22,19,28,32,23,27,22,25,25
14:11:00,30,27,22,21,26,20,29,25,25
14:12:00,13,23,30,29,25,36,34,24,27
14:13:00,26,28,14,16,24,14,34,22,22
14:14:00,21,28,28,30,18,34,22,25,26
14:15:00,29,32,22,23,22,15,29,26,25
14:16:00,20,22,28,27,27,35,21,25,26
14:17:00,32,25,19,21,26,17,18,25,23
14:18:00,10,25,29,39,29,33,19,26,26
14:19:00,31,33,25,24,24,16,35,27,27
14:20:00,20,33,26,28,20,39,23,25,27
14:21:00,31,22,22,34,39,11,23,30,26
14:22:00,13,37,34,22,14,27,35,24,26
14:23:00,35,17,30,14,31,17,19,25,23
14:24:00,24,35,27,37,18,20,45,28,29
14:25:00,31,26,26,24,43,18,37,30,29
14:26:00,20,25,29,23,6,34,26,21,23
14:27:00,32,28,26,27,31,32,25,29,29
14:28:00,21,27,26,34,21,26,22,26,25
14:29:00,26,17,15,20,33,27,22,22,23
14:30:00,9,29,27,34,19,20,28,24,24
14:31:00,28,20,12,23,29,19,23,22,22
14:32:00,12,31,30,32,21,36,33,25,28
14:33:00,32,19,23,21,37,22,32,26,27
14:34:00,22,38,32,29,24,34,32,29,30
14:35:00,22,25,20,18,41,18,16,25,23
14:36:00,29,29,26,29,16,41,30,26,29
14:37:00,23,23,33,14,35,21,18,26,24
14:38:00,28,29,23,26,14,36,22,24,25
14:39:00,34,17,23,21,37,16,20,26,24
14:40:00,26,38,26,26,23,32,26,28,28
14:41:00,28,22,23,30,30,20,16,27,24
14:42:00,24,22,35,18,14,31,32,23,25
14:43:00,39,21,23,26,38,19,17,29,26
14:44:00,32,30,28,33,28,27,27,30,29
14:45:00,27,23,16,21,27,21,24,23,23
14:46:00,26,35,36,29,19,32,27,29,29
14:47:00,27,18,12,24,31,20,19,22,22
14:48:00,27,24,42,31,18,27,32,28,29
14:49:00,24,15,20,24,35,12,16,24,21
14:50:00,29,25,33,29,23,32,39,28,30
14:51:00,27,22,18,27,34,19,12,26,23
14:52:00,32,22,39,28,28,32,37,30,31
14:53:00,26,7,14,20,28,28,22,19,21
14:54:00,25,16,25,29,21,28,30,23,25
14:55:00,26,21,15,22,21,14,16,21,19
14:56:00,21,22,34,32,23,37,35,26,29
14:57:00,29,25,10,15,27,33,19,21,23
14:58:00,25,20,36,26,22,22,35,26,27
14:59:00,26,27,10,16,36,23,18,23,22
15:00:00,28,29,29,27,18,34,33,26,28
15:01:00,16,23,7,31,33,27,19,22,22
15:02:00,29,28,34,20,20,35,35,26,29
15:03:00,30,29,9,25,26,19,33,24,24
15:04:00,25,21,32,23,26,26,27,25,26
15:05:00,28,28,1,26,35,26,26,24,24
15:06:00,21,17,34,42,17,24,19,26,25
15:07:00,27,21,8,33,27,14,25,23,22
15:08:00,24,31,26,22,18,30,24,24,25
15:09:00,24,36,19,28,33,22,16,28,25
15:10:00,26,33,46,40,17,28,38,32,33
15:11:00,19,15,15,19,33,24,25,20,21
15:12:00,10,33,35,16,10,35,25,21,23
15:13:00,28,12,10,15,32,19,21,19,20
15:14:00,10,33,46,31,20,41,44,28,32
15:15:00,27,18,12,18,21,11,22,19,18
15:16:00,19,30,40,34,9,34,31,26,28
15:17:00,31,17,15,8,31,13,16,20,19
15:18:00,13,23,32,27,21,37,16,23,24
15:19:00,24,15,12,23,32,22,15,21,20
15:20:00,33,25,27,27,28,34,33,28,30
15:21:00,30,12,4,11,33,27,21,18,20
15:22:00,20,24,30,30,11,28,33,23,25
15:23:00,31,18,8,8,26,23,18,18,19
15:24:00,22,28,33,26,23,35,23,26,27
15:25:00,22,8,20,15,24,19,18,18,18
15:26:00,26,34,32,33,6,36,36,26,29
15:27:00,24,14,18,21,40,19,20,23,22
15:28:00,37,47,29,26,19,28,26,32,30
15:29:00,28,17,34,16,27,17,21,24,23
15:30:00,22,33,20,22,7,24,30,21,23
15:31:00,27,25,32,5,23,26,24,22,23
15:32:00,31,23,21,26,10,25,32,22,24
15:33:00,31,12,39,24,39,21,19,29,26
15:34:00,21,37,35,22,17,29,34,26,28
15:35:00,32,26,33,24,36,15,28,30,28
15:36:00,25,35,23,25,18,33,27,25,27
15:37:00,21,22,28,17,35,23,13,25,23
15:38:00,27,27,24,27,16,32,35,24,27
15:39:00,36,16,34,11,26,24,33,25,26
15:40:00,23,30,23,25,7,32,27,22,24
15:41:00,14,15,34,24,27,15,25,23,22
15:42:00,17,40,14,24,16,32,30,22,25
15:43:00,27,18,21,23,28,11,32,23,23
15:44:00,15,43,24,21,23,35,22,25,26
15:45:00,30,20,26,26,37,21,17,28,25
15:46:00,24,26,21,11,19,39,31,20,24
15:47:00,28,16,18,12,36,28,32,22,24
15:48:00,20,40,37,19,20,33,29,27,28
15:49:00,15,16,18,18,39,23,20,21,21
15:50:00,38,31,23,27,19,31,40,28,30
15:51:00,20,15,30,24,34,18,27,25,24
15:52:00,24,35,31,22,14,28,31,25,26
15:53:00,17,19,25,22,31,25,24,23,23
15:54:00,36,34,31,25,15,27,28,28,28
15:55:00,17,13,25,20,30,20,16,21,20
15:56:00,31,28,19,29,27,28,33,27,28
15:57:00,20,29,22,13,29,20,16,23,21
15:58:00,29,29,17,23,23,30,28,24,26
15:59:00,34,26,23,18,26,15,16,25,23
16:00:00,26,24,18,27,17,27,28,22,24
16:01:00,30,25,33,17,29,27,28,27,27
16:02:00,22,35,20,24,9,23,29,22,23
16:03:00,17,36,30,23,35,34,12,28,27
16:04:00,21,31,21,23,19,24,36,23,25
16:05:00,29,21,30,31,29,26,25,28,27
16:06:00,30,32,26,21,16,28,29,25,26
16:07:00,24,23,34,26,30,24,20,27,26
16:08:00,25,20,20,22,15,27,29,20,23
16:09:00,23,17,19,31,29,24,17,24,23
16:10:00,15,29,8,16,7,26,27,15,18
16:11:00,18,21,35,26,19,26,27,24,25
16:12:00,28,33,30,16,3,22,32,22,23
16:13:00,21,26,28,31,28,25,31,27,27
16:14:00,28,29,19,14,20,24,36,22,24
16:15:00,12,23,34,23,33,13,15,25,22
16:16:00,32,47,21,14,24,25,30,28,28
16:17:00,8,18,34,29,32,13,26,24,23
16:18:00,34,33,16,16,15,22,32,23,24
16:19:00,2,9,33,30,6,25,34,16,20
16:20:00,18,27,28,16,18,29,14,21,21
16:21:00,1,16,17,24,30,30,15,18,19
16:22:00,35,32,12,13,25,37,23,23,25
16:23:00,14,19,24,20,18,23,13,19,19
16:24:00,35,34,23,11,22,25,22,25,25
16:25:00,12,16,26,19,28,30,24,20,22
16:26:00,27,24,5,11,27,17,23,19,19
16:27:00,30,18,18,26,27,18,22,24,23
16:28:00,36,13,16,21,27,22,23,23,23
16:29:00,11,19,19,30,13,31,21,18,21
16:30:00,32,19,21,16,26,27,16,23,22
16:31:00,8,30,19,30,11,24,19,20,20
16:32:00,21,24,25,11,26,28,10,21,21
16:33:00,27,14,27,27,15,28,14,22,22
16:34:00,40,23,21,8,28,33,38,24,27
16:35:00,14,18,29,28,10,28,21,20,21
16:36:00,39,12,29,16,27,26,29,25,25
16:37:00,10,25,23,29,17,31,23,21,23
16:38:00,30,25,10,18,31,25,21,23,23
16:39:00,20,26,33,25,14,20,14,24,22
16:40:00,35,22,24,10,29,23,22,24,24
16:41:00,10,26,31,15,27,36,25,22,24
16:42:00,30,20,18,11,19,27,13,20,20
16:43:00,6,11,18,29,17,29,10,16,17
16:44:00,29,29,7,14,29,35,33,22,25
16:45:00,0,19,20,35,21,28,22,19,21
16:46:00,29,19,13,24,37,25,14,24,23
16:47:00,6,33,19,19,28,36,20,21,23
16:48:00,30,32,7,8,20,21,21,19,20
16:49:00,8,6,15,20,27,25,20,15,17
16:50:00,27,22,11,15,27,18,22,20,20
16:51:00,25,25,23,16,20,31,22,22,23
16:52:00,28,22,8,11,29,22,26,20,21
16:53:00,19,18,16,20,19,33,12,18,20
16:54:00,24,21,15,18,26,14,21,21,20
16:55:00,10,34,24,33,25,14,24,25,23
16:56:00,17,18,21,27,27,18,20,22,21
16:57:00,11,25,25,34,11,21,18,21,21
16:58:00,18,19,20,24,15,20,19,19,19
16:59:00,14,20,29,23,16,21,22,20,21
17:00:00,26,13,23,10,17,13,17,18,17
17:01:00,28,34,25,27,10,24,21,25,24
17:02:00,32,30,34,16,24,18,18,27,25
17:03:00,4,28,17,16,19,18,17,17,17
17:04:00,14,27,26,10,32,19,21,22,21
17:05:00,8,30,25,20,18,25,22,20,21
17:06:00,31,24,31,19,28,17,21,27,24
17:07:00,22,18,26,31,18,24,15,23,22
17:08:00,26,23,20,9,30,21,17,22,21
17:09:00,12,20,24,32,24,18,19,22,21
17:10:00,30,18,17,7,31,11,15,21,18
17:11:00,2,25,36,18,24,13,19,21,20
17:12:00,18,16,10,10,22,34,10,15,17
17:13:00,5,24,45,35,28,25,26,27,27
17:14:00,24,7,14,6,25,21,24,15,17
17:15:00,15,34,36,19,21,23,15,25,23
17:16:00,16,16,26,0,31,14,24,18,18
17:17:00,9,31,34,23,3,31,18,20,21
17:18:00,30,19,20,19,31,13,10,24,20
17:19:00,10,24,37,20,12,31,19,21,22
17:20:00,26,22,18,10,29,18,4,21,18
17:21:00,9,23,38,36,19,23,18,25,24
17:22:00,19,13,14,22,36,20,20,21,21
17:23:00,0,39,24,33,18,34,15,23,23
17:24:00,22,17,21,22,24,4,15,21,18
17:25:00,13,39,22,34,3,18,15,22,21
17:26:00,18,21,11,15,32,10,23,19,19
17:27:00,3,33,35,12,9,31,20,18,20
17:28:00,20,10,20,14,32,20,13,19,18
17:29:00,14,28,35,36,14,17,7,25,22
17:30:00,26,9,17,14,28,8,18,19,17
17:31:00,14,31,31,31,15,26,14,24,23
17:32:00,21,11,15,11,30,18,19,18,18
17:33:00,16,23,33,31,9,24,15,22,22
17:34:00,30,5,14,19,16,14,15,17,16
17:35:00,19,21,29,29,10,29,18,22,22
17:36:00,20,4,17,21,24,21,23,17,19
17:37:00,14,34,26,26,18,19,15,24,22
17:38:00,17,15,16,2,34,23,19,17,18
17:39:00,16,36,31,23,7,39,20,23,25
17:40:00,12,25,21,19,37,24,13,23,22
17:41:00,18,34,25,25,28,24,26,26,26
17:42:00,27,14,21,17,35,17,15,23,21
17:43:00,14,31,30,31,19,25,20,25,24
17:44:00,25,18,19,14,33,16,21,22,21
17:45:00,7,38,33,29,15,22,20,24,23
17:46:00,20,14,11,29,28,19,22,20,20
17:47:00,15,29,35,22,15,26,14,23,22
17:48:00,15,26,16,33,37,31,21,25,26
17:49:00,10,22,26,26,10,28,16,19,20
17:50:00,25,15,10,23,39,18,26,22,22
17:51:00,11,24,18,22,17,28,19,18,20
17:52:00,11,13,12,24,34,21,11,19,18
17:53:00,2,23,20,21,10,30,21,15,18
17:54:00,18,21,12,13,37,15,19,20,19
17:55:00,12,28,38,22,9,27,10,22,21
17:56:00,33,18,11,16,37,9,17,23,20
17:57:00,17,24,33,29,6,29,15,22,22
17:58:00,26,17,25,23,26,21,16,23,22
17:59:00,9,33,24,12,7,23,18,17,18
18:00:00,30,14,19,31,25,27,19,24,24
18:01:00,13,29,29,33,19,34,15,25,25
18:02:00,23,23,12,15,38,26,28,22,24
18:03:00,19,29,33,28,14,26,19,25,24
18:04:00,17,21,5,31,21,30,21,19,21
18:05:00,19,15,36,30,2,26,11,20,20
18:06:00,18,28,16,17,37,20,16,23,22
18:07:00,20,29,34,21,12,27,9,23,22
18:08:00,22,17,17,20,35,16,17,22,21
18:09:00,24,24,41,23,10,24,16,24,23
18:10:00,22,32,17,18,40,23,19,26,24
18:11:00,31,19,35,20,15,22,12,24,22
18:12:00,24,29,28,25,33,23,19,28,26
18:13:00,11,22,37,28,15,25,6,23,21
18:14:00,34,21,20,31,36,19,18,28,26
18:15:00,33,19,33,24,21,22,13,26,24
18:16:00,25,20,16,25,26,19,27,22,23
18:17:00,24,29,44,21,21,22,20,28,26
18:18:00,20,21,13,31,36,23,19,24,23
18:19:00,25,23,38,22,16,18,26,25,24
18:20:00,29,30,16,32,29,21,15,27,25
18:21:00,21,16,29,23,11,30,24,20,22
18:22:00,21,34,30,24,39,33,13,30,28
18:23:00,23,21,24,23,12,20,19,21,20
18:24:00,19,32,23,32,33,25,17,28,26
18:25:00,25,19,29,19,26,18,16,24,22
18:26:00,29,25,11,19,31,29,19,23,23
18:27:00,30,21,39,23,9,25,9,24,22
18:28:00,20,26,26,40,39,28,23,30,29
18:29:00,20,13,29,25,16,17,18,21,20
18:30:00,24,37,25,34,25,28,9,29,26
18:31:00,29,17,31,19,24,18,14,24,22
18:32:00,26,31,25,25,46,25,16,31,28
18:33:00,22,22,31,25,23,23,12,25,23
18:34:00,22,22,22,37,34,17,18,27,25
18:35:00,11,15,32,19,32,21,18,22,21
18:36:00,31,41,23,20,26,6,23,28,24
18:37:00,27,30,30,4,28,34,17,24,24
18:38:00,20,31,30,24,29,20,14,27,24
18:39:00,23,16,29,21,8,17,18,19,19
18:40:00,22,32,20,26,32,33,7,26,25
18:41:00,21,17,23,16,12,18,16,18,18
18:42:00,19,42,16,26,37,17,14,28,24
18:43:00,23,23,27,27,30,19,13,26,23
18:44:00,16,19,20,24,30,21,16,22,21
18:45:00,37,11,35,17,19,24,25,24,24
18:46:00,19,23,18,28,32,19,17,24,22
18:47:00,24,28,35,22,29,14,23,28,25
18:48:00,27,15,19,33,24,25,15,24,23
18:49:00,23,26,23,34,28,24,8,27,24
18:50:00,26,24,17,32,26,17,13,25,22
18:51:00,24,24,27,13,33,23,14,24,23
18:52:00,19,23,17,28,31,27,22,24,24
18:53:00,28,32,33,27,30,17,21,30,27
18:54:00,24,32,17,29,28,19,18,26,24
18:55:00,29,25,20,22,30,24,23,25,25
18:56:00,16,26,15,39,25,19,20,24,23
18:57:00,17,28,23,14,16,16,15,20,18
18:58:00,28,20,19,28,19,24,24,23,23
18:59:00,26,19,18,16,16,20,14,19,18
19:00:00,27,20,18,37,35,24,19,27,26
19:01:00,23,21,24,22,21,16,11,22,20
19:02:00,20,21,27,24,27,24,16,24,23
19:03:00,13,30,25,32,26,16,17,25,23
19:04:00,27,27,27,23,27,16,10,26,22
19:05:00,24,31,20,18,28,18,19,24,23
19:06:00,28,30,15,24,28,24,11,25,23
19:07:00,17,22,22,22,27,10,20,22,20
19:08:00,23,23,21,32,20,16,17,24,22
19:09:00,23,26,25,32,31,23,13,27,25
19:10:00,17,33,20,27,26,26,19,25,24
19:11:00,25,15,20,22,34,15,16,23,21
19:12:00,22,33,35,29,24,21,8,29,25
19:13:00,21,29,18,26,20,24,12,23,21
19:14:00,19,23,23,18,34,20,12,23,21
19:15:00,19,34,23,38,26,19,20,28,26
19:16:00,15,17,17,22,25,21,13,19,19
19:17:00,23,30,22,18,33,22,15,25,23
19:18:00,22,24,25,26,21,22,18,24,23
19:19:00,25,22,27,24,34,18,15,26,24
19:20:00,18,27,25,26,26,11,8,24,20
19:21:00,28,26,19,26,24,17,18,25,23
19:22:00,36,18,24,29,15,22,18,24,23
19:23:00,12,27,29,26,35,18,17,26,23
19:24:00,21,26,20,29,24,19,13,24,22
19:25:00,19,27,21,13,22,19,13,20,19
19:26:00,15,27,18,15,24,18,13,20,19
19:27:00,26,21,19,25,26,20,21,23,23
19:28:00,23,23,19,26,33,8,14,25,21
19:29:00,19,22,18,17,24,22,10,20,19
19:30:00,14,22,15,23,24,20,13,20,19
19:31:00,14,27,20,19,22,29,8,20,20
19:32:00,19,15,15,18,21,12,21,18,17
19:33:00,23,22,29,22,35,12,20,26,23
19:34:00,23,22,23,14,25,19,20,21,21
19:35:00,16,32,26,27,19,15,11,24,21
19:36:00,24,25,28,29,21,14,18,25,23
19:37:00,22,12,12,24,28,16,18,20,19
19:38:00,25,14,24,18,21,13,16,20,19
19:39:00,21,23,29,15,33,25,17,24,23
19:40:00,19,27,14,15,20,20,13,19,18
19:41:00,16,19,26,19,15,21,18,19,19
19:42:00,24,28,22,18,30,19,14,24,22
19:43:00,27,15,18,21,21,16,19,20,20
19:44:00,25,12,27,12,21,13,15,19,18
19:45:00,10,20,33,14,19,23,10,19,18
19:46:00,23,23,26,13,13,17,9,20,18
19:47:00,13,21,17,32,30,16,11,23,20
19:48:00,22,12,15,14,31,23,18,19,19
19:49:00,15,14,19,22,33,25,17,21,21
19:50:00,17,24,18,26,21,10,23,21,20
19:51:00,11,17,19,27,26,16,16,20,19
19:52:00,25,21,26,18,27,13,13,23,20
19:53:00,13,18,23,22,24,12,15,20,18
19:54:00,17,20,22,22,23,12,9,21,18
19:55:00,15,21,22,17,17,14,14,18,17
19:56:00,13,20,21,16,22,13,12,18,17
19:57:00,18,20,17,15,24,14,13,19,17
19:58:00,8,14,20,9,22,13,17,15,15
19:59:00,17,26,20,18,23,22,11,21,20
20:00:00,16,23,16,19,12,12,9,17,15
20:01:00,7,13,15,10,23,13,11,14,13
20:02:00,13,12,14,21,19,11,16,16,15
20:03:00,17,15,16,19,23,11,4,18,15
20:04:00,12,17,14,20,22,15,10,17,16
20:05:00,16,23,24,19,24,12,6,21,18
20:06:00,17,25,8,18,23,16,14,18,17
20:07:00,14,18,15,26,15,16,13,18,17
20:08:00,19,16,17,15,18,13,15,17,16
20:09:00,17,20,18,26,19,16,9,20,18
20:10:00,10,18,26,22,21,10,13,19,17
20:11:00,18,25,21,24,19,14,16,21,20
20:12:00,17,17,20,21,18,12,12,19,17
20:13:00,12,11,13,17,22,12,15,15,15
20:14:00,22,22,21,20,26,20,13,22,21
20:15:00,15,27,17,10,18,9,11,17,15
20:16:00,20,22,21,28,12,14,19,21,19
20:17:00,13,19,16,12,29,13,12,18,16
20:18:00,17,15,12,14,22,10,9,16,14
20:19:00,16,20,9,23,13,7,14,16,15
20:20:00,9,15,14,10,16,10,10,13,12
20:21:00,16,14,18,23,17,19,10,18,17
20:22:00,12,15,19,16,19,11,14,16,15
20:23:00,20,16,14,9,22,9,13,16,15
20:24:00,13,17,18,12,18,3,9,16,13
20:25:00,10,21,13,20,24,22,12,18,17
20:26:00,17,9,11,16,21,17,15,15,15
20:27:00,19,13,14,7,16,11,4,14,12
20:28:00,17,15,12,22,9,11,14,15,14
20:29:00,12,10,12,11,16,16,11,12,13
20:30:00,14,9,12,10,11,10,6,11,10
20:31:00,15,14,9,20,15,21,6,15,14
20:32:00,21,9,9,11,15,12,15,13,13
20:33:00,17,15,14,19,9,11,6,15,13
20:34:00,12,18,22,11,11,8,10,15,13
20:35:00,12,15,20,8,19,8,14,15,14
20:36:00,7,14,16,14,23,10,7,15,13
20:37:00,13,16,15,22,9,19,12,15,15
20:38:00,9,14,10,11,16,10,12,12,12
20:39:00,9,16,12,10,14,9,13,12,12
20:40:00,17,12,18,13,9,11,17,14,14
20:41:00,10,8,17,14,14,13,9,13,12
20:42:00,14,19,11,8,16,12,10,14,13
20:43:00,17,11,15,17,8,17,12,14,14
20:44:00,14,11,13,11,19,13,12,14,13
20:45:00,11,15,12,14,12,9,13,13,12
20:46:00,10,17,18,11,13,14,10,14,13
20:47:00,9,11,14,8,12,15,6,11,11
20:48:00,9,14,19,9,15,9,10,13,12
20:49:00,9,8,8,6,18,14,11,10,11
20:50:00,13,11,3,21,15,11,7,13,12
20:51:00,14,19,23,20,18,11,11,19,17
20:52:00,15,16,16,10,12,10,13,14,13
20:53:00,14,17,15,14,12,16,9,14,14
20:54:00,7,21,13,16,19,7,10,15,13
20:55:00,13,13,9,16,14,5,5,13,11
20:56:00,5,12,8,13,8,11,12,9,10
20:57:00,15,13,18,16,14,11,8,15,14
20:58:00,13,19,11,19,10,20,12,14,15
20:59:00,13,11,13,12,7,9,6,11,10
21:00:00,15,12,10,12,20,5,9,14,12
21:01:00,7,6,6,11,14,15,12,9,10
21:02:00,11,10,16,11,12,8,6,12,11
21:03:00,8,13,17,12,11,10,8,12,11
21:04:00,13,15,10,10,16,10,10,13,12
21:05:00,8,15,10,12,12,13,9,11,11
21:06:00,13,8,10,17,9,9,7,11,10
21:07:00,14,16,10,19,15,9,10,15,13
21:08:00,12,8,7,16,11,15,8,11,11
21:09:00,10,19,4,16,5,13,15,11,12
21:10:00,12,9,13,18,17,9,11,14,13
21:11:00,13,16,6,24,22,16,10,16,15
21:12:00,8,13,15,14,9,8,18,12,12
21:13:00,8,18,14,9,17,6,12,13,12
21:14:00,15,16,14,11,14,5,8,14,12
21:15:00,14,17,6,9,12,11,6,12,11
21:16:00,12,15,8,26,10,5,10,14,12
21:17:00,7,22,15,18,16,14,10,16,15
21:18:00,13,16,11,14,10,8,9,13,12
21:19:00,19,13,17,15,24,7,12,18,15
21:20:00,11,25,14,9,13,17,13,14,15
21:21:00,10,18,18,14,21,10,10,16,14
21:22:00,8,13,11,20,17,13,10,14,13
21:23:00,18,17,10,15,16,7,11,15,13
21:24:00,14,23,15,11,14,11,13,15,14
21:25:00,16,5,9,25,10,20,7,13,13
21:26:00,9,10,14,13,9,18,8,11,12
21:27:00,13,9,18,16,12,13,4,14,12
21:28:00,10,13,18,14,10,14,4,13,12
21:29:00,17,18,10,10,14,13,8,14,13
21:30:00,9,5,17,11,14,6,15,11,11
21:31:00,15,7,12,17,14,9,12,13,12
21:32:00,10,10,12,12,13,12,12,11,12
21:33:00,9,9,8,4,12,14,3,8,8
21:34:00,17,7,18,7,18,12,7,13,12
21:35:00,13,12,12,8,16,8,8,12,11
21:36:00,13,17,17,12,16,9,10,15,13
21:37:00,12,11,7,9,10,12,7,10,10
21:38:00,7,16,12,16,8,13,8,12,11
21:39:00,13,13,8,9,20,14,4,13,12
21:40:00,10,9,6,9,15,11,7,10,10
21:41:00,11,14,13,12,15,8,13,13,12
21:42:00,8,16,9,8,8,9,10,10,10
21:43:00,10,17,16,16,10,6,9,14,12
21:44:00,11,7,8,13,14,12,6,11,10
21:45:00,18,13,8,5,14,7,4,12,10
21:46:00,9,13,13,12,16,17,4,13,12
21:47:00,9,8,7,6,8,12,8,8,8
21:48:00,8,9,7,14,11,13,7,10,10
21:49:00,8,13,8,12,10,6,5,10,9
21:50:00,10,16,13,13,12,8,14,13,12
21:51:00,10,17,12,10,18,11,11,13,13
21:52:00,6,10,6,9,18,13,10,10,10
21:53:00,10,11,10,15,11,8,7,11,10
21:54:00,11,11,9,12,10,12,4,11,10
21:55:00,6,9,11,6,15,10,5,9,9
21:56:00,6,16,14,12,6,8,6,11,10
21:57:00,13,9,9,13,13,6,4,11,10
21:58:00,8,7,10,6,11,8,9,8,8
21:59:00,4,10,8,15,8,7,6,9,8
22:00:00,9,14,10,6,12,7,9,10,10
22:01:00,23,4,9,18,17,6,4,14,12
22:02:00,6,11,10,6,13,5,8,9,8
22:03:00,7,8,11,17,9,5,4,10,9
22:04:00,17,18,11,11,15,9,12,14,13
22:05:00,11,13,2,12,16,16,5,11,11
22:06:00,11,12,18,9,13,9,4,13,11
22:07:00,8,9,11,11,12,10,7,10,10
22:08:00,9,8,16,7,10,11,10,10,10
22:09:00,9,13,9,16,13,7,5,12,10
22:10:00,6,8,8,14,9,6,4,9,8
22:11:00,4,7,6,18,11,8,8,9,9
22:12:00,3,6,15,6,17,6,4,9,8
22:13:00,11,16,14,10,11,8,9,12,11
22:14:00,10,16,13,13,16,13,4,14,12
22:15:00,11,11,10,12,12,9,7,11,10
22:16:00,8,12,11,12,9,7,4,10,9
22:17:00,8,15,7,11,14,17,9,11,12
22:18:00,12,6,7,6,11,13,7,8,9
22:19:00,7,13,7,14,9,10,13,10,10
22:20:00,7,13,7,12,5,14,5,9,9
22:21:00,10,18,11,7,12,5,6,12,10
22:22:00,13,10,14,8,10,6,7,11,10
22:23:00,5,13,3,9,17,11,4,9,9
22:24:00,2,11,7,7,8,14,7,7,8
22:25:00,4,11,10,14,10,13,6,10,10
22:26:00,4,6,4,4,8,13,7,5,7
22:27:00,5,5,18,12,12,14,4,10,10
22:28:00,9,11,5,8,10,13,5,9,9
22:29:00,5,7,13,12,11,9,6,10,9
22:30:00,2,5,8,15,6,10,2,7,7
22:31:00,7,5,5,17,9,6,7,9,8
22:32:00,2,7,9,5,9,8,6,6,7
22:33:00,4,8,7,9,13,12,4,8,8
22:34:00,5,8,5,3,4,11,6,5,6
22:35:00,4,4,5,10,3,9,2,5,5
22:36:00,11,5,8,7,6,4,5,7,7
22:37:00,6,3,13,6,7,11,7,7,8
22:38:00,10,11,8,5,12,8,7,9,9
22:39:00,7,6,8,12,10,4,5,9,7
22:40:00,7,5,2,5,8,11,2,5,6
22:41:00,6,5,5,11,7,3,3,7,6
22:42:00,5,7,8,3,0,6,6,5,5
22:43:00,5,7,8,4,8,6,3,6,6
22:44:00,8,9,4,10,7,5,1,8,6
22:45:00,8,4,7,8,11,12,5,8,8
22:46:00,4,3,9,5,11,5,7,6,6
22:47:00,3,11,7,8,1,9,3,6,6
22:48:00,5,12,9,9,20,10,3,11,10
22:49:00,5,7,8,12,14,4,3,9,8
22:50:00,7,5,4,13,5,9,2,7,6
22:51:00,7,7,6,7,11,9,3,8,7
22:52:00,3,2,7,5,9,8,6,5,6
22:53:00,6,7,11,8,8,8,3,8,7
22:54:00,8,3,10,12,5,13,5,8,8
22:55:00,7,4,9,6,6,2,5,6,6
22:56:00,8,5,6,5,3,9,7,5,6
22:57:00,3,6,9,7,11,10,1,7,7
22:58:00,4,6,14,5,7,4,3,7,6
22:59:00,5,6,5,5,7,10,2,6,6
23:00:00,5,7,5,12,8,8,3,7,7
23:01:00,9,7,8,5,13,9,5,8,8
23:02:00,5,8,8,8,0,4,3,6,5
23:03:00,6,4,7,6,10,7,1,7,6
23:04:00,6,12,4,4,8,7,2,7,6
23:05:00,3,9,5,12,6,11,5,7,7
23:06:00,13,1,5,3,11,11,4,7,7
23:07:00,5,2,4,9,13,4,5,7,6
23:08:00,5,5,10,2,4,6,4,5,5
23:09:00,6,8,10,5,7,8,2,7,7
23:10:00,3,7,10,5,14,7,1,8,7
23:11:00,6,1,3,9,11,10,2,6,6
23:12:00,8,3,2,6,8,1,4,5,5
23:13:00,4,4,5,10,10,11,3,7,7
23:14:00,4,10,5,3,5,11,1,5,6
23:15:00,4,2,9,7,12,11,5,7,7
23:16:00,5,2,4,4,8,11,3,5,5
23:17:00,3,2,5,7,9,7,7,5,6
23:18:00,5,7,4,5,5,7,6,5,6
23:19:00,5,5,2,9,7,3,1,6,5
23:20:00,6,8,2,5,2,4,3,5,4
23:21:00,3,5,4,2,12,5,3,5,5
23:22:00,5,5,9,4,10,7,0,7,6
23:23:00,4,8,7,2,12,7,2,7,6
23:24:00,2,6,4,4,8,6,2,5,5
23:25:00,3,3,10,6,5,7,2,5,5
23:26:00,3,4,4,5,2,6,3,4,4
23:27:00,2,2,6,5,6,5,2,4,4
23:28:00,1,1,1,4,6,6,3,3,3
23:29:00,2,3,4,3,2,5,3,3,3
23:30:00,1,5,6,5,11,6,4,6,5
23:31:00,3,2,2,2,5,5,4,3,3
23:32:00,1,3,3,2,7,4,3,3,3
23:33:00,0,2,5,2,4,10,4,3,4
23:34:00,3,2,7,4,7,3,3,5,4
23:35:00,3,8,4,3,7,5,1,5,4
23:36:00,2,4,4,3,3,3,3,3,3
23:37:00,2,3,5,6,8,6,8,5,5
23:38:00,2,3,4,1,3,7,1,3,3
23:39:00,3,4,5,3,7,10,4,4,5
23:40:00,1,5,2,2,7,4,4,3,4
23:41:00,1,1,1,3,4,3,4,2,2
23:42:00,2,6,5,1,7,10,0,4,4
23:43:00,2,3,6,1,4,8,3,3,4
23:44:00,3,3,3,5,8,7,1,4,4
23:45:00,3,2,4,2,8,3,1,4,3
23:46:00,2,2,1,4,6,4,4,3,3
23:47:00,4,2,2,3,6,5,3,3,4
23:48:00,0,1,1,4,6,3,1,2,2
23:49:00,4,1,1,6,6,0,6,4,3
23:50:00,1,3,5,3,8,8,1,4,4
23:51:00,6,2,2,3,5,4,8,4,4
23:52:00,5,1,4,3,8,6,4,4,4
23:53:00,6,3,1,4,3,10,4,3,4
23:54:00,4,2,0,1,7,5,3,3,3
23:55:00,5,5,3,2,4,8,3,4,4
23:56:00,0,0,1,4,5,5,1,2,2
23:57:00,2,1,2,2,10,6,0,3,3
23:58:00,1,3,4,2,9,8,2,4,4
23:59:00,5,3,1,4,6,2,3,4,3
,,,,,,,,,
Totals,,,,,,,,,
12H(7-19),16975,17658,17394,17099,17528,16245,14568,17331,16781
16H(6-22),20489,21647,21178,20995,21651,19051,16852,21192,20266
18H(6-24),21133,22391,21959,21815,22664,19961,17351,21992,21039
24H(0-24),21946,23255,22836,22616,23552,20816,18109,22841,21876
,,,,,,,,,
AM Peak,10:59:00,08:03:00,10:15:00,07:09:00,08:56:00,11:00:00,10:59:00,08:44:00,10:01:00
,1534,1571,1491,1526,1556,1631,1599,1487,1463
,,,,,,,,,
PM Peak,14:01:00,13:41:00,12:11:00,14:11:00,18:22:00,14:27:00,12:08:00,13:47:00,13:47:00
,1557,1605,1580,1563,1604,1580,1658,1541,1544
,,,,,,,,,
,,,,,,,,,
CA Traffic,,,,,,,,,VDA-net R2 13/02/2020
