Site Number,00008023,Unnamed: 2,Site Reference,00008023.1,Unnamed: 5,Unnamed: 6,Lat/Lng.,"52.07076,1.17594",Unnamed: 9
Radar 8023 Colchester Road Ipswich,,,,,,,,,
Vehicle Count Report,,,,Week Begin: 21 October 2019,,,Channel:,Total Flow,
,,,,,,,,,
,,,,,,,,,
,2019-10-21 00:00:00,2019-10-22 00:00:00,2019-10-23 00:00:00,2019-10-24 00:00:00,2019-10-25 00:00:00,2019-10-26 00:00:00,2019-10-27 00:00:00,"5-Day
Ave.","7-Day
Ave."
00:00:00,0,2,3,1,0,5,3,1,2
00:01:00,1,3,1,1,3,2,6,2,2
00:02:00,1,2,2,3,1,4,7,2,3
00:03:00,1,1,0,2,4,7,3,2,3
00:04:00,1,1,2,1,1,2,7,1,2
00:05:00,1,1,1,4,0,1,5,1,2
00:06:00,3,4,3,2,4,2,3,3,3
00:07:00,5,1,1,2,2,0,10,2,3
00:08:00,1,2,0,0,4,3,2,1,2
00:09:00,1,1,0,1,2,5,3,1,2
00:10:00,1,1,5,2,4,6,7,3,4
00:11:00,2,2,3,5,3,1,4,3,3
00:12:00,1,1,2,3,1,8,5,2,3
00:13:00,3,2,2,6,2,6,13,3,5
00:14:00,2,2,1,2,1,4,6,2,3
00:15:00,1,0,3,0,2,9,7,1,3
00:16:00,1,0,3,0,0,1,6,1,2
00:17:00,0,1,2,2,2,2,7,1,2
00:18:00,2,0,2,3,0,5,10,1,3
00:19:00,3,1,3,0,2,1,4,2,2
00:20:00,0,0,2,1,1,2,5,1,2
00:21:00,3,0,3,2,2,4,2,2,2
00:22:00,1,1,0,0,6,3,4,2,2
00:23:00,1,1,1,1,0,3,6,1,2
00:24:00,0,0,1,1,1,3,3,1,1
00:25:00,6,3,2,1,1,2,2,3,2
00:26:00,3,0,1,2,1,4,6,1,2
00:27:00,3,1,1,1,2,1,5,2,2
00:28:00,1,2,0,2,1,7,4,1,2
00:29:00,1,1,0,0,4,4,7,1,2
00:30:00,1,2,0,0,0,1,5,1,1
00:31:00,2,2,1,0,1,3,8,1,2
00:32:00,0,2,2,0,0,4,1,1,1
00:33:00,1,0,2,1,3,6,3,1,2
00:34:00,1,1,1,3,2,1,2,2,2
00:35:00,2,2,2,0,0,2,1,1,1
00:36:00,1,0,3,0,3,1,3,1,2
00:37:00,0,1,1,4,0,5,4,1,2
00:38:00,0,2,6,1,3,1,3,2,2
00:39:00,1,1,0,2,0,1,5,1,1
00:40:00,0,1,1,2,2,5,2,1,2
00:41:00,0,2,0,1,2,1,2,1,1
00:42:00,1,0,1,2,2,1,4,1,2
00:43:00,0,1,0,1,5,1,3,1,2
00:44:00,2,1,0,1,1,1,4,1,1
00:45:00,0,0,1,0,2,2,4,1,1
00:46:00,1,2,2,0,3,1,4,2,2
00:47:00,0,2,1,0,3,3,3,1,2
00:48:00,1,2,1,1,0,4,3,1,2
00:49:00,0,0,0,1,0,1,3,0,1
00:50:00,1,1,0,0,1,1,1,1,1
00:51:00,0,1,0,0,3,1,5,1,1
00:52:00,0,4,2,0,0,1,3,1,1
00:53:00,0,3,2,0,1,4,4,1,2
00:54:00,1,2,1,0,0,1,3,1,1
00:55:00,3,4,2,0,0,2,1,2,2
00:56:00,1,0,0,1,0,0,7,0,1
00:57:00,1,0,1,0,2,0,6,1,1
00:58:00,2,0,3,2,0,2,5,1,2
00:59:00,1,2,3,3,2,2,2,2,2
01:00:00,0,0,2,0,1,0,1,1,1
01:01:00,1,1,0,1,1,1,3,1,1
01:02:00,2,0,1,1,1,1,1,1,1
01:03:00,2,2,1,3,0,1,1,2,1
01:04:00,1,1,0,0,1,3,0,1,1
01:05:00,0,1,0,3,2,1,0,1,1
01:06:00,0,3,1,2,0,3,0,1,1
01:07:00,0,3,1,0,2,1,1,1,1
01:08:00,2,0,2,0,3,0,0,1,1
01:09:00,2,1,0,0,1,0,1,1,1
01:10:00,0,3,1,0,2,1,0,1,1
01:11:00,1,1,1,0,4,1,0,1,1
01:12:00,2,0,2,0,1,2,2,1,1
01:13:00,0,0,1,2,2,2,1,1,1
01:14:00,0,4,1,0,1,2,3,1,2
01:15:00,1,5,1,1,0,3,0,2,2
01:16:00,2,0,0,1,2,0,1,1,1
01:17:00,1,0,0,0,0,0,1,0,0
01:18:00,0,1,0,1,1,1,2,1,1
01:19:00,0,0,0,1,0,2,0,0,0
01:20:00,1,0,0,0,0,2,1,0,1
01:21:00,0,0,1,2,0,1,1,1,1
01:22:00,1,1,0,0,1,1,2,1,1
01:23:00,0,0,0,1,0,1,0,0,0
01:24:00,0,0,1,3,0,1,1,1,1
01:25:00,1,0,2,1,1,4,1,1,1
01:26:00,1,1,1,0,0,0,2,1,1
01:27:00,2,0,0,0,2,0,3,1,1
01:28:00,0,2,2,1,0,1,0,1,1
01:29:00,0,1,1,0,0,1,0,0,0
01:30:00,0,0,0,3,1,0,1,1,1
01:31:00,0,0,0,0,1,1,2,0,1
01:32:00,0,3,0,0,0,4,0,1,1
01:33:00,1,3,0,0,1,1,2,1,1
01:34:00,1,0,1,1,1,1,0,1,1
01:35:00,2,0,0,1,0,1,0,1,1
01:36:00,0,0,1,1,1,1,0,1,1
01:37:00,0,1,0,1,2,0,0,1,1
01:38:00,0,0,0,0,0,1,1,0,0
01:39:00,0,1,1,0,3,0,2,1,1
01:40:00,1,1,0,1,0,1,1,1,1
01:41:00,0,2,1,0,1,2,2,1,1
01:42:00,0,0,0,1,1,0,0,0,0
01:43:00,1,1,0,3,0,0,0,1,1
01:44:00,0,0,1,0,1,4,2,0,1
01:45:00,0,1,0,0,0,0,1,0,0
01:46:00,0,1,0,1,1,2,1,1,1
01:47:00,0,0,0,0,1,2,1,0,1
01:48:00,0,0,0,0,1,1,0,0,0
01:49:00,0,0,1,0,0,0,1,0,0
01:50:00,1,2,1,0,2,0,0,1,1
01:51:00,0,0,0,0,0,1,2,0,0
01:52:00,1,0,0,2,0,1,2,1,1
01:53:00,0,0,1,0,0,1,2,0,1
01:54:00,0,2,0,1,2,1,1,1,1
01:55:00,0,0,1,1,3,1,0,1,1
01:56:00,2,0,2,0,1,3,0,1,1
01:57:00,0,0,0,0,0,1,0,0,0
01:58:00,1,1,1,0,0,1,0,1,1
01:59:00,0,0,0,1,1,2,1,0,1
02:00:00,1,1,0,0,0,1,,0,1
02:01:00,1,0,0,0,1,0,0,0,0
02:02:00,0,0,1,0,1,2,1,0,1
02:03:00,1,1,0,1,3,2,0,1,1
02:04:00,1,2,0,0,0,0,3,1,1
02:05:00,0,0,1,0,1,0,0,0,0
02:06:00,0,0,1,0,3,2,0,1,1
02:07:00,0,0,3,1,2,2,1,1,1
02:08:00,2,0,1,0,0,0,0,1,0
02:09:00,0,0,0,0,0,0,0,0,0
02:10:00,1,2,0,2,0,2,1,1,1
02:11:00,2,1,0,0,0,0,1,1,1
02:12:00,0,1,2,1,1,1,0,1,1
02:13:00,0,0,1,1,0,2,1,0,1
02:14:00,1,0,0,0,0,3,0,0,1
02:15:00,0,0,0,0,0,0,2,0,0
02:16:00,0,0,0,1,2,0,2,1,1
02:17:00,0,0,1,0,0,0,1,0,0
02:18:00,1,0,0,1,0,0,5,0,1
02:19:00,0,2,0,0,0,4,2,0,1
02:20:00,1,0,1,0,1,0,1,1,1
02:21:00,0,1,0,0,0,0,0,0,0
02:22:00,0,0,1,1,0,1,0,0,0
02:23:00,1,0,0,0,1,0,0,0,0
02:24:00,0,0,1,1,0,0,1,0,0
02:25:00,0,0,0,0,2,0,0,0,0
02:26:00,2,1,0,0,2,0,0,1,1
02:27:00,0,0,1,0,0,0,0,0,0
02:28:00,1,0,0,1,0,0,0,0,0
02:29:00,1,0,1,1,0,1,0,1,1
02:30:00,1,0,2,1,0,0,1,1,1
02:31:00,1,0,1,1,0,2,0,1,1
02:32:00,0,0,0,0,0,0,2,0,0
02:33:00,1,0,1,0,2,0,0,1,1
02:34:00,1,0,0,1,0,0,0,0,0
02:35:00,0,1,1,0,1,0,0,1,0
02:36:00,1,1,0,1,0,0,1,1,1
02:37:00,0,1,0,0,0,0,0,0,0
02:38:00,0,0,1,0,0,0,0,0,0
02:39:00,0,0,0,1,0,1,0,0,0
02:40:00,2,0,0,1,0,0,1,1,1
02:41:00,1,2,2,0,0,3,1,1,1
02:42:00,0,1,1,0,1,3,1,1,1
02:43:00,2,1,0,1,0,1,1,1,1
02:44:00,0,1,0,0,1,0,1,0,0
02:45:00,0,0,0,0,0,1,0,0,0
02:46:00,2,0,1,0,0,1,0,1,1
02:47:00,1,1,0,0,0,0,2,0,1
02:48:00,1,0,0,0,1,0,0,0,0
02:49:00,0,0,0,2,1,1,2,1,1
02:50:00,0,2,1,0,0,0,0,1,0
02:51:00,3,1,1,1,0,0,2,1,1
02:52:00,1,2,0,1,1,1,1,1,1
02:53:00,1,0,1,0,0,0,1,0,0
02:54:00,1,2,0,0,0,3,0,1,1
02:55:00,1,0,0,0,0,1,1,0,0
02:56:00,0,0,1,1,0,0,0,0,0
02:57:00,0,1,0,1,1,0,0,1,0
02:58:00,0,0,0,0,0,1,1,0,0
02:59:00,0,0,1,1,0,0,0,0,0
03:00:00,0,0,0,0,0,1,0,0,0
03:01:00,0,0,1,1,0,2,1,0,1
03:02:00,1,1,0,1,0,0,1,1,1
03:03:00,0,1,0,0,1,0,0,0,0
03:04:00,2,0,1,0,2,1,0,1,1
03:05:00,0,1,1,0,3,0,0,1,1
03:06:00,0,1,3,1,0,0,0,1,1
03:07:00,0,0,1,1,0,1,0,0,0
03:08:00,0,0,2,1,0,0,1,1,1
03:09:00,1,0,1,0,0,0,0,0,0
03:10:00,1,0,0,0,0,0,2,0,0
03:11:00,2,0,1,0,0,0,1,1,1
03:12:00,0,0,2,1,1,1,0,1,1
03:13:00,0,1,2,0,2,0,0,1,1
03:14:00,0,0,1,1,1,1,1,1,1
03:15:00,1,0,1,0,1,0,0,1,0
03:16:00,0,0,0,0,0,0,1,0,0
03:17:00,2,3,0,2,0,0,1,1,1
03:18:00,0,0,0,1,0,4,2,0,1
03:19:00,0,2,1,0,2,2,0,1,1
03:20:00,1,0,1,0,0,1,1,0,1
03:21:00,0,0,1,1,2,0,0,1,1
03:22:00,0,0,0,2,1,2,0,1,1
03:23:00,0,0,1,0,1,4,1,0,1
03:24:00,1,1,2,1,2,1,0,1,1
03:25:00,1,2,0,0,2,0,0,1,1
03:26:00,1,1,0,1,1,1,0,1,1
03:27:00,1,1,1,0,1,1,1,1,1
03:28:00,0,0,4,0,1,1,0,1,1
03:29:00,2,1,2,0,1,0,3,1,1
03:30:00,1,1,0,0,0,0,1,0,0
03:31:00,1,1,0,1,1,0,1,1,1
03:32:00,1,0,2,0,0,2,1,1,1
03:33:00,2,2,0,0,0,1,1,1,1
03:34:00,0,1,0,1,1,3,1,1,1
03:35:00,0,1,1,2,0,1,1,1,1
03:36:00,2,0,1,0,0,0,0,1,0
03:37:00,1,0,0,2,1,2,3,1,1
03:38:00,0,1,1,1,1,0,1,1,1
03:39:00,1,0,0,1,0,0,1,0,0
03:40:00,0,1,2,0,0,1,0,1,1
03:41:00,1,0,0,1,2,1,0,1,1
03:42:00,0,0,0,0,0,0,1,0,0
03:43:00,0,0,1,1,1,0,3,1,1
03:44:00,0,1,0,0,0,0,0,0,0
03:45:00,1,2,1,2,2,0,0,2,1
03:46:00,0,0,0,1,2,0,0,1,0
03:47:00,0,0,0,1,1,1,0,0,0
03:48:00,0,1,1,2,0,2,1,1,1
03:49:00,0,1,0,0,2,1,1,1,1
03:50:00,0,0,0,0,1,0,1,0,0
03:51:00,0,4,2,6,2,1,1,3,2
03:52:00,1,0,1,2,0,2,1,1,1
03:53:00,1,1,0,0,1,1,0,1,1
03:54:00,1,0,0,0,0,1,1,0,0
03:55:00,0,3,0,0,0,1,1,1,1
03:56:00,1,2,0,0,1,0,0,1,1
03:57:00,0,1,0,0,0,1,2,0,1
03:58:00,0,0,1,0,1,2,0,0,1
03:59:00,0,0,1,0,1,0,3,0,1
04:00:00,1,2,2,0,1,1,1,1,1
04:01:00,0,0,0,1,2,0,2,1,1
04:02:00,0,1,1,0,1,0,0,1,0
04:03:00,2,1,0,1,2,0,0,1,1
04:04:00,0,3,0,2,1,1,1,1,1
04:05:00,0,1,0,0,2,1,1,1,1
04:06:00,2,1,2,0,0,1,1,1,1
04:07:00,1,0,0,1,0,5,3,0,1
04:08:00,1,2,2,0,0,0,0,1,1
04:09:00,1,0,1,2,1,0,0,1,1
04:10:00,2,1,1,1,2,0,2,1,1
04:11:00,3,1,1,4,1,1,1,2,2
04:12:00,1,0,1,1,1,2,1,1,1
04:13:00,2,1,0,1,1,5,0,1,1
04:14:00,2,0,2,3,1,4,0,2,2
04:15:00,2,1,0,1,3,1,1,1,1
04:16:00,1,0,2,3,2,0,0,2,1
04:17:00,0,1,1,1,1,1,0,1,1
04:18:00,0,1,3,0,0,0,0,1,1
04:19:00,0,1,1,0,1,0,0,1,0
04:20:00,0,0,1,1,1,1,2,1,1
04:21:00,1,0,0,2,1,0,2,1,1
04:22:00,2,1,2,0,0,1,1,1,1
04:23:00,1,0,2,1,2,1,1,1,1
04:24:00,2,1,1,0,2,1,0,1,1
04:25:00,1,0,0,2,0,2,1,1,1
04:26:00,0,0,1,0,2,1,1,1,1
04:27:00,3,1,2,0,1,1,0,1,1
04:28:00,0,0,2,0,0,0,0,0,0
04:29:00,0,4,0,0,2,0,0,1,1
04:30:00,3,3,2,2,1,0,0,2,2
04:31:00,0,2,0,0,0,1,1,0,1
04:32:00,1,2,1,2,0,0,0,1,1
04:33:00,2,0,3,2,1,3,3,2,2
04:34:00,3,2,4,1,1,1,1,2,2
04:35:00,2,5,1,3,3,1,0,3,2
04:36:00,2,1,4,0,3,2,1,2,2
04:37:00,0,2,0,0,0,1,1,0,1
04:38:00,1,3,0,0,4,2,0,2,1
04:39:00,5,2,1,3,0,0,1,2,2
04:40:00,0,0,1,2,1,3,2,1,1
04:41:00,3,2,2,2,1,2,0,2,2
04:42:00,4,2,2,2,2,0,2,2,2
04:43:00,1,1,3,3,2,0,1,2,2
04:44:00,1,3,2,2,5,1,0,3,2
04:45:00,4,2,1,3,2,1,0,2,2
04:46:00,1,1,6,1,1,1,0,2,2
04:47:00,3,3,0,1,0,0,1,1,1
04:48:00,4,0,3,0,3,3,0,2,2
04:49:00,1,1,1,3,3,4,0,2,2
04:50:00,2,1,2,3,1,0,3,2,2
04:51:00,3,1,2,5,2,3,0,3,2
04:52:00,3,4,2,2,1,3,0,2,2
04:53:00,2,0,3,4,2,1,1,2,2
04:54:00,1,3,0,4,2,2,0,2,2
04:55:00,2,0,0,1,0,1,0,1,1
04:56:00,1,0,4,1,1,2,1,1,1
04:57:00,4,3,2,0,0,1,1,2,2
04:58:00,1,2,0,2,1,0,3,1,1
04:59:00,2,1,0,3,2,2,1,2,2
05:00:00,2,1,1,0,1,0,0,1,1
05:01:00,2,3,2,1,2,0,0,2,1
05:02:00,1,3,3,3,1,1,0,2,2
05:03:00,3,3,2,1,0,0,0,2,1
05:04:00,2,2,2,3,0,0,2,2,2
05:05:00,1,2,6,3,1,0,0,3,2
05:06:00,2,1,1,1,2,2,2,1,2
05:07:00,3,0,2,3,1,2,0,2,2
05:08:00,6,1,2,5,2,3,0,3,3
05:09:00,3,4,5,2,1,5,1,3,3
05:10:00,4,2,2,7,2,1,2,3,3
05:11:00,2,8,3,4,2,2,1,4,3
05:12:00,7,3,3,0,4,1,4,3,3
05:13:00,1,4,5,3,4,5,1,3,3
05:14:00,1,3,2,2,3,1,0,2,2
05:15:00,5,3,1,4,5,1,2,4,3
05:16:00,5,1,4,3,4,2,1,3,3
05:17:00,5,2,4,5,3,3,1,4,3
05:18:00,2,7,6,4,2,1,2,4,3
05:19:00,2,3,2,3,5,1,1,3,2
05:20:00,1,1,2,4,2,3,1,2,2
05:21:00,2,4,6,1,2,1,1,3,2
05:22:00,3,3,2,5,6,1,1,4,3
05:23:00,2,5,7,3,0,0,2,3,3
05:24:00,4,5,3,2,3,3,0,3,3
05:25:00,3,6,3,3,4,5,0,4,3
05:26:00,4,4,3,2,2,1,1,3,2
05:27:00,7,5,3,5,5,0,2,5,4
05:28:00,4,3,0,5,1,0,0,3,2
05:29:00,3,3,3,4,5,2,2,4,3
05:30:00,2,5,5,2,3,1,2,3,3
05:31:00,4,4,6,5,2,2,1,4,3
05:32:00,9,2,3,2,10,0,0,5,4
05:33:00,4,6,7,5,5,3,1,5,4
05:34:00,5,2,6,6,1,3,0,4,3
05:35:00,8,4,9,4,6,5,2,6,5
05:36:00,7,4,7,4,4,0,2,5,4
05:37:00,6,5,3,5,7,2,0,5,4
05:38:00,7,5,5,6,6,3,2,6,5
05:39:00,2,7,6,5,1,2,1,4,3
05:40:00,9,7,1,5,9,4,2,6,5
05:41:00,5,9,8,6,3,1,4,6,5
05:42:00,3,7,7,4,5,5,1,5,5
05:43:00,7,6,8,2,9,3,2,6,5
05:44:00,7,12,2,6,7,2,0,7,5
05:45:00,4,10,2,5,7,4,2,6,5
05:46:00,10,9,12,7,3,1,2,8,6
05:47:00,4,3,5,9,10,3,2,6,5
05:48:00,8,4,5,7,5,4,1,6,5
05:49:00,8,8,6,5,5,5,2,6,6
05:50:00,7,6,7,2,5,3,1,5,4
05:51:00,4,5,6,4,2,4,1,4,4
05:52:00,4,4,7,3,5,2,1,5,4
05:53:00,6,6,3,2,5,2,2,4,4
05:54:00,9,7,4,7,8,1,1,7,5
05:55:00,3,3,6,10,6,0,1,6,4
05:56:00,1,6,5,3,4,2,0,4,3
05:57:00,5,7,5,5,7,3,1,6,5
05:58:00,6,2,3,5,3,3,0,4,3
05:59:00,5,8,3,6,4,2,0,5,4
06:00:00,1,6,5,7,7,2,0,5,4
06:01:00,8,5,5,5,5,1,0,6,4
06:02:00,5,10,5,3,6,3,0,6,5
06:03:00,12,9,5,5,8,2,1,8,6
06:04:00,6,8,9,9,4,1,6,7,6
06:05:00,7,11,11,8,8,4,2,9,7
06:06:00,10,4,8,9,9,5,1,8,7
06:07:00,2,5,8,8,5,3,2,6,5
06:08:00,11,8,4,14,9,0,4,9,7
06:09:00,7,11,7,3,5,2,4,7,6
06:10:00,6,4,9,11,9,4,2,8,6
06:11:00,5,11,8,7,9,3,3,8,7
06:12:00,11,9,6,6,8,7,2,8,7
06:13:00,7,8,10,14,12,7,6,10,9
06:14:00,7,6,8,6,4,3,3,6,5
06:15:00,8,11,8,14,10,4,0,10,8
06:16:00,12,5,9,7,6,5,4,8,7
06:17:00,14,8,11,8,8,6,1,10,8
06:18:00,12,14,15,5,13,4,3,12,9
06:19:00,11,8,11,9,4,3,3,9,7
06:20:00,10,15,11,13,7,4,3,11,9
06:21:00,16,9,11,10,8,6,4,11,9
06:22:00,8,15,12,7,10,2,2,10,8
06:23:00,14,17,10,7,8,3,1,11,9
06:24:00,12,15,17,12,10,4,5,13,11
06:25:00,13,6,10,10,7,2,4,9,7
06:26:00,10,15,8,9,12,6,5,11,9
06:27:00,7,11,15,2,15,4,6,10,9
06:28:00,13,12,11,13,7,7,3,11,9
06:29:00,9,3,14,15,9,4,6,10,9
06:30:00,8,10,9,11,7,4,6,9,8
06:31:00,8,13,14,24,6,3,0,13,10
06:32:00,13,12,13,14,12,8,3,13,11
06:33:00,16,15,15,9,14,8,0,14,11
06:34:00,12,11,9,11,13,7,4,11,10
06:35:00,14,14,10,8,7,4,3,11,9
06:36:00,16,11,16,9,17,6,5,14,11
06:37:00,17,3,12,15,10,4,5,11,9
06:38:00,11,14,14,15,7,10,3,12,11
06:39:00,12,10,13,10,12,7,3,11,10
06:40:00,13,15,19,21,13,6,7,16,13
06:41:00,14,17,16,13,8,5,2,14,11
06:42:00,17,22,12,15,21,9,4,17,14
06:43:00,13,12,23,17,17,10,7,16,14
06:44:00,10,10,18,26,19,1,4,17,13
06:45:00,15,16,15,12,11,10,4,14,12
06:46:00,13,24,14,14,24,6,7,18,15
06:47:00,22,15,15,22,17,11,3,18,15
06:48:00,19,17,21,14,16,11,8,17,15
06:49:00,9,20,18,13,16,3,6,15,12
06:50:00,15,17,13,17,16,6,6,16,13
06:51:00,17,10,15,14,21,8,5,15,13
06:52:00,15,20,16,18,12,5,4,16,13
06:53:00,11,19,23,15,19,16,6,17,16
06:54:00,22,20,9,15,16,9,8,16,14
06:55:00,15,16,18,18,12,14,8,16,14
06:56:00,11,16,12,15,12,10,5,13,12
06:57:00,15,20,18,20,11,5,8,17,14
06:58:00,18,22,19,10,11,6,8,16,13
06:59:00,12,22,18,15,13,6,7,16,13
07:00:00,19,19,19,17,11,9,2,17,14
07:01:00,13,15,22,22,22,5,5,19,15
07:02:00,14,23,12,17,16,6,2,16,13
07:03:00,20,22,23,17,17,8,5,20,16
07:04:00,15,19,14,21,19,8,8,18,15
07:05:00,28,22,25,32,22,6,5,26,20
07:06:00,14,24,34,16,22,6,10,22,18
07:07:00,28,28,22,19,21,6,6,24,19
07:08:00,16,31,29,33,16,10,6,25,20
07:09:00,21,19,24,26,26,7,6,23,18
07:10:00,26,18,29,23,18,9,6,23,18
07:11:00,37,28,29,23,29,8,5,29,23
07:12:00,27,35,26,21,27,9,3,27,21
07:13:00,19,26,23,18,22,8,5,22,17
07:14:00,28,23,15,14,26,5,6,21,17
07:15:00,28,28,25,27,22,4,8,26,20
07:16:00,24,19,31,24,27,9,10,25,21
07:17:00,22,22,34,32,26,2,7,27,21
07:18:00,31,25,29,40,28,6,4,31,23
07:19:00,31,37,32,31,24,11,4,31,24
07:20:00,24,26,30,23,25,9,5,26,20
07:21:00,22,33,26,27,13,11,11,24,20
07:22:00,17,21,20,24,34,10,4,23,19
07:23:00,22,28,30,26,19,7,2,25,19
07:24:00,27,34,36,24,34,10,10,31,25
07:25:00,13,28,30,26,30,9,6,25,20
07:26:00,25,30,34,30,26,9,7,29,23
07:27:00,32,33,28,30,28,8,4,30,23
07:28:00,24,30,34,25,23,9,7,27,22
07:29:00,30,23,21,29,29,10,9,26,22
07:30:00,30,39,34,24,25,11,4,30,24
07:31:00,31,20,30,34,37,8,4,30,23
07:32:00,30,26,32,20,23,10,8,26,21
07:33:00,29,26,26,30,21,7,6,26,21
07:34:00,23,30,29,30,26,8,3,28,21
07:35:00,29,43,25,38,37,12,6,34,27
07:36:00,38,29,26,27,28,8,10,30,24
07:37:00,36,31,19,32,22,6,6,28,22
07:38:00,25,34,31,19,24,12,5,27,21
07:39:00,24,27,23,37,31,6,8,28,22
07:40:00,34,32,21,32,25,11,13,29,24
07:41:00,29,37,41,37,31,12,3,35,27
07:42:00,27,37,29,31,30,11,6,31,24
07:43:00,25,36,30,34,32,22,8,31,27
07:44:00,30,27,35,27,29,11,17,30,25
07:45:00,42,42,33,36,44,14,9,39,31
07:46:00,32,22,30,29,31,14,9,29,24
07:47:00,26,25,27,26,33,9,4,27,21
07:48:00,32,24,27,38,28,22,11,30,26
07:49:00,28,30,26,32,22,9,8,28,22
07:50:00,33,35,35,25,27,10,5,31,24
07:51:00,17,22,32,34,19,14,3,25,20
07:52:00,29,37,28,24,27,15,5,29,24
07:53:00,31,27,15,19,24,10,13,23,20
07:54:00,27,34,28,28,23,15,12,28,24
07:55:00,33,19,37,31,35,11,3,31,24
07:56:00,31,28,24,29,28,14,4,28,23
07:57:00,16,27,28,21,28,15,12,24,21
07:58:00,27,28,37,25,27,6,6,29,22
07:59:00,26,28,24,21,16,8,5,23,18
08:00:00,22,31,24,23,22,10,8,24,20
08:01:00,26,29,25,21,30,16,12,26,23
08:02:00,32,34,19,17,23,9,10,25,21
08:03:00,21,36,27,27,25,11,6,27,22
08:04:00,30,14,28,28,23,13,9,25,21
08:05:00,32,40,22,23,25,11,3,28,22
08:06:00,31,30,26,31,29,14,8,29,24
08:07:00,27,17,20,20,21,18,7,21,19
08:08:00,30,37,30,24,19,17,5,28,23
08:09:00,26,23,26,29,18,13,5,24,20
08:10:00,24,35,30,27,24,13,11,28,23
08:11:00,35,24,25,35,19,12,8,28,23
08:12:00,23,33,30,30,23,23,4,28,24
08:13:00,25,20,27,24,25,15,9,24,21
08:14:00,23,32,39,28,22,20,14,29,25
08:15:00,30,27,44,26,17,11,7,29,23
08:16:00,34,28,30,27,26,13,6,29,23
08:17:00,29,28,31,27,22,14,8,27,23
08:18:00,28,28,21,26,27,22,7,26,23
08:19:00,34,30,33,32,25,19,2,31,25
08:20:00,30,31,27,30,21,16,7,28,23
08:21:00,33,30,20,21,33,24,10,27,24
08:22:00,21,21,23,31,24,12,7,24,20
08:23:00,24,42,27,24,23,19,3,28,23
08:24:00,29,32,28,22,25,23,7,27,24
08:25:00,29,29,26,22,19,11,10,25,21
08:26:00,27,25,37,28,15,15,12,26,23
08:27:00,21,32,27,20,21,13,6,24,20
08:28:00,30,23,26,25,28,20,6,26,23
08:29:00,22,37,19,31,27,16,5,27,22
08:30:00,26,25,23,26,22,15,12,24,21
08:31:00,27,30,28,22,32,14,8,28,23
08:32:00,21,27,17,27,28,22,10,24,22
08:33:00,22,32,36,31,29,15,9,30,25
08:34:00,20,19,17,27,18,19,10,20,19
08:35:00,36,21,37,23,23,25,7,28,25
08:36:00,24,33,21,38,16,21,11,26,23
08:37:00,17,20,37,32,24,14,9,26,22
08:38:00,20,16,22,19,28,23,11,21,20
08:39:00,24,20,28,25,36,13,9,27,22
08:40:00,31,20,34,22,24,23,11,26,24
08:41:00,20,37,30,31,27,20,5,29,24
08:42:00,20,29,25,28,20,26,6,24,22
08:43:00,30,25,25,19,30,22,19,26,24
08:44:00,25,25,22,26,25,21,14,25,23
08:45:00,30,20,20,33,29,16,10,26,23
08:46:00,21,26,30,37,24,26,17,28,26
08:47:00,19,34,31,18,24,12,13,25,22
08:48:00,20,24,23,23,21,20,15,22,21
08:49:00,24,20,15,21,19,24,15,20,20
08:50:00,24,28,25,27,25,23,18,26,24
08:51:00,17,36,31,32,23,19,15,28,25
08:52:00,25,22,21,19,36,23,16,25,23
08:53:00,20,26,23,30,20,26,9,24,22
08:54:00,27,25,24,18,25,15,15,24,21
08:55:00,20,31,23,23,28,9,12,25,21
08:56:00,26,34,27,32,15,18,11,27,23
08:57:00,18,26,34,23,26,26,7,25,23
08:58:00,28,20,22,26,25,16,12,24,21
08:59:00,13,26,28,27,32,21,13,25,23
09:00:00,23,23,22,16,11,21,16,19,19
09:01:00,17,28,33,24,27,16,11,26,22
09:02:00,30,20,29,19,29,10,13,25,21
09:03:00,23,21,19,21,26,17,14,22,20
09:04:00,22,19,21,18,23,24,18,21,21
09:05:00,12,31,27,32,22,22,18,25,23
09:06:00,24,20,27,15,28,17,15,23,21
09:07:00,28,21,28,25,14,21,18,23,22
09:08:00,27,26,22,19,36,16,11,26,22
09:09:00,26,35,19,24,24,13,23,26,23
09:10:00,18,31,30,19,35,10,12,27,22
09:11:00,19,24,31,23,25,27,16,24,24
09:12:00,23,20,19,26,33,18,13,24,22
09:13:00,25,19,32,33,31,20,13,28,25
09:14:00,33,29,22,23,20,19,22,25,24
09:15:00,30,25,17,21,22,19,14,23,21
09:16:00,26,32,33,29,28,15,15,30,25
09:17:00,19,23,20,29,38,24,21,26,25
09:18:00,27,24,24,28,23,30,17,25,25
09:19:00,23,27,28,27,27,17,20,26,24
09:20:00,36,19,36,21,31,15,19,29,25
09:21:00,33,28,32,15,33,19,18,28,25
09:22:00,21,17,32,25,24,21,24,24,23
09:23:00,35,29,23,34,22,15,16,29,25
09:24:00,33,33,12,26,17,20,15,24,22
09:25:00,15,28,24,20,29,20,17,23,22
09:26:00,19,23,31,29,26,25,14,26,24
09:27:00,19,31,28,27,24,18,12,26,23
09:28:00,23,24,25,22,35,10,20,26,23
09:29:00,21,24,23,22,21,20,21,22,22
09:30:00,23,26,25,21,19,22,28,23,23
09:31:00,31,31,23,25,25,36,22,27,28
09:32:00,28,28,21,32,35,13,19,29,25
09:33:00,37,29,30,34,22,14,26,30,27
09:34:00,27,33,20,24,32,22,21,27,26
09:35:00,28,19,27,19,37,17,18,26,24
09:36:00,28,16,19,26,14,18,26,21,21
09:37:00,43,32,37,20,22,19,13,31,27
09:38:00,17,36,31,35,33,23,26,30,29
09:39:00,20,30,22,28,25,19,28,25,25
09:40:00,41,25,46,22,30,36,22,33,32
09:41:00,31,36,27,32,28,21,23,31,28
09:42:00,29,33,33,17,21,22,20,27,25
09:43:00,41,29,32,29,34,21,31,33,31
09:44:00,23,36,29,26,30,25,33,29,29
09:45:00,22,21,34,28,30,28,22,27,26
09:46:00,33,30,23,24,24,13,25,27,25
09:47:00,25,33,30,25,28,19,23,28,26
09:48:00,22,31,28,19,22,22,28,24,25
09:49:00,34,23,27,16,29,27,34,26,27
09:50:00,28,31,30,16,35,21,29,28,27
09:51:00,22,28,26,39,21,31,27,27,28
09:52:00,24,24,30,21,28,28,25,25,26
09:53:00,21,31,21,26,26,22,21,25,24
09:54:00,24,25,34,31,28,25,23,28,27
09:55:00,17,30,18,35,33,24,25,27,26
09:56:00,27,14,17,26,35,27,29,24,25
09:57:00,28,29,33,28,28,25,27,29,28
09:58:00,27,19,26,27,24,25,17,25,24
09:59:00,31,28,27,22,29,25,28,27,27
10:00:00,24,18,28,31,26,31,18,25,25
10:01:00,19,33,24,19,29,25,22,25,24
10:02:00,28,21,23,28,28,28,18,26,25
10:03:00,25,19,27,30,28,17,23,26,24
10:04:00,23,26,15,28,17,23,28,22,23
10:05:00,26,23,29,23,28,33,16,26,25
10:06:00,35,19,29,32,28,23,19,29,26
10:07:00,33,30,19,33,30,21,27,29,28
10:08:00,35,20,29,22,26,25,25,26,26
10:09:00,26,23,27,26,34,15,27,27,25
10:10:00,21,31,17,25,21,22,28,23,24
10:11:00,38,27,39,24,36,24,30,33,31
10:12:00,33,23,24,28,21,20,25,26,25
10:13:00,25,28,26,28,35,29,40,28,30
10:14:00,37,30,22,20,37,21,32,29,28
10:15:00,19,24,38,21,22,20,31,25,25
10:16:00,30,23,19,21,24,23,25,23,24
10:17:00,16,30,26,34,22,20,31,26,26
10:18:00,31,38,19,32,33,24,27,31,29
10:19:00,28,26,19,25,40,35,25,28,28
10:20:00,30,41,30,26,23,23,26,30,28
10:21:00,24,28,31,26,29,33,20,28,27
10:22:00,29,22,36,22,31,24,22,28,27
10:23:00,30,33,26,33,21,30,27,29,29
10:24:00,37,20,23,28,20,26,24,26,25
10:25:00,29,25,24,31,30,30,27,28,28
10:26:00,28,29,28,41,26,22,26,30,29
10:27:00,20,25,19,23,24,12,25,22,21
10:28:00,28,37,31,26,26,21,18,30,27
10:29:00,29,29,37,27,36,27,22,32,30
10:30:00,26,30,28,28,32,20,24,29,27
10:31:00,31,31,25,17,23,27,24,25,25
10:32:00,36,33,27,33,23,37,26,30,31
10:33:00,29,28,22,35,25,24,22,28,26
10:34:00,33,36,34,24,22,18,15,30,26
10:35:00,27,25,19,16,22,34,16,22,23
10:36:00,23,29,27,28,37,24,25,29,28
10:37:00,29,22,24,22,30,15,28,25,24
10:38:00,30,33,22,38,27,25,16,30,27
10:39:00,25,24,30,31,35,20,21,29,27
10:40:00,27,22,32,30,26,28,33,27,28
10:41:00,27,29,19,33,28,22,25,27,26
10:42:00,34,18,33,21,25,23,28,26,26
10:43:00,24,35,28,29,21,29,25,27,27
10:44:00,22,28,16,22,41,18,24,26,24
10:45:00,28,22,30,27,23,31,13,26,25
10:46:00,34,35,18,29,31,20,27,29,28
10:47:00,22,26,33,15,25,33,26,24,26
10:48:00,23,30,33,33,25,36,26,29,29
10:49:00,25,24,24,20,23,24,24,23,23
10:50:00,31,32,29,36,27,21,25,31,29
10:51:00,36,29,17,17,27,29,25,25,26
10:52:00,28,20,29,26,36,21,20,28,26
10:53:00,22,34,27,34,31,32,18,30,28
10:54:00,32,23,30,32,33,21,27,30,28
10:55:00,21,18,15,23,28,19,26,21,21
10:56:00,25,32,25,27,34,27,21,29,27
10:57:00,21,28,24,35,34,20,23,28,26
10:58:00,34,27,40,28,28,31,23,31,30
10:59:00,28,16,20,17,32,25,25,23,23
11:00:00,28,34,27,18,33,10,26,28,25
11:01:00,21,24,33,23,29,19,29,26,25
11:02:00,16,27,32,20,26,27,21,24,24
11:03:00,20,23,29,39,17,19,17,26,23
11:04:00,23,29,25,32,41,18,21,30,27
11:05:00,25,31,20,34,27,17,27,27,26
11:06:00,34,26,22,28,22,30,20,26,26
11:07:00,28,25,26,28,27,30,29,27,28
11:08:00,29,19,23,9,24,36,31,21,24
11:09:00,32,16,29,38,23,35,15,28,27
11:10:00,22,34,25,25,35,24,36,28,29
11:11:00,27,17,28,38,24,39,32,27,29
11:12:00,26,32,26,36,41,33,36,32,33
11:13:00,24,33,42,24,27,25,32,30,30
11:14:00,29,24,28,31,24,22,20,27,25
11:15:00,24,25,28,25,35,24,36,27,28
11:16:00,29,24,24,25,37,33,17,28,27
11:17:00,16,39,27,21,29,29,12,26,25
11:18:00,26,25,26,23,36,39,24,27,28
11:19:00,43,28,21,33,36,31,33,32,32
11:20:00,21,18,28,27,23,39,30,23,27
11:21:00,28,23,33,29,31,33,22,29,28
11:22:00,24,23,32,17,26,34,35,24,27
11:23:00,27,17,21,27,29,34,30,24,26
11:24:00,23,19,34,33,39,32,33,30,30
11:25:00,31,31,34,17,17,33,21,26,26
11:26:00,36,27,33,15,32,27,27,29,28
11:27:00,22,29,36,16,33,31,23,27,27
11:28:00,28,24,36,40,20,32,32,30,30
11:29:00,21,26,24,32,37,36,19,28,28
11:30:00,35,20,23,37,25,28,29,28,28
11:31:00,19,21,37,33,35,27,20,29,27
11:32:00,29,27,25,27,18,17,30,25,25
11:33:00,19,34,34,35,30,42,22,30,31
11:34:00,13,30,34,32,21,27,25,26,26
11:35:00,17,26,15,32,23,35,19,23,24
11:36:00,39,20,39,36,21,26,36,31,31
11:37:00,33,36,25,34,34,28,27,32,31
11:38:00,27,38,26,29,21,22,35,28,28
11:39:00,31,32,36,37,30,39,26,33,33
11:40:00,27,21,20,28,28,29,32,25,26
11:41:00,29,22,28,29,33,21,27,28,27
11:42:00,15,26,45,32,26,34,21,29,28
11:43:00,30,29,29,29,26,31,28,29,29
11:44:00,29,20,30,19,36,25,29,27,27
11:45:00,35,28,22,30,32,37,41,29,32
11:46:00,19,23,16,35,32,21,39,25,26
11:47:00,26,35,30,28,20,45,26,28,30
11:48:00,31,34,29,34,29,24,27,31,30
11:49:00,27,28,23,33,37,20,30,30,28
11:50:00,28,28,26,23,34,39,21,28,28
11:51:00,19,17,21,30,22,40,37,22,27
11:52:00,17,38,36,31,42,27,30,33,32
11:53:00,41,18,33,27,33,28,25,30,29
11:54:00,21,30,29,27,30,29,22,27,27
11:55:00,24,20,27,28,25,33,24,25,26
11:56:00,21,25,27,33,33,30,27,28,28
11:57:00,23,33,28,29,37,40,41,30,33
11:58:00,30,17,20,34,27,38,26,26,27
11:59:00,20,30,22,26,19,30,20,23,24
12:00:00,26,29,35,26,28,22,36,29,29
12:01:00,17,21,31,32,32,31,31,27,28
12:02:00,32,26,24,34,29,31,33,29,30
12:03:00,29,34,22,31,28,31,33,29,30
12:04:00,31,28,28,28,24,23,27,28,27
12:05:00,30,26,21,27,33,31,16,27,26
12:06:00,22,29,20,41,26,38,19,28,28
12:07:00,33,20,14,36,33,28,36,27,29
12:08:00,13,8,17,26,28,27,23,18,20
12:09:00,33,41,37,15,44,31,20,34,32
12:10:00,32,24,26,35,31,34,31,30,30
12:11:00,18,24,20,30,26,21,31,24,24
12:12:00,24,22,31,16,22,39,25,23,26
12:13:00,27,30,38,28,29,30,32,30,31
12:14:00,33,43,25,33,33,28,33,33,33
12:15:00,19,34,32,18,32,28,20,27,26
12:16:00,32,35,31,40,37,28,33,35,34
12:17:00,30,20,31,32,29,37,33,28,30
12:18:00,24,30,32,21,34,37,31,28,30
12:19:00,25,39,31,45,26,27,36,33,33
12:20:00,27,18,27,29,26,30,20,25,25
12:21:00,29,25,30,29,36,26,26,30,29
12:22:00,20,22,22,28,33,31,36,25,27
12:23:00,26,25,24,35,30,28,23,28,27
12:24:00,23,20,22,34,30,34,35,26,28
12:25:00,22,28,28,28,29,28,29,27,27
12:26:00,23,25,39,23,29,28,24,28,27
12:27:00,38,34,20,22,32,39,33,29,31
12:28:00,27,23,27,28,36,28,33,28,29
12:29:00,20,23,41,14,34,28,28,26,27
12:30:00,15,39,21,22,31,31,35,26,28
12:31:00,32,31,23,33,27,31,39,29,31
12:32:00,29,27,36,37,20,34,28,30,30
12:33:00,38,21,32,28,29,37,28,30,30
12:34:00,33,26,32,35,38,36,30,33,33
12:35:00,28,29,35,30,31,36,19,31,30
12:36:00,25,35,33,25,23,32,27,28,29
12:37:00,28,24,23,38,32,27,30,29,29
12:38:00,32,26,28,27,29,32,33,28,30
12:39:00,31,37,27,37,39,39,34,34,35
12:40:00,18,28,25,11,31,21,28,23,23
12:41:00,27,28,33,39,31,46,24,32,33
12:42:00,35,36,30,27,33,33,28,32,32
12:43:00,30,31,27,25,39,33,29,30,31
12:44:00,41,29,23,28,38,38,29,32,32
12:45:00,32,36,23,30,30,33,32,30,31
12:46:00,39,24,29,28,32,21,30,30,29
12:47:00,32,34,29,26,30,30,29,30,30
12:48:00,21,18,22,38,26,25,20,25,24
12:49:00,24,17,33,27,45,34,32,29,30
12:50:00,42,31,23,34,38,35,33,34,34
12:51:00,23,23,26,27,31,41,21,26,27
12:52:00,26,23,35,20,26,31,33,26,28
12:53:00,29,17,29,32,31,33,29,28,29
12:54:00,29,18,25,30,23,35,35,25,28
12:55:00,19,39,26,33,29,32,27,29,29
12:56:00,26,23,41,21,29,24,24,28,27
12:57:00,36,22,24,26,19,28,25,25,26
12:58:00,27,35,27,37,24,40,15,30,29
12:59:00,33,32,34,26,36,30,32,32,32
13:00:00,41,27,22,37,36,37,24,33,32
13:01:00,29,26,26,32,20,34,27,27,28
13:02:00,28,32,23,25,24,23,29,26,26
13:03:00,35,35,40,29,30,31,35,34,34
13:04:00,25,22,29,35,33,37,27,29,30
13:05:00,33,36,24,26,24,35,31,29,30
13:06:00,24,25,39,28,27,39,29,29,30
13:07:00,23,30,32,29,32,36,35,29,31
13:08:00,14,33,24,26,29,25,19,25,24
13:09:00,33,28,24,27,28,33,31,28,29
13:10:00,29,32,27,25,22,33,19,27,27
13:11:00,29,28,27,31,23,34,26,28,28
13:12:00,28,29,32,37,35,32,34,32,32
13:13:00,33,22,28,40,36,28,30,32,31
13:14:00,24,30,24,29,23,23,27,26,26
13:15:00,33,31,14,25,32,36,25,27,28
13:16:00,28,31,23,21,21,41,29,25,28
13:17:00,21,28,21,17,30,31,21,23,24
13:18:00,24,31,30,21,34,27,28,28,28
13:19:00,28,24,22,31,32,38,24,27,28
13:20:00,23,32,42,23,20,30,34,28,29
13:21:00,28,30,37,31,25,20,19,30,27
13:22:00,32,34,27,24,30,39,18,29,29
13:23:00,19,18,20,27,22,18,24,21,21
13:24:00,25,27,30,33,28,27,19,29,27
13:25:00,29,24,28,33,21,38,25,27,28
13:26:00,34,29,32,26,30,30,15,30,28
13:27:00,29,23,23,24,33,37,33,26,29
13:28:00,19,23,26,20,29,29,35,23,26
13:29:00,30,29,24,29,31,25,30,29,28
13:30:00,28,12,27,29,29,34,27,25,27
13:31:00,25,36,25,16,20,33,21,24,25
13:32:00,34,25,26,20,33,33,29,28,29
13:33:00,22,15,35,24,21,25,26,23,24
13:34:00,31,30,28,32,36,38,24,31,31
13:35:00,20,27,19,27,25,25,28,24,24
13:36:00,19,26,23,24,36,25,23,26,25
13:37:00,34,28,30,25,30,32,37,29,31
13:38:00,22,20,23,38,35,34,26,28,28
13:39:00,38,29,33,37,29,30,29,33,32
13:40:00,32,33,23,27,24,30,15,28,26
13:41:00,26,24,45,14,28,37,30,27,29
13:42:00,25,27,30,38,26,30,29,29,29
13:43:00,19,27,26,37,25,22,35,27,27
13:44:00,35,21,14,19,32,18,33,24,25
13:45:00,25,25,18,40,34,36,38,28,31
13:46:00,18,28,26,26,36,24,23,27,26
13:47:00,28,21,27,38,35,27,34,30,30
13:48:00,28,29,22,38,30,29,26,29,29
13:49:00,14,25,23,28,43,27,26,27,27
13:50:00,17,29,35,16,29,35,19,25,26
13:51:00,38,35,21,26,38,20,32,32,30
13:52:00,25,24,35,36,26,24,30,29,29
13:53:00,26,31,22,29,31,36,32,28,30
13:54:00,28,31,25,28,34,28,29,29,29
13:55:00,30,13,34,34,34,28,24,29,28
13:56:00,37,50,25,26,33,26,29,34,32
13:57:00,23,34,35,32,35,38,32,32,33
13:58:00,36,25,31,24,25,23,24,28,27
13:59:00,21,30,32,35,23,31,27,28,28
14:00:00,21,28,16,34,44,27,26,29,28
14:01:00,42,24,25,30,25,26,19,29,27
14:02:00,23,24,34,20,26,32,23,25,26
14:03:00,30,28,31,24,30,28,34,29,29
14:04:00,18,33,21,36,27,26,29,27,27
14:05:00,27,26,38,30,38,17,43,32,31
14:06:00,33,22,30,26,24,36,27,27,28
14:07:00,23,29,30,27,36,33,20,29,28
14:08:00,29,18,33,27,28,24,31,27,27
14:09:00,28,22,29,34,44,40,36,31,33
14:10:00,20,34,21,38,25,25,26,28,27
14:11:00,31,28,34,35,34,27,33,32,32
14:12:00,36,26,30,30,42,27,29,33,31
14:13:00,25,37,26,30,24,39,38,28,31
14:14:00,31,42,33,34,26,28,35,33,33
14:15:00,27,30,30,29,37,35,37,31,32
14:16:00,28,37,33,39,23,29,21,32,30
14:17:00,22,27,22,30,33,23,24,27,26
14:18:00,26,33,30,19,39,36,42,29,32
14:19:00,28,34,23,21,42,26,31,30,29
14:20:00,29,25,30,39,37,41,26,32,32
14:21:00,33,29,28,30,28,22,24,30,28
14:22:00,31,40,30,33,22,27,25,31,30
14:23:00,37,27,30,29,42,20,22,33,30
14:24:00,34,40,33,24,23,30,39,31,32
14:25:00,27,27,27,33,24,22,18,28,25
14:26:00,25,28,25,40,37,21,33,31,30
14:27:00,29,34,31,18,31,23,16,29,26
14:28:00,31,46,37,27,27,32,28,34,33
14:29:00,23,19,23,26,32,35,30,25,27
14:30:00,19,30,30,34,23,33,26,27,28
14:31:00,24,21,29,24,31,27,25,26,26
14:32:00,41,30,37,34,32,36,24,35,33
14:33:00,14,30,32,31,24,27,22,26,26
14:34:00,19,27,28,25,26,32,24,25,26
14:35:00,37,32,26,35,38,23,20,34,30
14:36:00,25,27,38,18,34,26,32,28,29
14:37:00,21,35,28,27,29,25,28,28,28
14:38:00,24,27,32,13,34,19,30,26,26
14:39:00,29,19,34,30,27,25,25,28,27
14:40:00,23,31,28,33,20,21,24,27,26
14:41:00,27,30,36,37,29,20,25,32,29
14:42:00,37,26,32,31,19,30,32,29,30
14:43:00,28,15,33,27,38,25,35,28,29
14:44:00,33,22,20,36,36,27,35,29,30
14:45:00,30,36,26,35,33,27,21,32,30
14:46:00,30,27,23,29,26,27,36,27,28
14:47:00,38,27,26,31,26,29,29,30,29
14:48:00,33,27,26,30,25,32,24,28,28
14:49:00,33,23,29,29,27,27,34,28,29
14:50:00,29,33,41,31,37,25,23,34,31
14:51:00,37,33,34,29,26,34,25,32,31
14:52:00,29,36,32,30,24,32,32,30,31
14:53:00,25,30,42,28,32,34,19,31,30
14:54:00,31,33,38,20,32,32,34,31,31
14:55:00,31,24,19,35,36,22,30,29,28
14:56:00,25,19,17,13,37,25,23,22,23
14:57:00,24,28,25,35,30,26,20,28,27
14:58:00,26,31,21,14,31,26,38,25,27
14:59:00,25,32,23,33,29,28,21,28,27
15:00:00,30,17,34,27,24,29,16,26,25
15:01:00,26,33,33,21,21,25,23,27,26
15:02:00,33,24,29,38,39,28,25,33,31
15:03:00,33,26,24,41,34,26,23,32,30
15:04:00,33,30,31,25,26,27,19,29,27
15:05:00,18,18,26,28,22,23,25,22,23
15:06:00,30,31,43,35,27,28,17,33,30
15:07:00,24,35,29,30,30,18,24,30,27
15:08:00,30,21,37,31,26,25,27,29,28
15:09:00,32,37,31,36,28,23,28,33,31
15:10:00,22,26,35,28,33,27,34,29,29
15:11:00,31,21,28,28,30,23,18,28,26
15:12:00,30,28,49,25,22,27,18,31,28
15:13:00,34,29,26,28,38,38,24,31,31
15:14:00,25,25,24,27,24,29,22,25,25
15:15:00,23,35,22,34,30,30,17,29,27
15:16:00,28,35,30,27,32,28,21,30,29
15:17:00,32,31,44,30,32,30,31,34,33
15:18:00,26,30,31,38,28,25,28,31,29
15:19:00,22,26,33,35,29,27,20,29,27
15:20:00,39,27,35,27,33,34,22,32,31
15:21:00,28,26,30,21,26,34,22,26,27
15:22:00,27,26,31,36,33,28,25,31,29
15:23:00,38,15,32,31,30,16,11,29,25
15:24:00,26,32,25,21,26,15,25,26,24
15:25:00,27,27,42,23,32,25,19,30,28
15:26:00,29,29,25,26,32,20,17,28,25
15:27:00,33,25,30,22,33,24,26,29,28
15:28:00,30,28,42,30,26,21,32,31,30
15:29:00,37,34,26,26,24,27,29,29,29
15:30:00,23,34,26,32,33,27,18,30,28
15:31:00,23,21,32,36,26,24,14,28,25
15:32:00,29,18,20,24,31,26,22,24,24
15:33:00,25,24,28,30,21,23,30,26,26
15:34:00,30,30,27,27,24,29,19,28,27
15:35:00,24,25,31,25,31,29,15,27,26
15:36:00,29,14,43,29,25,14,29,28,26
15:37:00,22,30,35,32,37,22,31,31,30
15:38:00,28,29,36,35,28,27,21,31,29
15:39:00,32,28,25,28,34,26,22,29,28
15:40:00,30,31,28,37,27,19,24,31,28
15:41:00,26,23,29,26,30,36,14,27,26
15:42:00,21,28,37,29,21,23,29,27,27
15:43:00,27,29,28,30,36,17,26,30,28
15:44:00,25,30,34,35,26,35,14,30,28
15:45:00,23,42,23,33,31,21,26,30,28
15:46:00,30,34,27,35,41,18,21,33,29
15:47:00,34,24,41,29,28,25,30,31,30
15:48:00,20,23,32,32,38,25,28,29,28
15:49:00,28,38,29,40,22,31,33,31,32
15:50:00,20,29,34,20,33,19,27,27,26
15:51:00,35,36,31,25,27,22,27,31,29
15:52:00,28,41,38,40,34,19,38,36,34
15:53:00,21,32,25,23,22,25,12,25,23
15:54:00,27,23,40,32,27,23,31,30,29
15:55:00,27,40,26,35,26,21,20,31,28
15:56:00,29,20,38,27,29,22,24,29,27
15:57:00,32,29,36,28,24,31,16,30,28
15:58:00,25,35,32,29,36,17,32,31,29
15:59:00,25,34,30,25,39,26,26,31,29
16:00:00,36,31,16,34,36,17,17,31,27
16:01:00,29,29,36,26,31,14,24,30,27
16:02:00,30,25,28,27,32,19,23,28,26
16:03:00,35,27,25,25,27,21,20,28,26
16:04:00,34,23,32,35,34,23,30,32,30
16:05:00,43,29,28,35,36,32,23,34,32
16:06:00,31,31,35,28,33,26,25,32,30
16:07:00,42,31,26,37,35,25,26,34,32
16:08:00,31,25,27,31,29,31,23,29,28
16:09:00,28,38,32,32,28,27,17,32,29
16:10:00,44,33,31,37,39,28,23,37,34
16:11:00,43,32,32,31,34,18,30,34,31
16:12:00,34,24,31,31,29,34,35,30,31
16:13:00,32,39,35,36,44,30,33,37,36
16:14:00,24,31,28,35,37,27,29,31,30
16:15:00,22,35,37,32,35,29,29,32,31
16:16:00,28,31,33,33,31,33,22,31,30
16:17:00,22,29,41,32,38,26,25,32,30
16:18:00,31,30,46,51,35,33,20,39,35
16:19:00,30,40,34,29,29,24,38,32,32
16:20:00,26,31,22,37,34,30,24,30,29
16:21:00,26,41,34,35,44,31,17,36,33
16:22:00,25,36,38,36,37,27,27,34,32
16:23:00,23,28,38,31,27,21,27,29,28
16:24:00,40,36,34,32,40,27,29,36,34
16:25:00,22,33,38,27,37,37,24,31,31
16:26:00,46,43,40,27,34,30,16,38,34
16:27:00,37,39,35,31,33,26,26,35,32
16:28:00,33,29,33,38,27,22,32,32,31
16:29:00,39,29,37,33,32,37,28,34,34
16:30:00,22,34,40,36,40,25,36,34,33
16:31:00,38,40,33,38,31,30,18,36,33
16:32:00,40,35,43,24,33,27,18,35,31
16:33:00,29,29,30,35,31,25,23,31,29
16:34:00,32,30,33,24,31,23,27,30,29
16:35:00,26,31,41,32,23,27,31,31,30
16:36:00,30,29,39,34,23,24,31,31,30
16:37:00,30,31,32,30,37,26,25,32,30
16:38:00,31,38,28,40,28,18,27,33,30
16:39:00,38,31,36,30,27,33,23,32,31
16:40:00,34,37,38,30,32,23,20,34,31
16:41:00,30,31,35,28,32,18,14,31,27
16:42:00,38,34,23,31,39,24,29,33,31
16:43:00,31,33,35,29,23,28,32,30,30
16:44:00,27,32,34,31,38,27,25,32,31
16:45:00,40,38,40,32,30,30,23,36,33
16:46:00,33,38,35,30,30,23,14,33,29
16:47:00,39,35,29,33,29,26,23,33,31
16:48:00,35,30,35,32,30,24,24,32,30
16:49:00,34,42,28,31,37,24,27,34,32
16:50:00,29,27,31,32,33,28,16,30,28
16:51:00,28,44,42,29,34,21,24,35,32
16:52:00,26,33,33,31,30,30,16,31,28
16:53:00,28,35,37,33,35,29,18,34,31
16:54:00,27,31,28,38,32,24,22,31,29
16:55:00,31,37,36,24,33,26,23,32,30
16:56:00,32,34,34,38,26,29,26,33,31
16:57:00,25,49,46,28,32,22,21,36,32
16:58:00,25,26,27,30,34,27,29,28,28
16:59:00,30,35,35,34,22,28,17,31,29
17:00:00,32,37,31,34,28,14,22,32,28
17:01:00,28,35,27,17,24,24,17,26,25
17:02:00,33,38,34,20,36,23,23,32,30
17:03:00,32,27,35,25,28,27,17,29,27
17:04:00,31,33,33,34,31,15,19,32,28
17:05:00,38,34,30,32,35,21,24,34,31
17:06:00,40,41,27,33,35,22,23,35,32
17:07:00,32,33,36,39,26,25,21,33,30
17:08:00,37,47,36,37,41,17,17,40,33
17:09:00,34,32,39,35,31,18,23,34,30
17:10:00,35,36,34,38,35,20,22,36,31
17:11:00,37,38,24,39,32,20,28,34,31
17:12:00,34,37,24,40,40,20,26,35,32
17:13:00,47,33,32,31,36,18,24,36,32
17:14:00,33,37,26,34,38,20,20,34,30
17:15:00,34,41,30,36,33,28,19,35,32
17:16:00,39,42,30,43,37,27,19,38,34
17:17:00,32,33,33,32,31,23,13,32,28
17:18:00,35,29,37,39,38,25,17,36,31
17:19:00,32,40,34,36,34,17,18,35,30
17:20:00,33,33,34,34,28,27,28,32,31
17:21:00,42,41,37,30,36,20,15,37,32
17:22:00,31,29,38,40,34,26,21,34,31
17:23:00,41,34,31,36,34,26,21,35,32
17:24:00,34,31,31,32,23,19,20,30,27
17:25:00,35,26,36,44,26,20,17,33,29
17:26:00,38,29,35,32,34,31,23,34,32
17:27:00,25,31,41,37,32,24,23,33,30
17:28:00,41,28,30,35,18,29,19,30,29
17:29:00,26,43,35,31,38,33,16,35,32
17:30:00,37,31,33,39,28,19,20,34,30
17:31:00,35,37,32,34,31,24,17,34,30
17:32:00,25,40,39,31,32,26,26,33,31
17:33:00,37,36,41,37,34,26,14,37,32
17:34:00,37,29,38,28,29,27,17,32,29
17:35:00,32,39,41,34,23,30,16,34,31
17:36:00,33,37,33,33,24,26,27,32,30
17:37:00,32,37,31,36,34,28,16,34,31
17:38:00,35,30,34,33,26,30,16,32,29
17:39:00,34,40,23,35,25,19,13,31,27
17:40:00,30,31,32,26,25,24,27,29,28
17:41:00,38,28,32,27,32,15,18,31,27
17:42:00,35,29,31,36,28,27,7,32,28
17:43:00,43,28,39,36,34,19,23,36,32
17:44:00,38,38,35,33,36,29,24,36,33
17:45:00,30,30,41,31,34,19,9,33,28
17:46:00,35,34,31,35,40,14,10,35,28
17:47:00,33,30,44,37,29,22,20,35,31
17:48:00,27,37,31,42,36,14,21,35,30
17:49:00,36,31,26,29,40,17,14,32,28
17:50:00,29,36,33,38,32,27,22,34,31
17:51:00,28,31,29,31,29,26,22,30,28
17:52:00,30,39,34,37,33,15,14,35,29
17:53:00,25,30,34,39,34,29,19,32,30
17:54:00,39,27,34,23,28,15,20,30,27
17:55:00,32,31,30,28,28,17,16,30,26
17:56:00,36,31,30,36,29,20,18,32,29
17:57:00,23,24,32,36,32,14,13,29,25
17:58:00,36,32,28,30,24,20,15,30,26
17:59:00,17,24,43,28,29,19,23,28,26
18:00:00,25,22,44,23,21,23,19,27,25
18:01:00,17,23,20,20,26,25,10,21,20
18:02:00,27,22,27,35,34,10,18,29,25
18:03:00,27,20,18,28,29,16,21,24,23
18:04:00,33,26,28,24,22,18,12,27,23
18:05:00,33,23,30,31,27,25,12,29,26
18:06:00,23,25,25,28,34,23,13,27,24
18:07:00,41,24,36,23,30,21,4,31,26
18:08:00,23,29,41,36,32,33,24,32,31
18:09:00,36,34,31,32,19,23,21,30,28
18:10:00,35,32,30,31,28,21,16,31,28
18:11:00,26,34,40,36,33,25,22,34,31
18:12:00,26,34,33,29,26,30,21,30,28
18:13:00,27,26,26,26,30,27,23,27,26
18:14:00,25,29,27,36,27,13,17,29,25
18:15:00,34,32,34,27,38,23,14,33,29
18:16:00,21,32,32,38,27,26,17,30,28
18:17:00,27,32,25,31,36,23,11,30,26
18:18:00,25,32,35,33,26,26,24,30,29
18:19:00,26,30,27,23,27,19,18,27,24
18:20:00,23,33,27,23,33,13,17,28,24
18:21:00,26,28,27,26,32,23,11,28,25
18:22:00,21,24,35,25,26,25,24,26,26
18:23:00,27,35,27,34,29,19,16,30,27
18:24:00,18,29,29,22,29,14,17,25,23
18:25:00,18,35,33,32,30,24,18,30,27
18:26:00,23,33,29,18,27,13,17,26,23
18:27:00,19,28,34,23,26,23,13,26,24
18:28:00,26,27,30,15,23,16,25,24,23
18:29:00,18,22,36,23,27,15,13,25,22
18:30:00,22,33,35,26,23,28,14,28,26
18:31:00,20,27,32,34,22,28,11,27,25
18:32:00,17,12,26,29,20,22,12,21,20
18:33:00,22,30,31,19,33,18,12,27,24
18:34:00,27,28,26,27,18,20,18,25,23
18:35:00,27,28,28,26,26,16,12,27,23
18:36:00,12,21,23,28,23,29,12,21,21
18:37:00,18,28,33,25,30,14,16,27,23
18:38:00,25,29,26,27,28,14,22,27,24
18:39:00,22,30,32,22,29,18,20,27,25
18:40:00,22,35,32,33,13,24,16,27,25
18:41:00,21,33,22,31,27,24,12,27,24
18:42:00,26,28,28,28,26,21,13,27,24
18:43:00,28,34,35,25,25,18,25,29,27
18:44:00,19,22,45,28,22,22,30,27,27
18:45:00,33,27,33,20,30,28,10,29,26
18:46:00,25,29,33,21,34,18,6,28,24
18:47:00,30,29,31,24,20,22,12,27,24
18:48:00,22,22,30,21,20,21,17,23,22
18:49:00,28,23,23,30,32,16,17,27,24
18:50:00,29,24,30,22,32,23,12,27,25
18:51:00,14,28,25,25,38,23,12,26,24
18:52:00,31,29,29,17,20,23,15,25,23
18:53:00,31,25,32,23,24,33,21,27,27
18:54:00,16,29,31,15,29,20,12,24,22
18:55:00,18,28,32,31,17,21,18,25,24
18:56:00,26,18,17,19,31,13,20,22,21
18:57:00,19,17,32,25,25,20,14,24,22
18:58:00,19,23,23,22,24,17,15,22,20
18:59:00,22,22,32,16,23,24,18,23,22
19:00:00,27,14,18,29,27,13,7,23,19
19:01:00,22,22,27,27,20,18,13,24,21
19:02:00,22,24,25,23,18,23,13,22,21
19:03:00,25,21,32,15,16,27,6,22,20
19:04:00,23,26,31,19,19,12,13,24,20
19:05:00,19,25,22,28,24,22,17,24,22
19:06:00,26,16,33,24,27,22,17,25,24
19:07:00,32,21,30,23,16,22,10,24,22
19:08:00,28,35,17,24,33,19,13,27,24
19:09:00,21,21,28,13,28,31,19,22,23
19:10:00,35,18,27,26,20,18,15,25,23
19:11:00,26,23,29,20,23,19,9,24,21
19:12:00,29,16,28,22,28,20,11,25,22
19:13:00,26,29,24,17,26,21,11,24,22
19:14:00,22,24,18,15,30,11,17,22,20
19:15:00,23,28,18,33,18,24,11,24,22
19:16:00,29,27,27,21,15,25,21,24,24
19:17:00,17,29,35,24,24,7,12,26,21
19:18:00,22,17,17,13,16,22,11,17,17
19:19:00,23,24,35,20,25,24,10,25,23
19:20:00,22,22,22,23,31,23,14,24,22
19:21:00,22,29,30,20,17,14,15,24,21
19:22:00,11,18,27,31,20,19,18,21,21
19:23:00,29,17,36,22,23,23,11,25,23
19:24:00,21,23,26,17,25,25,13,22,21
19:25:00,22,16,25,18,13,19,17,19,19
19:26:00,23,26,22,12,11,14,12,19,17
19:27:00,18,28,24,27,15,17,16,22,21
19:28:00,24,17,22,12,25,19,12,20,19
19:29:00,22,23,24,14,23,22,12,21,20
19:30:00,22,10,21,22,21,29,16,19,20
19:31:00,18,27,19,17,18,15,15,20,18
19:32:00,11,27,23,18,24,16,15,21,19
19:33:00,25,24,13,16,19,12,14,19,18
19:34:00,17,17,30,22,7,23,18,19,19
19:35:00,13,26,17,21,18,23,14,19,19
19:36:00,26,18,22,16,19,22,18,20,20
19:37:00,18,12,29,24,15,16,15,20,18
19:38:00,11,15,20,19,24,8,13,18,16
19:39:00,19,19,25,20,18,13,14,20,18
19:40:00,26,12,24,21,16,15,17,20,19
19:41:00,22,20,25,22,22,19,15,22,21
19:42:00,14,16,25,13,24,15,2,18,16
19:43:00,13,33,14,17,14,12,14,18,17
19:44:00,19,25,18,26,29,16,10,23,20
19:45:00,16,20,19,26,14,10,8,19,16
19:46:00,17,23,19,17,14,14,10,18,16
19:47:00,19,17,16,15,13,12,14,16,15
19:48:00,14,16,17,18,19,10,13,17,15
19:49:00,18,21,21,18,18,16,13,19,18
19:50:00,17,15,23,25,14,11,10,19,16
19:51:00,16,18,15,17,21,9,16,17,16
19:52:00,14,19,19,20,26,18,12,20,18
19:53:00,22,15,22,26,17,12,10,20,18
19:54:00,19,17,17,24,18,11,8,19,16
19:55:00,12,15,7,21,11,10,11,13,12
19:56:00,9,8,20,20,16,10,9,15,13
19:57:00,21,13,15,16,22,11,12,17,16
19:58:00,13,22,18,21,32,13,9,21,18
19:59:00,12,22,8,16,19,18,18,15,16
20:00:00,16,22,28,17,23,12,8,21,18
20:01:00,16,14,20,16,9,13,13,15,14
20:02:00,10,18,23,19,11,11,13,16,15
20:03:00,17,15,20,21,13,12,5,17,15
20:04:00,12,16,20,21,25,11,19,19,18
20:05:00,19,11,12,16,24,11,7,16,14
20:06:00,19,14,19,13,16,15,17,16,16
20:07:00,15,10,17,17,11,12,7,14,13
20:08:00,13,17,17,21,22,12,14,18,17
20:09:00,21,13,13,10,13,13,10,14,13
20:10:00,25,22,12,24,9,21,12,18,18
20:11:00,20,19,10,23,18,9,8,18,15
20:12:00,22,15,27,26,19,16,16,22,20
20:13:00,26,24,17,21,23,15,11,22,20
20:14:00,17,21,15,20,12,16,13,17,16
20:15:00,13,16,13,14,18,16,18,15,15
20:16:00,11,23,23,13,13,20,10,17,16
20:17:00,18,11,10,15,13,17,19,13,15
20:18:00,22,18,14,23,17,13,10,19,17
20:19:00,8,15,19,16,13,16,14,14,14
20:20:00,12,13,12,17,13,15,16,13,14
20:21:00,15,14,11,21,16,10,7,15,13
20:22:00,8,13,10,13,23,11,19,13,14
20:23:00,13,11,16,13,14,11,15,13,13
20:24:00,11,14,10,14,11,10,16,12,12
20:25:00,19,13,14,12,14,7,17,14,14
20:26:00,14,8,6,12,13,10,13,11,11
20:27:00,13,16,14,5,15,13,6,13,12
20:28:00,7,15,11,7,17,8,11,11,11
20:29:00,10,7,14,13,12,17,14,11,12
20:30:00,11,9,13,12,6,9,7,10,10
20:31:00,10,16,13,13,11,8,8,13,11
20:32:00,15,17,11,14,17,12,9,15,14
20:33:00,13,12,10,10,18,6,13,13,12
20:34:00,8,14,23,20,20,8,9,17,15
20:35:00,15,13,12,9,15,9,13,13,12
20:36:00,7,13,11,22,11,11,3,13,11
20:37:00,11,14,11,15,10,9,9,12,11
20:38:00,10,6,3,16,16,6,12,10,10
20:39:00,13,9,6,13,12,7,7,11,10
20:40:00,15,11,8,10,12,5,9,11,10
20:41:00,8,10,13,9,13,5,12,11,10
20:42:00,16,18,11,16,13,10,13,15,14
20:43:00,13,9,11,13,13,5,10,12,11
20:44:00,14,17,6,11,11,11,7,12,11
20:45:00,12,11,11,14,15,6,13,13,12
20:46:00,17,14,16,13,9,10,6,14,12
20:47:00,9,14,12,8,10,12,4,11,10
20:48:00,3,11,11,11,11,13,10,9,10
20:49:00,14,12,11,7,10,10,4,11,10
20:50:00,11,7,9,19,11,6,10,11,10
20:51:00,11,10,3,15,9,13,11,10,10
20:52:00,10,9,18,4,11,6,6,10,9
20:53:00,8,18,11,12,17,10,10,13,12
20:54:00,5,15,8,15,14,4,6,11,10
20:55:00,8,8,10,13,11,3,9,10,9
20:56:00,5,10,7,16,15,8,6,11,10
20:57:00,13,11,9,13,12,6,3,12,10
20:58:00,8,9,15,5,9,13,5,9,9
20:59:00,7,14,14,4,18,11,2,11,10
21:00:00,7,17,12,10,11,10,9,11,11
21:01:00,8,12,15,11,6,9,4,10,9
21:02:00,9,6,20,4,11,3,4,10,8
21:03:00,13,8,10,19,7,4,6,11,10
21:04:00,9,10,14,12,8,8,10,11,10
21:05:00,9,11,13,11,11,6,13,11,11
21:06:00,9,8,17,14,8,9,5,11,10
21:07:00,11,5,13,11,11,4,10,10,9
21:08:00,13,14,15,14,12,6,5,14,11
21:09:00,11,7,14,12,8,4,8,10,9
21:10:00,13,7,14,20,15,12,11,14,13
21:11:00,9,2,9,14,7,11,9,8,9
21:12:00,6,20,10,7,10,8,4,11,9
21:13:00,14,13,12,13,16,3,11,14,12
21:14:00,13,12,13,14,10,8,8,12,11
21:15:00,11,7,10,14,14,8,6,11,10
21:16:00,6,17,9,13,6,14,11,10,11
21:17:00,14,13,9,13,8,9,8,11,11
21:18:00,8,17,21,12,12,8,7,14,12
21:19:00,9,14,13,11,11,4,11,12,10
21:20:00,8,17,11,6,9,18,4,10,10
21:21:00,15,12,10,13,7,10,7,11,11
21:22:00,4,15,8,6,10,9,13,9,9
21:23:00,14,17,16,16,7,18,10,14,14
21:24:00,9,10,10,11,9,10,3,10,9
21:25:00,9,11,10,15,6,11,7,10,10
21:26:00,8,13,9,18,9,5,3,11,9
21:27:00,4,13,19,8,7,14,4,10,10
21:28:00,12,13,7,12,6,11,8,10,10
21:29:00,5,9,10,13,14,8,12,10,10
21:30:00,11,13,9,9,4,10,4,9,9
21:31:00,8,7,12,5,8,4,7,8,7
21:32:00,6,15,12,8,9,7,7,10,9
21:33:00,18,7,8,10,12,13,11,11,11
21:34:00,8,5,11,9,10,8,6,9,8
21:35:00,4,14,6,15,7,6,8,9,9
21:36:00,9,10,14,15,6,7,8,11,10
21:37:00,6,16,16,6,10,11,2,11,10
21:38:00,4,13,11,10,6,8,6,9,8
21:39:00,8,18,13,5,12,5,8,11,10
21:40:00,7,9,10,8,13,1,6,9,8
21:41:00,9,21,17,11,6,4,8,13,11
21:42:00,5,14,7,12,12,8,8,10,9
21:43:00,7,9,13,14,5,6,2,10,8
21:44:00,5,8,8,12,16,6,4,10,8
21:45:00,6,5,14,7,6,13,4,8,8
21:46:00,13,6,12,14,11,6,6,11,10
21:47:00,4,10,12,8,6,6,5,8,7
21:48:00,8,6,13,11,21,8,4,12,10
21:49:00,5,5,18,7,13,8,9,10,9
21:50:00,5,10,18,10,6,9,7,10,9
21:51:00,8,11,11,8,9,10,4,9,9
21:52:00,10,11,19,6,8,10,5,11,10
21:53:00,5,17,13,7,11,7,7,11,10
21:54:00,3,10,17,5,12,7,4,9,8
21:55:00,6,6,17,8,10,6,3,9,8
21:56:00,5,8,16,8,7,4,10,9,8
21:57:00,6,15,15,19,5,8,6,12,11
21:58:00,7,11,17,12,4,6,3,10,9
21:59:00,9,14,22,8,7,13,6,12,11
22:00:00,8,8,15,5,19,10,5,11,10
22:01:00,5,8,18,12,8,4,5,10,9
22:02:00,7,8,19,12,7,12,5,11,10
22:03:00,8,6,12,8,7,7,6,8,8
22:04:00,9,5,27,6,6,6,3,11,9
22:05:00,7,9,22,9,8,8,8,11,10
22:06:00,7,10,26,4,15,7,10,12,11
22:07:00,10,10,23,7,10,3,10,12,10
22:08:00,12,9,24,14,9,13,8,14,13
22:09:00,9,3,26,8,13,7,6,12,10
22:10:00,11,14,20,7,10,14,8,12,12
22:11:00,14,11,27,16,13,11,3,16,14
22:12:00,10,6,28,17,12,8,6,15,12
22:13:00,10,14,24,9,17,7,6,15,12
22:14:00,12,6,22,16,11,5,4,13,11
22:15:00,9,15,27,13,8,10,2,14,12
22:16:00,7,9,25,6,15,6,5,12,10
22:17:00,11,9,18,9,15,4,6,12,10
22:18:00,8,10,23,13,6,10,3,12,10
22:19:00,10,7,21,7,17,8,4,12,11
22:20:00,11,10,18,10,11,6,5,12,10
22:21:00,3,7,10,13,10,10,2,9,8
22:22:00,12,9,20,9,10,8,3,12,10
22:23:00,9,3,18,10,9,14,11,10,11
22:24:00,6,4,15,9,5,3,3,8,6
22:25:00,6,4,10,11,6,18,1,7,8
22:26:00,7,6,13,16,13,13,3,11,10
22:27:00,3,13,21,5,13,7,9,11,10
22:28:00,5,7,21,9,11,8,4,11,9
22:29:00,6,5,19,9,8,13,5,9,9
22:30:00,2,5,16,12,15,9,6,10,9
22:31:00,6,9,19,8,8,12,8,10,10
22:32:00,1,8,15,15,5,9,7,9,9
22:33:00,6,13,19,9,16,9,5,13,11
22:34:00,9,10,11,3,9,8,2,8,7
22:35:00,11,6,14,8,9,10,3,10,9
22:36:00,5,6,5,5,8,6,1,6,5
22:37:00,6,9,12,8,10,9,2,9,8
22:38:00,7,12,14,6,16,7,2,11,9
22:39:00,8,7,9,4,8,6,3,7,6
22:40:00,8,3,9,3,8,11,2,6,6
22:41:00,3,7,15,3,9,8,2,7,7
22:42:00,4,8,4,12,6,6,0,7,6
22:43:00,2,5,12,7,17,6,2,9,7
22:44:00,8,4,2,6,10,7,1,6,5
22:45:00,6,4,8,8,5,6,4,6,6
22:46:00,6,9,11,9,9,12,8,9,9
22:47:00,3,11,8,12,9,6,3,9,7
22:48:00,4,6,6,3,9,9,4,6,6
22:49:00,3,5,3,9,3,9,1,5,5
22:50:00,3,4,6,7,4,7,4,5,5
22:51:00,6,6,5,6,5,7,3,6,5
22:52:00,2,1,4,6,7,9,2,4,4
22:53:00,2,2,8,1,8,7,5,4,5
22:54:00,4,5,3,3,6,11,1,4,5
22:55:00,5,7,4,5,8,10,4,6,6
22:56:00,2,3,9,4,8,7,4,5,5
22:57:00,1,2,9,5,1,5,2,4,4
22:58:00,1,2,4,4,9,13,1,4,5
22:59:00,3,5,7,5,6,8,2,5,5
23:00:00,1,4,6,2,8,5,2,4,4
23:01:00,2,4,5,6,5,3,2,4,4
23:02:00,0,2,4,3,6,9,1,3,4
23:03:00,4,2,8,10,9,11,2,7,7
23:04:00,2,1,5,7,7,3,2,4,4
23:05:00,6,7,5,5,9,7,2,6,6
23:06:00,4,6,2,4,8,5,4,5,5
23:07:00,3,6,2,3,8,5,3,4,4
23:08:00,4,5,4,6,4,6,3,5,5
23:09:00,6,7,5,3,6,5,3,5,5
23:10:00,3,7,2,5,10,8,1,5,5
23:11:00,2,6,7,4,9,6,2,6,5
23:12:00,4,3,7,5,6,6,2,5,5
23:13:00,0,5,6,3,5,7,9,4,5
23:14:00,3,2,3,3,8,3,1,4,3
23:15:00,1,1,5,1,10,9,2,4,4
23:16:00,0,3,2,5,12,6,3,4,4
23:17:00,4,3,4,8,7,8,0,5,5
23:18:00,3,5,5,3,11,8,2,5,5
23:19:00,4,4,3,3,3,10,2,3,4
23:20:00,7,5,7,6,5,7,0,6,5
23:21:00,3,2,4,3,8,9,2,4,4
23:22:00,0,4,0,5,7,3,4,3,3
23:23:00,5,5,5,5,5,4,3,5,5
23:24:00,3,2,4,4,8,8,2,4,4
23:25:00,5,1,4,7,7,9,2,5,5
23:26:00,4,3,7,5,10,5,2,6,5
23:27:00,5,1,2,0,10,8,2,4,4
23:28:00,1,2,4,4,5,6,3,3,4
23:29:00,0,2,7,3,4,3,1,3,3
23:30:00,5,3,4,7,8,12,2,5,6
23:31:00,2,4,0,2,8,5,1,3,3
23:32:00,2,2,2,0,3,7,2,2,3
23:33:00,4,3,1,1,8,4,6,3,4
23:34:00,2,1,2,6,7,7,0,4,4
23:35:00,3,2,3,5,6,4,2,4,4
23:36:00,2,6,5,1,5,2,1,4,3
23:37:00,2,5,4,6,5,6,4,4,5
23:38:00,4,4,2,4,6,8,0,4,4
23:39:00,3,2,1,2,0,4,1,2,2
23:40:00,0,0,1,4,8,2,0,3,2
23:41:00,1,8,6,4,5,3,2,5,4
23:42:00,3,1,5,4,5,4,1,4,3
23:43:00,1,2,2,4,4,5,2,3,3
23:44:00,0,3,2,0,6,4,1,2,2
23:45:00,1,2,7,5,5,5,2,4,4
23:46:00,1,2,1,4,6,6,2,3,3
23:47:00,2,2,2,7,4,8,0,3,4
23:48:00,0,2,3,6,2,6,1,3,3
23:49:00,3,2,1,4,4,8,2,3,3
23:50:00,0,3,6,1,3,5,5,3,3
23:51:00,0,4,4,2,5,7,1,3,3
23:52:00,4,3,0,0,3,6,1,2,2
23:53:00,0,1,2,3,6,10,1,2,3
23:54:00,1,1,3,1,4,6,1,2,2
23:55:00,2,0,3,2,4,6,3,2,3
23:56:00,2,0,6,1,4,9,0,3,3
23:57:00,4,3,4,2,6,5,2,4,4
23:58:00,1,2,2,2,2,8,6,2,3
23:59:00,3,3,3,4,5,7,1,4,4
,,,,,,,,,
Totals,,,,,,,,,
12H(7-19),19934,20515,20869,20496,20677,17206,15322,20498,19288
16H(6-22),23142,23991,24535,23947,23955,19701,17369,23914,22377
18H(6-24),23678,24606,25639,24667,24895,20581,17744,24697,23116
24H(0-24),24210,25148,26174,25174,25433,21102,,25228,23643
,,,,,,,,,
AM Peak,07:27:00,07:34:00,07:16:00,11:00:00,10:54:00,11:00:00,,07:24:00,09:37:00
,1711,1783,1719,1720,1757,1783,,1681,1593
,,,,,,,,,
PM Peak,16:59:00,16:40:00,16:11:00,16:54:00,15:58:00,12:17:00,12:10:00,16:51:00,16:10:00
,2031,2105,2064,2034,1971,1936,1737,2005,1840
,,,,,,,,,
,,,,,,,,,
CA Traffic,,,,,,,,,VDA-net R2 15/11/2019
