Site Number,00008012,Unnamed: 2,Site Reference,00008012.1,Unnamed: 5,Unnamed: 6,Lat/Lng.,"52.05994,1.13510",Unnamed: 9
Radar 8012 Yarrmouth Road Ipswich,,,,,,,,,
Vehicle Count Report,,,,Week Begin: 14 October 2019,,,Channel:,Total Flow,
,,,,,,,,,
,,,,,,,,,
,2019-10-14 00:00:00,2019-10-15 00:00:00,2019-10-16 00:00:00,2019-10-17 00:00:00,2019-10-18 00:00:00,2019-10-19 00:00:00,2019-10-20 00:00:00,"5-Day
Ave.","7-Day
Ave."
00:00:00,2,1,3,0,2,3,9,2,3
00:01:00,4,3,3,3,3,5,4,3,4
00:02:00,3,4,4,2,3,6,4,3,4
00:03:00,0,1,1,2,1,5,3,1,2
00:04:00,3,2,2,2,3,1,5,2,3
00:05:00,2,3,4,4,0,7,5,3,4
00:06:00,1,3,4,4,5,5,8,3,4
00:07:00,2,2,1,3,2,6,5,2,3
00:08:00,2,0,7,3,3,3,2,3,3
00:09:00,2,2,2,1,3,1,7,2,3
00:10:00,2,2,1,5,0,4,4,2,3
00:11:00,2,3,2,2,4,8,5,3,4
00:12:00,8,0,2,2,4,12,12,3,6
00:13:00,2,3,2,2,0,5,5,2,3
00:14:00,2,2,4,2,1,5,2,2,3
00:15:00,2,1,1,5,4,2,6,3,3
00:16:00,1,2,2,2,4,6,5,2,3
00:17:00,1,1,3,1,1,9,3,1,3
00:18:00,3,2,0,2,4,4,6,2,3
00:19:00,1,1,2,0,1,2,8,1,2
00:20:00,2,1,3,5,4,3,3,3,3
00:21:00,1,2,1,2,4,4,6,2,3
00:22:00,2,2,1,4,5,2,6,3,3
00:23:00,2,2,2,1,3,4,6,2,3
00:24:00,1,2,1,1,1,6,7,1,3
00:25:00,0,1,3,1,1,2,4,1,2
00:26:00,0,2,1,0,2,2,4,1,2
00:27:00,0,2,4,8,4,4,1,4,3
00:28:00,2,3,2,3,2,3,4,2,3
00:29:00,2,1,3,3,4,5,2,3,3
00:30:00,1,3,0,1,4,4,1,2,2
00:31:00,1,1,3,0,3,1,6,2,2
00:32:00,3,2,2,3,3,3,7,3,3
00:33:00,1,1,1,0,2,3,0,1,1
00:34:00,1,2,2,2,5,6,1,2,3
00:35:00,3,0,0,1,2,3,5,1,2
00:36:00,1,4,0,2,4,1,6,2,3
00:37:00,1,2,0,3,3,2,7,2,3
00:38:00,4,2,1,1,5,2,1,3,2
00:39:00,1,2,3,1,2,4,7,2,3
00:40:00,2,1,0,3,4,4,5,2,3
00:41:00,2,0,0,1,0,7,2,1,2
00:42:00,1,1,0,1,1,5,4,1,2
00:43:00,2,0,1,1,6,2,5,2,2
00:44:00,2,2,0,0,2,2,4,1,2
00:45:00,3,3,2,3,7,1,1,4,3
00:46:00,2,2,1,2,4,3,4,2,3
00:47:00,0,0,1,2,3,3,3,1,2
00:48:00,0,1,2,0,5,2,3,2,2
00:49:00,2,3,0,0,1,3,5,1,2
00:50:00,3,0,3,1,2,4,4,2,2
00:51:00,1,0,1,0,1,0,1,1,1
00:52:00,1,2,3,2,5,0,6,3,3
00:53:00,0,1,2,3,2,3,4,2,2
00:54:00,2,0,6,2,3,5,1,3,3
00:55:00,4,0,1,7,3,1,10,3,4
00:56:00,0,0,2,6,1,6,2,2,2
00:57:00,2,0,1,3,0,2,3,1,2
00:58:00,1,0,3,2,2,3,2,2,2
00:59:00,2,0,1,3,0,5,1,1,2
01:00:00,0,3,1,3,2,4,3,2,2
01:01:00,1,2,0,2,1,1,2,1,1
01:02:00,2,1,2,3,2,2,4,2,2
01:03:00,1,2,0,0,0,1,3,1,1
01:04:00,1,0,0,3,3,2,1,1,1
01:05:00,1,2,3,1,0,1,3,1,2
01:06:00,1,0,0,3,3,2,7,1,2
01:07:00,2,1,0,1,1,3,5,1,2
01:08:00,0,3,1,2,2,2,3,2,2
01:09:00,1,1,0,0,1,0,3,1,1
01:10:00,3,1,3,2,0,3,2,2,2
01:11:00,0,2,0,1,2,2,3,1,1
01:12:00,0,1,2,2,1,1,4,1,2
01:13:00,2,1,0,1,1,3,2,1,1
01:14:00,0,1,0,3,5,0,2,2,2
01:15:00,0,1,1,0,3,2,1,1,1
01:16:00,0,1,0,1,1,1,7,1,2
01:17:00,1,1,3,1,1,0,2,1,1
01:18:00,0,1,0,1,1,1,7,1,2
01:19:00,1,1,0,4,1,4,1,1,2
01:20:00,0,1,0,2,1,3,2,1,1
01:21:00,0,0,2,1,2,5,1,1,2
01:22:00,1,0,2,1,3,1,3,1,2
01:23:00,0,0,0,2,3,2,2,1,1
01:24:00,0,0,1,2,1,2,4,1,1
01:25:00,2,2,1,1,2,2,1,2,2
01:26:00,1,0,1,2,0,1,5,1,1
01:27:00,0,0,2,0,3,3,2,1,1
01:28:00,2,0,0,2,1,2,2,1,1
01:29:00,2,0,2,1,0,1,2,1,1
01:30:00,0,1,1,1,3,3,2,1,2
01:31:00,3,0,0,1,2,0,1,1,1
01:32:00,0,0,1,1,1,2,3,1,1
01:33:00,1,0,1,1,1,0,2,1,1
01:34:00,1,0,2,2,0,3,5,1,2
01:35:00,0,2,1,2,3,1,1,2,1
01:36:00,1,0,1,1,3,0,1,1,1
01:37:00,1,1,2,1,0,0,2,1,1
01:38:00,1,3,0,1,0,4,0,1,1
01:39:00,1,0,0,0,2,3,0,1,1
01:40:00,0,1,0,0,0,3,0,0,1
01:41:00,0,2,1,2,0,3,1,1,1
01:42:00,0,0,0,0,3,1,2,1,1
01:43:00,1,0,1,2,3,1,2,1,1
01:44:00,1,1,1,1,3,2,2,1,2
01:45:00,0,1,1,2,1,0,3,1,1
01:46:00,1,3,0,3,1,2,1,2,2
01:47:00,1,0,1,1,0,1,0,1,1
01:48:00,0,2,0,2,0,0,2,1,1
01:49:00,0,2,0,1,1,0,1,1,1
01:50:00,1,1,0,1,1,0,3,1,1
01:51:00,1,1,1,2,1,0,1,1,1
01:52:00,2,1,1,0,2,1,2,1,1
01:53:00,1,2,0,3,0,3,3,1,2
01:54:00,4,2,1,1,1,1,2,2,2
01:55:00,0,1,0,0,1,2,3,0,1
01:56:00,1,3,1,1,1,2,1,1,1
01:57:00,1,1,0,1,2,3,7,1,2
01:58:00,0,0,1,4,2,3,4,1,2
01:59:00,0,0,1,1,1,1,2,1,1
02:00:00,1,0,0,0,1,2,0,0,1
02:01:00,0,1,0,1,1,1,2,1,1
02:02:00,1,0,0,0,2,0,0,1,0
02:03:00,1,1,1,1,1,0,1,1,1
02:04:00,1,0,2,1,0,1,4,1,1
02:05:00,1,1,1,1,0,0,1,1,1
02:06:00,0,3,1,1,1,0,2,1,1
02:07:00,2,1,0,1,2,2,4,1,2
02:08:00,1,1,2,1,0,0,3,1,1
02:09:00,0,0,1,0,1,3,0,0,1
02:10:00,1,1,0,0,0,0,1,0,0
02:11:00,0,0,1,1,1,3,2,1,1
02:12:00,0,0,1,2,1,2,3,1,1
02:13:00,0,1,0,0,3,2,4,1,1
02:14:00,1,0,0,1,1,1,1,1,1
02:15:00,0,0,0,1,1,1,1,0,1
02:16:00,1,0,1,0,1,3,0,1,1
02:17:00,0,8,0,0,4,1,2,2,2
02:18:00,0,1,1,0,0,0,1,0,0
02:19:00,0,1,1,1,1,2,0,1,1
02:20:00,0,0,0,1,0,0,0,0,0
02:21:00,4,0,0,1,2,2,2,1,2
02:22:00,1,0,1,0,0,1,0,0,0
02:23:00,0,0,0,0,1,2,0,0,0
02:24:00,1,0,0,0,0,1,1,0,0
02:25:00,0,3,1,1,0,1,3,1,1
02:26:00,1,0,1,2,0,0,0,1,1
02:27:00,0,1,0,2,3,1,3,1,1
02:28:00,0,0,0,2,0,2,2,0,1
02:29:00,1,0,1,2,1,1,2,1,1
02:30:00,1,2,2,3,0,1,3,2,2
02:31:00,1,0,1,1,0,0,0,1,0
02:32:00,0,0,1,2,2,1,3,1,1
02:33:00,0,0,2,0,0,1,0,0,0
02:34:00,0,0,0,1,0,1,0,0,0
02:35:00,1,0,1,1,1,2,3,1,1
02:36:00,1,0,1,1,0,0,1,1,1
02:37:00,0,1,1,0,1,0,2,1,1
02:38:00,0,0,1,0,1,0,0,0,0
02:39:00,0,2,0,3,0,1,1,1,1
02:40:00,1,0,0,1,0,0,3,0,1
02:41:00,0,0,0,1,0,1,1,0,0
02:42:00,0,0,1,0,2,0,1,1,1
02:43:00,3,0,1,0,0,1,1,1,1
02:44:00,1,0,1,0,1,0,0,1,0
02:45:00,0,1,1,1,1,2,1,1,1
02:46:00,0,1,1,2,0,0,1,1,1
02:47:00,0,1,1,1,0,2,1,1,1
02:48:00,0,0,0,0,0,1,4,0,1
02:49:00,0,3,0,0,2,0,2,1,1
02:50:00,1,0,3,3,0,1,3,1,2
02:51:00,0,1,1,0,1,0,1,1,1
02:52:00,0,0,0,0,1,1,5,0,1
02:53:00,0,2,1,0,2,2,0,1,1
02:54:00,1,1,1,2,1,2,2,1,1
02:55:00,0,0,1,2,1,0,2,1,1
02:56:00,0,0,3,3,1,0,0,1,1
02:57:00,0,2,2,0,1,1,1,1,1
02:58:00,0,2,1,1,0,2,1,1,1
02:59:00,1,1,1,0,4,2,0,1,1
03:00:00,1,1,1,0,0,2,1,1,1
03:01:00,0,0,1,0,0,0,2,0,0
03:02:00,0,1,1,1,1,1,2,1,1
03:03:00,1,2,2,0,1,5,3,1,2
03:04:00,0,0,1,0,2,4,1,1,1
03:05:00,0,1,0,1,1,3,1,1,1
03:06:00,0,0,0,3,1,0,0,1,1
03:07:00,0,2,0,1,1,0,1,1,1
03:08:00,1,0,1,0,1,1,1,1,1
03:09:00,0,4,2,0,0,3,0,1,1
03:10:00,0,1,1,3,0,1,2,1,1
03:11:00,2,2,2,0,1,0,3,1,1
03:12:00,0,0,3,0,0,1,0,1,1
03:13:00,1,1,1,1,4,1,2,2,2
03:14:00,1,0,0,2,1,2,0,1,1
03:15:00,1,2,0,1,0,0,1,1,1
03:16:00,3,1,1,2,1,2,0,2,1
03:17:00,2,0,1,1,0,2,2,1,1
03:18:00,0,1,0,1,1,3,2,1,1
03:19:00,0,0,2,0,0,2,2,0,1
03:20:00,0,0,0,2,3,1,3,1,1
03:21:00,2,4,0,3,0,0,3,2,2
03:22:00,0,1,1,3,2,0,4,1,2
03:23:00,0,1,2,0,0,1,1,1,1
03:24:00,0,0,0,1,2,3,0,1,1
03:25:00,1,1,1,2,4,1,2,2,2
03:26:00,1,0,0,2,0,1,0,1,1
03:27:00,2,0,1,2,0,1,0,1,1
03:28:00,0,0,0,1,1,1,3,0,1
03:29:00,2,1,1,1,0,3,1,1,1
03:30:00,1,1,1,1,2,1,0,1,1
03:31:00,3,2,3,0,2,3,1,2,2
03:32:00,0,0,0,1,1,1,2,0,1
03:33:00,0,1,1,0,1,2,2,1,1
03:34:00,2,0,1,1,1,0,0,1,1
03:35:00,0,0,0,0,1,1,2,0,1
03:36:00,1,2,0,1,0,0,3,1,1
03:37:00,4,0,1,1,0,1,1,1,1
03:38:00,1,0,3,2,0,1,2,1,1
03:39:00,0,1,3,2,0,0,1,1,1
03:40:00,0,2,0,2,1,1,2,1,1
03:41:00,0,1,0,1,4,1,0,1,1
03:42:00,1,2,0,2,0,1,0,1,1
03:43:00,0,0,2,0,0,0,0,0,0
03:44:00,0,0,1,0,1,1,3,0,1
03:45:00,1,0,1,1,0,1,0,1,1
03:46:00,2,0,3,3,1,3,0,2,2
03:47:00,1,2,0,4,0,0,0,1,1
03:48:00,3,2,0,0,3,2,2,2,2
03:49:00,6,1,0,1,2,1,1,2,2
03:50:00,0,6,3,1,1,3,1,2,2
03:51:00,0,2,1,0,1,1,0,1,1
03:52:00,3,1,2,1,0,1,1,1,1
03:53:00,1,1,2,1,2,5,0,1,2
03:54:00,0,0,0,1,2,0,0,1,0
03:55:00,4,0,3,0,0,1,1,1,1
03:56:00,0,1,1,0,1,1,1,1,1
03:57:00,1,2,1,5,0,2,1,2,2
03:58:00,4,2,1,1,4,1,0,2,2
03:59:00,0,1,5,1,1,0,0,2,1
04:00:00,1,0,1,2,1,2,1,1,1
04:01:00,2,2,0,0,0,1,3,1,1
04:02:00,1,4,1,0,0,1,0,1,1
04:03:00,2,4,4,0,0,1,2,2,2
04:04:00,0,2,1,0,0,0,1,1,1
04:05:00,3,1,1,3,3,2,0,2,2
04:06:00,3,1,0,2,1,4,0,1,2
04:07:00,0,3,3,3,2,2,3,2,2
04:08:00,3,1,0,0,0,6,1,1,2
04:09:00,3,4,3,1,3,0,2,3,2
04:10:00,1,0,3,0,2,2,1,1,1
04:11:00,0,0,2,2,2,2,1,1,1
04:12:00,6,2,1,1,1,0,1,2,2
04:13:00,0,1,1,1,1,2,2,1,1
04:14:00,2,4,0,1,3,1,1,2,2
04:15:00,6,1,2,0,0,1,0,2,1
04:16:00,0,0,3,2,2,3,0,1,1
04:17:00,3,1,1,3,1,1,0,2,1
04:18:00,1,1,1,2,2,3,1,1,2
04:19:00,3,2,3,0,0,4,4,2,2
04:20:00,1,0,2,1,4,1,1,2,1
04:21:00,5,1,1,2,0,3,1,2,2
04:22:00,0,2,1,2,0,1,2,1,1
04:23:00,2,2,2,2,1,1,2,2,2
04:24:00,5,2,2,1,2,1,1,2,2
04:25:00,1,0,2,3,2,0,1,2,1
04:26:00,0,1,2,1,1,0,1,1,1
04:27:00,3,2,1,1,0,1,4,1,2
04:28:00,1,5,2,4,0,2,1,2,2
04:29:00,3,4,3,3,5,0,0,4,3
04:30:00,4,2,1,2,2,3,1,2,2
04:31:00,4,0,2,2,1,0,1,2,1
04:32:00,1,2,3,0,4,1,1,2,2
04:33:00,0,2,1,5,1,3,1,2,2
04:34:00,2,1,1,2,3,1,1,2,2
04:35:00,1,4,4,3,4,1,2,3,3
04:36:00,2,1,0,1,5,4,2,2,2
04:37:00,3,2,4,3,1,0,3,3,2
04:38:00,4,2,6,5,3,2,1,4,3
04:39:00,1,4,0,2,3,2,2,2,2
04:40:00,4,2,3,4,2,0,1,3,2
04:41:00,1,4,1,4,2,3,0,2,2
04:42:00,2,5,0,4,6,2,1,3,3
04:43:00,2,2,1,2,0,2,1,1,1
04:44:00,3,3,2,0,6,0,2,3,2
04:45:00,2,2,2,6,5,3,2,3,3
04:46:00,3,1,1,2,4,1,2,2,2
04:47:00,3,2,4,2,1,2,0,2,2
04:48:00,2,8,3,2,6,0,2,4,3
04:49:00,4,8,3,3,2,0,1,4,3
04:50:00,7,5,3,4,5,2,3,5,4
04:51:00,1,2,4,5,4,4,3,3,3
04:52:00,7,1,1,6,2,3,0,3,3
04:53:00,4,6,1,2,4,1,2,3,3
04:54:00,1,1,3,3,2,4,1,2,2
04:55:00,6,3,8,6,4,1,2,5,4
04:56:00,0,3,1,4,4,5,1,2,3
04:57:00,7,2,1,3,5,5,1,4,3
04:58:00,8,5,7,4,6,0,2,6,5
04:59:00,2,2,4,1,2,5,2,2,3
05:00:00,5,8,8,6,5,2,1,6,5
05:01:00,5,3,7,2,1,2,4,4,3
05:02:00,6,4,5,4,5,3,2,5,4
05:03:00,7,10,4,3,3,4,1,5,5
05:04:00,4,7,4,7,2,3,4,5,4
05:05:00,6,1,5,1,5,4,4,4,4
05:06:00,3,5,9,5,5,0,1,5,4
05:07:00,3,4,2,6,2,5,3,3,4
05:08:00,6,4,3,5,2,2,2,4,3
05:09:00,5,4,4,4,3,4,2,4,4
05:10:00,6,8,8,7,3,1,2,6,5
05:11:00,6,6,4,6,7,4,0,6,5
05:12:00,6,6,7,7,5,0,2,6,5
05:13:00,3,3,4,3,4,9,0,3,4
05:14:00,9,6,4,8,7,4,3,7,6
05:15:00,5,3,5,4,4,4,2,4,4
05:16:00,5,7,8,4,5,1,0,6,4
05:17:00,10,4,9,8,8,2,0,8,6
05:18:00,2,10,2,4,5,9,2,5,5
05:19:00,4,9,5,7,2,4,2,5,5
05:20:00,2,4,8,8,3,2,2,5,4
05:21:00,6,8,7,6,5,1,0,6,5
05:22:00,4,8,8,6,7,4,3,7,6
05:23:00,6,4,2,2,5,4,3,4,4
05:24:00,3,3,9,6,6,4,2,5,5
05:25:00,3,7,8,5,10,4,4,7,6
05:26:00,9,12,7,4,4,3,2,7,6
05:27:00,2,5,1,8,3,4,5,4,4
05:28:00,7,5,6,10,8,2,2,7,6
05:29:00,4,6,5,7,8,5,2,6,5
05:30:00,9,4,10,9,6,2,1,8,6
05:31:00,12,6,4,5,6,7,2,7,6
05:32:00,4,10,9,6,2,8,0,6,6
05:33:00,9,4,4,13,6,1,3,7,6
05:34:00,7,7,6,7,10,5,0,7,6
05:35:00,8,7,6,8,7,5,1,7,6
05:36:00,7,11,2,10,9,4,2,8,6
05:37:00,8,4,8,6,4,4,0,6,5
05:38:00,2,7,6,11,5,5,1,6,5
05:39:00,10,12,6,9,7,4,2,9,7
05:40:00,6,4,16,2,8,1,1,7,5
05:41:00,4,8,9,11,6,4,3,8,6
05:42:00,7,8,12,5,8,0,1,8,6
05:43:00,6,2,7,11,11,4,0,7,6
05:44:00,13,14,9,4,10,9,1,10,9
05:45:00,7,10,8,14,8,1,6,9,8
05:46:00,8,12,13,5,2,3,1,8,6
05:47:00,8,10,5,13,5,5,2,8,7
05:48:00,6,10,7,7,9,4,1,8,6
05:49:00,8,7,7,13,7,1,4,8,7
05:50:00,12,3,8,6,11,2,0,8,6
05:51:00,3,6,12,8,5,4,3,7,6
05:52:00,10,9,13,9,4,3,0,9,7
05:53:00,13,10,5,9,11,3,7,10,8
05:54:00,7,8,7,9,8,3,1,8,6
05:55:00,14,5,9,6,6,12,4,8,8
05:56:00,3,14,8,6,7,7,2,8,7
05:57:00,7,11,8,6,15,2,1,9,7
05:58:00,14,9,8,10,11,0,2,10,8
05:59:00,11,12,9,5,3,2,2,8,6
06:00:00,6,11,10,15,13,5,2,11,9
06:01:00,8,3,16,11,6,4,1,9,7
06:02:00,6,16,8,10,2,4,1,8,7
06:03:00,11,11,5,9,12,7,3,10,8
06:04:00,10,9,5,5,8,5,1,7,6
06:05:00,2,10,10,9,10,5,0,8,7
06:06:00,9,9,6,14,5,1,0,9,6
06:07:00,6,8,12,7,8,2,3,8,7
06:08:00,6,8,5,5,5,3,1,6,5
06:09:00,6,5,7,8,12,4,1,8,6
06:10:00,6,12,12,7,7,3,1,9,7
06:11:00,6,8,12,10,9,7,1,9,8
06:12:00,11,9,6,12,12,4,4,10,8
06:13:00,12,10,8,16,9,6,2,11,9
06:14:00,5,14,4,8,6,12,2,7,7
06:15:00,10,6,15,14,7,3,5,10,9
06:16:00,15,11,12,9,14,8,2,12,10
06:17:00,2,12,9,9,7,2,3,8,6
06:18:00,13,6,14,14,6,3,0,11,8
06:19:00,12,11,6,18,12,7,2,12,10
06:20:00,10,18,11,16,8,7,2,13,10
06:21:00,10,14,14,6,9,4,1,11,8
06:22:00,8,8,12,13,7,2,4,10,8
06:23:00,6,10,8,11,11,5,1,9,7
06:24:00,12,12,13,12,11,6,2,12,10
06:25:00,9,8,18,11,12,4,8,12,10
06:26:00,14,16,14,17,8,10,5,14,12
06:27:00,21,10,16,11,14,10,3,14,12
06:28:00,15,19,14,3,10,3,3,12,10
06:29:00,18,11,16,20,19,9,3,17,14
06:30:00,13,9,12,12,11,4,5,11,9
06:31:00,11,19,18,12,11,7,5,14,12
06:32:00,10,17,20,17,11,11,4,15,13
06:33:00,12,8,13,16,20,3,2,14,11
06:34:00,18,18,9,8,16,5,2,14,11
06:35:00,11,13,8,11,16,10,4,12,10
06:36:00,15,15,11,7,12,10,4,12,11
06:37:00,15,15,16,12,13,8,5,14,12
06:38:00,8,18,18,20,19,10,3,17,14
06:39:00,18,18,17,16,13,4,5,16,13
06:40:00,16,17,20,21,18,12,8,18,16
06:41:00,10,16,16,24,8,4,6,15,12
06:42:00,21,18,12,11,17,5,6,16,13
06:43:00,13,14,22,14,13,5,4,15,12
06:44:00,13,19,15,22,13,11,3,16,14
06:45:00,19,9,11,16,15,7,6,14,12
06:46:00,12,10,19,14,15,8,7,14,12
06:47:00,17,17,20,25,24,14,8,21,18
06:48:00,14,28,20,21,12,14,5,19,16
06:49:00,15,19,19,10,11,9,6,15,13
06:50:00,17,18,12,16,21,10,3,17,14
06:51:00,17,23,25,20,16,13,3,20,17
06:52:00,20,24,25,21,28,10,7,24,19
06:53:00,19,18,20,17,16,15,4,18,16
06:54:00,17,27,19,19,23,8,8,21,17
06:55:00,14,17,15,20,9,5,1,15,12
06:56:00,24,20,14,14,15,7,5,17,14
06:57:00,17,14,23,28,19,7,7,20,16
06:58:00,11,20,19,15,21,6,6,17,14
06:59:00,17,12,20,20,13,14,7,16,15
07:00:00,19,12,21,27,23,7,3,20,16
07:01:00,13,26,11,23,18,2,5,18,14
07:02:00,22,27,21,22,18,8,5,22,18
07:03:00,20,21,16,16,20,5,9,19,15
07:04:00,14,17,27,23,13,9,5,19,15
07:05:00,15,14,18,21,18,10,6,17,15
07:06:00,15,23,25,16,15,7,7,19,15
07:07:00,24,14,21,19,12,8,3,18,14
07:08:00,23,19,26,19,9,10,0,19,15
07:09:00,23,19,21,17,25,6,7,21,17
07:10:00,24,26,16,22,17,8,4,21,17
07:11:00,19,31,24,16,22,12,5,22,18
07:12:00,19,20,18,19,18,7,7,19,15
07:13:00,14,21,26,22,23,6,7,21,17
07:14:00,13,15,20,17,25,5,4,18,14
07:15:00,25,29,37,20,26,13,2,27,22
07:16:00,19,20,27,26,22,7,7,23,18
07:17:00,25,19,23,19,26,7,4,22,18
07:18:00,18,26,17,22,23,8,8,21,17
07:19:00,26,25,14,26,26,7,1,23,18
07:20:00,24,23,34,30,18,11,6,26,21
07:21:00,25,30,14,20,23,11,5,22,18
07:22:00,14,22,21,31,30,12,4,24,19
07:23:00,24,19,26,28,23,7,6,24,19
07:24:00,18,27,27,30,25,7,6,25,20
07:25:00,28,29,25,19,22,5,8,25,19
07:26:00,22,13,17,27,15,8,5,19,15
07:27:00,20,26,34,27,33,3,4,28,21
07:28:00,24,19,17,22,22,9,5,21,17
07:29:00,24,20,31,20,29,7,4,25,19
07:30:00,22,29,26,27,15,14,2,24,19
07:31:00,29,16,20,18,24,8,2,21,17
07:32:00,18,30,30,33,19,9,7,26,21
07:33:00,28,23,12,26,21,7,5,22,17
07:34:00,20,23,20,23,15,17,8,20,18
07:35:00,20,16,31,25,22,6,7,23,18
07:36:00,23,28,24,26,24,9,8,25,20
07:37:00,32,30,23,29,29,12,4,29,23
07:38:00,15,23,23,25,21,17,8,21,19
07:39:00,26,25,27,29,28,12,3,27,21
07:40:00,21,19,30,29,14,13,4,23,19
07:41:00,27,30,31,20,28,15,4,27,22
07:42:00,31,23,16,26,20,11,5,23,19
07:43:00,20,34,28,24,27,16,7,27,22
07:44:00,34,22,19,20,18,16,7,23,19
07:45:00,22,31,26,24,16,13,8,24,20
07:46:00,33,17,20,21,23,16,4,23,19
07:47:00,17,31,32,21,26,14,11,25,22
07:48:00,28,17,22,22,23,15,3,22,19
07:49:00,25,30,28,24,25,13,3,26,21
07:50:00,38,18,31,30,22,10,6,28,22
07:51:00,27,28,27,17,29,19,6,26,22
07:52:00,24,21,26,24,28,16,5,25,21
07:53:00,20,36,24,30,21,19,7,26,22
07:54:00,24,16,23,20,16,5,3,20,15
07:55:00,22,28,30,25,26,15,5,26,22
07:56:00,30,13,22,30,18,22,7,23,20
07:57:00,29,31,26,24,23,13,7,27,22
07:58:00,22,18,22,18,20,11,4,20,16
07:59:00,30,25,29,28,35,15,7,29,24
08:00:00,18,19,21,24,18,8,3,20,16
08:01:00,27,39,27,21,20,8,4,27,21
08:02:00,19,15,24,23,24,8,11,21,18
08:03:00,25,33,16,20,28,9,5,24,19
08:04:00,30,24,26,26,20,11,10,25,21
08:05:00,25,42,30,27,28,14,6,30,25
08:06:00,16,25,27,30,23,11,7,24,20
08:07:00,30,25,22,23,34,15,7,27,22
08:08:00,26,27,18,33,19,9,9,25,20
08:09:00,23,35,20,24,35,10,5,27,22
08:10:00,29,20,17,36,19,11,6,24,20
08:11:00,26,32,38,22,27,13,4,29,23
08:12:00,29,25,18,20,30,16,8,24,21
08:13:00,14,34,20,24,25,22,4,23,20
08:14:00,34,24,34,27,31,20,3,30,25
08:15:00,14,40,31,30,25,12,7,28,23
08:16:00,25,17,20,26,29,13,8,23,20
08:17:00,15,27,32,27,34,8,4,27,21
08:18:00,30,9,18,22,23,11,9,20,17
08:19:00,30,29,22,23,14,18,10,24,21
08:20:00,25,21,14,30,35,13,5,25,20
08:21:00,25,27,26,32,15,10,8,25,20
08:22:00,19,19,29,21,21,16,6,22,19
08:23:00,20,28,25,27,21,13,10,24,21
08:24:00,28,21,20,26,22,16,12,23,21
08:25:00,18,31,28,31,23,10,7,26,21
08:26:00,27,20,17,11,27,13,8,20,18
08:27:00,21,22,29,33,26,13,11,26,22
08:28:00,27,20,20,19,29,25,2,23,20
08:29:00,22,20,24,26,13,12,5,21,17
08:30:00,23,21,22,16,28,14,8,22,19
08:31:00,21,24,23,29,7,17,7,21,18
08:32:00,26,23,23,16,36,16,11,25,22
08:33:00,18,25,23,29,21,22,6,23,21
08:34:00,32,21,21,21,24,15,5,24,20
08:35:00,14,27,26,27,17,19,8,22,20
08:36:00,28,21,23,17,32,17,7,24,21
08:37:00,11,25,26,28,10,20,7,20,18
08:38:00,24,16,19,19,31,12,11,22,19
08:39:00,18,16,27,28,25,18,8,23,20
08:40:00,34,33,22,18,20,21,11,25,23
08:41:00,24,19,18,29,22,20,6,22,20
08:42:00,25,22,17,17,29,15,6,22,19
08:43:00,12,22,19,23,23,9,13,20,17
08:44:00,26,22,27,21,27,18,9,25,21
08:45:00,26,26,29,36,30,18,9,29,25
08:46:00,22,27,23,13,28,10,19,23,20
08:47:00,30,15,25,24,15,22,8,22,20
08:48:00,26,32,25,19,29,22,13,26,24
08:49:00,27,22,24,30,17,12,10,24,20
08:50:00,30,24,28,24,34,21,15,28,25
08:51:00,16,26,23,28,31,21,13,25,23
08:52:00,27,19,30,22,26,19,8,25,22
08:53:00,31,25,22,27,17,16,16,24,22
08:54:00,25,35,21,22,30,12,8,27,22
08:55:00,18,20,29,29,23,13,10,24,20
08:56:00,21,34,28,15,23,13,8,24,20
08:57:00,29,20,21,30,15,20,7,23,20
08:58:00,23,31,24,15,31,15,12,25,22
08:59:00,24,20,22,32,22,18,7,24,21
09:00:00,35,23,29,16,18,14,9,24,21
09:01:00,16,22,26,26,14,16,14,21,19
09:02:00,20,34,28,20,35,17,7,27,23
09:03:00,24,15,25,37,14,15,10,23,20
09:04:00,29,31,24,23,21,9,15,26,22
09:05:00,18,17,27,36,15,17,13,23,20
09:06:00,22,26,25,19,26,15,16,24,21
09:07:00,25,24,22,27,30,11,10,26,21
09:08:00,25,22,15,24,30,13,12,23,20
09:09:00,21,18,31,33,19,12,13,24,21
09:10:00,23,31,21,19,26,16,12,24,21
09:11:00,23,23,35,25,15,21,4,24,21
09:12:00,32,27,15,25,33,16,17,26,24
09:13:00,24,21,24,28,20,16,16,23,21
09:14:00,20,34,20,16,30,21,13,24,22
09:15:00,22,25,21,36,29,12,20,27,24
09:16:00,24,24,26,25,22,27,6,24,22
09:17:00,18,15,22,26,13,15,18,19,18
09:18:00,23,32,10,27,30,17,12,24,22
09:19:00,17,24,37,26,26,17,8,26,22
09:20:00,23,21,14,23,17,16,11,20,18
09:21:00,32,22,27,32,29,18,7,28,24
09:22:00,27,20,22,23,24,27,7,23,21
09:23:00,27,19,23,23,22,17,15,23,21
09:24:00,21,29,22,13,20,18,14,21,20
09:25:00,24,30,30,26,20,12,15,26,22
09:26:00,29,22,14,22,36,29,14,25,24
09:27:00,21,13,31,29,17,30,21,22,23
09:28:00,21,28,20,20,25,15,13,23,20
09:29:00,25,18,28,31,19,19,14,24,22
09:30:00,18,33,21,19,20,10,22,22,20
09:31:00,21,30,22,28,12,19,8,23,20
09:32:00,26,20,23,20,16,12,14,21,19
09:33:00,20,16,21,29,17,22,13,21,20
09:34:00,32,27,24,33,36,22,16,30,27
09:35:00,11,26,24,28,29,23,14,24,22
09:36:00,21,19,22,12,29,16,21,21,20
09:37:00,20,15,23,28,22,23,18,22,21
09:38:00,26,28,24,14,29,17,10,24,21
09:39:00,15,13,26,35,12,24,19,20,21
09:40:00,34,35,16,16,24,18,12,25,22
09:41:00,24,21,37,32,24,18,16,28,25
09:42:00,18,23,24,19,23,29,15,21,22
09:43:00,18,24,19,41,17,23,13,24,22
09:44:00,16,26,23,20,36,29,22,24,25
09:45:00,35,18,24,29,15,21,24,24,24
09:46:00,15,26,22,14,23,39,23,20,23
09:47:00,18,9,21,37,21,15,8,21,18
09:48:00,30,29,25,16,25,31,18,25,25
09:49:00,25,26,21,35,17,15,19,25,23
09:50:00,20,22,30,13,34,24,22,24,24
09:51:00,26,12,24,26,13,27,25,20,22
09:52:00,23,32,17,30,34,35,12,27,26
09:53:00,23,14,22,22,14,13,23,19,19
09:54:00,34,25,32,20,32,31,18,29,27
09:55:00,19,24,17,26,16,20,10,20,19
09:56:00,17,23,27,18,13,27,23,20,21
09:57:00,13,21,22,29,24,20,13,22,20
09:58:00,20,18,23,24,30,14,21,23,21
09:59:00,27,17,23,17,14,18,17,20,19
10:00:00,23,20,16,24,32,27,24,23,24
10:01:00,19,19,17,25,23,19,21,21,20
10:02:00,12,22,17,8,31,26,24,18,20
10:03:00,19,15,23,29,18,27,15,21,21
10:04:00,25,16,19,18,27,16,24,21,21
10:05:00,34,17,23,33,16,10,12,25,21
10:06:00,25,19,10,14,17,28,15,17,18
10:07:00,25,21,21,36,19,17,15,24,22
10:08:00,16,17,16,20,24,17,15,19,18
10:09:00,30,22,23,27,11,18,21,23,22
10:10:00,19,21,24,27,39,29,20,26,26
10:11:00,23,22,26,17,21,16,14,22,20
10:12:00,11,15,20,18,26,31,19,18,20
10:13:00,24,11,26,24,23,23,18,22,21
10:14:00,23,19,25,16,23,25,22,21,22
10:15:00,31,19,22,29,25,23,22,25,24
10:16:00,23,13,18,22,25,30,25,20,22
10:17:00,15,25,20,31,20,27,18,22,22
10:18:00,27,17,28,15,32,27,19,24,24
10:19:00,33,22,21,28,19,26,22,25,24
10:20:00,12,24,26,30,30,31,25,24,25
10:21:00,16,21,15,19,26,28,31,19,22
10:22:00,11,28,18,25,26,26,21,22,22
10:23:00,29,25,32,22,22,16,25,26,24
10:24:00,17,26,25,31,26,31,21,25,25
10:25:00,24,22,17,26,30,19,25,24,23
10:26:00,21,26,24,19,24,16,21,23,22
10:27:00,19,25,26,19,28,24,29,23,24
10:28:00,32,29,29,27,27,19,15,29,25
10:29:00,16,14,26,20,34,23,28,22,23
10:30:00,21,28,27,21,20,27,21,23,24
10:31:00,15,18,20,22,21,21,20,19,20
10:32:00,27,23,26,23,22,33,17,24,24
10:33:00,22,5,20,23,22,22,24,18,20
10:34:00,18,17,18,22,34,28,18,22,22
10:35:00,7,7,20,24,22,14,22,16,17
10:36:00,30,31,21,26,20,36,28,26,27
10:37:00,10,24,18,24,21,19,39,19,22
10:38:00,30,23,26,20,26,28,15,25,24
10:39:00,15,15,16,16,16,19,16,16,16
10:40:00,26,38,31,21,28,22,24,29,27
10:41:00,28,13,21,24,18,16,27,21,21
10:42:00,26,27,22,17,27,31,28,24,25
10:43:00,22,22,18,19,27,17,26,22,22
10:44:00,23,26,22,29,30,27,20,26,25
10:45:00,23,18,28,25,31,16,29,25,24
10:46:00,22,26,32,23,31,39,34,27,30
10:47:00,21,19,23,34,17,20,27,23,23
10:48:00,17,31,20,11,30,37,21,22,24
10:49:00,19,20,25,33,19,32,26,23,25
10:50:00,28,15,24,15,6,26,17,18,19
10:51:00,20,25,23,23,20,18,28,22,22
10:52:00,20,9,32,24,35,33,20,24,25
10:53:00,19,21,22,27,36,25,29,25,26
10:54:00,22,32,28,30,20,31,21,26,26
10:55:00,19,17,23,35,37,19,37,26,27
10:56:00,27,24,19,21,14,41,11,21,22
10:57:00,13,15,16,20,34,21,29,20,21
10:58:00,27,26,17,24,18,38,30,22,26
10:59:00,16,20,16,22,27,11,35,20,21
11:00:00,23,32,28,19,24,31,24,25,26
11:01:00,25,26,19,33,16,24,22,24,24
11:02:00,23,24,28,21,15,28,30,22,24
11:03:00,26,17,17,24,28,21,29,22,23
11:04:00,26,16,30,19,25,28,21,23,24
11:05:00,24,16,22,25,32,22,31,24,25
11:06:00,27,19,28,28,28,27,30,26,27
11:07:00,24,21,16,28,31,18,28,24,24
11:08:00,21,25,34,22,25,36,20,25,26
11:09:00,21,17,12,24,26,26,18,20,21
11:10:00,24,29,25,32,21,18,41,26,27
11:11:00,31,22,16,23,28,20,34,24,25
11:12:00,23,31,27,23,13,42,17,23,25
11:13:00,17,12,15,23,25,24,31,18,21
11:14:00,34,29,33,21,24,26,22,28,27
11:15:00,14,25,17,27,28,33,33,22,25
11:16:00,28,13,21,33,23,22,15,24,22
11:17:00,16,19,25,28,25,24,37,23,25
11:18:00,29,13,23,21,33,38,20,24,25
11:19:00,25,24,22,26,28,17,25,25,24
11:20:00,36,23,26,10,28,41,16,25,26
11:21:00,32,27,21,23,21,17,29,25,24
11:22:00,32,17,14,20,33,41,11,23,24
11:23:00,19,14,29,27,22,27,29,22,24
11:24:00,15,29,16,13,28,26,21,20,21
11:25:00,21,11,35,22,25,21,35,23,24
11:26:00,27,28,30,25,27,28,28,27,28
11:27:00,21,29,21,27,23,21,30,24,25
11:28:00,36,20,30,19,31,31,23,27,27
11:29:00,24,21,18,26,24,21,22,23,22
11:30:00,31,16,21,21,25,27,28,23,24
11:31:00,18,20,24,20,26,27,24,22,23
11:32:00,32,16,34,27,28,27,28,27,27
11:33:00,28,23,29,17,25,10,26,24,23
11:34:00,27,29,19,27,19,32,23,24,25
11:35:00,16,19,27,28,29,20,26,24,24
11:36:00,27,28,29,16,31,23,26,26,26
11:37:00,21,21,14,22,28,27,35,21,24
11:38:00,22,28,29,30,27,33,21,27,27
11:39:00,25,19,20,27,33,22,21,25,24
11:40:00,16,20,26,26,20,24,31,22,23
11:41:00,20,25,23,25,22,16,25,23,22
11:42:00,20,23,25,24,22,31,41,23,27
11:43:00,21,25,25,24,21,21,26,23,23
11:44:00,23,27,31,30,21,29,24,26,26
11:45:00,15,20,27,20,28,20,23,22,22
11:46:00,18,18,28,32,18,31,31,23,25
11:47:00,27,18,19,20,26,23,25,22,23
11:48:00,24,36,14,33,30,35,36,27,30
11:49:00,34,22,23,29,21,20,23,26,25
11:50:00,20,33,27,24,22,23,36,25,26
11:51:00,24,18,34,17,22,33,26,23,25
11:52:00,29,25,12,27,28,35,23,24,26
11:53:00,23,14,23,22,20,20,20,20,20
11:54:00,26,24,14,19,29,30,29,22,24
11:55:00,17,25,32,21,18,29,33,23,25
11:56:00,29,17,25,30,22,27,14,25,23
11:57:00,24,29,20,30,18,24,22,24,24
11:58:00,28,26,28,23,32,27,39,27,29
11:59:00,22,14,24,20,21,26,17,20,21
12:00:00,33,29,30,30,26,19,17,30,26
12:01:00,23,19,20,25,21,27,33,22,24
12:02:00,35,31,18,27,25,25,21,27,26
12:03:00,21,14,22,31,21,25,23,22,22
12:04:00,25,33,25,19,29,26,31,26,27
12:05:00,23,12,23,27,22,25,33,21,24
12:06:00,39,28,24,20,22,28,33,27,28
12:07:00,19,26,32,31,23,16,22,26,24
12:08:00,30,24,13,34,33,26,23,27,26
12:09:00,22,26,20,33,25,24,27,25,25
12:10:00,26,29,22,28,39,24,25,29,28
12:11:00,19,15,25,22,19,37,29,20,24
12:12:00,32,29,26,32,31,21,24,30,28
12:13:00,17,16,21,13,29,24,18,19,20
12:14:00,24,32,27,26,38,21,29,29,28
12:15:00,22,19,44,15,19,27,27,24,25
12:16:00,20,45,18,36,30,25,28,30,29
12:17:00,32,21,28,20,16,26,25,23,24
12:18:00,21,29,36,21,30,26,14,27,25
12:19:00,35,28,29,19,16,19,23,25,24
12:20:00,20,24,26,28,30,24,40,26,27
12:21:00,23,23,23,30,19,33,25,24,25
12:22:00,21,28,18,20,38,23,33,25,26
12:23:00,23,17,28,31,20,39,19,24,25
12:24:00,21,25,17,23,29,21,31,23,24
12:25:00,22,19,28,30,22,39,14,24,25
12:26:00,29,25,17,30,31,32,24,26,27
12:27:00,22,18,19,22,22,34,19,21,22
12:28:00,27,31,24,22,21,25,22,25,25
12:29:00,23,16,16,36,14,26,21,21,22
12:30:00,30,33,29,23,38,23,31,31,30
12:31:00,18,23,19,16,18,20,28,19,20
12:32:00,31,29,26,20,38,24,29,29,28
12:33:00,16,21,24,31,26,33,17,24,24
12:34:00,37,32,16,28,26,25,23,28,27
12:35:00,27,14,25,17,21,32,18,21,22
12:36:00,18,30,33,24,35,17,15,28,25
12:37:00,19,24,18,13,21,24,27,19,21
12:38:00,22,32,26,29,34,22,31,29,28
12:39:00,18,25,34,24,19,24,22,24,24
12:40:00,29,22,21,25,32,25,27,26,26
12:41:00,22,25,31,16,13,29,19,21,22
12:42:00,13,30,22,31,33,15,30,26,25
12:43:00,36,25,24,25,24,27,26,27,27
12:44:00,36,23,29,29,33,29,23,30,29
12:45:00,22,22,26,22,24,36,17,23,24
12:46:00,21,41,25,25,24,26,25,27,27
12:47:00,22,15,27,30,18,31,17,22,23
12:48:00,28,37,25,25,38,19,35,31,30
12:49:00,16,19,39,30,19,32,26,25,26
12:50:00,29,31,24,24,43,24,30,30,29
12:51:00,17,15,10,26,23,36,22,18,21
12:52:00,17,30,20,24,30,25,24,24,24
12:53:00,29,20,29,27,17,35,27,24,26
12:54:00,28,31,25,29,25,22,37,28,28
12:55:00,16,19,14,20,19,30,25,18,20
12:56:00,24,37,21,25,33,20,29,28,27
12:57:00,23,17,19,18,27,31,31,21,24
12:58:00,36,36,18,21,35,24,31,29,29
12:59:00,19,23,20,27,18,28,33,21,24
13:00:00,27,21,26,36,32,14,28,28,26
13:01:00,22,15,29,16,16,27,17,20,20
13:02:00,23,27,25,28,37,16,27,28,26
13:03:00,26,23,25,21,17,32,10,22,22
13:04:00,25,30,21,27,38,22,30,28,28
13:05:00,17,14,18,31,20,30,30,20,23
13:06:00,30,26,32,20,33,18,17,28,25
13:07:00,27,13,25,36,9,32,21,22,23
13:08:00,34,33,21,25,36,29,32,30,30
13:09:00,29,15,24,21,17,24,21,21,22
13:10:00,29,24,29,33,43,17,31,32,29
13:11:00,23,14,27,37,21,32,20,24,25
13:12:00,36,37,25,30,29,34,40,31,33
13:13:00,18,20,24,20,16,15,27,20,20
13:14:00,25,38,23,30,38,26,38,31,31
13:15:00,20,23,21,36,22,28,14,24,23
13:16:00,30,30,20,21,26,25,41,25,28
13:17:00,22,18,16,26,21,34,11,21,21
13:18:00,31,29,25,33,27,25,36,29,29
13:19:00,21,14,21,26,30,30,18,22,23
13:20:00,12,27,17,30,32,25,32,24,25
13:21:00,24,15,29,19,20,33,19,21,23
13:22:00,26,24,23,35,22,22,26,26,25
13:23:00,31,24,29,25,16,41,18,25,26
13:24:00,26,24,20,29,32,21,31,26,26
13:25:00,20,21,24,21,24,39,11,22,23
13:26:00,16,32,19,26,35,20,35,26,26
13:27:00,21,21,26,34,30,31,20,26,26
13:28:00,12,30,29,30,20,15,30,24,24
13:29:00,25,22,26,20,16,30,22,22,23
13:30:00,22,29,25,23,32,17,23,26,24
13:31:00,21,30,20,16,16,37,23,21,23
13:32:00,21,21,27,15,33,15,27,23,23
13:33:00,29,21,27,13,14,34,27,21,24
13:34:00,20,34,24,25,36,12,28,28,26
13:35:00,19,29,21,34,21,36,24,25,26
13:36:00,24,26,28,27,31,17,37,27,27
13:37:00,25,13,27,23,25,40,22,23,25
13:38:00,16,24,32,15,35,17,28,24,24
13:39:00,28,31,23,26,19,27,35,25,27
13:40:00,24,32,34,20,17,18,22,25,24
13:41:00,20,32,25,25,30,30,20,26,26
13:42:00,26,17,27,26,19,26,27,23,24
13:43:00,25,21,17,24,26,33,30,23,25
13:44:00,21,25,39,22,26,36,24,27,28
13:45:00,24,19,17,36,32,25,25,26,25
13:46:00,21,34,28,24,17,19,33,25,25
13:47:00,19,18,32,37,30,32,18,27,27
13:48:00,29,32,30,26,33,17,19,30,27
13:49:00,24,19,13,31,20,36,19,21,23
13:50:00,25,34,30,20,15,31,30,25,26
13:51:00,19,22,22,30,20,32,32,23,25
13:52:00,14,14,20,22,23,16,33,19,20
13:53:00,29,23,21,33,24,33,13,26,25
13:54:00,25,27,26,28,40,25,30,29,29
13:55:00,19,12,23,33,14,29,26,20,22
13:56:00,24,25,19,19,29,16,32,23,23
13:57:00,28,25,21,32,19,23,28,25,25
13:58:00,28,37,29,26,31,23,22,30,28
13:59:00,24,22,29,26,25,30,18,25,25
14:00:00,24,32,20,12,22,26,28,22,23
14:01:00,26,19,29,26,35,34,32,27,29
14:02:00,17,24,16,26,18,24,29,20,22
14:03:00,26,24,21,32,24,26,23,25,25
14:04:00,25,32,23,21,28,6,31,26,24
14:05:00,28,18,26,28,26,36,24,25,27
14:06:00,32,29,18,20,23,15,28,24,24
14:07:00,25,19,21,29,30,23,29,25,25
14:08:00,18,33,25,15,37,19,26,26,25
14:09:00,25,25,20,33,34,24,27,27,27
14:10:00,23,22,29,17,40,18,29,26,25
14:11:00,33,19,22,27,12,32,23,23,24
14:12:00,37,24,27,16,36,25,34,28,28
14:13:00,23,27,17,30,8,33,27,21,24
14:14:00,24,21,25,20,33,17,34,25,25
14:15:00,30,22,28,34,15,20,21,26,24
14:16:00,33,27,16,13,37,27,39,25,27
14:17:00,28,29,23,22,12,27,20,23,23
14:18:00,21,24,20,15,26,20,30,21,22
14:19:00,29,14,31,25,25,29,25,25,25
14:20:00,15,34,32,13,28,16,12,24,21
14:21:00,21,18,20,30,21,28,26,22,23
14:22:00,22,26,27,23,34,18,22,26,25
14:23:00,29,18,37,31,21,28,29,27,28
14:24:00,23,31,23,18,32,25,23,25,25
14:25:00,31,20,20,33,23,32,25,25,26
14:26:00,19,26,27,26,23,26,21,24,24
14:27:00,19,15,24,29,39,23,40,25,27
14:28:00,20,24,30,24,30,18,25,26,24
14:29:00,28,19,22,33,26,32,23,26,26
14:30:00,21,24,23,10,20,20,31,20,21
14:31:00,21,24,21,34,19,32,26,24,25
14:32:00,26,18,32,10,21,21,27,21,22
14:33:00,27,28,19,30,19,18,27,25,24
14:34:00,34,31,32,14,15,16,23,25,24
14:35:00,25,18,28,32,14,23,28,23,24
14:36:00,24,23,29,18,16,11,26,22,21
14:37:00,31,33,42,26,22,32,38,31,32
14:38:00,27,22,15,13,24,27,15,20,20
14:39:00,36,30,24,38,17,18,28,29,27
14:40:00,24,32,26,14,18,25,26,23,24
14:41:00,22,23,27,33,24,20,39,26,27
14:42:00,21,33,21,4,14,20,24,19,20
14:43:00,29,28,22,36,19,20,33,27,27
14:44:00,22,24,32,22,19,37,18,24,25
14:45:00,28,25,27,33,13,31,24,25,26
14:46:00,21,19,26,22,14,19,28,20,21
14:47:00,22,25,20,39,19,36,40,25,29
14:48:00,20,20,36,16,26,30,17,24,24
14:49:00,30,36,19,35,19,26,37,28,29
14:50:00,18,18,34,8,14,18,20,18,19
14:51:00,33,26,29,32,14,28,31,27,28
14:52:00,21,11,27,8,24,22,23,18,19
14:53:00,26,30,20,27,13,26,26,23,24
14:54:00,34,9,25,16,29,35,28,23,25
14:55:00,27,33,20,36,22,25,26,28,27
14:56:00,16,26,24,29,20,23,20,23,23
14:57:00,33,28,24,32,15,24,33,26,27
14:58:00,11,21,32,26,17,24,15,21,21
14:59:00,35,26,22,31,22,19,28,27,26
15:00:00,14,23,30,15,21,14,20,21,20
15:01:00,22,22,22,30,29,22,28,25,25
15:02:00,17,25,25,19,8,23,24,19,20
15:03:00,30,17,17,30,28,23,35,24,26
15:04:00,26,22,24,14,16,33,23,20,23
15:05:00,25,13,19,38,23,27,41,24,27
15:06:00,22,23,27,14,16,31,17,20,21
15:07:00,23,24,27,29,32,12,31,27,25
15:08:00,25,17,20,11,20,27,14,19,19
15:09:00,27,22,25,31,31,13,33,27,26
15:10:00,30,17,29,17,28,33,22,24,25
15:11:00,25,26,19,37,28,19,36,27,27
15:12:00,26,29,14,20,4,28,22,19,20
15:13:00,28,25,22,33,29,19,27,27,26
15:14:00,29,21,36,17,19,36,21,24,26
15:15:00,29,20,16,20,34,22,18,24,23
15:16:00,25,25,27,19,16,32,19,22,23
15:17:00,14,18,21,26,19,30,29,20,22
15:18:00,21,26,9,22,6,24,13,17,17
15:19:00,19,23,23,25,27,23,25,23,24
15:20:00,27,22,29,24,22,34,18,25,25
15:21:00,27,22,13,29,28,17,31,24,24
15:22:00,20,22,24,18,14,32,23,20,22
15:23:00,24,34,13,27,22,23,26,24,24
15:24:00,16,27,31,25,14,22,27,23,23
15:25:00,20,36,16,28,25,21,25,25,24
15:26:00,17,16,39,23,21,26,19,23,23
15:27:00,22,39,12,30,28,27,24,26,26
15:28:00,26,19,38,20,24,22,18,25,24
15:29:00,23,29,20,22,23,18,22,23,22
15:30:00,10,21,32,21,28,36,20,22,24
15:31:00,20,26,15,27,27,28,21,23,23
15:32:00,35,22,27,28,24,17,21,27,25
15:33:00,23,30,10,25,32,32,24,24,25
15:34:00,21,20,34,34,17,20,17,25,23
15:35:00,25,25,15,27,31,29,29,25,26
15:36:00,24,30,39,35,25,23,23,31,28
15:37:00,25,22,23,25,34,20,27,26,25
15:38:00,26,22,26,27,22,29,20,25,25
15:39:00,18,27,19,27,11,25,25,20,22
15:40:00,30,29,25,20,35,23,31,28,28
15:41:00,26,23,18,26,22,25,14,23,22
15:42:00,27,26,28,30,17,20,33,26,26
15:43:00,18,23,20,24,25,20,26,22,22
15:44:00,25,42,37,25,19,33,20,30,29
15:45:00,33,25,24,24,31,21,17,27,25
15:46:00,36,26,20,25,38,30,28,29,29
15:47:00,24,21,24,28,27,25,25,25,25
15:48:00,29,27,38,24,30,30,34,30,30
15:49:00,26,32,20,28,20,23,21,25,24
15:50:00,28,12,37,27,10,28,29,23,24
15:51:00,26,27,9,26,25,15,22,23,21
15:52:00,24,9,34,26,17,29,21,22,23
15:53:00,22,46,14,22,31,23,24,27,26
15:54:00,20,20,39,27,9,19,30,23,23
15:55:00,18,25,18,32,32,19,19,25,23
15:56:00,27,16,30,13,10,25,24,19,21
15:57:00,18,28,14,25,35,19,21,24,23
15:58:00,24,17,34,34,18,31,23,25,26
15:59:00,32,30,19,25,36,26,24,28,27
16:00:00,32,21,32,24,12,28,39,24,27
16:01:00,15,30,19,28,29,21,16,24,23
16:02:00,34,13,41,30,16,32,27,27,28
16:03:00,28,38,21,22,36,35,13,29,28
16:04:00,28,19,24,26,22,29,33,24,26
16:05:00,31,31,23,27,28,17,29,28,27
16:06:00,33,13,36,16,22,30,20,24,24
16:07:00,17,39,24,17,29,31,20,25,25
16:08:00,30,25,32,26,12,32,26,25,26
16:09:00,34,34,20,30,25,14,17,29,25
16:10:00,27,33,30,22,23,25,16,27,25
16:11:00,19,27,22,28,31,25,24,25,25
16:12:00,28,14,33,14,20,27,26,22,23
16:13:00,29,33,25,26,30,24,13,29,26
16:14:00,26,16,36,16,14,24,22,22,22
16:15:00,19,36,20,23,24,23,25,24,24
16:16:00,23,15,21,17,0,18,21,15,16
16:17:00,24,29,35,19,26,22,26,27,26
16:18:00,32,18,27,19,18,19,15,23,21
16:19:00,26,31,23,27,30,28,34,27,28
16:20:00,33,18,30,17,29,29,10,25,24
16:21:00,26,32,24,12,29,18,28,25,24
16:22:00,31,10,23,34,24,26,17,24,24
16:23:00,13,35,28,19,29,25,29,25,25
16:24:00,24,13,27,33,20,23,24,23,23
16:25:00,30,29,25,14,6,21,32,21,22
16:26:00,22,22,28,30,21,20,15,25,23
16:27:00,22,28,22,14,29,31,14,23,23
16:28:00,27,22,27,15,12,19,23,21,21
16:29:00,21,29,24,15,36,23,15,25,23
16:30:00,24,16,28,21,23,21,19,22,22
16:31:00,17,36,23,10,21,21,20,21,21
16:32:00,27,21,24,17,12,19,15,20,19
16:33:00,21,30,25,20,24,30,34,24,26
16:34:00,25,21,21,23,18,21,22,22,22
16:35:00,28,27,25,26,24,35,13,26,25
16:36:00,21,8,22,25,11,22,23,17,19
16:37:00,29,33,17,20,16,27,18,23,23
16:38:00,17,15,28,15,32,19,20,21,21
16:39:00,26,26,16,25,31,23,26,25,25
16:40:00,23,5,28,37,17,24,29,22,23
16:41:00,22,30,21,15,19,21,11,21,20
16:42:00,23,4,33,34,21,19,29,23,23
16:43:00,25,22,21,25,22,33,28,23,25
16:44:00,29,10,36,26,35,27,6,27,24
16:45:00,9,33,14,13,23,23,23,18,20
16:46:00,20,4,25,39,17,18,16,21,20
16:47:00,17,41,38,14,23,34,22,27,27
16:48:00,27,1,19,34,11,19,23,18,19
16:49:00,14,20,36,13,19,27,10,20,20
16:50:00,25,23,36,26,17,21,30,25,25
16:51:00,11,36,20,23,15,27,17,21,21
16:52:00,19,12,23,30,14,31,29,20,23
16:53:00,13,22,19,14,20,36,21,18,21
16:54:00,22,9,28,32,16,14,18,21,20
16:55:00,29,16,16,11,32,24,7,21,19
16:56:00,24,10,26,22,18,12,25,20,20
16:57:00,19,33,14,15,24,40,17,21,23
16:58:00,16,30,31,26,20,27,13,25,23
16:59:00,28,34,8,26,21,25,20,23,23
17:00:00,31,25,30,17,28,25,10,26,24
17:01:00,16,24,29,18,20,22,14,21,20
17:02:00,37,17,22,26,17,8,14,24,20
17:03:00,25,23,12,24,23,35,15,21,22
17:04:00,27,28,29,28,27,22,29,28,27
17:05:00,36,19,32,15,22,24,23,25,24
17:06:00,31,35,31,25,21,21,19,29,26
17:07:00,25,27,22,19,21,30,14,23,23
17:08:00,25,33,30,17,23,16,16,26,23
17:09:00,33,23,25,30,24,19,23,27,25
17:10:00,24,20,32,36,27,11,14,28,23
17:11:00,32,22,25,18,23,37,11,24,24
17:12:00,24,19,26,24,20,14,17,23,21
17:13:00,22,19,16,21,26,27,15,21,21
17:14:00,25,14,29,20,26,32,22,23,24
17:15:00,26,13,14,24,22,29,17,20,21
17:16:00,25,8,26,26,20,14,19,21,20
17:17:00,28,23,11,17,21,32,16,20,21
17:18:00,23,17,34,26,22,24,17,24,23
17:19:00,32,30,27,19,28,25,17,27,25
17:20:00,18,7,30,23,29,17,13,21,20
17:21:00,35,29,21,17,20,24,19,24,24
17:22:00,11,22,26,21,31,17,19,22,21
17:23:00,28,31,11,11,29,26,22,22,23
17:24:00,9,16,33,28,27,33,18,23,23
17:25:00,28,17,15,34,28,26,25,24,25
17:26:00,20,19,32,28,28,14,15,25,22
17:27:00,30,26,17,24,24,20,17,24,23
17:28:00,13,25,29,14,22,22,19,21,21
17:29:00,30,20,14,7,16,21,13,17,17
17:30:00,19,21,37,18,25,29,18,24,24
17:31:00,31,15,17,20,15,24,21,20,20
17:32:00,29,27,32,30,33,22,21,30,28
17:33:00,21,18,13,15,25,23,14,18,18
17:34:00,15,24,31,12,24,17,14,21,20
17:35:00,38,31,20,12,20,21,22,24,23
17:36:00,16,28,23,30,28,20,22,25,24
17:37:00,32,16,22,23,10,21,6,21,19
17:38:00,23,31,12,36,37,29,23,28,27
17:39:00,24,14,24,14,18,12,20,19,18
17:40:00,19,34,22,29,40,32,15,29,27
17:41:00,23,17,20,14,23,22,15,19,19
17:42:00,25,15,18,26,30,17,27,23,23
17:43:00,27,24,19,25,15,27,12,22,21
17:44:00,29,32,32,24,32,29,20,30,28
17:45:00,26,28,22,7,23,22,10,21,20
17:46:00,25,17,21,17,38,30,19,24,24
17:47:00,31,25,25,7,22,18,20,22,21
17:48:00,19,15,23,18,33,23,15,22,21
17:49:00,39,9,16,18,17,16,13,20,18
17:50:00,15,18,25,30,28,36,16,23,24
17:51:00,22,20,21,22,9,29,22,19,21
17:52:00,11,7,27,29,32,16,13,21,19
17:53:00,33,16,18,7,13,26,14,17,18
17:54:00,6,36,22,14,26,30,22,21,22
17:55:00,26,31,20,16,18,16,17,22,21
17:56:00,9,27,31,26,33,13,15,25,22
17:57:00,25,30,34,15,17,20,13,24,22
17:58:00,27,11,20,14,37,18,17,22,21
17:59:00,23,30,16,4,15,21,10,18,17
18:00:00,21,19,26,23,26,23,17,23,22
18:01:00,43,22,17,12,16,28,12,22,21
18:02:00,14,27,26,12,29,26,22,22,22
18:03:00,38,22,17,8,21,26,18,21,21
18:04:00,25,26,23,19,36,21,23,26,25
18:05:00,24,24,25,16,27,30,9,23,22
18:06:00,15,18,23,27,30,18,21,23,22
18:07:00,22,15,23,5,20,12,14,17,16
18:08:00,31,14,22,24,33,24,11,25,23
18:09:00,31,14,11,24,27,21,21,21,21
18:10:00,21,17,15,13,24,30,18,18,20
18:11:00,24,22,30,15,20,19,17,22,21
18:12:00,18,39,24,17,24,26,11,24,23
18:13:00,32,16,35,15,22,20,22,24,23
18:14:00,19,27,22,32,28,28,18,26,25
18:15:00,29,23,27,22,24,25,14,25,23
18:16:00,20,21,20,24,23,30,16,22,22
18:17:00,25,15,38,29,18,25,18,25,24
18:18:00,19,33,24,22,17,25,25,23,24
18:19:00,27,19,28,18,23,25,18,23,23
18:20:00,28,23,19,22,24,28,17,23,23
18:21:00,25,22,32,21,19,17,15,24,22
18:22:00,31,29,19,17,15,29,9,22,21
18:23:00,26,8,28,20,29,29,15,22,22
18:24:00,33,31,19,21,24,25,16,26,24
18:25:00,29,28,25,12,34,30,12,26,24
18:26:00,20,22,23,17,22,20,10,21,19
18:27:00,29,24,30,25,32,26,14,28,26
18:28:00,16,28,17,19,23,13,9,21,18
18:29:00,21,30,24,27,38,27,13,28,26
18:30:00,24,29,21,18,17,9,21,22,20
18:31:00,19,20,36,29,28,30,23,26,26
18:32:00,23,22,20,18,26,28,12,22,21
18:33:00,28,18,39,19,44,14,23,30,26
18:34:00,14,33,28,18,25,26,21,24,24
18:35:00,18,16,31,20,27,18,19,22,21
18:36:00,18,30,19,20,15,21,19,20,20
18:37:00,28,18,26,35,29,22,15,27,25
18:38:00,22,21,29,28,19,25,10,24,22
18:39:00,23,27,31,42,24,24,11,29,26
18:40:00,18,35,30,29,27,26,16,28,26
18:41:00,21,29,29,13,27,20,12,24,22
18:42:00,35,34,25,19,37,23,30,30,29
18:43:00,28,21,32,23,32,18,24,27,25
18:44:00,24,31,12,21,16,21,15,21,20
18:45:00,29,19,29,39,22,22,12,28,25
18:46:00,27,33,23,20,19,19,13,24,22
18:47:00,22,22,37,28,31,28,17,28,26
18:48:00,22,27,23,11,25,28,13,22,21
18:49:00,26,27,31,30,27,23,12,28,25
18:50:00,26,20,26,11,23,17,13,21,19
18:51:00,27,26,31,21,33,20,12,28,24
18:52:00,26,31,26,19,13,21,17,23,22
18:53:00,25,25,26,29,38,19,29,29,27
18:54:00,39,30,27,15,20,23,14,26,24
18:55:00,17,30,20,35,22,14,20,25,23
18:56:00,32,34,20,15,31,27,17,26,25
18:57:00,21,16,27,32,26,18,21,24,23
18:58:00,19,30,19,30,16,22,22,23,23
18:59:00,15,19,19,36,35,17,20,25,23
19:00:00,23,31,18,36,19,13,20,25,23
19:01:00,22,22,29,25,31,12,15,26,22
19:02:00,17,32,24,18,26,12,11,23,20
19:03:00,33,32,28,31,27,23,20,30,28
19:04:00,22,29,26,32,19,15,14,26,22
19:05:00,24,29,27,31,23,18,13,27,24
19:06:00,16,32,12,23,27,19,11,22,20
19:07:00,28,38,22,27,16,20,16,26,24
19:08:00,28,26,25,25,34,14,20,28,25
19:09:00,26,18,30,25,24,23,16,25,23
19:10:00,14,27,34,28,22,27,15,25,24
19:11:00,28,40,27,19,27,21,16,28,25
19:12:00,15,23,14,23,32,23,14,21,21
19:13:00,37,21,21,31,27,20,18,27,25
19:14:00,26,20,20,18,30,10,14,23,20
19:15:00,27,33,32,39,18,16,9,30,25
19:16:00,25,26,20,26,17,14,6,23,19
19:17:00,18,26,26,30,23,18,10,25,22
19:18:00,31,26,22,27,26,19,14,26,24
19:19:00,22,28,20,22,20,19,15,22,21
19:20:00,20,21,31,17,24,28,21,23,23
19:21:00,30,20,29,30,26,14,16,27,24
19:22:00,20,21,25,26,18,17,6,22,19
19:23:00,19,18,23,29,18,20,9,21,19
19:24:00,28,25,19,23,24,18,19,24,22
19:25:00,14,22,20,25,22,18,10,21,19
19:26:00,25,19,26,24,24,15,17,24,21
19:27:00,18,18,24,27,15,10,15,20,18
19:28:00,19,30,26,16,30,15,14,24,21
19:29:00,23,20,27,23,29,26,19,24,24
19:30:00,7,20,22,25,20,17,19,19,19
19:31:00,20,24,25,23,19,11,14,22,19
19:32:00,23,15,21,23,19,9,7,20,17
19:33:00,13,22,17,30,23,16,13,21,19
19:34:00,28,18,28,26,20,19,17,24,22
19:35:00,21,13,27,18,16,12,13,19,17
19:36:00,25,21,19,11,26,12,9,20,18
19:37:00,16,18,36,26,17,18,14,23,21
19:38:00,22,27,26,24,20,15,14,24,21
19:39:00,15,17,23,19,26,17,18,20,19
19:40:00,20,26,24,19,16,12,15,21,19
19:41:00,5,16,12,23,24,21,23,16,18
19:42:00,26,15,30,19,17,20,17,21,21
19:43:00,15,28,19,21,18,21,16,20,20
19:44:00,14,22,20,17,25,7,20,20,18
19:45:00,21,25,22,15,12,13,12,19,17
19:46:00,16,23,26,28,18,19,13,22,20
19:47:00,19,18,16,30,17,19,13,20,19
19:48:00,10,27,10,13,21,24,22,16,18
19:49:00,18,20,25,15,22,8,14,20,17
19:50:00,13,18,19,21,24,15,11,19,17
19:51:00,11,14,16,21,21,20,13,17,17
19:52:00,23,15,20,14,17,14,11,18,16
19:53:00,12,23,16,12,10,11,18,15,15
19:54:00,8,21,19,33,19,14,19,20,19
19:55:00,12,20,12,17,22,16,11,17,16
19:56:00,19,16,13,25,27,13,10,20,18
19:57:00,19,20,13,18,21,9,9,18,16
19:58:00,18,16,18,23,18,17,18,19,18
19:59:00,19,16,19,13,18,12,14,17,16
20:00:00,14,15,22,23,20,15,17,19,18
20:01:00,12,26,15,15,24,14,14,18,17
20:02:00,11,12,18,19,14,22,11,15,15
20:03:00,18,13,18,23,14,11,19,17,17
20:04:00,13,13,14,19,16,14,9,15,14
20:05:00,14,18,12,16,12,11,11,14,13
20:06:00,15,21,16,24,12,17,16,18,17
20:07:00,20,21,24,18,20,22,6,21,19
20:08:00,18,21,13,23,22,15,17,19,18
20:09:00,16,22,28,23,21,20,11,22,20
20:10:00,20,21,30,21,21,21,16,23,21
20:11:00,11,19,21,29,14,15,13,19,17
20:12:00,16,19,14,22,21,19,11,18,17
20:13:00,16,22,27,20,21,23,12,21,20
20:14:00,15,14,23,29,18,21,9,20,18
20:15:00,10,13,18,17,14,20,14,14,15
20:16:00,14,19,9,18,27,14,11,17,16
20:17:00,13,23,16,22,11,13,13,17,16
20:18:00,17,21,27,26,22,11,12,23,19
20:19:00,8,11,13,18,18,10,10,14,13
20:20:00,12,19,13,22,12,13,14,16,15
20:21:00,22,17,16,25,8,15,17,18,17
20:22:00,5,14,20,19,17,19,13,15,15
20:23:00,13,11,13,16,17,17,13,14,14
20:24:00,14,19,10,15,16,15,5,15,13
20:25:00,15,19,15,27,8,19,8,17,16
20:26:00,7,11,13,13,11,13,19,11,12
20:27:00,11,9,11,15,17,14,14,13,13
20:28:00,8,28,20,20,13,12,8,18,16
20:29:00,12,14,10,22,14,19,6,14,14
20:30:00,3,17,19,19,15,13,7,15,13
20:31:00,8,15,18,13,17,9,12,14,13
20:32:00,13,10,11,20,20,8,12,15,13
20:33:00,14,17,12,10,7,14,10,12,12
20:34:00,8,19,13,14,23,11,13,15,14
20:35:00,11,16,16,13,15,15,7,14,13
20:36:00,9,12,15,7,20,8,16,13,12
20:37:00,12,14,13,8,10,9,11,11,11
20:38:00,14,11,18,16,11,5,13,14,13
20:39:00,4,16,10,24,17,10,4,14,12
20:40:00,11,13,19,17,16,13,3,15,13
20:41:00,16,12,15,11,13,18,19,13,15
20:42:00,12,15,9,15,11,13,14,12,13
20:43:00,13,17,6,15,14,9,4,13,11
20:44:00,7,15,18,13,20,12,8,15,13
20:45:00,12,16,9,14,16,8,11,13,12
20:46:00,11,15,8,15,14,7,9,13,11
20:47:00,12,11,12,14,13,13,11,12,12
20:48:00,14,8,17,10,24,9,16,15,14
20:49:00,6,8,18,15,17,9,11,13,12
20:50:00,17,13,17,11,12,13,8,14,13
20:51:00,5,16,24,10,10,11,10,13,12
20:52:00,11,13,12,13,8,9,9,11,11
20:53:00,7,16,14,16,15,17,12,14,14
20:54:00,10,14,11,15,14,11,11,13,12
20:55:00,13,8,11,15,17,8,12,13,12
20:56:00,13,15,14,11,14,8,8,13,12
20:57:00,14,9,18,6,6,20,9,11,12
20:58:00,6,5,15,7,15,8,2,10,8
20:59:00,11,7,13,10,10,12,10,10,10
21:00:00,13,9,18,13,12,7,14,13,12
21:01:00,20,9,15,19,18,10,9,16,14
21:02:00,8,8,16,10,14,6,11,11,10
21:03:00,7,21,13,8,12,11,7,12,11
21:04:00,20,8,13,18,8,8,10,13,12
21:05:00,10,14,14,15,12,8,6,13,11
21:06:00,11,11,21,16,13,11,5,14,13
21:07:00,17,10,7,19,15,9,12,14,13
21:08:00,14,10,19,11,14,8,7,14,12
21:09:00,16,21,8,14,17,10,6,15,13
21:10:00,20,12,6,21,9,7,11,14,12
21:11:00,13,16,14,20,11,5,9,15,13
21:12:00,14,13,10,8,14,8,13,12,11
21:13:00,10,16,11,20,20,17,13,15,15
21:14:00,17,15,8,17,12,15,9,14,13
21:15:00,11,15,16,18,14,13,10,15,14
21:16:00,15,13,13,16,9,16,12,13,13
21:17:00,12,19,15,16,13,7,12,15,13
21:18:00,12,20,11,11,13,10,8,13,12
21:19:00,12,16,12,13,21,17,6,15,14
21:20:00,12,8,19,14,16,17,10,14,14
21:21:00,11,13,18,11,19,7,13,14,13
21:22:00,9,13,27,15,13,12,6,15,14
21:23:00,11,18,14,24,15,9,12,16,15
21:24:00,8,12,17,8,16,5,13,12,11
21:25:00,19,9,19,18,23,13,5,18,15
21:26:00,14,7,12,20,8,13,9,12,12
21:27:00,6,14,10,21,9,12,8,12,11
21:28:00,14,14,13,9,16,10,7,13,12
21:29:00,9,10,15,19,17,8,6,14,12
21:30:00,12,14,12,18,13,7,8,14,12
21:31:00,10,11,18,13,11,9,4,13,11
21:32:00,12,14,16,9,7,11,4,12,10
21:33:00,12,18,6,10,10,8,3,11,10
21:34:00,15,12,12,8,6,10,12,11,11
21:35:00,11,9,8,20,7,9,5,11,10
21:36:00,13,10,14,14,14,13,5,13,12
21:37:00,13,12,18,8,14,9,8,13,12
21:38:00,8,11,10,8,14,12,9,10,10
21:39:00,8,13,13,6,7,8,15,9,10
21:40:00,11,10,7,16,14,7,10,12,11
21:41:00,11,16,17,13,14,10,11,14,13
21:42:00,14,15,15,13,8,7,12,13,12
21:43:00,12,10,12,9,14,14,5,11,11
21:44:00,9,12,10,15,22,11,13,14,13
21:45:00,7,20,6,12,17,9,13,12,12
21:46:00,6,8,14,12,11,12,7,10,10
21:47:00,8,11,12,11,10,10,6,10,10
21:48:00,10,12,18,15,14,8,4,14,12
21:49:00,10,12,5,15,13,13,8,11,11
21:50:00,8,11,22,16,6,11,5,13,11
21:51:00,5,12,17,10,9,3,8,11,9
21:52:00,6,8,11,11,11,14,10,9,10
21:53:00,5,13,13,14,13,9,7,12,11
21:54:00,13,14,14,14,13,10,12,14,13
21:55:00,13,8,8,8,10,14,4,9,9
21:56:00,11,15,12,13,15,5,6,13,11
21:57:00,14,17,8,14,9,9,10,12,12
21:58:00,10,9,8,11,5,8,3,9,8
21:59:00,7,9,10,8,8,15,10,8,10
22:00:00,8,8,11,12,7,12,5,9,9
22:01:00,11,10,8,6,10,9,11,9,9
22:02:00,11,8,7,14,11,14,7,10,10
22:03:00,6,9,7,9,13,10,7,9,9
22:04:00,12,12,15,13,20,5,5,14,12
22:05:00,10,9,11,12,10,11,8,10,10
22:06:00,6,5,9,10,14,4,11,9,8
22:07:00,5,11,8,11,11,11,9,9,9
22:08:00,15,9,14,12,11,8,8,12,11
22:09:00,10,6,7,5,6,8,8,7,7
22:10:00,12,12,10,11,11,5,8,11,10
22:11:00,6,5,9,15,7,9,6,8,8
22:12:00,9,14,11,10,14,14,7,12,11
22:13:00,6,7,9,13,13,12,5,10,9
22:14:00,14,10,11,13,5,5,5,11,9
22:15:00,11,12,9,17,11,11,6,12,11
22:16:00,7,18,11,17,9,10,12,12,12
22:17:00,12,5,11,13,11,7,5,10,9
22:18:00,9,14,18,14,7,15,2,12,11
22:19:00,9,17,7,9,12,16,9,11,11
22:20:00,10,7,12,11,11,14,3,10,10
22:21:00,5,11,10,12,16,13,4,11,10
22:22:00,4,15,9,6,7,6,6,8,8
22:23:00,9,12,16,6,14,2,11,11,10
22:24:00,7,7,15,9,9,16,5,9,10
22:25:00,10,6,2,13,15,5,3,9,8
22:26:00,11,7,8,8,9,9,5,9,8
22:27:00,4,5,9,7,18,9,3,9,8
22:28:00,8,5,3,19,6,10,11,8,9
22:29:00,2,3,8,6,6,8,3,5,5
22:30:00,7,6,5,17,9,12,3,9,8
22:31:00,3,3,10,10,11,10,3,7,7
22:32:00,4,10,9,4,14,8,2,8,7
22:33:00,4,6,9,8,9,3,4,7,6
22:34:00,6,9,5,9,5,8,5,7,7
22:35:00,6,2,12,11,10,8,7,8,8
22:36:00,8,8,6,11,10,7,2,9,7
22:37:00,8,7,9,8,8,8,10,8,8
22:38:00,7,6,9,9,4,7,4,7,7
22:39:00,5,6,4,6,11,8,4,6,6
22:40:00,10,8,4,3,9,13,3,7,7
22:41:00,6,2,10,9,5,4,10,6,7
22:42:00,3,13,4,7,13,10,10,8,9
22:43:00,9,6,10,5,16,6,6,9,8
22:44:00,5,8,12,7,6,4,6,8,7
22:45:00,8,12,3,8,9,8,4,8,7
22:46:00,0,5,12,8,9,9,10,7,8
22:47:00,5,12,7,8,8,7,3,8,7
22:48:00,8,7,2,3,10,8,5,6,6
22:49:00,3,7,9,8,4,10,6,6,7
22:50:00,7,8,12,10,10,9,3,9,8
22:51:00,3,9,5,10,5,4,6,6,6
22:52:00,4,10,6,6,14,1,4,8,6
22:53:00,5,9,12,10,6,12,5,8,8
22:54:00,4,10,10,10,15,13,2,10,9
22:55:00,7,10,4,6,4,6,7,6,6
22:56:00,5,8,12,11,8,10,2,9,8
22:57:00,1,3,4,9,7,7,5,5,5
22:58:00,8,3,7,4,7,4,2,6,5
22:59:00,10,7,3,9,13,6,2,8,7
23:00:00,6,9,1,7,5,5,5,6,5
23:01:00,6,6,9,7,7,6,4,7,6
23:02:00,7,4,5,6,3,12,6,5,6
23:03:00,3,9,8,7,9,9,3,7,7
23:04:00,7,6,5,11,10,9,5,8,8
23:05:00,3,3,6,7,7,4,2,5,5
23:06:00,1,1,7,7,5,2,2,4,4
23:07:00,5,5,9,4,4,7,8,5,6
23:08:00,4,6,9,6,3,2,4,6,5
23:09:00,5,8,11,5,10,9,10,8,8
23:10:00,3,3,8,3,8,9,8,5,6
23:11:00,1,4,5,4,5,7,1,4,4
23:12:00,2,0,11,4,12,3,1,6,5
23:13:00,2,2,4,6,6,11,2,4,5
23:14:00,5,5,4,6,4,4,4,5,5
23:15:00,8,4,6,2,9,6,2,6,5
23:16:00,0,10,7,9,6,7,3,6,6
23:17:00,2,6,6,4,2,12,1,4,5
23:18:00,4,6,5,6,5,0,4,5,4
23:19:00,5,4,4,3,3,10,2,4,4
23:20:00,4,1,6,9,5,8,2,5,5
23:21:00,3,5,1,5,2,5,1,3,3
23:22:00,3,4,8,5,7,5,1,5,5
23:23:00,6,7,2,6,4,8,2,5,5
23:24:00,3,3,9,3,2,5,1,4,4
23:25:00,10,2,5,5,4,2,0,5,4
23:26:00,4,2,6,7,3,10,3,4,5
23:27:00,3,5,5,5,3,5,2,4,4
23:28:00,4,7,4,3,10,5,3,6,5
23:29:00,1,4,6,5,7,3,4,5,4
23:30:00,2,6,5,7,6,3,1,5,4
23:31:00,2,2,5,4,3,7,1,3,3
23:32:00,3,2,8,4,3,13,0,4,5
23:33:00,4,1,4,8,3,5,3,4,4
23:34:00,1,4,9,7,3,6,1,5,4
23:35:00,0,4,3,4,2,8,2,3,3
23:36:00,4,4,7,7,4,12,3,5,6
23:37:00,1,5,1,2,6,3,3,3,3
23:38:00,0,1,8,5,5,5,3,4,4
23:39:00,4,2,3,8,5,6,3,4,4
23:40:00,6,3,2,0,4,7,4,3,4
23:41:00,5,5,6,1,7,5,3,5,5
23:42:00,1,2,6,4,5,5,1,4,3
23:43:00,1,5,4,2,6,6,3,4,4
23:44:00,0,1,9,4,2,5,1,3,3
23:45:00,5,4,1,3,6,8,2,4,4
23:46:00,2,2,4,4,6,3,3,4,3
23:47:00,5,2,3,3,7,2,3,4,4
23:48:00,2,2,3,2,8,8,0,3,4
23:49:00,1,0,3,3,7,8,2,3,3
23:50:00,1,3,5,5,12,10,2,5,5
23:51:00,6,4,1,5,3,7,3,4,4
23:52:00,3,4,5,3,6,3,1,4,4
23:53:00,3,2,4,3,8,4,1,4,4
23:54:00,2,1,5,4,4,9,1,3,4
23:55:00,1,6,2,3,9,6,5,4,5
23:56:00,4,0,3,0,1,7,4,2,3
23:57:00,3,4,2,8,0,8,4,3,4
23:58:00,3,5,2,4,4,3,3,4,3
23:59:00,2,3,7,6,1,7,2,4,4
,,,,,,,,,
Totals,,,,,,,,,
12H(7-19),17142,16848,17289,17094,17222,16016,14042,17119,16522
16H(6-22),20503,20718,21189,21163,20972,18833,16315,20909,19956
18H(6-24),21128,21447,22022,22030,21881,19730,16822,21702,20723
24H(0-24),21921,22260,22827,22910,22739,20520,17588,22531,21538
,,,,,,,,,
AM Peak,07:35:00,07:18:00,07:23:00,07:22:00,10:40:00,10:46:00,10:59:00,07:22:00,10:01:00
,1477,1513,1475,1512,1536,1579,1592,1474,1368
,,,,,,,,,
PM Peak,15:31:00,18:20:00,15:52:00,12:59:00,12:07:00,12:45:00,13:50:00,18:22:00,12:15:00
,1538,1577,1560,1580,1591,1601,1624,1507,1517
,,,,,,,,,
,,,,,,,,,
CA Traffic,,,,,,,,,VDA-net R2 15/11/2019
