Site Number,00008019,Unnamed: 2,Site Reference,00008019.1,Unnamed: 5,Unnamed: 6,Lat/Lng.,"52.05179,1.19564",Unnamed: 9
Radar 8019 Foxhall Road Ipswich,,,,,,,,,
Vehicle Count Report,,,,Week Begin: 04 November 2019,,,Channel:,Total Flow,
,,,,,,,,,
,,,,,,,,,
,2019-11-04 00:00:00,2019-11-05 00:00:00,2019-11-06 00:00:00,2019-11-07 00:00:00,2019-11-08 00:00:00,2019-11-09 00:00:00,2019-11-10 00:00:00,"5-Day
Ave.","7-Day
Ave."
00:00:00,1,1,0,3,1,1,4,1,2
00:01:00,1,1,0,0,2,0,3,1,1
00:02:00,0,0,0,4,1,0,3,1,1
00:03:00,0,0,0,0,0,1,0,0,0
00:04:00,1,1,0,0,1,1,5,1,1
00:05:00,2,0,1,1,0,4,2,1,1
00:06:00,0,0,2,2,3,3,1,1,2
00:07:00,1,0,1,0,1,2,1,1,1
00:08:00,0,0,0,0,1,1,4,0,1
00:09:00,0,1,0,1,0,1,2,0,1
00:10:00,1,0,0,1,1,1,5,1,1
00:11:00,0,1,0,1,1,3,1,1,1
00:12:00,1,1,0,3,3,1,0,2,1
00:13:00,1,1,1,0,1,2,2,1,1
00:14:00,3,0,1,2,0,1,4,1,2
00:15:00,0,0,0,1,0,0,1,0,0
00:16:00,0,0,2,2,0,0,0,1,1
00:17:00,0,0,1,0,1,3,3,0,1
00:18:00,0,0,1,1,0,0,3,0,1
00:19:00,0,0,0,0,2,0,1,0,0
00:20:00,1,3,3,0,0,1,2,1,1
00:21:00,1,0,2,1,0,1,2,1,1
00:22:00,0,1,2,1,2,1,1,1,1
00:23:00,0,2,1,0,1,3,3,1,1
00:24:00,1,1,0,1,1,1,1,1,1
00:25:00,1,0,3,1,2,1,3,1,2
00:26:00,2,0,1,0,0,0,4,1,1
00:27:00,1,1,1,1,1,1,3,1,1
00:28:00,0,0,0,0,0,1,1,0,0
00:29:00,0,1,0,0,0,1,4,0,1
00:30:00,3,0,2,1,3,0,2,2,2
00:31:00,0,1,0,3,0,3,2,1,1
00:32:00,1,0,1,0,0,1,1,0,1
00:33:00,1,0,0,0,0,0,2,0,0
00:34:00,0,1,0,0,0,0,3,0,1
00:35:00,0,0,1,0,1,0,1,0,0
00:36:00,0,1,1,1,0,2,1,1,1
00:37:00,1,0,0,0,1,0,3,0,1
00:38:00,1,1,0,0,0,0,2,0,1
00:39:00,0,0,0,1,1,1,0,0,0
00:40:00,1,0,0,0,0,2,1,0,1
00:41:00,0,1,1,0,1,2,2,1,1
00:42:00,0,1,0,0,0,1,3,0,1
00:43:00,0,0,1,1,1,4,3,1,1
00:44:00,0,0,1,1,0,1,3,0,1
00:45:00,0,2,0,0,1,0,0,1,0
00:46:00,0,0,0,1,0,1,4,0,1
00:47:00,1,0,2,0,1,2,0,1,1
00:48:00,0,0,0,0,0,0,2,0,0
00:49:00,0,0,0,0,0,2,0,0,0
00:50:00,0,0,0,0,0,0,0,0,0
00:51:00,1,1,0,0,2,1,2,1,1
00:52:00,0,0,1,1,1,1,2,1,1
00:53:00,0,0,1,0,0,0,1,0,0
00:54:00,0,0,0,1,0,0,2,0,0
00:55:00,0,0,1,0,0,2,2,0,1
00:56:00,1,0,0,0,0,0,1,0,0
00:57:00,1,0,0,0,0,2,0,0,0
00:58:00,0,0,0,0,0,0,0,0,0
00:59:00,0,0,0,0,0,0,1,0,0
01:00:00,0,0,0,1,2,1,0,1,1
01:01:00,0,1,0,0,1,0,1,0,0
01:02:00,0,0,2,0,0,3,0,0,1
01:03:00,1,0,0,0,0,2,3,0,1
01:04:00,0,1,0,1,0,2,0,0,1
01:05:00,1,0,0,1,0,0,0,0,0
01:06:00,1,0,0,0,0,2,1,0,1
01:07:00,0,0,0,0,0,0,2,0,0
01:08:00,0,0,0,1,0,0,1,0,0
01:09:00,0,0,0,0,0,0,2,0,0
01:10:00,1,1,0,0,0,1,0,0,0
01:11:00,2,0,2,0,0,0,0,1,1
01:12:00,1,1,1,1,0,1,1,1,1
01:13:00,0,0,1,1,1,0,0,1,0
01:14:00,0,0,0,0,1,2,0,0,0
01:15:00,0,0,0,1,0,0,2,0,0
01:16:00,0,0,1,0,1,0,0,0,0
01:17:00,0,0,0,0,0,1,0,0,0
01:18:00,0,0,0,0,0,1,2,0,0
01:19:00,0,1,0,0,0,0,1,0,0
01:20:00,0,0,0,1,0,1,0,0,0
01:21:00,0,0,0,0,0,0,1,0,0
01:22:00,1,0,0,0,0,1,0,0,0
01:23:00,0,0,1,1,0,1,0,0,0
01:24:00,1,0,0,0,0,2,0,0,0
01:25:00,0,0,1,1,0,1,1,0,1
01:26:00,0,0,0,0,0,0,0,0,0
01:27:00,0,0,0,0,1,0,3,0,1
01:28:00,0,0,0,0,0,0,3,0,0
01:29:00,1,0,1,0,0,0,2,0,1
01:30:00,0,0,0,1,0,2,0,0,0
01:31:00,0,0,0,0,0,0,0,0,0
01:32:00,0,1,0,0,0,1,1,0,0
01:33:00,0,0,0,0,0,2,4,0,1
01:34:00,0,0,0,0,0,1,0,0,0
01:35:00,0,0,0,0,1,0,2,0,0
01:36:00,0,0,0,0,1,0,1,0,0
01:37:00,0,0,0,0,0,1,0,0,0
01:38:00,0,0,0,0,0,0,0,0,0
01:39:00,0,0,0,0,0,2,1,0,0
01:40:00,0,0,1,1,0,0,2,0,1
01:41:00,0,0,1,2,0,0,0,1,0
01:42:00,0,0,0,0,0,0,1,0,0
01:43:00,0,0,0,0,1,0,1,0,0
01:44:00,0,1,0,0,0,1,1,0,0
01:45:00,1,1,1,0,0,0,1,1,1
01:46:00,0,0,0,0,0,0,0,0,0
01:47:00,0,1,0,0,1,0,1,0,0
01:48:00,0,0,0,0,0,0,0,0,0
01:49:00,0,0,0,0,0,0,0,0,0
01:50:00,0,0,0,0,1,0,3,0,1
01:51:00,0,0,0,0,0,2,1,0,0
01:52:00,0,0,1,0,1,2,2,0,1
01:53:00,0,0,1,0,0,0,0,0,0
01:54:00,1,0,0,0,0,1,3,0,1
01:55:00,0,0,0,0,0,0,1,0,0
01:56:00,0,1,0,0,1,0,1,0,0
01:57:00,1,0,0,0,0,0,1,0,0
01:58:00,0,2,1,0,0,0,0,1,0
01:59:00,0,0,0,0,0,0,5,0,1
02:00:00,0,0,0,0,2,1,1,0,1
02:01:00,0,0,0,0,0,1,0,0,0
02:02:00,0,1,0,0,1,2,1,0,1
02:03:00,0,0,0,0,1,2,0,0,0
02:04:00,0,0,0,0,0,0,0,0,0
02:05:00,0,0,0,1,0,0,2,0,0
02:06:00,0,0,0,0,0,1,0,0,0
02:07:00,0,2,1,1,0,0,0,1,1
02:08:00,0,1,0,0,0,0,0,0,0
02:09:00,1,0,0,0,0,0,1,0,0
02:10:00,0,0,0,0,0,0,1,0,0
02:11:00,0,0,0,1,0,0,1,0,0
02:12:00,1,0,0,1,0,1,0,0,0
02:13:00,1,0,0,0,0,0,2,0,0
02:14:00,0,0,0,0,2,0,1,0,0
02:15:00,1,0,1,0,1,0,0,1,0
02:16:00,0,0,0,0,0,0,0,0,0
02:17:00,0,0,1,0,0,1,1,0,0
02:18:00,0,0,1,0,0,0,0,0,0
02:19:00,2,0,0,0,0,0,0,0,0
02:20:00,1,1,0,0,0,1,1,0,1
02:21:00,0,0,0,0,0,1,1,0,0
02:22:00,1,0,0,0,0,0,0,0,0
02:23:00,0,1,0,0,0,1,0,0,0
02:24:00,0,0,0,0,0,0,0,0,0
02:25:00,0,0,0,0,0,0,0,0,0
02:26:00,0,0,0,0,0,0,0,0,0
02:27:00,1,0,0,0,1,0,1,0,0
02:28:00,0,0,0,0,0,1,1,0,0
02:29:00,0,0,0,0,0,1,0,0,0
02:30:00,1,0,0,0,0,0,0,0,0
02:31:00,0,0,0,1,0,0,1,0,0
02:32:00,0,0,0,0,1,1,2,0,1
02:33:00,0,0,0,0,0,1,1,0,0
02:34:00,0,0,0,0,1,0,0,0,0
02:35:00,0,0,0,0,1,1,0,0,0
02:36:00,0,0,0,0,0,2,0,0,0
02:37:00,0,0,0,0,0,0,1,0,0
02:38:00,1,0,0,1,0,0,1,0,0
02:39:00,0,0,0,1,0,0,0,0,0
02:40:00,2,1,0,0,0,1,1,1,1
02:41:00,0,0,0,0,0,0,0,0,0
02:42:00,2,0,0,0,0,1,1,0,1
02:43:00,1,0,0,0,0,0,0,0,0
02:44:00,0,1,0,0,0,0,0,0,0
02:45:00,0,0,1,0,0,0,0,0,0
02:46:00,0,0,0,0,0,0,2,0,0
02:47:00,1,0,0,0,0,0,0,0,0
02:48:00,0,1,0,0,0,0,0,0,0
02:49:00,0,0,0,1,0,0,0,0,0
02:50:00,1,0,0,0,1,0,1,0,0
02:51:00,0,0,0,0,0,0,1,0,0
02:52:00,0,0,0,0,0,0,3,0,0
02:53:00,0,0,0,0,0,0,0,0,0
02:54:00,0,0,1,0,1,0,0,0,0
02:55:00,0,1,0,0,0,0,2,0,0
02:56:00,1,0,0,1,0,0,2,0,1
02:57:00,0,0,0,0,0,0,0,0,0
02:58:00,0,1,0,0,1,0,0,0,0
02:59:00,1,0,0,0,0,0,0,0,0
03:00:00,0,2,0,0,0,1,0,0,0
03:01:00,0,0,0,0,0,0,2,0,0
03:02:00,0,1,0,0,0,0,1,0,0
03:03:00,0,0,0,0,0,0,0,0,0
03:04:00,0,1,1,0,1,0,1,1,1
03:05:00,0,2,0,0,0,0,0,0,0
03:06:00,0,0,0,0,0,0,0,0,0
03:07:00,0,0,0,0,1,2,1,0,1
03:08:00,0,0,0,0,0,1,0,0,0
03:09:00,0,0,0,2,1,0,0,1,0
03:10:00,0,1,0,0,1,1,1,0,1
03:11:00,0,0,0,0,0,0,0,0,0
03:12:00,0,0,0,1,0,0,1,0,0
03:13:00,0,0,0,0,0,0,1,0,0
03:14:00,0,0,0,0,1,0,1,0,0
03:15:00,0,0,0,0,0,0,0,0,0
03:16:00,0,1,1,1,0,0,0,1,0
03:17:00,0,2,0,0,0,0,0,0,0
03:18:00,0,0,0,0,0,0,1,0,0
03:19:00,0,0,0,1,1,0,0,0,0
03:20:00,0,0,0,0,0,0,1,0,0
03:21:00,0,1,0,0,0,0,0,0,0
03:22:00,1,1,0,0,0,0,0,0,0
03:23:00,0,0,3,0,0,0,1,1,1
03:24:00,0,0,1,0,0,1,0,0,0
03:25:00,0,0,1,1,2,3,1,1,1
03:26:00,0,0,0,0,0,0,0,0,0
03:27:00,0,0,0,1,0,1,1,0,0
03:28:00,0,0,0,0,1,0,0,0,0
03:29:00,0,0,0,0,0,0,0,0,0
03:30:00,0,1,0,0,1,1,0,0,0
03:31:00,0,0,0,0,0,1,0,0,0
03:32:00,0,0,0,1,0,0,0,0,0
03:33:00,0,0,0,0,0,1,1,0,0
03:34:00,0,0,0,1,0,0,1,0,0
03:35:00,1,0,0,1,0,1,0,0,0
03:36:00,2,0,0,0,0,0,0,0,0
03:37:00,0,0,0,0,0,0,0,0,0
03:38:00,0,0,0,0,0,0,0,0,0
03:39:00,0,0,0,0,0,1,0,0,0
03:40:00,0,0,0,1,0,0,1,0,0
03:41:00,0,2,0,0,0,0,1,0,0
03:42:00,0,0,0,0,1,1,1,0,0
03:43:00,0,0,0,0,0,1,1,0,0
03:44:00,0,0,1,0,0,0,1,0,0
03:45:00,1,2,2,0,0,0,1,1,1
03:46:00,0,0,0,0,1,1,0,0,0
03:47:00,0,0,0,0,0,0,0,0,0
03:48:00,0,2,0,0,0,0,1,0,0
03:49:00,1,0,0,2,0,0,1,1,1
03:50:00,1,1,0,1,1,0,0,1,1
03:51:00,0,0,0,0,0,1,1,0,0
03:52:00,0,0,1,0,1,0,1,0,0
03:53:00,1,0,0,0,0,2,1,0,1
03:54:00,0,0,0,0,1,0,0,0,0
03:55:00,0,2,1,0,1,0,0,1,1
03:56:00,0,1,0,1,0,0,0,0,0
03:57:00,1,0,1,0,1,0,0,1,0
03:58:00,0,0,1,1,0,1,0,0,0
03:59:00,0,0,1,0,0,0,1,0,0
04:00:00,0,1,0,0,0,1,0,0,0
04:01:00,0,0,0,1,0,0,0,0,0
04:02:00,0,0,0,0,0,1,0,0,0
04:03:00,1,1,0,0,0,1,1,0,1
04:04:00,2,0,1,0,0,2,0,1,1
04:05:00,0,0,0,0,0,0,0,0,0
04:06:00,0,0,0,0,0,1,0,0,0
04:07:00,0,0,0,2,1,0,0,1,0
04:08:00,0,0,1,1,0,0,0,0,0
04:09:00,0,1,0,0,0,0,1,0,0
04:10:00,0,1,0,0,0,0,1,0,0
04:11:00,0,1,0,1,1,2,0,1,1
04:12:00,0,0,1,0,0,1,0,0,0
04:13:00,0,0,0,0,0,0,2,0,0
04:14:00,0,0,0,0,0,0,1,0,0
04:15:00,1,0,0,0,1,0,1,0,0
04:16:00,0,0,0,1,0,1,0,0,0
04:17:00,0,0,0,1,1,1,0,0,0
04:18:00,0,0,0,0,0,1,3,0,1
04:19:00,0,0,0,0,0,1,1,0,0
04:20:00,0,1,0,0,0,0,0,0,0
04:21:00,1,0,0,0,0,0,0,0,0
04:22:00,0,1,1,0,0,0,1,0,0
04:23:00,0,0,0,0,0,0,0,0,0
04:24:00,2,0,0,0,0,1,1,0,1
04:25:00,2,0,0,0,1,1,0,1,1
04:26:00,0,0,0,0,0,1,0,0,0
04:27:00,0,1,2,0,0,0,0,1,0
04:28:00,0,0,0,1,0,0,1,0,0
04:29:00,1,0,0,0,0,0,0,0,0
04:30:00,0,2,0,1,0,0,0,1,0
04:31:00,0,0,0,0,0,0,0,0,0
04:32:00,1,0,1,0,0,0,0,0,0
04:33:00,1,1,1,0,0,1,0,1,1
04:34:00,1,1,0,1,1,0,0,1,1
04:35:00,0,0,0,2,0,0,0,0,0
04:36:00,0,0,0,0,1,2,1,0,1
04:37:00,0,2,2,0,1,0,0,1,1
04:38:00,1,0,0,0,1,0,1,0,0
04:39:00,0,0,2,1,0,1,0,1,1
04:40:00,0,1,1,0,0,1,0,0,0
04:41:00,1,1,0,0,0,0,0,0,0
04:42:00,0,0,0,0,0,0,0,0,0
04:43:00,1,0,0,0,0,0,1,0,0
04:44:00,0,1,0,1,0,1,0,0,0
04:45:00,1,0,0,1,0,0,0,0,0
04:46:00,1,0,0,0,0,0,0,0,0
04:47:00,0,1,1,0,0,0,0,0,0
04:48:00,4,1,0,2,1,1,0,2,1
04:49:00,0,2,2,1,0,1,0,1,1
04:50:00,2,0,1,1,2,1,1,1,1
04:51:00,1,1,2,0,2,0,0,1,1
04:52:00,0,1,1,0,0,0,2,0,1
04:53:00,0,2,0,2,1,1,1,1,1
04:54:00,0,1,0,0,1,0,1,0,0
04:55:00,1,0,0,0,1,1,0,0,0
04:56:00,0,0,0,0,1,0,0,0,0
04:57:00,0,2,2,1,0,0,2,1,1
04:58:00,1,0,0,0,1,0,0,0,0
04:59:00,0,0,1,1,0,0,0,0,0
05:00:00,0,0,2,0,0,1,1,0,1
05:01:00,1,0,0,3,0,0,2,1,1
05:02:00,1,0,0,2,0,0,1,1,1
05:03:00,0,1,0,0,0,0,1,0,0
05:04:00,2,1,0,1,0,2,0,1,1
05:05:00,1,1,1,2,0,0,0,1,1
05:06:00,1,0,3,1,1,0,1,1,1
05:07:00,1,1,0,0,0,0,0,0,0
05:08:00,1,1,3,2,0,1,0,1,1
05:09:00,1,1,0,0,0,1,1,0,1
05:10:00,0,2,2,1,4,0,0,2,1
05:11:00,0,1,2,0,2,1,0,1,1
05:12:00,4,2,1,1,2,0,0,2,1
05:13:00,1,0,2,0,2,2,0,1,1
05:14:00,1,0,0,0,0,0,0,0,0
05:15:00,0,0,1,2,1,0,0,1,1
05:16:00,0,1,0,0,0,0,0,0,0
05:17:00,2,1,0,1,0,0,0,1,1
05:18:00,1,1,0,1,1,0,0,1,1
05:19:00,0,1,1,2,0,0,0,1,1
05:20:00,3,2,2,1,1,1,0,2,1
05:21:00,2,1,0,0,1,2,2,1,1
05:22:00,0,1,4,1,1,0,0,1,1
05:23:00,3,1,1,1,0,0,0,1,1
05:24:00,2,0,2,2,0,0,0,1,1
05:25:00,2,2,0,0,3,0,1,1,1
05:26:00,3,0,1,0,0,0,2,1,1
05:27:00,2,1,0,3,1,1,1,1,1
05:28:00,1,0,2,2,2,0,1,1,1
05:29:00,2,0,4,0,0,0,0,1,1
05:30:00,1,0,0,4,2,1,1,1,1
05:31:00,5,0,1,0,1,1,1,1,1
05:32:00,2,2,0,4,2,1,1,2,2
05:33:00,1,1,4,0,1,1,0,1,1
05:34:00,1,2,0,0,0,0,1,1,1
05:35:00,2,2,3,2,2,2,2,2,2
05:36:00,3,1,0,2,2,2,1,2,2
05:37:00,1,1,3,0,2,0,0,1,1
05:38:00,2,1,1,1,3,1,0,2,1
05:39:00,1,3,1,1,1,2,1,1,1
05:40:00,2,3,3,2,0,0,1,2,2
05:41:00,2,2,4,7,1,1,1,3,3
05:42:00,5,1,1,2,1,2,1,2,2
05:43:00,2,2,1,4,2,1,0,2,2
05:44:00,3,4,5,0,1,1,0,3,2
05:45:00,1,1,1,2,5,3,0,2,2
05:46:00,5,3,2,1,5,1,0,3,2
05:47:00,2,4,0,3,0,0,2,2,2
05:48:00,2,0,1,1,1,0,0,1,1
05:49:00,2,2,3,4,8,1,0,4,3
05:50:00,0,3,2,1,2,2,0,2,1
05:51:00,1,3,3,3,0,1,0,2,2
05:52:00,0,4,2,2,1,0,0,2,1
05:53:00,1,6,2,0,4,0,0,3,2
05:54:00,3,3,4,4,2,0,1,3,2
05:55:00,4,4,3,3,1,1,2,3,3
05:56:00,3,2,3,4,3,1,1,3,2
05:57:00,6,4,4,3,1,4,1,4,3
05:58:00,2,2,3,3,0,2,0,2,2
05:59:00,1,6,5,2,3,1,1,3,3
06:00:00,3,2,1,2,4,2,1,2,2
06:01:00,2,4,2,3,2,2,0,3,2
06:02:00,4,0,4,2,3,2,3,3,3
06:03:00,2,3,3,3,1,0,1,2,2
06:04:00,2,4,4,3,2,2,0,3,2
06:05:00,2,1,5,1,3,4,0,2,2
06:06:00,2,3,3,0,2,0,1,2,2
06:07:00,1,5,2,2,3,1,0,3,2
06:08:00,3,3,3,7,2,3,1,4,3
06:09:00,1,4,4,1,1,0,1,2,2
06:10:00,3,4,4,0,3,0,1,3,2
06:11:00,2,5,1,4,4,4,2,3,3
06:12:00,3,4,1,4,3,2,1,3,3
06:13:00,4,1,1,2,5,0,1,3,2
06:14:00,2,1,7,6,2,0,2,4,3
06:15:00,3,5,4,2,1,3,1,3,3
06:16:00,5,2,4,2,3,0,2,3,3
06:17:00,4,2,2,5,2,3,0,3,3
06:18:00,4,5,6,3,4,0,0,4,3
06:19:00,2,4,7,3,3,1,2,4,3
06:20:00,2,2,8,4,5,0,2,4,3
06:21:00,6,6,2,5,4,2,1,5,4
06:22:00,5,2,3,6,1,3,1,3,3
06:23:00,2,6,4,7,2,1,0,4,3
06:24:00,5,7,4,5,9,1,3,6,5
06:25:00,3,5,9,7,6,2,1,6,5
06:26:00,5,6,6,2,1,4,1,4,4
06:27:00,9,6,4,5,6,5,0,6,5
06:28:00,6,5,3,1,2,1,1,3,3
06:29:00,4,3,1,4,7,2,2,4,3
06:30:00,6,3,6,4,8,1,3,5,4
06:31:00,5,7,4,6,4,1,0,5,4
06:32:00,8,3,5,5,5,1,3,5,4
06:33:00,6,5,9,7,2,2,5,6,5
06:34:00,9,7,5,7,3,3,2,6,5
06:35:00,7,11,4,7,7,4,3,7,6
06:36:00,3,5,8,7,8,3,1,6,5
06:37:00,7,9,13,7,2,4,3,8,6
06:38:00,2,1,3,6,4,5,0,3,3
06:39:00,5,7,6,6,7,1,4,6,5
06:40:00,10,9,5,4,9,3,2,7,6
06:41:00,6,3,8,8,7,8,3,6,6
06:42:00,9,6,6,5,5,4,3,6,5
06:43:00,7,10,9,9,7,5,1,8,7
06:44:00,8,10,8,8,5,3,5,8,7
06:45:00,7,12,5,11,10,1,1,9,7
06:46:00,13,11,8,10,4,5,4,9,8
06:47:00,9,6,6,12,8,3,1,8,6
06:48:00,9,12,11,8,9,1,2,10,7
06:49:00,8,9,12,7,11,4,3,9,8
06:50:00,7,6,8,9,9,6,2,8,7
06:51:00,12,9,11,11,8,4,3,10,8
06:52:00,9,11,3,10,5,4,1,8,6
06:53:00,10,13,12,6,18,5,2,12,9
06:54:00,7,14,7,9,8,7,2,9,8
06:55:00,13,11,13,5,8,2,1,10,8
06:56:00,11,7,9,7,14,2,1,10,7
06:57:00,8,12,17,8,6,0,3,10,8
06:58:00,8,5,9,10,9,5,1,8,7
06:59:00,5,7,4,9,6,2,1,6,5
07:00:00,10,6,9,7,11,2,1,9,7
07:01:00,9,10,13,12,13,1,4,11,9
07:02:00,5,10,12,8,10,5,3,9,8
07:03:00,10,9,7,9,6,8,0,8,7
07:04:00,17,13,10,13,6,5,4,12,10
07:05:00,11,14,12,10,9,4,0,11,9
07:06:00,8,9,8,13,14,5,2,10,8
07:07:00,14,6,9,9,9,3,0,9,7
07:08:00,6,11,9,6,16,1,4,10,8
07:09:00,10,7,9,10,14,3,0,10,8
07:10:00,7,14,9,10,7,5,2,9,8
07:11:00,11,7,8,10,18,5,5,11,9
07:12:00,6,8,11,13,14,6,2,10,9
07:13:00,9,9,15,14,15,6,3,12,10
07:14:00,9,6,7,11,12,2,3,9,7
07:15:00,14,8,15,18,15,4,4,14,11
07:16:00,5,12,9,14,7,5,5,9,8
07:17:00,12,9,12,12,11,3,2,11,9
07:18:00,9,9,9,11,8,5,2,9,8
07:19:00,19,18,10,9,15,3,1,14,11
07:20:00,10,8,13,8,10,3,4,10,8
07:21:00,18,15,14,13,12,6,5,14,12
07:22:00,12,18,14,12,15,2,3,14,11
07:23:00,11,10,11,7,12,5,1,10,8
07:24:00,9,13,15,11,13,6,1,12,10
07:25:00,14,9,7,11,14,1,4,11,9
07:26:00,23,11,9,9,19,5,0,14,11
07:27:00,12,8,14,7,8,3,4,10,8
07:28:00,11,9,12,17,11,3,1,12,9
07:29:00,9,19,9,11,11,1,4,12,9
07:30:00,14,8,15,10,10,2,2,11,9
07:31:00,11,10,23,9,15,4,6,14,11
07:32:00,19,20,11,9,10,5,5,14,11
07:33:00,18,12,12,20,14,7,2,15,12
07:34:00,15,9,15,14,11,7,3,13,11
07:35:00,17,21,16,17,13,4,5,17,13
07:36:00,10,13,15,17,13,8,4,14,11
07:37:00,20,9,14,8,19,3,7,14,11
07:38:00,13,19,8,22,15,4,6,15,12
07:39:00,11,19,18,16,13,6,1,15,12
07:40:00,16,8,13,13,19,7,3,14,11
07:41:00,14,14,13,18,15,4,5,15,12
07:42:00,14,17,15,16,15,7,5,15,13
07:43:00,19,14,17,12,13,4,4,15,12
07:44:00,14,21,21,14,15,6,4,17,14
07:45:00,11,21,14,14,11,4,4,14,11
07:46:00,9,17,16,24,10,3,2,15,12
07:47:00,12,13,20,18,16,5,6,16,13
07:48:00,15,16,21,18,14,5,4,17,13
07:49:00,14,14,17,20,15,5,2,16,12
07:50:00,18,16,14,24,21,9,0,19,15
07:51:00,16,16,6,11,13,4,4,12,10
07:52:00,16,13,7,12,21,9,6,14,12
07:53:00,16,17,26,24,16,4,3,20,15
07:54:00,12,16,13,13,18,4,3,14,11
07:55:00,19,17,13,16,14,2,5,16,12
07:56:00,16,15,8,23,10,6,5,14,12
07:57:00,15,14,14,13,9,10,2,13,11
07:58:00,19,16,14,10,18,2,5,15,12
07:59:00,15,15,22,12,17,4,2,16,12
08:00:00,20,20,8,11,16,5,2,15,12
08:01:00,23,15,15,16,19,8,3,18,14
08:02:00,16,15,14,12,13,4,3,14,11
08:03:00,9,16,16,11,12,10,2,13,11
08:04:00,11,18,20,18,22,3,4,18,14
08:05:00,12,18,15,18,10,5,5,15,12
08:06:00,18,14,19,23,12,3,3,17,13
08:07:00,22,16,14,15,7,7,2,15,12
08:08:00,9,17,19,17,21,5,4,17,13
08:09:00,15,14,19,19,18,3,4,17,13
08:10:00,20,19,14,23,22,4,1,20,15
08:11:00,14,18,13,24,13,7,3,16,13
08:12:00,15,14,21,19,18,9,4,17,14
08:13:00,11,13,15,9,13,6,3,12,10
08:14:00,11,13,4,21,19,11,4,14,12
08:15:00,19,13,15,14,15,7,3,15,12
08:16:00,19,10,13,15,11,10,2,14,11
08:17:00,15,16,19,14,17,3,7,16,13
08:18:00,19,24,1,19,17,9,4,16,13
08:19:00,19,16,13,16,15,3,2,16,12
08:20:00,14,14,18,19,18,4,5,17,13
08:21:00,24,21,15,14,15,5,2,18,14
08:22:00,8,17,14,20,16,4,1,15,11
08:23:00,13,14,15,14,16,5,0,14,11
08:24:00,15,21,17,14,14,12,3,16,14
08:25:00,10,15,18,28,14,5,2,17,13
08:26:00,16,17,9,20,12,13,2,15,13
08:27:00,10,15,14,21,13,9,2,15,12
08:28:00,14,14,14,18,3,5,2,13,10
08:29:00,13,23,18,12,14,3,4,16,12
08:30:00,8,13,17,8,16,4,2,12,10
08:31:00,16,17,16,15,13,9,2,15,13
08:32:00,17,16,12,14,17,7,2,15,12
08:33:00,16,11,16,14,16,7,4,15,12
08:34:00,12,15,19,17,19,9,2,16,13
08:35:00,16,16,13,9,16,5,5,14,11
08:36:00,21,12,16,13,14,5,1,15,12
08:37:00,15,9,9,7,21,11,4,12,11
08:38:00,9,19,15,14,15,9,3,14,12
08:39:00,13,20,17,10,12,6,3,14,12
08:40:00,14,15,12,12,16,12,2,14,12
08:41:00,14,18,23,21,9,5,2,17,13
08:42:00,20,13,17,15,10,6,1,15,12
08:43:00,6,16,12,8,9,7,2,10,9
08:44:00,13,16,14,11,16,11,4,14,12
08:45:00,14,20,14,14,8,15,3,14,13
08:46:00,16,17,14,12,8,17,7,13,13
08:47:00,11,17,20,17,17,4,4,16,13
08:48:00,10,8,20,21,10,9,2,14,11
08:49:00,8,21,16,16,21,12,7,16,14
08:50:00,9,13,16,5,15,9,7,12,11
08:51:00,20,16,12,15,19,6,3,16,13
08:52:00,18,11,25,17,11,13,3,16,14
08:53:00,19,18,17,18,19,17,7,18,16
08:54:00,17,21,20,18,16,13,2,18,15
08:55:00,20,15,17,17,23,15,3,18,16
08:56:00,13,11,13,24,20,10,7,16,14
08:57:00,13,10,13,12,16,13,5,13,12
08:58:00,18,11,11,14,16,15,1,14,12
08:59:00,18,9,13,17,15,12,4,14,13
09:00:00,12,16,9,14,13,10,5,13,11
09:01:00,17,14,12,14,7,12,2,13,11
09:02:00,11,9,12,20,10,11,2,12,11
09:03:00,13,24,15,19,16,14,6,17,15
09:04:00,16,8,13,11,11,7,6,12,10
09:05:00,10,18,10,12,15,3,3,13,10
09:06:00,14,16,9,15,19,8,1,15,12
09:07:00,7,11,13,12,18,10,3,12,11
09:08:00,10,10,10,17,14,11,6,12,11
09:09:00,10,11,20,14,15,8,4,14,12
09:10:00,21,14,9,18,12,10,2,15,12
09:11:00,13,8,11,23,13,11,6,14,12
09:12:00,18,7,14,21,14,8,4,15,12
09:13:00,14,17,16,10,15,11,4,14,12
09:14:00,12,15,11,12,11,13,3,12,11
09:15:00,8,13,7,10,13,12,6,10,10
09:16:00,11,13,12,17,15,12,3,14,12
09:17:00,16,11,12,18,16,12,13,15,14
09:18:00,11,8,16,10,19,16,9,13,13
09:19:00,12,7,12,12,14,14,10,11,12
09:20:00,13,11,10,9,15,5,8,12,10
09:21:00,15,14,14,11,19,7,2,15,12
09:22:00,8,16,13,14,15,8,5,13,11
09:23:00,12,9,16,8,12,12,4,11,10
09:24:00,9,13,11,14,13,7,6,12,10
09:25:00,9,8,11,11,13,11,14,10,11
09:26:00,11,9,12,13,5,10,8,10,10
09:27:00,16,14,12,10,15,10,5,13,12
09:28:00,7,12,11,2,10,9,5,8,8
09:29:00,6,11,13,10,8,10,6,10,9
09:30:00,5,9,12,9,13,11,9,10,10
09:31:00,11,7,13,10,10,12,10,10,10
09:32:00,11,9,7,19,7,13,6,11,10
09:33:00,17,7,9,17,8,11,7,12,11
09:34:00,9,11,9,22,21,7,9,14,13
09:35:00,9,15,12,18,13,20,9,13,14
09:36:00,17,13,12,16,4,10,10,12,12
09:37:00,9,10,8,14,12,9,9,11,10
09:38:00,9,11,14,14,10,10,8,12,11
09:39:00,8,10,14,11,6,9,11,10,10
09:40:00,15,9,6,18,11,8,8,12,11
09:41:00,12,6,7,10,11,25,10,9,12
09:42:00,5,20,16,9,13,10,10,13,12
09:43:00,11,15,15,21,11,10,8,15,13
09:44:00,11,7,11,10,13,13,14,10,11
09:45:00,16,10,14,19,10,19,9,14,14
09:46:00,14,9,8,11,14,18,13,11,12
09:47:00,11,10,7,16,7,15,18,10,12
09:48:00,16,18,5,14,13,7,12,13,12
09:49:00,7,10,7,10,12,17,9,9,10
09:50:00,13,8,11,14,16,14,8,12,12
09:51:00,9,8,11,15,14,17,11,11,12
09:52:00,14,11,5,9,4,16,12,9,10
09:53:00,6,8,11,15,11,11,10,10,10
09:54:00,8,14,10,17,6,21,13,11,13
09:55:00,7,13,11,22,10,16,15,13,13
09:56:00,8,8,15,16,9,18,12,11,12
09:57:00,3,7,10,13,11,14,15,9,10
09:58:00,9,4,15,8,10,12,18,9,11
09:59:00,10,9,12,12,11,16,19,11,13
10:00:00,15,9,8,11,9,15,17,10,12
10:01:00,12,11,12,14,11,10,11,12,12
10:02:00,11,13,10,19,8,9,10,12,11
10:03:00,15,15,11,5,6,16,11,10,11
10:04:00,10,9,5,7,13,10,12,9,9
10:05:00,11,9,6,7,13,19,9,9,11
10:06:00,11,10,7,5,11,16,14,9,11
10:07:00,11,12,10,12,5,12,16,10,11
10:08:00,11,9,1,9,13,16,10,9,10
10:09:00,12,11,14,10,12,13,11,12,12
10:10:00,8,18,4,14,10,18,8,11,11
10:11:00,14,10,13,8,3,8,8,10,9
10:12:00,14,10,6,7,7,17,6,9,10
10:13:00,15,10,11,13,8,21,13,11,13
10:14:00,12,9,6,9,9,17,7,9,10
10:15:00,12,5,16,4,11,14,12,10,11
10:16:00,6,6,12,10,14,24,7,10,11
10:17:00,9,9,9,8,10,12,13,9,10
10:18:00,7,13,10,9,9,20,14,10,12
10:19:00,4,9,9,16,10,14,10,10,10
10:20:00,10,15,13,9,17,11,14,13,13
10:21:00,10,8,11,9,9,17,12,9,11
10:22:00,10,12,14,15,7,21,14,12,13
10:23:00,4,7,11,11,13,14,12,9,10
10:24:00,12,7,12,7,9,20,10,9,11
10:25:00,14,8,14,5,10,13,10,10,11
10:26:00,16,11,15,3,6,15,16,10,12
10:27:00,13,8,8,10,6,15,7,9,10
10:28:00,9,8,9,7,4,14,11,7,9
10:29:00,16,12,7,13,12,18,10,12,13
10:30:00,9,9,5,11,21,19,7,11,12
10:31:00,6,5,8,11,14,18,12,9,11
10:32:00,5,7,13,8,18,13,11,10,11
10:33:00,8,8,15,13,15,17,8,12,12
10:34:00,8,16,13,6,8,14,9,10,11
10:35:00,10,7,8,10,7,18,9,8,10
10:36:00,8,6,6,9,17,14,10,9,10
10:37:00,7,14,11,18,6,7,8,11,10
10:38:00,8,7,7,11,5,15,11,8,9
10:39:00,12,14,11,13,10,13,7,12,11
10:40:00,11,10,11,14,13,13,13,12,12
10:41:00,13,7,11,9,16,21,14,11,13
10:42:00,12,12,8,7,6,14,14,9,10
10:43:00,7,9,11,12,8,25,8,9,11
10:44:00,9,6,10,11,12,18,5,10,10
10:45:00,6,5,16,11,7,9,8,9,9
10:46:00,11,11,10,16,14,12,13,12,12
10:47:00,10,12,5,12,15,18,7,11,11
10:48:00,2,12,13,14,9,20,13,10,12
10:49:00,12,7,9,9,6,12,5,9,9
10:50:00,14,13,13,12,11,12,14,13,13
10:51:00,12,4,13,10,11,15,14,10,11
10:52:00,8,11,15,9,11,16,6,11,11
10:53:00,6,9,9,11,10,7,11,9,9
10:54:00,11,10,12,13,15,16,11,12,13
10:55:00,6,8,13,8,8,17,6,9,9
10:56:00,5,19,20,6,6,8,12,11,11
10:57:00,4,18,15,11,9,12,6,11,11
10:58:00,12,12,14,11,17,15,8,13,13
10:59:00,9,3,13,7,10,18,11,8,10
11:00:00,7,12,12,14,14,11,12,12,12
11:01:00,5,12,17,7,9,18,12,10,11
11:02:00,15,13,8,7,6,17,13,10,11
11:03:00,10,12,14,10,10,19,8,11,12
11:04:00,12,4,5,9,12,17,8,8,10
11:05:00,15,7,5,12,11,17,10,10,11
11:06:00,7,11,9,4,17,16,10,10,11
11:07:00,9,12,8,8,7,12,9,9,9
11:08:00,11,10,9,17,5,16,11,10,11
11:09:00,11,3,12,8,9,11,7,9,9
11:10:00,9,6,6,8,14,18,8,9,10
11:11:00,10,11,5,6,13,17,10,9,10
11:12:00,15,12,14,8,5,21,7,11,12
11:13:00,7,6,19,9,10,18,12,10,12
11:14:00,14,9,5,4,7,6,11,8,8
11:15:00,13,11,5,9,14,14,10,10,11
11:16:00,8,10,11,11,7,13,12,9,10
11:17:00,13,10,8,6,13,5,11,10,9
11:18:00,13,10,6,9,6,16,12,9,10
11:19:00,10,9,9,10,13,17,8,10,11
11:20:00,14,8,9,11,14,15,7,11,11
11:21:00,6,7,12,15,8,11,9,10,10
11:22:00,8,6,10,10,10,10,4,9,8
11:23:00,16,12,13,7,6,23,13,11,13
11:24:00,9,16,9,8,11,14,15,11,12
11:25:00,8,6,12,8,10,12,13,9,10
11:26:00,8,8,10,15,13,9,10,11,10
11:27:00,10,11,15,16,11,11,15,13,13
11:28:00,7,12,6,14,14,6,8,11,10
11:29:00,7,10,21,11,8,20,10,11,12
11:30:00,8,9,9,6,9,16,8,8,9
11:31:00,15,4,10,10,11,14,7,10,10
11:32:00,6,7,8,16,8,19,17,9,12
11:33:00,7,11,13,8,22,16,7,12,12
11:34:00,11,9,12,15,15,17,5,12,12
11:35:00,10,14,13,7,7,15,11,10,11
11:36:00,12,9,9,7,8,17,9,9,10
11:37:00,9,6,13,7,8,15,8,9,9
11:38:00,13,19,6,4,9,13,16,10,11
11:39:00,7,10,6,5,10,16,10,8,9
11:40:00,9,15,10,8,7,10,8,10,10
11:41:00,11,13,14,9,11,14,10,12,12
11:42:00,10,12,7,16,8,18,11,11,12
11:43:00,18,7,11,11,9,16,15,11,12
11:44:00,9,4,14,10,8,11,11,9,10
11:45:00,18,12,12,5,13,21,8,12,13
11:46:00,9,11,12,13,13,8,16,12,12
11:47:00,12,10,10,7,16,14,19,11,13
11:48:00,8,8,9,13,14,22,9,10,12
11:49:00,16,11,13,8,15,20,14,13,14
11:50:00,9,11,11,9,11,17,13,10,12
11:51:00,12,13,12,15,12,12,11,13,12
11:52:00,11,10,13,7,12,13,10,11,11
11:53:00,9,6,11,11,8,17,12,9,11
11:54:00,15,10,12,5,12,24,9,11,12
11:55:00,10,10,15,9,5,8,16,10,10
11:56:00,12,12,9,7,14,14,15,11,12
11:57:00,11,17,13,12,5,18,8,12,12
11:58:00,14,5,10,6,10,19,11,9,11
11:59:00,14,13,17,6,8,16,11,12,12
12:00:00,8,9,16,10,12,20,18,11,13
12:01:00,12,9,10,13,12,15,13,11,12
12:02:00,16,14,10,6,12,10,12,12,11
12:03:00,6,10,16,5,17,11,18,11,12
12:04:00,6,11,10,10,12,16,13,10,11
12:05:00,18,9,15,9,15,11,15,13,13
12:06:00,7,11,15,8,15,12,16,11,12
12:07:00,13,12,8,7,18,10,12,12,11
12:08:00,9,12,9,12,10,16,12,10,11
12:09:00,11,8,11,6,7,19,10,9,10
12:10:00,16,15,11,14,11,18,6,13,13
12:11:00,8,9,16,10,8,16,13,10,11
12:12:00,12,14,7,15,20,19,15,14,15
12:13:00,9,8,12,9,14,18,23,10,13
12:14:00,10,8,14,11,12,23,15,11,13
12:15:00,17,13,10,7,12,11,12,12,12
12:16:00,9,10,6,11,14,18,10,10,11
12:17:00,7,11,9,11,16,19,23,11,14
12:18:00,9,10,12,17,13,14,16,12,13
12:19:00,18,10,6,12,18,25,11,13,14
12:20:00,17,10,12,12,7,14,12,12,12
12:21:00,9,13,11,18,11,12,17,12,13
12:22:00,13,12,11,15,10,24,14,12,14
12:23:00,12,10,15,8,17,18,12,12,13
12:24:00,6,12,13,23,6,12,12,12,12
12:25:00,12,15,13,10,12,21,18,12,14
12:26:00,18,12,12,10,13,17,10,13,13
12:27:00,8,9,12,7,13,15,17,10,12
12:28:00,8,16,13,7,14,19,14,12,13
12:29:00,9,16,9,13,8,13,22,11,13
12:30:00,8,13,13,14,9,11,7,11,11
12:31:00,13,7,9,12,10,19,19,10,13
12:32:00,6,10,8,6,15,13,11,9,10
12:33:00,6,11,7,13,8,11,11,9,10
12:34:00,10,10,21,5,13,15,12,12,12
12:35:00,6,18,10,10,9,16,13,11,12
12:36:00,10,14,20,7,6,13,14,11,12
12:37:00,12,18,12,9,14,17,12,13,13
12:38:00,8,9,7,8,18,22,19,10,13
12:39:00,11,9,17,13,15,16,12,13,13
12:40:00,10,15,14,12,11,12,4,12,11
12:41:00,12,11,7,11,10,6,14,10,10
12:42:00,12,14,12,9,11,14,8,12,11
12:43:00,8,14,11,10,12,13,14,11,12
12:44:00,10,5,5,16,5,16,12,8,10
12:45:00,4,14,13,5,5,11,14,8,9
12:46:00,12,12,4,12,7,9,11,9,10
12:47:00,15,14,20,14,11,18,18,15,16
12:48:00,11,10,9,8,11,16,18,10,12
12:49:00,12,11,10,11,9,19,13,11,12
12:50:00,15,17,7,8,7,25,16,11,14
12:51:00,15,11,10,13,16,19,13,13,14
12:52:00,15,11,11,12,12,21,14,12,14
12:53:00,16,6,10,14,12,12,12,12,12
12:54:00,14,17,15,13,14,11,10,15,13
12:55:00,6,9,14,11,19,8,10,12,11
12:56:00,9,12,7,9,16,7,13,11,10
12:57:00,13,13,9,14,11,10,9,12,11
12:58:00,12,15,8,11,7,8,7,11,10
12:59:00,10,12,10,7,10,13,9,10,10
13:00:00,18,10,15,7,9,15,12,12,12
13:01:00,15,10,16,10,13,19,11,13,13
13:02:00,9,18,10,9,15,11,11,12,12
13:03:00,13,9,9,10,8,16,17,10,12
13:04:00,15,9,12,10,10,6,12,11,11
13:05:00,9,8,7,10,14,11,15,10,11
13:06:00,6,18,12,7,16,13,7,12,11
13:07:00,11,15,11,9,1,14,14,9,11
13:08:00,8,7,9,10,14,9,12,10,10
13:09:00,13,9,19,9,12,10,13,12,12
13:10:00,7,16,7,12,11,19,11,11,12
13:11:00,6,11,11,9,12,22,13,10,12
13:12:00,7,14,11,12,14,15,11,12,12
13:13:00,12,10,15,8,10,13,10,11,11
13:14:00,7,6,11,13,14,12,16,10,11
13:15:00,11,11,11,16,18,23,14,13,15
13:16:00,10,10,8,9,12,11,9,10,10
13:17:00,15,14,10,14,8,18,9,12,13
13:18:00,9,14,13,9,9,12,12,11,11
13:19:00,5,13,11,10,14,11,17,11,12
13:20:00,16,6,8,13,15,15,7,12,11
13:21:00,10,10,8,11,16,18,8,11,12
13:22:00,9,12,8,10,15,14,7,11,11
13:23:00,8,8,9,7,11,15,8,9,9
13:24:00,10,17,11,10,10,25,16,12,14
13:25:00,11,11,7,9,11,18,13,10,11
13:26:00,10,11,7,12,14,17,9,11,11
13:27:00,9,11,10,8,9,9,12,9,10
13:28:00,5,12,11,4,8,19,13,8,10
13:29:00,11,12,10,12,12,13,10,11,11
13:30:00,10,7,13,10,9,15,11,10,11
13:31:00,4,12,12,8,10,10,9,9,9
13:32:00,13,9,13,15,14,8,13,13,12
13:33:00,13,9,5,6,13,13,8,9,10
13:34:00,12,11,12,12,11,18,5,12,12
13:35:00,5,8,6,9,9,11,14,7,9
13:36:00,13,9,13,6,9,13,11,10,11
13:37:00,9,16,10,5,13,15,8,11,11
13:38:00,15,17,13,7,18,9,15,14,13
13:39:00,10,7,16,10,9,13,13,10,11
13:40:00,7,12,7,12,8,10,12,9,10
13:41:00,12,8,13,7,11,9,14,10,11
13:42:00,9,13,10,12,7,12,9,10,10
13:43:00,11,13,11,8,9,11,10,10,10
13:44:00,14,18,13,5,10,15,13,12,13
13:45:00,7,9,13,9,13,9,10,10,10
13:46:00,15,12,14,16,8,12,9,13,12
13:47:00,11,10,17,8,14,18,9,12,12
13:48:00,13,18,10,11,8,16,9,12,12
13:49:00,12,12,10,11,15,14,12,12,12
13:50:00,13,9,10,11,9,12,11,10,11
13:51:00,11,12,14,7,4,17,10,10,11
13:52:00,10,13,14,7,16,10,16,12,12
13:53:00,8,10,10,10,7,13,20,9,11
13:54:00,8,12,15,12,13,9,6,12,11
13:55:00,15,9,12,14,14,12,13,13,13
13:56:00,12,13,13,9,8,10,10,11,11
13:57:00,12,8,14,6,11,17,8,10,11
13:58:00,15,14,15,9,13,12,11,13,13
13:59:00,8,10,9,10,15,11,10,10,10
14:00:00,9,16,15,13,18,12,18,14,14
14:01:00,13,11,8,15,5,13,8,10,10
14:02:00,10,5,19,8,14,14,6,11,11
14:03:00,18,7,11,12,12,11,15,12,12
14:04:00,9,13,9,9,7,11,10,9,10
14:05:00,13,7,13,11,4,10,12,10,10
14:06:00,8,13,15,11,13,14,6,12,11
14:07:00,7,12,11,8,11,14,10,10,10
14:08:00,11,4,10,9,14,11,16,10,11
14:09:00,10,9,10,8,6,17,7,9,10
14:10:00,16,14,9,15,10,12,7,13,12
14:11:00,8,16,10,10,12,9,13,11,11
14:12:00,14,10,12,13,18,12,14,13,13
14:13:00,11,6,9,13,8,10,10,9,10
14:14:00,11,14,9,4,13,5,9,10,9
14:15:00,9,12,6,16,12,11,8,11,11
14:16:00,14,7,11,9,19,12,12,12,12
14:17:00,12,11,16,16,8,18,8,13,13
14:18:00,5,11,13,11,15,15,13,11,12
14:19:00,7,7,10,7,10,15,13,8,10
14:20:00,11,18,18,13,20,8,7,16,14
14:21:00,14,9,9,18,13,16,9,13,13
14:22:00,12,16,12,11,10,15,8,12,12
14:23:00,13,6,8,20,5,12,11,10,11
14:24:00,14,10,10,11,5,10,13,10,10
14:25:00,13,11,9,7,16,15,13,11,12
14:26:00,4,9,13,5,15,13,12,9,10
14:27:00,15,15,15,8,11,11,14,13,13
14:28:00,15,11,8,7,14,17,7,11,11
14:29:00,14,15,9,8,19,18,15,13,14
14:30:00,7,7,17,16,16,17,12,13,13
14:31:00,15,15,16,12,6,15,13,13,13
14:32:00,16,12,13,9,7,19,8,11,12
14:33:00,14,11,11,14,10,10,10,12,11
14:34:00,13,8,10,10,11,16,11,10,11
14:35:00,13,15,6,16,13,8,13,13,12
14:36:00,10,11,10,9,13,15,12,11,11
14:37:00,15,13,16,8,9,9,13,12,12
14:38:00,12,18,1,9,11,7,8,10,9
14:39:00,11,11,25,11,10,11,12,14,13
14:40:00,13,15,10,14,19,12,12,14,14
14:41:00,13,10,10,11,7,13,11,10,11
14:42:00,17,8,10,15,14,13,13,13,13
14:43:00,15,9,5,10,11,9,10,10,10
14:44:00,9,9,8,12,10,15,11,10,11
14:45:00,15,14,7,10,15,25,11,12,14
14:46:00,12,10,8,10,6,12,13,9,10
14:47:00,17,6,9,14,9,12,12,11,11
14:48:00,9,11,15,13,11,10,16,12,12
14:49:00,11,10,5,8,12,8,4,9,8
14:50:00,13,7,16,15,14,11,15,13,13
14:51:00,7,10,11,12,15,15,8,11,11
14:52:00,17,17,8,5,16,18,11,13,13
14:53:00,8,8,20,7,17,12,12,12,12
14:54:00,8,11,9,13,10,17,8,10,11
14:55:00,11,15,14,14,8,17,12,12,13
14:56:00,9,8,8,15,17,7,10,11,11
14:57:00,14,12,12,9,14,18,9,12,13
14:58:00,18,15,7,12,8,13,9,12,12
14:59:00,9,15,8,9,13,8,15,11,11
15:00:00,10,11,17,7,14,10,17,12,12
15:01:00,15,18,12,15,21,10,11,16,15
15:02:00,14,14,11,8,18,9,11,13,12
15:03:00,16,13,8,8,20,8,12,13,12
15:04:00,14,16,6,12,14,15,15,12,13
15:05:00,19,16,11,20,14,11,6,16,14
15:06:00,13,13,17,10,15,11,13,14,13
15:07:00,9,8,15,18,22,9,15,14,14
15:08:00,14,11,9,13,8,8,15,11,11
15:09:00,14,11,12,15,17,11,12,14,13
15:10:00,9,14,11,13,6,15,13,11,12
15:11:00,8,16,11,23,13,10,6,14,12
15:12:00,11,20,11,13,18,12,10,15,14
15:13:00,11,10,5,16,13,12,9,11,11
15:14:00,9,12,18,11,17,10,15,13,13
15:15:00,17,14,16,6,21,15,9,15,14
15:16:00,9,12,13,17,15,21,10,13,14
15:17:00,17,12,14,14,15,9,9,14,13
15:18:00,13,8,9,11,5,12,14,9,10
15:19:00,10,10,17,11,5,9,11,11,10
15:20:00,15,10,7,8,7,12,9,9,10
15:21:00,16,11,9,9,5,11,13,10,11
15:22:00,13,8,7,17,9,14,12,11,11
15:23:00,7,9,8,13,9,15,15,9,11
15:24:00,13,7,7,16,17,11,14,12,12
15:25:00,10,15,13,6,16,5,4,12,10
15:26:00,10,10,11,7,13,9,8,10,10
15:27:00,7,14,9,8,11,11,10,10,10
15:28:00,11,6,15,19,11,10,18,12,13
15:29:00,11,10,10,17,6,10,12,11,11
15:30:00,10,14,8,9,17,12,7,12,11
15:31:00,19,15,13,14,10,8,15,14,13
15:32:00,21,13,6,12,10,4,11,12,11
15:33:00,21,9,10,24,18,23,10,16,16
15:34:00,15,3,15,18,14,11,17,13,13
15:35:00,12,9,10,17,9,13,9,11,11
15:36:00,26,10,11,13,16,9,8,15,13
15:37:00,15,15,14,22,20,13,12,17,16
15:38:00,11,21,14,6,17,7,12,14,13
15:39:00,18,16,16,14,10,10,10,15,13
15:40:00,11,10,22,7,12,12,10,12,12
15:41:00,26,12,16,17,11,13,13,16,15
15:42:00,12,10,9,15,11,13,8,11,11
15:43:00,11,13,15,9,11,13,5,12,11
15:44:00,13,10,17,11,9,7,9,12,11
15:45:00,19,23,18,11,13,7,16,17,15
15:46:00,6,10,9,14,14,18,10,11,12
15:47:00,21,10,16,18,15,9,13,16,15
15:48:00,12,16,13,10,19,12,12,14,13
15:49:00,14,13,15,10,14,17,9,13,13
15:50:00,13,6,11,16,14,12,15,12,12
15:51:00,16,13,21,12,17,17,13,16,16
15:52:00,13,17,9,7,14,13,14,12,12
15:53:00,14,17,20,16,16,12,9,17,15
15:54:00,19,12,14,20,12,15,8,15,14
15:55:00,14,16,15,11,20,11,12,15,14
15:56:00,13,15,11,17,12,14,10,14,13
15:57:00,12,12,13,25,14,13,11,15,14
15:58:00,12,17,15,11,11,12,10,13,13
15:59:00,17,17,15,9,11,13,7,14,13
16:00:00,9,20,10,20,12,12,8,14,13
16:01:00,14,21,18,15,11,9,6,16,13
16:02:00,10,14,18,9,19,4,9,14,12
16:03:00,13,24,11,13,17,12,8,16,14
16:04:00,7,13,15,11,15,23,10,12,13
16:05:00,9,14,17,23,12,13,14,15,15
16:06:00,19,16,12,6,16,8,7,14,12
16:07:00,15,15,17,23,18,8,11,18,15
16:08:00,15,14,18,15,12,9,11,15,13
16:09:00,17,17,15,18,19,13,5,17,15
16:10:00,24,16,18,18,14,11,9,18,16
16:11:00,11,9,13,16,20,10,13,14,13
16:12:00,18,15,7,5,15,7,8,12,11
16:13:00,16,15,13,9,17,7,15,14,13
16:14:00,15,11,10,14,11,11,8,12,11
16:15:00,15,11,12,13,13,15,19,13,14
16:16:00,15,5,15,18,15,6,16,14,13
16:17:00,11,15,10,14,10,9,5,12,11
16:18:00,19,10,14,12,15,8,10,14,13
16:19:00,18,10,11,14,21,10,10,15,13
16:20:00,14,11,18,9,13,5,11,13,12
16:21:00,14,18,21,11,10,16,14,15,15
16:22:00,14,10,12,22,21,6,8,16,13
16:23:00,19,15,15,10,14,8,17,15,14
16:24:00,14,12,13,13,11,8,9,13,11
16:25:00,15,11,17,11,18,6,11,14,13
16:26:00,13,13,15,11,13,10,8,13,12
16:27:00,14,13,17,15,11,6,7,14,12
16:28:00,12,12,12,16,15,12,10,13,13
16:29:00,21,11,15,10,15,13,14,14,14
16:30:00,8,10,11,23,17,18,7,14,13
16:31:00,10,16,26,19,21,18,10,18,17
16:32:00,15,12,16,15,8,17,8,13,13
16:33:00,20,19,15,15,15,9,6,17,14
16:34:00,16,18,20,12,12,9,7,16,13
16:35:00,12,10,19,15,14,17,17,14,15
16:36:00,13,18,18,5,20,15,9,15,14
16:37:00,14,9,14,10,21,13,5,14,12
16:38:00,11,9,17,20,14,10,9,14,13
16:39:00,9,10,13,11,10,21,9,11,12
16:40:00,12,11,8,15,14,9,16,12,12
16:41:00,3,11,15,15,12,11,15,11,12
16:42:00,17,8,19,13,22,7,13,16,14
16:43:00,11,16,11,14,13,3,11,13,11
16:44:00,11,8,14,12,13,14,8,12,11
16:45:00,6,15,13,10,15,13,11,12,12
16:46:00,19,10,14,11,11,14,8,13,12
16:47:00,14,10,9,20,14,11,11,13,13
16:48:00,8,17,15,20,20,7,11,16,14
16:49:00,10,12,10,11,15,14,10,12,12
16:50:00,19,15,7,14,16,7,7,14,12
16:51:00,9,10,17,6,10,15,10,10,11
16:52:00,14,7,13,10,10,12,4,11,10
16:53:00,24,10,17,10,9,9,12,14,13
16:54:00,14,16,7,10,8,13,9,11,11
16:55:00,10,11,16,13,15,13,7,13,12
16:56:00,17,18,16,13,13,15,8,15,14
16:57:00,10,12,10,9,17,10,11,12,11
16:58:00,16,15,20,21,17,10,6,18,15
16:59:00,17,12,6,9,15,5,9,12,10
17:00:00,10,15,14,13,10,16,13,12,13
17:01:00,10,18,18,17,14,10,12,15,14
17:02:00,17,19,13,14,14,9,7,15,13
17:03:00,14,15,8,17,16,3,9,14,12
17:04:00,19,18,14,14,8,10,5,15,13
17:05:00,10,9,19,18,15,8,7,14,12
17:06:00,17,12,20,8,12,11,9,14,13
17:07:00,18,15,17,14,9,7,8,15,13
17:08:00,17,10,14,11,14,7,3,13,11
17:09:00,15,13,10,12,9,16,10,12,12
17:10:00,21,20,13,17,18,8,13,18,16
17:11:00,16,14,13,11,19,14,10,15,14
17:12:00,11,21,10,18,13,13,4,15,13
17:13:00,12,17,7,13,11,9,13,12,12
17:14:00,10,18,13,15,17,11,9,15,13
17:15:00,7,15,10,11,19,12,8,12,12
17:16:00,8,15,9,23,13,20,7,14,14
17:17:00,13,16,14,10,8,11,11,12,12
17:18:00,16,15,12,13,12,8,6,14,12
17:19:00,8,14,21,14,15,14,4,14,13
17:20:00,10,18,15,13,16,18,10,14,14
17:21:00,7,14,12,19,11,17,12,13,13
17:22:00,14,16,9,15,11,17,9,13,13
17:23:00,15,5,12,12,14,6,4,12,10
17:24:00,13,11,9,8,19,14,10,12,12
17:25:00,15,21,8,11,5,15,8,12,12
17:26:00,10,14,10,11,11,15,4,11,11
17:27:00,17,14,8,12,7,14,8,12,11
17:28:00,12,10,17,18,14,21,7,14,14
17:29:00,16,9,21,13,11,17,9,14,14
17:30:00,8,17,9,24,15,17,11,15,14
17:31:00,15,10,13,11,12,9,8,12,11
17:32:00,12,5,22,14,11,11,6,13,12
17:33:00,13,13,12,10,15,12,0,13,11
17:34:00,13,7,16,17,14,15,9,13,13
17:35:00,12,10,18,16,18,12,6,15,13
17:36:00,16,7,16,10,9,13,7,12,11
17:37:00,15,9,12,14,16,15,5,13,12
17:38:00,12,12,11,12,15,12,8,12,12
17:39:00,13,13,17,11,15,11,8,14,13
17:40:00,11,15,11,11,12,11,10,12,12
17:41:00,18,17,9,19,10,7,9,15,13
17:42:00,9,13,11,12,14,11,6,12,11
17:43:00,15,16,17,14,14,3,5,15,12
17:44:00,13,11,10,11,11,18,12,11,12
17:45:00,7,14,12,15,13,5,7,12,10
17:46:00,11,9,12,15,12,10,9,12,11
17:47:00,11,13,20,15,18,13,11,15,14
17:48:00,11,19,12,10,17,11,5,14,12
17:49:00,17,13,14,19,11,10,8,15,13
17:50:00,15,13,16,16,11,8,9,14,13
17:51:00,14,18,9,15,16,15,5,14,13
17:52:00,18,14,13,17,16,11,10,16,14
17:53:00,9,15,14,20,15,20,13,15,15
17:54:00,12,13,23,13,18,7,9,16,14
17:55:00,13,16,16,13,13,14,12,14,14
17:56:00,18,15,10,15,15,18,5,15,14
17:57:00,17,14,16,15,17,15,8,16,15
17:58:00,14,18,14,17,17,9,5,16,13
17:59:00,14,15,16,22,13,14,7,16,14
18:00:00,22,15,21,15,11,4,11,17,14
18:01:00,9,20,15,10,14,10,2,14,11
18:02:00,9,16,15,12,19,5,9,14,12
18:03:00,19,17,15,11,13,12,8,15,14
18:04:00,15,20,7,9,21,11,18,14,14
18:05:00,14,18,18,19,15,9,6,17,14
18:06:00,11,14,15,13,24,7,9,15,13
18:07:00,24,14,10,10,14,3,7,14,12
18:08:00,13,16,9,10,14,16,6,12,12
18:09:00,9,15,11,10,13,15,11,12,12
18:10:00,8,7,15,15,11,6,8,11,10
18:11:00,18,20,10,11,19,10,14,16,15
18:12:00,15,9,15,10,13,13,8,12,12
18:13:00,20,14,14,15,13,10,8,15,13
18:14:00,10,12,14,14,19,10,6,14,12
18:15:00,15,15,15,10,16,14,8,14,13
18:16:00,14,14,9,14,9,14,11,12,12
18:17:00,8,14,14,15,16,5,6,13,11
18:18:00,11,11,12,7,11,13,7,10,10
18:19:00,8,12,14,13,16,11,3,13,11
18:20:00,12,15,17,7,21,4,4,14,11
18:21:00,9,16,13,17,10,11,5,13,12
18:22:00,9,17,14,12,11,13,10,13,12
18:23:00,13,12,11,12,11,20,7,12,12
18:24:00,13,12,8,10,14,2,4,11,9
18:25:00,11,15,11,11,11,16,8,12,12
18:26:00,4,18,16,21,9,11,7,14,12
18:27:00,12,15,9,14,14,12,8,13,12
18:28:00,7,9,5,7,13,10,9,8,9
18:29:00,11,12,14,15,9,11,9,12,12
18:30:00,14,9,15,13,11,15,7,12,12
18:31:00,8,10,11,4,13,12,10,9,10
18:32:00,15,5,4,10,14,11,7,10,9
18:33:00,5,11,9,10,14,4,6,10,8
18:34:00,5,7,13,12,11,11,5,10,9
18:35:00,13,18,7,12,8,17,11,12,12
18:36:00,11,8,10,18,13,11,5,12,11
18:37:00,14,14,5,9,8,2,9,10,9
18:38:00,10,11,18,5,8,4,5,10,9
18:39:00,7,16,8,13,10,14,9,11,11
18:40:00,14,13,9,19,11,15,14,13,14
18:41:00,7,12,15,17,13,9,3,13,11
18:42:00,13,10,10,18,10,13,4,12,11
18:43:00,20,12,7,15,8,5,4,12,10
18:44:00,9,12,17,10,12,10,4,12,11
18:45:00,18,11,18,18,14,10,7,16,14
18:46:00,11,11,18,19,21,4,5,16,13
18:47:00,7,8,13,11,10,16,6,10,10
18:48:00,12,11,12,12,7,10,5,11,10
18:49:00,17,17,20,15,12,6,11,16,14
18:50:00,15,14,12,12,8,14,5,12,11
18:51:00,15,12,17,13,13,13,14,14,14
18:52:00,13,13,16,21,13,12,5,15,13
18:53:00,18,18,19,14,8,13,5,15,14
18:54:00,17,13,17,18,13,13,9,16,14
18:55:00,17,16,10,12,9,18,6,13,13
18:56:00,17,5,14,23,5,15,7,13,12
18:57:00,18,14,22,12,13,17,7,16,15
18:58:00,14,13,16,17,9,15,6,14,13
18:59:00,12,12,19,16,13,13,7,14,13
19:00:00,20,13,12,15,15,11,5,15,13
19:01:00,12,7,16,15,9,11,15,12,12
19:02:00,14,12,14,14,15,10,5,14,12
19:03:00,13,7,17,15,10,9,10,12,12
19:04:00,14,14,15,17,14,10,9,15,13
19:05:00,10,10,20,18,16,9,1,15,12
19:06:00,12,17,9,16,7,13,6,12,11
19:07:00,9,23,10,20,15,10,9,15,14
19:08:00,15,18,14,14,15,8,7,15,13
19:09:00,16,15,16,19,8,10,7,15,13
19:10:00,15,13,14,10,19,9,10,14,13
19:11:00,16,8,16,21,14,10,7,15,13
19:12:00,18,15,10,18,10,12,7,14,13
19:13:00,7,12,13,18,9,9,7,12,11
19:14:00,18,7,15,9,13,9,7,12,11
19:15:00,15,14,14,14,9,10,5,13,12
19:16:00,13,9,9,16,13,17,8,12,12
19:17:00,17,11,17,15,7,8,5,13,11
19:18:00,11,7,5,15,13,14,8,10,10
19:19:00,11,7,9,12,13,12,12,10,11
19:20:00,17,10,11,13,6,10,7,11,11
19:21:00,11,19,6,19,6,10,2,12,10
19:22:00,10,5,13,16,12,12,9,11,11
19:23:00,8,10,4,14,10,7,11,9,9
19:24:00,13,9,8,11,10,9,3,10,9
19:25:00,13,9,5,9,10,10,5,9,9
19:26:00,14,11,8,7,10,13,1,10,9
19:27:00,9,10,4,15,11,12,6,10,10
19:28:00,10,9,12,7,9,11,6,9,9
19:29:00,4,9,15,15,8,15,9,10,11
19:30:00,9,13,10,11,11,11,11,11,11
19:31:00,12,11,8,12,9,7,7,10,9
19:32:00,9,11,11,6,16,10,7,11,10
19:33:00,16,9,10,7,17,7,4,12,10
19:34:00,7,8,14,6,11,12,5,9,9
19:35:00,10,9,18,3,11,5,8,10,9
19:36:00,10,14,9,9,10,8,10,10,10
19:37:00,7,12,12,7,14,5,4,10,9
19:38:00,9,11,6,10,7,8,6,9,8
19:39:00,12,18,9,13,9,7,7,12,11
19:40:00,11,12,12,9,13,5,2,11,9
19:41:00,12,10,10,11,11,7,8,11,10
19:42:00,11,9,7,7,11,13,6,9,9
19:43:00,11,11,10,15,10,7,5,11,10
19:44:00,14,12,6,11,18,9,8,12,11
19:45:00,4,8,13,8,13,8,6,9,9
19:46:00,14,10,10,12,12,10,8,12,11
19:47:00,10,5,8,11,11,5,3,9,8
19:48:00,8,7,13,10,7,8,6,9,8
19:49:00,12,16,10,8,17,9,5,13,11
19:50:00,7,13,8,15,9,6,7,10,9
19:51:00,10,11,13,7,8,7,6,10,9
19:52:00,12,9,6,11,7,5,6,9,8
19:53:00,13,9,7,8,22,1,5,12,9
19:54:00,6,11,14,5,5,10,12,8,9
19:55:00,7,13,17,12,13,7,8,12,11
19:56:00,11,6,8,5,6,7,5,7,7
19:57:00,8,6,13,12,11,8,9,10,10
19:58:00,13,8,11,10,10,6,3,10,9
19:59:00,6,18,6,10,7,6,3,9,8
20:00:00,4,7,8,12,9,7,5,8,7
20:01:00,8,12,10,16,10,9,10,11,11
20:02:00,17,8,6,10,5,2,2,9,7
20:03:00,11,10,9,13,10,12,5,11,10
20:04:00,9,14,4,13,11,5,5,10,9
20:05:00,7,12,7,15,14,10,5,11,10
20:06:00,14,16,12,8,12,9,7,12,11
20:07:00,15,11,8,11,13,5,6,12,10
20:08:00,12,12,14,10,11,4,5,12,10
20:09:00,11,10,15,15,9,8,8,12,11
20:10:00,7,17,11,15,13,4,5,13,10
20:11:00,16,10,7,10,5,3,6,10,8
20:12:00,8,17,16,16,9,9,5,13,11
20:13:00,9,15,14,12,9,4,5,12,10
20:14:00,7,10,11,7,12,5,3,9,8
20:15:00,10,8,13,7,9,9,4,9,9
20:16:00,7,6,7,4,8,4,1,6,5
20:17:00,6,6,10,9,5,6,2,7,6
20:18:00,8,11,8,4,7,8,4,8,7
20:19:00,7,10,7,9,10,3,7,9,8
20:20:00,8,8,9,8,5,5,4,8,7
20:21:00,10,3,7,11,0,6,6,6,6
20:22:00,7,6,9,5,5,12,9,6,8
20:23:00,8,6,13,7,10,6,5,9,8
20:24:00,4,10,12,7,9,6,6,8,8
20:25:00,10,6,8,9,12,9,9,9,9
20:26:00,10,8,7,4,10,12,3,8,8
20:27:00,6,4,8,10,6,1,3,7,5
20:28:00,11,9,8,9,8,13,5,9,9
20:29:00,8,5,4,5,6,5,9,6,6
20:30:00,4,5,1,8,10,6,6,6,6
20:31:00,8,5,4,5,5,7,2,5,5
20:32:00,4,7,6,9,8,8,6,7,7
20:33:00,4,6,9,7,2,3,4,6,5
20:34:00,3,13,4,4,11,2,9,7,7
20:35:00,2,4,8,4,5,8,1,5,5
20:36:00,5,4,3,10,7,6,8,6,6
20:37:00,8,6,3,5,4,6,8,5,6
20:38:00,10,4,1,3,3,9,10,4,6
20:39:00,8,9,8,5,6,12,3,7,7
20:40:00,15,5,5,6,5,5,1,7,6
20:41:00,3,5,3,4,5,2,4,4,4
20:42:00,1,8,12,6,5,10,3,6,6
20:43:00,3,4,9,6,11,4,3,7,6
20:44:00,7,10,4,9,4,3,2,7,6
20:45:00,6,6,9,9,5,3,0,7,5
20:46:00,8,7,12,2,9,6,1,8,6
20:47:00,2,5,7,4,4,9,1,4,5
20:48:00,8,8,9,7,4,6,2,7,6
20:49:00,4,3,2,10,6,5,4,5,5
20:50:00,8,6,3,3,5,4,5,5,5
20:51:00,4,2,2,8,6,4,4,4,4
20:52:00,4,5,8,10,2,2,6,6,5
20:53:00,9,4,8,5,5,5,4,6,6
20:54:00,8,7,9,3,6,6,8,7,7
20:55:00,6,9,7,7,6,2,3,7,6
20:56:00,8,7,7,9,11,8,1,8,7
20:57:00,6,6,3,10,7,3,4,6,6
20:58:00,11,5,6,7,3,4,2,6,5
20:59:00,8,7,4,7,6,5,5,6,6
21:00:00,8,3,1,10,7,11,5,6,6
21:01:00,5,1,5,7,6,2,3,5,4
21:02:00,5,0,5,6,6,4,2,4,4
21:03:00,5,7,3,4,8,6,5,5,5
21:04:00,4,5,2,8,12,4,4,6,6
21:05:00,7,6,1,5,4,2,4,5,4
21:06:00,3,4,10,8,6,8,5,6,6
21:07:00,9,7,8,10,6,6,5,8,7
21:08:00,9,7,3,9,6,5,3,7,6
21:09:00,3,4,7,11,1,3,1,5,4
21:10:00,9,4,6,3,5,7,1,5,5
21:11:00,7,8,11,4,3,3,7,7,6
21:12:00,6,8,3,7,7,5,3,6,6
21:13:00,8,9,9,9,4,5,5,8,7
21:14:00,6,9,10,6,4,5,2,7,6
21:15:00,10,5,6,3,6,1,3,6,5
21:16:00,7,3,4,9,4,5,1,5,5
21:17:00,3,4,3,3,6,3,4,4,4
21:18:00,7,8,4,11,9,9,5,8,8
21:19:00,6,6,6,7,1,3,6,5,5
21:20:00,4,5,7,4,5,3,7,5,5
21:21:00,4,7,1,12,5,5,0,6,5
21:22:00,5,6,1,3,2,4,3,3,3
21:23:00,4,6,4,3,5,9,1,4,5
21:24:00,4,8,5,4,9,3,7,6,6
21:25:00,7,8,6,3,4,4,4,6,5
21:26:00,2,9,8,12,5,7,7,7,7
21:27:00,4,2,3,4,2,5,2,3,3
21:28:00,5,7,7,6,5,6,5,6,6
21:29:00,4,3,3,4,8,3,1,4,4
21:30:00,5,1,4,8,3,4,4,4,4
21:31:00,5,3,5,3,4,2,4,4,4
21:32:00,3,3,7,6,4,1,2,5,4
21:33:00,4,9,6,7,6,2,2,6,5
21:34:00,7,8,5,5,10,5,4,7,6
21:35:00,8,7,4,4,5,1,2,6,4
21:36:00,3,4,3,3,4,3,1,3,3
21:37:00,6,5,1,8,4,4,1,5,4
21:38:00,10,2,4,5,5,4,3,5,5
21:39:00,3,6,6,3,4,0,3,4,4
21:40:00,9,3,4,8,1,2,1,5,4
21:41:00,5,7,2,4,3,2,0,4,3
21:42:00,5,7,7,5,5,8,2,6,6
21:43:00,5,4,3,3,4,1,5,4,4
21:44:00,1,2,6,9,5,2,1,5,4
21:45:00,1,4,7,5,2,2,1,4,3
21:46:00,5,7,7,9,6,4,1,7,6
21:47:00,3,7,7,7,6,5,1,6,5
21:48:00,4,6,6,7,6,4,2,6,5
21:49:00,4,7,7,5,8,2,2,6,5
21:50:00,4,3,3,5,3,6,3,4,4
21:51:00,1,3,3,6,7,3,1,4,3
21:52:00,1,4,4,5,2,1,2,3,3
21:53:00,6,2,4,8,5,3,4,5,5
21:54:00,4,4,7,5,6,4,3,5,5
21:55:00,3,6,6,3,3,5,3,4,4
21:56:00,7,3,9,4,8,6,1,6,5
21:57:00,7,2,9,6,7,8,3,6,6
21:58:00,3,2,3,7,6,3,1,4,4
21:59:00,3,5,4,6,3,6,2,4,4
22:00:00,3,7,9,4,5,4,1,6,5
22:01:00,9,2,11,4,4,3,0,6,5
22:02:00,1,5,5,3,4,3,3,4,3
22:03:00,4,5,6,4,5,6,1,5,4
22:04:00,7,8,4,6,4,6,5,6,6
22:05:00,6,4,3,4,6,3,2,5,4
22:06:00,8,3,2,10,2,4,2,5,4
22:07:00,10,6,5,1,5,3,4,5,5
22:08:00,4,9,5,3,3,5,0,5,4
22:09:00,1,4,3,4,6,7,2,4,4
22:10:00,3,8,7,5,8,4,0,6,5
22:11:00,3,4,2,6,5,10,2,4,5
22:12:00,5,3,2,6,5,6,1,4,4
22:13:00,6,5,4,6,3,4,5,5,5
22:14:00,1,0,4,6,7,7,2,4,4
22:15:00,3,8,4,1,4,5,1,4,4
22:16:00,2,5,5,6,8,5,2,5,5
22:17:00,4,4,4,5,9,3,1,5,4
22:18:00,3,6,4,10,5,3,0,6,4
22:19:00,7,4,2,5,7,7,1,5,5
22:20:00,6,1,3,7,6,5,3,5,4
22:21:00,6,3,8,6,4,3,3,5,5
22:22:00,7,3,4,3,3,5,5,4,4
22:23:00,8,4,5,10,5,5,3,6,6
22:24:00,3,3,6,3,3,4,1,4,3
22:25:00,4,3,4,4,4,8,4,4,4
22:26:00,3,3,1,7,7,2,1,4,3
22:27:00,5,6,4,5,2,2,2,4,4
22:28:00,4,6,3,4,3,4,7,4,4
22:29:00,1,2,5,7,6,2,3,4,4
22:30:00,2,3,1,1,8,9,0,3,3
22:31:00,1,2,3,3,4,5,1,3,3
22:32:00,1,0,4,3,3,3,2,2,2
22:33:00,3,6,1,1,6,3,1,3,3
22:34:00,0,0,6,4,4,6,1,3,3
22:35:00,0,2,5,5,2,2,1,3,2
22:36:00,1,3,2,3,1,1,2,2,2
22:37:00,5,2,3,6,3,0,2,4,3
22:38:00,1,5,5,1,4,4,2,3,3
22:39:00,4,6,2,1,3,2,1,3,3
22:40:00,4,4,2,2,6,4,5,4,4
22:41:00,2,1,1,3,4,1,3,2,2
22:42:00,2,3,1,2,2,3,3,2,2
22:43:00,3,2,2,2,4,8,7,3,4
22:44:00,0,1,2,2,3,4,2,2,2
22:45:00,1,5,1,2,6,1,2,3,3
22:46:00,2,2,2,4,4,5,1,3,3
22:47:00,1,3,2,2,3,3,3,2,2
22:48:00,5,4,4,1,1,4,2,3,3
22:49:00,2,4,2,2,2,4,0,2,2
22:50:00,2,1,3,0,5,3,3,2,2
22:51:00,2,3,1,3,4,4,3,3,3
22:52:00,2,4,2,2,7,3,1,3,3
22:53:00,2,3,3,4,2,6,2,3,3
22:54:00,2,2,3,1,3,2,1,2,2
22:55:00,4,3,3,2,2,3,0,3,2
22:56:00,3,0,3,1,5,7,0,2,3
22:57:00,2,3,2,3,4,4,2,3,3
22:58:00,2,4,0,2,4,5,3,2,3
22:59:00,1,2,0,1,4,3,1,2,2
23:00:00,5,3,3,1,2,5,0,3,3
23:01:00,1,5,4,2,1,3,1,3,2
23:02:00,5,0,4,4,4,3,3,3,3
23:03:00,3,1,1,1,3,8,1,2,3
23:04:00,2,2,4,4,2,4,3,3,3
23:05:00,3,1,0,2,2,7,0,2,2
23:06:00,2,1,2,1,2,8,0,2,2
23:07:00,2,2,1,4,3,3,2,2,2
23:08:00,2,2,4,5,2,2,3,3,3
23:09:00,5,5,0,2,2,3,0,3,2
23:10:00,2,1,4,0,2,4,1,2,2
23:11:00,0,1,5,0,1,4,0,1,2
23:12:00,0,1,2,2,1,4,1,1,2
23:13:00,3,3,0,0,1,6,0,1,2
23:14:00,2,1,1,0,7,2,1,2,2
23:15:00,1,1,2,0,5,5,1,2,2
23:16:00,0,1,3,1,7,0,0,2,2
23:17:00,1,1,2,5,2,5,2,2,3
23:18:00,1,1,2,3,7,5,0,3,3
23:19:00,0,0,1,3,1,2,0,1,1
23:20:00,0,2,2,3,2,3,0,2,2
23:21:00,2,1,4,4,2,6,2,3,3
23:22:00,1,2,5,4,4,4,1,3,3
23:23:00,3,0,1,2,3,1,0,2,1
23:24:00,1,0,2,3,4,3,1,2,2
23:25:00,1,0,0,2,3,3,0,1,1
23:26:00,2,1,3,1,2,1,1,2,2
23:27:00,2,1,1,2,2,3,1,2,2
23:28:00,0,3,2,1,2,8,0,2,2
23:29:00,0,2,1,2,4,2,0,2,2
23:30:00,0,1,1,0,1,3,1,1,1
23:31:00,2,1,3,2,4,5,1,2,3
23:32:00,1,1,1,3,4,5,1,2,2
23:33:00,2,3,0,0,2,3,1,1,2
23:34:00,4,3,2,2,6,3,0,3,3
23:35:00,1,0,2,3,4,0,1,2,2
23:36:00,0,0,2,1,3,2,0,1,1
23:37:00,2,1,0,1,4,4,1,2,2
23:38:00,6,0,0,2,5,5,0,3,3
23:39:00,1,0,1,1,3,3,1,1,1
23:40:00,5,1,0,0,4,8,0,2,3
23:41:00,10,0,0,1,5,4,2,3,3
23:42:00,4,1,2,1,1,2,0,2,2
23:43:00,5,2,0,1,5,3,1,3,2
23:44:00,2,1,2,1,1,3,0,1,1
23:45:00,3,0,1,1,0,1,1,1,1
23:46:00,2,0,2,1,4,5,3,2,2
23:47:00,0,1,0,3,3,5,0,1,2
23:48:00,2,0,0,2,2,1,0,1,1
23:49:00,2,0,0,0,2,1,1,1,1
23:50:00,0,0,3,0,5,1,1,2,1
23:51:00,3,2,0,1,2,3,1,2,2
23:52:00,2,2,1,0,1,1,0,1,1
23:53:00,0,0,0,1,1,2,0,0,1
23:54:00,0,1,1,3,1,2,0,1,1
23:55:00,2,0,2,0,5,4,2,2,2
23:56:00,0,0,2,2,1,3,0,1,1
23:57:00,0,0,1,0,3,4,0,1,1
23:58:00,0,1,0,0,3,3,1,1,1
23:59:00,1,2,3,0,5,4,0,2,2
,,,,,,,,,
Totals,,,,,,,,,
12H(7-19),8775,8772,8846,8881,9005,8493,6471,8856,8463
16H(6-22),10561,10557,10615,10775,10733,9799,7423,10648,10066
18H(6-24),10874,10843,10918,11096,11169,10259,7592,10980,10393
24H(0-24),11078,11037,11113,11290,11351,10475,7885,11174,10604
,,,,,,,,,
AM Peak,07:25:00,07:42:00,07:57:00,07:33:00,07:39:00,10:13:00,09:44:00,07:35:00,08:04:00
,908,959,921,990,905,936,684,925,749
,,,,,,,,,
PM Peak,15:30:00,17:10:00,15:39:00,18:25:00,15:51:00,12:04:00,12:00:00,15:36:00,15:37:00
,896,856,895,870,887,912,800,858,799
,,,,,,,,,
,,,,,,,,,
CA Traffic,,,,,,,,,VDA-net R2 15/11/2019
