Site Number,00008017,Unnamed: 2,Site Reference,00008017.1,Unnamed: 5,Unnamed: 6,Lat/Lng.,"52.03773,1.20164",Unnamed: 9
Radar 8017 Felixstowe Road Ipswich,,,,,,,,,
Vehicle Count Report,,,,Week Begin: 28 October 2019,,,Channel:,Total Flow,
,,,,,,,,,
,,,,,,,,,
,2019-10-28 00:00:00,2019-10-29 00:00:00,2019-10-30 00:00:00,2019-10-31 00:00:00,2019-11-01 00:00:00,2019-11-02 00:00:00,2019-11-03 00:00:00,"5-Day
Ave.","7-Day
Ave."
00:00:00,1,1,1,0,1,3,2,1,1
00:01:00,2,2,1,3,3,3,2,2,2
00:02:00,2,1,2,1,0,3,2,1,2
00:03:00,1,1,1,2,1,2,8,1,2
00:04:00,1,1,1,1,2,5,4,1,2
00:05:00,2,0,4,1,3,3,3,2,2
00:06:00,0,0,1,1,2,3,0,1,1
00:07:00,2,0,0,3,1,6,3,1,2
00:08:00,1,1,4,3,0,3,8,2,3
00:09:00,1,0,1,2,2,4,2,1,2
00:10:00,3,0,0,1,1,3,4,1,2
00:11:00,1,1,2,0,3,2,7,1,2
00:12:00,1,2,2,0,4,2,2,2,2
00:13:00,1,2,0,1,1,3,1,1,1
00:14:00,1,0,0,2,1,4,4,1,2
00:15:00,2,1,1,1,3,2,0,2,1
00:16:00,4,2,2,0,1,0,4,2,2
00:17:00,1,0,1,2,2,3,5,1,2
00:18:00,1,0,1,2,2,1,3,1,1
00:19:00,1,0,2,2,0,2,2,1,1
00:20:00,1,3,2,0,1,3,7,1,2
00:21:00,1,2,1,1,3,4,1,2,2
00:22:00,0,0,1,0,1,0,4,0,1
00:23:00,2,2,1,0,0,4,7,1,2
00:24:00,1,2,0,3,0,4,2,1,2
00:25:00,3,2,1,2,1,2,1,2,2
00:26:00,1,1,0,2,3,5,3,1,2
00:27:00,1,1,1,0,2,2,3,1,1
00:28:00,2,2,1,1,2,3,0,2,2
00:29:00,0,0,0,2,2,3,2,1,1
00:30:00,1,1,1,0,2,2,0,1,1
00:31:00,3,1,0,1,1,3,3,1,2
00:32:00,3,1,0,0,1,2,0,1,1
00:33:00,2,4,1,0,0,2,3,1,2
00:34:00,1,1,0,0,2,2,3,1,1
00:35:00,1,0,1,3,3,1,1,2,1
00:36:00,0,2,1,0,1,6,1,1,2
00:37:00,0,0,1,0,1,3,3,0,1
00:38:00,1,1,2,2,1,2,3,1,2
00:39:00,1,0,1,2,0,4,1,1,1
00:40:00,2,0,1,0,2,2,3,1,1
00:41:00,0,2,0,0,1,2,0,1,1
00:42:00,0,1,1,3,1,2,3,1,2
00:43:00,2,0,1,0,1,4,1,1,1
00:44:00,1,0,0,0,2,1,2,1,1
00:45:00,0,0,0,1,1,0,2,0,1
00:46:00,0,1,0,1,3,0,1,1,1
00:47:00,2,0,0,1,1,1,1,1,1
00:48:00,1,0,0,0,0,2,1,0,1
00:49:00,0,2,0,0,1,0,3,1,1
00:50:00,1,0,2,0,1,0,1,1,1
00:51:00,1,0,2,0,0,2,1,1,1
00:52:00,2,1,1,0,0,1,3,1,1
00:53:00,1,0,1,2,2,4,1,1,2
00:54:00,1,1,2,1,2,5,0,1,2
00:55:00,1,0,0,0,0,3,2,0,1
00:56:00,1,1,1,0,1,2,4,1,1
00:57:00,0,0,0,0,0,0,2,0,0
00:58:00,1,3,1,0,1,1,1,1,1
00:59:00,0,1,2,1,2,3,0,1,1
01:00:00,2,0,2,1,0,3,3,1,2
01:01:00,1,2,0,0,0,1,0,1,1
01:02:00,2,0,2,1,3,1,1,2,1
01:03:00,0,1,2,0,0,1,3,1,1
01:04:00,0,0,1,3,1,0,2,1,1
01:05:00,0,3,1,2,1,0,1,1,1
01:06:00,0,2,1,1,0,6,0,1,1
01:07:00,1,1,2,0,1,1,1,1,1
01:08:00,0,0,0,2,0,1,0,0,0
01:09:00,0,0,2,0,0,2,3,0,1
01:10:00,0,0,2,0,0,4,1,0,1
01:11:00,0,0,0,1,1,1,1,0,1
01:12:00,0,0,0,1,1,0,3,0,1
01:13:00,1,3,0,1,2,3,0,1,1
01:14:00,0,1,2,1,0,2,5,1,2
01:15:00,0,1,2,0,0,0,2,1,1
01:16:00,0,1,1,1,1,2,3,1,1
01:17:00,1,2,0,0,0,2,4,1,1
01:18:00,0,1,2,0,2,0,1,1,1
01:19:00,0,0,1,0,0,4,1,0,1
01:20:00,0,0,0,1,1,2,0,0,1
01:21:00,1,1,0,0,1,3,0,1,1
01:22:00,0,0,0,0,0,1,5,0,1
01:23:00,0,1,0,2,2,2,2,1,1
01:24:00,0,0,1,1,1,1,1,1,1
01:25:00,0,0,0,1,0,2,3,0,1
01:26:00,0,2,0,0,0,3,1,0,1
01:27:00,1,5,0,1,3,3,0,2,2
01:28:00,0,1,0,1,0,4,3,0,1
01:29:00,1,0,0,0,0,2,1,0,1
01:30:00,1,0,1,1,0,0,1,1,1
01:31:00,1,0,2,0,2,1,1,1,1
01:32:00,2,0,1,0,2,1,5,1,2
01:33:00,0,1,1,0,1,1,0,1,1
01:34:00,0,1,0,3,1,2,1,1,1
01:35:00,1,0,0,2,0,1,1,1,1
01:36:00,0,0,0,1,1,1,1,0,1
01:37:00,0,0,0,2,0,0,2,0,1
01:38:00,1,0,0,0,0,0,4,0,1
01:39:00,0,2,2,0,0,2,0,1,1
01:40:00,1,0,0,0,0,0,1,0,0
01:41:00,1,0,1,2,0,0,4,1,1
01:42:00,1,0,0,0,0,2,2,0,1
01:43:00,1,0,0,1,2,2,0,1,1
01:44:00,1,0,0,1,0,0,2,0,1
01:45:00,0,0,1,0,0,1,1,0,0
01:46:00,1,0,2,0,2,1,1,1,1
01:47:00,3,2,2,1,0,1,1,2,1
01:48:00,2,0,2,0,0,0,3,1,1
01:49:00,1,0,0,1,0,2,1,0,1
01:50:00,1,0,1,1,0,1,3,1,1
01:51:00,0,2,0,1,1,1,1,1,1
01:52:00,1,1,0,0,1,3,2,1,1
01:53:00,1,0,0,1,1,2,1,1,1
01:54:00,1,1,2,0,0,1,1,1,1
01:55:00,2,0,1,0,1,1,0,1,1
01:56:00,0,0,1,1,0,2,1,0,1
01:57:00,1,0,0,1,0,2,0,0,1
01:58:00,0,0,0,2,0,0,2,0,1
01:59:00,1,0,1,0,1,0,2,1,1
02:00:00,1,1,0,0,0,1,2,0,1
02:01:00,2,2,1,1,2,1,0,2,1
02:02:00,0,1,0,0,1,1,2,0,1
02:03:00,2,2,0,1,1,0,3,1,1
02:04:00,1,0,0,0,1,2,0,0,1
02:05:00,1,0,1,1,0,0,2,1,1
02:06:00,2,0,1,1,1,1,1,1,1
02:07:00,0,1,1,1,0,1,1,1,1
02:08:00,0,1,1,0,1,2,3,1,1
02:09:00,1,0,0,3,0,0,2,1,1
02:10:00,1,0,1,0,3,2,2,1,1
02:11:00,0,1,0,1,0,1,1,0,1
02:12:00,0,1,1,0,1,1,0,1,1
02:13:00,2,0,2,1,2,0,0,1,1
02:14:00,1,0,2,0,0,0,1,1,1
02:15:00,2,0,0,0,2,1,0,1,1
02:16:00,0,1,0,0,0,3,1,0,1
02:17:00,1,1,1,0,0,0,0,1,0
02:18:00,0,0,0,1,3,1,0,1,1
02:19:00,0,0,0,0,1,2,1,0,1
02:20:00,0,2,0,1,0,0,0,1,0
02:21:00,0,0,0,1,1,3,0,0,1
02:22:00,0,1,1,0,1,1,0,1,1
02:23:00,1,0,1,1,0,1,0,1,1
02:24:00,0,1,0,1,1,1,1,1,1
02:25:00,0,0,3,0,0,4,3,1,1
02:26:00,0,2,0,0,0,0,1,0,0
02:27:00,2,0,0,2,0,1,3,1,1
02:28:00,0,1,1,1,2,0,0,1,1
02:29:00,0,0,0,1,0,2,1,0,1
02:30:00,0,0,0,0,0,1,1,0,0
02:31:00,2,0,1,0,0,1,1,1,1
02:32:00,1,1,0,0,2,1,0,1,1
02:33:00,0,1,0,1,0,0,1,0,0
02:34:00,1,1,0,2,1,0,0,1,1
02:35:00,1,0,0,0,0,0,2,0,0
02:36:00,1,1,1,1,1,3,0,1,1
02:37:00,0,0,0,0,1,0,1,0,0
02:38:00,1,0,0,0,1,0,0,0,0
02:39:00,0,1,1,0,0,0,2,0,1
02:40:00,1,0,0,1,1,0,0,1,0
02:41:00,0,0,0,3,0,0,1,1,1
02:42:00,1,1,1,1,0,1,1,1,1
02:43:00,0,1,0,1,1,0,1,1,1
02:44:00,0,1,1,0,0,1,2,0,1
02:45:00,0,0,1,0,2,2,2,1,1
02:46:00,0,0,0,1,0,0,0,0,0
02:47:00,1,2,0,1,0,0,5,1,1
02:48:00,0,1,0,0,0,2,3,0,1
02:49:00,2,1,0,1,0,2,1,1,1
02:50:00,0,1,0,0,1,1,2,0,1
02:51:00,0,0,0,0,1,0,0,0,0
02:52:00,0,1,0,0,1,1,0,0,0
02:53:00,0,0,0,0,0,0,0,0,0
02:54:00,2,0,0,0,0,1,1,0,1
02:55:00,1,0,0,1,0,2,1,0,1
02:56:00,1,2,1,0,2,0,0,1,1
02:57:00,0,1,0,1,2,0,0,1,1
02:58:00,0,0,0,1,0,1,3,0,1
02:59:00,0,0,0,0,0,0,1,0,0
03:00:00,1,1,2,0,0,0,1,1,1
03:01:00,1,0,1,0,4,4,1,1,2
03:02:00,0,1,0,1,0,1,3,0,1
03:03:00,0,1,0,0,0,0,0,0,0
03:04:00,0,0,0,0,0,0,0,0,0
03:05:00,0,1,0,0,2,0,1,1,1
03:06:00,1,0,1,0,0,1,0,0,0
03:07:00,0,1,0,1,1,0,0,1,0
03:08:00,0,0,0,1,1,0,2,0,1
03:09:00,0,1,0,1,1,0,1,1,1
03:10:00,1,0,1,2,1,0,1,1,1
03:11:00,0,0,0,0,0,1,0,0,0
03:12:00,0,0,0,0,0,2,1,0,0
03:13:00,0,1,2,0,1,0,0,1,1
03:14:00,2,0,2,1,1,2,1,1,1
03:15:00,0,0,1,1,0,0,1,0,0
03:16:00,0,0,0,2,0,0,1,0,0
03:17:00,0,1,0,2,2,1,1,1,1
03:18:00,1,0,0,0,1,1,0,0,0
03:19:00,1,0,0,1,1,2,0,1,1
03:20:00,0,1,2,0,2,0,2,1,1
03:21:00,1,1,1,2,1,3,3,1,2
03:22:00,1,1,3,1,1,0,1,1,1
03:23:00,0,2,2,0,1,0,1,1,1
03:24:00,0,1,0,1,2,1,1,1,1
03:25:00,1,0,0,1,1,1,2,1,1
03:26:00,0,0,1,0,1,0,0,0,0
03:27:00,1,0,3,0,1,0,0,1,1
03:28:00,1,1,0,0,0,1,2,0,1
03:29:00,1,0,1,0,0,0,0,0,0
03:30:00,1,2,1,2,1,0,1,1,1
03:31:00,0,1,1,0,2,0,2,1,1
03:32:00,1,0,0,1,1,1,3,1,1
03:33:00,0,0,1,1,1,1,1,1,1
03:34:00,0,1,0,1,1,0,0,1,0
03:35:00,0,0,2,1,3,0,1,1,1
03:36:00,1,0,0,0,1,0,1,0,0
03:37:00,1,1,1,0,1,1,0,1,1
03:38:00,1,1,0,0,1,0,1,1,1
03:39:00,0,2,2,0,0,1,3,1,1
03:40:00,0,0,2,0,2,1,0,1,1
03:41:00,1,0,3,0,0,1,2,1,1
03:42:00,0,0,2,1,3,0,0,1,1
03:43:00,2,0,0,0,1,1,0,1,1
03:44:00,1,0,1,2,3,0,2,1,1
03:45:00,3,1,3,0,1,3,0,2,2
03:46:00,2,2,1,0,1,1,3,1,1
03:47:00,3,1,0,2,1,3,4,1,2
03:48:00,0,1,4,1,0,2,1,1,1
03:49:00,0,2,1,3,1,1,1,1,1
03:50:00,1,5,2,0,1,2,2,2,2
03:51:00,0,1,2,4,2,1,0,2,1
03:52:00,2,0,0,1,1,1,1,1,1
03:53:00,0,2,0,1,3,0,2,1,1
03:54:00,0,1,4,2,0,4,0,1,2
03:55:00,1,1,0,3,2,1,0,1,1
03:56:00,0,1,0,0,3,2,2,1,1
03:57:00,0,2,0,1,2,0,0,1,1
03:58:00,1,0,1,2,0,0,1,1,1
03:59:00,2,1,0,0,0,0,2,1,1
04:00:00,2,2,1,0,0,6,0,1,2
04:01:00,0,0,2,2,0,0,1,1,1
04:02:00,2,1,1,1,2,2,3,1,2
04:03:00,1,2,3,2,0,0,1,2,1
04:04:00,1,1,4,0,0,0,0,1,1
04:05:00,1,1,0,0,0,1,1,0,1
04:06:00,1,5,0,1,0,1,0,1,1
04:07:00,2,2,1,0,1,4,1,1,2
04:08:00,0,0,0,0,0,0,0,0,0
04:09:00,0,1,3,1,3,0,0,2,1
04:10:00,1,0,1,2,1,0,0,1,1
04:11:00,0,1,1,0,0,0,0,0,0
04:12:00,0,1,0,1,1,1,0,1,1
04:13:00,0,1,0,2,0,0,2,1,1
04:14:00,1,2,0,0,0,1,0,1,1
04:15:00,1,2,2,1,1,2,0,1,1
04:16:00,1,0,1,1,1,1,2,1,1
04:17:00,2,0,3,0,0,0,1,1,1
04:18:00,0,1,1,2,2,2,1,1,1
04:19:00,1,1,3,2,1,1,2,2,2
04:20:00,1,3,1,8,3,0,2,3,3
04:21:00,3,0,1,0,3,1,1,1,1
04:22:00,3,0,1,1,3,2,3,2,2
04:23:00,2,2,0,4,3,1,1,2,2
04:24:00,0,1,0,2,0,0,1,1,1
04:25:00,1,0,1,0,2,1,2,1,1
04:26:00,0,3,4,1,1,0,0,2,1
04:27:00,3,0,0,1,2,0,2,1,1
04:28:00,1,1,0,1,3,2,0,1,1
04:29:00,1,4,4,0,2,1,0,2,2
04:30:00,3,1,1,2,2,1,0,2,1
04:31:00,1,0,0,2,1,1,0,1,1
04:32:00,0,2,0,2,1,2,1,1,1
04:33:00,1,0,1,0,3,2,1,1,1
04:34:00,2,2,0,1,0,0,3,1,1
04:35:00,1,1,1,0,2,0,1,1,1
04:36:00,3,2,2,0,1,2,0,2,1
04:37:00,5,0,0,2,2,0,1,2,1
04:38:00,1,2,1,2,1,1,1,1,1
04:39:00,1,2,1,2,3,2,3,2,2
04:40:00,2,2,3,4,0,1,0,2,2
04:41:00,3,2,1,2,3,4,0,2,2
04:42:00,0,1,6,3,0,1,1,2,2
04:43:00,1,1,0,3,2,0,1,1,1
04:44:00,3,3,2,0,2,0,1,2,2
04:45:00,1,1,1,2,5,0,2,2,2
04:46:00,1,0,1,0,4,1,1,1,1
04:47:00,2,3,5,5,1,1,0,3,2
04:48:00,2,4,1,0,5,1,4,2,2
04:49:00,2,3,3,4,2,2,3,3,3
04:50:00,5,4,3,4,1,2,1,3,3
04:51:00,4,2,4,2,2,0,1,3,2
04:52:00,3,2,1,3,3,2,1,2,2
04:53:00,1,0,1,1,0,0,0,1,0
04:54:00,4,2,1,2,3,1,1,2,2
04:55:00,3,5,4,1,0,2,1,3,2
04:56:00,3,3,3,4,4,1,0,3,3
04:57:00,4,2,2,3,1,0,0,2,2
04:58:00,6,2,3,7,0,2,3,4,3
04:59:00,3,2,1,2,2,2,0,2,2
05:00:00,2,1,0,4,0,0,1,1,1
05:01:00,1,0,3,2,0,0,0,1,1
05:02:00,1,1,2,3,0,0,0,1,1
05:03:00,2,0,2,5,1,1,0,2,2
05:04:00,0,1,0,1,2,0,1,1,1
05:05:00,2,2,2,1,0,0,1,1,1
05:06:00,1,1,1,2,3,0,0,2,1
05:07:00,2,4,1,1,2,2,0,2,2
05:08:00,0,0,2,4,2,6,3,2,2
05:09:00,1,4,1,2,3,0,1,2,2
05:10:00,2,4,3,4,4,2,2,3,3
05:11:00,1,5,2,2,3,1,1,3,2
05:12:00,6,2,2,3,4,3,4,3,3
05:13:00,3,0,1,1,5,0,1,2,2
05:14:00,1,2,2,1,3,4,0,2,2
05:15:00,1,5,1,3,1,2,2,2,2
05:16:00,1,2,7,3,1,0,2,3,2
05:17:00,0,0,2,1,0,0,1,1,1
05:18:00,1,5,6,0,4,1,0,3,2
05:19:00,2,5,2,6,1,1,0,3,2
05:20:00,3,6,1,3,6,3,2,4,3
05:21:00,4,5,5,3,3,1,3,4,3
05:22:00,3,2,4,5,2,1,0,3,2
05:23:00,3,4,1,1,4,2,1,3,2
05:24:00,3,4,7,2,2,5,1,4,3
05:25:00,4,2,2,3,2,1,1,3,2
05:26:00,5,7,3,1,3,1,0,4,3
05:27:00,1,2,2,5,4,1,0,3,2
05:28:00,1,3,4,2,7,1,0,3,3
05:29:00,5,5,1,4,3,4,2,4,3
05:30:00,2,3,3,2,7,4,1,3,3
05:31:00,3,1,2,6,3,1,0,3,2
05:32:00,3,6,3,4,3,2,3,4,3
05:33:00,5,3,3,4,5,0,1,4,3
05:34:00,5,4,9,2,6,3,2,5,4
05:35:00,4,10,5,6,7,3,1,6,5
05:36:00,6,8,13,7,4,1,1,8,6
05:37:00,7,7,5,6,1,4,1,5,4
05:38:00,6,7,5,5,6,1,3,6,5
05:39:00,5,10,4,9,10,2,0,8,6
05:40:00,15,10,5,9,5,3,2,9,7
05:41:00,6,10,6,7,5,1,4,7,6
05:42:00,7,4,8,6,6,2,2,6,5
05:43:00,2,5,5,7,8,6,3,5,5
05:44:00,9,8,10,8,7,4,1,8,7
05:45:00,5,7,5,7,3,4,0,5,4
05:46:00,7,8,8,4,5,4,3,6,6
05:47:00,7,4,7,11,6,1,3,7,6
05:48:00,7,8,7,6,4,1,0,6,5
05:49:00,11,10,10,7,7,1,0,9,7
05:50:00,5,6,11,6,6,2,2,7,5
05:51:00,11,6,5,5,11,5,3,8,7
05:52:00,9,8,6,3,9,2,2,7,6
05:53:00,6,8,11,8,6,1,1,8,6
05:54:00,6,5,4,5,4,3,0,5,4
05:55:00,3,9,6,10,1,0,1,6,4
05:56:00,1,8,3,5,7,0,1,5,4
05:57:00,10,14,13,7,12,1,1,11,8
05:58:00,6,7,9,9,12,4,1,9,7
05:59:00,10,12,5,4,6,1,1,7,6
06:00:00,5,6,6,10,7,3,0,7,5
06:01:00,8,4,7,3,4,4,1,5,4
06:02:00,4,6,2,5,3,3,3,4,4
06:03:00,7,2,4,4,8,6,0,5,4
06:04:00,5,11,10,6,6,1,2,8,6
06:05:00,6,5,3,10,8,3,2,6,5
06:06:00,6,9,10,5,3,5,1,7,6
06:07:00,6,8,12,9,10,7,1,9,8
06:08:00,6,5,6,10,3,1,4,6,5
06:09:00,7,8,12,4,6,5,4,7,7
06:10:00,7,3,11,4,11,5,4,7,6
06:11:00,10,6,4,7,11,4,1,8,6
06:12:00,4,5,17,3,5,8,6,7,7
06:13:00,6,10,6,10,11,6,3,9,7
06:14:00,8,7,12,10,6,7,5,9,8
06:15:00,3,14,5,9,7,5,5,8,7
06:16:00,10,6,16,11,9,9,5,10,9
06:17:00,13,8,4,13,8,11,3,9,9
06:18:00,12,7,5,6,9,2,6,8,7
06:19:00,14,6,9,5,4,5,1,8,6
06:20:00,7,5,4,9,10,3,3,7,6
06:21:00,6,10,5,8,10,9,2,8,7
06:22:00,11,10,10,11,7,4,4,10,8
06:23:00,11,12,12,12,5,7,2,10,9
06:24:00,4,11,13,10,12,7,6,10,9
06:25:00,5,16,13,9,12,3,3,11,9
06:26:00,10,8,15,12,10,5,3,11,9
06:27:00,9,6,11,8,10,2,3,9,7
06:28:00,10,12,14,10,9,7,0,11,9
06:29:00,14,10,9,4,3,5,2,8,7
06:30:00,14,12,13,15,12,2,6,13,11
06:31:00,8,13,14,15,11,4,4,12,10
06:32:00,8,12,14,16,10,3,3,12,9
06:33:00,11,18,14,18,12,6,8,15,12
06:34:00,9,9,9,15,9,5,3,10,8
06:35:00,15,26,14,19,14,5,4,18,14
06:36:00,16,13,18,14,14,9,1,15,12
06:37:00,15,9,19,19,22,11,7,17,15
06:38:00,9,19,18,13,11,8,4,14,12
06:39:00,13,14,10,10,20,9,5,13,12
06:40:00,11,17,20,16,12,8,5,15,13
06:41:00,16,18,12,14,10,6,5,14,12
06:42:00,14,16,23,22,18,10,5,19,15
06:43:00,13,15,10,20,18,5,2,15,12
06:44:00,15,17,28,25,13,8,5,20,16
06:45:00,17,18,16,11,21,8,7,17,14
06:46:00,22,15,24,19,18,10,5,20,16
06:47:00,15,16,10,20,17,8,4,16,13
06:48:00,21,34,18,16,17,4,5,21,16
06:49:00,25,15,19,19,19,14,8,19,17
06:50:00,22,19,13,19,27,6,4,20,16
06:51:00,19,25,16,19,20,8,5,20,16
06:52:00,23,13,15,17,23,13,0,18,15
06:53:00,17,18,20,20,29,13,3,21,17
06:54:00,25,18,14,17,18,6,3,18,14
06:55:00,17,20,16,11,12,9,3,15,13
06:56:00,24,14,23,22,17,12,3,20,16
06:57:00,9,20,22,26,15,7,5,18,15
06:58:00,18,10,12,14,19,8,5,15,12
06:59:00,18,17,17,19,12,7,5,17,14
07:00:00,23,30,13,10,19,5,2,19,15
07:01:00,19,17,14,23,20,7,6,19,15
07:02:00,18,19,26,15,25,6,7,21,17
07:03:00,19,25,14,29,10,8,2,19,15
07:04:00,10,22,25,13,16,6,5,17,14
07:05:00,24,28,22,25,24,17,3,25,20
07:06:00,21,30,28,24,18,7,6,24,19
07:07:00,15,19,19,19,25,12,5,19,16
07:08:00,19,21,25,27,26,13,8,24,20
07:09:00,31,33,32,24,15,13,10,27,23
07:10:00,17,27,27,17,21,8,5,22,17
07:11:00,22,20,29,24,29,11,9,25,21
07:12:00,21,30,21,32,25,8,4,26,20
07:13:00,29,30,35,33,21,11,5,30,23
07:14:00,31,32,21,20,25,12,3,26,21
07:15:00,19,25,35,23,25,15,6,25,21
07:16:00,28,38,22,30,25,13,7,29,23
07:17:00,22,26,31,25,22,19,6,25,22
07:18:00,26,32,33,27,31,13,6,30,24
07:19:00,24,23,24,22,24,14,10,23,20
07:20:00,35,37,36,21,19,13,5,30,24
07:21:00,24,26,28,25,22,12,7,25,21
07:22:00,23,30,43,25,27,8,6,30,23
07:23:00,26,34,34,19,23,15,4,27,22
07:24:00,22,28,24,42,28,9,5,29,23
07:25:00,32,29,31,24,38,12,1,31,24
07:26:00,15,35,32,32,27,8,6,28,22
07:27:00,39,29,26,25,29,10,6,30,23
07:28:00,35,41,32,27,25,9,3,32,25
07:29:00,29,26,29,33,19,10,6,27,22
07:30:00,43,25,27,31,28,10,7,31,24
07:31:00,34,41,29,24,29,10,4,31,24
07:32:00,38,29,34,29,40,14,4,34,27
07:33:00,29,38,30,31,30,16,5,32,26
07:34:00,36,35,30,40,39,10,3,36,28
07:35:00,31,41,36,34,32,18,8,35,29
07:36:00,40,33,37,26,22,8,7,32,25
07:37:00,37,37,31,32,43,11,6,36,28
07:38:00,29,27,34,32,22,15,8,29,24
07:39:00,35,27,26,27,45,13,11,32,26
07:40:00,29,39,45,24,30,12,3,33,26
07:41:00,23,40,41,36,36,16,4,35,28
07:42:00,34,29,29,36,33,13,14,32,27
07:43:00,28,55,38,39,34,11,5,39,30
07:44:00,38,26,32,34,33,17,9,33,27
07:45:00,34,37,38,38,30,21,12,35,30
07:46:00,29,38,31,40,35,18,8,35,28
07:47:00,43,39,40,31,33,21,6,37,30
07:48:00,44,47,38,44,36,20,5,42,33
07:49:00,40,38,27,32,30,16,10,33,28
07:50:00,33,45,39,35,40,21,10,38,32
07:51:00,40,37,41,34,38,19,9,38,31
07:52:00,26,41,35,48,33,22,11,37,31
07:53:00,44,46,32,33,28,16,9,37,30
07:54:00,48,33,37,37,37,19,8,38,31
07:55:00,35,33,25,39,32,14,9,33,27
07:56:00,34,38,42,38,27,19,7,36,29
07:57:00,25,33,39,27,38,24,6,32,27
07:58:00,42,32,41,41,32,12,3,38,29
07:59:00,35,35,24,32,40,19,7,33,27
08:00:00,38,37,31,40,35,19,5,36,29
08:01:00,49,35,26,36,30,15,5,35,28
08:02:00,38,20,31,38,39,17,1,33,26
08:03:00,18,34,43,29,26,7,0,30,22
08:04:00,33,41,30,36,31,23,10,34,29
08:05:00,34,33,40,47,37,13,9,38,30
08:06:00,48,38,37,39,32,18,5,39,31
08:07:00,40,34,32,33,27,24,3,33,28
08:08:00,29,36,32,49,37,11,4,37,28
08:09:00,26,39,36,28,40,17,9,34,28
08:10:00,34,25,29,42,32,17,9,32,27
08:11:00,39,37,37,30,37,18,7,36,29
08:12:00,34,39,48,39,30,19,9,38,31
08:13:00,32,37,25,34,35,16,5,33,26
08:14:00,42,26,46,30,29,10,4,35,27
08:15:00,31,39,38,53,21,21,7,36,30
08:16:00,34,40,30,31,44,16,14,36,30
08:17:00,35,39,35,31,31,19,9,34,28
08:18:00,41,26,27,45,37,9,9,35,28
08:19:00,28,48,26,41,26,19,10,34,28
08:20:00,38,42,43,34,40,22,8,39,32
08:21:00,30,37,39,40,42,17,6,38,30
08:22:00,35,32,28,38,31,22,5,33,27
08:23:00,40,47,33,37,28,16,10,37,30
08:24:00,37,32,31,45,39,23,8,37,31
08:25:00,37,44,33,25,33,18,12,34,29
08:26:00,25,38,31,42,24,16,8,32,26
08:27:00,46,33,39,30,33,17,6,36,29
08:28:00,36,41,38,34,26,20,7,35,29
08:29:00,37,29,40,44,39,23,5,38,31
08:30:00,40,40,38,31,27,19,10,35,29
08:31:00,41,43,37,36,43,23,6,40,33
08:32:00,28,37,32,40,33,17,4,34,27
08:33:00,44,39,28,48,39,23,5,40,32
08:34:00,29,34,40,31,41,29,7,35,30
08:35:00,33,28,36,38,30,22,8,33,28
08:36:00,25,52,39,46,42,28,8,41,34
08:37:00,38,35,40,39,29,19,9,36,30
08:38:00,29,31,27,26,37,25,7,30,26
08:39:00,38,28,41,47,42,23,12,39,33
08:40:00,42,36,40,23,45,22,10,37,31
08:41:00,34,39,29,31,26,27,9,32,28
08:42:00,27,36,28,37,30,31,7,32,28
08:43:00,33,28,36,26,32,25,12,31,27
08:44:00,34,47,39,39,31,19,13,38,32
08:45:00,35,26,39,36,32,31,20,34,31
08:46:00,38,28,28,38,37,30,12,34,30
08:47:00,28,41,21,31,32,23,13,31,27
08:48:00,36,33,34,30,21,24,5,31,26
08:49:00,27,28,35,47,38,28,13,35,31
08:50:00,31,34,32,23,29,21,7,30,25
08:51:00,24,31,31,41,33,22,6,32,27
08:52:00,48,39,39,25,40,15,10,38,31
08:53:00,23,31,33,28,32,27,13,29,27
08:54:00,39,31,30,34,31,14,13,33,27
08:55:00,30,37,40,31,34,19,11,34,29
08:56:00,27,37,22,29,27,16,9,28,24
08:57:00,37,30,35,32,37,17,12,34,29
08:58:00,22,25,39,40,41,22,12,33,29
08:59:00,40,36,30,37,34,23,8,35,30
09:00:00,30,34,37,33,37,22,13,34,29
09:01:00,30,39,36,29,36,10,9,34,27
09:02:00,36,31,36,42,31,24,9,35,30
09:03:00,32,25,31,36,28,8,13,30,25
09:04:00,33,24,33,40,27,17,16,31,27
09:05:00,35,31,34,27,30,16,15,31,27
09:06:00,31,33,27,18,39,18,11,30,25
09:07:00,23,34,23,33,27,37,11,28,27
09:08:00,27,31,29,33,40,24,11,32,28
09:09:00,32,29,28,38,26,27,18,31,28
09:10:00,35,39,32,30,37,22,16,35,30
09:11:00,32,30,28,38,37,17,12,33,28
09:12:00,25,26,34,42,28,30,18,31,29
09:13:00,29,42,30,30,26,27,21,31,29
09:14:00,30,38,33,31,33,21,24,33,30
09:15:00,34,30,31,31,28,28,11,31,28
09:16:00,33,33,30,48,27,20,16,34,30
09:17:00,30,38,29,20,31,22,20,30,27
09:18:00,31,33,48,36,26,20,12,35,29
09:19:00,25,37,38,34,18,28,18,30,28
09:20:00,23,28,26,46,36,24,19,32,29
09:21:00,21,35,28,39,28,23,10,30,26
09:22:00,37,37,33,27,41,28,12,35,31
09:23:00,25,37,27,25,24,27,22,28,27
09:24:00,25,27,36,39,37,25,20,33,30
09:25:00,24,31,25,41,33,25,22,31,29
09:26:00,35,27,35,27,29,22,26,31,29
09:27:00,28,34,32,34,32,26,23,32,30
09:28:00,23,31,32,30,32,24,13,30,26
09:29:00,29,30,34,38,25,34,24,31,31
09:30:00,26,33,31,32,31,30,19,31,29
09:31:00,36,32,35,37,30,27,18,34,31
09:32:00,30,30,32,30,33,37,24,31,31
09:33:00,32,21,28,32,25,42,17,28,28
09:34:00,25,27,37,36,28,27,14,31,28
09:35:00,32,38,28,37,34,20,14,34,29
09:36:00,30,26,30,29,38,18,20,31,27
09:37:00,26,34,39,31,20,26,22,30,28
09:38:00,32,28,29,39,23,32,23,30,29
09:39:00,39,25,29,34,28,29,24,31,30
09:40:00,35,30,30,35,34,26,22,33,30
09:41:00,36,25,36,29,33,29,28,32,31
09:42:00,35,35,34,36,37,29,23,35,33
09:43:00,36,36,30,43,25,29,16,34,31
09:44:00,37,28,31,23,30,39,21,30,30
09:45:00,24,23,26,32,27,25,22,26,26
09:46:00,32,24,30,35,29,41,23,30,31
09:47:00,28,33,38,29,18,31,21,29,28
09:48:00,36,31,24,38,33,39,24,32,32
09:49:00,25,22,31,26,30,34,29,27,28
09:50:00,30,28,25,30,38,33,30,30,31
09:51:00,25,37,31,25,35,36,27,31,31
09:52:00,36,29,38,30,31,27,25,33,31
09:53:00,24,30,23,42,24,39,30,29,30
09:54:00,28,21,31,43,21,33,22,29,28
09:55:00,42,28,38,34,38,33,30,36,35
09:56:00,30,50,20,35,32,37,24,33,33
09:57:00,35,29,28,31,28,41,27,30,31
09:58:00,37,24,33,28,27,37,29,30,31
09:59:00,23,24,25,25,27,33,37,25,28
10:00:00,30,25,36,33,27,26,32,30,30
10:01:00,39,28,37,36,35,29,30,35,33
10:02:00,32,33,33,38,35,32,30,34,33
10:03:00,30,29,33,27,41,46,31,32,34
10:04:00,33,36,23,20,30,39,27,28,30
10:05:00,42,33,24,25,27,28,31,30,30
10:06:00,31,25,26,32,27,33,44,28,31
10:07:00,32,33,37,30,27,46,33,32,34
10:08:00,29,34,26,27,33,28,25,30,29
10:09:00,29,28,22,40,24,34,37,29,31
10:10:00,31,26,33,25,31,35,24,29,29
10:11:00,36,29,25,36,26,37,22,30,30
10:12:00,31,26,32,28,25,33,31,28,29
10:13:00,25,31,24,28,24,31,34,26,28
10:14:00,28,29,26,30,29,30,32,28,29
10:15:00,34,18,36,28,33,41,38,30,33
10:16:00,34,19,36,14,32,32,28,27,28
10:17:00,29,34,28,33,34,31,31,32,31
10:18:00,31,32,30,27,39,29,51,32,34
10:19:00,36,30,25,33,26,37,27,30,31
10:20:00,29,23,30,25,35,37,24,28,29
10:21:00,26,35,25,34,22,30,33,28,29
10:22:00,29,31,28,18,38,30,23,29,28
10:23:00,30,33,42,37,31,28,27,35,33
10:24:00,31,39,28,25,29,30,36,30,31
10:25:00,34,30,27,18,31,28,28,28,28
10:26:00,29,31,37,28,32,25,37,31,31
10:27:00,30,29,29,37,27,38,29,30,31
10:28:00,28,15,28,30,27,28,41,26,28
10:29:00,31,29,31,27,29,36,32,29,31
10:30:00,28,29,28,30,26,25,37,28,29
10:31:00,19,34,33,29,34,33,35,30,31
10:32:00,26,25,30,26,29,30,31,27,28
10:33:00,38,36,26,25,32,35,38,31,33
10:34:00,29,27,41,36,34,30,42,33,34
10:35:00,29,37,29,31,16,35,33,28,30
10:36:00,32,38,20,29,42,28,42,32,33
10:37:00,34,27,38,30,33,40,32,32,33
10:38:00,21,30,39,31,39,27,36,32,32
10:39:00,25,45,36,21,37,38,40,33,35
10:40:00,30,28,26,29,33,30,41,29,31
10:41:00,24,35,37,36,30,26,38,32,32
10:42:00,26,39,43,24,38,29,30,34,33
10:43:00,24,45,36,30,31,30,43,33,34
10:44:00,39,42,37,30,42,30,42,38,37
10:45:00,31,44,28,24,21,26,40,30,31
10:46:00,39,34,32,35,27,30,41,33,34
10:47:00,26,24,28,30,35,42,30,29,31
10:48:00,16,42,34,41,30,27,29,33,31
10:49:00,30,37,31,27,27,33,32,30,31
10:50:00,33,32,26,32,38,33,42,32,34
10:51:00,26,44,37,36,37,41,33,36,36
10:52:00,35,31,30,58,23,29,30,35,34
10:53:00,27,43,26,29,25,35,28,30,30
10:54:00,36,22,30,23,21,38,37,26,30
10:55:00,32,31,27,26,33,36,27,30,30
10:56:00,25,33,32,32,36,21,28,32,30
10:57:00,33,35,37,24,32,27,36,32,32
10:58:00,27,34,29,34,39,40,34,33,34
10:59:00,24,23,30,39,28,33,41,29,31
11:00:00,29,38,35,32,26,33,25,32,31
11:01:00,29,28,39,40,34,32,38,34,34
11:02:00,28,34,41,27,31,40,41,32,35
11:03:00,38,35,30,36,36,28,40,35,35
11:04:00,38,26,36,28,31,33,30,32,32
11:05:00,44,27,36,42,27,33,38,35,35
11:06:00,33,29,35,41,34,44,43,34,37
11:07:00,33,23,27,38,43,36,39,33,34
11:08:00,41,37,40,34,33,27,32,37,35
11:09:00,35,25,31,34,45,35,25,34,33
11:10:00,31,30,30,35,31,46,25,31,33
11:11:00,23,20,25,37,36,39,37,28,31
11:12:00,34,21,36,38,33,36,38,32,34
11:13:00,23,31,28,28,34,30,30,29,29
11:14:00,30,35,25,37,26,45,23,31,32
11:15:00,28,29,30,39,31,26,39,31,32
11:16:00,34,37,32,37,33,27,33,35,33
11:17:00,30,23,34,38,40,34,47,33,35
11:18:00,25,32,19,32,28,34,31,27,29
11:19:00,39,29,43,36,40,31,33,37,36
11:20:00,35,35,25,36,33,44,37,33,35
11:21:00,37,37,21,43,19,34,41,31,33
11:22:00,27,25,42,29,37,39,41,32,34
11:23:00,35,24,41,34,35,37,25,34,33
11:24:00,33,32,32,35,36,39,31,34,34
11:25:00,22,27,46,28,31,29,24,31,30
11:26:00,42,33,29,32,36,43,29,34,35
11:27:00,33,25,33,31,41,36,35,33,33
11:28:00,35,20,40,32,41,37,35,34,34
11:29:00,36,32,29,35,28,33,33,32,32
11:30:00,26,39,29,37,35,31,30,33,32
11:31:00,35,30,29,37,45,39,33,35,35
11:32:00,31,31,35,30,33,39,50,32,36
11:33:00,37,41,33,37,39,41,37,37,38
11:34:00,26,25,24,36,30,26,34,28,29
11:35:00,25,39,25,25,36,37,37,30,32
11:36:00,36,34,25,28,34,32,43,31,33
11:37:00,36,32,32,31,29,40,42,32,35
11:38:00,34,30,25,29,26,32,29,29,29
11:39:00,19,27,26,36,38,30,39,29,31
11:40:00,33,33,31,30,38,40,36,33,34
11:41:00,37,29,26,34,26,42,45,30,34
11:42:00,32,25,30,30,35,37,37,30,32
11:43:00,23,33,36,37,43,38,36,34,35
11:44:00,31,36,38,40,36,29,35,36,35
11:45:00,32,32,36,29,38,31,34,33,33
11:46:00,27,37,37,37,44,28,48,36,37
11:47:00,28,30,26,34,30,36,34,30,31
11:48:00,36,19,40,39,32,40,37,33,35
11:49:00,35,42,39,29,34,42,35,36,37
11:50:00,30,35,29,33,42,36,24,34,33
11:51:00,39,26,39,31,32,40,40,33,35
11:52:00,23,33,34,28,18,36,39,27,30
11:53:00,39,38,25,37,49,31,38,38,37
11:54:00,37,33,32,29,37,49,36,34,36
11:55:00,43,36,28,32,40,34,32,36,35
11:56:00,24,24,33,32,27,40,39,28,31
11:57:00,39,28,24,24,46,33,35,32,33
11:58:00,24,43,32,48,30,45,43,35,38
11:59:00,28,37,33,32,30,32,37,32,33
12:00:00,32,31,37,28,44,32,33,34,34
12:01:00,35,35,32,32,33,29,42,33,34
12:02:00,35,26,35,26,33,36,46,31,34
12:03:00,33,31,38,36,48,29,42,37,37
12:04:00,34,44,38,42,41,44,34,40,40
12:05:00,39,31,40,31,35,46,39,35,37
12:06:00,38,31,37,44,39,38,36,38,38
12:07:00,24,27,32,43,46,44,41,34,37
12:08:00,31,35,42,41,34,32,44,37,37
12:09:00,26,35,30,28,30,36,26,30,30
12:10:00,29,33,33,27,33,34,44,31,33
12:11:00,26,28,25,31,30,41,32,28,30
12:12:00,31,27,37,32,32,43,41,32,35
12:13:00,25,35,25,36,38,38,40,32,34
12:14:00,27,36,37,29,36,30,53,33,35
12:15:00,28,30,30,36,30,42,40,31,34
12:16:00,40,34,18,30,33,30,37,31,32
12:17:00,29,37,31,37,28,39,31,32,33
12:18:00,29,30,40,28,33,37,46,32,35
12:19:00,27,37,35,33,28,35,38,32,33
12:20:00,49,25,31,26,34,32,47,33,35
12:21:00,47,33,30,25,34,31,32,34,33
12:22:00,25,27,40,49,28,27,41,34,34
12:23:00,25,36,25,36,33,42,39,31,34
12:24:00,43,36,22,8,23,46,33,26,30
12:25:00,40,33,37,37,39,40,48,37,39
12:26:00,41,35,31,40,27,29,41,35,35
12:27:00,42,37,39,35,36,38,42,38,38
12:28:00,31,41,34,30,30,39,37,33,35
12:29:00,35,47,32,23,18,30,36,31,32
12:30:00,36,29,29,53,39,37,38,37,37
12:31:00,28,27,38,43,37,36,41,35,36
12:32:00,27,40,25,32,34,32,35,32,32
12:33:00,32,30,34,26,33,45,45,31,35
12:34:00,31,30,31,37,37,40,45,33,36
12:35:00,33,41,26,30,30,37,36,32,33
12:36:00,30,19,23,30,31,37,35,27,29
12:37:00,25,34,27,39,27,37,29,30,31
12:38:00,35,30,38,28,37,24,27,34,31
12:39:00,30,33,35,21,33,49,38,30,34
12:40:00,34,37,28,46,39,37,44,37,38
12:41:00,33,34,35,34,36,26,32,34,33
12:42:00,34,26,46,47,27,40,45,36,38
12:43:00,27,30,33,29,32,29,34,30,31
12:44:00,29,22,26,28,37,41,47,28,33
12:45:00,29,42,30,39,31,37,46,34,36
12:46:00,41,29,37,33,40,37,35,36,36
12:47:00,32,28,25,25,38,42,40,30,33
12:48:00,35,41,32,40,37,22,33,37,34
12:49:00,36,33,28,22,26,48,35,29,33
12:50:00,34,30,28,34,31,36,31,31,32
12:51:00,32,23,36,30,41,35,41,32,34
12:52:00,41,33,33,35,31,37,41,35,36
12:53:00,39,42,26,30,44,32,35,36,35
12:54:00,22,30,20,38,33,34,39,29,31
12:55:00,23,23,48,30,38,40,36,32,34
12:56:00,39,50,36,30,42,33,37,39,38
12:57:00,26,34,31,32,44,33,51,33,36
12:58:00,28,42,32,26,27,35,42,31,33
12:59:00,35,29,25,31,41,25,49,32,34
13:00:00,27,31,35,22,33,26,32,30,29
13:01:00,30,26,27,32,36,38,29,30,31
13:02:00,36,33,29,36,42,40,41,35,37
13:03:00,36,22,33,29,33,28,34,31,31
13:04:00,36,40,38,33,31,26,30,36,33
13:05:00,40,26,24,37,27,28,39,31,32
13:06:00,25,31,26,35,31,31,46,30,32
13:07:00,36,29,27,36,33,33,27,32,32
13:08:00,33,30,21,43,36,29,52,33,35
13:09:00,23,27,26,25,37,34,32,28,29
13:10:00,28,28,28,41,43,36,31,34,34
13:11:00,26,42,35,35,37,35,39,35,36
13:12:00,22,25,27,23,30,26,36,25,27
13:13:00,31,40,33,30,26,39,39,32,34
13:14:00,27,31,37,31,33,32,38,32,33
13:15:00,36,33,38,36,28,24,54,34,36
13:16:00,36,31,34,26,35,39,33,32,33
13:17:00,30,27,35,26,25,37,33,29,30
13:18:00,30,34,30,30,32,42,32,31,33
13:19:00,36,42,25,46,26,34,33,35,35
13:20:00,32,29,28,44,34,33,36,33,34
13:21:00,28,36,42,47,34,43,34,37,38
13:22:00,35,40,34,34,24,34,30,33,33
13:23:00,32,29,32,26,34,32,32,31,31
13:24:00,29,35,25,41,35,49,35,33,36
13:25:00,34,45,32,31,19,44,40,32,35
13:26:00,36,25,39,30,36,35,37,33,34
13:27:00,24,36,33,39,34,32,43,33,34
13:28:00,33,28,30,38,33,25,40,32,32
13:29:00,38,21,29,36,35,32,40,32,33
13:30:00,27,40,35,34,32,23,40,34,33
13:31:00,29,35,33,33,31,30,35,32,32
13:32:00,28,32,35,43,32,34,37,34,34
13:33:00,36,45,34,36,34,33,30,37,35
13:34:00,25,39,46,37,36,33,27,37,35
13:35:00,32,27,34,46,26,31,37,33,33
13:36:00,19,30,30,29,32,40,31,28,30
13:37:00,40,24,27,25,41,41,37,31,34
13:38:00,31,32,40,43,39,37,37,37,37
13:39:00,29,32,25,38,30,36,38,31,33
13:40:00,29,24,36,33,25,24,30,29,29
13:41:00,39,32,21,33,41,36,39,33,34
13:42:00,26,24,42,23,35,39,43,30,33
13:43:00,37,29,36,23,44,23,35,34,32
13:44:00,35,31,30,35,33,24,35,33,32
13:45:00,32,31,32,33,26,38,31,31,32
13:46:00,43,32,31,42,30,37,48,36,38
13:47:00,23,38,33,40,16,25,35,30,30
13:48:00,33,32,32,38,39,37,36,35,35
13:49:00,38,41,43,28,31,34,42,36,37
13:50:00,32,30,38,34,32,26,32,33,32
13:51:00,33,37,39,48,31,37,30,38,36
13:52:00,25,34,26,31,36,28,47,30,32
13:53:00,35,18,35,35,27,35,30,30,31
13:54:00,29,35,42,36,40,30,38,36,36
13:55:00,36,27,33,38,28,27,36,32,32
13:56:00,23,26,28,32,24,29,26,27,27
13:57:00,30,25,33,30,30,38,40,30,32
13:58:00,37,31,34,33,32,37,39,33,35
13:59:00,28,32,31,30,41,30,39,32,33
14:00:00,34,36,34,31,34,32,39,34,34
14:01:00,28,26,33,26,39,31,42,30,32
14:02:00,26,25,23,36,33,32,29,29,29
14:03:00,26,35,25,33,28,36,28,29,30
14:04:00,32,36,34,39,29,37,38,34,35
14:05:00,18,28,29,32,28,29,31,27,28
14:06:00,33,31,37,25,32,33,35,32,32
14:07:00,49,47,27,30,23,35,34,35,35
14:08:00,32,32,36,41,35,37,40,35,36
14:09:00,36,28,36,34,33,22,30,33,31
14:10:00,36,37,38,31,40,34,40,36,37
14:11:00,44,38,30,35,35,29,22,36,33
14:12:00,23,26,24,38,31,42,36,28,31
14:13:00,34,41,30,27,46,32,36,36,35
14:14:00,46,37,29,44,23,29,39,36,35
14:15:00,36,34,35,27,34,38,34,33,34
14:16:00,36,28,29,28,41,38,29,32,33
14:17:00,27,27,34,34,36,35,29,32,32
14:18:00,38,36,24,23,37,37,32,32,32
14:19:00,29,35,29,43,29,34,34,33,33
14:20:00,31,29,35,32,29,28,36,31,31
14:21:00,18,29,30,31,33,34,36,28,30
14:22:00,41,35,26,36,40,26,31,36,34
14:23:00,41,40,45,34,42,29,31,40,37
14:24:00,22,37,28,29,33,27,36,30,30
14:25:00,27,29,33,35,41,34,36,33,34
14:26:00,42,17,30,27,39,43,35,31,33
14:27:00,28,38,34,37,29,37,25,33,33
14:28:00,31,33,35,26,38,28,31,33,32
14:29:00,28,32,36,42,33,38,43,34,36
14:30:00,26,28,37,39,34,32,30,33,32
14:31:00,36,39,28,34,38,33,32,35,34
14:32:00,39,23,29,30,36,38,45,31,34
14:33:00,27,30,54,51,32,30,34,39,37
14:34:00,36,30,44,46,28,35,39,37,37
14:35:00,36,29,33,25,32,30,39,31,32
14:36:00,31,34,41,23,44,29,26,35,33
14:37:00,31,31,24,23,35,30,40,29,31
14:38:00,20,40,36,40,38,31,40,35,35
14:39:00,41,27,31,24,38,26,36,32,32
14:40:00,36,38,27,28,33,32,36,32,33
14:41:00,27,35,38,37,40,30,31,35,34
14:42:00,30,34,31,39,30,27,42,33,33
14:43:00,44,30,47,35,55,31,27,42,38
14:44:00,42,28,36,43,31,35,34,36,36
14:45:00,46,33,37,34,34,31,36,37,36
14:46:00,35,23,40,36,35,30,36,34,34
14:47:00,34,36,27,38,39,33,27,35,33
14:48:00,44,26,38,32,25,17,38,33,31
14:49:00,26,44,45,32,39,32,23,37,34
14:50:00,42,36,38,43,38,35,49,39,40
14:51:00,33,30,30,42,41,35,40,35,36
14:52:00,52,30,26,27,36,38,37,34,35
14:53:00,34,33,32,30,29,28,26,32,30
14:54:00,25,38,33,33,29,33,38,32,33
14:55:00,38,32,32,41,42,40,21,37,35
14:56:00,40,35,23,36,30,32,27,33,32
14:57:00,41,36,35,38,36,35,27,37,35
14:58:00,27,39,32,31,34,39,33,33,34
14:59:00,51,25,28,31,46,34,33,36,35
15:00:00,32,29,29,29,31,36,37,30,32
15:01:00,28,30,29,25,30,32,40,28,31
15:02:00,35,33,41,44,37,29,34,38,36
15:03:00,37,31,35,34,28,36,53,33,36
15:04:00,35,30,25,30,24,28,30,29,29
15:05:00,33,37,34,33,39,31,29,35,34
15:06:00,32,41,35,28,37,32,33,35,34
15:07:00,27,27,39,38,41,35,45,34,36
15:08:00,51,45,29,47,38,43,30,42,40
15:09:00,25,33,36,35,35,32,47,33,35
15:10:00,44,32,37,32,26,34,25,34,33
15:11:00,42,32,44,34,43,39,39,39,39
15:12:00,37,26,36,37,39,36,35,35,35
15:13:00,33,55,33,34,41,25,41,39,37
15:14:00,39,26,33,34,18,28,35,30,30
15:15:00,31,43,24,27,32,33,42,31,33
15:16:00,36,29,35,39,32,25,37,34,33
15:17:00,34,36,39,33,25,34,28,33,33
15:18:00,31,33,37,36,31,34,38,34,34
15:19:00,34,28,34,27,37,35,30,32,32
15:20:00,50,38,37,35,36,31,26,39,36
15:21:00,32,29,31,14,31,32,53,27,32
15:22:00,37,36,33,33,31,33,27,34,33
15:23:00,24,36,30,31,35,38,32,31,32
15:24:00,33,30,33,34,34,31,28,33,32
15:25:00,24,21,41,29,29,34,43,29,32
15:26:00,37,33,30,29,26,32,41,31,33
15:27:00,40,24,40,32,35,33,36,34,34
15:28:00,32,32,25,32,26,42,36,29,32
15:29:00,29,29,34,38,28,32,25,32,31
15:30:00,37,33,27,32,39,23,30,34,32
15:31:00,27,14,37,38,31,46,23,29,31
15:32:00,39,32,24,32,39,40,28,33,33
15:33:00,36,28,25,41,24,26,33,31,30
15:34:00,35,26,30,33,28,31,38,30,32
15:35:00,34,33,22,42,44,32,48,35,36
15:36:00,34,26,33,38,31,43,38,32,35
15:37:00,34,28,27,30,35,29,37,31,31
15:38:00,20,30,40,24,35,33,33,30,31
15:39:00,32,36,35,27,41,31,32,34,33
15:40:00,41,27,25,33,32,38,26,32,32
15:41:00,33,29,30,34,28,31,40,31,32
15:42:00,42,33,34,33,39,33,34,36,35
15:43:00,33,32,35,29,32,30,43,32,33
15:44:00,35,36,27,29,30,35,25,31,31
15:45:00,27,36,25,34,33,29,25,31,30
15:46:00,23,20,36,30,23,34,24,26,27
15:47:00,34,28,24,28,42,25,29,31,30
15:48:00,36,32,35,38,37,35,26,36,34
15:49:00,23,33,28,25,38,30,39,29,31
15:50:00,28,32,29,34,31,28,32,31,31
15:51:00,33,25,33,37,37,24,29,33,31
15:52:00,20,25,32,35,32,34,24,29,29
15:53:00,41,33,35,26,39,26,33,35,33
15:54:00,32,38,40,24,30,33,31,33,33
15:55:00,38,35,34,38,20,35,24,33,32
15:56:00,42,40,25,40,52,30,35,40,38
15:57:00,24,29,24,45,45,23,29,33,31
15:58:00,36,29,42,30,38,30,28,35,33
15:59:00,28,31,29,30,32,35,30,30,31
16:00:00,34,29,31,28,48,32,32,34,33
16:01:00,33,40,28,36,34,33,37,34,34
16:02:00,35,34,30,37,30,18,20,33,29
16:03:00,34,40,29,35,38,37,28,35,34
16:04:00,26,33,31,49,33,29,37,34,34
16:05:00,39,28,47,37,25,35,18,35,33
16:06:00,37,28,36,35,32,38,25,34,33
16:07:00,35,35,39,33,36,37,19,36,33
16:08:00,47,27,36,36,35,30,28,36,34
16:09:00,42,35,28,36,30,41,24,34,34
16:10:00,44,39,36,40,37,37,38,39,39
16:11:00,35,35,32,29,36,23,24,33,31
16:12:00,49,37,35,38,32,24,20,38,34
16:13:00,40,32,37,42,34,30,29,37,35
16:14:00,34,34,30,33,29,37,20,32,31
16:15:00,38,30,37,27,36,39,32,34,34
16:16:00,52,32,37,38,33,26,32,38,36
16:17:00,35,32,33,46,50,37,26,39,37
16:18:00,29,47,38,33,45,29,16,38,34
16:19:00,33,38,34,46,33,43,18,37,35
16:20:00,46,30,44,45,35,46,22,40,38
16:21:00,26,45,32,40,38,26,22,36,33
16:22:00,50,41,41,29,41,34,23,40,37
16:23:00,44,38,25,52,36,23,25,39,35
16:24:00,36,38,40,31,36,35,24,36,34
16:25:00,27,44,39,55,43,28,24,42,37
16:26:00,41,31,28,38,38,37,21,35,33
16:27:00,29,38,36,43,34,36,10,36,32
16:28:00,37,43,28,31,35,23,20,35,31
16:29:00,28,34,31,48,31,29,16,34,31
16:30:00,35,41,37,39,38,33,18,38,34
16:31:00,35,35,44,33,47,32,24,39,36
16:32:00,42,32,33,39,34,32,17,36,33
16:33:00,42,44,39,46,30,24,28,40,36
16:34:00,43,44,37,52,33,38,21,42,38
16:35:00,29,31,27,31,36,26,23,31,29
16:36:00,36,37,32,41,42,27,18,38,33
16:37:00,42,33,53,41,41,46,18,42,39
16:38:00,42,47,37,34,39,42,24,40,38
16:39:00,30,38,36,42,37,30,24,37,34
16:40:00,38,37,29,36,35,30,26,35,33
16:41:00,37,26,35,44,44,37,12,37,34
16:42:00,43,43,48,37,41,28,28,42,38
16:43:00,42,33,46,50,34,44,26,41,39
16:44:00,31,37,46,32,43,21,21,38,33
16:45:00,48,33,48,41,29,36,18,40,36
16:46:00,40,33,35,35,36,32,16,36,32
16:47:00,37,38,45,39,49,40,21,42,38
16:48:00,37,30,34,34,29,25,21,33,30
16:49:00,34,43,49,30,38,28,21,39,35
16:50:00,51,41,33,41,44,41,23,42,39
16:51:00,34,38,37,36,34,33,21,36,33
16:52:00,35,43,44,39,33,38,13,39,35
16:53:00,38,45,40,29,32,25,21,37,33
16:54:00,31,45,43,35,39,21,11,39,32
16:55:00,46,29,28,39,35,19,21,35,31
16:56:00,38,41,37,37,30,28,28,37,34
16:57:00,42,33,31,36,49,25,15,38,33
16:58:00,30,33,31,34,39,25,13,33,29
16:59:00,40,27,32,26,34,23,18,32,29
17:00:00,30,40,44,32,38,36,21,37,34
17:01:00,31,35,33,44,24,39,11,33,31
17:02:00,46,48,21,35,35,31,23,37,34
17:03:00,46,42,50,44,25,26,10,41,35
17:04:00,44,36,41,35,42,32,18,40,35
17:05:00,44,44,42,35,36,32,23,40,37
17:06:00,41,41,43,38,26,31,28,38,35
17:07:00,48,43,38,27,42,35,20,40,36
17:08:00,33,45,35,38,33,30,13,37,32
17:09:00,37,36,37,44,34,28,13,38,33
17:10:00,40,43,31,37,34,42,19,37,35
17:11:00,44,39,43,26,41,28,16,39,34
17:12:00,38,36,30,27,37,27,14,34,30
17:13:00,37,46,36,36,53,27,17,42,36
17:14:00,39,44,33,46,39,27,16,40,35
17:15:00,44,42,40,35,39,24,13,40,34
17:16:00,39,52,39,31,41,22,16,40,34
17:17:00,40,44,40,33,56,23,24,43,37
17:18:00,57,46,42,38,33,24,20,43,37
17:19:00,46,32,63,28,36,29,10,41,35
17:20:00,41,37,37,31,54,34,13,40,35
17:21:00,45,41,30,40,38,27,18,39,34
17:22:00,37,33,49,41,43,25,10,41,34
17:23:00,53,36,45,41,37,24,14,42,36
17:24:00,35,46,43,40,38,32,18,40,36
17:25:00,42,53,45,35,47,28,14,44,38
17:26:00,39,38,44,33,30,31,16,37,33
17:27:00,41,54,38,33,31,31,14,39,35
17:28:00,41,45,30,30,28,35,11,35,31
17:29:00,41,20,34,16,38,33,17,30,28
17:30:00,35,47,32,39,44,29,10,39,34
17:31:00,44,39,38,45,32,23,9,40,33
17:32:00,31,41,40,29,41,27,14,36,32
17:33:00,33,37,33,50,28,23,20,36,32
17:34:00,34,29,46,44,33,21,13,37,31
17:35:00,34,40,38,44,24,32,19,36,33
17:36:00,32,35,46,46,33,26,15,38,33
17:37:00,44,36,33,39,43,27,14,39,34
17:38:00,46,44,41,35,35,19,13,40,33
17:39:00,29,44,46,52,24,23,19,39,34
17:40:00,50,27,41,37,43,20,10,40,33
17:41:00,39,38,44,43,40,22,19,41,35
17:42:00,44,43,52,37,40,37,12,43,38
17:43:00,46,28,45,31,32,30,15,36,32
17:44:00,38,32,39,47,37,22,10,39,32
17:45:00,45,42,35,43,50,22,15,43,36
17:46:00,37,50,44,34,33,23,13,40,33
17:47:00,30,24,48,40,31,27,9,35,30
17:48:00,48,43,38,39,35,21,16,41,34
17:49:00,37,45,33,45,29,23,11,38,32
17:50:00,38,35,26,39,35,24,17,35,31
17:51:00,31,26,45,30,29,19,7,32,27
17:52:00,40,33,25,35,25,24,15,32,28
17:53:00,42,34,35,42,34,26,9,37,32
17:54:00,44,28,38,35,32,22,14,35,30
17:55:00,37,38,43,33,35,23,10,37,31
17:56:00,34,37,40,31,34,19,14,35,30
17:57:00,32,33,35,41,27,35,13,34,31
17:58:00,29,28,37,34,33,16,12,32,27
17:59:00,38,43,35,42,44,25,16,40,35
18:00:00,29,53,37,30,38,23,8,37,31
18:01:00,36,39,37,36,43,24,9,38,32
18:02:00,27,33,41,36,31,25,14,34,30
18:03:00,37,36,36,35,32,27,9,35,30
18:04:00,29,33,42,36,25,22,17,33,29
18:05:00,43,49,30,25,49,26,12,39,33
18:06:00,27,38,47,32,30,30,7,35,30
18:07:00,27,53,39,42,39,18,11,40,33
18:08:00,32,35,25,34,28,20,14,31,27
18:09:00,38,33,33,32,29,22,14,33,29
18:10:00,40,44,50,31,32,33,9,39,34
18:11:00,35,42,32,48,44,12,18,40,33
18:12:00,37,29,41,44,29,29,19,36,33
18:13:00,44,25,43,37,28,28,19,35,32
18:14:00,31,35,31,30,31,18,16,32,27
18:15:00,36,30,36,30,34,32,20,33,31
18:16:00,36,35,31,36,33,29,6,34,29
18:17:00,29,38,34,33,32,28,12,33,29
18:18:00,35,25,27,29,35,29,9,30,27
18:19:00,30,33,45,40,21,29,11,34,30
18:20:00,35,41,32,20,29,23,10,31,27
18:21:00,25,36,38,29,27,23,6,31,26
18:22:00,30,42,31,24,30,27,15,31,28
18:23:00,34,36,34,33,31,18,14,34,29
18:24:00,37,25,40,23,34,17,13,32,27
18:25:00,27,35,38,32,24,24,15,31,28
18:26:00,22,44,30,34,36,23,10,33,28
18:27:00,29,33,38,28,37,22,20,33,30
18:28:00,33,48,36,24,24,37,6,33,30
18:29:00,29,35,27,28,23,11,7,28,23
18:30:00,29,40,31,18,28,24,15,29,26
18:31:00,32,43,42,29,28,18,11,35,29
18:32:00,44,33,28,33,36,18,7,35,28
18:33:00,26,49,39,25,22,17,9,32,27
18:34:00,30,45,17,27,22,21,12,28,25
18:35:00,27,41,25,21,34,23,9,30,26
18:36:00,30,43,29,20,22,27,11,29,26
18:37:00,22,42,29,25,24,15,19,28,25
18:38:00,28,39,27,18,30,16,14,28,25
18:39:00,32,43,21,34,18,15,12,30,25
18:40:00,23,39,30,33,26,24,12,30,27
18:41:00,21,37,32,25,18,17,9,27,23
18:42:00,27,45,31,34,22,19,12,32,27
18:43:00,32,47,24,19,26,16,10,30,25
18:44:00,18,40,22,27,28,19,7,27,23
18:45:00,19,40,37,26,24,15,9,29,24
18:46:00,26,33,31,30,25,17,9,29,24
18:47:00,21,53,30,22,34,11,8,32,26
18:48:00,27,39,22,18,23,18,21,26,24
18:49:00,29,34,29,21,23,17,9,27,23
18:50:00,25,52,27,31,20,20,12,31,27
18:51:00,27,36,27,21,22,13,14,27,23
18:52:00,29,38,40,28,17,15,12,30,26
18:53:00,16,27,28,21,25,14,13,23,21
18:54:00,37,31,33,25,24,24,14,30,27
18:55:00,21,32,29,32,21,18,15,27,24
18:56:00,19,29,49,29,32,11,17,32,27
18:57:00,32,36,31,32,22,21,11,31,26
18:58:00,18,35,20,20,26,21,14,24,22
18:59:00,19,23,40,21,29,22,11,26,24
19:00:00,28,40,22,33,23,23,10,29,26
19:01:00,18,38,23,22,21,17,13,24,22
19:02:00,26,28,25,27,26,18,7,26,22
19:03:00,33,41,29,25,24,21,19,30,27
19:04:00,29,21,27,27,28,12,15,26,23
19:05:00,30,32,30,29,18,21,11,28,24
19:06:00,36,27,27,32,30,14,13,30,26
19:07:00,27,35,33,17,24,19,17,27,25
19:08:00,12,32,30,31,19,21,11,25,22
19:09:00,29,15,31,30,23,15,12,26,22
19:10:00,21,38,35,32,32,18,12,32,27
19:11:00,18,19,41,37,19,20,9,27,23
19:12:00,32,16,34,16,27,19,16,25,23
19:13:00,26,23,25,18,32,19,15,25,23
19:14:00,19,28,30,21,25,23,8,25,22
19:15:00,35,41,35,35,26,18,12,34,29
19:16:00,10,17,29,13,35,13,14,21,19
19:17:00,28,31,29,34,20,25,13,28,26
19:18:00,27,24,32,32,26,14,12,28,24
19:19:00,35,34,18,29,27,9,10,29,23
19:20:00,21,36,23,19,21,18,8,24,21
19:21:00,21,27,22,27,25,17,6,24,21
19:22:00,25,17,28,17,33,17,12,24,21
19:23:00,26,21,21,25,24,16,16,23,21
19:24:00,19,21,27,21,29,17,15,23,21
19:25:00,19,18,22,30,17,21,10,21,20
19:26:00,27,28,18,23,17,11,13,23,20
19:27:00,22,22,31,21,26,15,13,24,21
19:28:00,16,12,31,21,30,24,9,22,20
19:29:00,19,16,17,16,19,11,9,17,15
19:30:00,20,16,31,22,26,14,10,23,20
19:31:00,19,26,19,15,20,13,10,20,17
19:32:00,18,20,22,27,24,18,15,22,21
19:33:00,18,14,32,19,22,10,9,21,18
19:34:00,19,22,21,19,13,16,15,19,18
19:35:00,21,25,12,19,22,16,10,20,18
19:36:00,25,16,23,15,25,15,13,21,19
19:37:00,26,13,11,14,20,19,13,17,17
19:38:00,12,16,21,21,39,7,18,22,19
19:39:00,16,24,25,9,29,21,8,21,19
19:40:00,26,29,23,17,14,11,9,22,18
19:41:00,18,13,21,23,26,14,13,20,18
19:42:00,16,26,19,25,16,19,13,20,19
19:43:00,18,18,21,11,14,13,7,16,15
19:44:00,24,15,19,25,19,11,13,20,18
19:45:00,20,14,25,18,18,8,10,19,16
19:46:00,9,16,11,17,14,9,10,13,12
19:47:00,16,21,24,20,16,16,11,19,18
19:48:00,21,15,22,15,11,11,11,17,15
19:49:00,21,22,24,20,18,9,8,21,17
19:50:00,12,22,15,19,13,18,9,16,15
19:51:00,17,20,28,13,11,10,9,18,15
19:52:00,19,19,17,15,21,9,8,18,15
19:53:00,14,14,15,23,14,9,22,16,16
19:54:00,13,18,20,21,21,9,6,19,15
19:55:00,13,16,21,24,13,14,9,17,16
19:56:00,21,12,22,20,14,21,11,18,17
19:57:00,10,15,21,17,14,9,10,15,14
19:58:00,11,27,11,25,30,12,5,21,17
19:59:00,17,15,17,23,18,6,6,18,15
20:00:00,18,20,24,16,9,9,10,17,15
20:01:00,16,21,29,26,16,18,10,22,19
20:02:00,9,20,17,23,8,11,6,15,13
20:03:00,8,14,24,19,19,14,8,17,15
20:04:00,18,13,20,14,14,12,8,16,14
20:05:00,16,21,16,16,16,10,10,17,15
20:06:00,24,18,14,18,19,8,10,19,16
20:07:00,16,20,19,15,16,7,2,17,14
20:08:00,20,19,19,14,20,9,10,18,16
20:09:00,20,26,21,23,27,10,7,23,19
20:10:00,22,24,19,24,17,8,7,21,17
20:11:00,23,29,13,12,12,18,8,18,16
20:12:00,21,22,18,25,24,8,5,22,18
20:13:00,16,16,24,19,19,10,7,19,16
20:14:00,19,21,25,13,20,11,12,20,17
20:15:00,23,19,9,22,15,8,12,18,15
20:16:00,11,20,23,17,19,7,12,18,16
20:17:00,13,20,14,23,25,9,10,19,16
20:18:00,12,19,9,21,17,11,10,16,14
20:19:00,11,15,16,11,19,8,9,14,13
20:20:00,20,18,16,9,20,15,8,17,15
20:21:00,24,7,18,17,12,16,3,16,14
20:22:00,11,16,19,14,14,11,8,15,13
20:23:00,14,13,14,18,8,14,7,13,13
20:24:00,10,10,12,13,11,14,6,11,11
20:25:00,15,6,13,16,15,8,5,13,11
20:26:00,14,12,17,12,17,18,12,14,15
20:27:00,11,13,11,10,14,8,9,12,11
20:28:00,9,15,10,12,16,7,7,12,11
20:29:00,15,18,14,19,19,10,13,17,15
20:30:00,11,19,15,27,10,13,7,16,15
20:31:00,9,12,17,12,15,15,9,13,13
20:32:00,12,11,10,13,13,13,15,12,12
20:33:00,13,8,14,17,12,11,8,13,12
20:34:00,15,14,17,18,12,11,11,15,14
20:35:00,8,13,16,18,20,5,3,15,12
20:36:00,5,16,14,10,8,8,9,11,10
20:37:00,6,12,10,13,17,13,12,12,12
20:38:00,9,16,9,20,9,13,9,13,12
20:39:00,10,5,11,19,20,18,9,13,13
20:40:00,8,11,13,10,12,8,8,11,10
20:41:00,14,11,11,16,15,10,6,13,12
20:42:00,5,16,17,14,8,18,8,12,12
20:43:00,14,15,11,10,22,22,5,14,14
20:44:00,11,12,18,12,15,9,12,14,13
20:45:00,11,12,11,11,11,6,8,11,10
20:46:00,7,17,19,13,12,8,7,14,12
20:47:00,14,17,7,17,15,15,8,14,13
20:48:00,9,15,12,10,13,4,10,12,10
20:49:00,16,13,17,10,12,7,9,14,12
20:50:00,7,10,8,8,11,11,4,9,8
20:51:00,16,18,17,16,21,12,6,18,15
20:52:00,8,11,12,9,10,14,10,10,11
20:53:00,15,7,7,14,10,13,3,11,10
20:54:00,10,14,5,18,12,10,7,12,11
20:55:00,17,9,10,9,11,8,12,11,11
20:56:00,9,9,7,8,10,14,4,9,9
20:57:00,8,8,9,15,14,7,7,11,10
20:58:00,11,14,7,10,7,5,5,10,8
20:59:00,3,11,14,8,7,20,5,9,10
21:00:00,11,15,10,10,13,7,4,12,10
21:01:00,18,12,13,7,11,6,5,12,10
21:02:00,3,14,10,18,8,8,9,11,10
21:03:00,14,8,5,15,4,10,3,9,8
21:04:00,8,8,11,12,14,10,5,11,10
21:05:00,9,8,10,13,9,10,9,10,10
21:06:00,10,10,8,13,7,11,6,10,9
21:07:00,8,9,10,4,14,14,4,9,9
21:08:00,8,11,6,15,14,16,9,11,11
21:09:00,8,14,12,10,13,14,9,11,11
21:10:00,7,13,7,14,14,11,6,11,10
21:11:00,10,14,7,12,11,14,12,11,11
21:12:00,13,16,5,12,8,19,5,11,11
21:13:00,10,9,14,6,10,6,9,10,9
21:14:00,10,12,8,4,7,9,4,8,8
21:15:00,10,8,13,15,13,9,8,12,11
21:16:00,5,8,8,11,12,10,5,9,8
21:17:00,10,14,6,7,7,11,7,9,9
21:18:00,10,11,4,10,8,14,6,9,9
21:19:00,14,9,7,10,6,8,5,9,8
21:20:00,9,6,10,14,11,15,4,10,10
21:21:00,7,2,9,11,5,6,1,7,6
21:22:00,8,13,10,9,13,10,4,11,10
21:23:00,11,7,7,8,16,4,4,10,8
21:24:00,10,8,12,12,6,15,5,10,10
21:25:00,7,13,7,10,11,7,5,10,9
21:26:00,10,11,9,9,4,13,4,9,9
21:27:00,8,11,16,9,13,10,6,11,10
21:28:00,12,8,1,11,15,9,6,9,9
21:29:00,6,14,11,11,10,15,6,10,10
21:30:00,8,8,8,10,9,4,4,9,7
21:31:00,10,4,7,17,9,7,4,9,8
21:32:00,9,13,10,13,9,6,6,11,9
21:33:00,6,12,5,15,13,14,5,10,10
21:34:00,5,10,10,11,15,3,5,10,8
21:35:00,10,7,9,18,9,7,6,11,9
21:36:00,7,7,8,4,13,7,10,8,8
21:37:00,9,7,4,7,5,9,4,6,6
21:38:00,7,10,11,13,8,14,4,10,10
21:39:00,8,10,13,7,5,9,6,9,8
21:40:00,4,5,6,7,9,11,4,6,7
21:41:00,10,9,8,5,12,9,4,9,8
21:42:00,8,8,12,5,8,11,8,8,9
21:43:00,4,13,10,7,8,11,8,8,9
21:44:00,7,11,12,1,5,5,6,7,7
21:45:00,7,6,8,11,7,7,4,8,7
21:46:00,3,6,9,10,7,8,4,7,7
21:47:00,6,8,10,4,6,8,5,7,7
21:48:00,3,10,2,6,6,9,5,5,6
21:49:00,7,4,13,7,8,10,7,8,8
21:50:00,10,13,10,8,10,7,5,10,9
21:51:00,4,11,7,2,6,5,2,6,5
21:52:00,8,4,18,8,9,7,4,9,8
21:53:00,5,4,6,11,15,7,12,8,9
21:54:00,9,3,6,8,7,10,5,7,7
21:55:00,5,4,5,4,5,6,4,5,5
21:56:00,12,7,6,7,9,13,5,8,8
21:57:00,6,7,12,6,6,8,6,7,7
21:58:00,7,11,6,7,6,14,6,7,8
21:59:00,7,6,5,8,7,12,8,7,8
22:00:00,8,6,6,9,7,4,4,7,6
22:01:00,7,12,6,10,5,7,6,8,8
22:02:00,4,9,14,7,7,9,10,8,9
22:03:00,5,6,10,8,15,8,4,9,8
22:04:00,9,10,5,8,6,6,1,8,6
22:05:00,8,3,12,11,8,9,2,8,8
22:06:00,2,8,19,4,10,6,5,9,8
22:07:00,5,3,20,15,10,7,8,11,10
22:08:00,10,11,9,9,10,9,1,10,8
22:09:00,8,11,8,17,6,13,7,10,10
22:10:00,8,7,8,8,6,7,4,7,7
22:11:00,6,5,14,12,5,6,4,8,7
22:12:00,3,4,6,8,15,7,2,7,6
22:13:00,4,4,5,10,5,13,2,6,6
22:14:00,9,5,11,11,13,7,6,10,9
22:15:00,6,7,9,7,10,8,2,8,7
22:16:00,4,5,10,3,10,6,3,6,6
22:17:00,7,7,6,12,6,12,5,8,8
22:18:00,4,7,7,9,9,6,4,7,7
22:19:00,8,2,10,9,3,12,3,6,7
22:20:00,10,5,8,5,5,7,7,7,7
22:21:00,12,6,11,5,7,6,3,8,7
22:22:00,5,11,8,8,8,6,4,8,7
22:23:00,7,6,6,8,8,9,4,7,7
22:24:00,5,6,7,6,9,6,3,7,6
22:25:00,9,6,12,7,9,5,5,9,8
22:26:00,7,6,6,4,7,3,3,6,5
22:27:00,11,3,7,9,4,5,1,7,6
22:28:00,7,3,5,1,7,10,2,5,5
22:29:00,6,3,9,7,9,10,2,7,7
22:30:00,3,7,7,5,5,6,5,5,5
22:31:00,8,5,8,2,8,6,4,6,6
22:32:00,6,3,5,5,7,6,3,5,5
22:33:00,5,4,4,6,3,8,2,4,5
22:34:00,4,8,3,4,3,9,5,4,5
22:35:00,5,2,4,4,0,3,4,3,3
22:36:00,6,5,7,3,8,7,4,6,6
22:37:00,2,5,2,3,8,5,4,4,4
22:38:00,4,2,3,7,4,8,4,4,5
22:39:00,3,2,5,1,9,6,1,4,4
22:40:00,7,4,7,4,5,7,3,5,5
22:41:00,3,5,6,5,4,3,2,5,4
22:42:00,4,6,6,5,6,9,4,5,6
22:43:00,2,4,4,4,6,9,2,4,4
22:44:00,3,10,2,3,3,7,4,4,5
22:45:00,2,3,3,7,3,8,2,4,4
22:46:00,6,7,2,7,4,6,1,5,5
22:47:00,1,2,2,3,7,7,5,3,4
22:48:00,2,3,3,2,2,3,1,2,2
22:49:00,6,8,8,1,2,5,0,5,4
22:50:00,1,4,5,5,7,8,7,4,5
22:51:00,3,5,2,1,8,9,2,4,4
22:52:00,11,5,2,5,6,4,3,6,5
22:53:00,3,5,3,2,3,9,2,3,4
22:54:00,2,3,3,3,8,9,3,4,4
22:55:00,1,3,0,4,4,3,4,2,3
22:56:00,3,2,7,2,9,3,1,5,4
22:57:00,2,3,4,1,5,4,1,3,3
22:58:00,3,2,3,3,6,6,5,3,4
22:59:00,1,1,3,2,5,12,4,2,4
23:00:00,2,3,4,4,3,5,2,3,3
23:01:00,3,3,3,5,2,4,5,3,4
23:02:00,4,2,2,0,5,4,1,3,3
23:03:00,3,3,4,2,5,5,2,3,3
23:04:00,3,2,3,4,5,6,0,3,3
23:05:00,3,3,3,4,3,6,1,3,3
23:06:00,6,7,4,0,3,5,2,4,4
23:07:00,2,2,2,2,3,6,1,2,3
23:08:00,4,3,1,4,9,3,3,4,4
23:09:00,3,3,7,2,6,2,3,4,4
23:10:00,0,3,6,5,5,3,3,4,4
23:11:00,2,3,2,1,2,7,4,2,3
23:12:00,2,1,2,3,3,3,1,2,2
23:13:00,3,2,4,6,6,5,2,4,4
23:14:00,1,4,2,3,1,6,3,2,3
23:15:00,1,3,1,5,7,6,3,3,4
23:16:00,2,2,3,2,8,3,2,3,3
23:17:00,2,3,1,4,2,5,2,2,3
23:18:00,0,5,2,4,7,3,4,4,4
23:19:00,1,5,2,3,3,4,1,3,3
23:20:00,1,2,4,5,2,2,2,3,3
23:21:00,3,3,0,3,5,2,4,3,3
23:22:00,3,1,1,5,1,2,2,2,2
23:23:00,0,2,2,1,2,2,8,1,2
23:24:00,1,4,1,2,6,3,0,3,2
23:25:00,1,5,3,3,4,9,4,3,4
23:26:00,2,2,2,2,6,2,1,3,2
23:27:00,3,1,5,3,4,4,1,3,3
23:28:00,1,2,2,6,7,4,2,4,3
23:29:00,2,4,3,5,4,3,3,4,3
23:30:00,3,1,4,1,4,4,5,3,3
23:31:00,1,1,3,3,8,8,2,3,4
23:32:00,3,2,2,2,3,5,2,2,3
23:33:00,1,1,2,2,6,1,2,2,2
23:34:00,0,3,3,2,2,2,0,2,2
23:35:00,0,2,5,3,4,1,2,3,2
23:36:00,1,6,3,1,5,2,0,3,3
23:37:00,0,0,4,1,7,5,0,2,2
23:38:00,3,1,4,0,2,4,2,2,2
23:39:00,1,1,2,1,3,3,3,2,2
23:40:00,0,3,1,0,4,1,0,2,1
23:41:00,3,0,0,2,7,3,0,2,2
23:42:00,1,3,3,2,4,4,0,3,2
23:43:00,0,0,4,0,2,6,1,1,2
23:44:00,4,5,1,2,2,5,2,3,3
23:45:00,1,3,3,1,1,3,1,2,2
23:46:00,0,3,1,4,4,4,1,2,2
23:47:00,0,1,0,1,0,7,1,0,1
23:48:00,2,2,4,2,4,4,1,3,3
23:49:00,4,0,1,1,2,3,2,2,2
23:50:00,1,2,2,2,5,8,1,2,3
23:51:00,0,5,2,1,3,1,2,2,2
23:52:00,0,3,1,2,3,8,2,2,3
23:53:00,3,1,1,2,6,2,4,3,3
23:54:00,2,1,2,1,2,3,3,2,2
23:55:00,1,1,2,1,5,3,0,2,2
23:56:00,0,0,1,0,3,3,0,1,1
23:57:00,1,1,1,1,3,3,3,1,2
23:58:00,1,2,2,1,3,2,1,2,2
23:59:00,0,2,1,1,2,3,0,1,1
,,,,,,,,,
Totals,,,,,,,,,
12H(7-19),23688,24172,23842,24024,23641,20603,17760,23873,22533
16H(6-22),26950,27720,27442,27597,27118,23147,19486,27365,25637
18H(6-24),27367,28179,27985,28094,27753,23806,19810,27876,26142
24H(0-24),27903,28745,28530,28641,28326,24319,20311,28429,26682
,,,,,,,,,
AM Peak,07:47:00,07:43:00,07:40:00,07:40:00,10:58:00,10:59:00,10:59:00,07:41:00,10:01:00
,2141,2209,2106,2220,2068,2147,2136,2139,1882
,,,,,,,,,
PM Peak,16:55:00,16:50:00,16:43:00,16:04:00,16:26:00,12:03:00,12:00:00,16:49:00,16:29:00
,2406,2376,2365,2293,2263,2169,2343,2310,2061
,,,,,,,,,
,,,,,,,,,
CA Traffic,,,,,,,,,VDA-net R2 15/11/2019
