Site Number,00009151,Unnamed: 2,Site Reference,00009151.1,Unnamed: 5,Unnamed: 6,Lat/Lng.,"52.04302,1.10101",Unnamed: 9
London Road Ipswich,,,,,,,,,
Vehicle Count Report,,,,Week Begin: 04 November 2019,,,Channel:,Total Flow,
,,,,,,,,,
,,,,,,,,,
,2019-11-04 00:00:00,2019-11-05 00:00:00,2019-11-06 00:00:00,2019-11-07 00:00:00,2019-11-08 00:00:00,2019-11-09 00:00:00,2019-11-10 00:00:00,"5-Day
Ave.","7-Day
Ave."
00:00:00,0,4,3,3,3,2,5,3,3
00:01:00,1,1,2,4,0,5,7,2,3
00:02:00,2,2,4,3,2,2,5,3,3
00:03:00,0,2,3,3,1,4,4,2,2
00:04:00,3,0,1,4,7,5,4,3,3
00:05:00,2,4,2,2,2,6,3,2,3
00:06:00,2,1,0,3,3,3,2,2,2
00:07:00,2,1,2,0,2,3,2,1,2
00:08:00,1,3,1,1,1,2,5,1,2
00:09:00,2,2,2,2,3,4,3,2,3
00:10:00,0,0,3,0,3,0,2,1,1
00:11:00,2,2,2,4,2,4,0,2,2
00:12:00,1,1,2,2,5,0,5,2,2
00:13:00,1,1,1,2,7,4,2,2,3
00:14:00,2,2,1,3,3,1,5,2,2
00:15:00,3,1,7,1,2,5,2,3,3
00:16:00,4,0,6,1,0,3,5,2,3
00:17:00,1,1,0,1,0,2,4,1,1
00:18:00,1,1,4,2,4,3,2,2,2
00:19:00,1,1,1,0,2,3,5,1,2
00:20:00,3,0,0,0,0,2,3,1,1
00:21:00,1,3,0,3,3,0,3,2,2
00:22:00,2,1,1,1,0,4,8,1,2
00:23:00,1,3,3,4,4,1,1,3,2
00:24:00,1,1,2,2,4,2,7,2,3
00:25:00,4,1,3,0,3,1,11,2,3
00:26:00,2,2,2,3,2,5,2,2,3
00:27:00,1,7,0,1,3,3,2,2,2
00:28:00,1,1,7,1,2,6,3,2,3
00:29:00,4,1,1,2,4,3,1,2,2
00:30:00,2,0,4,1,2,5,4,2,3
00:31:00,2,5,1,5,1,3,1,3,3
00:32:00,3,2,3,0,1,3,4,2,2
00:33:00,1,2,2,2,1,4,2,2,2
00:34:00,2,1,2,2,0,1,1,1,1
00:35:00,2,0,0,1,0,2,4,1,1
00:36:00,1,0,2,1,1,3,2,1,1
00:37:00,3,2,3,0,5,4,1,3,3
00:38:00,2,0,0,1,2,2,3,1,1
00:39:00,1,1,4,1,3,2,7,2,3
00:40:00,1,1,6,4,3,3,5,3,3
00:41:00,1,0,4,2,1,0,2,2,1
00:42:00,1,2,3,2,0,1,1,2,1
00:43:00,1,2,1,2,2,2,3,2,2
00:44:00,0,2,2,0,1,3,5,1,2
00:45:00,0,2,1,1,1,3,2,1,1
00:46:00,3,2,1,1,1,7,0,2,2
00:47:00,1,1,5,3,2,6,6,2,3
00:48:00,1,2,1,1,0,2,4,1,2
00:49:00,2,1,1,4,1,0,1,2,1
00:50:00,1,2,1,0,0,3,2,1,1
00:51:00,0,1,1,1,1,4,3,1,2
00:52:00,0,0,0,0,0,2,1,0,0
00:53:00,1,1,1,2,2,2,1,1,1
00:54:00,4,2,0,2,1,2,4,2,2
00:55:00,2,1,2,0,1,2,4,1,2
00:56:00,1,0,0,0,0,3,2,0,1
00:57:00,0,1,4,1,0,1,3,1,1
00:58:00,1,1,0,0,0,1,2,0,1
00:59:00,1,2,1,1,3,0,2,2,1
01:00:00,1,0,1,2,1,1,3,1,1
01:01:00,2,2,1,2,2,0,2,2,2
01:02:00,1,1,2,4,1,2,8,2,3
01:03:00,0,1,0,0,1,2,3,0,1
01:04:00,2,3,0,3,0,4,1,2,2
01:05:00,2,3,2,0,1,3,4,2,2
01:06:00,1,1,1,1,1,1,4,1,1
01:07:00,5,1,3,3,0,3,0,2,2
01:08:00,0,1,2,1,1,2,2,1,1
01:09:00,0,2,1,0,2,1,1,1,1
01:10:00,1,0,1,1,0,1,0,1,1
01:11:00,1,2,4,2,2,2,4,2,2
01:12:00,1,2,0,2,0,1,0,1,1
01:13:00,2,0,0,2,1,2,4,1,2
01:14:00,1,1,2,1,2,1,1,1,1
01:15:00,2,1,0,2,1,1,1,1,1
01:16:00,2,0,1,0,2,0,1,1,1
01:17:00,2,0,0,1,0,2,3,1,1
01:18:00,2,0,0,0,3,2,4,1,2
01:19:00,0,4,3,0,3,0,2,2,2
01:20:00,1,1,0,1,1,6,2,1,2
01:21:00,1,0,3,0,0,1,3,1,1
01:22:00,1,1,0,0,1,2,3,1,1
01:23:00,1,0,2,2,1,0,1,1,1
01:24:00,1,0,0,1,2,1,0,1,1
01:25:00,0,2,0,1,0,2,7,1,2
01:26:00,2,3,2,0,3,5,2,2,2
01:27:00,2,0,0,1,1,0,0,1,1
01:28:00,0,1,0,0,1,2,1,0,1
01:29:00,0,3,0,3,0,0,2,1,1
01:30:00,0,0,1,1,0,1,2,0,1
01:31:00,1,1,2,1,0,1,4,1,1
01:32:00,1,0,0,1,0,0,1,0,0
01:33:00,1,0,0,0,3,1,1,1,1
01:34:00,0,2,1,2,0,2,0,1,1
01:35:00,2,0,0,1,1,2,4,1,1
01:36:00,1,2,2,1,1,2,4,1,2
01:37:00,1,0,1,1,0,2,3,1,1
01:38:00,0,1,2,1,2,1,0,1,1
01:39:00,1,0,0,2,5,2,1,2,2
01:40:00,0,2,0,1,1,1,1,1,1
01:41:00,2,1,2,1,1,2,0,1,1
01:42:00,1,1,0,2,1,0,1,1,1
01:43:00,1,1,1,2,0,2,0,1,1
01:44:00,2,3,1,0,2,1,2,2,2
01:45:00,1,3,0,1,0,0,1,1,1
01:46:00,1,0,0,3,1,3,1,1,1
01:47:00,1,1,1,1,0,3,2,1,1
01:48:00,3,0,4,1,2,2,0,2,2
01:49:00,0,1,0,0,0,1,0,0,0
01:50:00,1,3,0,4,2,0,1,2,2
01:51:00,2,2,0,0,1,1,2,1,1
01:52:00,0,0,1,0,0,3,1,0,1
01:53:00,2,0,0,2,0,3,1,1,1
01:54:00,1,2,0,5,3,1,0,2,2
01:55:00,4,1,0,3,1,3,2,2,2
01:56:00,1,0,1,1,1,2,1,1,1
01:57:00,1,0,1,3,0,5,1,1,2
01:58:00,0,1,1,4,1,2,2,1,2
01:59:00,1,1,0,2,0,2,2,1,1
02:00:00,1,1,1,1,1,0,1,1,1
02:01:00,1,1,2,1,1,1,1,1,1
02:02:00,0,3,0,0,0,0,1,1,1
02:03:00,1,1,1,0,0,0,1,1,1
02:04:00,2,2,2,1,1,0,1,2,1
02:05:00,1,0,0,0,0,3,3,0,1
02:06:00,1,0,2,2,2,1,0,1,1
02:07:00,1,0,0,0,0,1,0,0,0
02:08:00,0,1,0,0,0,4,2,0,1
02:09:00,0,1,1,2,4,0,0,2,1
02:10:00,0,1,0,2,0,0,2,1,1
02:11:00,2,3,1,0,0,2,2,1,1
02:12:00,1,1,3,2,0,2,4,1,2
02:13:00,0,1,0,3,0,3,0,1,1
02:14:00,0,0,3,0,4,1,0,1,1
02:15:00,1,0,2,2,0,1,1,1,1
02:16:00,2,0,2,0,1,2,0,1,1
02:17:00,0,0,1,1,3,1,0,1,1
02:18:00,0,0,1,0,0,0,0,0,0
02:19:00,0,1,0,1,0,0,0,0,0
02:20:00,1,3,0,1,1,3,0,1,1
02:21:00,1,1,2,2,0,1,4,1,2
02:22:00,0,0,0,1,3,2,0,1,1
02:23:00,0,2,1,3,2,1,1,2,1
02:24:00,1,0,0,0,1,1,1,0,1
02:25:00,1,0,0,2,0,2,2,1,1
02:26:00,0,0,0,0,1,1,2,0,1
02:27:00,0,1,0,2,2,2,1,1,1
02:28:00,3,2,0,1,1,2,2,1,2
02:29:00,0,1,1,1,2,1,2,1,1
02:30:00,0,1,0,1,1,0,3,1,1
02:31:00,0,0,0,1,0,2,2,0,1
02:32:00,1,1,0,1,1,1,1,1,1
02:33:00,1,2,1,2,2,2,0,2,1
02:34:00,1,1,2,0,1,1,0,1,1
02:35:00,0,0,1,0,0,2,3,0,1
02:36:00,0,0,4,7,0,2,1,2,2
02:37:00,0,2,1,1,1,1,0,1,1
02:38:00,1,0,0,0,2,0,0,1,0
02:39:00,3,1,1,2,0,1,0,1,1
02:40:00,1,0,0,1,0,2,1,0,1
02:41:00,2,2,1,0,1,2,1,1,1
02:42:00,1,1,0,0,1,0,0,1,0
02:43:00,3,0,0,0,0,3,0,1,1
02:44:00,1,0,0,3,1,0,2,1,1
02:45:00,1,0,4,0,1,0,2,1,1
02:46:00,1,1,2,0,0,3,0,1,1
02:47:00,1,0,0,1,0,0,2,0,1
02:48:00,2,0,3,1,0,1,1,1,1
02:49:00,1,2,3,1,0,1,1,1,1
02:50:00,0,1,0,1,1,0,1,1,1
02:51:00,0,2,2,0,1,0,1,1,1
02:52:00,0,0,1,0,1,1,1,0,1
02:53:00,0,1,3,1,0,0,2,1,1
02:54:00,1,1,0,2,0,0,0,1,1
02:55:00,1,1,2,1,0,1,1,1,1
02:56:00,0,2,3,0,0,2,0,1,1
02:57:00,3,0,0,0,0,2,0,1,1
02:58:00,2,2,3,0,1,0,2,2,1
02:59:00,0,0,0,1,4,0,0,1,1
03:00:00,0,2,0,1,0,2,1,1,1
03:01:00,0,1,0,1,2,1,2,1,1
03:02:00,2,2,0,2,1,6,2,1,2
03:03:00,0,1,4,0,1,2,1,1,1
03:04:00,1,0,1,0,1,1,2,1,1
03:05:00,1,3,1,1,0,2,0,1,1
03:06:00,2,0,2,0,2,0,1,1,1
03:07:00,1,0,0,3,0,1,0,1,1
03:08:00,1,0,1,2,1,2,0,1,1
03:09:00,1,1,1,2,1,1,0,1,1
03:10:00,0,0,0,4,2,2,2,1,1
03:11:00,1,1,1,1,0,1,1,1,1
03:12:00,1,0,4,1,1,1,1,1,1
03:13:00,0,0,1,1,0,1,1,0,1
03:14:00,3,1,1,2,3,2,0,2,2
03:15:00,1,0,3,0,0,4,0,1,1
03:16:00,0,1,1,1,2,4,4,1,2
03:17:00,0,1,1,0,0,2,0,0,1
03:18:00,1,2,1,1,2,0,0,1,1
03:19:00,1,3,1,0,0,0,0,1,1
03:20:00,0,0,1,2,3,1,0,1,1
03:21:00,0,2,0,1,1,0,0,1,1
03:22:00,0,0,2,1,2,1,1,1,1
03:23:00,1,1,4,0,2,1,0,2,1
03:24:00,0,2,0,0,0,3,1,0,1
03:25:00,4,0,1,2,0,1,0,1,1
03:26:00,0,0,0,0,1,2,2,0,1
03:27:00,2,0,1,1,2,3,0,1,1
03:28:00,2,1,0,1,2,1,0,1,1
03:29:00,1,1,1,0,6,1,2,2,2
03:30:00,2,2,2,0,1,2,1,1,1
03:31:00,1,0,2,2,0,1,1,1,1
03:32:00,1,0,1,1,1,2,1,1,1
03:33:00,0,2,3,0,0,0,0,1,1
03:34:00,2,1,0,3,3,3,2,2,2
03:35:00,2,0,0,0,2,0,1,1,1
03:36:00,1,4,2,2,2,0,1,2,2
03:37:00,1,0,2,3,1,0,1,1,1
03:38:00,2,2,3,1,1,0,0,2,1
03:39:00,2,2,2,2,2,2,0,2,2
03:40:00,0,0,3,2,2,2,2,1,2
03:41:00,1,1,1,1,3,3,0,1,1
03:42:00,0,0,2,1,0,0,1,1,1
03:43:00,0,0,2,1,2,0,1,1,1
03:44:00,1,2,0,2,0,3,1,1,1
03:45:00,2,0,1,0,1,3,2,1,1
03:46:00,0,6,1,1,2,1,1,2,2
03:47:00,2,2,1,3,0,1,0,2,1
03:48:00,1,0,0,2,0,3,0,1,1
03:49:00,1,1,0,1,3,2,1,1,1
03:50:00,2,1,2,0,1,3,2,1,2
03:51:00,1,2,2,0,0,2,0,1,1
03:52:00,2,0,1,0,2,2,0,1,1
03:53:00,2,0,2,2,1,0,0,1,1
03:54:00,5,3,0,3,1,2,0,2,2
03:55:00,1,2,0,4,3,2,0,2,2
03:56:00,3,1,1,2,2,1,4,2,2
03:57:00,3,0,1,4,1,1,0,2,1
03:58:00,0,2,0,2,0,1,2,1,1
03:59:00,3,1,0,5,1,1,1,2,2
04:00:00,0,3,0,1,2,2,3,1,2
04:01:00,2,3,2,1,1,0,2,2,2
04:02:00,2,0,5,1,1,0,0,2,1
04:03:00,2,0,0,1,0,1,0,1,1
04:04:00,2,1,4,0,1,2,4,2,2
04:05:00,0,2,1,1,4,3,0,2,2
04:06:00,1,3,0,1,1,0,1,1,1
04:07:00,1,3,4,2,3,3,0,3,2
04:08:00,2,0,3,0,0,1,0,1,1
04:09:00,1,1,0,3,1,0,0,1,1
04:10:00,1,3,0,2,1,0,3,1,1
04:11:00,1,1,3,0,2,0,2,1,1
04:12:00,4,2,1,7,0,1,2,3,2
04:13:00,0,3,1,1,0,0,2,1,1
04:14:00,2,1,2,2,1,4,0,2,2
04:15:00,1,5,1,2,1,0,3,2,2
04:16:00,2,2,3,1,4,2,1,2,2
04:17:00,2,1,2,3,0,3,4,2,2
04:18:00,3,0,0,0,2,4,0,1,1
04:19:00,1,2,0,2,0,1,0,1,1
04:20:00,1,1,0,2,1,0,4,1,1
04:21:00,2,0,2,0,1,3,0,1,1
04:22:00,0,3,0,4,6,0,1,3,2
04:23:00,0,1,6,2,2,1,2,2,2
04:24:00,4,0,1,4,2,1,2,2,2
04:25:00,1,2,2,0,0,2,1,1,1
04:26:00,1,2,5,4,2,1,0,3,2
04:27:00,1,2,3,2,4,0,0,2,2
04:28:00,2,2,6,3,3,3,1,3,3
04:29:00,2,2,1,2,4,5,1,2,2
04:30:00,2,2,1,3,0,0,0,2,1
04:31:00,1,2,3,3,1,0,1,2,2
04:32:00,2,2,0,0,1,0,5,1,1
04:33:00,1,2,3,2,1,2,0,2,2
04:34:00,1,3,2,2,6,2,0,3,2
04:35:00,3,1,5,7,5,0,0,4,3
04:36:00,2,6,5,1,0,0,0,3,2
04:37:00,4,4,1,6,5,2,0,4,3
04:38:00,2,0,3,5,0,4,0,2,2
04:39:00,0,4,2,2,1,1,1,2,2
04:40:00,2,1,2,2,2,1,1,2,2
04:41:00,3,0,0,2,4,1,1,2,2
04:42:00,3,2,4,3,6,1,1,4,3
04:43:00,3,4,1,1,1,3,1,2,2
04:44:00,1,3,2,1,2,4,0,2,2
04:45:00,2,2,4,1,0,2,1,2,2
04:46:00,1,2,3,3,0,1,1,2,2
04:47:00,2,1,2,5,4,2,0,3,2
04:48:00,2,3,3,4,1,2,2,3,2
04:49:00,0,4,4,1,1,2,0,2,2
04:50:00,3,5,5,3,4,0,0,4,3
04:51:00,1,3,2,2,3,2,0,2,2
04:52:00,5,2,2,2,3,3,3,3,3
04:53:00,0,3,1,0,1,2,1,1,1
04:54:00,2,1,1,2,4,3,1,2,2
04:55:00,6,5,4,2,0,2,0,3,3
04:56:00,3,3,3,4,4,3,1,3,3
04:57:00,3,1,3,2,3,2,0,2,2
04:58:00,0,0,1,3,4,0,0,2,1
04:59:00,3,3,1,2,12,2,1,4,3
05:00:00,6,2,6,3,1,0,0,4,3
05:01:00,4,6,3,2,4,1,1,4,3
05:02:00,4,0,5,2,6,2,0,3,3
05:03:00,1,6,3,0,3,2,1,3,2
05:04:00,6,6,2,2,4,0,0,4,3
05:05:00,2,4,4,5,2,1,1,3,3
05:06:00,1,3,3,9,2,0,0,4,3
05:07:00,1,1,4,4,4,4,0,3,3
05:08:00,7,0,5,3,4,1,0,4,3
05:09:00,2,7,3,4,0,1,2,3,3
05:10:00,3,7,2,2,1,2,6,3,3
05:11:00,3,1,7,1,4,1,2,3,3
05:12:00,3,13,5,7,3,1,1,6,5
05:13:00,6,1,4,5,0,2,0,3,3
05:14:00,4,6,5,2,5,0,1,4,3
05:15:00,5,2,4,4,4,1,1,4,3
05:16:00,6,4,6,6,3,0,1,5,4
05:17:00,2,1,3,3,3,5,1,2,3
05:18:00,8,5,4,9,5,6,0,6,5
05:19:00,5,10,3,7,10,2,1,7,5
05:20:00,3,3,7,2,6,2,3,4,4
05:21:00,2,9,5,4,2,2,0,4,3
05:22:00,8,0,8,2,4,1,0,4,3
05:23:00,9,3,3,6,4,5,4,5,5
05:24:00,4,2,4,9,1,2,3,4,4
05:25:00,1,6,9,5,3,3,2,5,4
05:26:00,6,7,5,1,5,0,1,5,4
05:27:00,4,2,7,4,5,2,5,4,4
05:28:00,2,7,2,4,8,1,2,5,4
05:29:00,3,6,7,3,1,5,3,4,4
05:30:00,2,4,7,8,8,7,2,6,5
05:31:00,4,2,3,3,2,1,1,3,2
05:32:00,6,7,9,9,7,3,1,8,6
05:33:00,4,4,3,7,3,4,6,4,4
05:34:00,4,9,5,3,7,8,1,6,5
05:35:00,13,6,5,2,5,3,3,6,5
05:36:00,7,10,5,16,7,3,4,9,7
05:37:00,9,2,5,4,8,2,0,6,4
05:38:00,5,4,3,4,6,4,2,4,4
05:39:00,8,5,9,4,6,3,3,6,5
05:40:00,6,1,9,5,11,0,1,6,5
05:41:00,5,8,3,8,9,6,0,7,6
05:42:00,8,9,8,3,2,4,2,6,5
05:43:00,3,6,8,2,2,5,1,4,4
05:44:00,9,10,7,5,8,2,1,8,6
05:45:00,5,3,4,6,2,4,0,4,3
05:46:00,1,4,8,6,6,2,2,5,4
05:47:00,9,8,3,5,10,2,3,7,6
05:48:00,7,12,10,9,7,2,3,9,7
05:49:00,8,7,9,4,4,3,0,6,5
05:50:00,8,7,7,8,7,1,2,7,6
05:51:00,5,8,7,10,9,1,1,8,6
05:52:00,5,11,8,11,15,4,2,10,8
05:53:00,11,13,7,8,3,8,1,8,7
05:54:00,6,6,4,10,6,2,1,6,5
05:55:00,10,4,4,1,9,3,1,6,5
05:56:00,8,5,4,11,3,4,2,6,5
05:57:00,3,7,11,4,15,5,5,8,7
05:58:00,7,7,14,12,2,1,1,8,6
05:59:00,10,7,4,10,3,3,6,7,6
06:00:00,4,5,3,2,5,1,2,4,3
06:01:00,12,2,7,9,5,7,3,7,6
06:02:00,3,9,6,8,10,2,1,7,6
06:03:00,10,4,6,6,2,6,1,6,5
06:04:00,14,7,9,10,9,1,2,10,7
06:05:00,5,19,10,12,15,4,1,12,9
06:06:00,10,9,10,7,10,4,0,9,7
06:07:00,20,9,4,10,6,2,6,10,8
06:08:00,13,3,12,3,13,6,3,9,8
06:09:00,10,13,1,10,10,3,6,9,8
06:10:00,15,8,8,8,5,1,1,9,7
06:11:00,9,12,17,14,14,0,2,13,10
06:12:00,10,5,4,8,11,4,7,8,7
06:13:00,8,6,3,10,13,6,2,8,7
06:14:00,11,12,9,2,8,4,3,8,7
06:15:00,15,12,18,17,9,5,2,14,11
06:16:00,17,10,10,13,8,8,4,12,10
06:17:00,7,13,5,7,9,6,1,8,7
06:18:00,17,2,25,3,7,5,3,11,9
06:19:00,10,15,8,14,15,1,3,12,9
06:20:00,10,22,11,9,7,6,1,12,9
06:21:00,11,12,11,10,15,4,5,12,10
06:22:00,14,14,13,20,3,5,2,13,10
06:23:00,9,11,16,5,16,7,2,11,9
06:24:00,12,13,9,15,10,5,2,12,9
06:25:00,7,9,9,8,8,5,2,8,7
06:26:00,4,12,14,16,8,4,4,11,9
06:27:00,13,6,6,4,11,7,1,8,7
06:28:00,16,8,17,11,11,5,6,13,11
06:29:00,10,11,17,10,11,3,0,12,9
06:30:00,8,13,14,13,15,3,1,13,10
06:31:00,20,14,12,16,13,5,3,15,12
06:32:00,8,7,13,10,15,5,5,11,9
06:33:00,9,15,12,13,8,4,0,11,9
06:34:00,16,10,10,14,8,4,5,12,10
06:35:00,8,14,18,9,14,3,2,13,10
06:36:00,13,16,10,16,15,3,4,14,11
06:37:00,12,17,7,11,16,5,3,13,10
06:38:00,9,9,10,21,14,5,4,13,10
06:39:00,20,4,15,6,10,5,3,11,9
06:40:00,16,12,12,21,12,4,2,15,11
06:41:00,10,25,13,18,12,5,4,16,12
06:42:00,16,26,18,9,6,1,0,15,11
06:43:00,18,11,8,15,22,7,2,15,12
06:44:00,7,5,19,15,9,3,3,11,9
06:45:00,13,12,14,9,17,6,4,13,11
06:46:00,9,20,17,14,23,2,0,17,12
06:47:00,15,13,17,8,20,2,1,15,11
06:48:00,8,19,15,8,9,2,2,12,9
06:49:00,14,12,24,19,7,8,9,15,13
06:50:00,13,18,15,16,18,5,3,16,13
06:51:00,11,17,18,13,17,8,1,15,12
06:52:00,12,9,18,10,13,5,2,12,10
06:53:00,14,19,12,13,18,6,3,15,12
06:54:00,9,8,14,15,22,4,3,14,11
06:55:00,13,17,14,14,15,2,2,15,11
06:56:00,12,18,18,19,17,8,6,17,14
06:57:00,19,10,20,15,8,4,4,14,11
06:58:00,7,17,14,20,11,2,1,14,10
06:59:00,22,15,7,10,18,4,3,14,11
07:00:00,19,12,14,18,12,8,1,15,12
07:01:00,15,15,19,9,15,2,4,15,11
07:02:00,12,26,14,12,8,7,6,14,12
07:03:00,17,15,10,18,19,8,3,16,13
07:04:00,16,23,17,7,21,5,3,17,13
07:05:00,16,19,15,22,14,2,4,17,13
07:06:00,35,18,16,17,16,9,6,20,17
07:07:00,9,29,25,23,16,3,8,20,16
07:08:00,16,30,10,20,19,6,3,19,15
07:09:00,13,15,21,14,14,4,7,15,13
07:10:00,23,25,10,27,20,4,7,21,17
07:11:00,20,12,13,11,13,2,3,14,11
07:12:00,24,17,13,18,22,11,4,19,16
07:13:00,20,10,24,12,17,11,7,17,14
07:14:00,18,19,12,17,26,5,4,18,14
07:15:00,22,11,14,24,21,4,1,18,14
07:16:00,14,27,28,14,20,10,7,21,17
07:17:00,21,22,14,20,13,4,6,18,14
07:18:00,16,12,24,17,31,3,5,20,15
07:19:00,20,32,10,21,13,10,3,19,16
07:20:00,28,9,33,16,20,3,6,21,16
07:21:00,15,32,18,10,28,6,4,21,16
07:22:00,21,17,10,25,21,7,4,19,15
07:23:00,21,18,23,21,11,4,5,19,15
07:24:00,19,18,16,10,11,13,2,15,13
07:25:00,23,26,16,15,16,1,6,19,15
07:26:00,27,19,13,19,26,13,5,21,17
07:27:00,18,25,17,34,17,8,4,22,18
07:28:00,28,18,27,20,25,9,11,24,20
07:29:00,15,23,16,17,18,9,1,18,14
07:30:00,33,19,31,17,24,8,4,25,19
07:31:00,13,26,9,22,16,14,4,17,15
07:32:00,33,19,25,24,13,14,6,23,19
07:33:00,19,26,10,15,11,4,3,16,13
07:34:00,29,11,20,25,27,12,3,22,18
07:35:00,14,22,13,19,13,7,6,16,13
07:36:00,12,16,37,24,27,8,8,23,19
07:37:00,23,23,19,26,13,9,3,21,17
07:38:00,15,24,15,9,19,9,12,16,15
07:39:00,23,22,16,18,17,7,4,19,15
07:40:00,14,17,9,21,20,9,5,16,14
07:41:00,24,14,25,19,18,8,4,20,16
07:42:00,25,39,12,15,23,15,9,23,20
07:43:00,17,18,33,33,21,10,1,24,19
07:44:00,22,18,17,19,20,11,5,19,16
07:45:00,17,18,21,27,19,9,0,20,16
07:46:00,24,23,14,13,18,13,3,18,15
07:47:00,11,32,30,29,29,5,3,26,20
07:48:00,24,14,17,18,27,18,4,20,17
07:49:00,23,25,32,12,18,11,4,22,18
07:50:00,26,16,19,25,17,18,5,21,18
07:51:00,12,28,29,8,24,9,5,20,16
07:52:00,27,22,16,29,21,8,5,23,18
07:53:00,18,15,24,13,20,12,4,18,15
07:54:00,25,19,20,29,17,7,6,22,18
07:55:00,16,15,25,27,24,12,2,21,17
07:56:00,37,17,23,9,18,14,5,21,18
07:57:00,14,25,21,12,30,7,5,20,16
07:58:00,30,35,10,17,9,18,4,20,18
07:59:00,16,14,22,21,24,5,5,19,15
08:00:00,19,15,16,31,14,15,4,19,16
08:01:00,17,27,17,14,43,8,6,24,19
08:02:00,17,10,22,23,6,11,2,16,13
08:03:00,14,20,14,13,25,8,8,17,15
08:04:00,22,15,27,20,19,16,7,21,18
08:05:00,17,26,7,14,34,15,4,20,17
08:06:00,22,17,30,23,24,9,4,23,18
08:07:00,29,16,15,35,22,9,4,23,19
08:08:00,22,19,19,16,17,6,4,19,15
08:09:00,18,29,34,14,19,20,4,23,20
08:10:00,37,28,26,17,21,11,7,26,21
08:11:00,19,33,28,21,21,16,6,24,21
08:12:00,17,20,10,15,18,10,10,16,14
08:13:00,22,38,28,31,40,12,3,32,25
08:14:00,15,11,15,7,13,13,8,12,12
08:15:00,26,23,19,31,20,6,8,24,19
08:16:00,24,20,21,12,29,14,7,21,18
08:17:00,11,18,23,36,17,12,5,21,17
08:18:00,23,23,27,19,39,21,7,26,23
08:19:00,23,21,27,33,22,12,7,25,21
08:20:00,23,23,18,16,27,9,6,21,17
08:21:00,14,10,23,19,39,15,3,21,18
08:22:00,18,21,18,13,13,2,11,17,14
08:23:00,22,30,33,39,31,10,10,31,25
08:24:00,28,21,23,15,34,18,10,24,21
08:25:00,20,26,28,27,19,6,11,24,20
08:26:00,30,14,20,26,27,12,6,23,19
08:27:00,14,20,25,36,16,10,11,22,19
08:28:00,27,30,20,10,40,10,5,25,20
08:29:00,27,24,23,21,10,24,6,21,19
08:30:00,22,33,13,26,28,17,4,24,20
08:31:00,19,12,28,33,8,11,7,20,17
08:32:00,13,30,23,10,30,19,13,21,20
08:33:00,12,21,15,38,11,6,5,19,15
08:34:00,10,16,26,14,27,22,10,19,18
08:35:00,32,31,14,18,22,17,6,23,20
08:36:00,19,20,22,36,16,22,5,23,20
08:37:00,19,26,12,12,11,7,12,16,14
08:38:00,30,18,28,24,23,21,9,25,22
08:39:00,31,25,10,18,23,25,4,21,19
08:40:00,19,13,22,27,13,18,9,19,17
08:41:00,27,21,19,18,28,20,4,23,20
08:42:00,14,12,26,34,20,12,12,21,19
08:43:00,21,24,18,26,14,21,7,21,19
08:44:00,20,20,28,24,21,18,7,23,20
08:45:00,21,41,24,22,13,11,13,24,21
08:46:00,13,11,22,16,32,22,8,19,18
08:47:00,16,23,18,18,12,28,11,17,18
08:48:00,29,23,15,27,23,14,8,23,20
08:49:00,16,15,31,26,14,14,8,20,18
08:50:00,21,30,13,31,24,16,9,24,21
08:51:00,23,13,23,12,16,15,9,17,16
08:52:00,24,26,14,26,14,19,9,21,19
08:53:00,15,20,14,24,19,18,7,18,17
08:54:00,22,21,16,26,22,17,6,21,19
08:55:00,27,11,11,23,11,19,8,17,16
08:56:00,27,23,18,20,18,16,7,21,18
08:57:00,23,32,19,15,20,20,8,22,20
08:58:00,14,21,19,27,22,7,8,21,17
08:59:00,15,27,20,21,25,15,8,22,19
09:00:00,12,12,18,20,11,13,9,15,14
09:01:00,24,11,20,16,17,16,8,18,16
09:02:00,22,30,20,13,14,11,8,20,17
09:03:00,14,18,22,20,25,12,11,20,17
09:04:00,18,15,19,7,12,20,6,14,14
09:05:00,19,24,19,30,14,11,10,21,18
09:06:00,16,32,19,16,30,15,14,23,20
09:07:00,20,18,26,24,17,36,4,21,21
09:08:00,26,17,12,20,28,11,10,21,18
09:09:00,16,13,30,22,12,9,7,19,16
09:10:00,21,23,17,16,19,20,4,19,17
09:11:00,18,15,24,16,25,20,19,20,20
09:12:00,21,18,12,9,17,15,9,15,14
09:13:00,21,19,34,20,21,25,7,23,21
09:14:00,24,23,13,27,10,15,9,19,17
09:15:00,18,23,29,16,22,19,17,22,21
09:16:00,27,23,15,22,22,21,9,22,20
09:17:00,13,21,18,11,15,20,15,16,16
09:18:00,21,18,12,32,21,17,11,21,19
09:19:00,10,18,30,14,18,18,14,18,17
09:20:00,17,20,12,14,19,19,5,16,15
09:21:00,15,21,21,38,20,11,14,23,20
09:22:00,17,18,9,13,18,29,8,15,16
09:23:00,23,22,27,30,21,10,27,25,23
09:24:00,19,24,19,12,12,24,7,17,17
09:25:00,25,37,17,25,28,12,15,26,23
09:26:00,37,22,22,14,19,18,4,23,19
09:27:00,16,23,25,22,21,25,9,21,20
09:28:00,20,11,17,30,17,31,14,19,20
09:29:00,26,23,18,14,18,14,13,20,18
09:30:00,16,21,18,27,15,29,9,19,19
09:31:00,12,26,33,16,25,27,18,22,22
09:32:00,18,22,16,30,20,21,10,21,20
09:33:00,31,18,25,15,13,9,18,20,18
09:34:00,25,16,13,16,28,22,16,20,19
09:35:00,20,31,18,25,14,17,21,22,21
09:36:00,18,22,15,20,31,16,9,21,19
09:37:00,11,20,20,29,17,18,20,19,19
09:38:00,21,14,20,19,22,15,20,19,19
09:39:00,26,19,18,14,22,20,13,20,19
09:40:00,18,21,13,11,18,21,10,16,16
09:41:00,20,22,31,25,19,4,7,23,18
09:42:00,25,26,14,17,18,20,15,20,19
09:43:00,16,11,22,11,12,35,21,14,18
09:44:00,29,25,18,27,26,20,12,25,22
09:45:00,20,16,20,20,21,30,21,19,21
09:46:00,22,19,26,17,11,22,9,19,18
09:47:00,11,28,17,16,24,19,11,19,18
09:48:00,29,18,20,21,11,27,9,20,19
09:49:00,18,15,18,18,24,19,24,19,19
09:50:00,20,16,21,19,15,23,16,18,19
09:51:00,12,31,19,25,33,16,12,24,21
09:52:00,11,19,12,12,17,35,20,14,18
09:53:00,21,14,21,27,37,23,14,24,22
09:54:00,20,16,24,19,3,16,21,16,17
09:55:00,16,16,18,26,24,28,16,20,21
09:56:00,28,19,10,27,10,14,22,19,19
09:57:00,15,17,28,20,14,24,18,19,19
09:58:00,13,13,18,23,15,22,18,16,17
09:59:00,31,25,17,17,17,16,21,21,21
10:00:00,21,13,13,22,20,25,14,18,18
10:01:00,19,21,14,9,27,24,18,18,19
10:02:00,14,7,19,22,15,25,27,15,18
10:03:00,17,23,25,28,27,25,11,24,22
10:04:00,12,19,16,26,8,27,23,16,19
10:05:00,22,20,18,22,19,16,15,20,19
10:06:00,14,18,29,21,15,32,21,19,21
10:07:00,21,14,19,7,28,10,16,18,16
10:08:00,15,16,22,25,19,23,15,19,19
10:09:00,14,13,19,22,20,13,21,18,17
10:10:00,22,18,26,16,18,19,17,20,19
10:11:00,21,17,18,17,21,36,28,19,23
10:12:00,13,27,32,16,12,22,14,20,19
10:13:00,21,11,18,22,21,25,16,19,19
10:14:00,12,25,25,13,17,17,19,18,18
10:15:00,17,13,18,21,31,23,19,20,20
10:16:00,24,13,23,21,22,13,16,21,19
10:17:00,25,16,21,24,27,30,17,23,23
10:18:00,9,19,19,9,30,17,21,17,18
10:19:00,18,22,23,10,11,30,26,17,20
10:20:00,9,34,18,22,17,17,23,20,20
10:21:00,23,15,23,23,20,17,25,21,21
10:22:00,17,21,18,31,28,22,13,23,21
10:23:00,8,12,9,19,17,24,19,13,15
10:24:00,21,12,20,25,22,26,15,20,20
10:25:00,27,12,18,17,20,18,19,19,19
10:26:00,22,13,14,24,29,20,15,20,20
10:27:00,10,15,12,17,18,18,12,14,15
10:28:00,23,17,16,23,25,21,15,21,20
10:29:00,8,6,19,17,16,13,21,13,14
10:30:00,20,28,14,18,26,17,6,21,18
10:31:00,17,11,16,12,11,16,29,13,16
10:32:00,12,15,21,19,15,23,11,16,17
10:33:00,18,18,10,22,19,24,23,17,19
10:34:00,9,15,21,27,36,22,19,22,21
10:35:00,15,26,22,20,10,16,10,19,17
10:36:00,26,17,11,18,11,19,27,17,18
10:37:00,15,25,21,23,29,17,18,23,21
10:38:00,27,28,18,23,19,26,27,23,24
10:39:00,9,17,22,7,28,43,22,17,21
10:40:00,25,13,17,31,17,15,25,21,20
10:41:00,19,21,34,16,20,20,19,22,21
10:42:00,27,19,12,22,18,24,22,20,21
10:43:00,24,31,25,12,32,29,23,25,25
10:44:00,21,13,24,26,18,20,20,20,20
10:45:00,18,25,14,14,29,23,12,20,19
10:46:00,24,25,9,22,37,17,25,23,23
10:47:00,19,21,22,17,7,13,18,17,17
10:48:00,18,12,20,27,23,24,19,20,20
10:49:00,15,27,22,21,16,28,19,20,21
10:50:00,14,24,11,25,30,21,24,21,21
10:51:00,25,16,24,15,22,25,35,20,23
10:52:00,14,35,15,19,26,14,11,22,19
10:53:00,27,13,17,22,14,29,25,19,21
10:54:00,18,27,24,15,20,19,11,21,19
10:55:00,26,17,19,22,15,22,29,20,21
10:56:00,12,25,27,15,17,19,13,19,18
10:57:00,21,13,15,22,21,26,22,18,20
10:58:00,17,15,23,8,14,12,18,15,15
10:59:00,23,15,25,14,16,23,14,19,19
11:00:00,24,21,21,14,29,25,34,22,24
11:01:00,20,26,11,18,18,23,21,19,20
11:02:00,21,12,14,19,16,22,14,16,17
11:03:00,25,17,25,22,17,18,17,21,20
11:04:00,17,10,13,29,32,30,13,20,21
11:05:00,18,18,26,20,25,23,16,21,21
11:06:00,6,12,14,28,19,21,21,16,17
11:07:00,26,26,17,14,21,20,9,21,19
11:08:00,16,24,29,28,33,36,21,26,27
11:09:00,12,26,19,14,16,18,30,17,19
11:10:00,19,20,11,23,25,26,14,20,20
11:11:00,21,21,26,9,5,21,20,16,18
11:12:00,31,12,24,23,28,31,11,24,23
11:13:00,17,22,18,8,33,21,23,20,20
11:14:00,19,11,16,21,11,24,24,16,18
11:15:00,14,25,23,12,14,26,12,18,18
11:16:00,10,16,13,23,13,28,17,15,17
11:17:00,14,23,11,27,33,38,22,22,24
11:18:00,31,19,12,25,16,14,23,21,20
11:19:00,12,18,16,17,28,25,18,18,19
11:20:00,25,23,13,23,14,25,20,20,20
11:21:00,13,25,18,11,22,22,25,18,19
11:22:00,27,16,21,22,29,26,12,23,22
11:23:00,18,25,12,16,14,26,24,17,19
11:24:00,25,12,15,21,16,25,28,18,20
11:25:00,20,27,15,17,17,35,30,19,23
11:26:00,17,16,20,24,23,23,14,20,20
11:27:00,21,22,21,23,16,19,35,21,22
11:28:00,35,15,27,16,26,28,9,24,22
11:29:00,17,18,13,20,20,12,26,18,18
11:30:00,18,21,21,20,20,31,24,20,22
11:31:00,18,19,12,27,22,19,26,20,20
11:32:00,28,21,14,12,29,30,17,21,22
11:33:00,29,20,12,28,25,16,27,23,22
11:34:00,17,11,22,15,24,27,18,18,19
11:35:00,12,26,17,31,33,20,15,24,22
11:36:00,19,27,21,14,27,26,26,22,23
11:37:00,19,16,14,27,17,19,20,19,19
11:38:00,28,24,27,16,19,28,45,23,27
11:39:00,13,13,10,29,19,20,19,17,18
11:40:00,27,21,26,20,25,25,18,24,23
11:41:00,26,29,16,21,22,34,24,23,25
11:42:00,20,18,16,15,37,23,19,21,21
11:43:00,24,17,22,15,11,29,41,18,23
11:44:00,20,26,9,33,28,22,27,23,24
11:45:00,19,15,19,21,33,38,27,21,25
11:46:00,22,19,15,23,35,27,15,23,22
11:47:00,16,15,26,22,20,43,24,20,24
11:48:00,20,19,15,27,24,28,20,21,22
11:49:00,14,14,22,16,29,30,25,19,21
11:50:00,21,18,18,23,20,23,12,20,19
11:51:00,17,13,16,13,20,27,26,16,19
11:52:00,20,25,13,18,11,28,26,17,20
11:53:00,23,18,20,32,22,27,15,23,22
11:54:00,21,28,14,11,27,21,31,20,22
11:55:00,25,21,16,23,22,28,13,21,21
11:56:00,26,22,12,12,31,49,28,21,26
11:57:00,21,21,18,26,29,19,18,23,22
11:58:00,18,23,23,16,16,27,26,19,21
11:59:00,19,24,24,27,30,24,18,25,24
12:00:00,24,15,18,16,9,34,20,16,19
12:01:00,15,18,23,15,18,19,36,18,21
12:02:00,16,24,16,19,24,31,26,20,22
12:03:00,30,20,24,17,26,34,42,23,28
12:04:00,19,22,17,26,12,23,24,19,20
12:05:00,31,19,17,15,30,36,30,22,25
12:06:00,23,23,20,28,15,19,10,22,20
12:07:00,23,10,29,12,17,30,21,18,20
12:08:00,19,37,18,30,27,34,25,26,27
12:09:00,18,12,14,11,18,28,24,15,18
12:10:00,17,19,23,20,27,17,30,21,22
12:11:00,20,10,24,33,15,29,26,20,22
12:12:00,19,16,30,13,18,44,28,19,24
12:13:00,27,20,15,19,21,18,16,20,19
12:14:00,16,19,20,21,23,46,26,20,24
12:15:00,23,25,23,14,24,24,10,22,20
12:16:00,17,11,16,35,20,31,24,20,22
12:17:00,31,25,29,13,28,17,23,25,24
12:18:00,9,12,25,24,19,37,39,18,24
12:19:00,25,27,22,20,22,15,13,23,21
12:20:00,13,13,17,28,22,25,24,19,20
12:21:00,17,27,13,23,33,15,35,23,23
12:22:00,23,28,18,13,19,25,17,20,20
12:23:00,16,21,21,15,28,23,33,20,22
12:24:00,20,28,20,20,25,36,40,23,27
12:25:00,19,29,15,45,17,17,15,25,22
12:26:00,26,18,24,12,18,25,32,20,22
12:27:00,15,12,14,24,12,21,21,15,17
12:28:00,13,36,24,13,27,32,42,23,27
12:29:00,24,18,20,38,21,38,14,24,25
12:30:00,23,24,11,12,14,32,28,17,21
12:31:00,21,19,16,26,19,19,23,20,20
12:32:00,27,19,25,11,22,45,30,21,26
12:33:00,7,19,20,30,14,20,29,18,20
12:34:00,9,25,19,21,25,26,25,20,21
12:35:00,18,34,16,9,18,21,15,19,19
12:36:00,17,17,16,17,18,20,37,17,20
12:37:00,24,24,18,22,33,48,27,24,28
12:38:00,14,22,29,23,15,22,19,21,21
12:39:00,24,20,13,19,29,36,19,21,23
12:40:00,21,13,26,26,14,23,20,20,20
12:41:00,16,18,20,22,29,27,40,21,25
12:42:00,31,18,22,19,23,21,28,23,23
12:43:00,15,21,9,24,12,33,37,16,22
12:44:00,23,27,17,33,24,23,20,25,24
12:45:00,18,31,18,29,23,26,33,24,25
12:46:00,18,17,16,18,22,33,15,18,20
12:47:00,37,26,18,19,17,19,31,23,24
12:48:00,7,14,22,25,36,31,34,21,24
12:49:00,30,18,14,16,19,19,17,19,19
12:50:00,16,13,19,25,30,38,27,21,24
12:51:00,21,21,15,18,12,21,24,17,19
12:52:00,10,14,21,14,25,24,28,17,19
12:53:00,25,15,13,20,23,16,21,19,19
12:54:00,13,25,19,19,24,14,25,20,20
12:55:00,19,17,18,17,25,36,20,19,22
12:56:00,19,25,27,23,18,35,29,22,25
12:57:00,14,12,11,21,25,25,18,17,18
12:58:00,22,32,31,25,20,26,18,26,25
12:59:00,14,19,18,14,26,19,29,18,20
13:00:00,22,27,20,29,27,25,19,25,24
13:01:00,22,9,20,17,39,38,16,21,23
13:02:00,27,25,17,31,17,22,19,23,23
13:03:00,10,8,28,14,26,36,38,17,23
13:04:00,21,24,5,26,13,15,18,18,17
13:05:00,26,24,13,29,29,34,26,24,26
13:06:00,23,12,25,18,25,23,18,21,21
13:07:00,14,21,30,23,26,29,16,23,23
13:08:00,22,35,13,18,19,23,29,21,23
13:09:00,31,11,28,27,19,34,24,23,25
13:10:00,6,22,14,26,29,22,33,19,22
13:11:00,30,20,13,25,15,32,17,21,22
13:12:00,22,27,23,13,22,31,20,21,23
13:13:00,18,13,19,16,23,38,19,18,21
13:14:00,21,25,15,20,22,35,29,21,24
13:15:00,17,14,13,17,36,28,19,19,21
13:16:00,17,13,16,44,22,31,33,22,25
13:17:00,20,26,16,13,21,19,16,19,19
13:18:00,19,21,23,23,11,35,32,19,23
13:19:00,19,26,16,8,28,19,23,19,20
13:20:00,26,22,18,28,13,33,31,21,24
13:21:00,14,12,24,11,25,32,21,17,20
13:22:00,22,21,8,33,29,16,32,23,23
13:23:00,14,19,24,19,17,28,16,19,20
13:24:00,22,20,19,23,18,23,27,20,22
13:25:00,13,13,32,23,28,38,13,22,23
13:26:00,13,34,16,35,31,21,24,26,25
13:27:00,18,17,31,15,25,33,33,21,25
13:28:00,20,33,12,27,23,23,21,23,23
13:29:00,24,5,21,16,19,38,16,17,20
13:30:00,12,27,14,24,23,18,22,20,20
13:31:00,26,9,26,11,31,28,13,21,21
13:32:00,11,26,15,24,17,26,25,19,21
13:33:00,12,14,29,22,26,38,24,21,24
13:34:00,20,21,24,15,25,12,17,21,19
13:35:00,17,20,24,21,29,28,26,22,24
13:36:00,19,18,17,15,20,38,20,18,21
13:37:00,15,29,27,27,28,20,35,25,26
13:38:00,30,18,15,21,18,36,15,20,22
13:39:00,16,16,31,22,31,21,26,23,23
13:40:00,19,21,15,17,25,34,15,19,21
13:41:00,12,12,17,22,23,17,25,17,18
13:42:00,20,26,21,19,28,32,27,23,25
13:43:00,22,14,19,13,21,37,27,18,22
13:44:00,18,24,24,23,32,29,14,24,23
13:45:00,21,13,20,38,16,33,19,22,23
13:46:00,21,21,15,21,34,15,29,22,22
13:47:00,17,7,26,30,14,29,17,19,20
13:48:00,15,18,21,19,34,35,31,21,25
13:49:00,20,19,18,20,19,32,8,19,19
13:50:00,22,12,26,12,18,28,23,18,20
13:51:00,15,31,23,24,28,31,35,24,27
13:52:00,21,17,30,17,21,36,26,21,24
13:53:00,22,27,24,27,20,23,29,24,25
13:54:00,23,29,11,21,33,22,26,23,24
13:55:00,18,15,17,15,18,22,27,17,19
13:56:00,24,27,14,25,24,45,21,23,26
13:57:00,21,10,18,25,20,25,30,19,21
13:58:00,15,22,24,18,20,28,17,20,21
13:59:00,25,12,32,29,17,32,17,23,23
14:00:00,35,25,14,25,28,50,43,25,31
14:01:00,15,16,14,10,23,27,12,16,17
14:02:00,19,17,16,12,29,29,30,19,22
14:03:00,16,25,20,24,20,20,20,21,21
14:04:00,20,23,25,25,28,17,20,24,23
14:05:00,25,22,29,21,21,26,19,24,23
14:06:00,18,23,12,35,27,28,26,23,24
14:07:00,25,22,31,15,19,28,11,22,22
14:08:00,25,11,18,29,14,33,35,19,24
14:09:00,10,31,23,22,26,34,17,22,23
14:10:00,16,7,10,22,42,21,16,19,19
14:11:00,19,20,25,20,21,29,26,21,23
14:12:00,13,26,27,26,24,26,20,23,23
14:13:00,33,19,26,15,17,25,36,22,24
14:14:00,23,32,25,21,26,29,15,25,24
14:15:00,34,15,6,28,30,15,30,23,23
14:16:00,19,29,39,19,11,30,25,23,25
14:17:00,27,16,20,15,22,32,22,20,22
14:18:00,17,31,22,25,24,27,22,24,24
14:19:00,18,13,18,18,29,29,22,19,21
14:20:00,13,21,22,20,22,25,18,20,20
14:21:00,23,18,22,36,25,24,31,25,26
14:22:00,11,8,13,8,19,20,24,12,15
14:23:00,23,9,25,24,29,23,20,22,22
14:24:00,24,20,30,19,17,22,36,22,24
14:25:00,15,17,24,29,25,27,10,22,21
14:26:00,23,25,29,14,27,17,24,24,23
14:27:00,18,15,25,30,19,21,22,21,21
14:28:00,19,23,16,18,28,26,23,21,22
14:29:00,17,16,16,18,20,29,16,17,19
14:30:00,35,15,33,14,27,31,37,25,27
14:31:00,12,13,19,14,12,15,21,14,15
14:32:00,18,27,27,23,17,25,24,22,23
14:33:00,33,11,18,19,28,24,19,22,22
14:34:00,12,16,24,30,17,20,19,20,20
14:35:00,26,10,13,15,23,20,28,17,19
14:36:00,15,24,28,19,11,30,15,19,20
14:37:00,29,24,12,9,25,18,36,20,22
14:38:00,20,8,13,19,20,32,21,16,19
14:39:00,30,22,14,21,39,16,24,25,24
14:40:00,11,21,25,34,10,22,9,20,19
14:41:00,26,23,24,20,20,27,33,23,25
14:42:00,15,13,21,24,25,26,20,20,21
14:43:00,32,42,13,22,23,32,14,26,25
14:44:00,22,14,25,24,14,22,43,20,23
14:45:00,26,18,20,23,33,26,17,24,23
14:46:00,12,18,22,23,21,22,27,19,21
14:47:00,24,14,15,18,16,37,21,17,21
14:48:00,19,23,20,25,11,16,35,20,21
14:49:00,29,20,25,12,22,35,10,22,22
14:50:00,24,33,20,26,15,13,29,24,23
14:51:00,32,14,18,15,34,29,16,23,23
14:52:00,20,21,29,21,18,18,23,22,21
14:53:00,14,17,14,23,23,24,23,18,20
14:54:00,15,24,17,28,13,17,16,19,19
14:55:00,19,26,15,15,15,25,25,18,20
14:56:00,15,20,21,34,22,15,29,22,22
14:57:00,17,14,22,16,17,33,26,17,21
14:58:00,30,25,16,20,37,12,18,26,23
14:59:00,14,10,19,22,13,37,29,16,21
15:00:00,27,19,11,27,25,13,12,22,19
15:01:00,13,12,27,14,15,29,24,16,19
15:02:00,18,22,16,29,24,10,16,22,19
15:03:00,22,22,40,14,18,18,23,23,22
15:04:00,29,16,22,21,26,18,21,23,22
15:05:00,11,18,22,24,17,22,26,18,20
15:06:00,17,14,18,20,33,19,20,20,20
15:07:00,14,24,19,20,14,21,13,18,18
15:08:00,25,17,26,11,32,34,19,22,23
15:09:00,23,16,13,30,11,32,15,19,20
15:10:00,17,21,21,6,29,24,17,19,19
15:11:00,10,13,17,25,25,26,8,18,18
15:12:00,11,22,10,23,13,35,21,16,19
15:13:00,32,21,19,28,36,31,29,27,28
15:14:00,12,11,21,15,19,20,27,16,18
15:15:00,21,23,22,20,14,26,36,20,23
15:16:00,38,17,37,17,22,18,16,26,24
15:17:00,17,40,16,26,18,37,22,23,25
15:18:00,26,15,13,20,29,14,20,21,20
15:19:00,17,15,24,25,33,30,17,23,23
15:20:00,23,11,27,23,28,20,30,22,23
15:21:00,24,30,21,16,20,23,19,22,22
15:22:00,15,9,29,22,23,11,21,20,19
15:23:00,37,30,13,30,30,22,18,28,26
15:24:00,15,26,23,33,17,22,18,23,22
15:25:00,20,17,12,20,30,26,28,20,22
15:26:00,21,14,17,21,12,35,13,17,19
15:27:00,26,19,24,17,17,20,38,21,23
15:28:00,17,17,22,25,24,37,18,21,23
15:29:00,21,9,40,17,19,19,33,21,23
15:30:00,20,24,12,19,29,19,15,21,20
15:31:00,24,12,31,15,19,21,23,20,21
15:32:00,20,22,17,34,21,23,14,23,22
15:33:00,20,23,20,10,19,22,28,18,20
15:34:00,26,20,16,27,20,33,13,22,22
15:35:00,22,27,26,17,23,32,20,23,24
15:36:00,23,20,33,24,20,11,23,24,22
15:37:00,14,17,16,44,22,18,18,23,21
15:38:00,26,14,27,14,10,41,23,18,22
15:39:00,17,14,15,23,22,12,14,18,17
15:40:00,13,19,21,23,26,26,25,20,22
15:41:00,31,11,21,24,14,16,28,20,21
15:42:00,29,26,25,26,17,27,19,25,24
15:43:00,13,9,19,14,25,23,32,16,19
15:44:00,31,34,32,15,11,12,13,25,21
15:45:00,23,18,18,44,22,38,15,25,25
15:46:00,24,29,20,12,27,11,27,22,21
15:47:00,17,16,31,29,22,28,14,23,22
15:48:00,22,15,15,30,15,16,21,19,19
15:49:00,29,10,25,30,34,25,20,26,25
15:50:00,30,11,19,22,18,21,28,20,21
15:51:00,17,27,33,18,27,28,14,24,23
15:52:00,11,25,15,22,24,23,23,19,20
15:53:00,27,28,9,19,24,22,18,21,21
15:54:00,23,19,28,18,26,16,22,23,22
15:55:00,22,13,17,60,32,13,17,29,25
15:56:00,31,31,21,22,19,32,33,25,27
15:57:00,19,18,28,22,19,10,14,21,19
15:58:00,18,8,25,29,36,26,25,23,24
15:59:00,26,18,39,22,17,14,11,24,21
16:00:00,25,16,21,33,26,38,15,24,25
16:01:00,14,18,19,19,29,18,23,20,20
16:02:00,38,27,40,25,30,26,14,32,29
16:03:00,20,21,24,20,16,24,21,20,21
16:04:00,29,8,27,27,25,27,18,23,23
16:05:00,13,48,30,28,18,16,34,27,27
16:06:00,22,9,22,18,15,27,13,17,18
16:07:00,36,31,21,23,28,29,30,28,28
16:08:00,25,20,22,31,23,24,18,24,23
16:09:00,19,30,31,12,19,16,16,22,20
16:10:00,33,20,16,31,36,30,17,27,26
16:11:00,18,24,20,20,18,23,20,20,20
16:12:00,33,38,14,20,21,24,15,25,24
16:13:00,11,12,26,30,25,18,16,21,20
16:14:00,21,21,23,32,8,29,20,21,22
16:15:00,31,35,16,29,15,17,18,25,23
16:16:00,16,14,15,19,21,29,8,17,17
16:17:00,20,31,40,20,18,19,25,26,25
16:18:00,30,11,21,18,16,22,13,19,19
16:19:00,22,23,27,23,15,14,24,22,21
16:20:00,28,41,12,21,31,20,13,27,24
16:21:00,21,12,18,14,23,30,22,18,20
16:22:00,23,20,36,31,22,21,15,26,24
16:23:00,14,27,21,18,27,31,20,21,23
16:24:00,28,24,45,24,17,21,17,28,25
16:25:00,25,16,15,14,18,36,14,18,20
16:26:00,21,31,36,36,10,13,23,27,24
16:27:00,17,30,14,19,27,32,16,21,22
16:28:00,20,17,21,28,28,22,19,23,22
16:29:00,35,37,34,12,22,27,10,28,25
16:30:00,20,39,19,16,27,18,18,24,22
16:31:00,26,30,29,34,13,20,5,26,22
16:32:00,10,37,19,23,22,21,20,22,22
16:33:00,21,19,24,31,27,26,12,24,23
16:34:00,32,37,27,16,14,13,27,25,24
16:35:00,19,16,28,32,23,10,11,24,20
16:36:00,24,16,14,18,21,29,21,19,20
16:37:00,12,31,45,34,23,19,14,29,25
16:38:00,15,20,19,21,28,32,19,21,22
16:39:00,16,23,28,18,26,26,23,22,23
16:40:00,30,39,16,36,29,33,15,30,28
16:41:00,13,18,36,17,23,14,22,21,20
16:42:00,34,34,19,26,15,26,11,26,24
16:43:00,14,12,27,15,19,13,14,17,16
16:44:00,26,25,17,41,25,33,15,27,26
16:45:00,13,36,25,11,32,12,14,23,20
16:46:00,14,16,15,29,13,24,18,17,18
16:47:00,33,38,31,15,14,18,8,26,22
16:48:00,18,15,13,18,25,18,16,18,18
16:49:00,38,22,27,26,28,9,7,28,22
16:50:00,33,34,11,20,39,22,9,27,24
16:51:00,33,10,28,27,33,8,14,26,22
16:52:00,23,29,14,21,22,21,16,22,21
16:53:00,32,22,30,24,21,27,6,26,23
16:54:00,36,23,12,29,19,18,14,24,22
16:55:00,17,40,35,17,14,22,14,25,23
16:56:00,37,10,14,26,16,17,12,21,19
16:57:00,24,26,25,18,22,38,21,23,25
16:58:00,26,15,8,27,12,18,10,18,17
16:59:00,22,18,33,12,14,34,11,20,21
17:00:00,34,33,7,27,32,12,16,27,23
17:01:00,20,19,27,24,29,31,9,24,23
17:02:00,25,38,23,10,19,11,11,23,20
17:03:00,28,13,40,33,23,26,11,27,25
17:04:00,26,41,13,12,36,26,12,26,24
17:05:00,32,18,24,35,25,33,15,27,26
17:06:00,20,20,15,16,28,15,12,20,18
17:07:00,15,22,34,21,13,13,10,21,18
17:08:00,36,16,12,19,29,18,13,22,20
17:09:00,16,26,40,15,21,21,7,24,21
17:10:00,11,26,16,30,30,52,18,23,26
17:11:00,52,21,33,35,15,12,16,31,26
17:12:00,17,17,18,19,36,37,6,21,21
17:13:00,18,36,18,18,20,13,10,22,19
17:14:00,36,19,14,47,26,19,7,28,24
17:15:00,22,21,18,20,34,30,10,23,22
17:16:00,24,34,14,17,20,14,24,22,21
17:17:00,28,20,16,49,29,32,15,28,27
17:18:00,19,23,15,13,21,8,16,18,16
17:19:00,26,14,10,32,34,40,14,23,24
17:20:00,21,15,19,16,23,17,12,19,18
17:21:00,33,33,12,34,32,23,8,29,25
17:22:00,27,17,18,18,17,21,24,19,20
17:23:00,18,17,20,33,20,10,10,22,18
17:24:00,25,21,25,18,17,42,11,21,23
17:25:00,22,28,21,29,28,7,13,26,21
17:26:00,31,18,32,34,24,39,9,28,27
17:27:00,35,23,29,15,21,7,12,25,20
17:28:00,14,27,21,40,17,25,15,24,23
17:29:00,21,24,15,22,21,34,9,21,21
17:30:00,25,41,31,35,31,12,8,33,26
17:31:00,27,11,26,12,44,65,19,24,29
17:32:00,25,23,23,29,14,24,23,23,23
17:33:00,24,24,22,12,10,22,15,18,18
17:34:00,23,25,15,36,33,22,12,26,24
17:35:00,22,22,29,14,12,11,12,20,17
17:36:00,18,24,28,40,26,26,11,27,25
17:37:00,43,20,27,17,21,9,10,26,21
17:38:00,20,17,34,25,30,62,13,25,29
17:39:00,21,30,24,42,17,15,10,27,23
17:40:00,19,31,22,27,26,29,9,25,23
17:41:00,23,9,27,27,24,8,16,22,19
17:42:00,30,27,31,27,23,36,7,28,26
17:43:00,26,36,24,40,30,15,8,31,26
17:44:00,27,15,17,20,14,12,21,19,18
17:45:00,17,26,23,20,35,28,13,24,23
17:46:00,33,11,23,37,22,9,10,25,21
17:47:00,27,22,18,24,19,32,10,22,22
17:48:00,17,32,37,23,31,28,18,28,27
17:49:00,49,17,34,18,21,11,4,28,22
17:50:00,21,14,21,42,20,32,17,24,24
17:51:00,26,24,30,19,21,13,12,24,21
17:52:00,20,26,23,25,25,6,12,24,20
17:53:00,25,41,26,22,15,32,7,26,24
17:54:00,34,33,12,33,35,13,5,29,24
17:55:00,27,26,26,17,14,32,8,22,21
17:56:00,33,11,28,26,29,23,15,25,24
17:57:00,21,26,7,24,24,23,6,20,19
17:58:00,38,25,17,31,23,27,15,27,25
17:59:00,19,25,17,25,17,14,14,21,19
18:00:00,25,26,21,27,30,28,14,26,24
18:01:00,17,27,29,23,19,16,10,23,20
18:02:00,33,22,30,18,21,29,6,25,23
18:03:00,20,8,17,14,18,10,10,15,14
18:04:00,42,34,23,13,22,37,7,27,25
18:05:00,17,19,22,23,18,14,13,20,18
18:06:00,27,26,36,30,22,27,18,28,27
18:07:00,18,22,25,22,24,19,9,22,20
18:08:00,32,21,28,16,12,36,13,22,23
18:09:00,20,20,19,19,28,8,14,21,18
18:10:00,20,15,32,21,23,26,15,22,22
18:11:00,14,14,14,23,39,16,8,21,18
18:12:00,30,31,22,35,17,19,14,27,24
18:13:00,23,22,25,30,19,13,5,24,20
18:14:00,20,25,29,28,18,18,13,24,22
18:15:00,18,30,14,23,26,20,6,22,20
18:16:00,23,16,38,29,25,14,12,26,22
18:17:00,18,26,20,28,20,10,13,22,19
18:18:00,24,15,32,26,14,21,9,22,20
18:19:00,21,26,18,14,30,33,11,22,22
18:20:00,31,14,26,31,20,11,10,24,20
18:21:00,13,16,21,26,27,23,8,21,19
18:22:00,34,35,19,20,12,7,14,24,20
18:23:00,14,14,18,30,29,16,9,21,19
18:24:00,24,32,19,19,14,10,16,22,19
18:25:00,21,8,27,15,15,20,10,17,17
18:26:00,21,25,13,33,25,19,9,23,21
18:27:00,16,13,20,16,11,13,11,15,14
18:28:00,25,20,17,31,21,9,7,23,19
18:29:00,17,15,23,20,18,5,12,19,16
18:30:00,27,22,20,15,23,10,6,21,18
18:31:00,24,14,19,19,20,10,5,19,16
18:32:00,13,37,22,17,21,21,6,22,20
18:33:00,20,14,13,16,13,6,11,15,13
18:34:00,13,29,22,13,19,23,12,19,19
18:35:00,17,5,10,34,29,14,4,19,16
18:36:00,36,32,25,19,27,21,11,28,24
18:37:00,16,25,25,17,10,19,7,19,17
18:38:00,27,19,9,23,18,14,6,19,17
18:39:00,15,21,23,23,20,20,9,20,19
18:40:00,14,16,12,46,16,17,5,21,18
18:41:00,23,12,14,39,23,12,22,22,21
18:42:00,9,18,22,27,17,10,5,19,15
18:43:00,30,27,15,27,20,21,10,24,21
18:44:00,30,7,22,36,25,20,5,24,21
18:45:00,10,14,9,32,24,12,7,18,15
18:46:00,18,18,34,38,15,13,14,25,21
18:47:00,9,14,17,28,36,19,3,21,18
18:48:00,18,17,17,32,18,8,9,20,17
18:49:00,21,13,12,30,29,7,10,21,17
18:50:00,6,17,16,17,24,8,11,16,14
18:51:00,17,18,19,15,16,24,6,17,16
18:52:00,18,14,15,11,13,19,9,14,14
18:53:00,14,13,28,20,12,10,14,17,16
18:54:00,17,12,13,18,16,15,5,15,14
18:55:00,14,12,20,27,19,11,8,18,16
18:56:00,9,16,8,9,21,22,9,13,13
18:57:00,25,29,23,26,17,12,15,24,21
18:58:00,14,23,8,9,17,11,8,14,13
18:59:00,11,8,19,17,18,17,8,15,14
19:00:00,25,18,19,12,11,10,7,17,15
19:01:00,13,26,7,15,18,18,6,16,15
19:02:00,9,22,16,15,17,4,7,16,13
19:03:00,21,17,15,17,10,14,5,16,14
19:04:00,16,15,24,25,27,13,10,21,19
19:05:00,7,19,14,12,7,9,10,12,11
19:06:00,13,18,22,17,17,18,9,17,16
19:07:00,17,16,27,19,22,14,5,20,17
19:08:00,14,19,10,21,16,21,10,16,16
19:09:00,17,15,23,13,20,9,10,18,15
19:10:00,10,28,17,19,18,19,11,18,17
19:11:00,19,13,12,12,17,9,5,15,12
19:12:00,16,14,20,13,8,10,11,14,13
19:13:00,8,27,14,20,18,11,7,17,15
19:14:00,21,15,22,9,29,12,7,19,16
19:15:00,22,22,8,21,20,14,10,19,17
19:16:00,17,17,11,16,18,13,7,16,14
19:17:00,6,16,12,22,11,16,5,13,13
19:18:00,16,23,19,21,15,12,7,19,16
19:19:00,16,14,19,10,19,11,18,16,15
19:20:00,15,26,10,20,14,17,8,17,16
19:21:00,12,20,7,15,18,8,4,14,12
19:22:00,25,27,15,20,13,9,8,20,17
19:23:00,12,13,11,20,16,16,2,14,13
19:24:00,14,15,13,7,13,10,5,12,11
19:25:00,13,15,10,9,8,10,12,11,11
19:26:00,8,18,9,20,13,5,9,14,12
19:27:00,18,17,13,9,12,13,8,14,13
19:28:00,2,8,11,9,13,8,5,9,8
19:29:00,7,23,8,7,17,10,6,12,11
19:30:00,6,17,15,22,5,9,8,13,12
19:31:00,9,16,8,7,25,9,10,13,12
19:32:00,3,9,13,18,22,10,7,13,12
19:33:00,14,16,17,10,19,8,7,15,13
19:34:00,11,16,12,13,5,13,6,11,11
19:35:00,14,17,11,8,16,6,7,13,11
19:36:00,8,12,18,9,17,18,17,13,14
19:37:00,21,19,7,7,21,12,4,15,13
19:38:00,9,17,17,12,16,5,15,14,13
19:39:00,11,2,8,11,16,8,3,10,8
19:40:00,18,19,12,11,18,8,6,16,13
19:41:00,7,9,14,8,8,10,17,9,10
19:42:00,13,23,8,13,4,9,9,12,11
19:43:00,7,10,1,6,14,17,4,8,8
19:44:00,13,15,16,12,17,5,8,15,12
19:45:00,14,19,14,10,10,20,13,13,14
19:46:00,7,21,11,12,22,5,8,15,12
19:47:00,10,15,16,17,15,4,9,15,12
19:48:00,13,15,3,11,13,13,4,11,10
19:49:00,7,12,9,13,6,3,8,9,8
19:50:00,13,19,11,4,18,13,12,13,13
19:51:00,12,15,9,14,13,15,5,13,12
19:52:00,7,16,10,8,15,11,12,11,11
19:53:00,13,12,7,8,5,11,4,9,9
19:54:00,18,20,9,7,10,4,7,13,11
19:55:00,8,15,13,13,15,9,8,13,12
19:56:00,9,11,11,5,11,5,6,9,8
19:57:00,8,16,10,9,18,9,10,12,11
19:58:00,5,9,9,4,2,9,3,6,6
19:59:00,5,9,12,5,9,4,19,8,9
20:00:00,8,11,14,16,12,4,11,12,11
20:01:00,12,8,5,7,9,10,6,8,8
20:02:00,6,7,8,11,10,6,4,8,7
20:03:00,8,8,18,11,13,6,8,12,10
20:04:00,8,13,7,8,7,12,8,9,9
20:05:00,8,10,14,6,9,0,3,9,7
20:06:00,11,5,15,10,14,7,5,11,10
20:07:00,12,15,11,15,10,1,12,13,11
20:08:00,3,6,14,4,16,11,4,9,8
20:09:00,13,13,13,16,17,6,7,14,12
20:10:00,7,5,11,6,7,10,13,7,8
20:11:00,10,22,8,16,9,11,6,13,12
20:12:00,10,6,12,13,6,13,4,9,9
20:13:00,7,13,10,7,7,12,8,9,9
20:14:00,9,7,16,19,14,7,6,13,11
20:15:00,18,6,3,10,15,11,3,10,9
20:16:00,5,18,16,11,16,4,15,13,12
20:17:00,10,6,17,14,7,11,3,11,10
20:18:00,9,13,12,14,8,10,5,11,10
20:19:00,10,13,8,10,13,16,7,11,11
20:20:00,6,12,9,3,7,8,11,7,8
20:21:00,10,5,6,6,7,6,12,7,7
20:22:00,6,10,9,10,17,11,3,10,9
20:23:00,13,3,5,3,14,11,9,8,8
20:24:00,9,17,9,12,9,3,6,11,9
20:25:00,2,6,6,17,15,5,8,9,8
20:26:00,11,8,10,12,7,8,5,10,9
20:27:00,6,5,8,9,4,13,8,6,8
20:28:00,8,13,7,4,10,7,4,8,8
20:29:00,7,13,6,9,16,6,6,10,9
20:30:00,11,13,14,12,12,8,9,12,11
20:31:00,13,9,5,8,14,5,10,10,9
20:32:00,16,9,5,16,16,10,10,12,12
20:33:00,6,10,7,10,6,8,10,8,8
20:34:00,11,7,7,6,9,4,2,8,7
20:35:00,8,7,11,4,19,5,6,10,9
20:36:00,3,3,10,12,8,5,3,7,6
20:37:00,12,4,7,8,7,11,8,8,8
20:38:00,11,7,8,3,10,5,10,8,8
20:39:00,4,9,8,11,14,6,6,9,8
20:40:00,8,6,9,12,7,17,10,8,10
20:41:00,3,7,10,12,6,4,5,8,7
20:42:00,5,9,4,15,10,15,4,9,9
20:43:00,8,7,12,5,9,9,10,8,9
20:44:00,6,5,4,9,8,3,6,6,6
20:45:00,6,4,9,9,9,8,6,7,7
20:46:00,6,9,7,5,9,5,4,7,6
20:47:00,7,8,6,8,9,12,6,8,8
20:48:00,6,11,5,12,6,6,5,8,7
20:49:00,15,4,14,21,9,6,9,13,11
20:50:00,8,5,6,8,11,4,6,8,7
20:51:00,6,5,11,8,19,3,5,10,8
20:52:00,5,6,4,3,8,9,13,5,7
20:53:00,4,9,12,17,7,6,5,10,9
20:54:00,3,3,5,6,6,6,4,5,5
20:55:00,10,9,7,5,7,7,4,8,7
20:56:00,3,6,2,10,4,8,3,5,5
20:57:00,4,7,9,2,9,11,6,6,7
20:58:00,2,8,4,10,6,4,5,6,6
20:59:00,3,7,5,7,2,12,6,5,6
21:00:00,8,3,7,5,8,9,9,6,7
21:01:00,7,5,4,11,9,5,3,7,6
21:02:00,8,8,8,6,12,2,3,8,7
21:03:00,8,5,5,6,8,8,5,6,6
21:04:00,8,2,4,6,7,13,3,5,6
21:05:00,3,2,10,6,5,2,7,5,5
21:06:00,4,5,11,5,5,15,5,6,7
21:07:00,7,11,8,12,7,3,2,9,7
21:08:00,15,15,9,12,8,7,7,12,10
21:09:00,2,7,9,7,4,4,5,6,5
21:10:00,5,1,6,10,9,6,1,6,5
21:11:00,7,6,6,10,7,6,2,7,6
21:12:00,7,7,8,3,11,9,3,7,7
21:13:00,6,12,3,11,3,5,6,7,7
21:14:00,10,11,8,1,9,5,5,8,7
21:15:00,4,7,4,7,10,8,13,6,8
21:16:00,7,6,6,6,2,4,5,5,5
21:17:00,10,11,8,9,12,13,4,10,10
21:18:00,6,10,13,12,5,6,8,9,9
21:19:00,4,7,10,6,11,15,5,8,8
21:20:00,11,14,10,11,14,9,9,12,11
21:21:00,6,6,3,16,11,12,7,8,9
21:22:00,9,2,8,5,9,1,6,7,6
21:23:00,4,4,3,12,8,12,5,6,7
21:24:00,1,5,10,7,6,12,12,6,8
21:25:00,4,7,9,4,0,3,6,5,5
21:26:00,7,13,4,11,12,6,12,9,9
21:27:00,7,12,11,15,5,6,9,10,9
21:28:00,8,4,5,12,4,4,12,7,7
21:29:00,5,9,13,5,4,7,13,7,8
21:30:00,5,5,4,9,9,11,10,6,8
21:31:00,7,2,6,8,7,6,1,6,5
21:32:00,10,2,3,7,5,5,16,5,7
21:33:00,8,9,7,10,11,5,11,9,9
21:34:00,8,11,6,10,12,7,6,9,9
21:35:00,2,10,7,3,7,4,6,6,6
21:36:00,1,7,5,10,7,5,8,6,6
21:37:00,6,3,6,4,9,4,4,6,5
21:38:00,8,7,7,9,8,6,7,8,7
21:39:00,4,9,6,9,5,4,3,7,6
21:40:00,3,5,8,13,5,8,7,7,7
21:41:00,8,11,4,9,8,10,8,8,8
21:42:00,5,7,5,6,10,8,8,7,7
21:43:00,5,9,7,10,8,15,5,8,8
21:44:00,7,9,8,7,15,1,4,9,7
21:45:00,11,5,8,10,10,11,2,9,8
21:46:00,4,7,11,6,7,5,5,7,6
21:47:00,5,5,4,13,10,1,4,7,6
21:48:00,12,12,6,5,7,10,7,8,8
21:49:00,5,8,6,9,12,4,4,8,7
21:50:00,8,5,11,16,10,5,3,10,8
21:51:00,7,5,8,6,3,8,2,6,6
21:52:00,5,8,10,4,10,3,3,7,6
21:53:00,4,8,6,11,10,8,10,8,8
21:54:00,3,6,8,10,8,9,4,7,7
21:55:00,9,2,2,9,16,7,9,8,8
21:56:00,8,8,9,9,7,11,8,8,9
21:57:00,8,6,10,5,7,2,2,7,6
21:58:00,4,3,16,6,2,8,1,6,6
21:59:00,11,10,7,10,3,12,5,8,8
22:00:00,7,2,7,3,9,6,5,6,6
22:01:00,4,9,10,7,19,8,5,10,9
22:02:00,6,7,14,11,6,9,4,9,8
22:03:00,3,5,10,4,4,9,2,5,5
22:04:00,4,8,8,12,2,5,3,7,6
22:05:00,1,12,9,12,7,8,6,8,8
22:06:00,3,9,12,3,3,7,8,6,6
22:07:00,8,11,12,10,4,12,2,9,8
22:08:00,4,2,2,9,14,10,2,6,6
22:09:00,7,16,12,13,7,2,6,11,9
22:10:00,4,5,15,3,16,9,3,9,8
22:11:00,9,8,2,11,6,11,6,7,8
22:12:00,7,7,11,23,20,18,2,14,13
22:13:00,1,3,9,7,15,7,4,7,7
22:14:00,8,10,6,12,16,8,0,10,9
22:15:00,6,5,10,10,9,14,2,8,8
22:16:00,6,7,10,11,12,11,3,9,9
22:17:00,10,3,5,5,19,16,1,8,8
22:18:00,7,4,6,4,4,8,3,5,5
22:19:00,3,4,10,4,12,10,5,7,7
22:20:00,9,4,7,2,4,8,0,5,5
22:21:00,8,8,14,11,7,2,6,10,8
22:22:00,6,8,4,7,5,14,5,6,7
22:23:00,8,5,7,9,3,6,5,6,6
22:24:00,4,9,8,4,4,6,0,6,5
22:25:00,6,6,3,6,8,11,2,6,6
22:26:00,7,2,7,10,8,7,2,7,6
22:27:00,0,8,4,9,5,7,2,5,5
22:28:00,8,2,14,9,13,4,5,9,8
22:29:00,2,10,5,7,2,2,7,5,5
22:30:00,5,3,4,11,10,11,6,7,7
22:31:00,5,5,2,7,6,9,1,5,5
22:32:00,1,3,2,4,5,3,5,3,3
22:33:00,0,7,5,7,8,0,6,5,5
22:34:00,3,5,3,9,5,5,4,5,5
22:35:00,6,8,4,6,6,7,6,6,6
22:36:00,5,5,6,5,6,1,6,5,5
22:37:00,8,4,4,9,5,5,3,6,5
22:38:00,4,9,2,11,6,2,3,6,5
22:39:00,0,6,10,6,6,9,7,6,6
22:40:00,9,7,1,4,7,4,7,6,6
22:41:00,13,3,8,4,6,11,3,7,7
22:42:00,4,8,6,7,8,6,6,7,6
22:43:00,2,3,4,6,7,8,5,4,5
22:44:00,4,8,5,8,8,9,1,7,6
22:45:00,5,8,3,7,7,2,9,6,6
22:46:00,1,5,2,3,9,8,2,4,4
22:47:00,7,6,8,3,9,4,5,7,6
22:48:00,8,5,6,8,8,3,3,7,6
22:49:00,1,4,6,4,3,9,7,4,5
22:50:00,3,7,2,3,8,8,2,5,5
22:51:00,2,5,6,6,11,3,2,6,5
22:52:00,1,4,3,4,5,11,3,3,4
22:53:00,6,9,4,7,6,6,6,6,6
22:54:00,2,4,2,8,4,7,8,4,5
22:55:00,3,2,3,4,8,4,3,4,4
22:56:00,1,4,5,1,9,6,5,4,4
22:57:00,5,4,5,2,4,3,2,4,4
22:58:00,1,4,4,2,3,3,3,3,3
22:59:00,4,5,2,5,7,7,1,5,4
23:00:00,8,2,1,5,7,5,1,5,4
23:01:00,4,2,8,1,3,3,2,4,3
23:02:00,5,10,3,8,7,7,4,7,6
23:03:00,5,2,6,2,3,2,3,4,3
23:04:00,2,6,6,4,7,11,3,5,6
23:05:00,4,6,3,3,4,6,2,4,4
23:06:00,5,6,4,5,3,4,2,5,4
23:07:00,7,3,3,2,5,11,1,4,5
23:08:00,3,1,2,4,5,7,0,3,3
23:09:00,6,3,2,9,6,2,2,5,4
23:10:00,2,1,2,2,6,9,2,3,3
23:11:00,1,3,2,0,6,4,3,2,3
23:12:00,4,5,4,6,6,9,2,5,5
23:13:00,2,1,4,5,4,2,3,3,3
23:14:00,3,3,3,4,3,1,4,3,3
23:15:00,1,2,3,2,5,6,1,3,3
23:16:00,3,1,0,3,5,11,5,2,4
23:17:00,2,3,2,2,4,3,5,3,3
23:18:00,2,3,3,4,7,4,2,4,4
23:19:00,9,1,5,3,5,10,2,5,5
23:20:00,1,9,3,2,2,6,3,3,4
23:21:00,3,3,1,6,9,2,2,4,4
23:22:00,7,0,5,5,6,6,0,5,4
23:23:00,2,8,2,3,6,3,1,4,4
23:24:00,3,2,0,8,2,3,3,3,3
23:25:00,2,2,4,3,5,5,5,3,4
23:26:00,4,4,3,2,10,3,1,5,4
23:27:00,2,1,4,2,3,7,6,2,4
23:28:00,5,4,3,1,0,4,2,3,3
23:29:00,3,3,3,6,11,5,3,5,5
23:30:00,1,1,5,6,2,8,4,3,4
23:31:00,3,3,5,2,10,6,3,5,5
23:32:00,2,0,5,0,3,3,0,2,2
23:33:00,5,2,2,4,6,2,5,4,4
23:34:00,2,3,5,1,1,1,1,2,2
23:35:00,3,3,9,1,6,10,4,4,5
23:36:00,2,3,5,4,2,5,1,3,3
23:37:00,2,3,2,3,5,3,1,3,3
23:38:00,4,14,0,2,5,6,0,5,4
23:39:00,1,1,2,5,2,5,2,2,3
23:40:00,3,2,2,0,4,11,1,2,3
23:41:00,3,5,6,0,4,6,5,4,4
23:42:00,1,3,3,0,6,4,6,3,3
23:43:00,1,2,3,5,2,11,0,3,3
23:44:00,5,5,1,0,4,3,1,3,3
23:45:00,5,5,5,2,3,3,1,4,3
23:46:00,0,1,2,2,3,5,1,2,2
23:47:00,0,2,3,2,2,2,2,2,2
23:48:00,0,2,1,2,6,4,1,2,2
23:49:00,3,1,3,3,8,1,3,4,3
23:50:00,0,1,2,5,2,4,3,2,2
23:51:00,1,2,1,1,7,6,1,2,3
23:52:00,3,3,2,3,3,3,0,3,2
23:53:00,1,1,3,3,3,7,2,2,3
23:54:00,2,0,2,3,2,5,1,2,2
23:55:00,3,4,2,0,4,1,0,3,2
23:56:00,2,0,0,3,4,5,2,2,2
23:57:00,2,3,3,3,2,4,1,3,3
23:58:00,2,0,2,1,1,6,1,1,2
23:59:00,1,4,5,1,7,4,0,4,3
,,,,,,,,,
Totals,,,,,,,,,
12H(7-19),15015,14801,14684,15566,15520,15305,11807,15117,14671
16H(6-22),17328,17444,17147,18114,18180,17095,13231,17643,16934
18H(6-24),17786,17982,17712,18712,18917,17829,13595,18222,17505
24H(0-24),18492,18701,18483,19482,19647,18501,14173,18961,18211
,,,,,,,,,
AM Peak,07:42:00,08:08:00,07:47:00,08:00:00,11:00:00,11:00:00,11:00:00,07:47:00,10:01:00
,1274,1321,1294,1339,1356,1539,1293,1296,1178
,,,,,,,,,
PM Peak,16:50:00,16:05:00,15:44:00,17:03:00,17:00:00,13:01:00,12:00:00,17:03:00,15:45:00
,1551,1516,1452,1547,1446,1729,1532,1455,1354
,,,,,,,,,
,,,,,,,,,
CA Traffic,,,,,,,,,VDA-net R2 15/11/2019
