Site Number,00008020,Unnamed: 2,Site Reference,00008020.1,Unnamed: 5,Unnamed: 6,Lat/Lng.,"52.05398,1.20194",Unnamed: 9
Radar 8020 Heath Road Ipswich,,,,,,,,,
Vehicle Count Report,,,,Week Begin: 28 October 2019,,,Channel:,Total Flow,
,,,,,,,,,
,,,,,,,,,
,2019-10-28 00:00:00,2019-10-29 00:00:00,2019-10-30 00:00:00,2019-10-31 00:00:00,2019-11-01 00:00:00,2019-11-02 00:00:00,2019-11-03 00:00:00,"5-Day
Ave.","7-Day
Ave."
00:00:00,3,3,1,1,0,2,7,2,2
00:01:00,2,0,0,1,1,2,4,1,1
00:02:00,2,2,1,1,0,2,1,1,1
00:03:00,2,0,1,0,2,4,3,1,2
00:04:00,4,1,4,1,3,5,4,3,3
00:05:00,0,2,0,3,2,1,5,1,2
00:06:00,2,0,3,2,1,5,3,2,2
00:07:00,0,0,0,1,0,9,4,0,2
00:08:00,0,0,0,1,0,3,5,0,1
00:09:00,1,1,1,1,1,5,2,1,2
00:10:00,0,0,1,2,2,4,4,1,2
00:11:00,1,1,0,0,2,2,0,1,1
00:12:00,2,0,0,1,1,1,8,1,2
00:13:00,1,0,1,1,2,4,2,1,2
00:14:00,1,1,1,1,2,0,1,1,1
00:15:00,3,0,2,0,0,2,4,1,2
00:16:00,2,0,1,1,3,0,3,1,1
00:17:00,2,1,1,0,3,5,1,1,2
00:18:00,1,2,1,1,1,3,3,1,2
00:19:00,4,0,1,2,3,5,3,2,3
00:20:00,1,0,1,3,0,2,2,1,1
00:21:00,0,0,1,2,0,4,3,1,1
00:22:00,4,1,1,1,0,3,3,1,2
00:23:00,3,0,1,0,1,4,4,1,2
00:24:00,1,2,2,1,0,4,8,1,3
00:25:00,2,2,1,0,0,2,2,1,1
00:26:00,0,3,3,0,1,3,1,1,2
00:27:00,1,2,0,2,0,3,2,1,1
00:28:00,1,0,1,2,2,2,3,1,2
00:29:00,1,0,0,1,2,4,0,1,1
00:30:00,3,0,3,2,0,0,3,2,2
00:31:00,3,1,1,4,0,4,4,2,2
00:32:00,1,1,0,1,0,0,1,1,1
00:33:00,1,1,1,0,3,3,2,1,2
00:34:00,0,2,0,1,1,1,4,1,1
00:35:00,0,1,1,4,2,3,1,2,2
00:36:00,1,0,2,0,0,2,5,1,1
00:37:00,1,0,0,1,3,2,1,1,1
00:38:00,0,0,1,0,0,1,3,0,1
00:39:00,1,2,0,0,1,3,3,1,1
00:40:00,0,0,1,5,0,2,2,1,1
00:41:00,0,0,0,0,0,2,0,0,0
00:42:00,1,1,0,0,1,2,2,1,1
00:43:00,1,0,0,0,1,1,0,0,0
00:44:00,1,3,0,1,2,0,2,1,1
00:45:00,1,0,0,0,2,4,0,1,1
00:46:00,1,1,1,3,1,0,3,1,1
00:47:00,0,0,0,0,1,0,5,0,1
00:48:00,0,0,1,1,2,1,0,1,1
00:49:00,5,0,1,1,1,2,1,2,2
00:50:00,3,0,0,0,0,4,3,1,1
00:51:00,0,2,1,0,1,2,5,1,2
00:52:00,1,1,1,1,0,3,0,1,1
00:53:00,2,1,1,1,1,0,0,1,1
00:54:00,0,2,2,0,0,1,0,1,1
00:55:00,0,2,0,1,0,1,0,1,1
00:56:00,1,1,0,0,1,0,1,1,1
00:57:00,0,0,0,1,2,4,0,1,1
00:58:00,0,0,0,0,0,1,1,0,0
00:59:00,0,0,0,1,0,0,0,0,0
01:00:00,0,0,0,0,1,1,0,0,0
01:01:00,0,2,1,0,0,1,2,1,1
01:02:00,3,2,0,0,0,2,0,1,1
01:03:00,3,2,3,0,0,1,3,2,2
01:04:00,0,0,1,1,1,0,1,1,1
01:05:00,3,0,0,1,0,0,3,1,1
01:06:00,0,0,0,1,0,2,0,0,0
01:07:00,1,4,0,0,1,1,0,1,1
01:08:00,0,0,3,0,0,4,0,1,1
01:09:00,0,0,1,1,2,0,0,1,1
01:10:00,0,0,1,1,0,0,1,0,0
01:11:00,1,1,0,0,1,2,2,1,1
01:12:00,0,0,1,1,1,0,0,1,0
01:13:00,1,0,2,0,0,1,3,1,1
01:14:00,1,0,1,0,2,1,4,1,1
01:15:00,1,2,0,0,1,1,1,1,1
01:16:00,1,0,1,1,0,2,4,1,1
01:17:00,1,1,0,1,0,3,0,1,1
01:18:00,0,0,0,0,0,2,0,0,0
01:19:00,1,0,0,0,1,0,3,0,1
01:20:00,0,1,0,0,0,1,1,0,0
01:21:00,1,0,0,2,0,0,0,1,0
01:22:00,0,1,1,0,0,1,0,0,0
01:23:00,1,0,0,0,0,3,3,0,1
01:24:00,0,3,0,0,0,2,4,1,1
01:25:00,0,0,0,0,1,1,1,0,0
01:26:00,0,0,0,2,1,0,1,1,1
01:27:00,1,0,0,0,1,1,1,0,1
01:28:00,1,0,2,0,0,1,1,1,1
01:29:00,2,0,1,0,0,1,2,1,1
01:30:00,1,2,1,0,0,0,2,1,1
01:31:00,0,0,0,0,0,1,2,0,0
01:32:00,1,0,0,0,0,1,0,0,0
01:33:00,1,0,0,1,1,1,1,1,1
01:34:00,0,0,2,0,0,0,1,0,0
01:35:00,0,0,0,1,0,1,0,0,0
01:36:00,0,0,0,2,0,2,1,0,1
01:37:00,0,0,0,1,0,1,2,0,1
01:38:00,1,0,1,0,1,0,1,1,1
01:39:00,1,1,0,0,0,1,2,0,1
01:40:00,2,0,0,1,1,0,0,1,1
01:41:00,1,1,0,0,0,0,1,0,0
01:42:00,0,1,0,0,0,1,1,0,0
01:43:00,1,0,0,1,0,0,1,0,0
01:44:00,2,2,1,0,0,0,0,1,1
01:45:00,4,1,3,2,0,0,3,2,2
01:46:00,2,0,0,1,0,0,0,1,0
01:47:00,0,0,1,1,0,1,0,0,0
01:48:00,1,0,2,1,0,0,3,1,1
01:49:00,0,0,0,1,0,1,3,0,1
01:50:00,1,1,0,0,0,0,2,0,1
01:51:00,0,0,0,0,0,0,3,0,0
01:52:00,3,2,1,1,0,1,2,1,1
01:53:00,1,0,0,0,1,1,1,0,1
01:54:00,0,0,1,1,1,0,0,1,0
01:55:00,1,0,0,0,0,1,1,0,0
01:56:00,0,0,1,0,0,0,1,0,0
01:57:00,0,0,0,1,0,0,1,0,0
01:58:00,1,0,0,1,0,1,2,0,1
01:59:00,1,0,0,1,1,3,0,1,1
02:00:00,2,0,0,1,0,1,2,1,1
02:01:00,1,0,0,1,0,1,4,0,1
02:02:00,0,0,0,0,2,0,1,0,0
02:03:00,0,2,1,0,0,1,0,1,1
02:04:00,1,0,0,1,0,1,1,0,1
02:05:00,1,2,1,0,1,0,1,1,1
02:06:00,0,0,0,0,1,0,0,0,0
02:07:00,3,1,0,1,0,0,0,1,1
02:08:00,1,1,0,0,0,3,1,0,1
02:09:00,0,0,0,0,0,1,1,0,0
02:10:00,0,1,1,0,1,0,1,1,1
02:11:00,1,0,2,1,0,0,3,1,1
02:12:00,1,0,1,1,1,0,2,1,1
02:13:00,1,0,1,0,0,0,2,0,1
02:14:00,2,1,0,1,1,0,2,1,1
02:15:00,0,0,0,0,0,0,0,0,0
02:16:00,0,1,0,0,0,0,0,0,0
02:17:00,0,0,0,0,0,0,0,0,0
02:18:00,0,0,0,0,2,1,0,0,0
02:19:00,0,0,1,0,0,2,2,0,1
02:20:00,0,0,0,0,1,0,1,0,0
02:21:00,0,0,0,0,0,2,2,0,1
02:22:00,1,0,1,0,1,0,1,1,1
02:23:00,1,1,1,0,1,3,0,1,1
02:24:00,0,0,0,0,0,1,2,0,0
02:25:00,0,0,0,2,0,0,1,0,0
02:26:00,0,1,0,0,0,1,0,0,0
02:27:00,0,1,1,0,0,0,2,0,1
02:28:00,0,0,0,0,0,1,2,0,0
02:29:00,1,0,0,1,0,1,2,0,1
02:30:00,0,2,1,0,1,2,1,1,1
02:31:00,0,0,1,0,0,0,1,0,0
02:32:00,1,1,0,0,0,0,1,0,0
02:33:00,1,2,0,0,0,1,0,1,1
02:34:00,1,0,1,1,0,0,0,1,0
02:35:00,0,1,0,1,0,0,0,0,0
02:36:00,0,1,1,1,0,0,0,1,0
02:37:00,0,1,0,0,1,1,2,0,1
02:38:00,0,1,0,0,0,3,1,0,1
02:39:00,0,0,0,1,1,0,1,0,0
02:40:00,1,0,0,0,1,0,2,0,1
02:41:00,0,1,1,0,2,0,1,1,1
02:42:00,0,0,1,0,0,0,0,0,0
02:43:00,0,0,1,0,0,0,2,0,0
02:44:00,0,0,1,1,1,1,0,1,1
02:45:00,0,1,1,2,0,0,2,1,1
02:46:00,0,1,1,2,1,0,0,1,1
02:47:00,2,0,1,1,2,0,0,1,1
02:48:00,0,0,0,0,2,1,1,0,1
02:49:00,0,0,0,0,1,1,3,0,1
02:50:00,0,1,0,1,1,0,2,1,1
02:51:00,0,0,0,0,0,0,0,0,0
02:52:00,1,0,0,0,0,0,1,0,0
02:53:00,0,0,1,0,1,0,0,0,0
02:54:00,0,0,0,0,3,0,0,1,0
02:55:00,0,0,0,1,0,0,0,0,0
02:56:00,1,0,0,0,0,1,0,0,0
02:57:00,0,1,0,0,0,1,3,0,1
02:58:00,0,0,0,0,2,0,0,0,0
02:59:00,0,0,0,1,2,0,0,1,0
03:00:00,1,2,0,1,0,1,1,1,1
03:01:00,1,0,2,0,1,0,1,1,1
03:02:00,0,1,2,0,0,0,0,1,0
03:03:00,0,0,1,1,1,1,1,1,1
03:04:00,1,0,0,1,0,0,0,0,0
03:05:00,0,1,1,1,0,0,3,1,1
03:06:00,0,0,0,0,0,0,3,0,0
03:07:00,0,0,0,0,0,0,1,0,0
03:08:00,1,1,1,0,1,1,2,1,1
03:09:00,0,0,1,0,1,0,2,0,1
03:10:00,0,0,0,0,2,0,0,0,0
03:11:00,0,1,0,1,0,0,1,0,0
03:12:00,2,0,1,1,1,1,1,1,1
03:13:00,0,1,0,1,1,0,0,1,0
03:14:00,1,0,0,1,2,2,0,1,1
03:15:00,0,1,1,0,1,0,0,1,0
03:16:00,1,0,2,0,0,2,0,1,1
03:17:00,1,0,0,2,1,1,1,1,1
03:18:00,0,1,0,1,0,0,0,0,0
03:19:00,1,1,0,2,0,3,2,1,1
03:20:00,1,0,2,3,3,0,0,2,1
03:21:00,0,0,1,2,0,0,0,1,0
03:22:00,0,0,0,0,0,0,0,0,0
03:23:00,1,0,0,3,1,1,1,1,1
03:24:00,0,0,1,0,3,2,1,1,1
03:25:00,0,0,1,0,0,0,1,0,0
03:26:00,0,1,0,1,1,0,2,1,1
03:27:00,1,1,0,0,0,0,0,0,0
03:28:00,0,0,0,2,0,0,0,0,0
03:29:00,0,0,1,0,0,0,0,0,0
03:30:00,1,0,2,1,0,1,1,1,1
03:31:00,1,0,0,1,1,1,0,1,1
03:32:00,1,1,0,1,1,1,0,1,1
03:33:00,0,2,0,1,0,0,2,1,1
03:34:00,0,0,0,0,2,0,1,0,0
03:35:00,0,0,1,0,1,1,1,0,1
03:36:00,0,0,0,1,0,0,0,0,0
03:37:00,0,0,2,1,0,0,2,1,1
03:38:00,1,0,1,0,0,0,0,0,0
03:39:00,0,0,0,0,0,0,0,0,0
03:40:00,0,1,1,0,1,1,2,1,1
03:41:00,3,0,0,0,1,0,1,1,1
03:42:00,1,0,0,0,1,0,0,0,0
03:43:00,0,0,1,1,1,1,1,1,1
03:44:00,0,0,2,0,2,1,2,1,1
03:45:00,2,0,0,1,3,0,2,1,1
03:46:00,1,0,1,1,0,1,0,1,1
03:47:00,1,0,1,4,1,0,0,1,1
03:48:00,1,1,0,0,0,0,1,0,0
03:49:00,0,0,0,1,0,0,2,0,0
03:50:00,2,2,2,0,0,0,1,1,1
03:51:00,1,0,1,0,3,1,2,1,1
03:52:00,1,0,1,2,1,4,1,1,1
03:53:00,0,0,0,1,0,2,2,0,1
03:54:00,0,0,0,1,1,0,0,0,0
03:55:00,2,1,0,2,0,1,0,1,1
03:56:00,0,3,0,1,1,0,1,1,1
03:57:00,0,1,0,1,1,0,1,1,1
03:58:00,2,1,0,1,1,0,0,1,1
03:59:00,1,0,2,1,1,0,0,1,1
04:00:00,3,1,0,0,0,0,1,1,1
04:01:00,0,0,1,0,1,0,3,0,1
04:02:00,1,2,1,1,2,4,1,1,2
04:03:00,1,2,0,1,1,1,1,1,1
04:04:00,1,3,0,1,1,0,1,1,1
04:05:00,1,0,1,0,0,0,0,0,0
04:06:00,1,3,3,1,0,1,1,2,1
04:07:00,0,2,3,0,2,0,2,1,1
04:08:00,2,0,1,1,0,0,0,1,1
04:09:00,0,1,0,0,1,1,0,0,0
04:10:00,0,0,1,3,0,0,0,1,1
04:11:00,0,1,0,0,2,0,1,1,1
04:12:00,2,0,3,0,1,0,1,1,1
04:13:00,0,2,1,2,1,3,0,1,1
04:14:00,2,1,1,0,0,1,1,1,1
04:15:00,2,3,0,0,2,0,1,1,1
04:16:00,0,1,2,1,0,0,0,1,1
04:17:00,2,1,2,5,1,1,1,2,2
04:18:00,1,1,0,6,1,1,0,2,1
04:19:00,1,0,1,1,3,1,0,1,1
04:20:00,1,1,0,0,1,0,0,1,0
04:21:00,1,2,0,3,0,1,1,1,1
04:22:00,0,0,0,0,0,0,0,0,0
04:23:00,0,0,0,0,0,1,2,0,0
04:24:00,0,1,1,0,3,2,0,1,1
04:25:00,3,0,2,1,1,0,0,1,1
04:26:00,0,1,0,2,1,0,1,1,1
04:27:00,0,4,1,1,1,0,1,1,1
04:28:00,1,0,3,0,1,0,0,1,1
04:29:00,0,1,0,2,0,3,0,1,1
04:30:00,1,0,1,0,0,1,2,0,1
04:31:00,1,1,0,0,2,0,0,1,1
04:32:00,0,1,3,0,2,0,0,1,1
04:33:00,1,2,0,3,0,1,0,1,1
04:34:00,1,0,0,0,0,0,0,0,0
04:35:00,1,1,0,1,3,0,1,1,1
04:36:00,1,1,0,1,0,3,1,1,1
04:37:00,0,1,3,1,2,0,0,1,1
04:38:00,2,1,0,4,0,2,1,1,1
04:39:00,3,2,0,2,0,1,2,1,1
04:40:00,2,0,5,1,1,1,2,2,2
04:41:00,3,0,1,2,0,1,1,1,1
04:42:00,3,0,1,0,0,0,0,1,1
04:43:00,3,1,2,2,2,2,0,2,2
04:44:00,1,1,3,0,1,0,1,1,1
04:45:00,1,0,2,2,3,0,1,2,1
04:46:00,1,3,0,0,1,2,0,1,1
04:47:00,2,1,3,2,3,3,2,2,2
04:48:00,3,1,1,1,1,2,2,1,2
04:49:00,1,2,1,4,1,2,1,2,2
04:50:00,3,2,1,1,1,0,0,2,1
04:51:00,1,0,1,6,3,0,1,2,2
04:52:00,1,1,1,0,1,1,1,1,1
04:53:00,1,1,1,2,0,0,0,1,1
04:54:00,1,0,1,2,1,2,1,1,1
04:55:00,3,1,0,0,0,1,0,1,1
04:56:00,2,5,2,1,1,0,0,2,2
04:57:00,1,1,1,1,2,1,2,1,1
04:58:00,0,1,1,2,1,0,1,1,1
04:59:00,0,1,0,0,1,1,0,0,0
05:00:00,0,0,1,3,0,0,1,1,1
05:01:00,2,2,0,1,1,1,0,1,1
05:02:00,0,0,2,1,2,0,2,1,1
05:03:00,0,2,2,0,1,0,0,1,1
05:04:00,2,2,2,4,2,0,1,2,2
05:05:00,2,5,1,2,0,0,1,2,2
05:06:00,0,1,1,2,0,1,0,1,1
05:07:00,1,2,3,3,2,0,0,2,2
05:08:00,0,1,1,1,2,0,1,1,1
05:09:00,3,4,4,2,0,2,1,3,2
05:10:00,3,0,3,3,2,3,1,2,2
05:11:00,2,2,2,1,4,2,2,2,2
05:12:00,1,4,3,1,2,2,2,2,2
05:13:00,0,4,1,2,1,0,1,2,1
05:14:00,2,2,3,0,1,2,0,2,1
05:15:00,1,3,0,0,1,2,1,1,1
05:16:00,1,0,5,3,4,4,0,3,2
05:17:00,2,5,2,3,3,0,1,3,2
05:18:00,3,3,3,3,1,2,2,3,2
05:19:00,2,3,5,1,1,0,0,2,2
05:20:00,2,2,0,2,1,1,2,1,1
05:21:00,4,8,1,3,7,3,2,5,4
05:22:00,2,3,3,4,2,1,2,3,2
05:23:00,8,1,5,3,3,2,1,4,3
05:24:00,2,7,3,2,0,2,2,3,3
05:25:00,1,1,1,3,3,2,0,2,2
05:26:00,1,4,2,5,3,1,0,3,2
05:27:00,4,4,6,1,3,2,1,4,3
05:28:00,3,3,0,7,3,1,3,3,3
05:29:00,2,2,1,2,2,0,1,2,1
05:30:00,3,1,0,3,7,3,1,3,3
05:31:00,6,4,3,2,2,2,2,3,3
05:32:00,4,4,4,1,5,1,2,4,3
05:33:00,1,3,2,4,3,0,0,3,2
05:34:00,4,6,8,3,2,2,2,5,4
05:35:00,6,2,2,3,2,1,1,3,2
05:36:00,3,4,5,6,1,3,4,4,4
05:37:00,2,5,4,5,6,1,1,4,3
05:38:00,8,8,3,3,1,2,2,5,4
05:39:00,7,7,5,9,6,1,1,7,5
05:40:00,4,2,8,4,10,4,1,6,5
05:41:00,3,7,6,3,6,2,2,5,4
05:42:00,3,2,5,7,5,2,0,4,3
05:43:00,3,8,2,2,2,1,0,3,3
05:44:00,3,4,6,9,10,3,3,6,5
05:45:00,3,1,4,7,1,1,1,3,3
05:46:00,3,5,8,6,7,1,2,6,5
05:47:00,3,4,3,3,2,1,0,3,2
05:48:00,7,3,9,2,3,4,2,5,4
05:49:00,5,5,4,5,7,4,5,5,5
05:50:00,7,3,8,5,2,3,1,5,4
05:51:00,4,10,7,7,2,2,2,6,5
05:52:00,6,4,1,6,1,3,0,4,3
05:53:00,3,5,3,4,1,2,0,3,3
05:54:00,3,8,8,3,5,1,3,5,4
05:55:00,5,4,3,7,4,4,4,5,4
05:56:00,4,7,7,12,7,2,0,7,6
05:57:00,10,6,6,6,4,1,1,6,5
05:58:00,2,4,4,5,4,1,1,4,3
05:59:00,3,2,4,3,5,3,0,3,3
06:00:00,5,4,2,5,10,1,2,5,4
06:01:00,4,3,1,3,2,2,0,3,2
06:02:00,3,6,7,6,5,3,2,5,5
06:03:00,4,7,3,9,2,6,2,5,5
06:04:00,4,6,1,4,7,4,1,4,4
06:05:00,3,4,9,7,3,5,3,5,5
06:06:00,5,4,1,3,1,3,6,3,3
06:07:00,5,10,6,6,8,4,3,7,6
06:08:00,7,4,8,4,4,5,3,5,5
06:09:00,7,7,7,5,8,5,2,7,6
06:10:00,2,1,7,5,6,1,1,4,3
06:11:00,8,5,6,7,4,4,1,6,5
06:12:00,5,8,11,3,4,4,1,6,5
06:13:00,7,6,6,3,6,1,3,6,5
06:14:00,4,6,5,6,5,7,6,5,6
06:15:00,4,5,7,3,8,4,0,5,4
06:16:00,5,5,4,6,6,1,3,5,4
06:17:00,5,11,12,8,5,3,2,8,7
06:18:00,7,7,5,8,6,6,2,7,6
06:19:00,7,11,7,9,9,9,3,9,8
06:20:00,6,11,10,6,11,2,3,9,7
06:21:00,11,13,5,8,5,2,1,8,6
06:22:00,7,6,7,6,13,3,4,8,7
06:23:00,3,10,5,5,14,9,3,7,7
06:24:00,6,7,11,11,9,3,7,9,8
06:25:00,14,5,12,6,4,5,2,8,7
06:26:00,5,10,9,7,4,2,6,7,6
06:27:00,5,9,5,11,6,3,3,7,6
06:28:00,8,7,10,9,4,5,3,8,7
06:29:00,7,6,12,12,10,4,4,9,8
06:30:00,10,15,13,14,8,3,2,12,9
06:31:00,5,11,8,6,10,2,4,8,7
06:32:00,12,8,6,14,6,6,3,9,8
06:33:00,8,16,13,8,11,2,10,11,10
06:34:00,14,7,15,13,13,5,1,12,10
06:35:00,7,13,14,6,14,8,2,11,9
06:36:00,7,14,6,10,10,10,3,9,9
06:37:00,9,18,12,11,14,9,4,13,11
06:38:00,11,5,7,9,14,5,1,9,7
06:39:00,13,9,8,14,10,8,6,11,10
06:40:00,13,14,24,11,13,7,5,15,12
06:41:00,10,5,22,7,13,7,3,11,10
06:42:00,9,16,10,14,5,9,6,11,10
06:43:00,12,21,18,11,11,11,3,15,12
06:44:00,12,14,7,10,16,7,7,12,10
06:45:00,22,22,4,13,12,10,9,15,13
06:46:00,19,14,19,12,16,9,3,16,13
06:47:00,12,13,15,28,8,5,9,15,13
06:48:00,17,21,12,8,17,9,5,15,13
06:49:00,11,15,14,15,16,12,2,14,12
06:50:00,17,20,12,11,14,8,7,15,13
06:51:00,22,18,21,15,17,10,3,19,15
06:52:00,18,14,18,15,12,6,3,15,12
06:53:00,13,15,21,15,11,5,6,15,12
06:54:00,17,14,13,13,14,8,3,14,12
06:55:00,12,10,14,15,14,10,4,13,11
06:56:00,8,15,15,15,17,8,5,14,12
06:57:00,17,14,20,6,11,7,5,14,11
06:58:00,10,12,10,10,11,7,4,11,9
06:59:00,12,13,15,16,15,2,3,14,11
07:00:00,5,12,14,23,13,7,6,13,11
07:01:00,20,8,10,14,7,2,7,12,10
07:02:00,14,18,12,13,11,10,7,14,12
07:03:00,11,19,15,10,13,7,2,14,11
07:04:00,7,14,10,20,17,9,7,14,12
07:05:00,15,15,11,17,17,3,6,15,12
07:06:00,12,13,16,16,13,10,3,14,12
07:07:00,11,19,17,15,13,7,4,15,12
07:08:00,10,18,19,17,13,4,5,15,12
07:09:00,21,17,21,19,15,11,6,19,16
07:10:00,18,14,28,15,26,10,7,20,17
07:11:00,10,24,15,17,11,9,7,15,13
07:12:00,25,15,18,16,12,12,6,17,15
07:13:00,20,21,16,30,25,9,10,22,19
07:14:00,13,23,26,23,12,7,10,19,16
07:15:00,16,20,25,25,20,12,3,21,17
07:16:00,19,31,18,17,23,7,6,22,17
07:17:00,25,23,19,23,12,14,8,20,18
07:18:00,19,26,27,22,29,10,6,25,20
07:19:00,19,20,19,21,29,9,5,22,17
07:20:00,26,15,21,21,22,2,6,21,16
07:21:00,28,28,27,18,16,7,8,23,19
07:22:00,26,25,22,22,21,4,5,23,18
07:23:00,18,28,33,28,22,13,5,26,21
07:24:00,22,25,29,27,16,8,3,24,19
07:25:00,29,19,20,15,26,10,3,22,17
07:26:00,24,23,22,29,11,5,5,22,17
07:27:00,20,18,22,26,23,8,1,22,17
07:28:00,21,23,16,27,23,8,4,22,17
07:29:00,13,29,29,17,23,10,4,22,18
07:30:00,22,22,22,16,21,8,6,21,17
07:31:00,20,31,26,20,20,17,3,23,20
07:32:00,22,23,29,22,25,10,0,24,19
07:33:00,27,26,26,24,20,9,7,25,20
07:34:00,22,30,27,19,26,7,11,25,20
07:35:00,27,29,26,16,28,13,4,25,20
07:36:00,26,24,20,26,24,10,8,24,20
07:37:00,24,24,25,23,24,9,9,24,20
07:38:00,30,27,27,31,29,7,6,29,22
07:39:00,24,15,28,32,26,13,15,25,22
07:40:00,31,25,27,31,37,12,3,30,24
07:41:00,21,28,27,29,28,14,6,27,22
07:42:00,29,31,20,19,29,19,7,26,22
07:43:00,21,25,27,18,19,17,11,22,20
07:44:00,25,32,32,36,31,15,11,31,26
07:45:00,28,25,25,27,23,17,8,26,22
07:46:00,30,29,26,24,22,16,6,26,22
07:47:00,25,34,27,29,30,11,11,29,24
07:48:00,24,35,36,29,29,18,8,31,26
07:49:00,22,24,25,22,27,13,6,24,20
07:50:00,20,34,29,25,26,9,4,27,21
07:51:00,27,27,24,29,21,10,10,26,21
07:52:00,26,29,20,30,26,14,5,26,21
07:53:00,25,31,29,25,30,19,6,28,24
07:54:00,20,24,19,29,18,9,3,22,17
07:55:00,29,31,30,31,24,23,8,29,25
07:56:00,29,35,31,26,23,15,10,29,24
07:57:00,19,23,28,20,22,14,6,22,19
07:58:00,28,21,25,27,29,8,6,26,21
07:59:00,24,26,21,24,29,11,4,25,20
08:00:00,25,21,27,27,25,7,0,25,19
08:01:00,25,29,26,23,20,12,3,25,20
08:02:00,28,22,17,22,23,16,9,22,20
08:03:00,27,26,28,27,28,13,9,27,23
08:04:00,23,26,32,28,25,17,5,27,22
08:05:00,31,26,24,27,27,5,0,27,20
08:06:00,26,31,36,23,17,8,6,27,21
08:07:00,23,24,23,24,23,16,8,23,20
08:08:00,14,31,24,18,23,17,3,22,19
08:09:00,32,30,31,28,27,18,6,30,25
08:10:00,34,27,23,27,22,9,6,27,21
08:11:00,23,21,24,23,28,9,6,24,19
08:12:00,32,18,25,30,21,10,6,25,20
08:13:00,21,14,17,21,27,11,9,20,17
08:14:00,27,30,30,22,31,13,5,28,23
08:15:00,28,22,18,27,17,11,7,22,19
08:16:00,20,26,15,25,25,11,4,22,18
08:17:00,28,26,18,22,22,18,4,23,20
08:18:00,21,31,22,19,29,14,7,24,20
08:19:00,25,21,25,23,26,15,10,24,21
08:20:00,18,22,26,22,23,10,5,22,18
08:21:00,30,19,36,31,25,12,4,28,22
08:22:00,19,23,32,20,27,16,7,24,21
08:23:00,26,25,30,25,28,14,6,27,22
08:24:00,29,23,25,22,12,22,5,22,20
08:25:00,21,25,29,30,12,16,9,23,20
08:26:00,24,23,23,32,21,11,1,25,19
08:27:00,21,32,25,20,22,13,7,24,20
08:28:00,21,23,30,13,26,19,4,23,19
08:29:00,24,34,27,16,22,8,4,25,19
08:30:00,22,26,13,24,27,14,7,22,19
08:31:00,24,28,24,27,27,15,5,26,21
08:32:00,20,21,22,28,18,14,6,22,18
08:33:00,23,29,32,26,31,20,8,28,24
08:34:00,29,28,28,30,29,16,3,29,23
08:35:00,20,17,23,16,14,22,10,18,17
08:36:00,18,24,27,22,26,21,9,23,21
08:37:00,26,28,23,13,17,17,6,21,19
08:38:00,25,18,24,31,27,17,6,25,21
08:39:00,22,16,22,29,20,14,9,22,19
08:40:00,13,22,24,21,24,15,5,21,18
08:41:00,29,20,22,17,30,14,9,24,20
08:42:00,20,26,21,26,22,30,11,23,22
08:43:00,30,22,21,24,18,25,9,23,21
08:44:00,26,20,31,29,19,29,8,25,23
08:45:00,21,29,24,23,28,22,6,25,22
08:46:00,19,25,22,19,19,20,6,21,19
08:47:00,18,27,26,21,19,16,8,22,19
08:48:00,27,28,27,27,22,23,13,26,24
08:49:00,25,26,28,21,23,17,10,25,21
08:50:00,12,24,17,20,20,18,5,19,17
08:51:00,21,33,20,29,18,21,8,24,21
08:52:00,20,30,24,25,28,24,11,25,23
08:53:00,23,27,23,25,26,17,3,25,21
08:54:00,20,27,19,16,14,19,7,19,17
08:55:00,22,24,27,36,26,11,7,27,22
08:56:00,21,26,27,25,24,17,6,25,21
08:57:00,17,29,19,24,28,16,12,23,21
08:58:00,24,28,26,21,22,20,11,24,22
08:59:00,21,17,19,18,31,12,4,21,17
09:00:00,19,29,25,21,21,12,13,23,20
09:01:00,26,23,29,15,23,17,7,23,20
09:02:00,27,25,27,18,14,11,11,22,19
09:03:00,25,27,17,21,21,22,9,22,20
09:04:00,27,19,16,19,21,18,11,20,19
09:05:00,20,33,20,20,27,12,9,24,20
09:06:00,25,30,22,25,22,16,10,25,21
09:07:00,32,26,33,23,28,20,10,28,25
09:08:00,22,18,17,18,12,15,7,17,16
09:09:00,27,24,16,30,20,13,7,23,20
09:10:00,27,28,23,35,16,16,10,26,22
09:11:00,21,24,25,18,16,18,7,21,18
09:12:00,13,22,22,11,29,22,19,19,20
09:13:00,22,22,25,23,23,9,11,23,19
09:14:00,28,31,28,22,26,20,12,27,24
09:15:00,17,17,19,23,17,10,5,19,15
09:16:00,22,30,32,31,20,16,21,27,25
09:17:00,25,27,24,12,28,14,12,23,20
09:18:00,20,30,28,15,28,26,8,24,22
09:19:00,25,23,26,23,23,14,11,24,21
09:20:00,21,30,31,19,22,21,19,25,23
09:21:00,17,20,27,21,18,14,13,21,19
09:22:00,28,28,24,23,24,27,11,25,24
09:23:00,24,29,35,31,17,16,16,27,24
09:24:00,36,21,23,31,14,31,15,25,24
09:25:00,23,18,22,16,15,25,14,19,19
09:26:00,26,33,24,21,19,15,21,25,23
09:27:00,29,24,26,23,20,20,14,24,22
09:28:00,23,19,12,30,25,16,20,22,21
09:29:00,17,18,20,24,29,22,28,22,23
09:30:00,26,21,24,21,30,20,10,24,22
09:31:00,22,19,19,26,13,17,15,20,19
09:32:00,24,25,27,26,11,13,11,23,20
09:33:00,19,20,22,23,21,19,12,21,19
09:34:00,26,23,28,16,30,22,12,25,22
09:35:00,27,25,27,26,20,27,19,25,24
09:36:00,31,24,12,26,23,24,17,23,22
09:37:00,29,24,25,23,18,16,6,24,20
09:38:00,14,27,38,26,24,25,20,26,25
09:39:00,21,27,22,17,23,17,18,22,21
09:40:00,21,23,34,25,25,21,17,26,24
09:41:00,27,22,21,26,19,27,16,23,23
09:42:00,28,25,30,24,24,29,29,26,27
09:43:00,18,27,21,23,22,24,13,22,21
09:44:00,17,32,26,21,24,19,26,24,24
09:45:00,24,24,26,32,17,20,22,25,24
09:46:00,13,30,22,26,21,34,20,22,24
09:47:00,26,25,23,24,19,20,16,23,22
09:48:00,30,26,15,27,15,30,15,23,23
09:49:00,26,15,33,21,25,31,27,24,25
09:50:00,19,31,25,23,27,17,20,25,23
09:51:00,29,27,19,26,35,21,15,27,25
09:52:00,22,27,25,24,28,27,28,25,26
09:53:00,23,29,22,31,19,29,13,25,24
09:54:00,29,33,21,29,31,29,27,29,28
09:55:00,22,22,21,22,25,23,32,22,24
09:56:00,23,25,20,30,20,25,20,24,23
09:57:00,27,19,21,23,12,35,21,20,23
09:58:00,24,23,19,24,22,23,20,22,22
09:59:00,21,25,24,22,16,22,18,22,21
10:00:00,25,24,19,28,19,36,24,23,25
10:01:00,16,29,26,21,15,29,18,21,22
10:02:00,30,22,31,29,17,29,19,26,25
10:03:00,18,19,30,30,21,20,27,24,24
10:04:00,34,19,27,22,19,20,22,24,23
10:05:00,19,22,22,18,24,25,13,21,20
10:06:00,21,21,28,26,27,25,22,25,24
10:07:00,21,27,31,27,25,26,13,26,24
10:08:00,24,27,18,26,23,26,25,24,24
10:09:00,9,24,26,26,26,14,20,22,21
10:10:00,26,28,22,19,21,19,16,23,22
10:11:00,36,19,31,19,15,23,28,24,24
10:12:00,30,20,26,23,22,28,20,24,24
10:13:00,21,23,24,24,16,25,25,22,23
10:14:00,33,29,22,26,22,33,22,26,27
10:15:00,22,19,32,24,27,31,21,25,25
10:16:00,19,27,17,24,27,23,26,23,23
10:17:00,12,21,19,27,24,20,21,21,21
10:18:00,24,29,19,19,23,25,15,23,22
10:19:00,25,22,23,30,27,24,27,25,25
10:20:00,27,32,25,27,22,32,16,27,26
10:21:00,27,26,23,20,24,25,25,24,24
10:22:00,25,37,28,10,23,19,19,25,23
10:23:00,29,29,22,12,27,30,24,24,25
10:24:00,16,32,22,33,29,22,19,26,25
10:25:00,25,23,29,24,29,32,20,26,26
10:26:00,25,28,20,25,26,29,20,25,25
10:27:00,28,26,25,19,27,24,28,25,25
10:28:00,28,30,29,31,20,21,29,28,27
10:29:00,22,23,26,15,25,25,23,22,23
10:30:00,20,18,36,35,19,34,17,26,26
10:31:00,27,20,33,21,28,25,17,26,24
10:32:00,23,20,25,26,23,18,28,23,23
10:33:00,26,20,23,28,25,25,22,24,24
10:34:00,33,28,21,19,22,27,27,25,25
10:35:00,17,24,30,24,30,20,26,25,24
10:36:00,23,17,19,30,21,22,21,22,22
10:37:00,22,22,21,25,29,30,32,24,26
10:38:00,21,22,26,24,16,20,20,22,21
10:39:00,31,30,20,23,22,23,18,25,24
10:40:00,31,32,34,21,24,25,24,28,27
10:41:00,21,20,28,25,33,21,25,25,25
10:42:00,29,22,24,23,21,19,36,24,25
10:43:00,26,23,27,20,29,27,21,25,25
10:44:00,23,25,24,22,28,18,12,24,22
10:45:00,23,26,31,26,25,21,18,26,24
10:46:00,27,23,24,28,27,27,21,26,25
10:47:00,26,30,23,27,27,24,17,27,25
10:48:00,18,17,26,26,21,28,21,22,22
10:49:00,18,27,20,27,31,28,11,25,23
10:50:00,27,20,21,36,23,22,23,25,25
10:51:00,17,22,22,19,23,22,22,21,21
10:52:00,24,25,19,24,23,23,19,23,22
10:53:00,14,27,23,29,27,23,14,24,22
10:54:00,25,26,20,19,21,33,24,22,24
10:55:00,13,20,31,29,29,26,18,24,24
10:56:00,26,16,26,23,29,28,23,24,24
10:57:00,28,27,23,25,32,27,17,27,26
10:58:00,24,26,23,25,28,20,25,25,24
10:59:00,19,19,28,23,30,28,21,24,24
11:00:00,31,24,22,30,24,29,31,26,27
11:01:00,25,25,22,24,21,29,28,23,25
11:02:00,25,23,21,29,21,32,24,24,25
11:03:00,22,21,27,20,22,27,22,22,23
11:04:00,21,23,33,30,22,24,17,26,24
11:05:00,20,18,23,24,25,33,22,22,24
11:06:00,24,17,24,27,29,29,27,24,25
11:07:00,30,24,30,27,28,31,16,28,27
11:08:00,31,19,29,17,29,32,20,25,25
11:09:00,18,15,22,22,28,34,23,21,23
11:10:00,27,24,29,29,25,32,19,27,26
11:11:00,20,29,23,22,16,32,22,22,23
11:12:00,20,33,34,25,30,25,28,28,28
11:13:00,28,26,20,26,25,29,15,25,24
11:14:00,26,28,24,25,18,28,31,24,26
11:15:00,25,29,25,26,23,26,22,26,25
11:16:00,19,22,18,24,26,21,25,22,22
11:17:00,34,32,30,22,30,28,23,30,28
11:18:00,20,19,25,25,24,26,11,23,21
11:19:00,23,32,22,19,26,35,28,24,26
11:20:00,20,21,25,22,26,27,22,23,23
11:21:00,20,21,23,21,35,30,19,24,24
11:22:00,24,25,16,18,24,21,18,21,21
11:23:00,26,25,24,34,31,21,22,28,26
11:24:00,22,22,24,31,22,29,18,24,24
11:25:00,23,17,18,22,26,24,25,21,22
11:26:00,33,24,23,33,22,23,26,27,26
11:27:00,24,25,32,39,29,19,22,30,27
11:28:00,27,19,19,25,25,29,26,23,24
11:29:00,25,23,24,32,21,22,24,25,24
11:30:00,26,30,28,26,33,23,22,29,27
11:31:00,36,22,29,18,32,28,23,27,27
11:32:00,29,21,21,28,22,29,20,24,24
11:33:00,30,35,24,20,20,20,24,26,25
11:34:00,26,19,22,31,27,25,22,25,25
11:35:00,12,23,23,16,21,18,25,19,20
11:36:00,24,29,23,29,21,23,18,25,24
11:37:00,27,20,15,27,25,23,27,23,23
11:38:00,22,27,34,24,34,23,17,28,26
11:39:00,26,22,26,17,36,26,28,25,26
11:40:00,29,31,16,25,32,22,31,27,27
11:41:00,18,15,29,29,24,19,25,23,23
11:42:00,25,30,31,24,22,22,22,26,25
11:43:00,33,21,24,14,24,22,19,23,22
11:44:00,27,22,31,24,20,21,35,25,26
11:45:00,24,22,30,30,28,22,32,27,27
11:46:00,23,21,37,21,19,30,28,24,26
11:47:00,30,28,37,28,25,19,26,30,28
11:48:00,26,19,28,32,26,30,25,26,27
11:49:00,21,21,17,25,28,19,25,22,22
11:50:00,20,28,28,27,27,22,31,26,26
11:51:00,16,23,29,31,27,19,25,25,24
11:52:00,28,32,22,26,30,25,24,28,27
11:53:00,19,18,28,28,27,19,14,24,22
11:54:00,33,26,28,19,19,22,22,25,24
11:55:00,30,18,15,33,12,29,27,22,23
11:56:00,19,31,23,22,24,21,21,24,23
11:57:00,25,27,13,28,32,19,20,25,23
11:58:00,33,27,22,24,21,21,28,25,25
11:59:00,16,29,23,30,24,22,20,24,23
12:00:00,23,24,24,23,27,22,28,24,24
12:01:00,22,28,26,25,31,22,26,26,26
12:02:00,24,25,27,25,30,22,26,26,26
12:03:00,24,27,25,26,22,23,27,25,25
12:04:00,30,20,23,31,19,28,29,25,26
12:05:00,24,27,29,30,20,20,31,26,26
12:06:00,19,29,22,38,25,29,24,27,27
12:07:00,33,20,25,26,26,20,24,26,25
12:08:00,20,26,25,31,31,26,23,27,26
12:09:00,31,25,30,34,25,19,25,29,27
12:10:00,30,21,22,17,22,23,25,22,23
12:11:00,23,25,31,32,28,18,23,28,26
12:12:00,26,24,17,29,27,21,27,25,24
12:13:00,23,22,26,28,20,25,23,24,24
12:14:00,28,22,21,28,13,26,29,22,24
12:15:00,28,24,26,30,18,22,24,25,25
12:16:00,17,24,23,27,22,25,37,23,25
12:17:00,19,27,13,25,29,30,36,23,26
12:18:00,31,20,30,15,31,18,24,25,24
12:19:00,29,20,18,26,20,21,28,23,23
12:20:00,26,15,25,33,15,28,29,23,24
12:21:00,31,28,27,24,17,31,25,25,26
12:22:00,32,24,32,21,19,20,29,26,25
12:23:00,31,34,25,25,25,22,30,28,27
12:24:00,28,23,28,30,28,27,28,27,27
12:25:00,27,32,35,35,30,25,32,32,31
12:26:00,22,21,31,24,26,30,24,25,25
12:27:00,31,31,23,22,28,24,36,27,28
12:28:00,20,24,20,21,25,28,22,22,23
12:29:00,30,27,25,16,29,20,27,25,25
12:30:00,19,30,25,14,24,22,27,22,23
12:31:00,17,23,22,15,19,32,25,19,22
12:32:00,23,19,29,25,24,22,17,24,23
12:33:00,23,23,21,27,20,24,16,23,22
12:34:00,25,20,16,28,24,30,10,23,22
12:35:00,24,26,21,29,34,20,19,27,25
12:36:00,23,23,33,23,25,28,26,25,26
12:37:00,18,23,28,26,16,36,28,22,25
12:38:00,32,25,33,30,21,30,27,28,28
12:39:00,19,29,12,23,17,28,23,20,22
12:40:00,25,22,27,25,23,16,25,24,23
12:41:00,24,27,27,31,23,26,23,26,26
12:42:00,11,23,16,31,21,23,24,20,21
12:43:00,22,23,28,24,21,18,25,24,23
12:44:00,39,23,22,26,13,19,24,25,24
12:45:00,29,20,24,23,16,23,33,22,24
12:46:00,15,40,42,18,16,33,32,26,28
12:47:00,25,30,28,18,22,26,21,25,24
12:48:00,12,25,24,22,28,27,30,22,24
12:49:00,22,25,26,19,23,32,30,23,25
12:50:00,26,20,24,31,15,27,26,23,24
12:51:00,20,24,26,25,27,19,16,24,22
12:52:00,33,36,27,19,27,17,30,28,27
12:53:00,29,23,25,27,21,24,29,25,25
12:54:00,30,30,22,27,26,27,20,27,26
12:55:00,26,24,14,18,24,29,18,21,22
12:56:00,23,21,16,22,32,23,20,23,22
12:57:00,25,24,28,21,21,24,17,24,23
12:58:00,24,26,21,20,25,26,36,23,25
12:59:00,27,33,33,21,36,32,35,30,31
13:00:00,29,21,33,29,26,22,28,28,27
13:01:00,29,41,19,23,30,26,22,28,27
13:02:00,36,22,33,30,27,24,25,30,28
13:03:00,21,16,21,26,24,25,29,22,23
13:04:00,34,28,32,15,25,21,16,27,24
13:05:00,23,24,26,25,28,25,20,25,24
13:06:00,23,28,20,26,20,25,25,23,24
13:07:00,19,30,26,25,18,21,28,24,24
13:08:00,25,20,30,23,24,22,29,24,25
13:09:00,25,24,26,26,28,28,26,26,26
13:10:00,24,20,15,27,27,25,15,23,22
13:11:00,33,22,20,30,29,31,34,27,28
13:12:00,16,23,32,22,24,34,35,23,27
13:13:00,27,28,35,28,28,20,20,29,27
13:14:00,33,19,16,30,22,31,28,24,26
13:15:00,22,26,19,25,29,21,22,24,23
13:16:00,30,24,30,20,25,19,25,26,25
13:17:00,33,26,31,26,17,16,26,27,25
13:18:00,25,32,18,27,29,26,29,26,27
13:19:00,25,32,20,22,11,28,26,22,23
13:20:00,25,25,24,17,26,31,30,23,25
13:21:00,24,31,25,18,32,26,27,26,26
13:22:00,24,23,32,26,30,22,25,27,26
13:23:00,21,19,23,23,20,22,30,21,23
13:24:00,27,35,23,19,28,21,22,26,25
13:25:00,29,30,22,31,22,19,14,27,24
13:26:00,21,19,21,28,21,28,18,22,22
13:27:00,29,26,21,26,26,19,22,26,24
13:28:00,23,23,24,20,19,29,15,22,22
13:29:00,24,26,23,22,22,22,19,23,23
13:30:00,19,27,34,29,24,35,30,27,28
13:31:00,32,22,23,24,24,29,24,25,25
13:32:00,20,16,35,21,28,29,16,24,24
13:33:00,33,23,26,23,22,30,20,25,25
13:34:00,14,22,21,24,31,25,19,22,22
13:35:00,29,19,26,34,30,29,21,28,27
13:36:00,23,31,9,27,29,28,28,24,25
13:37:00,24,28,25,30,23,29,36,26,28
13:38:00,26,28,25,35,20,24,26,27,26
13:39:00,23,31,28,30,18,31,19,26,26
13:40:00,28,21,26,18,23,24,15,23,22
13:41:00,29,26,21,27,17,29,26,24,25
13:42:00,21,22,21,35,24,22,22,25,24
13:43:00,32,31,33,26,28,25,23,30,28
13:44:00,28,26,32,35,27,29,18,30,28
13:45:00,29,29,26,34,28,23,22,29,27
13:46:00,32,25,18,25,31,32,17,26,26
13:47:00,22,35,34,27,28,15,27,29,27
13:48:00,26,25,33,33,20,28,18,27,26
13:49:00,22,27,28,27,35,28,24,28,27
13:50:00,26,29,35,21,27,26,33,28,28
13:51:00,23,26,28,26,16,20,25,24,23
13:52:00,25,28,23,28,28,33,34,26,28
13:53:00,16,31,27,22,23,28,28,24,25
13:54:00,28,31,29,23,24,21,21,27,25
13:55:00,26,21,31,32,26,33,27,27,28
13:56:00,31,22,26,21,26,23,31,25,26
13:57:00,29,26,27,30,24,25,19,27,26
13:58:00,22,22,30,19,26,24,19,24,23
13:59:00,18,21,21,34,26,19,26,24,24
14:00:00,29,31,22,26,27,32,18,27,26
14:01:00,25,21,28,28,18,29,25,24,25
14:02:00,27,32,36,24,25,26,24,29,28
14:03:00,23,30,25,24,31,22,27,27,26
14:04:00,27,20,20,25,29,29,17,24,24
14:05:00,27,26,24,23,23,27,21,25,24
14:06:00,21,18,20,29,22,21,30,22,23
14:07:00,27,26,26,30,25,22,21,27,25
14:08:00,23,28,25,25,18,23,24,24,24
14:09:00,21,32,30,20,25,21,28,26,25
14:10:00,27,22,22,26,20,30,22,23,24
14:11:00,29,32,21,34,25,33,20,28,28
14:12:00,36,27,39,27,29,31,13,32,29
14:13:00,22,30,28,31,23,22,18,27,25
14:14:00,32,23,23,27,26,18,31,26,26
14:15:00,21,28,26,22,26,31,23,25,25
14:16:00,22,35,27,28,30,28,27,28,28
14:17:00,27,34,24,29,25,17,19,28,25
14:18:00,19,24,28,19,27,21,21,23,23
14:19:00,28,27,17,21,20,30,26,23,24
14:20:00,31,27,24,20,32,24,20,27,25
14:21:00,25,26,22,26,36,21,18,27,25
14:22:00,30,32,18,30,26,26,24,27,27
14:23:00,16,23,21,15,28,24,16,21,20
14:24:00,24,25,35,29,21,27,31,27,27
14:25:00,27,18,32,25,29,24,27,26,26
14:26:00,18,27,26,37,26,24,27,27,26
14:27:00,32,25,25,26,30,34,22,28,28
14:28:00,29,21,37,22,25,26,25,27,26
14:29:00,29,24,23,27,26,16,27,26,25
14:30:00,25,22,31,15,22,21,31,23,24
14:31:00,24,35,32,21,17,29,21,26,26
14:32:00,29,24,21,23,29,23,27,25,25
14:33:00,25,28,31,29,24,19,26,27,26
14:34:00,30,20,23,31,28,28,20,26,26
14:35:00,31,22,29,27,23,32,26,26,27
14:36:00,29,23,34,26,23,34,26,27,28
14:37:00,32,26,24,28,22,20,30,26,26
14:38:00,33,25,36,31,30,26,26,31,30
14:39:00,19,26,32,29,26,27,19,26,25
14:40:00,38,25,18,29,30,27,29,28,28
14:41:00,26,32,27,19,24,26,26,26,26
14:42:00,21,25,31,35,30,26,27,28,28
14:43:00,28,28,24,25,18,25,24,25,25
14:44:00,21,28,31,23,33,17,27,27,26
14:45:00,32,24,31,20,32,19,28,28,27
14:46:00,25,22,30,30,23,25,20,26,25
14:47:00,25,33,27,25,32,23,25,28,27
14:48:00,30,32,29,32,23,27,24,29,28
14:49:00,27,21,27,26,36,26,22,27,26
14:50:00,24,28,39,20,25,29,31,27,28
14:51:00,25,27,21,31,37,19,14,28,25
14:52:00,28,24,36,32,31,32,25,30,30
14:53:00,25,31,25,29,25,27,27,27,27
14:54:00,24,20,31,33,24,25,19,26,25
14:55:00,27,33,28,34,30,28,17,30,28
14:56:00,24,20,31,27,27,27,28,26,26
14:57:00,31,23,27,31,18,18,16,26,23
14:58:00,26,17,21,22,26,18,15,22,21
14:59:00,22,32,28,24,24,35,22,26,27
15:00:00,24,35,28,20,25,21,22,26,25
15:01:00,31,24,27,28,35,25,22,29,27
15:02:00,23,27,25,26,21,19,18,24,23
15:03:00,25,22,26,21,22,15,17,23,21
15:04:00,26,32,47,29,21,24,22,31,29
15:05:00,30,22,32,34,29,27,16,29,27
15:06:00,26,26,24,17,27,19,24,24,23
15:07:00,26,23,34,33,23,24,24,28,27
15:08:00,26,33,32,17,29,27,18,27,26
15:09:00,26,22,26,29,22,24,18,25,24
15:10:00,32,37,32,24,23,16,28,30,27
15:11:00,36,29,24,33,32,22,19,31,28
15:12:00,33,24,33,35,26,26,24,30,29
15:13:00,28,26,21,27,25,23,29,25,26
15:14:00,32,32,45,30,42,27,23,36,33
15:15:00,26,26,17,25,27,27,29,24,25
15:16:00,26,35,29,41,20,20,19,30,27
15:17:00,31,30,27,24,25,24,25,27,27
15:18:00,19,24,31,31,28,13,21,27,24
15:19:00,24,20,31,27,31,20,31,27,26
15:20:00,23,24,25,24,20,24,22,23,23
15:21:00,28,24,21,33,19,25,15,25,24
15:22:00,26,23,29,27,29,20,27,27,26
15:23:00,27,29,26,9,28,26,18,24,23
15:24:00,29,22,19,22,19,23,30,22,23
15:25:00,25,26,24,20,25,19,23,24,23
15:26:00,31,23,23,20,19,28,31,23,25
15:27:00,21,27,28,27,23,25,19,25,24
15:28:00,30,23,31,30,28,15,18,28,25
15:29:00,26,22,25,32,19,21,25,25,24
15:30:00,32,25,20,31,23,24,19,26,25
15:31:00,23,32,27,25,29,20,32,27,27
15:32:00,21,22,21,27,17,20,22,22,21
15:33:00,31,31,22,12,25,25,18,24,23
15:34:00,26,27,23,29,23,23,21,26,25
15:35:00,25,21,29,22,24,12,26,24,23
15:36:00,25,25,27,22,24,24,18,25,24
15:37:00,26,19,32,23,12,18,28,22,23
15:38:00,28,25,28,28,21,22,27,26,26
15:39:00,25,17,26,20,15,25,22,21,21
15:40:00,21,7,20,31,13,26,25,18,20
15:41:00,31,21,20,18,21,28,23,22,23
15:42:00,27,22,23,23,19,20,22,23,22
15:43:00,20,31,27,19,17,20,27,23,23
15:44:00,29,20,30,22,9,15,27,22,22
15:45:00,23,15,17,22,17,23,22,19,20
15:46:00,22,15,21,21,15,23,20,19,20
15:47:00,25,33,22,11,22,25,10,23,21
15:48:00,37,22,24,29,25,20,20,27,25
15:49:00,19,14,28,27,32,16,17,24,22
15:50:00,17,21,21,25,11,21,22,19,20
15:51:00,21,22,17,19,14,21,19,19,19
15:52:00,30,31,5,18,20,16,17,21,20
15:53:00,11,19,14,14,34,17,25,18,19
15:54:00,20,22,27,23,25,24,29,23,24
15:55:00,20,17,32,20,22,23,25,22,23
15:56:00,18,22,22,31,13,16,22,21,21
15:57:00,18,26,24,25,10,28,24,21,22
15:58:00,25,31,24,17,11,24,21,22,22
15:59:00,25,24,24,21,17,26,17,22,22
16:00:00,17,22,23,31,11,27,12,21,20
16:01:00,24,22,24,30,10,24,23,22,22
16:02:00,26,28,24,30,9,18,19,23,22
16:03:00,27,34,24,24,24,25,22,27,26
16:04:00,32,27,21,23,18,20,24,24,24
16:05:00,29,17,27,29,9,14,24,22,21
16:06:00,23,26,22,27,12,16,17,22,20
16:07:00,32,28,34,27,14,20,28,27,26
16:08:00,31,26,22,33,23,21,27,27,26
16:09:00,18,28,18,25,30,28,18,24,24
16:10:00,29,27,18,21,32,23,20,25,24
16:11:00,24,29,25,17,15,13,23,22,21
16:12:00,26,26,17,20,35,26,23,25,25
16:13:00,24,25,21,27,22,23,32,24,25
16:14:00,20,36,26,20,23,19,25,25,24
16:15:00,28,28,35,29,22,25,15,28,26
16:16:00,25,28,28,12,17,12,19,22,20
16:17:00,19,8,21,33,25,25,27,21,23
16:18:00,18,10,14,15,21,22,24,16,18
16:19:00,18,22,19,17,27,19,23,21,21
16:20:00,24,25,1,29,24,17,26,21,21
16:21:00,26,30,16,28,23,28,23,25,25
16:22:00,29,34,18,28,26,21,19,27,25
16:23:00,27,33,32,21,23,24,19,27,26
16:24:00,24,35,17,19,31,19,12,25,22
16:25:00,20,20,20,30,18,17,21,22,21
16:26:00,26,11,19,33,16,19,17,21,20
16:27:00,28,28,21,22,28,19,14,25,23
16:28:00,31,24,23,34,23,24,14,27,25
16:29:00,22,26,27,28,23,19,18,25,23
16:30:00,22,25,27,20,24,23,20,24,23
16:31:00,20,32,29,26,33,24,23,28,27
16:32:00,26,24,29,26,19,32,15,25,24
16:33:00,20,27,20,17,38,26,16,24,23
16:34:00,25,25,24,19,30,23,15,25,23
16:35:00,23,19,26,19,30,16,16,23,21
16:36:00,29,24,22,23,17,24,23,23,23
16:37:00,25,27,29,29,27,26,18,27,26
16:38:00,34,27,25,26,25,26,18,27,26
16:39:00,36,36,28,27,24,20,17,30,27
16:40:00,27,28,21,28,21,23,9,25,22
16:41:00,29,31,26,27,22,32,17,27,26
16:42:00,29,24,22,29,19,20,19,25,23
16:43:00,28,23,20,24,30,18,18,25,23
16:44:00,25,21,17,19,22,20,12,21,19
16:45:00,18,31,11,28,26,20,25,23,23
16:46:00,22,27,17,32,21,21,17,24,22
16:47:00,29,30,27,23,18,28,20,25,25
16:48:00,26,22,30,28,20,22,19,25,24
16:49:00,19,28,23,22,19,23,16,22,21
16:50:00,36,33,17,29,21,18,22,27,25
16:51:00,25,27,20,35,23,20,10,26,23
16:52:00,29,35,31,29,25,21,16,30,27
16:53:00,25,26,23,31,25,19,17,26,24
16:54:00,26,31,23,33,20,20,21,27,25
16:55:00,26,27,29,21,27,23,7,26,23
16:56:00,25,31,13,29,21,23,21,24,23
16:57:00,28,27,29,24,24,25,11,26,24
16:58:00,24,19,31,22,24,22,13,24,22
16:59:00,26,31,25,31,23,17,26,27,26
17:00:00,26,26,23,30,22,21,17,25,24
17:01:00,30,23,24,19,23,24,14,24,22
17:02:00,26,21,27,35,23,25,15,26,25
17:03:00,27,27,20,20,38,20,19,26,24
17:04:00,32,30,35,31,23,26,22,30,28
17:05:00,32,20,28,20,23,21,14,25,23
17:06:00,25,27,26,30,30,26,10,28,25
17:07:00,26,21,33,13,21,29,16,23,23
17:08:00,39,28,12,38,29,25,18,29,27
17:09:00,32,30,32,28,24,26,18,29,27
17:10:00,27,31,22,26,20,26,17,25,24
17:11:00,34,35,29,25,27,15,18,30,26
17:12:00,21,23,20,26,17,19,20,21,21
17:13:00,25,33,24,34,29,18,13,29,25
17:14:00,30,26,32,20,30,25,23,28,27
17:15:00,28,26,26,22,22,17,10,25,22
17:16:00,24,37,26,24,25,19,13,27,24
17:17:00,17,26,27,26,26,23,13,24,23
17:18:00,22,23,27,34,31,28,15,27,26
17:19:00,28,17,22,30,23,19,9,24,21
17:20:00,24,31,21,25,20,16,17,24,22
17:21:00,30,29,23,24,31,21,7,27,24
17:22:00,31,25,21,20,22,24,15,24,23
17:23:00,24,27,35,26,28,15,15,28,24
17:24:00,27,35,22,31,25,23,14,28,25
17:25:00,32,29,23,26,24,18,10,27,23
17:26:00,23,24,25,22,33,16,16,25,23
17:27:00,29,26,19,24,29,20,16,25,23
17:28:00,29,25,26,22,26,27,17,26,25
17:29:00,32,27,27,31,29,12,10,29,24
17:30:00,28,30,33,24,28,20,15,29,25
17:31:00,20,21,26,23,22,30,9,22,22
17:32:00,20,32,27,21,22,20,17,24,23
17:33:00,32,28,29,28,25,21,18,28,26
17:34:00,21,25,34,21,27,17,9,26,22
17:35:00,18,21,25,27,27,20,12,24,21
17:36:00,26,26,27,22,17,11,22,24,22
17:37:00,26,22,35,27,31,14,12,28,24
17:38:00,27,27,26,28,31,32,18,28,27
17:39:00,18,27,33,32,26,24,10,27,24
17:40:00,30,28,19,29,25,16,17,26,23
17:41:00,29,32,22,26,27,17,4,27,22
17:42:00,29,37,28,32,20,18,15,29,26
17:43:00,23,20,25,29,29,25,17,25,24
17:44:00,34,30,37,28,23,19,11,30,26
17:45:00,24,22,35,33,24,14,10,28,23
17:46:00,34,34,19,23,25,15,21,27,24
17:47:00,31,21,30,23,24,12,12,26,22
17:48:00,30,29,30,26,28,18,11,29,25
17:49:00,19,29,25,25,34,18,8,26,23
17:50:00,26,28,22,25,26,8,15,25,21
17:51:00,34,28,31,29,31,18,19,31,27
17:52:00,25,24,24,22,20,12,11,23,20
17:53:00,30,25,30,32,24,18,11,28,24
17:54:00,28,24,24,23,24,17,9,25,21
17:55:00,32,33,27,31,31,12,14,31,26
17:56:00,26,26,27,28,18,17,8,25,21
17:57:00,26,30,20,20,28,20,10,25,22
17:58:00,22,25,28,26,25,19,9,25,22
17:59:00,22,28,17,26,27,23,11,24,22
18:00:00,19,30,26,27,21,11,10,25,21
18:01:00,24,23,24,38,27,8,9,27,22
18:02:00,20,25,27,29,23,16,18,25,23
18:03:00,23,22,21,23,27,17,9,23,20
18:04:00,21,25,33,33,30,13,16,28,24
18:05:00,36,22,30,29,22,13,12,28,23
18:06:00,19,20,23,33,28,18,18,25,23
18:07:00,25,24,29,25,25,10,11,26,21
18:08:00,26,26,26,22,29,21,9,26,23
18:09:00,31,28,27,23,30,12,15,28,24
18:10:00,32,29,39,38,27,22,21,33,30
18:11:00,27,30,24,17,28,19,16,25,23
18:12:00,35,28,30,31,20,15,14,29,25
18:13:00,27,25,29,29,20,27,10,26,24
18:14:00,24,27,28,20,19,13,14,24,21
18:15:00,24,26,33,34,21,18,10,28,24
18:16:00,22,21,30,25,25,10,15,25,21
18:17:00,25,30,21,28,32,13,12,27,23
18:18:00,26,25,26,27,24,18,7,26,22
18:19:00,19,24,31,23,29,21,10,25,22
18:20:00,34,24,26,36,20,15,11,28,24
18:21:00,16,33,17,28,27,14,5,24,20
18:22:00,29,27,28,23,22,17,13,26,23
18:23:00,19,20,17,37,20,23,5,23,20
18:24:00,19,27,24,23,32,16,15,25,22
18:25:00,20,24,24,27,20,17,7,23,20
18:26:00,24,22,21,24,18,14,12,22,19
18:27:00,21,29,23,22,17,24,10,22,21
18:28:00,17,22,26,17,20,11,10,20,18
18:29:00,24,30,31,23,18,16,17,25,23
18:30:00,21,27,21,28,24,13,16,24,21
18:31:00,25,28,26,17,16,13,10,22,19
18:32:00,22,18,21,14,28,15,11,21,18
18:33:00,20,32,18,20,20,11,12,22,19
18:34:00,28,24,27,22,15,11,17,23,21
18:35:00,31,29,20,18,17,16,18,23,21
18:36:00,26,26,23,17,23,9,7,23,19
18:37:00,23,28,27,26,20,20,8,25,22
18:38:00,18,19,21,27,18,13,8,21,18
18:39:00,21,25,30,14,23,20,18,23,22
18:40:00,22,30,24,24,10,20,10,22,20
18:41:00,21,28,20,13,21,14,15,21,19
18:42:00,26,23,20,30,28,14,9,25,21
18:43:00,18,23,16,13,18,13,11,18,16
18:44:00,20,32,23,16,30,15,5,24,20
18:45:00,21,18,35,23,27,18,9,25,22
18:46:00,18,27,25,22,27,13,12,24,21
18:47:00,29,26,20,20,25,19,6,24,21
18:48:00,18,23,20,24,22,18,12,21,20
18:49:00,19,24,25,17,37,7,16,24,21
18:50:00,26,26,27,25,22,16,9,25,22
18:51:00,16,23,25,20,21,7,9,21,17
18:52:00,22,21,17,20,21,11,11,20,18
18:53:00,24,21,18,27,21,13,14,22,20
18:54:00,28,26,22,31,26,18,12,27,23
18:55:00,10,25,25,21,20,15,6,20,17
18:56:00,17,21,31,16,18,17,18,21,20
18:57:00,15,25,16,16,25,25,13,19,19
18:58:00,20,35,24,20,19,18,11,24,21
18:59:00,15,32,18,13,21,15,9,20,18
19:00:00,20,27,17,26,23,15,7,23,19
19:01:00,14,18,23,27,24,10,17,21,19
19:02:00,13,31,20,30,21,12,6,23,19
19:03:00,25,28,22,30,31,15,11,27,23
19:04:00,24,28,23,19,16,19,5,22,19
19:05:00,21,30,26,27,16,12,18,24,21
19:06:00,15,31,31,22,17,10,13,23,20
19:07:00,18,25,25,25,26,9,14,24,20
19:08:00,18,29,24,27,25,28,20,25,24
19:09:00,28,28,20,18,27,14,5,24,20
19:10:00,24,31,23,19,25,19,19,24,23
19:11:00,11,31,32,18,24,13,8,23,20
19:12:00,25,27,24,24,17,14,16,23,21
19:13:00,26,24,23,17,24,7,10,23,19
19:14:00,16,21,27,21,17,15,11,20,18
19:15:00,33,15,25,29,30,15,11,26,23
19:16:00,29,27,23,24,18,17,9,24,21
19:17:00,23,26,21,12,16,13,15,20,18
19:18:00,23,27,22,29,14,11,13,23,20
19:19:00,28,25,24,10,29,17,16,23,21
19:20:00,15,20,22,11,16,16,4,17,15
19:21:00,23,26,26,23,13,20,14,22,21
19:22:00,15,16,22,25,17,12,7,19,16
19:23:00,25,31,30,16,24,15,15,25,22
19:24:00,21,23,30,22,15,10,10,22,19
19:25:00,21,20,19,19,22,9,8,20,17
19:26:00,25,23,20,24,18,13,15,22,20
19:27:00,18,14,14,16,13,14,20,15,16
19:28:00,17,15,25,16,24,15,12,19,18
19:29:00,11,14,16,19,19,10,5,16,13
19:30:00,15,23,20,18,18,16,13,19,18
19:31:00,12,15,15,17,21,13,14,16,15
19:32:00,14,20,13,22,18,17,19,17,18
19:33:00,19,11,16,19,13,18,15,16,16
19:34:00,26,23,18,18,23,18,17,22,20
19:35:00,15,10,16,27,17,16,16,17,17
19:36:00,17,15,29,17,12,10,9,18,16
19:37:00,14,20,17,19,13,13,8,17,15
19:38:00,18,19,21,22,19,15,15,20,18
19:39:00,15,15,18,21,12,19,11,16,16
19:40:00,25,16,16,22,14,5,16,19,16
19:41:00,17,11,20,12,15,11,14,15,14
19:42:00,13,22,20,20,19,11,12,19,17
19:43:00,15,13,9,12,15,11,11,13,12
19:44:00,12,16,22,15,10,13,9,15,14
19:45:00,12,19,14,13,15,15,13,15,14
19:46:00,7,21,27,19,14,14,16,18,17
19:47:00,16,15,10,20,20,19,8,16,15
19:48:00,13,12,27,23,13,14,13,18,16
19:49:00,7,24,24,15,17,9,9,17,15
19:50:00,18,16,12,21,10,19,16,15,16
19:51:00,12,23,19,20,14,13,14,18,16
19:52:00,14,14,20,17,24,10,6,18,15
19:53:00,13,17,9,12,17,11,6,14,12
19:54:00,17,9,21,24,13,7,11,17,15
19:55:00,10,21,16,16,14,17,13,15,15
19:56:00,13,17,22,19,18,13,7,18,16
19:57:00,17,16,13,24,18,10,13,18,16
19:58:00,13,16,21,17,19,8,12,17,15
19:59:00,15,22,11,18,11,12,15,15,15
20:00:00,17,18,20,25,12,7,7,18,15
20:01:00,20,23,16,24,13,7,8,19,16
20:02:00,25,18,10,26,12,9,10,18,16
20:03:00,21,21,17,22,19,13,7,20,17
20:04:00,16,15,18,20,21,10,6,18,15
20:05:00,21,16,21,17,13,12,10,18,16
20:06:00,20,15,26,26,22,14,11,22,19
20:07:00,12,23,13,20,13,4,9,16,13
20:08:00,22,26,20,22,12,13,11,20,18
20:09:00,24,24,15,18,20,9,11,20,17
20:10:00,13,21,14,29,18,12,8,19,16
20:11:00,19,18,17,14,21,16,13,18,17
20:12:00,20,25,18,25,21,11,12,22,19
20:13:00,21,17,15,17,16,8,15,17,16
20:14:00,11,26,21,22,21,8,6,20,16
20:15:00,11,19,18,15,19,7,11,16,14
20:16:00,12,18,18,24,16,12,14,18,16
20:17:00,12,13,16,12,11,15,9,13,13
20:18:00,20,8,9,22,17,6,11,15,13
20:19:00,8,19,27,19,18,7,9,18,15
20:20:00,9,6,15,16,21,12,12,13,13
20:21:00,15,15,18,9,9,12,12,13,13
20:22:00,7,6,14,13,8,14,7,10,10
20:23:00,16,11,11,10,11,7,5,12,10
20:24:00,9,14,12,13,12,11,12,12,12
20:25:00,10,16,18,12,9,9,10,13,12
20:26:00,9,15,16,22,9,14,10,14,14
20:27:00,16,10,8,16,10,12,9,12,12
20:28:00,13,7,16,13,8,17,6,11,11
20:29:00,5,10,16,14,13,11,12,12,12
20:30:00,16,10,11,10,11,12,7,12,11
20:31:00,7,8,6,14,12,5,8,9,9
20:32:00,13,12,12,11,15,4,7,13,11
20:33:00,6,11,8,16,9,12,6,10,10
20:34:00,8,15,15,18,13,16,7,14,13
20:35:00,7,11,10,10,10,9,11,10,10
20:36:00,8,12,10,11,10,10,6,10,10
20:37:00,9,5,17,18,9,14,4,12,11
20:38:00,6,12,10,16,10,9,6,11,10
20:39:00,13,6,10,9,9,18,4,9,10
20:40:00,9,9,13,8,8,18,7,9,10
20:41:00,8,6,9,18,11,8,6,10,9
20:42:00,13,13,8,8,19,11,12,12,12
20:43:00,8,22,14,11,17,12,7,14,13
20:44:00,16,17,11,10,7,15,9,12,12
20:45:00,7,5,13,11,8,13,7,9,9
20:46:00,7,13,16,20,13,7,10,14,12
20:47:00,10,15,10,11,9,9,8,11,10
20:48:00,7,10,3,10,10,11,6,8,8
20:49:00,9,7,14,6,14,9,6,10,9
20:50:00,11,11,11,17,10,9,8,12,11
20:51:00,13,15,9,13,6,4,7,11,10
20:52:00,13,12,7,12,8,15,6,10,10
20:53:00,9,11,14,13,9,7,3,11,9
20:54:00,13,12,12,8,4,10,3,10,9
20:55:00,13,11,6,14,5,8,12,10,10
20:56:00,11,13,10,10,10,11,5,11,10
20:57:00,8,9,10,6,12,13,8,9,9
20:58:00,6,10,11,7,11,9,6,9,9
20:59:00,9,7,8,10,9,11,3,9,8
21:00:00,7,12,7,12,11,4,3,10,8
21:01:00,7,14,9,8,6,13,8,9,9
21:02:00,7,9,9,18,9,12,8,10,10
21:03:00,10,14,14,15,10,10,4,13,11
21:04:00,9,14,13,16,13,7,8,13,11
21:05:00,5,12,6,12,6,12,0,8,8
21:06:00,7,8,7,6,10,13,6,8,8
21:07:00,10,9,13,11,7,10,4,10,9
21:08:00,14,11,8,12,8,12,6,11,10
21:09:00,12,9,5,8,10,8,5,9,8
21:10:00,8,16,14,15,5,17,6,12,12
21:11:00,13,12,5,8,6,11,7,9,9
21:12:00,8,13,17,16,6,10,10,12,11
21:13:00,7,10,14,15,10,8,8,11,10
21:14:00,8,16,5,9,6,8,9,9,9
21:15:00,11,10,11,8,5,7,13,9,9
21:16:00,16,8,9,8,13,9,5,11,10
21:17:00,7,13,11,11,8,12,10,10,10
21:18:00,6,14,4,13,12,9,5,10,9
21:19:00,4,5,11,8,7,14,5,7,8
21:20:00,5,12,7,7,10,9,2,8,7
21:21:00,11,11,11,9,3,13,7,9,9
21:22:00,10,8,8,6,6,8,8,8,8
21:23:00,7,10,9,5,14,7,2,9,8
21:24:00,9,6,5,7,6,4,5,7,6
21:25:00,7,9,5,9,7,14,8,7,8
21:26:00,5,9,8,14,6,9,11,8,9
21:27:00,8,13,8,8,7,7,5,9,8
21:28:00,8,16,8,10,9,13,9,10,10
21:29:00,6,9,7,8,6,5,4,7,6
21:30:00,8,4,6,7,6,10,6,6,7
21:31:00,4,4,8,11,8,9,8,7,7
21:32:00,6,6,4,7,7,5,8,6,6
21:33:00,8,11,14,7,10,7,4,10,9
21:34:00,10,9,9,6,8,5,4,8,7
21:35:00,9,10,3,6,10,9,8,8,8
21:36:00,9,9,10,10,7,16,4,9,9
21:37:00,9,10,9,15,9,7,2,10,9
21:38:00,5,12,8,6,11,12,5,8,8
21:39:00,10,3,10,9,3,10,1,7,7
21:40:00,10,10,11,6,1,10,9,8,8
21:41:00,7,7,8,6,13,9,6,8,8
21:42:00,3,9,10,3,13,7,6,8,7
21:43:00,8,6,8,11,7,9,1,8,7
21:44:00,6,7,9,14,8,6,6,9,8
21:45:00,4,6,5,5,5,11,1,5,5
21:46:00,0,11,7,6,5,9,5,6,6
21:47:00,8,9,7,10,13,10,10,9,10
21:48:00,6,7,4,9,12,9,2,8,7
21:49:00,3,6,8,9,5,11,4,6,7
21:50:00,11,5,15,7,7,6,3,9,8
21:51:00,5,7,8,7,7,10,4,7,7
21:52:00,12,9,8,7,8,12,7,9,9
21:53:00,12,6,12,5,7,12,9,8,9
21:54:00,6,5,8,5,8,7,7,6,7
21:55:00,10,3,5,10,3,15,7,6,8
21:56:00,5,6,6,4,9,11,8,6,7
21:57:00,9,7,8,4,13,11,3,8,8
21:58:00,6,7,7,8,8,10,5,7,7
21:59:00,4,7,3,8,7,8,3,6,6
22:00:00,4,8,8,4,9,5,2,7,6
22:01:00,6,4,6,6,13,7,2,7,6
22:02:00,9,12,6,6,5,10,4,8,7
22:03:00,10,7,8,10,8,6,2,9,7
22:04:00,7,11,11,7,9,8,5,9,8
22:05:00,9,5,12,5,8,15,7,8,9
22:06:00,6,7,5,14,7,7,2,8,7
22:07:00,9,10,9,15,6,14,4,10,10
22:08:00,8,5,12,5,9,7,7,8,8
22:09:00,7,9,12,8,11,5,5,9,8
22:10:00,5,8,8,7,13,5,3,8,7
22:11:00,9,4,4,9,6,5,6,6,6
22:12:00,8,8,9,4,4,4,4,7,6
22:13:00,4,6,14,10,4,8,4,8,7
22:14:00,5,12,10,14,11,4,2,10,8
22:15:00,6,11,8,6,7,9,10,8,8
22:16:00,9,5,13,7,12,13,7,9,9
22:17:00,8,11,7,1,5,9,5,6,7
22:18:00,6,4,7,13,14,6,5,9,8
22:19:00,6,7,5,10,9,9,0,7,7
22:20:00,9,9,5,7,3,7,8,7,7
22:21:00,4,2,9,5,5,5,6,5,5
22:22:00,6,6,6,2,4,5,4,5,5
22:23:00,3,6,6,5,5,7,2,5,5
22:24:00,5,6,5,6,8,6,4,6,6
22:25:00,4,3,4,8,2,7,4,4,5
22:26:00,4,6,8,5,9,5,6,6,6
22:27:00,8,5,7,10,6,7,2,7,6
22:28:00,9,2,7,6,5,8,5,6,6
22:29:00,4,5,4,1,5,6,2,4,4
22:30:00,7,2,2,4,5,9,3,4,5
22:31:00,3,4,9,3,7,8,1,5,5
22:32:00,2,1,4,7,4,6,6,4,4
22:33:00,8,3,5,2,2,4,2,4,4
22:34:00,5,5,11,3,6,7,4,6,6
22:35:00,3,8,6,3,9,8,7,6,6
22:36:00,2,5,2,11,5,4,6,5,5
22:37:00,3,4,5,6,5,6,2,5,4
22:38:00,3,10,2,4,8,3,3,5,5
22:39:00,6,8,4,5,4,7,1,5,5
22:40:00,3,3,2,5,9,8,2,4,5
22:41:00,5,3,8,4,9,12,2,6,6
22:42:00,3,6,6,5,6,7,4,5,5
22:43:00,6,6,5,7,2,2,4,5,5
22:44:00,3,3,6,6,6,8,5,5,5
22:45:00,2,6,3,2,9,7,1,4,4
22:46:00,2,7,8,6,5,9,4,6,6
22:47:00,7,5,8,6,3,9,1,6,6
22:48:00,4,3,3,2,9,8,1,4,4
22:49:00,5,4,3,0,10,3,2,4,4
22:50:00,6,2,3,5,8,8,3,5,5
22:51:00,5,5,6,6,3,2,3,5,4
22:52:00,1,3,4,2,8,9,2,4,4
22:53:00,2,2,1,3,4,5,2,2,3
22:54:00,3,1,3,5,9,5,0,4,4
22:55:00,5,4,6,1,1,5,0,3,3
22:56:00,4,3,5,1,8,9,1,4,4
22:57:00,1,3,0,2,5,8,2,2,3
22:58:00,0,2,4,1,2,5,1,2,2
22:59:00,1,4,4,1,6,7,2,3,4
23:00:00,3,6,2,0,4,7,6,3,4
23:01:00,3,5,3,1,3,8,3,3,4
23:02:00,2,2,2,1,7,7,2,3,3
23:03:00,1,6,6,5,5,2,4,5,4
23:04:00,6,3,0,3,3,9,4,3,4
23:05:00,1,2,2,2,5,6,3,2,3
23:06:00,2,3,3,7,5,4,1,4,4
23:07:00,4,1,3,4,0,5,0,2,2
23:08:00,1,5,5,1,3,7,2,3,3
23:09:00,3,7,7,1,6,6,1,5,4
23:10:00,1,0,3,1,5,5,3,2,3
23:11:00,5,0,3,3,2,5,3,3,3
23:12:00,1,2,1,2,9,5,2,3,3
23:13:00,3,4,6,5,4,4,1,4,4
23:14:00,3,2,2,7,4,8,2,4,4
23:15:00,0,3,3,2,6,10,2,3,4
23:16:00,1,4,2,5,8,3,2,4,4
23:17:00,2,3,1,5,7,4,1,4,3
23:18:00,1,0,0,1,5,1,1,1,1
23:19:00,4,2,2,6,3,6,1,3,3
23:20:00,1,2,5,3,8,3,3,4,4
23:21:00,1,1,2,6,4,4,2,3,3
23:22:00,1,1,1,3,1,6,1,1,2
23:23:00,4,2,2,2,2,6,5,2,3
23:24:00,2,2,2,1,3,6,3,2,3
23:25:00,2,2,2,2,3,4,5,2,3
23:26:00,3,4,4,4,2,6,0,3,3
23:27:00,3,6,3,6,4,6,1,4,4
23:28:00,3,3,2,3,8,10,1,4,4
23:29:00,2,0,2,2,7,2,1,3,2
23:30:00,0,2,1,1,4,3,5,2,2
23:31:00,1,2,4,3,2,5,2,2,3
23:32:00,1,1,4,1,4,5,2,2,3
23:33:00,0,1,3,2,4,1,0,2,2
23:34:00,1,5,1,0,7,6,1,3,3
23:35:00,2,2,1,1,3,6,3,2,3
23:36:00,5,1,1,1,2,8,0,2,3
23:37:00,0,2,4,2,3,2,1,2,2
23:38:00,1,2,4,0,5,4,1,2,2
23:39:00,2,1,3,1,1,7,0,2,2
23:40:00,2,0,0,0,1,4,1,1,1
23:41:00,3,1,1,2,3,4,8,2,3
23:42:00,1,2,1,1,4,7,1,2,2
23:43:00,1,1,0,2,2,6,1,1,2
23:44:00,1,4,1,2,4,6,1,2,3
23:45:00,1,2,3,1,5,2,0,2,2
23:46:00,1,1,2,0,2,4,1,1,2
23:47:00,1,2,0,0,1,5,1,1,1
23:48:00,1,3,0,1,1,1,2,1,1
23:49:00,1,1,1,2,1,6,1,1,2
23:50:00,0,0,5,3,5,11,3,3,4
23:51:00,2,1,2,3,4,4,1,2,2
23:52:00,3,1,3,1,1,4,1,2,2
23:53:00,2,1,1,0,4,5,3,2,2
23:54:00,0,1,1,1,4,3,0,1,1
23:55:00,1,1,3,3,6,2,1,3,2
23:56:00,2,1,1,0,1,2,3,1,1
23:57:00,1,1,1,0,2,5,0,1,1
23:58:00,0,0,0,2,4,3,2,1,2
23:59:00,3,3,1,2,1,5,0,2,2
,,,,,,,,,
Totals,,,,,,,,,
12H(7-19),17678,18113,17889,17818,17061,15070,12826,17712,16636
16H(6-22),20511,21348,21048,21031,19953,17433,14609,20778,19419
18H(6-24),20927,21806,21555,21497,20579,18151,14927,21273,19920
24H(0-24),21365,22217,21967,21946,20978,18556,15380,21695,20344
,,,,,,,,,
AM Peak,07:35:00,07:31:00,07:29:00,11:00:00,10:41:00,10:23:00,10:59:00,07:35:00,09:48:00
,1498,1575,1554,1526,1563,1577,1403,1522,1441
,,,,,,,,,
PM Peak,14:27:00,16:45:00,14:24:00,14:33:00,14:20:00,13:28:00,12:01:00,14:20:00,14:20:00
,1635,1639,1725,1626,1604,1564,1553,1624,1567
,,,,,,,,,
,,,,,,,,,
CA Traffic,,,,,,,,,VDA-net R2 15/11/2019
