Site Number,00008021,Unnamed: 2,Site Reference,00008021.1,Unnamed: 5,Unnamed: 6,Lat/Lng.,"52.05925,1.20006",Unnamed: 9
Radar 8021 Heath Road Ipswich,,,,,,,,,
Vehicle Count Report,,,,Week Begin: 14 October 2019,,,Channel:,Total Flow,
,,,,,,,,,
,,,,,,,,,
,2019-10-14 00:00:00,2019-10-15 00:00:00,2019-10-16 00:00:00,2019-10-17 00:00:00,2019-10-18 00:00:00,2019-10-19 00:00:00,2019-10-20 00:00:00,"5-Day
Ave.","7-Day
Ave."
00:00:00,3,0,0,0,1,7,5,1,2
00:01:00,0,1,2,2,0,1,5,1,2
00:02:00,2,3,2,5,0,2,3,2,2
00:03:00,1,2,3,1,1,5,1,2,2
00:04:00,1,2,1,1,3,1,1,2,1
00:05:00,1,2,4,2,3,3,4,2,3
00:06:00,0,0,1,1,1,1,4,1,1
00:07:00,2,1,0,1,1,8,6,1,3
00:08:00,0,3,2,3,2,3,6,2,3
00:09:00,1,3,1,0,2,4,0,1,2
00:10:00,3,0,0,0,2,5,2,1,2
00:11:00,2,1,0,0,3,0,5,1,2
00:12:00,0,0,2,1,4,3,2,1,2
00:13:00,1,3,3,3,0,6,4,2,3
00:14:00,4,1,1,2,2,3,2,2,2
00:15:00,2,2,2,1,2,5,4,2,3
00:16:00,3,3,1,1,2,1,3,2,2
00:17:00,1,3,0,2,2,2,2,2,2
00:18:00,2,4,0,2,2,4,1,2,2
00:19:00,0,0,2,0,1,0,4,1,1
00:20:00,0,1,2,2,0,3,1,1,1
00:21:00,0,2,2,0,1,1,3,1,1
00:22:00,4,2,1,1,1,2,2,2,2
00:23:00,1,0,1,2,2,2,3,1,2
00:24:00,0,1,0,0,1,1,2,0,1
00:25:00,3,1,0,1,1,3,5,1,2
00:26:00,2,0,1,2,0,0,3,1,1
00:27:00,2,2,2,1,2,3,6,2,3
00:28:00,1,1,5,0,2,2,5,2,2
00:29:00,0,1,0,1,1,5,7,1,2
00:30:00,1,0,0,1,0,2,3,0,1
00:31:00,1,2,1,0,0,2,3,1,1
00:32:00,0,3,0,1,0,0,8,1,2
00:33:00,0,1,2,1,2,0,5,1,2
00:34:00,3,3,1,1,0,0,0,2,1
00:35:00,1,1,1,1,0,3,2,1,1
00:36:00,1,0,2,2,0,2,1,1,1
00:37:00,3,0,2,1,4,0,8,2,3
00:38:00,1,0,1,2,0,3,4,1,2
00:39:00,0,0,1,1,0,4,1,0,1
00:40:00,1,2,0,1,1,2,3,1,1
00:41:00,3,2,3,0,1,2,5,2,2
00:42:00,2,0,2,0,1,2,1,1,1
00:43:00,3,0,2,0,0,1,3,1,1
00:44:00,1,0,3,0,2,2,5,1,2
00:45:00,1,0,2,0,2,3,2,1,1
00:46:00,0,0,1,0,1,2,0,0,1
00:47:00,0,1,0,0,1,2,1,0,1
00:48:00,4,1,1,0,1,3,2,1,2
00:49:00,0,1,3,0,0,1,1,1,1
00:50:00,2,2,1,4,2,2,3,2,2
00:51:00,1,0,1,2,2,2,2,1,1
00:52:00,0,0,1,1,0,3,4,0,1
00:53:00,0,1,2,0,0,2,2,1,1
00:54:00,1,0,2,1,1,4,0,1,1
00:55:00,1,1,2,2,0,3,1,1,1
00:56:00,1,1,2,1,0,2,3,1,1
00:57:00,1,0,0,2,0,1,2,1,1
00:58:00,0,0,0,1,3,2,3,1,1
00:59:00,0,1,1,0,0,0,3,0,1
01:00:00,1,0,0,1,0,0,1,0,0
01:01:00,1,0,3,0,0,4,1,1,1
01:02:00,1,0,1,1,2,2,0,1,1
01:03:00,1,1,2,1,0,2,2,1,1
01:04:00,1,0,2,0,0,4,2,1,1
01:05:00,0,1,2,0,1,3,0,1,1
01:06:00,0,0,1,5,0,4,2,1,2
01:07:00,1,1,1,1,0,2,0,1,1
01:08:00,1,0,0,1,0,0,2,0,1
01:09:00,3,0,0,1,2,1,2,1,1
01:10:00,0,1,1,1,0,1,0,1,1
01:11:00,0,0,0,1,0,2,3,0,1
01:12:00,0,0,0,3,1,0,5,1,1
01:13:00,0,1,0,1,0,2,0,0,1
01:14:00,0,0,1,0,0,1,1,0,0
01:15:00,0,2,0,2,1,1,3,1,1
01:16:00,0,0,1,1,0,1,2,0,1
01:17:00,1,0,1,1,2,0,0,1,1
01:18:00,2,0,1,0,1,1,0,1,1
01:19:00,1,2,0,1,0,0,1,1,1
01:20:00,3,0,0,1,0,2,0,1,1
01:21:00,0,0,0,0,0,3,0,0,0
01:22:00,0,0,0,1,1,3,1,0,1
01:23:00,1,0,1,2,1,0,2,1,1
01:24:00,3,0,1,1,1,0,1,1,1
01:25:00,0,1,0,1,3,1,1,1,1
01:26:00,3,0,2,0,0,0,1,1,1
01:27:00,0,2,1,1,0,2,1,1,1
01:28:00,0,2,1,1,0,2,2,1,1
01:29:00,0,0,0,0,1,0,4,0,1
01:30:00,0,0,1,1,1,0,2,1,1
01:31:00,0,0,0,1,0,0,2,0,0
01:32:00,0,0,0,2,0,0,2,0,1
01:33:00,0,0,1,0,0,2,4,0,1
01:34:00,0,2,0,0,0,0,1,0,0
01:35:00,0,0,2,1,2,1,1,1,1
01:36:00,1,0,0,0,0,0,2,0,0
01:37:00,0,0,0,1,2,4,1,1,1
01:38:00,0,1,0,0,0,2,0,0,0
01:39:00,1,0,0,0,2,1,2,1,1
01:40:00,1,0,2,1,0,1,0,1,1
01:41:00,0,2,0,0,0,3,0,0,1
01:42:00,2,0,1,1,0,1,1,1,1
01:43:00,1,0,1,0,0,1,0,0,0
01:44:00,1,1,1,0,0,0,1,1,1
01:45:00,0,1,0,0,0,1,1,0,0
01:46:00,0,0,0,0,0,2,1,0,0
01:47:00,0,0,0,0,2,0,5,0,1
01:48:00,0,1,1,0,1,2,1,1,1
01:49:00,0,1,0,0,0,2,0,0,0
01:50:00,1,1,0,1,1,1,1,1,1
01:51:00,0,0,2,0,1,2,1,1,1
01:52:00,0,1,1,0,1,1,3,1,1
01:53:00,1,1,0,1,1,2,3,1,1
01:54:00,0,0,1,0,0,2,2,0,1
01:55:00,0,0,2,0,0,1,1,0,1
01:56:00,1,0,0,0,2,1,1,1,1
01:57:00,0,0,0,0,2,0,2,0,1
01:58:00,1,0,1,0,0,0,0,0,0
01:59:00,0,1,0,0,1,2,2,0,1
02:00:00,1,0,0,1,0,0,1,0,0
02:01:00,0,0,0,0,1,0,1,0,0
02:02:00,0,1,2,1,0,1,1,1,1
02:03:00,0,0,0,4,0,2,2,1,1
02:04:00,0,1,0,1,2,1,0,1,1
02:05:00,1,1,0,0,0,1,0,0,0
02:06:00,1,0,0,2,1,1,1,1,1
02:07:00,0,0,1,2,0,0,3,1,1
02:08:00,2,0,0,0,1,1,2,1,1
02:09:00,0,0,0,1,0,0,0,0,0
02:10:00,2,2,0,3,0,0,1,1,1
02:11:00,2,0,0,1,2,0,0,1,1
02:12:00,2,0,1,2,1,1,1,1,1
02:13:00,1,0,1,2,1,0,0,1,1
02:14:00,2,0,0,0,0,2,0,0,1
02:15:00,0,1,2,0,0,0,0,1,0
02:16:00,1,1,2,1,1,0,1,1,1
02:17:00,1,0,0,1,1,1,0,1,1
02:18:00,0,0,0,1,1,0,0,0,0
02:19:00,2,1,0,0,0,3,0,1,1
02:20:00,0,0,0,0,0,1,1,0,0
02:21:00,0,2,0,0,0,0,0,0,0
02:22:00,1,0,0,2,2,0,2,1,1
02:23:00,0,0,1,0,1,1,2,0,1
02:24:00,0,1,2,1,0,1,0,1,1
02:25:00,0,0,1,1,1,2,0,1,1
02:26:00,0,1,0,1,0,1,3,0,1
02:27:00,0,0,1,1,1,0,1,1,1
02:28:00,1,0,2,1,0,2,0,1,1
02:29:00,1,1,4,0,0,0,0,1,1
02:30:00,0,1,0,1,0,0,1,0,0
02:31:00,0,2,0,1,3,0,0,1,1
02:32:00,0,0,0,0,0,3,0,0,0
02:33:00,0,0,1,0,0,1,1,0,0
02:34:00,0,1,0,0,0,0,0,0,0
02:35:00,0,1,0,0,0,1,1,0,0
02:36:00,0,1,2,0,1,0,1,1,1
02:37:00,0,0,0,2,0,0,1,0,0
02:38:00,0,1,1,0,0,1,0,0,0
02:39:00,0,2,2,1,0,1,1,1,1
02:40:00,0,0,1,1,0,1,0,0,0
02:41:00,1,1,0,0,0,2,0,0,1
02:42:00,1,0,0,2,0,1,0,1,1
02:43:00,0,0,4,0,0,0,2,1,1
02:44:00,0,1,0,0,0,0,2,0,0
02:45:00,0,3,2,2,2,1,0,2,1
02:46:00,0,1,0,1,0,1,1,0,1
02:47:00,0,0,0,0,1,2,0,0,0
02:48:00,1,0,0,0,1,0,0,0,0
02:49:00,0,0,2,1,0,1,2,1,1
02:50:00,1,0,1,0,0,1,0,0,0
02:51:00,1,0,1,1,1,1,1,1,1
02:52:00,0,0,1,0,1,2,0,0,1
02:53:00,2,1,1,1,2,0,0,1,1
02:54:00,0,0,0,1,0,0,0,0,0
02:55:00,0,1,0,1,1,1,1,1,1
02:56:00,1,0,0,0,0,0,0,0,0
02:57:00,1,2,2,0,1,1,2,1,1
02:58:00,0,3,1,0,0,0,0,1,1
02:59:00,0,1,0,0,0,0,1,0,0
03:00:00,3,0,0,0,0,0,2,1,1
03:01:00,0,0,1,1,0,1,0,0,0
03:02:00,3,2,0,0,0,0,0,1,1
03:03:00,0,0,0,2,0,0,0,0,0
03:04:00,1,0,2,1,0,0,0,1,1
03:05:00,1,1,2,0,0,1,1,1,1
03:06:00,1,0,1,0,0,0,0,0,0
03:07:00,0,0,0,0,2,1,1,0,1
03:08:00,0,1,0,0,2,1,0,1,1
03:09:00,0,2,3,0,0,1,0,1,1
03:10:00,0,0,2,0,1,4,0,1,1
03:11:00,0,0,0,1,0,3,0,0,1
03:12:00,1,1,0,2,0,0,0,1,1
03:13:00,0,1,0,0,0,1,0,0,0
03:14:00,1,2,0,0,0,0,0,1,0
03:15:00,0,1,0,0,0,0,1,0,0
03:16:00,0,0,0,1,0,0,1,0,0
03:17:00,1,0,0,1,1,1,1,1,1
03:18:00,1,1,2,0,0,0,0,1,1
03:19:00,0,0,1,2,1,1,0,1,1
03:20:00,2,0,0,0,1,1,0,1,1
03:21:00,0,1,0,2,0,0,1,1,1
03:22:00,1,2,1,0,0,2,1,1,1
03:23:00,0,1,0,0,1,0,1,0,0
03:24:00,2,1,0,0,0,2,1,1,1
03:25:00,2,0,0,1,1,0,1,1,1
03:26:00,0,1,0,0,0,0,2,0,0
03:27:00,1,2,1,0,0,1,1,1,1
03:28:00,1,1,0,2,1,0,1,1,1
03:29:00,0,1,1,1,0,1,0,1,1
03:30:00,0,0,0,1,1,0,0,0,0
03:31:00,0,2,1,1,1,0,0,1,1
03:32:00,0,0,0,1,0,2,0,0,0
03:33:00,2,1,0,1,0,0,4,1,1
03:34:00,1,0,0,1,1,0,1,1,1
03:35:00,0,0,0,0,0,1,1,0,0
03:36:00,0,1,1,1,0,0,1,1,1
03:37:00,1,0,0,1,1,1,1,1,1
03:38:00,1,1,0,0,0,1,1,0,1
03:39:00,0,1,0,1,2,0,2,1,1
03:40:00,0,0,1,0,0,0,1,0,0
03:41:00,0,2,1,1,0,1,1,1,1
03:42:00,0,1,1,0,0,0,0,0,0
03:43:00,1,3,0,1,0,1,0,1,1
03:44:00,0,1,1,2,0,2,1,1,1
03:45:00,0,0,3,1,0,1,1,1,1
03:46:00,0,1,0,0,2,1,1,1,1
03:47:00,0,1,0,0,1,2,0,0,1
03:48:00,0,0,1,1,2,0,0,1,1
03:49:00,1,2,0,0,2,1,1,1,1
03:50:00,0,0,1,0,0,1,0,0,0
03:51:00,1,2,0,0,0,2,0,1,1
03:52:00,1,0,1,2,2,2,0,1,1
03:53:00,0,0,0,1,2,2,0,1,1
03:54:00,1,1,0,0,0,0,1,0,0
03:55:00,2,1,2,0,0,0,0,1,1
03:56:00,3,1,0,1,4,0,3,2,2
03:57:00,1,0,1,1,1,0,0,1,1
03:58:00,0,0,1,0,1,1,0,0,0
03:59:00,1,1,1,1,0,0,0,1,1
04:00:00,0,0,1,0,1,0,2,0,1
04:01:00,2,0,0,0,0,0,1,0,0
04:02:00,2,1,1,3,3,0,1,2,2
04:03:00,0,1,0,1,2,2,0,1,1
04:04:00,0,0,0,0,0,1,2,0,0
04:05:00,2,0,0,1,0,1,1,1,1
04:06:00,3,1,0,1,1,0,2,1,1
04:07:00,0,2,2,4,1,1,0,2,1
04:08:00,0,1,1,0,0,0,0,0,0
04:09:00,1,0,1,1,2,1,2,1,1
04:10:00,1,0,0,1,0,0,0,0,0
04:11:00,1,0,0,1,3,2,0,1,1
04:12:00,0,1,0,1,0,0,1,0,0
04:13:00,0,1,3,0,0,1,0,1,1
04:14:00,2,0,2,2,0,1,0,1,1
04:15:00,1,1,1,0,1,0,1,1,1
04:16:00,1,1,0,0,3,1,0,1,1
04:17:00,0,0,0,0,1,0,3,0,1
04:18:00,0,0,0,2,0,3,2,0,1
04:19:00,0,0,0,0,1,0,1,0,0
04:20:00,1,1,0,1,0,0,0,1,0
04:21:00,0,2,0,1,0,0,0,1,0
04:22:00,0,2,0,2,1,2,1,1,1
04:23:00,0,0,0,0,0,0,0,0,0
04:24:00,0,0,0,0,0,1,0,0,0
04:25:00,1,0,1,0,1,0,0,1,0
04:26:00,2,1,1,0,1,3,1,1,1
04:27:00,1,0,1,1,0,0,1,1,1
04:28:00,3,2,1,0,1,2,0,1,1
04:29:00,2,2,1,2,0,2,1,1,1
04:30:00,4,1,2,0,0,0,0,1,1
04:31:00,1,0,1,0,1,0,1,1,1
04:32:00,2,1,1,1,0,0,0,1,1
04:33:00,3,1,1,2,0,2,1,1,1
04:34:00,0,1,0,1,1,0,0,1,0
04:35:00,1,1,1,0,2,0,0,1,1
04:36:00,0,0,2,0,0,1,0,0,0
04:37:00,3,3,2,0,1,1,1,2,2
04:38:00,1,0,0,0,2,0,0,1,0
04:39:00,2,0,0,3,2,2,1,1,1
04:40:00,0,4,2,1,0,1,2,1,1
04:41:00,1,2,2,1,2,0,0,2,1
04:42:00,2,0,0,1,0,1,1,1,1
04:43:00,0,3,1,2,1,0,0,1,1
04:44:00,1,0,1,0,2,0,4,1,1
04:45:00,4,3,0,2,1,0,2,2,2
04:46:00,0,1,2,0,2,1,0,1,1
04:47:00,1,1,2,1,1,1,2,1,1
04:48:00,0,0,2,0,1,3,2,1,1
04:49:00,0,1,3,1,3,0,2,2,1
04:50:00,1,1,2,2,1,3,0,1,1
04:51:00,0,2,1,0,1,0,0,1,1
04:52:00,2,2,0,2,2,0,0,2,1
04:53:00,2,0,1,0,0,4,1,1,1
04:54:00,2,1,1,2,0,2,1,1,1
04:55:00,0,2,4,0,2,1,0,2,1
04:56:00,0,0,1,1,2,1,3,1,1
04:57:00,1,1,0,0,1,1,0,1,1
04:58:00,0,4,1,0,0,0,0,1,1
04:59:00,0,1,0,0,0,0,0,0,0
05:00:00,1,2,0,0,0,0,2,1,1
05:01:00,1,1,0,0,1,0,1,1,1
05:02:00,1,0,3,3,0,0,1,1,1
05:03:00,0,1,0,1,0,0,0,0,0
05:04:00,1,2,2,2,1,1,1,2,1
05:05:00,1,1,2,1,2,0,1,1,1
05:06:00,0,1,0,2,1,2,1,1,1
05:07:00,4,0,1,1,0,2,0,1,1
05:08:00,1,2,1,0,1,2,1,1,1
05:09:00,2,2,5,1,1,1,0,2,2
05:10:00,3,1,2,3,1,2,0,2,2
05:11:00,1,0,0,1,0,1,1,0,1
05:12:00,1,5,2,1,0,2,0,2,2
05:13:00,1,1,1,5,3,3,1,2,2
05:14:00,0,2,4,0,2,0,0,2,1
05:15:00,4,4,1,3,0,2,0,2,2
05:16:00,2,2,4,0,1,2,3,2,2
05:17:00,5,1,1,1,5,2,1,3,2
05:18:00,2,2,3,4,4,2,1,3,3
05:19:00,1,2,2,2,1,0,2,2,1
05:20:00,1,2,1,4,2,3,2,2,2
05:21:00,1,2,2,0,2,2,1,1,1
05:22:00,5,1,1,3,1,0,0,2,2
05:23:00,2,3,6,3,4,2,0,4,3
05:24:00,2,2,3,3,1,2,1,2,2
05:25:00,3,2,3,3,0,0,1,2,2
05:26:00,1,4,2,1,0,1,1,2,1
05:27:00,4,1,1,0,1,1,0,1,1
05:28:00,1,4,3,1,3,2,1,2,2
05:29:00,3,4,1,3,2,1,3,3,2
05:30:00,0,2,1,4,0,3,3,1,2
05:31:00,5,3,1,2,3,0,2,3,2
05:32:00,2,2,4,1,5,1,1,3,2
05:33:00,2,1,2,1,0,1,2,1,1
05:34:00,0,2,2,3,1,3,3,2,2
05:35:00,8,3,1,4,3,2,0,4,3
05:36:00,2,2,4,2,1,3,2,2,2
05:37:00,4,2,6,1,6,2,0,4,3
05:38:00,2,2,1,1,3,7,1,2,2
05:39:00,8,4,1,6,2,0,0,4,3
05:40:00,6,4,6,7,3,2,0,5,4
05:41:00,4,4,3,4,1,1,0,3,2
05:42:00,8,3,6,5,2,1,1,5,4
05:43:00,4,6,4,8,2,1,1,5,4
05:44:00,4,3,3,2,1,0,1,3,2
05:45:00,1,5,9,6,1,3,1,4,4
05:46:00,2,3,7,4,1,2,1,3,3
05:47:00,6,14,7,5,2,0,2,7,5
05:48:00,6,4,3,5,3,3,1,4,4
05:49:00,6,6,5,4,2,4,1,5,4
05:50:00,7,4,5,3,3,4,2,4,4
05:51:00,5,7,4,4,3,4,0,5,4
05:52:00,5,1,9,3,2,1,1,4,3
05:53:00,4,5,8,4,5,3,1,5,4
05:54:00,3,3,4,3,3,3,0,3,3
05:55:00,6,4,8,5,6,1,2,6,5
05:56:00,5,11,4,2,6,5,2,6,5
05:57:00,3,4,3,7,3,2,2,4,3
05:58:00,2,2,5,2,4,3,2,3,3
05:59:00,1,2,8,1,4,1,2,3,3
06:00:00,2,4,2,4,5,2,0,3,3
06:01:00,1,1,2,6,1,3,1,2,2
06:02:00,2,6,5,3,2,1,4,4,3
06:03:00,6,4,5,4,4,4,1,5,4
06:04:00,9,3,4,7,4,1,2,5,4
06:05:00,2,4,2,4,3,3,2,3,3
06:06:00,2,2,8,2,5,4,2,4,4
06:07:00,3,10,2,4,4,4,5,5,5
06:08:00,3,8,7,7,5,2,3,6,5
06:09:00,4,2,4,4,1,2,3,3,3
06:10:00,2,4,6,6,2,4,4,4,4
06:11:00,8,3,8,6,2,2,1,5,4
06:12:00,0,3,3,6,4,3,2,3,3
06:13:00,2,6,6,6,4,2,0,5,4
06:14:00,6,8,3,4,1,1,5,4,4
06:15:00,4,5,4,4,6,3,3,5,4
06:16:00,9,3,6,2,3,2,2,5,4
06:17:00,9,12,9,5,3,3,3,8,6
06:18:00,9,4,2,10,7,2,2,6,5
06:19:00,7,6,5,6,6,4,2,6,5
06:20:00,5,7,5,4,6,5,0,5,5
06:21:00,6,4,4,11,5,2,3,6,5
06:22:00,6,8,16,8,6,5,3,9,7
06:23:00,8,5,6,7,5,4,4,6,6
06:24:00,4,9,7,8,5,3,2,7,5
06:25:00,4,5,8,10,6,5,2,7,6
06:26:00,8,6,7,9,4,5,1,7,6
06:27:00,9,8,8,8,8,1,2,8,6
06:28:00,5,8,8,11,7,2,5,8,7
06:29:00,5,8,4,7,10,6,4,7,6
06:30:00,8,8,5,6,5,3,4,6,6
06:31:00,9,6,8,6,5,1,1,7,5
06:32:00,3,9,11,8,5,7,2,7,6
06:33:00,11,8,9,13,6,5,7,9,8
06:34:00,7,7,4,3,7,4,6,6,5
06:35:00,8,9,13,8,9,6,10,9,9
06:36:00,10,17,11,9,7,5,2,11,9
06:37:00,3,8,6,13,9,4,5,8,7
06:38:00,11,13,11,15,5,3,3,11,9
06:39:00,8,14,19,10,8,1,4,12,9
06:40:00,9,9,12,10,9,4,5,10,8
06:41:00,10,9,8,6,8,3,11,8,8
06:42:00,13,7,9,14,12,7,4,11,9
06:43:00,8,5,8,12,7,9,4,8,8
06:44:00,8,11,7,10,8,9,5,9,8
06:45:00,13,17,15,11,11,6,4,13,11
06:46:00,8,16,13,7,7,5,1,10,8
06:47:00,13,8,7,12,7,6,11,9,9
06:48:00,13,16,16,12,7,7,5,13,11
06:49:00,10,11,12,15,11,5,2,12,9
06:50:00,9,13,17,15,12,8,10,13,12
06:51:00,15,16,15,8,13,6,3,13,11
06:52:00,11,8,10,14,10,8,5,11,9
06:53:00,7,11,12,11,15,9,6,11,10
06:54:00,20,15,14,19,9,4,12,15,13
06:55:00,8,15,14,8,8,5,5,11,9
06:56:00,9,14,9,16,6,10,4,11,10
06:57:00,8,4,9,11,11,7,4,9,8
06:58:00,14,14,14,9,13,7,4,13,11
06:59:00,7,14,13,11,8,8,6,11,10
07:00:00,3,8,4,8,9,4,4,6,6
07:01:00,7,13,10,14,6,5,7,10,9
07:02:00,14,14,14,12,10,2,3,13,10
07:03:00,11,16,6,10,9,4,3,10,8
07:04:00,9,12,15,14,13,3,5,13,10
07:05:00,24,13,14,15,16,6,5,16,13
07:06:00,15,14,11,12,9,4,3,12,10
07:07:00,16,15,15,13,11,8,4,14,12
07:08:00,18,9,13,15,10,10,3,13,11
07:09:00,22,22,18,18,9,4,5,18,14
07:10:00,22,13,18,14,13,6,3,16,13
07:11:00,8,20,14,15,14,3,4,14,11
07:12:00,14,21,17,17,12,8,4,16,13
07:13:00,17,12,29,20,15,8,9,19,16
07:14:00,17,14,17,16,19,11,8,17,15
07:15:00,13,27,25,20,15,4,9,20,16
07:16:00,17,20,22,15,25,5,10,20,16
07:17:00,18,23,27,22,20,10,4,22,18
07:18:00,21,16,19,12,13,8,17,16,15
07:19:00,17,24,19,18,15,7,11,19,16
07:20:00,17,18,16,21,11,6,3,17,13
07:21:00,15,21,23,13,20,4,3,18,14
07:22:00,20,12,23,30,12,11,5,19,16
07:23:00,17,16,12,26,13,9,7,17,14
07:24:00,19,23,21,15,23,11,4,20,17
07:25:00,21,20,15,16,12,11,3,17,14
07:26:00,23,23,13,21,15,9,8,19,16
07:27:00,19,21,20,26,26,11,2,22,18
07:28:00,23,28,24,19,13,9,4,21,17
07:29:00,17,26,25,30,18,8,2,23,18
07:30:00,34,22,25,16,20,10,5,23,19
07:31:00,16,16,21,22,15,2,5,18,14
07:32:00,14,14,24,17,17,10,2,17,14
07:33:00,24,25,20,21,9,6,3,20,15
07:34:00,22,16,21,25,28,4,4,22,17
07:35:00,20,25,21,24,13,9,7,21,17
07:36:00,26,22,25,25,15,8,7,23,18
07:37:00,14,22,28,21,26,5,8,22,18
07:38:00,17,27,28,29,16,15,5,23,20
07:39:00,26,23,15,27,22,10,8,23,19
07:40:00,22,22,20,23,24,10,2,22,18
07:41:00,13,22,17,30,22,8,6,21,17
07:42:00,23,30,21,19,22,11,5,23,19
07:43:00,15,13,22,29,15,8,5,19,15
07:44:00,26,23,25,26,28,5,2,26,19
07:45:00,18,26,24,20,14,11,7,20,17
07:46:00,25,27,20,25,26,17,7,25,21
07:47:00,16,17,19,24,24,6,4,20,16
07:48:00,19,22,18,26,30,9,5,23,18
07:49:00,19,17,21,15,18,7,10,18,15
07:50:00,25,20,20,18,19,13,4,20,17
07:51:00,27,30,24,23,17,7,11,24,20
07:52:00,17,11,16,27,19,14,5,18,16
07:53:00,27,17,24,20,24,9,9,22,19
07:54:00,22,13,15,18,19,7,4,17,14
07:55:00,19,25,27,26,21,16,3,24,20
07:56:00,16,22,30,29,15,16,6,22,19
07:57:00,21,37,29,26,18,12,10,26,22
07:58:00,26,23,17,22,26,16,3,23,19
07:59:00,21,20,18,18,21,10,7,20,16
08:00:00,23,22,29,23,15,7,6,22,18
08:01:00,27,20,29,17,24,18,2,23,20
08:02:00,23,24,27,28,25,9,6,25,20
08:03:00,22,23,25,28,20,11,8,24,20
08:04:00,22,23,15,28,19,10,9,21,18
08:05:00,24,19,25,21,19,12,3,22,18
08:06:00,23,25,22,21,7,13,5,20,17
08:07:00,18,23,20,26,14,15,4,20,17
08:08:00,25,21,17,17,21,10,3,20,16
08:09:00,19,18,23,23,19,9,9,20,17
08:10:00,17,22,28,25,22,10,5,23,18
08:11:00,19,29,21,20,24,14,9,23,19
08:12:00,12,18,21,22,19,13,6,18,16
08:13:00,11,24,21,28,23,11,3,21,17
08:14:00,23,24,22,21,18,10,4,22,17
08:15:00,16,19,19,20,20,10,5,19,16
08:16:00,25,24,22,24,18,10,5,23,18
08:17:00,18,29,19,20,13,10,4,20,16
08:18:00,15,15,23,27,24,13,4,21,17
08:19:00,17,20,27,24,15,12,5,21,17
08:20:00,16,24,23,19,31,11,3,23,18
08:21:00,18,15,21,22,19,15,4,19,16
08:22:00,19,25,15,28,16,10,6,21,17
08:23:00,8,20,31,25,18,13,4,20,17
08:24:00,19,23,20,15,17,11,1,19,15
08:25:00,17,28,31,29,27,15,4,26,22
08:26:00,17,29,19,20,28,8,7,23,18
08:27:00,32,19,28,23,24,15,8,25,21
08:28:00,18,28,16,32,24,11,7,24,19
08:29:00,18,23,23,23,24,12,5,22,18
08:30:00,26,25,21,15,22,9,3,22,17
08:31:00,19,19,16,19,21,16,7,19,17
08:32:00,17,21,22,24,23,12,8,21,18
08:33:00,21,32,27,28,29,12,9,27,23
08:34:00,19,16,24,19,21,5,6,20,16
08:35:00,15,15,17,20,23,4,5,18,14
08:36:00,23,36,23,22,24,17,9,26,22
08:37:00,23,18,22,19,24,13,7,21,18
08:38:00,22,15,23,30,19,12,6,22,18
08:39:00,18,24,17,26,23,15,5,22,18
08:40:00,22,18,23,29,22,12,3,23,18
08:41:00,20,24,22,23,18,10,7,21,18
08:42:00,18,21,11,33,16,8,9,20,17
08:43:00,14,23,35,22,20,20,7,23,20
08:44:00,17,17,18,22,27,17,10,20,18
08:45:00,21,28,20,20,25,15,6,23,19
08:46:00,15,15,20,22,26,17,4,20,17
08:47:00,20,22,24,18,21,18,9,21,19
08:48:00,20,23,22,19,16,12,6,20,17
08:49:00,8,24,19,24,24,22,14,20,19
08:50:00,20,25,18,18,16,15,5,19,17
08:51:00,24,18,33,30,20,11,13,25,21
08:52:00,27,28,26,31,21,19,8,27,23
08:53:00,19,21,20,24,21,18,9,21,19
08:54:00,24,33,25,29,26,18,11,27,24
08:55:00,21,25,24,28,26,7,11,25,20
08:56:00,16,24,27,27,18,19,10,22,20
08:57:00,22,29,21,24,18,12,6,23,19
08:58:00,20,26,36,25,22,8,9,26,21
08:59:00,27,19,20,27,22,18,7,23,20
09:00:00,26,29,31,28,24,13,7,28,23
09:01:00,28,29,25,20,18,10,7,24,20
09:02:00,20,29,21,25,32,7,11,25,21
09:03:00,27,29,21,25,18,14,12,24,21
09:04:00,12,28,21,20,25,13,14,21,19
09:05:00,20,17,19,21,28,12,10,21,18
09:06:00,24,20,18,21,17,9,10,20,17
09:07:00,22,25,28,24,27,16,6,25,21
09:08:00,19,19,27,20,25,19,7,22,19
09:09:00,26,19,23,22,18,14,8,22,19
09:10:00,21,17,24,16,11,15,5,18,16
09:11:00,26,24,28,20,27,10,10,25,21
09:12:00,22,32,31,25,25,18,3,27,22
09:13:00,20,27,32,32,20,19,13,26,23
09:14:00,18,21,27,14,12,13,9,18,16
09:15:00,23,23,16,25,25,10,7,22,18
09:16:00,22,27,37,25,21,13,11,26,22
09:17:00,11,25,22,37,23,14,11,24,20
09:18:00,16,26,20,27,12,10,5,20,17
09:19:00,22,29,22,18,26,19,8,23,21
09:20:00,26,26,23,22,20,16,9,23,20
09:21:00,24,25,24,18,24,9,15,23,20
09:22:00,23,18,32,25,19,14,14,23,21
09:23:00,12,21,25,33,17,11,11,22,19
09:24:00,15,28,25,32,14,16,11,23,20
09:25:00,23,19,26,14,26,20,13,22,20
09:26:00,14,21,22,26,21,15,17,21,19
09:27:00,17,21,24,22,20,10,7,21,17
09:28:00,19,20,32,28,23,9,14,24,21
09:29:00,18,18,23,23,15,16,18,19,19
09:30:00,16,23,21,17,27,8,12,21,18
09:31:00,19,29,22,17,13,19,12,20,19
09:32:00,21,28,25,23,18,16,7,23,20
09:33:00,17,22,25,17,20,14,9,20,18
09:34:00,30,15,24,14,32,22,10,23,21
09:35:00,16,23,25,24,25,11,7,23,19
09:36:00,18,20,21,24,25,19,13,22,20
09:37:00,26,28,25,22,20,19,11,24,22
09:38:00,20,22,22,22,14,37,13,20,21
09:39:00,23,24,23,24,20,24,17,23,22
09:40:00,17,20,28,30,12,16,12,21,19
09:41:00,17,26,24,28,20,24,11,23,21
09:42:00,24,14,30,30,17,22,16,23,22
09:43:00,18,19,19,25,27,16,16,22,20
09:44:00,19,19,19,23,25,27,3,21,19
09:45:00,15,26,16,26,25,22,9,22,20
09:46:00,17,17,11,26,31,20,14,20,19
09:47:00,18,12,21,23,25,19,9,20,18
09:48:00,20,18,26,21,27,24,18,22,22
09:49:00,22,19,20,21,21,23,12,21,20
09:50:00,18,24,22,15,24,16,11,21,19
09:51:00,19,19,23,27,28,23,17,23,22
09:52:00,29,21,32,24,19,20,19,25,23
09:53:00,20,18,28,20,20,12,21,21,20
09:54:00,19,23,30,27,21,19,12,24,22
09:55:00,12,19,17,25,21,18,14,19,18
09:56:00,23,24,27,24,18,14,16,23,21
09:57:00,12,22,20,29,20,16,19,21,20
09:58:00,22,17,21,16,21,14,10,19,17
09:59:00,21,28,20,25,27,16,8,24,21
10:00:00,18,21,12,31,17,15,15,20,18
10:01:00,20,19,25,23,21,21,15,22,21
10:02:00,18,13,20,20,20,15,11,18,17
10:03:00,21,21,21,12,15,19,12,18,17
10:04:00,17,24,21,25,23,15,21,22,21
10:05:00,19,16,17,18,13,18,14,17,16
10:06:00,21,13,30,29,22,9,13,23,20
10:07:00,19,20,23,19,26,17,13,21,20
10:08:00,16,20,16,24,17,22,16,19,19
10:09:00,16,22,28,22,15,21,17,21,20
10:10:00,14,21,25,17,18,12,16,19,18
10:11:00,20,25,21,31,17,21,16,23,22
10:12:00,17,21,21,23,21,23,14,21,20
10:13:00,18,22,25,21,19,19,9,21,19
10:14:00,16,26,19,19,19,21,13,20,19
10:15:00,19,26,26,18,11,28,16,20,21
10:16:00,23,30,23,21,24,18,22,24,23
10:17:00,17,24,19,16,19,23,20,19,20
10:18:00,21,23,23,27,25,29,19,24,24
10:19:00,23,24,24,15,20,25,25,21,22
10:20:00,14,23,15,20,22,17,8,19,17
10:21:00,20,18,20,25,33,23,17,23,22
10:22:00,22,20,14,22,17,13,10,19,17
10:23:00,15,27,21,23,23,17,29,22,22
10:24:00,29,19,26,19,25,16,17,24,22
10:25:00,19,32,23,24,23,15,15,24,22
10:26:00,14,27,26,23,16,21,8,21,19
10:27:00,21,22,23,23,19,10,15,22,19
10:28:00,16,22,21,25,25,28,20,22,22
10:29:00,17,20,16,17,25,21,19,19,19
10:30:00,22,27,20,20,19,26,15,22,21
10:31:00,21,19,23,25,25,19,14,23,21
10:32:00,22,28,17,19,27,16,10,23,20
10:33:00,20,25,15,21,33,17,16,23,21
10:34:00,17,31,22,27,26,18,20,25,23
10:35:00,18,20,27,29,14,18,9,22,19
10:36:00,24,30,22,31,15,19,18,24,23
10:37:00,19,17,16,24,20,18,28,19,20
10:38:00,25,25,19,25,23,17,22,23,22
10:39:00,17,20,25,18,20,20,12,20,19
10:40:00,25,18,32,22,22,22,12,24,22
10:41:00,19,14,20,19,17,17,19,18,18
10:42:00,21,26,29,28,22,29,20,25,25
10:43:00,18,21,21,25,28,18,19,23,21
10:44:00,18,20,20,27,21,16,16,21,20
10:45:00,21,27,15,17,25,17,19,21,20
10:46:00,14,27,19,23,20,20,22,21,21
10:47:00,22,17,25,27,21,12,14,22,20
10:48:00,21,22,20,25,30,23,26,24,24
10:49:00,26,14,18,24,25,15,16,21,20
10:50:00,21,27,27,27,31,17,26,27,25
10:51:00,24,22,24,24,22,19,24,23,23
10:52:00,23,20,25,15,22,21,28,21,22
10:53:00,29,21,18,28,24,21,17,24,23
10:54:00,23,23,33,33,21,11,11,27,22
10:55:00,21,25,15,25,24,18,22,22,21
10:56:00,25,21,23,20,19,20,17,22,21
10:57:00,13,35,23,23,32,20,27,25,25
10:58:00,17,20,29,15,23,21,13,21,20
10:59:00,27,17,28,25,31,21,22,26,24
11:00:00,13,16,23,19,20,23,16,18,19
11:01:00,21,32,24,22,21,23,25,24,24
11:02:00,16,21,21,20,20,17,14,20,18
11:03:00,23,30,22,32,21,13,14,26,22
11:04:00,20,26,21,22,26,16,21,23,22
11:05:00,14,18,26,23,27,19,13,22,20
11:06:00,20,23,16,22,21,15,20,20,20
11:07:00,15,18,30,23,32,22,29,24,24
11:08:00,14,21,15,18,19,22,21,17,19
11:09:00,20,23,14,16,17,22,22,18,19
11:10:00,16,15,29,19,25,17,21,21,20
11:11:00,21,21,9,26,22,17,15,20,19
11:12:00,20,22,25,17,19,20,25,21,21
11:13:00,21,32,25,29,27,16,24,27,25
11:14:00,30,26,21,23,22,19,23,24,23
11:15:00,16,26,26,23,28,22,17,24,23
11:16:00,15,11,21,28,21,24,22,19,20
11:17:00,18,23,20,25,20,22,14,21,20
11:18:00,18,18,22,18,26,18,21,20,20
11:19:00,26,22,20,8,23,16,18,20,19
11:20:00,20,23,17,23,29,18,9,22,20
11:21:00,18,25,23,26,28,24,33,24,25
11:22:00,22,25,18,17,22,22,13,21,20
11:23:00,22,19,22,26,16,22,21,21,21
11:24:00,17,26,27,16,27,23,18,23,22
11:25:00,20,24,19,16,18,16,21,19,19
11:26:00,19,26,30,19,26,23,9,24,22
11:27:00,16,20,26,24,22,27,20,22,22
11:28:00,24,32,22,18,17,15,13,23,20
11:29:00,11,18,24,21,17,26,18,18,19
11:30:00,16,13,17,22,20,18,20,18,18
11:31:00,22,30,25,18,30,18,19,25,23
11:32:00,25,25,19,27,21,25,19,23,23
11:33:00,18,21,11,15,24,23,15,18,18
11:34:00,20,29,21,24,26,21,14,24,22
11:35:00,22,23,30,26,18,18,21,24,23
11:36:00,16,16,24,21,18,24,18,19,20
11:37:00,20,24,24,28,20,16,21,23,22
11:38:00,13,16,27,22,23,19,16,20,19
11:39:00,25,28,25,26,26,25,12,26,24
11:40:00,21,30,23,26,31,25,15,26,24
11:41:00,21,20,15,18,21,19,21,19,19
11:42:00,21,17,23,18,20,18,20,20,20
11:43:00,26,22,12,21,18,19,9,20,18
11:44:00,16,17,22,25,22,24,24,20,21
11:45:00,14,18,26,26,24,18,18,22,21
11:46:00,24,22,12,20,30,16,23,22,21
11:47:00,22,17,30,25,21,27,16,23,23
11:48:00,27,20,18,21,22,10,24,22,20
11:49:00,28,23,12,19,19,20,21,20,20
11:50:00,23,23,21,19,22,23,21,22,22
11:51:00,23,23,13,27,23,30,20,22,23
11:52:00,16,26,28,16,16,26,14,20,20
11:53:00,24,23,21,28,19,25,10,23,21
11:54:00,23,30,36,11,29,15,26,26,24
11:55:00,20,25,19,29,16,30,16,22,22
11:56:00,23,21,22,18,24,17,22,22,21
11:57:00,19,24,26,20,21,21,16,22,21
11:58:00,18,25,18,24,28,15,17,23,21
11:59:00,20,24,24,23,16,18,16,21,20
12:00:00,20,25,22,22,34,21,13,25,22
12:01:00,27,17,21,31,24,21,15,24,22
12:02:00,19,26,15,16,27,21,29,21,22
12:03:00,20,24,21,23,30,30,18,24,24
12:04:00,20,22,17,16,15,16,20,18,18
12:05:00,18,22,16,22,18,18,17,19,19
12:06:00,20,21,22,20,22,16,20,21,20
12:07:00,22,23,25,22,23,17,20,23,22
12:08:00,16,22,21,19,25,30,21,21,22
12:09:00,16,23,20,26,20,23,15,21,20
12:10:00,14,27,21,22,24,15,17,22,20
12:11:00,15,21,25,25,14,22,24,20,21
12:12:00,30,23,11,26,23,19,21,23,22
12:13:00,25,26,17,20,23,19,16,22,21
12:14:00,14,18,23,24,17,16,22,19,19
12:15:00,21,22,19,23,20,21,16,21,20
12:16:00,18,15,30,31,22,17,17,23,21
12:17:00,18,25,23,22,38,24,20,25,24
12:18:00,24,19,31,16,27,20,16,23,22
12:19:00,21,22,20,24,32,18,26,24,23
12:20:00,22,20,23,13,18,22,25,19,20
12:21:00,17,31,25,17,18,21,11,22,20
12:22:00,22,23,18,15,21,20,22,20,20
12:23:00,19,23,20,22,23,18,17,21,20
12:24:00,23,12,15,29,21,18,24,20,20
12:25:00,15,23,25,25,16,20,29,21,22
12:26:00,18,21,29,29,22,23,24,24,24
12:27:00,20,28,24,23,17,21,25,22,23
12:28:00,20,13,11,21,22,27,25,17,20
12:29:00,17,24,17,20,22,18,13,20,19
12:30:00,24,21,29,19,15,16,23,22,21
12:31:00,18,28,25,18,24,24,17,23,22
12:32:00,22,29,15,24,19,13,8,22,19
12:33:00,27,23,24,21,20,17,26,23,23
12:34:00,22,14,21,23,22,26,16,20,21
12:35:00,19,23,12,26,20,23,26,20,21
12:36:00,18,20,30,23,22,27,18,23,23
12:37:00,25,29,22,27,21,24,19,25,24
12:38:00,22,26,26,25,21,18,14,24,22
12:39:00,23,25,21,26,33,19,23,26,24
12:40:00,15,24,17,19,24,21,21,20,20
12:41:00,17,29,22,22,23,21,31,23,24
12:42:00,12,18,17,24,21,28,19,18,20
12:43:00,26,27,17,24,31,24,21,25,24
12:44:00,21,18,22,21,21,24,15,21,20
12:45:00,17,36,24,19,16,24,24,22,23
12:46:00,19,26,20,18,21,21,24,21,21
12:47:00,12,20,20,21,27,23,27,20,21
12:48:00,19,27,21,32,17,17,15,23,21
12:49:00,22,30,18,17,17,27,24,21,22
12:50:00,16,22,18,24,27,19,14,21,20
12:51:00,23,26,21,19,25,22,19,23,22
12:52:00,17,14,20,21,33,17,18,21,20
12:53:00,15,25,28,16,20,24,18,21,21
12:54:00,21,26,18,27,23,23,17,23,22
12:55:00,21,26,19,26,27,26,12,24,22
12:56:00,27,20,20,26,24,18,19,23,22
12:57:00,0,37,21,23,15,23,12,19,19
12:58:00,17,14,29,24,20,21,21,21,21
12:59:00,12,21,24,34,22,24,14,23,22
13:00:00,18,16,22,24,15,24,18,19,20
13:01:00,25,24,22,14,20,21,18,21,21
13:02:00,18,20,21,24,24,20,28,21,22
13:03:00,23,26,28,20,14,18,17,22,21
13:04:00,30,27,20,21,34,22,20,26,25
13:05:00,11,30,23,20,25,20,20,22,21
13:06:00,22,19,23,24,24,16,18,22,21
13:07:00,19,24,20,25,29,20,22,23,23
13:08:00,25,27,18,23,25,23,23,24,23
13:09:00,21,26,29,29,21,24,29,25,26
13:10:00,18,22,23,19,21,22,15,21,20
13:11:00,22,25,23,15,22,22,19,21,21
13:12:00,27,21,25,20,17,15,12,22,20
13:13:00,20,22,23,19,24,20,17,22,21
13:14:00,23,18,20,32,18,26,17,22,22
13:15:00,19,26,28,17,20,21,11,22,20
13:16:00,24,24,29,27,27,21,14,26,24
13:17:00,28,26,23,18,26,16,20,24,22
13:18:00,25,15,24,16,32,28,21,22,23
13:19:00,19,17,29,23,28,24,19,23,23
13:20:00,22,24,25,13,20,22,20,21,21
13:21:00,20,22,16,17,16,20,18,18,18
13:22:00,26,25,26,20,27,26,20,25,24
13:23:00,20,14,20,25,21,20,18,20,20
13:24:00,19,20,19,20,21,19,19,20,20
13:25:00,27,22,17,17,28,26,22,22,23
13:26:00,20,20,25,24,27,23,20,23,23
13:27:00,20,22,28,18,18,15,17,21,20
13:28:00,24,20,27,26,26,13,18,25,22
13:29:00,20,19,19,26,24,28,14,22,21
13:30:00,22,20,26,18,21,17,18,21,20
13:31:00,16,21,31,28,17,26,14,23,22
13:32:00,19,20,21,16,26,23,10,20,19
13:33:00,23,27,19,22,26,25,22,23,23
13:34:00,30,22,16,25,16,27,11,22,21
13:35:00,33,21,24,26,16,15,18,24,22
13:36:00,21,26,24,22,27,18,16,24,22
13:37:00,30,21,22,24,21,14,17,24,21
13:38:00,27,22,24,31,26,24,20,26,25
13:39:00,29,26,25,23,21,10,23,25,22
13:40:00,26,27,18,24,21,17,19,23,22
13:41:00,22,25,28,24,23,24,17,24,23
13:42:00,21,22,27,27,14,15,13,22,20
13:43:00,18,26,29,16,26,18,21,23,22
13:44:00,27,26,21,20,24,27,18,24,23
13:45:00,22,29,20,24,15,22,14,22,21
13:46:00,21,21,20,17,27,28,17,21,22
13:47:00,23,23,19,21,25,16,22,22,21
13:48:00,23,25,25,28,25,19,23,25,24
13:49:00,23,30,25,27,18,18,19,25,23
13:50:00,21,23,27,24,19,15,20,23,21
13:51:00,28,24,18,18,28,24,15,23,22
13:52:00,22,17,27,10,20,18,14,19,18
13:53:00,24,26,25,21,26,25,18,24,24
13:54:00,26,31,11,16,19,19,11,21,19
13:55:00,17,25,21,22,23,15,11,22,19
13:56:00,23,24,23,15,26,25,20,22,22
13:57:00,23,17,26,24,28,14,25,24,22
13:58:00,19,31,26,21,20,22,18,23,22
13:59:00,20,27,17,25,21,28,20,22,23
14:00:00,18,19,31,27,22,29,25,23,24
14:01:00,17,21,26,19,31,18,15,23,21
14:02:00,24,27,26,22,20,19,29,24,24
14:03:00,22,19,22,25,21,19,17,22,21
14:04:00,13,20,21,25,25,17,17,21,20
14:05:00,29,21,26,23,24,21,17,25,23
14:06:00,17,30,14,26,25,28,16,22,22
14:07:00,20,23,32,17,15,22,22,21,22
14:08:00,20,23,24,19,16,33,29,20,23
14:09:00,25,31,20,27,31,25,18,27,25
14:10:00,22,30,23,20,23,21,22,24,23
14:11:00,25,32,28,26,29,24,23,28,27
14:12:00,20,22,30,21,16,24,21,22,22
14:13:00,22,18,28,28,25,18,21,24,23
14:14:00,26,23,13,20,21,24,18,21,21
14:15:00,26,23,25,28,15,17,15,23,21
14:16:00,22,23,29,20,26,14,14,24,21
14:17:00,16,23,19,25,21,19,22,21,21
14:18:00,29,23,19,26,25,18,13,24,22
14:19:00,27,25,32,26,27,16,17,27,24
14:20:00,19,23,21,24,29,24,22,23,23
14:21:00,29,16,25,18,17,19,25,21,21
14:22:00,24,20,20,19,23,22,16,21,21
14:23:00,26,20,17,24,23,23,8,22,20
14:24:00,20,25,23,22,14,21,15,21,20
14:25:00,22,23,18,20,23,26,21,21,22
14:26:00,23,18,24,30,21,25,18,23,23
14:27:00,25,22,26,29,25,24,13,25,23
14:28:00,23,23,27,22,24,29,23,24,24
14:29:00,17,30,12,33,18,22,16,22,21
14:30:00,24,19,25,20,18,19,19,21,21
14:31:00,19,28,25,22,9,25,14,21,20
14:32:00,17,20,25,28,26,30,18,23,23
14:33:00,24,22,14,20,22,16,12,20,19
14:34:00,20,23,28,24,24,28,24,24,24
14:35:00,11,22,24,25,16,20,18,20,19
14:36:00,23,31,15,18,22,20,20,22,21
14:37:00,30,26,32,24,17,24,8,26,23
14:38:00,24,28,26,28,21,15,17,25,23
14:39:00,27,24,30,24,13,27,17,24,23
14:40:00,20,28,22,20,25,20,17,23,22
14:41:00,20,24,26,20,22,17,21,22,21
14:42:00,26,24,16,26,15,16,21,21,21
14:43:00,28,26,24,17,18,12,23,23,21
14:44:00,31,24,28,27,22,24,24,26,26
14:45:00,21,18,26,17,23,19,24,21,21
14:46:00,30,31,16,20,24,22,19,24,23
14:47:00,19,26,27,16,25,19,19,23,22
14:48:00,13,20,18,23,27,13,19,20,19
14:49:00,17,29,23,23,7,13,19,20,19
14:50:00,16,20,22,14,26,19,20,20,20
14:51:00,32,26,20,19,13,23,25,22,23
14:52:00,18,26,24,17,25,26,34,22,24
14:53:00,23,26,18,22,17,15,26,21,21
14:54:00,19,21,26,13,22,15,23,20,20
14:55:00,20,20,13,15,22,15,24,18,18
14:56:00,18,29,18,23,22,22,18,22,21
14:57:00,32,31,23,22,22,15,19,26,23
14:58:00,22,20,28,17,15,16,16,20,19
14:59:00,26,21,15,28,16,16,21,21,20
15:00:00,25,26,27,25,19,15,28,24,24
15:01:00,15,25,27,21,21,14,17,22,20
15:02:00,32,24,27,26,20,21,19,26,24
15:03:00,25,26,28,29,17,20,15,25,23
15:04:00,27,14,18,17,17,25,17,19,19
15:05:00,26,30,28,25,20,15,22,26,24
15:06:00,18,24,38,20,18,16,12,24,21
15:07:00,23,24,25,12,17,21,19,20,20
15:08:00,31,30,25,23,16,25,19,25,24
15:09:00,21,24,34,20,28,17,27,25,24
15:10:00,29,22,25,23,17,16,13,23,21
15:11:00,21,26,26,34,12,20,17,24,22
15:12:00,20,27,26,23,18,18,22,23,22
15:13:00,20,24,21,25,18,17,18,22,20
15:14:00,27,21,26,20,21,27,16,23,23
15:15:00,29,29,19,27,13,24,22,23,23
15:16:00,14,23,21,22,25,35,13,21,22
15:17:00,31,26,18,19,24,10,16,24,21
15:18:00,17,10,13,18,13,27,19,14,17
15:19:00,23,27,15,20,29,10,19,23,20
15:20:00,27,27,32,22,19,22,20,25,24
15:21:00,19,23,31,30,31,21,15,27,24
15:22:00,18,25,20,22,16,16,9,20,18
15:23:00,17,27,23,18,16,17,16,20,19
15:24:00,25,17,18,13,20,17,12,19,17
15:25:00,22,20,19,30,25,23,24,23,23
15:26:00,23,24,22,14,18,11,12,20,18
15:27:00,28,18,20,19,24,20,16,22,21
15:28:00,22,23,22,16,18,17,15,20,19
15:29:00,21,23,16,20,17,25,16,19,20
15:30:00,34,18,17,23,19,25,20,22,22
15:31:00,17,25,22,21,24,11,19,22,20
15:32:00,23,30,25,31,24,15,21,27,24
15:33:00,28,38,22,22,23,31,19,27,26
15:34:00,23,20,25,30,25,16,13,25,22
15:35:00,26,18,26,23,22,16,13,23,21
15:36:00,31,29,16,18,22,30,16,23,23
15:37:00,29,27,36,30,19,18,15,28,25
15:38:00,19,28,29,23,16,25,23,23,23
15:39:00,25,27,27,36,11,16,18,25,23
15:40:00,18,23,24,25,17,22,24,21,22
15:41:00,17,27,22,19,17,25,18,20,21
15:42:00,28,20,20,26,27,22,18,24,23
15:43:00,11,23,30,24,25,13,25,23,22
15:44:00,26,29,19,18,26,14,22,24,22
15:45:00,13,24,23,23,23,17,20,21,20
15:46:00,22,21,23,17,17,22,19,20,20
15:47:00,26,18,20,27,33,16,23,25,23
15:48:00,13,17,27,19,21,25,16,19,20
15:49:00,21,18,20,25,17,18,21,20,20
15:50:00,26,19,27,20,19,12,18,22,20
15:51:00,22,26,29,23,20,29,22,24,24
15:52:00,26,28,22,21,26,12,18,25,22
15:53:00,23,26,15,26,15,17,22,21,21
15:54:00,24,34,27,30,13,22,19,26,24
15:55:00,22,24,21,16,20,16,25,21,21
15:56:00,23,27,24,31,17,20,25,24,24
15:57:00,30,25,22,27,24,17,21,26,24
15:58:00,17,33,19,17,15,24,22,20,21
15:59:00,19,22,25,16,21,12,20,21,19
16:00:00,17,21,17,24,14,12,25,19,19
16:01:00,17,28,26,20,15,25,10,21,20
16:02:00,20,14,29,25,24,16,18,22,21
16:03:00,13,22,23,28,28,17,19,23,21
16:04:00,19,21,29,27,21,19,18,23,22
16:05:00,18,21,20,23,30,8,13,22,19
16:06:00,17,17,24,18,21,22,18,19,20
16:07:00,16,30,25,28,16,18,16,23,21
16:08:00,22,28,21,27,25,18,11,25,22
16:09:00,32,23,24,20,29,24,20,26,25
16:10:00,19,25,25,23,25,19,19,23,22
16:11:00,15,15,23,22,17,32,25,18,21
16:12:00,20,24,21,20,23,16,21,22,21
16:13:00,23,18,22,19,18,19,17,20,19
16:14:00,23,18,14,15,23,24,19,19,19
16:15:00,26,23,22,19,16,15,22,21,20
16:16:00,24,23,22,20,18,22,21,21,21
16:17:00,15,15,28,28,30,24,13,23,22
16:18:00,16,26,19,11,30,21,20,20,20
16:19:00,24,27,31,13,22,22,5,23,21
16:20:00,20,23,33,20,22,14,25,24,22
16:21:00,16,17,22,24,14,19,14,19,18
16:22:00,16,16,21,20,17,19,12,18,17
16:23:00,23,26,28,14,17,23,16,22,21
16:24:00,31,21,12,22,22,28,12,22,21
16:25:00,20,14,22,11,23,18,7,18,16
16:26:00,12,16,21,25,19,22,16,19,19
16:27:00,19,27,27,16,14,19,15,21,20
16:28:00,13,17,22,25,23,16,15,20,19
16:29:00,20,29,33,20,21,19,11,25,22
16:30:00,17,19,20,30,18,26,15,21,21
16:31:00,22,24,27,20,22,21,17,23,22
16:32:00,30,23,30,17,27,28,15,25,24
16:33:00,24,24,19,21,13,19,10,20,19
16:34:00,25,33,15,22,33,15,18,26,23
16:35:00,29,19,8,16,27,18,15,20,19
16:36:00,15,27,25,23,22,24,16,22,22
16:37:00,27,28,24,20,22,23,9,24,22
16:38:00,27,33,21,17,28,26,16,25,24
16:39:00,16,17,21,19,31,18,14,21,19
16:40:00,23,19,27,25,20,19,11,23,21
16:41:00,15,22,31,24,20,17,12,22,20
16:42:00,28,22,22,28,20,17,8,24,21
16:43:00,19,20,26,23,24,33,12,22,22
16:44:00,23,21,21,17,26,14,13,22,19
16:45:00,21,20,22,24,28,18,12,23,21
16:46:00,21,26,21,19,19,20,11,21,20
16:47:00,22,20,13,28,24,21,17,21,21
16:48:00,15,18,22,22,17,14,11,19,17
16:49:00,27,22,23,18,17,23,19,21,21
16:50:00,17,25,27,18,19,15,12,21,19
16:51:00,18,16,22,18,23,24,17,19,20
16:52:00,23,14,25,14,30,10,15,21,19
16:53:00,23,18,19,18,19,21,9,19,18
16:54:00,17,18,25,25,21,20,19,21,21
16:55:00,21,26,25,18,17,19,12,21,20
16:56:00,19,23,26,26,21,19,22,23,22
16:57:00,18,22,24,22,24,14,17,22,20
16:58:00,22,15,26,13,29,17,17,21,20
16:59:00,20,20,24,20,16,29,19,20,21
17:00:00,19,17,20,17,25,11,16,20,18
17:01:00,21,21,24,20,22,19,12,22,20
17:02:00,22,20,23,20,18,20,15,21,20
17:03:00,23,21,23,25,21,12,21,23,21
17:04:00,17,15,25,13,28,27,12,20,20
17:05:00,25,16,23,20,21,17,14,21,19
17:06:00,24,21,25,20,30,17,12,24,21
17:07:00,19,19,23,18,25,29,13,21,21
17:08:00,16,18,17,23,17,22,21,18,19
17:09:00,22,23,20,23,20,15,13,22,19
17:10:00,17,18,29,25,29,22,16,24,22
17:11:00,25,17,22,11,22,20,10,19,18
17:12:00,14,10,16,14,29,17,18,17,17
17:13:00,28,17,13,18,20,24,14,19,19
17:14:00,21,21,24,23,20,20,13,22,20
17:15:00,13,20,23,20,13,19,8,18,17
17:16:00,21,20,23,20,22,14,8,21,18
17:17:00,20,20,18,18,24,24,12,20,19
17:18:00,23,23,17,24,17,21,13,21,20
17:19:00,18,29,11,17,28,21,12,21,19
17:20:00,26,26,23,23,17,13,6,23,19
17:21:00,17,18,23,18,30,19,7,21,19
17:22:00,21,14,14,21,20,18,21,18,18
17:23:00,18,28,28,8,13,9,6,19,16
17:24:00,25,25,22,17,22,17,13,22,20
17:25:00,23,18,26,18,23,19,23,22,21
17:26:00,14,18,34,23,20,13,16,22,20
17:27:00,17,25,27,21,22,24,14,22,21
17:28:00,23,20,20,18,22,9,14,21,18
17:29:00,29,20,20,22,25,26,7,23,21
17:30:00,33,21,29,23,19,25,8,25,23
17:31:00,34,27,18,24,21,18,19,25,23
17:32:00,19,27,23,28,21,22,10,24,21
17:33:00,27,27,17,18,27,16,12,23,21
17:34:00,24,20,26,35,27,28,11,26,24
17:35:00,23,24,31,22,26,18,13,25,22
17:36:00,29,16,24,21,16,17,13,21,19
17:37:00,21,20,22,24,30,31,17,23,24
17:38:00,23,26,25,25,24,7,6,25,19
17:39:00,16,33,24,18,21,22,10,22,21
17:40:00,29,25,27,25,23,22,9,26,23
17:41:00,24,22,29,19,28,19,7,24,21
17:42:00,18,22,27,24,22,22,11,23,21
17:43:00,18,21,28,23,16,9,14,21,18
17:44:00,22,19,23,22,28,18,17,23,21
17:45:00,28,21,21,15,29,23,9,23,21
17:46:00,22,18,23,25,22,19,11,22,20
17:47:00,18,21,16,26,23,20,18,21,20
17:48:00,24,26,29,24,27,27,7,26,23
17:49:00,21,15,13,26,23,21,9,20,18
17:50:00,32,27,24,16,15,18,13,23,21
17:51:00,30,21,21,17,21,19,6,22,19
17:52:00,17,20,20,25,23,25,12,21,20
17:53:00,15,16,21,25,25,16,8,20,18
17:54:00,20,22,25,19,21,11,16,21,19
17:55:00,15,30,19,26,19,21,16,22,21
17:56:00,17,27,21,22,24,15,13,22,20
17:57:00,17,16,26,26,15,8,13,20,17
17:58:00,24,22,19,23,23,20,17,22,21
17:59:00,17,29,25,28,24,16,18,25,22
18:00:00,17,24,19,15,25,22,19,20,20
18:01:00,15,22,22,24,19,17,11,20,19
18:02:00,17,25,25,19,26,16,15,22,20
18:03:00,20,19,24,19,19,28,6,20,19
18:04:00,29,21,21,28,21,17,18,24,22
18:05:00,15,32,17,25,24,17,21,23,22
18:06:00,23,24,20,16,22,21,19,21,21
18:07:00,14,30,31,26,19,23,13,24,22
18:08:00,16,20,20,32,19,14,13,21,19
18:09:00,15,18,22,22,25,20,10,20,19
18:10:00,19,17,27,22,24,22,10,22,20
18:11:00,25,25,22,27,19,21,12,24,22
18:12:00,17,24,22,28,21,11,16,22,20
18:13:00,18,26,20,25,18,17,6,21,19
18:14:00,15,15,21,31,25,21,15,21,20
18:15:00,10,25,20,14,22,14,15,18,17
18:16:00,19,24,16,16,27,19,13,20,19
18:17:00,17,18,15,13,21,16,12,17,16
18:18:00,16,15,29,24,16,18,9,20,18
18:19:00,15,15,16,20,23,13,6,18,15
18:20:00,16,10,21,16,19,18,13,16,16
18:21:00,12,27,23,9,28,20,9,20,18
18:22:00,23,20,16,21,21,21,12,20,19
18:23:00,19,18,25,15,16,30,8,19,19
18:24:00,17,20,19,17,28,12,25,20,20
18:25:00,18,26,14,18,20,31,16,19,20
18:26:00,13,26,25,20,25,21,9,22,20
18:27:00,22,14,25,20,25,15,15,21,19
18:28:00,18,24,20,25,22,20,9,22,20
18:29:00,26,22,24,26,23,9,17,24,21
18:30:00,16,18,17,13,22,26,21,17,19
18:31:00,14,14,16,18,22,13,8,17,15
18:32:00,17,13,21,24,20,19,9,19,18
18:33:00,16,22,19,16,13,19,11,17,17
18:34:00,19,24,26,22,16,12,10,21,18
18:35:00,21,25,22,17,27,20,13,22,21
18:36:00,24,21,18,17,11,18,10,18,17
18:37:00,29,22,17,11,26,12,12,21,18
18:38:00,19,16,20,18,22,20,7,19,17
18:39:00,17,11,18,32,12,20,13,18,18
18:40:00,14,23,19,19,15,18,14,18,17
18:41:00,22,16,19,16,23,15,12,19,18
18:42:00,13,21,23,19,20,18,16,19,19
18:43:00,20,23,20,13,16,20,15,18,18
18:44:00,26,23,26,20,20,17,12,23,21
18:45:00,21,21,13,12,26,20,9,19,17
18:46:00,17,25,24,20,17,18,11,21,19
18:47:00,26,21,35,22,17,15,6,24,20
18:48:00,27,21,17,13,24,12,11,20,18
18:49:00,18,22,21,21,16,13,21,20,19
18:50:00,21,25,17,18,15,14,10,19,17
18:51:00,19,23,23,27,29,23,10,24,22
18:52:00,21,18,23,17,24,20,9,21,19
18:53:00,18,17,18,23,23,19,11,20,18
18:54:00,19,17,23,32,22,13,14,23,20
18:55:00,14,26,16,13,29,14,13,20,18
18:56:00,11,19,16,19,22,14,14,17,16
18:57:00,24,25,15,15,11,18,5,18,16
18:58:00,18,16,25,30,25,17,11,23,20
18:59:00,18,27,13,17,22,19,7,19,18
19:00:00,16,13,23,21,16,22,17,18,18
19:01:00,16,26,19,25,14,15,12,20,18
19:02:00,20,22,20,22,23,12,13,21,19
19:03:00,18,25,15,16,17,9,13,18,16
19:04:00,8,27,21,20,10,14,9,17,16
19:05:00,22,21,19,22,23,15,13,21,19
19:06:00,18,26,12,24,21,20,8,20,18
19:07:00,14,31,17,18,16,14,11,19,17
19:08:00,22,26,21,25,14,20,15,22,20
19:09:00,20,31,19,24,35,14,18,26,23
19:10:00,16,30,24,14,25,9,8,22,18
19:11:00,22,32,19,20,15,19,9,22,19
19:12:00,23,23,17,21,19,14,13,21,19
19:13:00,25,43,17,23,14,8,13,24,20
19:14:00,27,25,22,19,16,16,15,22,20
19:15:00,19,19,19,21,16,11,16,19,17
19:16:00,15,20,19,18,23,15,9,19,17
19:17:00,21,27,13,24,24,17,14,22,20
19:18:00,19,18,27,25,22,15,10,22,19
19:19:00,22,21,18,19,17,12,12,19,17
19:20:00,20,21,17,17,15,17,8,18,16
19:21:00,14,22,18,24,21,15,10,20,18
19:22:00,12,17,17,16,23,19,15,17,17
19:23:00,14,23,15,24,21,12,12,19,17
19:24:00,11,15,14,20,16,8,7,15,13
19:25:00,14,17,16,24,20,11,14,18,17
19:26:00,20,13,16,22,22,16,10,19,17
19:27:00,19,12,19,16,18,18,9,17,16
19:28:00,22,23,14,13,24,10,9,19,16
19:29:00,14,17,10,11,23,13,13,15,14
19:30:00,14,19,21,14,18,14,6,17,15
19:31:00,10,9,19,17,15,12,13,14,14
19:32:00,14,16,14,15,17,16,12,15,15
19:33:00,17,19,17,18,12,11,12,17,15
19:34:00,17,20,24,22,17,13,10,20,18
19:35:00,16,18,17,7,12,13,11,14,13
19:36:00,21,12,21,20,10,12,14,17,16
19:37:00,17,21,18,15,23,16,17,19,18
19:38:00,19,14,15,16,16,11,10,16,14
19:39:00,15,19,17,18,12,12,12,16,15
19:40:00,12,22,16,20,17,12,8,17,15
19:41:00,12,15,5,20,10,11,5,12,11
19:42:00,15,20,14,14,17,6,5,16,13
19:43:00,14,15,17,13,17,11,5,15,13
19:44:00,12,14,14,16,14,14,10,14,13
19:45:00,17,23,20,13,10,12,13,17,15
19:46:00,9,14,13,17,11,8,7,13,11
19:47:00,12,24,23,21,14,9,11,19,16
19:48:00,12,18,19,14,15,13,18,16,16
19:49:00,19,11,16,17,14,12,8,15,14
19:50:00,10,6,16,18,12,15,8,12,12
19:51:00,16,17,28,16,23,18,16,20,19
19:52:00,12,21,14,24,16,16,11,17,16
19:53:00,14,15,14,10,12,15,5,13,12
19:54:00,15,14,16,16,21,15,11,16,15
19:55:00,11,31,15,19,13,17,11,18,17
19:56:00,17,22,19,13,18,7,10,18,15
19:57:00,18,19,15,16,12,11,13,16,15
19:58:00,21,14,21,17,18,13,11,18,16
19:59:00,10,9,13,14,9,10,11,11,11
20:00:00,12,17,12,18,14,8,13,15,13
20:01:00,7,21,17,12,14,10,11,14,13
20:02:00,14,20,13,13,15,13,11,15,14
20:03:00,12,17,18,14,13,7,11,15,13
20:04:00,5,21,17,12,14,9,13,14,13
20:05:00,18,25,10,28,17,6,10,20,16
20:06:00,15,15,25,21,17,17,12,19,17
20:07:00,10,16,12,9,16,14,7,13,12
20:08:00,16,15,10,20,12,10,11,15,13
20:09:00,12,16,8,17,23,15,14,15,15
20:10:00,14,22,17,20,19,3,8,18,15
20:11:00,11,20,24,17,9,14,16,16,16
20:12:00,16,17,16,25,29,12,9,21,18
20:13:00,4,22,13,17,16,10,7,14,13
20:14:00,4,22,21,13,15,18,12,15,15
20:15:00,8,18,20,12,16,4,4,15,12
20:16:00,9,19,17,16,13,13,8,15,14
20:17:00,9,12,20,18,10,10,9,14,13
20:18:00,4,9,13,19,17,4,6,12,10
20:19:00,13,11,17,12,8,8,6,12,11
20:20:00,9,21,5,9,14,4,7,12,10
20:21:00,5,12,14,6,21,10,6,12,11
20:22:00,11,16,14,13,9,3,10,13,11
20:23:00,11,9,17,7,11,7,6,11,10
20:24:00,12,8,14,14,6,8,8,11,10
20:25:00,9,15,23,7,8,6,10,12,11
20:26:00,9,5,9,13,12,16,8,10,10
20:27:00,12,7,13,13,10,9,9,11,10
20:28:00,8,10,17,5,10,6,18,10,11
20:29:00,5,11,15,11,13,8,6,11,10
20:30:00,9,12,9,14,12,6,7,11,10
20:31:00,7,11,16,10,8,11,5,10,10
20:32:00,7,9,11,7,11,7,7,9,8
20:33:00,10,4,9,6,8,11,6,7,8
20:34:00,3,12,3,9,14,11,5,8,8
20:35:00,8,15,14,9,10,8,9,11,10
20:36:00,8,11,9,9,13,5,7,10,9
20:37:00,11,9,7,9,11,9,6,9,9
20:38:00,7,11,12,12,13,9,9,11,10
20:39:00,7,9,7,4,8,11,9,7,8
20:40:00,7,8,11,8,12,8,4,9,8
20:41:00,7,8,11,12,12,13,7,10,10
20:42:00,10,10,10,13,11,6,11,11,10
20:43:00,13,8,11,19,12,6,9,13,11
20:44:00,14,7,10,9,18,6,5,12,10
20:45:00,12,8,7,13,5,7,8,9,9
20:46:00,4,5,9,7,10,7,3,7,6
20:47:00,10,11,7,12,14,7,6,11,10
20:48:00,8,10,11,5,9,7,3,9,8
20:49:00,7,7,13,12,9,8,9,10,9
20:50:00,10,10,15,9,12,6,2,11,9
20:51:00,12,10,9,14,9,4,5,11,9
20:52:00,6,8,9,11,9,7,2,9,7
20:53:00,10,6,12,11,10,11,5,10,9
20:54:00,6,7,7,9,8,10,4,7,7
20:55:00,7,7,12,8,17,3,9,10,9
20:56:00,9,10,6,9,12,5,8,9,8
20:57:00,6,7,9,13,9,14,9,9,10
20:58:00,4,6,10,3,9,4,6,6,6
20:59:00,7,15,10,7,6,8,4,9,8
21:00:00,4,10,3,6,5,6,6,6,6
21:01:00,4,18,12,6,8,5,3,10,8
21:02:00,4,8,15,11,6,6,7,9,8
21:03:00,11,9,6,14,5,1,2,9,7
21:04:00,6,10,9,9,6,10,8,8,8
21:05:00,1,8,7,12,10,4,2,8,6
21:06:00,10,7,9,8,6,8,4,8,7
21:07:00,10,9,13,8,12,12,8,10,10
21:08:00,5,15,15,15,10,11,10,12,12
21:09:00,5,9,9,5,9,16,5,7,8
21:10:00,3,18,8,19,16,4,2,13,10
21:11:00,9,7,9,11,12,10,4,10,9
21:12:00,8,13,19,12,11,7,9,13,11
21:13:00,6,8,13,6,9,12,7,8,9
21:14:00,10,12,9,11,8,6,1,10,8
21:15:00,12,6,6,9,7,3,6,8,7
21:16:00,8,10,8,10,4,9,5,8,8
21:17:00,10,14,10,8,6,5,10,10,9
21:18:00,8,9,9,8,2,9,4,7,7
21:19:00,9,13,8,8,12,10,0,10,9
21:20:00,8,13,8,15,5,16,6,10,10
21:21:00,8,14,6,11,12,7,8,10,9
21:22:00,10,7,8,5,12,10,7,8,8
21:23:00,6,12,9,10,8,9,8,9,9
21:24:00,3,11,8,11,8,12,8,8,9
21:25:00,14,7,7,8,5,4,5,8,7
21:26:00,5,7,7,11,9,12,3,8,8
21:27:00,4,8,6,13,10,11,3,8,8
21:28:00,7,9,11,12,10,6,4,10,8
21:29:00,6,10,5,13,8,10,9,8,9
21:30:00,11,11,12,7,11,6,8,10,9
21:31:00,2,11,9,5,6,4,3,7,6
21:32:00,9,6,11,9,11,6,5,9,8
21:33:00,3,10,5,9,8,7,2,7,6
21:34:00,8,10,4,14,6,8,3,8,8
21:35:00,4,6,11,12,8,7,1,8,7
21:36:00,5,12,9,7,5,7,6,8,7
21:37:00,7,17,8,7,4,6,6,9,8
21:38:00,6,11,11,4,7,12,7,8,8
21:39:00,4,16,6,8,6,4,5,8,7
21:40:00,4,17,14,13,10,11,5,12,11
21:41:00,8,14,9,8,9,11,4,10,9
21:42:00,7,14,8,12,7,10,4,10,9
21:43:00,6,11,9,8,5,10,1,8,7
21:44:00,7,12,9,10,6,7,5,9,8
21:45:00,3,11,7,5,7,9,5,7,7
21:46:00,3,13,14,2,5,3,7,7,7
21:47:00,5,11,7,13,5,9,8,8,8
21:48:00,8,13,15,4,8,5,5,10,8
21:49:00,2,9,9,4,20,4,1,9,7
21:50:00,6,15,13,8,1,9,7,9,8
21:51:00,6,11,7,10,7,7,2,8,7
21:52:00,4,17,6,8,5,6,2,8,7
21:53:00,8,7,7,5,7,2,6,7,6
21:54:00,4,13,5,13,6,4,1,8,7
21:55:00,3,8,10,10,2,5,2,7,6
21:56:00,7,5,3,5,6,6,6,5,5
21:57:00,7,12,5,10,7,4,3,8,7
21:58:00,5,8,11,14,4,10,4,8,8
21:59:00,3,13,8,7,6,8,3,7,7
22:00:00,4,11,11,5,11,8,4,8,8
22:01:00,3,18,5,3,9,4,3,8,6
22:02:00,7,10,10,3,6,7,5,7,7
22:03:00,6,12,5,3,4,8,3,6,6
22:04:00,7,12,6,9,9,3,6,9,7
22:05:00,2,12,7,7,3,14,6,6,7
22:06:00,6,9,6,0,12,5,4,7,6
22:07:00,5,5,4,11,9,11,4,7,7
22:08:00,7,15,10,5,4,6,0,8,7
22:09:00,9,12,9,14,10,3,3,11,9
22:10:00,7,11,6,5,11,6,2,8,7
22:11:00,9,11,11,3,11,7,2,9,8
22:12:00,6,8,5,7,5,6,5,6,6
22:13:00,2,6,12,4,8,4,0,6,5
22:14:00,8,8,4,6,8,7,6,7,7
22:15:00,10,8,3,4,4,6,5,6,6
22:16:00,7,6,5,16,7,6,8,8,8
22:17:00,6,11,5,6,6,5,2,7,6
22:18:00,7,7,5,8,8,3,2,7,6
22:19:00,3,7,7,4,7,11,4,6,6
22:20:00,3,10,6,8,4,11,4,6,7
22:21:00,6,4,8,8,7,7,5,7,6
22:22:00,6,8,8,7,7,6,3,7,6
22:23:00,9,8,4,7,4,2,3,6,5
22:24:00,2,10,4,4,9,6,4,6,6
22:25:00,8,6,7,5,7,9,1,7,6
22:26:00,2,4,10,11,2,6,1,6,5
22:27:00,4,9,5,5,7,3,3,6,5
22:28:00,2,5,4,4,5,3,3,4,4
22:29:00,6,4,7,6,1,7,4,5,5
22:30:00,3,6,6,3,8,4,5,5,5
22:31:00,8,4,2,3,4,5,4,4,4
22:32:00,6,10,8,8,7,8,2,8,7
22:33:00,2,3,2,5,9,3,0,4,3
22:34:00,4,8,5,6,5,2,7,6,5
22:35:00,4,5,2,3,9,3,0,5,4
22:36:00,2,6,7,5,4,2,3,5,4
22:37:00,3,6,4,4,6,2,5,5,4
22:38:00,0,3,6,7,2,4,1,4,3
22:39:00,3,4,4,3,4,8,4,4,4
22:40:00,2,4,4,4,6,5,3,4,4
22:41:00,0,2,3,3,7,7,3,3,4
22:42:00,9,5,7,4,3,3,2,6,5
22:43:00,2,7,4,2,12,3,7,5,5
22:44:00,4,2,5,3,4,5,9,4,5
22:45:00,3,3,6,4,5,6,1,4,4
22:46:00,4,3,7,4,3,3,1,4,4
22:47:00,3,5,2,4,6,5,2,4,4
22:48:00,4,3,9,6,7,8,2,6,6
22:49:00,2,2,4,2,4,3,2,3,3
22:50:00,5,4,0,9,4,3,0,4,4
22:51:00,4,4,6,7,5,2,2,5,4
22:52:00,2,2,5,7,2,7,3,4,4
22:53:00,3,2,5,6,8,3,2,5,4
22:54:00,1,3,1,5,3,11,1,3,4
22:55:00,3,2,8,1,6,9,1,4,4
22:56:00,3,5,4,4,5,9,4,4,5
22:57:00,1,1,5,1,5,6,1,3,3
22:58:00,1,4,3,3,8,8,6,4,5
22:59:00,1,1,1,3,7,7,5,3,4
23:00:00,4,1,4,2,0,5,1,2,2
23:01:00,2,3,6,7,9,7,4,5,5
23:02:00,2,1,2,4,4,6,4,3,3
23:03:00,3,9,2,2,5,3,1,4,4
23:04:00,5,4,3,4,5,2,2,4,4
23:05:00,1,0,1,8,7,3,1,3,3
23:06:00,3,2,7,3,10,2,3,5,4
23:07:00,2,2,2,4,7,6,2,3,4
23:08:00,4,4,6,3,4,9,1,4,4
23:09:00,4,7,0,4,3,5,6,4,4
23:10:00,3,3,4,3,4,8,3,3,4
23:11:00,1,6,4,1,4,1,2,3,3
23:12:00,0,3,4,5,3,7,4,3,4
23:13:00,2,4,4,3,3,8,2,3,4
23:14:00,3,5,5,6,5,1,2,5,4
23:15:00,1,4,5,2,11,5,4,5,5
23:16:00,2,3,3,3,1,7,4,2,3
23:17:00,1,1,4,4,3,5,1,3,3
23:18:00,0,4,3,5,8,5,0,4,4
23:19:00,1,3,3,3,2,3,0,2,2
23:20:00,2,5,0,6,4,9,3,3,4
23:21:00,0,2,2,2,3,6,3,2,3
23:22:00,2,4,1,3,3,6,0,3,3
23:23:00,1,0,2,3,5,2,3,2,2
23:24:00,4,0,1,2,4,6,3,2,3
23:25:00,2,6,7,4,3,5,1,4,4
23:26:00,1,1,2,2,2,2,2,2,2
23:27:00,2,4,5,6,4,6,4,4,4
23:28:00,0,3,4,3,4,2,2,3,3
23:29:00,1,1,1,2,4,6,1,2,2
23:30:00,4,0,0,2,5,1,3,2,2
23:31:00,1,3,1,3,4,3,1,2,2
23:32:00,1,3,1,1,5,4,0,2,2
23:33:00,5,2,2,2,7,3,0,4,3
23:34:00,4,2,2,4,1,6,2,3,3
23:35:00,2,1,7,4,5,4,1,4,3
23:36:00,2,1,2,5,4,3,2,3,3
23:37:00,1,0,2,1,3,7,0,1,2
23:38:00,0,1,0,3,1,1,2,1,1
23:39:00,3,1,3,1,2,6,1,2,2
23:40:00,0,0,2,2,1,7,1,1,2
23:41:00,0,1,0,3,4,3,2,2,2
23:42:00,1,2,4,7,5,3,1,4,3
23:43:00,3,0,3,3,4,5,3,3,3
23:44:00,1,2,3,3,5,3,4,3,3
23:45:00,1,1,1,1,1,2,0,1,1
23:46:00,0,3,3,4,1,3,2,2,2
23:47:00,3,0,1,3,5,6,2,2,3
23:48:00,1,0,1,3,2,4,1,1,2
23:49:00,1,3,3,0,2,9,2,2,3
23:50:00,2,2,3,2,1,2,1,2,2
23:51:00,2,1,2,1,2,5,1,2,2
23:52:00,2,2,2,0,1,5,0,1,2
23:53:00,2,0,0,0,5,2,0,1,1
23:54:00,3,0,1,1,1,1,0,1,1
23:55:00,2,1,2,1,3,3,1,2,2
23:56:00,1,0,0,2,3,5,4,1,2
23:57:00,3,0,3,3,3,4,2,2,3
23:58:00,3,3,0,1,0,1,2,1,1
23:59:00,0,0,0,1,2,3,0,1,1
,,,,,,,,,
Totals,,,,,,,,,
12H(7-19),14765,16085,16004,15768,15360,12907,10509,15596,14485
16H(6-22),17116,19175,18840,18651,17978,14949,12172,18352,16983
18H(6-24),17490,19691,19325,19144,18573,15555,12475,18845,17465
24H(0-24),17905,20099,19766,19540,18918,16018,12929,19246,17882
,,,,,,,,,
AM Peak,08:26:00,08:22:00,08:43:00,08:25:00,10:42:00,10:56:00,10:37:00,08:25:00,10:01:00
,1231,1425,1472,1439,1398,1233,1148,1362,1241
,,,,,,,,,
PM Peak,14:37:00,14:34:00,15:33:00,15:11:00,13:04:00,12:35:00,12:10:00,13:33:00,13:33:00
,1410,1464,1423,1382,1380,1311,1198,1377,1324
,,,,,,,,,
,,,,,,,,,
CA Traffic,,,,,,,,,VDA-net R2 15/11/2019
