Site Number,00009177,Unnamed: 2,Site Reference,00009177.1,Unnamed: 5,Unnamed: 6,Lat/Lng.,"52.07513,1.12891",Unnamed: 9
Norwich Road Ipswich,,,,,,,,,
Vehicle Count Report,,,,Week Begin: 14 October 2019,,,Channel:,Total Flow,
,,,,,,,,,
,,,,,,,,,
,2019-10-14 00:00:00,2019-10-15 00:00:00,2019-10-16 00:00:00,2019-10-17 00:00:00,2019-10-18 00:00:00,2019-10-19 00:00:00,2019-10-20 00:00:00,"5-Day
Ave.","7-Day
Ave."
00:00:00,0,4,1,1,1,6,3,1,2
00:01:00,4,2,4,0,2,3,2,2,2
00:02:00,3,4,0,1,4,3,2,2,2
00:03:00,0,1,4,4,2,7,5,2,3
00:04:00,5,2,1,0,3,5,3,2,3
00:05:00,3,1,3,0,8,4,1,3,3
00:06:00,2,4,2,1,2,3,3,2,2
00:07:00,1,4,1,2,1,3,4,2,2
00:08:00,2,1,0,1,2,5,2,1,2
00:09:00,1,1,1,0,3,7,2,1,2
00:10:00,2,1,3,0,3,2,4,2,2
00:11:00,1,3,3,3,1,2,2,2,2
00:12:00,1,2,1,3,5,0,4,2,2
00:13:00,2,0,4,2,1,2,4,2,2
00:14:00,1,3,2,2,1,3,1,2,2
00:15:00,4,1,1,5,1,2,5,2,3
00:16:00,2,6,2,4,1,4,2,3,3
00:17:00,2,1,5,1,2,4,5,2,3
00:18:00,1,1,1,2,2,2,2,1,2
00:19:00,1,1,1,2,3,3,3,2,2
00:20:00,2,3,0,4,2,1,3,2,2
00:21:00,5,4,2,2,1,3,6,3,3
00:22:00,1,0,2,2,3,3,2,2,2
00:23:00,2,0,2,1,3,2,9,2,3
00:24:00,2,2,0,3,4,4,5,2,3
00:25:00,3,3,3,2,3,6,6,3,4
00:26:00,0,2,1,1,1,3,3,1,2
00:27:00,0,2,1,3,1,1,2,1,1
00:28:00,0,1,3,0,1,3,6,1,2
00:29:00,2,0,3,1,1,0,7,1,2
00:30:00,0,2,2,3,0,2,5,1,2
00:31:00,2,2,2,0,4,6,2,2,3
00:32:00,4,1,1,4,0,3,6,2,3
00:33:00,1,4,1,2,3,1,2,2,2
00:34:00,1,0,2,2,0,5,5,1,2
00:35:00,0,1,1,2,1,4,5,1,2
00:36:00,3,2,3,0,0,1,5,2,2
00:37:00,2,2,3,1,5,0,2,3,2
00:38:00,1,1,0,2,1,4,1,1,1
00:39:00,2,0,0,3,2,6,3,1,2
00:40:00,5,1,1,3,4,1,2,3,2
00:41:00,2,1,1,2,2,1,0,2,1
00:42:00,5,0,0,2,3,2,6,2,3
00:43:00,0,2,1,1,2,2,1,1,1
00:44:00,1,0,2,0,1,6,6,1,2
00:45:00,5,0,0,1,0,3,3,1,2
00:46:00,1,0,0,1,2,3,2,1,1
00:47:00,2,1,0,0,0,2,10,1,2
00:48:00,1,4,1,3,1,0,5,2,2
00:49:00,2,2,1,0,3,3,1,2,2
00:50:00,1,2,2,0,0,2,4,1,2
00:51:00,1,1,1,1,3,1,1,1,1
00:52:00,1,1,2,1,2,1,6,1,2
00:53:00,0,0,0,1,4,1,2,1,1
00:54:00,3,1,2,1,0,0,3,1,1
00:55:00,4,0,0,1,1,4,0,1,1
00:56:00,0,1,2,3,1,2,1,1,1
00:57:00,2,0,3,0,1,2,2,1,1
00:58:00,1,1,2,4,2,2,5,2,2
00:59:00,1,0,3,4,4,1,3,2,2
01:00:00,1,1,0,0,2,4,1,1,1
01:01:00,0,0,1,2,0,2,2,1,1
01:02:00,0,1,2,2,0,2,2,1,1
01:03:00,1,3,0,5,2,1,5,2,2
01:04:00,0,0,1,1,2,4,9,1,2
01:05:00,1,0,1,0,1,0,3,1,1
01:06:00,0,1,0,1,1,2,4,1,1
01:07:00,4,3,1,2,2,1,2,2,2
01:08:00,1,0,1,0,2,1,0,1,1
01:09:00,0,0,3,2,3,6,5,2,3
01:10:00,1,1,0,0,0,1,5,0,1
01:11:00,1,1,0,3,2,1,4,1,2
01:12:00,3,0,1,2,2,3,3,2,2
01:13:00,0,3,2,1,0,1,5,1,2
01:14:00,0,4,1,3,1,2,2,2,2
01:15:00,1,2,0,0,2,2,1,1,1
01:16:00,1,0,1,0,0,1,2,0,1
01:17:00,0,2,0,3,1,0,4,1,1
01:18:00,1,1,1,1,1,3,1,1,1
01:19:00,0,1,2,0,2,4,6,1,2
01:20:00,1,2,0,1,2,2,5,1,2
01:21:00,0,1,0,1,1,0,5,1,1
01:22:00,3,0,2,2,2,5,4,2,3
01:23:00,0,0,2,0,1,3,2,1,1
01:24:00,1,2,0,5,1,2,2,2,2
01:25:00,1,4,0,0,0,0,5,1,1
01:26:00,0,3,1,0,3,3,4,1,2
01:27:00,0,1,0,1,2,5,1,1,1
01:28:00,1,3,1,2,0,1,7,1,2
01:29:00,1,0,2,0,3,6,1,1,2
01:30:00,2,3,0,0,2,3,1,1,2
01:31:00,1,0,3,1,2,2,2,1,2
01:32:00,3,1,0,1,2,3,2,1,2
01:33:00,0,1,0,1,1,0,1,1,1
01:34:00,1,1,2,2,2,0,3,2,2
01:35:00,0,1,2,1,1,1,3,1,1
01:36:00,2,1,0,0,2,1,4,1,1
01:37:00,1,1,1,2,2,3,2,1,2
01:38:00,1,0,0,0,0,0,1,0,0
01:39:00,1,1,1,1,0,0,2,1,1
01:40:00,0,2,1,1,3,0,1,1,1
01:41:00,2,0,0,2,0,0,1,1,1
01:42:00,1,0,2,1,2,9,3,1,3
01:43:00,0,2,1,1,0,1,2,1,1
01:44:00,0,2,0,0,0,2,2,0,1
01:45:00,2,1,1,1,0,2,0,1,1
01:46:00,1,1,0,2,1,6,2,1,2
01:47:00,0,1,1,3,0,4,2,1,2
01:48:00,0,2,0,3,0,1,1,1,1
01:49:00,0,0,0,1,4,4,2,1,2
01:50:00,2,2,0,2,1,5,3,1,2
01:51:00,1,1,0,1,1,2,2,1,1
01:52:00,0,2,3,0,2,1,4,1,2
01:53:00,3,1,1,1,1,1,3,1,2
01:54:00,2,1,1,0,0,2,2,1,1
01:55:00,0,4,0,1,2,2,3,1,2
01:56:00,1,0,1,0,1,2,1,1,1
01:57:00,0,0,0,0,1,1,1,0,0
01:58:00,1,0,1,0,0,2,3,0,1
01:59:00,3,1,1,2,1,1,0,2,1
02:00:00,3,1,0,1,4,3,3,2,2
02:01:00,2,2,0,2,2,0,3,2,2
02:02:00,1,2,0,0,0,0,1,1,1
02:03:00,0,2,0,1,2,2,3,1,1
02:04:00,0,0,0,3,1,1,3,1,1
02:05:00,0,1,0,1,1,0,5,1,1
02:06:00,0,0,0,0,1,1,2,0,1
02:07:00,1,0,2,3,1,1,4,1,2
02:08:00,1,3,2,0,0,0,4,1,1
02:09:00,1,0,0,0,1,0,2,0,1
02:10:00,0,3,0,3,0,0,1,1,1
02:11:00,0,1,3,1,0,2,1,1,1
02:12:00,0,2,1,0,0,1,2,1,1
02:13:00,2,2,1,1,2,1,1,2,1
02:14:00,0,0,0,1,2,0,4,1,1
02:15:00,1,3,2,0,2,1,1,2,1
02:16:00,1,2,0,1,2,1,2,1,1
02:17:00,1,0,0,0,0,0,1,0,0
02:18:00,3,0,0,0,1,0,1,1,1
02:19:00,3,1,0,1,0,4,5,1,2
02:20:00,0,0,3,0,1,0,1,1,1
02:21:00,0,0,0,0,1,0,1,0,0
02:22:00,1,0,0,0,3,0,3,1,1
02:23:00,1,0,1,0,2,1,1,1,1
02:24:00,1,0,0,1,0,0,0,0,0
02:25:00,1,0,0,0,1,2,4,0,1
02:26:00,1,1,1,1,2,1,3,1,1
02:27:00,0,2,1,1,1,0,0,1,1
02:28:00,1,1,0,0,1,1,0,1,1
02:29:00,0,0,1,1,1,1,2,1,1
02:30:00,1,1,1,0,0,1,1,1,1
02:31:00,0,0,0,0,0,0,1,0,0
02:32:00,4,0,0,1,0,1,1,1,1
02:33:00,2,1,2,2,1,3,1,2,2
02:34:00,0,1,0,1,1,1,0,1,1
02:35:00,0,1,1,0,1,0,3,1,1
02:36:00,2,0,3,0,1,3,3,1,2
02:37:00,0,0,0,1,1,0,1,0,0
02:38:00,2,1,0,1,0,1,2,1,1
02:39:00,0,0,0,1,1,1,1,0,1
02:40:00,0,0,2,1,1,1,0,1,1
02:41:00,0,1,2,0,0,0,2,1,1
02:42:00,1,0,0,2,3,2,2,1,1
02:43:00,1,0,0,0,3,0,0,1,1
02:44:00,2,0,0,2,0,4,0,1,1
02:45:00,1,0,1,0,1,3,1,1,1
02:46:00,0,0,0,0,0,1,0,0,0
02:47:00,1,0,0,2,2,1,0,1,1
02:48:00,2,0,1,0,1,1,3,1,1
02:49:00,1,1,2,0,2,0,2,1,1
02:50:00,1,1,0,1,5,2,3,2,2
02:51:00,2,0,1,3,1,2,2,1,2
02:52:00,1,1,3,3,1,1,1,2,2
02:53:00,0,2,3,2,0,2,1,1,1
02:54:00,1,2,0,2,2,0,0,1,1
02:55:00,0,2,2,0,4,2,2,2,2
02:56:00,1,2,3,0,2,0,0,2,1
02:57:00,0,0,2,0,1,2,0,1,1
02:58:00,1,4,0,0,1,0,0,1,1
02:59:00,1,0,4,1,0,2,0,1,1
03:00:00,2,2,1,2,1,3,2,2,2
03:01:00,3,2,0,1,1,1,1,1,1
03:02:00,1,1,1,2,2,0,1,1,1
03:03:00,0,0,0,0,2,1,0,0,0
03:04:00,2,1,1,3,1,2,2,2,2
03:05:00,0,2,0,2,0,3,0,1,1
03:06:00,1,1,2,2,2,4,1,2,2
03:07:00,2,1,2,0,1,1,0,1,1
03:08:00,0,1,0,1,0,1,3,0,1
03:09:00,0,0,0,3,0,2,2,1,1
03:10:00,2,0,1,0,1,0,3,1,1
03:11:00,0,1,1,1,0,2,2,1,1
03:12:00,2,0,0,0,0,0,2,0,1
03:13:00,1,1,1,2,0,3,3,1,2
03:14:00,1,0,2,2,2,4,2,1,2
03:15:00,1,2,1,1,0,3,2,1,1
03:16:00,0,1,2,1,1,0,2,1,1
03:17:00,0,2,0,0,1,1,1,1,1
03:18:00,1,0,3,2,2,4,0,2,2
03:19:00,0,2,0,0,0,5,0,0,1
03:20:00,1,2,1,2,1,1,0,1,1
03:21:00,0,1,2,1,3,2,3,1,2
03:22:00,2,1,0,0,2,2,4,1,2
03:23:00,0,1,1,4,3,2,4,2,2
03:24:00,0,0,0,1,1,1,3,0,1
03:25:00,1,0,0,1,2,1,0,1,1
03:26:00,0,2,0,3,1,1,2,1,1
03:27:00,1,0,4,3,0,1,1,2,1
03:28:00,0,0,2,2,1,2,0,1,1
03:29:00,0,1,0,0,3,2,2,1,1
03:30:00,0,0,1,0,0,0,2,0,0
03:31:00,1,1,1,1,2,4,1,1,2
03:32:00,1,3,1,1,1,1,3,1,2
03:33:00,1,2,2,2,1,3,1,2,2
03:34:00,1,1,1,1,2,1,2,1,1
03:35:00,0,0,0,0,0,1,0,0,0
03:36:00,0,0,1,1,0,1,0,0,0
03:37:00,0,2,2,0,0,3,2,1,1
03:38:00,0,2,0,2,2,0,3,1,1
03:39:00,1,2,1,0,2,1,3,1,1
03:40:00,0,1,0,1,0,2,1,0,1
03:41:00,1,0,2,0,0,2,1,1,1
03:42:00,1,0,1,1,1,0,1,1,1
03:43:00,0,2,0,2,2,0,3,1,1
03:44:00,2,2,0,0,1,0,1,1,1
03:45:00,1,1,1,4,4,1,1,2,2
03:46:00,0,0,0,0,0,1,2,0,0
03:47:00,1,1,2,1,1,0,1,1,1
03:48:00,0,1,0,1,0,3,5,0,1
03:49:00,0,2,1,3,0,0,1,1,1
03:50:00,1,1,1,0,0,1,1,1,1
03:51:00,0,0,2,0,1,0,1,1,1
03:52:00,1,2,2,0,0,1,2,1,1
03:53:00,2,0,1,0,1,1,2,1,1
03:54:00,1,2,1,0,1,3,2,1,1
03:55:00,2,0,3,0,1,0,2,1,1
03:56:00,1,0,1,1,1,3,0,1,1
03:57:00,3,0,3,1,0,2,1,1,1
03:58:00,0,1,0,0,1,1,2,0,1
03:59:00,0,1,2,1,2,1,4,1,2
04:00:00,3,2,1,3,0,1,2,2,2
04:01:00,0,1,1,0,3,1,4,1,1
04:02:00,1,0,0,0,0,2,1,0,1
04:03:00,4,1,0,0,0,3,3,1,2
04:04:00,0,1,1,2,1,3,2,1,1
04:05:00,1,0,5,0,2,1,3,2,2
04:06:00,2,2,2,0,0,1,1,1,1
04:07:00,1,1,1,0,0,0,1,1,1
04:08:00,0,0,1,0,2,1,2,1,1
04:09:00,1,2,1,2,0,1,3,1,1
04:10:00,0,2,1,2,1,2,2,1,1
04:11:00,2,1,1,2,0,3,0,1,1
04:12:00,0,2,3,2,1,6,1,2,2
04:13:00,6,2,4,2,1,2,1,3,3
04:14:00,6,2,2,0,3,4,3,3,3
04:15:00,1,5,2,0,3,0,0,2,2
04:16:00,1,2,2,1,2,5,1,2,2
04:17:00,3,3,2,3,4,1,2,3,3
04:18:00,2,1,3,1,3,1,5,2,2
04:19:00,2,1,2,3,2,4,2,2,2
04:20:00,4,3,1,1,0,1,4,2,2
04:21:00,2,1,2,0,4,1,6,2,2
04:22:00,5,2,1,2,3,3,2,3,3
04:23:00,3,3,2,0,0,1,1,2,1
04:24:00,2,1,2,4,1,2,4,2,2
04:25:00,0,3,1,1,2,3,1,1,2
04:26:00,3,1,4,1,4,3,1,3,2
04:27:00,3,4,1,2,0,3,4,2,2
04:28:00,2,2,1,3,6,3,2,3,3
04:29:00,2,1,1,0,1,2,1,1,1
04:30:00,1,0,0,1,5,0,1,1,1
04:31:00,0,1,5,3,1,2,4,2,2
04:32:00,2,5,1,2,3,0,3,3,2
04:33:00,1,0,1,0,4,3,1,1,1
04:34:00,2,2,4,3,0,1,1,2,2
04:35:00,4,4,4,2,7,2,0,4,3
04:36:00,3,3,2,1,3,2,1,2,2
04:37:00,5,3,6,1,1,3,0,3,3
04:38:00,2,5,4,5,5,2,3,4,4
04:39:00,3,8,3,1,3,0,2,4,3
04:40:00,2,3,4,4,3,1,1,3,3
04:41:00,5,5,7,3,3,4,3,5,4
04:42:00,6,6,5,4,5,0,3,5,4
04:43:00,4,2,3,4,4,5,2,3,3
04:44:00,3,6,2,7,5,4,2,5,4
04:45:00,1,3,6,4,7,4,2,4,4
04:46:00,5,4,4,4,6,3,3,5,4
04:47:00,5,6,2,1,8,4,5,4,4
04:48:00,2,4,6,2,5,1,1,4,3
04:49:00,5,5,3,6,4,2,2,5,4
04:50:00,4,5,7,13,5,2,2,7,5
04:51:00,3,6,8,4,11,2,1,6,5
04:52:00,6,7,7,3,3,1,0,5,4
04:53:00,6,5,9,4,1,2,2,5,4
04:54:00,6,2,1,2,1,2,0,2,2
04:55:00,1,6,6,6,6,3,2,5,4
04:56:00,3,4,5,5,1,3,3,4,3
04:57:00,0,9,4,3,9,2,2,5,4
04:58:00,5,5,8,4,7,1,1,6,4
04:59:00,5,4,3,7,9,1,2,6,4
05:00:00,5,4,4,12,5,4,2,6,5
05:01:00,2,6,4,6,14,4,1,6,5
05:02:00,4,5,10,4,4,2,1,5,4
05:03:00,4,4,5,5,3,2,1,4,3
05:04:00,10,6,5,4,4,1,2,6,5
05:05:00,5,6,8,6,3,3,2,6,5
05:06:00,5,10,3,12,6,3,4,7,6
05:07:00,8,8,13,8,6,2,2,9,7
05:08:00,8,8,8,9,7,3,1,8,6
05:09:00,4,6,3,7,4,2,1,5,4
05:10:00,4,10,4,3,4,5,0,5,4
05:11:00,7,5,7,9,6,3,1,7,5
05:12:00,6,5,10,2,5,7,2,6,5
05:13:00,13,13,5,4,5,6,1,8,7
05:14:00,7,5,5,5,4,2,1,5,4
05:15:00,8,9,4,2,4,2,3,5,5
05:16:00,5,8,6,7,4,3,0,6,5
05:17:00,8,8,7,8,6,5,4,7,7
05:18:00,7,3,8,8,7,11,1,7,6
05:19:00,3,9,5,4,9,5,4,6,6
05:20:00,6,5,8,9,3,3,1,6,5
05:21:00,6,8,4,8,8,6,1,7,6
05:22:00,9,12,6,8,7,5,3,8,7
05:23:00,5,6,3,3,3,2,4,4,4
05:24:00,3,5,6,7,9,5,3,6,5
05:25:00,8,7,4,6,7,7,4,6,6
05:26:00,6,8,9,11,7,5,2,8,7
05:27:00,8,9,13,7,9,3,4,9,8
05:28:00,12,7,9,8,2,8,0,8,7
05:29:00,7,5,3,5,7,3,2,5,5
05:30:00,8,8,6,8,6,0,4,7,6
05:31:00,5,8,8,8,10,2,5,8,7
05:32:00,8,11,4,12,3,4,1,8,6
05:33:00,7,9,10,7,2,6,5,7,7
05:34:00,8,7,3,3,1,4,1,4,4
05:35:00,9,12,7,8,10,4,3,9,8
05:36:00,6,11,8,7,7,3,2,8,6
05:37:00,13,10,6,8,9,4,2,9,7
05:38:00,9,8,4,11,12,3,1,9,7
05:39:00,11,6,12,13,7,5,0,10,8
05:40:00,7,8,3,6,6,4,3,6,5
05:41:00,7,5,6,8,12,8,3,8,7
05:42:00,5,15,4,8,7,7,4,8,7
05:43:00,10,10,13,6,8,3,3,9,8
05:44:00,5,8,5,9,10,5,1,7,6
05:45:00,12,5,10,7,6,4,5,8,7
05:46:00,4,8,5,11,8,4,5,7,6
05:47:00,3,5,6,9,8,3,3,6,5
05:48:00,8,15,10,14,13,2,2,12,9
05:49:00,13,4,5,8,7,4,4,7,6
05:50:00,3,17,8,8,2,5,1,8,6
05:51:00,14,7,5,5,5,5,3,7,6
05:52:00,8,6,11,9,6,2,1,8,6
05:53:00,6,5,12,11,7,3,1,8,6
05:54:00,12,6,10,7,9,2,2,9,7
05:55:00,5,7,3,11,7,3,3,7,6
05:56:00,8,9,10,9,13,2,2,10,8
05:57:00,11,15,7,6,11,1,0,10,7
05:58:00,7,9,14,2,5,6,1,7,6
05:59:00,6,7,16,8,11,2,0,10,7
06:00:00,7,11,4,8,11,3,7,8,7
06:01:00,7,9,13,8,13,3,3,10,8
06:02:00,6,9,18,14,9,3,3,11,9
06:03:00,9,11,12,11,9,3,1,10,8
06:04:00,7,8,15,10,9,1,3,10,8
06:05:00,18,11,13,6,14,3,1,12,9
06:06:00,10,16,10,12,11,2,0,12,9
06:07:00,9,10,14,6,9,4,4,10,8
06:08:00,15,13,7,9,10,2,3,11,8
06:09:00,6,13,13,14,14,4,3,12,10
06:10:00,15,9,8,6,19,5,1,11,9
06:11:00,7,10,11,15,7,3,3,10,8
06:12:00,12,7,9,20,4,1,3,10,8
06:13:00,5,11,9,6,9,3,2,8,6
06:14:00,8,19,17,9,11,1,4,13,10
06:15:00,10,10,14,17,7,4,2,12,9
06:16:00,10,14,14,15,14,8,1,13,11
06:17:00,13,14,5,13,10,10,5,11,10
06:18:00,10,8,10,11,6,7,4,9,8
06:19:00,15,10,18,12,21,2,1,15,11
06:20:00,14,14,10,17,11,7,1,13,11
06:21:00,13,14,7,12,8,6,2,11,9
06:22:00,13,18,12,5,12,13,3,12,11
06:23:00,10,10,11,15,9,8,2,11,9
06:24:00,15,12,16,17,7,5,3,13,11
06:25:00,11,16,16,11,11,3,1,13,10
06:26:00,20,16,12,7,13,6,3,14,11
06:27:00,13,11,14,16,10,10,4,13,11
06:28:00,10,7,13,26,19,7,4,15,12
06:29:00,15,13,19,9,9,5,3,13,10
06:30:00,12,7,13,21,13,5,4,13,11
06:31:00,15,15,9,8,11,10,1,12,10
06:32:00,19,19,12,15,20,3,5,17,13
06:33:00,3,15,18,14,9,5,5,12,10
06:34:00,10,10,10,9,20,4,4,12,10
06:35:00,23,18,18,27,13,5,3,20,15
06:36:00,12,11,12,14,13,4,8,12,11
06:37:00,23,18,22,16,9,5,6,18,14
06:38:00,20,17,18,9,19,7,6,17,14
06:39:00,13,20,20,21,13,7,2,17,14
06:40:00,20,13,14,14,16,9,3,15,13
06:41:00,14,18,21,16,16,12,3,17,14
06:42:00,9,18,17,22,24,7,3,18,14
06:43:00,20,19,14,15,13,6,6,16,13
06:44:00,18,14,20,16,14,6,4,16,13
06:45:00,24,14,18,13,18,6,7,17,14
06:46:00,25,21,21,20,20,3,3,21,16
06:47:00,9,18,19,23,20,17,4,18,16
06:48:00,16,21,20,17,11,10,8,17,15
06:49:00,21,15,19,20,17,11,3,18,15
06:50:00,13,7,9,20,15,6,8,13,11
06:51:00,14,22,18,15,19,6,7,18,14
06:52:00,21,21,19,21,11,11,8,19,16
06:53:00,13,24,13,26,18,7,5,19,15
06:54:00,17,22,10,17,26,8,4,18,15
06:55:00,18,19,17,21,13,9,1,18,14
06:56:00,22,18,10,22,17,5,3,18,14
06:57:00,24,27,13,17,14,7,4,19,15
06:58:00,23,29,16,11,19,7,1,20,15
06:59:00,13,10,32,20,22,2,4,19,15
07:00:00,10,24,18,19,21,7,4,18,15
07:01:00,23,21,24,15,12,7,2,19,15
07:02:00,23,18,22,13,16,4,4,18,14
07:03:00,23,21,9,18,20,11,2,18,15
07:04:00,20,23,15,22,19,6,4,20,16
07:05:00,20,26,30,9,10,8,5,19,15
07:06:00,25,14,19,32,19,4,2,22,16
07:07:00,23,25,26,28,24,5,6,25,20
07:08:00,18,21,27,25,18,12,2,22,18
07:09:00,29,19,14,30,22,5,5,23,18
07:10:00,28,20,15,14,19,10,3,19,16
07:11:00,17,22,19,14,14,7,6,17,14
07:12:00,19,18,26,21,16,7,3,20,16
07:13:00,26,30,21,28,23,3,2,26,19
07:14:00,20,26,28,21,14,7,7,22,18
07:15:00,24,16,17,27,20,4,8,21,17
07:16:00,13,20,38,33,26,8,2,26,20
07:17:00,26,32,23,19,23,8,4,25,19
07:18:00,20,10,27,27,29,9,5,23,18
07:19:00,30,33,25,25,18,9,4,26,21
07:20:00,25,17,26,19,20,7,6,21,17
07:21:00,20,28,30,12,17,12,3,21,17
07:22:00,28,28,28,30,21,10,4,27,21
07:23:00,23,22,26,18,36,8,7,25,20
07:24:00,22,25,26,29,22,3,4,25,19
07:25:00,22,14,23,28,23,3,6,22,17
07:26:00,32,27,24,24,26,8,11,27,22
07:27:00,27,34,13,22,24,19,3,24,20
07:28:00,27,29,35,35,20,4,5,29,22
07:29:00,26,30,26,27,27,10,9,27,22
07:30:00,23,15,19,17,24,12,5,20,16
07:31:00,26,33,33,34,25,13,4,30,24
07:32:00,17,29,13,14,26,2,5,20,15
07:33:00,27,26,22,42,24,13,5,28,23
07:34:00,23,26,32,23,21,14,2,25,20
07:35:00,21,24,28,33,14,15,5,24,20
07:36:00,26,18,28,31,30,10,2,27,21
07:37:00,22,27,13,30,17,11,4,22,18
07:38:00,22,17,29,22,30,10,1,24,19
07:39:00,21,24,17,20,26,3,6,22,17
07:40:00,24,17,28,18,18,10,2,21,17
07:41:00,26,26,28,28,31,13,8,28,23
07:42:00,14,26,18,31,18,17,3,21,18
07:43:00,36,22,21,30,34,5,1,29,21
07:44:00,16,21,13,34,19,12,3,21,17
07:45:00,28,22,24,24,19,5,8,23,19
07:46:00,21,37,30,26,24,17,3,28,23
07:47:00,26,20,15,18,18,21,7,19,18
07:48:00,15,29,29,25,31,15,2,26,21
07:49:00,22,13,32,36,31,11,3,27,21
07:50:00,28,18,29,21,22,14,6,24,20
07:51:00,22,39,15,19,27,9,7,24,20
07:52:00,29,24,22,28,22,7,4,25,19
07:53:00,26,27,27,33,22,16,4,27,22
07:54:00,30,21,26,23,22,9,5,24,19
07:55:00,23,26,22,20,21,7,2,22,17
07:56:00,18,14,13,23,26,11,6,19,16
07:57:00,31,33,31,13,14,8,7,24,20
07:58:00,15,8,13,34,22,14,5,18,16
07:59:00,31,25,29,13,27,8,3,25,19
08:00:00,9,24,21,31,7,17,5,18,16
08:01:00,31,23,30,22,29,6,8,27,21
08:02:00,11,20,21,17,14,15,7,17,15
08:03:00,30,13,13,10,25,9,5,18,15
08:04:00,17,27,19,15,16,6,6,19,15
08:05:00,24,18,9,22,29,7,8,20,17
08:06:00,24,29,32,18,16,5,8,24,19
08:07:00,18,17,22,22,30,9,8,22,18
08:08:00,40,23,28,23,17,13,2,26,21
08:09:00,10,26,14,15,18,12,5,17,14
08:10:00,28,23,25,25,16,9,9,23,19
08:11:00,12,19,14,26,23,16,3,19,16
08:12:00,25,10,29,22,25,11,5,22,18
08:13:00,10,37,20,15,21,17,5,21,18
08:14:00,26,17,18,24,16,12,11,20,18
08:15:00,12,32,25,18,20,9,6,21,17
08:16:00,21,13,15,19,19,15,7,17,16
08:17:00,25,36,29,23,15,13,7,26,21
08:18:00,25,15,15,21,24,15,4,20,17
08:19:00,30,26,22,26,15,13,6,24,20
08:20:00,22,22,21,26,36,15,5,25,21
08:21:00,18,27,32,19,23,7,10,24,19
08:22:00,21,20,10,27,22,18,3,20,17
08:23:00,25,29,24,31,40,16,8,30,25
08:24:00,15,18,14,26,16,15,11,18,16
08:25:00,25,22,32,27,26,9,9,26,21
08:26:00,26,19,18,21,26,10,4,22,18
08:27:00,23,21,24,25,18,21,9,22,20
08:28:00,10,25,25,14,28,20,2,20,18
08:29:00,14,25,12,14,21,22,6,17,16
08:30:00,19,20,28,22,32,18,9,24,21
08:31:00,27,14,12,31,14,13,5,20,17
08:32:00,18,26,22,16,26,17,4,22,18
08:33:00,21,14,16,16,23,19,4,18,16
08:34:00,21,25,22,28,29,17,16,25,23
08:35:00,26,9,12,25,25,12,8,19,17
08:36:00,22,24,31,21,15,18,2,23,19
08:37:00,23,23,27,25,25,10,5,25,20
08:38:00,17,17,18,23,16,16,14,18,17
08:39:00,27,27,19,20,15,13,13,22,19
08:40:00,15,21,18,23,21,9,14,20,17
08:41:00,17,25,30,20,18,9,8,22,18
08:42:00,13,14,25,29,10,13,6,18,16
08:43:00,23,27,13,11,34,15,4,22,18
08:44:00,15,13,31,31,25,26,5,23,21
08:45:00,28,20,18,18,23,16,9,21,19
08:46:00,15,28,23,19,28,11,12,23,19
08:47:00,18,12,15,23,14,20,8,16,16
08:48:00,14,23,18,16,25,9,11,19,17
08:49:00,24,12,17,17,14,22,11,17,17
08:50:00,24,28,21,21,24,18,7,24,20
08:51:00,19,15,30,24,23,18,13,22,20
08:52:00,26,24,16,17,18,15,16,20,19
08:53:00,15,17,21,26,18,8,3,19,15
08:54:00,25,16,18,20,22,18,4,20,18
08:55:00,7,20,20,26,26,11,16,20,18
08:56:00,25,25,19,16,14,19,10,20,18
08:57:00,22,30,18,21,30,12,4,24,20
08:58:00,11,12,17,20,15,14,6,15,14
08:59:00,30,29,26,15,7,18,9,21,19
09:00:00,13,21,12,20,25,12,6,18,16
09:01:00,24,23,25,19,12,11,9,21,18
09:02:00,13,15,26,22,22,16,11,20,18
09:03:00,16,32,16,18,17,14,12,20,18
09:04:00,29,7,18,28,20,13,7,20,17
09:05:00,15,28,14,10,19,13,9,17,15
09:06:00,21,13,19,33,14,15,13,20,18
09:07:00,19,16,27,20,27,15,14,22,20
09:08:00,25,26,13,20,17,10,11,20,17
09:09:00,21,13,26,32,27,19,8,24,21
09:10:00,14,18,8,18,28,16,1,17,15
09:11:00,9,31,28,26,28,15,12,24,21
09:12:00,21,9,13,17,21,18,15,16,16
09:13:00,20,38,25,24,20,21,6,25,22
09:14:00,23,17,16,23,11,14,6,18,16
09:15:00,22,22,18,24,18,21,13,21,20
09:16:00,13,14,27,23,11,20,12,18,17
09:17:00,26,12,19,14,25,17,7,19,17
09:18:00,21,20,31,18,10,17,4,20,17
09:19:00,18,32,13,20,35,12,10,24,20
09:20:00,23,17,26,12,20,19,8,20,18
09:21:00,9,26,24,13,20,15,9,18,17
09:22:00,18,23,18,20,13,23,8,18,18
09:23:00,20,18,23,22,17,8,18,20,18
09:24:00,25,27,21,23,15,21,8,22,20
09:25:00,24,15,27,23,26,17,5,23,20
09:26:00,29,29,11,21,19,29,12,22,21
09:27:00,23,16,30,17,30,21,16,23,22
09:28:00,25,24,16,17,16,19,23,20,20
09:29:00,16,23,18,15,16,16,12,18,17
09:30:00,8,12,24,30,23,29,10,19,19
09:31:00,19,14,16,25,27,14,10,20,18
09:32:00,17,26,22,25,20,21,12,22,20
09:33:00,25,13,15,19,30,13,6,20,17
09:34:00,17,29,27,11,14,13,18,20,18
09:35:00,18,26,14,18,23,26,16,20,20
09:36:00,21,22,28,10,19,14,14,20,18
09:37:00,21,30,24,27,7,25,18,22,22
09:38:00,14,19,20,23,30,18,26,21,21
09:39:00,30,23,26,27,26,17,10,26,23
09:40:00,12,16,18,25,23,17,16,19,18
09:41:00,28,12,22,22,28,28,15,22,22
09:42:00,19,21,30,28,10,15,23,22,21
09:43:00,16,23,20,10,24,14,17,19,18
09:44:00,33,29,17,26,15,26,12,24,23
09:45:00,17,23,17,16,16,9,8,18,15
09:46:00,14,29,21,16,17,22,22,19,20
09:47:00,17,17,14,25,13,13,20,17,17
09:48:00,28,18,20,16,25,20,10,21,20
09:49:00,16,20,17,18,18,29,14,18,19
09:50:00,18,30,15,15,24,17,21,20,20
09:51:00,19,12,17,13,25,2,14,17,15
09:52:00,17,14,19,28,16,32,12,19,20
09:53:00,29,23,10,17,25,22,13,21,20
09:54:00,13,20,14,18,16,22,15,16,17
09:55:00,23,17,26,20,14,11,11,20,17
09:56:00,27,20,21,14,18,16,18,20,19
09:57:00,11,15,13,31,22,14,9,18,16
09:58:00,14,17,19,15,25,17,14,18,17
09:59:00,25,19,13,14,15,30,24,17,20
10:00:00,23,23,22,25,21,21,15,23,21
10:01:00,16,16,15,14,35,17,13,19,18
10:02:00,29,19,13,15,17,20,12,19,18
10:03:00,17,15,22,24,26,17,28,21,21
10:04:00,16,9,22,16,21,21,13,17,17
10:05:00,28,18,23,20,25,13,21,23,21
10:06:00,12,18,14,26,20,18,13,18,17
10:07:00,22,23,16,12,15,17,15,18,17
10:08:00,12,13,14,19,15,19,24,15,17
10:09:00,19,14,21,19,15,18,8,18,16
10:10:00,20,29,16,25,13,24,19,21,21
10:11:00,20,10,14,13,20,24,13,15,16
10:12:00,23,18,11,16,22,28,27,18,21
10:13:00,19,18,24,19,13,19,10,19,17
10:14:00,13,16,21,22,20,27,12,18,19
10:15:00,11,18,11,30,28,17,11,20,18
10:16:00,16,19,19,25,34,14,14,23,20
10:17:00,18,31,27,17,24,22,31,23,24
10:18:00,19,14,13,15,22,13,23,17,17
10:19:00,19,22,19,18,22,17,16,20,19
10:20:00,13,16,21,21,25,18,13,19,18
10:21:00,25,13,18,20,14,20,21,18,19
10:22:00,8,26,27,33,19,21,13,23,21
10:23:00,19,20,21,13,18,18,13,18,17
10:24:00,20,11,19,24,22,24,15,19,19
10:25:00,23,17,25,25,17,24,19,21,21
10:26:00,14,14,18,16,22,25,18,17,18
10:27:00,18,17,20,24,12,23,23,18,20
10:28:00,22,12,13,17,23,12,28,17,18
10:29:00,18,23,15,11,20,19,20,17,18
10:30:00,21,20,15,23,16,19,13,19,18
10:31:00,20,32,19,19,16,14,23,21,20
10:32:00,15,14,27,22,20,20,11,20,18
10:33:00,23,21,9,36,25,28,19,23,23
10:34:00,22,17,17,24,13,16,14,19,18
10:35:00,14,24,22,19,24,27,10,21,20
10:36:00,19,22,15,23,22,31,24,20,22
10:37:00,15,15,27,21,26,8,14,21,18
10:38:00,11,20,22,23,21,32,14,19,20
10:39:00,22,17,15,23,30,17,27,21,22
10:40:00,21,16,22,33,16,30,15,22,22
10:41:00,9,15,20,16,28,26,24,18,20
10:42:00,27,15,15,19,20,22,14,19,19
10:43:00,12,13,16,14,17,16,27,14,16
10:44:00,14,21,24,24,21,11,32,21,21
10:45:00,13,19,27,15,23,26,13,19,19
10:46:00,28,26,18,20,15,13,22,21,20
10:47:00,27,21,17,18,21,25,24,21,22
10:48:00,14,24,24,19,31,29,13,22,22
10:49:00,23,24,20,24,13,22,27,21,22
10:50:00,23,21,17,23,24,15,17,22,20
10:51:00,23,18,25,14,22,26,13,20,20
10:52:00,14,24,26,21,27,22,10,22,21
10:53:00,22,25,25,20,19,24,29,22,23
10:54:00,30,13,18,16,15,22,11,18,18
10:55:00,14,13,26,20,28,17,27,20,21
10:56:00,17,27,9,21,23,22,21,19,20
10:57:00,31,13,14,19,14,29,21,18,20
10:58:00,23,17,21,15,18,20,26,19,20
10:59:00,13,28,25,24,16,18,18,21,20
11:00:00,28,16,19,18,20,23,23,20,21
11:01:00,27,21,10,18,21,21,17,19,19
11:02:00,24,15,24,26,27,26,26,23,24
11:03:00,18,23,26,18,16,20,19,20,20
11:04:00,12,19,18,23,27,27,24,20,21
11:05:00,22,10,18,25,31,8,23,21,20
11:06:00,19,31,11,10,7,31,15,16,18
11:07:00,23,18,21,21,26,12,34,22,22
11:08:00,26,22,15,30,21,26,20,23,23
11:09:00,25,24,21,17,27,17,16,23,21
11:10:00,13,24,27,28,31,30,27,25,26
11:11:00,19,22,24,24,13,18,18,20,20
11:12:00,16,14,14,13,19,32,18,15,18
11:13:00,19,17,25,24,17,18,18,20,20
11:14:00,28,19,16,22,25,30,19,22,23
11:15:00,13,20,14,21,18,20,30,17,19
11:16:00,19,15,32,27,22,27,19,23,23
11:17:00,32,26,28,29,16,13,31,26,25
11:18:00,28,15,26,18,15,28,16,20,21
11:19:00,13,14,25,21,30,32,26,21,23
11:20:00,19,32,21,24,26,23,18,24,23
11:21:00,24,21,14,23,28,19,20,22,21
11:22:00,20,19,25,26,25,25,19,23,23
11:23:00,20,30,26,18,26,24,18,24,23
11:24:00,26,17,24,21,17,20,16,21,20
11:25:00,15,17,21,19,30,24,33,20,23
11:26:00,20,29,12,22,21,24,16,21,21
11:27:00,23,16,19,14,16,22,19,18,18
11:28:00,24,18,25,23,31,27,24,24,25
11:29:00,20,24,12,24,16,21,27,19,21
11:30:00,17,23,25,22,21,25,19,22,22
11:31:00,21,16,24,26,28,20,27,23,23
11:32:00,26,31,24,19,28,16,25,26,24
11:33:00,28,25,21,15,14,20,17,21,20
11:34:00,18,20,24,16,22,20,33,20,22
11:35:00,15,24,15,25,27,19,21,21,21
11:36:00,17,18,21,18,14,23,14,18,18
11:37:00,22,22,25,18,26,30,35,23,25
11:38:00,11,21,21,31,11,16,21,19,19
11:39:00,25,22,15,19,30,25,12,22,21
11:40:00,25,27,17,18,25,16,28,22,22
11:41:00,12,14,18,23,13,29,17,16,18
11:42:00,23,24,21,27,32,16,28,25,24
11:43:00,19,28,18,10,19,19,20,19,19
11:44:00,30,11,21,24,20,23,17,21,21
11:45:00,16,19,23,26,18,23,32,20,22
11:46:00,15,21,26,23,31,22,22,23,23
11:47:00,13,27,19,24,13,27,17,19,20
11:48:00,28,21,21,23,22,21,23,23,23
11:49:00,16,17,17,21,21,17,21,18,19
11:50:00,24,16,21,20,18,20,35,20,22
11:51:00,19,28,12,17,24,24,15,20,20
11:52:00,25,22,26,18,24,27,26,23,24
11:53:00,27,24,26,19,30,10,23,25,23
11:54:00,8,14,30,13,27,33,23,18,21
11:55:00,21,21,20,27,18,18,18,21,20
11:56:00,21,21,15,12,28,17,19,19,19
11:57:00,16,16,20,19,23,23,29,19,21
11:58:00,20,21,18,22,25,16,22,21,21
11:59:00,33,18,18,25,21,23,23,23,23
12:00:00,16,6,27,16,30,14,17,19,18
12:01:00,27,27,27,18,18,31,24,23,25
12:02:00,22,24,12,16,22,28,27,19,22
12:03:00,19,16,24,22,19,21,19,20,20
12:04:00,13,26,25,20,19,21,26,21,21
12:05:00,21,27,16,25,19,16,29,22,22
12:06:00,22,13,11,20,20,30,22,17,20
12:07:00,26,15,21,32,15,20,30,22,23
12:08:00,20,24,23,14,25,28,26,21,23
12:09:00,15,24,23,23,19,18,26,21,21
12:10:00,24,18,28,17,32,25,22,24,24
12:11:00,22,21,18,23,28,19,16,22,21
12:12:00,19,17,21,25,13,16,22,19,19
12:13:00,20,24,25,26,29,23,20,25,24
12:14:00,21,16,13,15,29,23,29,19,21
12:15:00,12,10,26,21,19,10,17,18,16
12:16:00,23,13,22,21,21,30,20,20,21
12:17:00,37,17,20,26,25,15,26,25,24
12:18:00,22,27,18,15,23,26,12,21,20
12:19:00,21,36,31,19,23,20,30,26,26
12:20:00,15,20,11,15,27,22,20,18,19
12:21:00,18,15,22,26,29,13,20,22,20
12:22:00,17,21,20,17,21,22,30,19,21
12:23:00,25,28,28,18,18,25,18,23,23
12:24:00,20,17,16,25,18,20,24,19,20
12:25:00,16,25,20,24,25,25,23,22,23
12:26:00,14,22,24,23,22,27,19,21,22
12:27:00,35,20,26,20,19,29,33,24,26
12:28:00,11,25,19,22,25,18,21,20,20
12:29:00,16,17,16,17,18,18,29,17,19
12:30:00,24,16,24,19,20,27,12,21,20
12:31:00,21,39,18,12,17,26,25,21,23
12:32:00,17,15,27,28,31,20,21,24,23
12:33:00,27,19,26,22,14,21,18,22,21
12:34:00,19,24,28,12,30,15,23,23,22
12:35:00,13,22,27,29,23,16,16,23,21
12:36:00,27,16,20,24,22,16,34,22,23
12:37:00,16,35,7,15,21,23,15,19,19
12:38:00,16,21,16,20,26,21,21,20,20
12:39:00,31,22,21,23,23,24,14,24,23
12:40:00,26,27,18,14,24,15,15,22,20
12:41:00,28,19,28,33,24,30,24,26,27
12:42:00,30,20,25,25,27,16,19,25,23
12:43:00,24,19,19,14,28,29,24,21,22
12:44:00,10,24,24,29,18,26,18,21,21
12:45:00,16,24,22,23,25,26,18,22,22
12:46:00,36,19,22,23,21,27,27,24,25
12:47:00,32,19,33,25,13,29,11,24,23
12:48:00,20,23,20,26,18,25,23,21,22
12:49:00,14,20,28,18,30,22,22,22,22
12:50:00,30,28,28,31,26,18,26,29,27
12:51:00,14,18,13,18,23,23,20,17,18
12:52:00,17,24,25,27,22,23,22,23,23
12:53:00,25,18,21,21,21,19,27,21,22
12:54:00,23,20,24,21,30,26,10,24,22
12:55:00,21,25,26,27,9,13,23,22,21
12:56:00,21,17,12,14,27,22,26,18,20
12:57:00,17,26,30,13,15,21,19,20,20
12:58:00,31,21,31,28,18,29,27,26,26
12:59:00,21,23,13,18,17,14,28,18,19
13:00:00,24,24,22,21,27,24,14,24,22
13:01:00,17,16,34,13,18,19,24,20,20
13:02:00,25,12,31,27,22,17,17,23,22
13:03:00,17,22,20,23,26,33,19,22,23
13:04:00,29,20,27,27,19,12,29,24,23
13:05:00,20,26,17,15,31,31,18,22,23
13:06:00,23,18,22,34,31,17,29,26,25
13:07:00,21,22,29,29,19,26,12,24,23
13:08:00,19,22,21,15,21,19,18,20,19
13:09:00,25,14,23,26,25,27,30,23,24
13:10:00,30,34,24,12,23,27,16,25,24
13:11:00,14,13,23,29,28,19,23,21,21
13:12:00,27,28,30,22,24,25,22,26,25
13:13:00,14,29,31,9,26,22,19,22,21
13:14:00,25,16,17,21,18,27,18,19,20
13:15:00,21,28,24,11,23,26,28,21,23
13:16:00,23,27,38,34,29,16,12,30,26
13:17:00,19,16,15,29,26,34,31,21,24
13:18:00,31,23,21,22,21,21,28,24,24
13:19:00,16,18,14,24,24,26,21,19,20
13:20:00,13,26,12,30,23,17,16,21,20
13:21:00,25,18,24,23,19,17,22,22,21
13:22:00,16,23,23,11,23,30,23,19,21
13:23:00,22,25,20,18,15,16,12,20,18
13:24:00,25,21,25,30,22,23,28,25,25
13:25:00,21,17,22,14,29,19,13,21,19
13:26:00,20,23,24,26,14,22,26,21,22
13:27:00,21,26,24,25,32,21,24,26,25
13:28:00,14,21,18,16,28,16,17,19,19
13:29:00,13,21,31,14,26,21,26,21,22
13:30:00,30,21,28,19,7,24,15,21,21
13:31:00,17,22,19,9,29,35,27,19,23
13:32:00,14,12,22,27,18,14,13,19,17
13:33:00,29,26,20,24,17,29,23,23,24
13:34:00,20,24,22,19,31,15,27,23,23
13:35:00,15,24,31,28,18,28,13,23,22
13:36:00,25,28,27,16,30,21,24,25,24
13:37:00,23,28,13,18,28,16,14,22,20
13:38:00,24,28,18,27,16,25,18,23,22
13:39:00,21,22,26,24,25,22,11,24,22
13:40:00,21,29,19,13,21,14,21,21,20
13:41:00,21,25,17,21,20,34,29,21,24
13:42:00,23,18,21,26,21,17,11,22,20
13:43:00,18,20,11,11,32,15,22,18,18
13:44:00,19,19,15,21,20,16,26,19,19
13:45:00,24,25,23,27,28,25,11,25,23
13:46:00,28,31,30,19,14,27,23,24,25
13:47:00,17,26,18,15,23,20,22,20,20
13:48:00,29,17,26,25,36,31,12,27,25
13:49:00,22,32,25,24,26,13,26,26,24
13:50:00,18,10,12,23,21,25,27,17,19
13:51:00,20,15,29,22,20,17,20,21,20
13:52:00,21,30,24,18,32,35,19,25,26
13:53:00,20,20,19,21,28,20,13,22,20
13:54:00,23,34,9,33,27,18,18,25,23
13:55:00,16,24,30,9,24,29,26,21,23
13:56:00,25,20,30,28,24,10,22,25,23
13:57:00,29,12,13,19,15,26,16,18,19
13:58:00,13,23,27,15,17,31,28,19,22
13:59:00,22,15,19,23,29,21,14,22,20
14:00:00,27,18,20,16,18,26,28,20,22
14:01:00,22,24,24,15,16,14,27,20,20
14:02:00,21,26,19,25,26,23,19,23,23
14:03:00,12,12,11,18,28,23,27,16,19
14:04:00,19,29,29,25,23,12,14,25,22
14:05:00,22,28,17,27,27,24,23,24,24
14:06:00,25,18,29,19,15,22,18,21,21
14:07:00,13,22,18,19,14,28,22,17,19
14:08:00,25,22,14,17,25,19,18,21,20
14:09:00,26,34,38,20,14,21,36,26,27
14:10:00,13,25,30,22,26,35,20,23,24
14:11:00,33,15,12,15,30,27,21,21,22
14:12:00,21,37,28,33,22,22,21,28,26
14:13:00,18,22,9,25,28,28,20,20,21
14:14:00,25,24,22,14,31,14,27,23,22
14:15:00,11,25,24,19,10,23,14,18,18
14:16:00,22,23,26,27,16,18,25,23,22
14:17:00,11,25,22,23,28,25,16,22,21
14:18:00,20,15,18,21,23,36,26,19,23
14:19:00,24,22,21,19,25,18,18,22,21
14:20:00,7,21,19,20,20,21,26,17,19
14:21:00,24,26,18,25,19,23,29,22,23
14:22:00,25,26,17,27,30,21,25,25,24
14:23:00,26,10,23,18,27,18,28,21,21
14:24:00,12,31,20,28,13,26,23,21,22
14:25:00,26,26,22,19,25,20,14,24,22
14:26:00,18,15,24,23,23,25,19,21,21
14:27:00,16,23,16,27,14,20,17,19,19
14:28:00,26,25,20,24,26,13,23,24,22
14:29:00,29,21,29,22,17,18,16,24,22
14:30:00,16,19,20,28,22,24,31,21,23
14:31:00,19,18,28,19,23,22,20,21,21
14:32:00,20,24,27,10,19,31,22,20,22
14:33:00,24,32,30,22,26,22,19,27,25
14:34:00,19,22,15,25,31,12,21,22,21
14:35:00,25,30,24,16,20,22,18,23,22
14:36:00,12,20,23,20,18,17,25,19,19
14:37:00,30,28,17,16,23,28,14,23,22
14:38:00,21,14,27,22,11,24,21,19,20
14:39:00,21,24,20,19,22,16,16,21,20
14:40:00,29,18,26,27,18,30,25,24,25
14:41:00,20,27,34,24,20,21,19,25,24
14:42:00,21,20,17,28,21,22,24,21,22
14:43:00,15,30,29,19,23,25,20,23,23
14:44:00,19,14,21,16,24,21,33,19,21
14:45:00,17,16,10,20,27,26,15,18,19
14:46:00,26,31,28,19,22,10,15,25,22
14:47:00,21,21,24,20,20,33,23,21,23
14:48:00,19,18,9,18,22,14,19,17,17
14:49:00,25,33,24,20,25,30,18,25,25
14:50:00,19,27,16,28,17,14,27,21,21
14:51:00,21,11,24,25,8,23,19,18,19
14:52:00,21,24,19,18,18,28,19,20,21
14:53:00,16,15,31,18,21,22,22,20,21
14:54:00,28,30,15,23,20,27,13,23,22
14:55:00,32,18,27,19,24,11,30,24,23
14:56:00,15,20,20,26,23,29,9,21,20
14:57:00,22,18,29,28,29,20,14,25,23
14:58:00,22,10,21,15,27,26,33,19,22
14:59:00,16,32,19,24,15,30,20,21,22
15:00:00,19,18,23,23,19,22,13,20,20
15:01:00,25,24,30,21,25,23,18,25,24
15:02:00,28,18,15,15,12,20,17,18,18
15:03:00,15,23,30,21,27,25,23,23,23
15:04:00,26,31,15,25,8,19,19,21,20
15:05:00,16,8,33,23,26,25,19,21,21
15:06:00,18,33,12,24,25,21,23,22,22
15:07:00,23,14,25,23,33,19,13,24,21
15:08:00,16,21,16,18,12,23,17,17,18
15:09:00,17,12,19,26,30,28,27,21,23
15:10:00,22,20,19,20,15,29,19,19,21
15:11:00,25,15,24,22,30,22,20,23,23
15:12:00,26,22,8,18,15,27,17,18,19
15:13:00,27,22,31,24,16,8,21,24,21
15:14:00,24,25,8,19,23,36,20,20,22
15:15:00,24,17,29,14,33,25,22,23,23
15:16:00,31,20,13,33,22,23,24,24,24
15:17:00,30,24,29,11,16,18,18,22,21
15:18:00,23,17,10,29,17,29,26,19,22
15:19:00,10,16,22,14,22,20,11,17,16
15:20:00,26,9,18,26,31,19,16,22,21
15:21:00,20,27,32,28,15,26,27,24,25
15:22:00,18,19,15,30,27,23,18,22,21
15:23:00,14,29,24,27,24,32,21,24,24
15:24:00,30,21,24,22,18,21,26,23,23
15:25:00,8,33,20,13,19,24,17,19,19
15:26:00,30,15,18,21,26,25,22,22,22
15:27:00,17,18,19,14,17,17,18,17,17
15:28:00,36,21,28,33,26,14,18,29,25
15:29:00,13,12,17,15,19,22,23,15,17
15:30:00,17,20,19,23,26,21,19,21,21
15:31:00,22,18,19,22,22,21,21,21,21
15:32:00,14,19,31,24,25,29,15,23,22
15:33:00,31,25,24,15,21,15,15,23,21
15:34:00,23,16,35,19,22,20,15,23,21
15:35:00,17,29,15,16,29,17,30,21,22
15:36:00,19,23,22,27,22,26,13,23,22
15:37:00,30,20,13,19,19,13,15,20,18
15:38:00,19,20,25,22,13,15,21,20,19
15:39:00,21,20,19,20,29,29,17,22,22
15:40:00,21,20,22,34,17,16,14,23,21
15:41:00,26,18,28,8,35,26,27,23,24
15:42:00,16,17,16,21,28,23,19,20,20
15:43:00,26,17,31,20,19,34,19,23,24
15:44:00,26,17,21,20,26,16,23,22,21
15:45:00,24,11,17,27,11,24,15,18,18
15:46:00,28,32,20,27,36,21,21,29,26
15:47:00,18,15,27,27,20,12,23,21,20
15:48:00,28,26,22,19,23,30,12,24,23
15:49:00,20,22,21,23,11,20,29,19,21
15:50:00,19,21,14,22,27,16,16,21,19
15:51:00,26,19,21,29,22,20,8,23,21
15:52:00,26,30,17,24,20,22,32,23,24
15:53:00,23,23,10,20,18,29,11,19,19
15:54:00,21,21,28,30,32,24,26,26,26
15:55:00,25,29,21,10,10,16,18,19,18
15:56:00,13,13,23,24,36,25,20,22,22
15:57:00,31,22,27,14,15,19,20,22,21
15:58:00,14,19,12,12,24,20,24,16,18
15:59:00,14,33,17,28,22,25,17,23,22
16:00:00,17,10,24,25,18,21,23,19,20
16:01:00,26,31,19,18,32,31,20,25,25
16:02:00,16,17,22,24,26,23,14,21,20
16:03:00,23,18,26,17,19,19,24,21,21
16:04:00,22,25,8,26,15,24,29,19,21
16:05:00,27,23,13,19,17,13,13,20,18
16:06:00,20,28,26,19,38,26,20,26,25
16:07:00,29,17,16,34,23,19,20,24,23
16:08:00,17,24,33,21,27,21,24,24,24
16:09:00,30,14,27,26,26,12,16,25,22
16:10:00,25,36,17,19,21,25,13,24,22
16:11:00,18,10,15,20,20,17,28,17,18
16:12:00,15,25,34,18,25,24,16,23,22
16:13:00,29,24,20,20,22,25,21,23,23
16:14:00,9,24,35,26,17,16,31,22,23
16:15:00,25,30,16,18,25,26,11,23,22
16:16:00,8,16,33,29,14,16,21,20,20
16:17:00,22,32,9,28,24,22,12,23,21
16:18:00,13,12,31,5,22,23,14,17,17
16:19:00,33,41,29,36,14,18,11,31,26
16:20:00,19,18,21,20,26,26,19,21,21
16:21:00,18,30,28,28,32,17,16,27,24
16:22:00,24,14,18,12,22,17,20,18,18
16:23:00,24,29,18,27,15,17,12,23,20
16:24:00,21,14,23,22,19,26,20,20,21
16:25:00,22,32,30,17,26,22,17,25,24
16:26:00,13,15,11,18,22,22,17,16,17
16:27:00,25,27,13,20,24,20,13,22,20
16:28:00,23,22,24,25,23,16,18,23,22
16:29:00,22,23,25,21,23,23,14,23,22
16:30:00,25,14,31,20,24,16,20,23,21
16:31:00,25,28,24,17,23,17,28,23,23
16:32:00,12,23,21,16,23,32,16,19,20
16:33:00,33,24,14,27,21,26,15,24,23
16:34:00,17,23,35,17,15,13,21,21,20
16:35:00,27,19,24,18,27,32,13,23,23
16:36:00,24,24,30,23,13,18,16,23,21
16:37:00,22,26,16,21,26,25,16,22,22
16:38:00,20,23,22,25,16,20,20,21,21
16:39:00,25,12,13,15,30,21,16,19,19
16:40:00,31,23,27,16,15,31,24,22,24
16:41:00,19,25,20,25,25,17,14,23,21
16:42:00,15,30,22,14,24,21,12,21,20
16:43:00,32,19,15,32,20,20,19,24,22
16:44:00,13,32,24,25,25,14,18,24,22
16:45:00,19,14,16,21,11,18,14,16,16
16:46:00,22,34,29,24,26,17,14,27,24
16:47:00,35,7,21,28,16,24,18,21,21
16:48:00,15,35,17,20,21,22,17,22,21
16:49:00,21,27,17,26,16,21,19,21,21
16:50:00,30,31,21,26,27,28,23,27,27
16:51:00,21,21,25,20,14,18,25,20,21
16:52:00,23,18,19,22,13,20,8,19,18
16:53:00,13,27,18,13,10,20,15,16,17
16:54:00,28,18,25,22,17,15,11,22,19
16:55:00,20,25,19,22,12,21,16,20,19
16:56:00,23,18,16,26,26,22,27,22,23
16:57:00,15,26,17,26,15,19,8,20,18
16:58:00,27,30,27,8,24,15,26,23,22
16:59:00,9,24,21,31,20,17,14,21,19
17:00:00,23,24,24,20,18,19,20,22,21
17:01:00,15,26,16,24,21,23,16,20,20
17:02:00,27,20,16,17,18,29,11,20,20
17:03:00,17,17,25,21,15,14,32,19,20
17:04:00,20,24,13,19,23,25,12,20,19
17:05:00,28,19,26,30,11,18,21,23,22
17:06:00,19,22,15,12,17,20,27,17,19
17:07:00,24,32,24,30,18,26,16,26,24
17:08:00,23,22,13,19,21,11,24,20,19
17:09:00,19,18,22,29,11,30,21,20,21
17:10:00,22,14,22,11,19,17,11,18,17
17:11:00,19,33,26,34,20,32,17,26,26
17:12:00,19,30,19,19,7,17,13,19,18
17:13:00,18,19,22,28,12,22,17,20,20
17:14:00,19,18,23,8,21,15,14,18,17
17:15:00,20,25,21,28,7,25,16,20,20
17:16:00,25,19,21,11,23,29,15,20,20
17:17:00,10,21,19,17,6,15,21,15,16
17:18:00,28,22,13,15,28,33,12,21,22
17:19:00,15,22,30,24,14,28,18,21,22
17:20:00,29,11,25,14,23,14,15,20,19
17:21:00,20,19,19,22,11,19,10,18,17
17:22:00,13,20,20,15,31,27,17,20,20
17:23:00,13,18,14,16,15,9,16,15,14
17:24:00,11,28,22,23,26,25,23,22,23
17:25:00,33,15,17,25,19,23,4,22,19
17:26:00,18,25,29,20,11,24,15,21,20
17:27:00,29,24,17,26,9,11,18,21,19
17:28:00,12,29,21,20,22,25,18,21,21
17:29:00,28,20,20,12,9,16,15,18,17
17:30:00,9,17,22,24,30,24,10,20,19
17:31:00,23,11,13,18,23,22,8,18,17
17:32:00,21,26,25,31,31,21,10,27,24
17:33:00,29,9,24,17,26,23,17,21,21
17:34:00,9,25,16,29,29,22,10,22,20
17:35:00,32,6,19,18,11,17,14,17,17
17:36:00,23,24,13,24,23,20,16,21,20
17:37:00,21,20,24,17,12,15,11,19,17
17:38:00,12,17,11,23,24,24,10,17,17
17:39:00,21,28,23,13,16,14,14,20,18
17:40:00,16,15,22,29,27,25,6,22,20
17:41:00,32,26,18,13,22,22,19,22,22
17:42:00,15,19,22,13,28,16,9,19,17
17:43:00,29,26,17,19,11,18,14,20,19
17:44:00,16,14,30,15,24,26,10,20,19
17:45:00,33,22,17,22,18,17,16,22,21
17:46:00,27,13,28,18,25,25,11,22,21
17:47:00,21,26,21,27,15,9,15,22,19
17:48:00,21,13,27,16,25,14,11,20,18
17:49:00,15,23,21,20,14,15,12,19,17
17:50:00,25,18,23,24,25,15,12,23,20
17:51:00,12,23,23,25,11,20,18,19,19
17:52:00,25,24,23,16,22,19,18,22,21
17:53:00,16,16,18,20,17,16,11,17,16
17:54:00,28,26,28,26,27,20,14,27,24
17:55:00,17,17,19,20,18,13,15,18,17
17:56:00,27,19,22,21,29,18,13,24,21
17:57:00,25,17,17,23,17,23,11,20,19
17:58:00,27,18,19,20,25,13,10,22,19
17:59:00,23,21,26,25,23,20,18,24,22
18:00:00,31,18,26,21,20,20,28,23,23
18:01:00,21,27,21,16,19,19,9,21,19
18:02:00,8,13,19,20,30,23,15,18,18
18:03:00,27,22,20,15,16,22,16,20,20
18:04:00,27,21,27,14,21,17,13,22,20
18:05:00,21,28,28,28,23,23,11,26,23
18:06:00,24,16,29,18,11,24,9,20,19
18:07:00,26,23,17,22,25,16,9,23,20
18:08:00,13,24,17,20,15,16,6,18,16
18:09:00,14,20,13,23,21,21,18,18,19
18:10:00,26,28,21,25,23,26,9,25,23
18:11:00,29,23,25,27,32,12,12,27,23
18:12:00,19,26,25,21,12,16,6,21,18
18:13:00,28,23,30,19,16,8,12,23,19
18:14:00,23,21,16,32,20,25,13,22,21
18:15:00,12,17,19,14,19,17,11,16,16
18:16:00,17,23,30,22,24,18,11,23,21
18:17:00,23,22,19,30,25,17,11,24,21
18:18:00,15,17,26,13,30,24,24,20,21
18:19:00,27,22,23,26,25,11,11,25,21
18:20:00,19,14,13,26,30,21,14,20,20
18:21:00,19,10,20,11,11,24,16,14,16
18:22:00,20,22,27,20,18,24,13,21,21
18:23:00,16,36,11,21,21,29,11,21,21
18:24:00,18,20,26,19,25,17,14,22,20
18:25:00,25,25,30,21,19,20,11,24,22
18:26:00,23,18,22,14,28,22,17,21,21
18:27:00,21,19,20,25,26,14,9,22,19
18:28:00,26,12,21,21,16,20,18,19,19
18:29:00,20,18,27,18,21,22,23,21,21
18:30:00,12,17,13,12,24,18,10,16,15
18:31:00,24,20,29,22,15,12,16,22,20
18:32:00,21,27,11,24,16,15,9,20,18
18:33:00,20,18,17,22,16,27,15,19,19
18:34:00,24,24,22,14,20,11,10,21,18
18:35:00,21,24,12,24,22,19,8,21,19
18:36:00,21,24,23,21,25,22,15,23,22
18:37:00,19,16,18,26,32,13,16,22,20
18:38:00,25,22,21,17,26,23,10,22,21
18:39:00,17,25,17,18,15,23,25,18,20
18:40:00,18,16,17,27,26,11,11,21,18
18:41:00,26,25,24,20,29,13,13,25,21
18:42:00,19,19,20,22,15,17,14,19,18
18:43:00,19,16,21,13,23,19,11,18,17
18:44:00,24,22,17,23,33,17,12,24,21
18:45:00,28,26,20,16,24,18,11,23,20
18:46:00,16,31,27,22,18,16,13,23,20
18:47:00,18,22,21,24,27,20,19,22,22
18:48:00,24,23,20,26,33,21,10,25,22
18:49:00,21,26,26,16,14,19,13,21,19
18:50:00,26,12,25,14,15,22,15,18,18
18:51:00,12,20,24,22,25,24,8,21,19
18:52:00,18,27,12,21,18,18,19,19,19
18:53:00,27,23,24,20,19,11,14,23,20
18:54:00,20,22,21,25,14,20,12,20,19
18:55:00,17,22,14,18,26,10,18,19,18
18:56:00,30,19,24,26,16,24,15,23,22
18:57:00,23,29,19,22,15,18,16,22,20
18:58:00,19,12,8,9,24,9,24,14,15
18:59:00,19,21,25,23,13,12,13,20,18
19:00:00,19,22,28,21,20,20,16,22,21
19:01:00,25,29,21,22,23,18,11,24,21
19:02:00,8,13,23,22,21,11,6,17,15
19:03:00,20,17,21,15,23,9,17,19,17
19:04:00,17,18,12,8,19,17,16,15,15
19:05:00,19,22,25,30,15,16,12,22,20
19:06:00,15,13,17,17,20,10,14,16,15
19:07:00,23,26,10,24,20,16,17,21,19
19:08:00,16,27,16,25,15,22,11,20,19
19:09:00,23,13,14,17,27,9,15,19,17
19:10:00,23,25,16,15,21,13,18,20,19
19:11:00,24,19,21,16,21,19,8,20,18
19:12:00,15,19,19,21,18,13,6,18,16
19:13:00,17,10,17,22,18,14,13,17,16
19:14:00,18,15,15,19,23,14,14,18,17
19:15:00,17,21,20,17,27,17,12,20,19
19:16:00,19,19,18,14,22,20,17,18,18
19:17:00,17,16,12,24,12,10,9,16,14
19:18:00,16,17,22,18,30,14,10,21,18
19:19:00,22,20,16,12,21,11,14,18,17
19:20:00,24,15,19,23,18,21,12,20,19
19:21:00,18,19,15,17,18,11,13,17,16
19:22:00,16,15,15,15,24,18,11,17,16
19:23:00,20,24,14,14,15,14,14,17,16
19:24:00,20,27,17,21,22,11,19,21,20
19:25:00,14,14,21,27,28,9,11,21,18
19:26:00,15,23,16,14,21,20,10,18,17
19:27:00,11,9,16,26,15,22,15,15,16
19:28:00,16,16,20,14,32,7,15,20,17
19:29:00,7,12,20,22,17,18,7,16,15
19:30:00,10,17,18,25,16,9,15,17,16
19:31:00,25,18,16,18,23,20,11,20,19
19:32:00,15,11,10,17,25,7,13,16,14
19:33:00,15,17,24,21,17,22,12,19,18
19:34:00,6,16,20,16,17,8,8,15,13
19:35:00,10,14,9,12,23,9,19,14,14
19:36:00,14,18,8,19,13,19,8,14,14
19:37:00,18,11,12,15,26,16,15,16,16
19:38:00,14,20,17,16,13,10,12,16,15
19:39:00,15,29,13,13,7,15,12,15,15
19:40:00,8,14,15,18,14,15,10,14,13
19:41:00,11,13,18,11,20,15,16,15,15
19:42:00,17,16,8,14,17,11,9,14,13
19:43:00,15,11,16,9,12,14,12,13,13
19:44:00,13,15,22,14,9,12,15,15,14
19:45:00,18,8,17,13,26,14,7,16,15
19:46:00,9,16,17,14,13,17,15,14,14
19:47:00,25,10,22,19,10,14,10,17,16
19:48:00,8,11,4,21,8,4,13,10,10
19:49:00,14,20,23,15,14,15,9,17,16
19:50:00,16,10,12,14,8,18,6,12,12
19:51:00,19,11,16,16,12,5,6,15,12
19:52:00,14,10,14,17,7,9,11,12,12
19:53:00,8,16,12,10,16,8,18,12,13
19:54:00,20,18,7,23,14,8,13,16,15
19:55:00,7,20,16,17,13,11,9,15,13
19:56:00,10,11,19,15,24,14,15,16,15
19:57:00,7,19,12,15,13,9,3,13,11
19:58:00,13,16,11,20,13,7,10,15,13
19:59:00,9,10,13,8,12,9,13,10,11
20:00:00,7,6,11,9,15,17,9,10,11
20:01:00,19,9,13,12,11,14,13,13,13
20:02:00,11,18,9,26,13,5,7,15,13
20:03:00,17,15,15,21,9,12,8,15,14
20:04:00,9,10,9,12,8,11,12,10,10
20:05:00,7,18,13,23,17,10,9,16,14
20:06:00,9,16,16,9,17,16,6,13,13
20:07:00,15,11,30,18,11,7,13,17,15
20:08:00,11,18,13,19,15,5,7,15,13
20:09:00,12,8,13,9,17,7,9,12,11
20:10:00,19,5,9,16,13,14,13,12,13
20:11:00,10,11,6,24,14,8,6,13,11
20:12:00,13,7,15,6,21,10,10,12,12
20:13:00,22,13,12,17,11,14,7,15,14
20:14:00,11,20,16,12,6,9,11,13,12
20:15:00,11,14,21,11,10,12,8,13,12
20:16:00,12,9,12,16,8,7,11,11,11
20:17:00,17,13,12,19,11,16,11,14,14
20:18:00,15,9,16,14,12,9,12,13,12
20:19:00,13,5,8,12,14,8,13,10,10
20:20:00,10,13,10,7,13,7,11,11,10
20:21:00,7,13,16,15,14,10,8,13,12
20:22:00,10,16,16,9,10,13,11,12,12
20:23:00,18,15,16,13,8,9,6,14,12
20:24:00,7,10,15,16,17,12,12,13,13
20:25:00,10,12,14,9,16,6,10,12,11
20:26:00,15,14,12,14,15,9,12,14,13
20:27:00,8,15,7,20,22,13,5,14,13
20:28:00,8,13,11,9,12,9,11,11,10
20:29:00,10,12,10,11,14,10,12,11,11
20:30:00,8,19,10,17,20,13,5,15,13
20:31:00,9,6,14,8,9,6,8,9,9
20:32:00,10,12,9,6,9,20,7,9,10
20:33:00,11,11,7,6,8,12,8,9,9
20:34:00,7,8,13,11,6,9,6,9,9
20:35:00,9,7,6,9,6,5,9,7,7
20:36:00,12,12,9,9,9,10,8,10,10
20:37:00,10,3,10,6,10,14,8,8,9
20:38:00,10,9,9,12,5,15,9,9,10
20:39:00,9,16,13,6,14,6,10,12,11
20:40:00,5,7,6,9,8,10,11,7,8
20:41:00,10,10,13,12,9,10,5,11,10
20:42:00,9,13,10,8,10,14,7,10,10
20:43:00,10,16,7,15,8,7,5,11,10
20:44:00,12,9,17,12,11,13,16,12,13
20:45:00,3,13,6,7,16,13,10,9,10
20:46:00,16,16,9,14,12,8,5,13,11
20:47:00,12,15,13,12,11,11,14,13,13
20:48:00,9,14,12,12,18,10,10,13,12
20:49:00,10,10,12,12,10,5,14,11,10
20:50:00,15,17,9,11,14,9,10,13,12
20:51:00,9,7,10,16,17,9,7,12,11
20:52:00,5,6,10,15,5,8,9,8,8
20:53:00,12,12,12,14,11,9,8,12,11
20:54:00,2,11,13,13,6,10,8,9,9
20:55:00,8,13,11,7,9,11,11,10,10
20:56:00,11,15,13,14,11,12,4,13,11
20:57:00,12,12,8,17,19,5,7,14,11
20:58:00,5,9,8,11,9,2,7,8,7
20:59:00,13,7,10,13,14,4,7,11,10
21:00:00,11,8,6,8,10,11,3,9,8
21:01:00,8,13,10,9,13,14,8,11,11
21:02:00,8,8,14,10,8,5,7,10,9
21:03:00,8,9,13,15,11,8,3,11,10
21:04:00,8,17,14,9,8,9,3,11,10
21:05:00,14,5,8,10,12,9,5,10,9
21:06:00,10,6,7,10,14,9,2,9,8
21:07:00,6,16,11,13,5,7,5,10,9
21:08:00,18,10,3,20,17,3,10,14,12
21:09:00,7,12,11,11,14,15,6,11,11
21:10:00,13,20,3,6,4,4,9,9,8
21:11:00,9,9,11,14,4,6,5,9,8
21:12:00,14,7,15,11,8,9,5,11,10
21:13:00,9,16,9,7,6,6,15,9,10
21:14:00,6,11,12,12,7,7,6,10,9
21:15:00,6,12,8,8,12,9,6,9,9
21:16:00,9,17,15,8,10,12,4,12,11
21:17:00,7,3,10,11,13,6,5,9,8
21:18:00,5,14,8,4,10,13,7,8,9
21:19:00,8,11,8,12,4,8,6,9,8
21:20:00,8,12,11,10,11,10,10,10,10
21:21:00,8,9,12,15,8,8,9,10,10
21:22:00,15,20,10,13,8,7,6,13,11
21:23:00,9,12,9,11,8,7,4,10,9
21:24:00,13,7,14,12,11,12,5,11,11
21:25:00,5,12,12,9,6,13,6,9,9
21:26:00,15,8,15,14,12,10,4,13,11
21:27:00,13,14,12,9,12,11,9,12,11
21:28:00,7,11,10,6,9,7,2,9,7
21:29:00,4,14,10,13,9,11,10,10,10
21:30:00,7,12,7,8,4,9,4,8,7
21:31:00,10,10,6,6,9,11,2,8,8
21:32:00,8,12,7,10,12,13,3,10,9
21:33:00,6,6,13,10,11,11,12,9,10
21:34:00,6,7,13,11,9,8,5,9,8
21:35:00,3,8,11,5,7,9,2,7,6
21:36:00,9,11,8,4,5,6,9,7,7
21:37:00,7,18,11,8,15,9,9,12,11
21:38:00,7,15,12,11,6,11,4,10,9
21:39:00,5,10,16,12,8,9,5,10,9
21:40:00,12,6,10,4,15,8,7,9,9
21:41:00,11,17,8,14,3,3,5,11,9
21:42:00,8,14,6,11,15,6,7,11,10
21:43:00,22,1,6,9,8,8,4,9,8
21:44:00,9,12,10,13,5,6,3,10,8
21:45:00,5,9,14,9,14,14,6,10,10
21:46:00,13,19,22,8,9,7,8,14,12
21:47:00,14,8,8,1,16,7,6,9,9
21:48:00,13,20,7,10,13,9,3,13,11
21:49:00,16,21,12,3,7,13,8,12,11
21:50:00,14,12,7,10,9,11,7,10,10
21:51:00,13,10,9,11,6,5,7,10,9
21:52:00,14,7,7,7,10,9,11,9,9
21:53:00,16,16,4,11,11,12,2,12,10
21:54:00,14,14,11,7,6,8,5,10,9
21:55:00,10,7,6,6,10,6,3,8,7
21:56:00,11,14,5,12,7,13,11,10,10
21:57:00,12,9,8,6,12,10,4,9,9
21:58:00,8,9,5,7,5,9,7,7,7
21:59:00,9,12,7,7,12,11,2,9,9
22:00:00,8,5,6,6,6,7,4,6,6
22:01:00,5,15,7,5,14,9,9,9,9
22:02:00,7,15,13,9,7,9,4,10,9
22:03:00,14,15,9,7,14,12,3,12,11
22:04:00,4,12,7,4,9,16,9,7,9
22:05:00,2,7,5,10,5,8,4,6,6
22:06:00,6,8,13,14,6,5,5,9,8
22:07:00,9,13,11,16,13,11,4,12,11
22:08:00,10,22,4,9,3,6,3,10,8
22:09:00,11,24,12,18,6,6,4,14,12
22:10:00,13,13,8,10,10,11,7,11,10
22:11:00,7,15,14,7,8,6,5,10,9
22:12:00,7,20,9,17,14,6,8,13,12
22:13:00,7,20,9,5,5,6,3,9,8
22:14:00,6,17,13,11,9,11,5,11,10
22:15:00,7,21,14,6,6,11,10,11,11
22:16:00,3,22,11,13,11,2,7,12,10
22:17:00,4,19,19,9,13,11,3,13,11
22:18:00,7,15,15,4,5,9,1,9,8
22:19:00,3,23,17,8,6,10,6,11,10
22:20:00,10,20,17,10,12,10,13,14,13
22:21:00,4,18,14,7,8,11,5,10,10
22:22:00,7,29,17,5,6,7,5,13,11
22:23:00,5,17,19,3,10,7,6,11,10
22:24:00,9,17,15,7,12,4,1,12,9
22:25:00,3,20,11,6,7,10,6,9,9
22:26:00,8,11,17,5,6,2,4,9,8
22:27:00,6,5,14,9,9,3,3,9,7
22:28:00,4,9,10,10,7,9,4,8,8
22:29:00,6,7,8,8,12,7,2,8,7
22:30:00,7,11,11,8,8,5,10,9,9
22:31:00,5,7,12,10,10,1,9,9,8
22:32:00,5,3,6,8,4,10,6,5,6
22:33:00,6,9,6,12,9,4,3,8,7
22:34:00,4,2,6,7,9,4,1,6,5
22:35:00,6,8,9,7,6,0,6,7,6
22:36:00,8,4,3,8,5,5,1,6,5
22:37:00,6,3,1,4,8,5,2,4,4
22:38:00,4,6,9,7,5,5,6,6,6
22:39:00,11,7,10,4,12,7,2,9,8
22:40:00,7,8,10,4,8,10,0,7,7
22:41:00,6,2,4,6,5,5,4,5,5
22:42:00,0,4,1,9,6,5,1,4,4
22:43:00,6,3,6,6,4,4,4,5,5
22:44:00,3,5,6,4,4,4,5,4,4
22:45:00,4,2,7,2,8,4,5,5,5
22:46:00,5,8,9,11,6,7,4,8,7
22:47:00,2,7,7,4,17,8,3,7,7
22:48:00,2,4,5,4,7,6,13,4,6
22:49:00,7,8,7,11,7,8,11,8,8
22:50:00,5,2,6,9,8,6,9,6,6
22:51:00,5,5,4,3,7,8,8,5,6
22:52:00,5,2,2,6,9,9,5,5,5
22:53:00,3,5,7,7,6,6,4,6,5
22:54:00,3,1,5,3,7,9,8,4,5
22:55:00,2,3,3,6,8,7,8,4,5
22:56:00,2,8,7,8,5,7,5,6,6
22:57:00,4,6,2,9,4,9,3,5,5
22:58:00,4,5,10,3,13,10,8,7,8
22:59:00,5,5,5,6,1,5,3,4,4
23:00:00,3,5,7,2,13,12,6,6,7
23:01:00,5,5,4,10,10,5,2,7,6
23:02:00,8,6,11,4,7,5,3,7,6
23:03:00,3,2,2,5,6,4,2,4,3
23:04:00,6,7,4,9,5,4,7,6,6
23:05:00,3,9,12,6,3,10,4,7,7
23:06:00,4,4,7,4,4,6,9,5,5
23:07:00,3,2,5,6,4,5,1,4,4
23:08:00,4,5,6,4,10,5,10,6,6
23:09:00,1,5,5,1,5,7,1,3,4
23:10:00,6,9,2,2,6,4,3,5,5
23:11:00,9,3,8,4,5,5,0,6,5
23:12:00,4,7,6,2,4,10,4,5,5
23:13:00,5,3,7,5,3,4,4,5,4
23:14:00,1,5,4,2,8,3,4,4,4
23:15:00,8,7,3,1,8,5,2,5,5
23:16:00,7,4,6,2,5,8,1,5,5
23:17:00,6,2,4,6,4,4,1,4,4
23:18:00,1,4,2,3,1,4,1,2,2
23:19:00,4,4,3,1,3,9,5,3,4
23:20:00,4,5,3,2,3,4,4,3,4
23:21:00,9,5,6,1,6,9,4,5,6
23:22:00,5,1,2,4,2,5,0,3,3
23:23:00,4,1,2,4,4,8,2,3,4
23:24:00,4,2,5,4,4,4,4,4,4
23:25:00,4,2,5,2,6,7,1,4,4
23:26:00,5,6,3,2,4,8,4,4,5
23:27:00,1,2,2,6,4,4,2,3,3
23:28:00,3,6,2,4,5,6,3,4,4
23:29:00,2,1,5,2,3,10,2,3,4
23:30:00,1,2,1,3,3,6,0,2,2
23:31:00,0,2,3,4,8,5,1,3,3
23:32:00,1,5,2,2,10,5,0,4,4
23:33:00,8,2,4,4,7,5,2,5,5
23:34:00,5,3,2,4,2,7,1,3,3
23:35:00,4,3,2,5,9,5,2,5,4
23:36:00,4,5,2,4,1,4,4,3,3
23:37:00,3,2,4,2,4,7,5,3,4
23:38:00,1,3,3,4,8,4,4,4,4
23:39:00,2,4,1,6,3,5,3,3,3
23:40:00,1,4,2,5,5,2,1,3,3
23:41:00,6,4,4,6,4,8,1,5,5
23:42:00,3,5,2,3,1,6,2,3,3
23:43:00,2,0,4,2,3,5,2,2,3
23:44:00,2,2,6,5,3,5,3,4,4
23:45:00,2,3,1,1,0,2,4,1,2
23:46:00,1,0,4,1,5,3,5,2,3
23:47:00,2,4,3,4,3,2,2,3,3
23:48:00,4,2,3,1,5,7,1,3,3
23:49:00,2,2,2,5,4,5,2,3,3
23:50:00,4,0,6,4,6,7,3,4,4
23:51:00,2,2,1,4,5,5,1,3,3
23:52:00,2,2,5,3,5,8,1,3,4
23:53:00,0,2,0,3,3,7,5,2,3
23:54:00,5,3,7,8,7,2,0,6,5
23:55:00,3,2,1,5,5,4,3,3,3
23:56:00,3,1,5,4,3,5,2,3,3
23:57:00,2,3,1,3,6,3,3,3,3
23:58:00,4,3,2,2,5,4,3,3,3
23:59:00,4,2,8,0,4,4,4,4,4
,,,,,,,,,
Totals,,,,,,,,,
12H(7-19),15137,15377,15275,15333,15467,13913,11668,15318,14596
16H(6-22),18150,18644,18400,18590,18638,16209,13511,18484,17449
18H(6-24),18709,19477,19178,19261,19405,16965,13987,19206,18140
24H(0-24),19566,20402,20036,20138,20316,17772,14800,20092,19004
,,,,,,,,,
AM Peak,07:09:00,07:19:00,07:05:00,07:03:00,07:36:00,10:32:00,10:55:00,07:13:00,10:00:00
,1417,1416,1415,1470,1371,1347,1333,1405,1172
,,,,,,,,,
PM Peak,15:11:00,16:13:00,12:41:00,15:18:00,13:00:00,14:30:00,12:00:00,12:39:00,12:19:00
,1342,1404,1395,1325,1409,1365,1325,1339,1329
,,,,,,,,,
,,,,,,,,,
CA Traffic,,,,,,,,,VDA-net R2 15/11/2019
