Site Number,00008017,Unnamed: 2,Site Reference,00008017.1,Unnamed: 5,Unnamed: 6,Lat/Lng.,"52.03773,1.20164",Unnamed: 9
Radar 8017 Felixstowe Road Ipswich,,,,,,,,,
Vehicle Count Report,,,,Week Begin: 14 October 2019,,,Channel:,Total Flow,
,,,,,,,,,
,,,,,,,,,
,2019-10-14 00:00:00,2019-10-15 00:00:00,2019-10-16 00:00:00,2019-10-17 00:00:00,2019-10-18 00:00:00,2019-10-19 00:00:00,2019-10-20 00:00:00,"5-Day
Ave.","7-Day
Ave."
00:00:00,1,1,1,0,2,1,1,1,1
00:01:00,3,2,3,1,1,2,3,2,2
00:02:00,1,2,2,0,0,3,1,1,1
00:03:00,1,0,1,3,2,6,7,1,3
00:04:00,1,2,0,3,0,2,4,1,2
00:05:00,2,0,4,2,1,2,3,2,2
00:06:00,0,2,2,0,3,1,2,1,1
00:07:00,1,0,4,3,3,4,5,2,3
00:08:00,0,2,3,4,4,3,2,3,3
00:09:00,0,4,6,0,1,3,8,2,3
00:10:00,0,5,2,3,0,9,2,2,3
00:11:00,4,1,4,3,2,4,4,3,3
00:12:00,2,1,0,3,0,2,1,1,1
00:13:00,3,3,2,1,2,1,2,2,2
00:14:00,1,3,3,0,3,1,3,2,2
00:15:00,1,3,1,1,5,2,3,2,2
00:16:00,0,0,0,1,1,2,6,0,1
00:17:00,1,1,2,1,1,2,0,1,1
00:18:00,1,2,3,2,0,3,2,2,2
00:19:00,2,0,2,1,2,2,1,1,1
00:20:00,1,0,1,2,2,0,3,1,1
00:21:00,0,2,0,1,0,3,1,1,1
00:22:00,1,1,7,2,2,4,5,3,3
00:23:00,0,3,1,2,1,3,1,1,2
00:24:00,1,0,2,1,1,2,4,1,2
00:25:00,1,1,1,0,0,3,1,1,1
00:26:00,1,0,0,1,0,6,3,0,2
00:27:00,1,1,1,0,1,1,2,1,1
00:28:00,1,0,1,2,0,3,3,1,1
00:29:00,3,3,1,0,0,6,5,1,3
00:30:00,0,3,3,0,1,3,5,1,2
00:31:00,1,1,1,1,0,5,3,1,2
00:32:00,1,2,1,1,0,6,4,1,2
00:33:00,0,0,2,4,1,5,4,1,2
00:34:00,1,1,1,1,3,2,2,1,2
00:35:00,0,1,0,2,0,1,2,1,1
00:36:00,0,1,0,1,1,1,3,1,1
00:37:00,1,2,0,0,1,1,3,1,1
00:38:00,2,2,0,0,1,3,2,1,1
00:39:00,1,1,0,0,2,3,3,1,1
00:40:00,0,1,3,1,1,1,1,1,1
00:41:00,0,1,3,2,2,2,1,2,2
00:42:00,0,3,0,1,1,6,4,1,2
00:43:00,1,2,0,0,0,4,3,1,1
00:44:00,1,0,0,2,1,6,2,1,2
00:45:00,2,2,1,0,0,3,3,1,2
00:46:00,1,4,5,0,1,5,2,2,3
00:47:00,0,1,0,0,3,5,4,1,2
00:48:00,0,0,1,0,2,4,4,1,2
00:49:00,0,2,1,2,1,5,3,1,2
00:50:00,2,1,3,0,1,2,3,1,2
00:51:00,1,1,1,1,1,5,3,1,2
00:52:00,0,1,0,1,1,4,1,1,1
00:53:00,0,2,0,1,0,2,1,1,1
00:54:00,3,0,1,2,4,1,1,2,2
00:55:00,0,1,0,0,3,2,1,1,1
00:56:00,1,1,1,0,1,0,2,1,1
00:57:00,1,2,1,1,2,5,0,1,2
00:58:00,0,2,1,0,0,2,2,1,1
00:59:00,0,1,0,2,0,2,0,1,1
01:00:00,2,2,0,2,2,0,2,2,1
01:01:00,1,0,2,0,2,1,2,1,1
01:02:00,0,1,1,0,1,3,5,1,2
01:03:00,2,1,1,0,2,4,2,1,2
01:04:00,2,2,2,1,0,4,3,1,2
01:05:00,0,0,0,1,1,1,4,0,1
01:06:00,0,0,3,0,2,2,2,1,1
01:07:00,0,0,0,0,4,3,2,1,1
01:08:00,0,2,1,0,0,3,1,1,1
01:09:00,1,1,0,1,1,1,1,1,1
01:10:00,1,1,0,1,0,1,2,1,1
01:11:00,0,0,0,2,0,1,1,0,1
01:12:00,0,1,1,1,0,1,2,1,1
01:13:00,0,1,0,1,1,1,3,1,1
01:14:00,1,0,0,0,0,0,0,0,0
01:15:00,1,2,0,0,1,1,2,1,1
01:16:00,1,3,1,0,2,1,2,1,1
01:17:00,1,1,2,1,3,4,0,2,2
01:18:00,1,1,0,1,1,0,1,1,1
01:19:00,0,0,0,2,0,1,4,0,1
01:20:00,1,1,0,0,1,0,0,1,0
01:21:00,2,2,0,1,0,1,0,1,1
01:22:00,0,1,1,0,1,0,1,1,1
01:23:00,0,0,0,2,1,2,1,1,1
01:24:00,0,1,0,0,0,0,2,0,0
01:25:00,2,1,1,0,2,1,3,1,1
01:26:00,1,1,2,0,2,1,5,1,2
01:27:00,0,0,0,0,0,0,1,0,0
01:28:00,0,0,1,1,1,0,1,1,1
01:29:00,1,2,1,1,0,2,2,1,1
01:30:00,0,1,3,1,1,2,4,1,2
01:31:00,1,1,2,1,0,1,1,1,1
01:32:00,1,0,0,0,0,0,2,0,0
01:33:00,0,0,1,1,1,2,1,1,1
01:34:00,0,0,1,2,0,0,3,1,1
01:35:00,0,1,1,3,1,1,2,1,1
01:36:00,0,0,1,0,1,0,1,0,0
01:37:00,0,0,0,1,0,1,0,0,0
01:38:00,3,2,0,1,1,0,1,1,1
01:39:00,0,0,0,1,1,1,1,0,1
01:40:00,2,1,1,0,1,0,1,1,1
01:41:00,0,1,0,0,0,2,2,0,1
01:42:00,2,0,2,1,2,0,3,1,1
01:43:00,2,1,0,1,0,0,0,1,1
01:44:00,2,1,1,0,0,0,0,1,1
01:45:00,1,0,0,0,0,3,0,0,1
01:46:00,3,0,0,0,3,2,2,1,1
01:47:00,0,0,0,0,1,2,2,0,1
01:48:00,0,2,0,0,2,3,1,1,1
01:49:00,2,2,0,0,1,1,2,1,1
01:50:00,0,1,0,2,0,3,0,1,1
01:51:00,3,1,2,0,2,1,4,2,2
01:52:00,1,1,1,1,2,0,2,1,1
01:53:00,0,0,0,0,1,2,4,0,1
01:54:00,0,0,1,1,0,0,2,0,1
01:55:00,0,1,0,0,0,1,4,0,1
01:56:00,1,0,1,1,0,1,3,1,1
01:57:00,1,1,0,0,1,0,1,1,1
01:58:00,1,1,1,0,0,2,1,1,1
01:59:00,0,1,1,1,0,1,2,1,1
02:00:00,0,1,0,1,0,0,2,0,1
02:01:00,0,0,0,2,1,0,0,1,0
02:02:00,0,2,0,1,0,1,1,1,1
02:03:00,1,1,0,0,1,0,1,1,1
02:04:00,1,1,2,0,0,0,2,1,1
02:05:00,0,2,1,1,0,2,0,1,1
02:06:00,0,0,1,0,1,1,0,0,0
02:07:00,1,0,0,3,0,2,1,1,1
02:08:00,2,1,0,0,0,0,0,1,0
02:09:00,1,1,0,2,0,0,1,1,1
02:10:00,1,0,1,0,0,1,4,0,1
02:11:00,0,0,0,1,1,0,1,0,0
02:12:00,2,0,0,1,2,1,1,1,1
02:13:00,2,0,2,1,0,2,0,1,1
02:14:00,0,0,1,1,3,1,1,1,1
02:15:00,0,0,0,3,0,0,1,1,1
02:16:00,0,1,1,3,0,2,0,1,1
02:17:00,1,0,0,0,1,1,2,0,1
02:18:00,0,3,1,0,1,0,1,1,1
02:19:00,1,2,1,1,0,0,3,1,1
02:20:00,3,1,0,1,0,0,0,1,1
02:21:00,0,0,0,0,0,0,1,0,0
02:22:00,2,0,0,2,0,1,1,1,1
02:23:00,2,1,0,1,0,1,3,1,1
02:24:00,0,0,0,0,0,2,1,0,0
02:25:00,2,0,0,0,2,0,1,1,1
02:26:00,0,2,3,0,0,2,1,1,1
02:27:00,0,0,0,2,0,1,3,0,1
02:28:00,0,2,1,0,3,2,2,1,1
02:29:00,0,0,0,1,0,1,2,0,1
02:30:00,0,0,1,3,2,4,0,1,1
02:31:00,2,1,0,1,0,2,0,1,1
02:32:00,0,2,0,0,0,1,0,0,0
02:33:00,0,2,2,2,0,1,1,1,1
02:34:00,0,0,0,1,0,0,2,0,0
02:35:00,1,0,4,0,1,1,0,1,1
02:36:00,3,1,1,1,0,1,2,1,1
02:37:00,0,1,0,3,0,1,1,1,1
02:38:00,1,0,0,0,1,3,1,0,1
02:39:00,0,2,4,0,1,0,0,1,1
02:40:00,0,1,0,0,1,3,1,0,1
02:41:00,1,1,2,2,0,3,3,1,2
02:42:00,0,0,1,0,1,1,1,0,1
02:43:00,0,2,0,1,1,0,3,1,1
02:44:00,0,0,0,1,1,1,0,0,0
02:45:00,1,0,0,2,2,0,0,1,1
02:46:00,1,0,1,1,2,0,0,1,1
02:47:00,0,0,0,0,0,0,1,0,0
02:48:00,1,1,0,1,0,1,0,1,1
02:49:00,1,1,1,0,0,1,0,1,1
02:50:00,0,0,1,0,1,1,0,0,0
02:51:00,1,1,0,1,0,2,2,1,1
02:52:00,0,0,0,0,0,0,1,0,0
02:53:00,1,0,0,0,1,1,0,0,0
02:54:00,0,0,2,0,0,0,1,0,0
02:55:00,2,1,1,0,1,0,1,1,1
02:56:00,0,0,0,1,0,1,2,0,1
02:57:00,1,0,0,1,0,1,0,0,0
02:58:00,1,1,2,0,2,0,0,1,1
02:59:00,0,0,0,0,1,0,0,0,0
03:00:00,0,0,0,0,1,1,0,0,0
03:01:00,0,0,1,0,0,0,0,0,0
03:02:00,1,0,0,0,2,2,1,1,1
03:03:00,1,0,0,0,0,1,2,0,1
03:04:00,1,0,1,0,1,0,0,1,0
03:05:00,2,1,0,1,0,0,4,1,1
03:06:00,1,2,0,0,1,0,3,1,1
03:07:00,1,1,1,0,0,1,0,1,1
03:08:00,0,0,2,0,0,0,0,0,0
03:09:00,0,0,2,0,1,1,0,1,1
03:10:00,2,0,0,1,2,1,2,1,1
03:11:00,1,0,2,0,0,1,2,1,1
03:12:00,0,0,0,0,1,2,1,0,1
03:13:00,0,0,1,2,0,1,0,1,1
03:14:00,2,0,0,1,1,0,0,1,1
03:15:00,0,1,1,2,0,0,2,1,1
03:16:00,1,1,1,0,0,1,1,1,1
03:17:00,0,1,2,0,1,0,2,1,1
03:18:00,1,1,0,1,0,1,0,1,1
03:19:00,2,2,0,0,1,0,0,1,1
03:20:00,1,1,2,1,0,0,0,1,1
03:21:00,0,0,0,0,0,0,1,0,0
03:22:00,2,1,0,1,2,1,3,1,1
03:23:00,0,2,1,0,0,1,2,1,1
03:24:00,1,0,1,1,1,1,0,1,1
03:25:00,0,1,0,2,1,1,0,1,1
03:26:00,0,1,1,1,0,1,0,1,1
03:27:00,2,1,0,0,1,1,1,1,1
03:28:00,3,0,1,4,1,0,0,2,1
03:29:00,0,1,1,0,0,1,0,0,0
03:30:00,0,1,1,0,1,2,1,1,1
03:31:00,0,0,0,2,0,0,1,0,0
03:32:00,2,0,1,0,1,1,1,1,1
03:33:00,0,0,0,0,0,0,0,0,0
03:34:00,1,0,0,0,0,0,2,0,0
03:35:00,0,0,0,2,1,1,1,1,1
03:36:00,0,2,0,0,0,1,2,0,1
03:37:00,1,0,1,1,0,0,0,1,0
03:38:00,0,2,1,1,0,0,0,1,1
03:39:00,1,1,0,0,0,0,0,0,0
03:40:00,1,4,0,0,0,0,0,1,1
03:41:00,0,1,2,0,1,0,0,1,1
03:42:00,2,1,0,1,1,2,0,1,1
03:43:00,1,0,0,1,2,1,3,1,1
03:44:00,2,1,0,0,1,1,0,1,1
03:45:00,1,3,0,1,0,0,0,1,1
03:46:00,1,2,2,1,2,0,1,2,1
03:47:00,0,0,0,2,0,1,1,0,1
03:48:00,0,3,2,0,1,0,0,1,1
03:49:00,0,1,2,0,1,2,3,1,1
03:50:00,0,0,3,2,3,3,0,2,2
03:51:00,2,0,0,2,0,0,0,1,1
03:52:00,1,0,2,1,2,1,0,1,1
03:53:00,1,4,2,3,2,1,0,2,2
03:54:00,0,2,0,0,0,0,0,0,0
03:55:00,0,1,1,1,4,4,2,1,2
03:56:00,0,0,0,2,1,2,1,1,1
03:57:00,1,0,0,1,0,0,2,0,1
03:58:00,2,1,2,1,1,0,0,1,1
03:59:00,0,1,0,1,5,0,3,1,1
04:00:00,1,0,0,3,0,1,0,1,1
04:01:00,1,1,0,2,0,1,0,1,1
04:02:00,0,0,3,0,1,3,0,1,1
04:03:00,0,0,0,1,1,1,1,0,1
04:04:00,2,3,2,1,3,2,2,2,2
04:05:00,0,0,0,1,1,0,0,0,0
04:06:00,0,1,0,0,0,0,0,0,0
04:07:00,1,1,2,2,0,3,1,1,1
04:08:00,3,1,0,1,3,0,0,2,1
04:09:00,1,0,0,0,0,1,4,0,1
04:10:00,1,0,1,2,2,1,0,1,1
04:11:00,1,1,0,1,1,2,1,1,1
04:12:00,0,0,0,1,3,0,0,1,1
04:13:00,1,1,1,1,2,1,0,1,1
04:14:00,0,1,0,2,3,2,1,1,1
04:15:00,0,1,1,1,0,0,2,1,1
04:16:00,1,0,3,1,0,1,1,1,1
04:17:00,2,1,1,2,0,0,1,1,1
04:18:00,2,1,0,0,0,0,2,1,1
04:19:00,0,0,0,4,0,0,1,1,1
04:20:00,0,2,1,0,1,1,0,1,1
04:21:00,0,0,1,0,0,1,2,0,1
04:22:00,2,0,1,2,0,0,0,1,1
04:23:00,2,3,0,1,1,1,0,1,1
04:24:00,2,3,2,0,0,2,1,1,1
04:25:00,1,1,0,2,6,0,0,2,1
04:26:00,0,1,1,0,0,1,1,0,1
04:27:00,1,0,1,1,0,0,1,1,1
04:28:00,0,3,1,1,0,0,2,1,1
04:29:00,3,4,3,0,3,2,0,3,2
04:30:00,2,1,2,2,5,3,0,2,2
04:31:00,1,2,1,1,0,0,0,1,1
04:32:00,1,2,2,2,1,0,1,2,1
04:33:00,1,0,0,2,0,2,1,1,1
04:34:00,0,1,1,0,1,1,1,1,1
04:35:00,1,2,2,2,1,0,1,2,1
04:36:00,2,1,4,2,3,2,0,2,2
04:37:00,2,4,1,1,2,1,2,2,2
04:38:00,3,0,1,0,2,0,0,1,1
04:39:00,2,1,1,2,2,0,2,2,1
04:40:00,2,3,0,1,1,1,1,1,1
04:41:00,2,2,4,2,0,1,0,2,2
04:42:00,2,1,2,2,4,2,1,2,2
04:43:00,2,0,2,0,2,1,0,1,1
04:44:00,0,1,2,4,1,1,1,2,1
04:45:00,3,6,1,3,3,2,0,3,3
04:46:00,3,2,2,4,2,1,1,3,2
04:47:00,3,1,2,2,2,0,1,2,2
04:48:00,3,2,3,3,3,1,1,3,2
04:49:00,4,5,4,1,4,2,1,4,3
04:50:00,3,3,3,4,2,1,1,3,2
04:51:00,3,2,2,2,1,1,0,2,2
04:52:00,2,3,4,1,2,4,1,2,2
04:53:00,2,2,3,2,2,0,0,2,2
04:54:00,1,3,2,1,3,1,1,2,2
04:55:00,5,5,1,5,0,1,3,3,3
04:56:00,2,1,1,1,0,4,1,1,1
04:57:00,1,1,2,2,2,1,1,2,1
04:58:00,2,3,2,0,7,1,2,3,2
04:59:00,3,1,4,0,1,0,1,2,1
05:00:00,0,0,2,0,2,2,2,1,1
05:01:00,1,5,3,3,1,2,0,3,2
05:02:00,1,3,0,1,0,0,3,1,1
05:03:00,2,2,3,0,7,2,2,3,3
05:04:00,0,0,0,3,1,2,0,1,1
05:05:00,5,2,0,2,3,0,1,2,2
05:06:00,2,1,3,1,1,1,1,2,1
05:07:00,4,0,2,3,0,0,1,2,1
05:08:00,1,3,4,4,3,2,3,3,3
05:09:00,2,3,5,2,1,1,0,3,2
05:10:00,2,0,1,2,2,0,0,1,1
05:11:00,1,1,2,2,1,3,1,1,2
05:12:00,2,3,7,4,4,1,0,4,3
05:13:00,8,1,2,3,1,1,3,3,3
05:14:00,4,3,1,1,2,1,2,2,2
05:15:00,5,4,1,0,3,1,1,3,2
05:16:00,4,3,4,6,8,2,0,5,4
05:17:00,2,3,4,4,2,3,1,3,3
05:18:00,2,4,2,1,2,3,1,2,2
05:19:00,3,4,3,4,4,4,1,4,3
05:20:00,2,1,1,2,4,4,0,2,2
05:21:00,1,1,1,4,3,1,0,2,2
05:22:00,4,3,4,1,3,3,1,3,3
05:23:00,3,5,5,4,3,2,3,4,4
05:24:00,6,1,5,4,5,2,0,4,3
05:25:00,4,4,4,5,4,1,0,4,3
05:26:00,1,6,6,3,3,4,1,4,3
05:27:00,4,4,3,5,0,3,2,3,3
05:28:00,2,4,1,3,5,1,0,3,2
05:29:00,3,3,4,3,6,2,1,4,3
05:30:00,2,2,2,0,1,3,0,1,1
05:31:00,4,3,2,4,2,4,1,3,3
05:32:00,3,2,5,4,4,0,1,4,3
05:33:00,3,5,4,5,4,2,3,4,4
05:34:00,6,6,7,9,9,1,1,7,6
05:35:00,4,5,3,6,8,2,3,5,4
05:36:00,5,4,3,5,4,4,3,4,4
05:37:00,7,5,7,5,2,3,2,5,4
05:38:00,8,8,6,8,8,2,2,8,6
05:39:00,7,3,5,5,6,8,1,5,5
05:40:00,9,4,4,6,6,2,1,6,5
05:41:00,8,11,7,4,8,4,2,8,6
05:42:00,10,6,14,8,3,5,1,8,7
05:43:00,3,14,9,11,5,0,2,8,6
05:44:00,13,6,8,6,9,2,2,8,7
05:45:00,10,8,6,9,6,2,1,8,6
05:46:00,10,12,6,10,6,4,6,9,8
05:47:00,1,7,11,7,5,4,2,6,5
05:48:00,9,7,10,11,4,6,3,8,7
05:49:00,6,8,9,6,3,5,1,6,5
05:50:00,10,12,15,7,5,7,0,10,8
05:51:00,7,8,8,11,5,2,1,8,6
05:52:00,8,7,6,2,8,6,0,6,5
05:53:00,4,9,10,6,7,3,4,7,6
05:54:00,9,3,6,9,3,3,4,6,5
05:55:00,4,4,6,3,6,6,1,5,4
05:56:00,11,7,10,8,5,0,2,8,6
05:57:00,7,8,8,4,8,3,2,7,6
05:58:00,7,5,6,8,9,6,1,7,6
05:59:00,9,10,5,5,6,4,1,7,6
06:00:00,5,1,8,5,9,6,0,6,5
06:01:00,4,7,12,4,10,3,2,7,6
06:02:00,7,9,5,4,8,5,1,7,6
06:03:00,9,4,8,8,6,2,4,7,6
06:04:00,7,4,15,7,7,3,5,8,7
06:05:00,9,10,2,6,3,3,3,6,5
06:06:00,8,12,3,8,8,5,1,8,6
06:07:00,11,6,5,7,6,5,3,7,6
06:08:00,9,8,10,6,6,5,4,8,7
06:09:00,11,9,8,5,9,6,4,8,7
06:10:00,6,8,4,4,7,2,1,6,5
06:11:00,4,12,13,4,3,1,0,7,5
06:12:00,9,8,4,7,3,5,4,6,6
06:13:00,7,8,14,5,12,4,1,9,7
06:14:00,8,11,10,7,9,6,3,9,8
06:15:00,3,7,5,15,8,5,3,8,7
06:16:00,7,10,9,13,9,6,3,10,8
06:17:00,9,8,12,3,7,5,4,8,7
06:18:00,9,12,4,13,4,3,5,8,7
06:19:00,9,7,11,7,15,4,4,10,8
06:20:00,7,10,17,12,3,5,3,10,8
06:21:00,7,4,9,10,9,7,1,8,7
06:22:00,17,6,7,5,7,5,2,8,7
06:23:00,8,10,4,13,10,5,0,9,7
06:24:00,8,5,11,10,8,6,4,8,7
06:25:00,13,10,10,5,11,3,3,10,8
06:26:00,7,6,9,6,8,5,2,7,6
06:27:00,8,9,9,13,8,8,3,9,8
06:28:00,10,6,10,9,11,8,2,9,8
06:29:00,10,11,9,11,7,10,4,10,9
06:30:00,10,9,12,12,13,4,4,11,9
06:31:00,7,15,11,7,9,5,2,10,8
06:32:00,6,8,7,4,9,6,2,7,6
06:33:00,12,13,8,13,13,6,2,12,10
06:34:00,20,16,18,21,10,7,1,17,13
06:35:00,12,17,21,17,16,6,5,17,13
06:36:00,12,10,17,12,18,8,5,14,12
06:37:00,12,11,14,13,10,10,3,12,10
06:38:00,9,19,20,13,22,11,6,17,14
06:39:00,13,11,16,15,11,4,5,13,11
06:40:00,12,17,18,11,16,3,0,15,11
06:41:00,23,12,10,18,19,4,4,16,13
06:42:00,11,16,17,9,16,7,5,14,12
06:43:00,19,15,20,22,11,6,3,17,14
06:44:00,16,12,20,18,16,10,7,16,14
06:45:00,22,17,12,21,17,4,9,18,15
06:46:00,16,14,12,18,15,10,3,15,13
06:47:00,16,18,21,12,26,6,7,19,15
06:48:00,17,21,18,11,12,12,3,16,13
06:49:00,18,17,20,21,19,4,4,19,15
06:50:00,12,13,17,17,9,9,6,14,12
06:51:00,16,34,13,24,24,8,4,22,18
06:52:00,12,11,11,18,10,5,3,12,10
06:53:00,18,18,25,20,14,10,4,19,16
06:54:00,20,13,13,11,7,10,5,13,11
06:55:00,22,17,23,26,14,7,5,20,16
06:56:00,10,16,13,17,18,10,2,15,12
06:57:00,24,18,27,16,23,4,6,22,17
06:58:00,18,19,20,18,17,4,5,18,14
06:59:00,19,16,22,16,22,8,2,19,15
07:00:00,11,18,13,25,11,7,4,16,13
07:01:00,11,19,28,18,13,4,3,18,14
07:02:00,25,26,25,21,32,5,4,26,20
07:03:00,27,24,24,20,16,3,7,22,17
07:04:00,29,27,28,23,25,10,3,26,21
07:05:00,15,17,24,20,14,7,2,18,14
07:06:00,26,23,24,29,29,10,8,26,21
07:07:00,19,35,26,18,29,14,5,25,21
07:08:00,23,17,18,32,29,7,12,24,20
07:09:00,26,31,27,20,23,11,5,25,20
07:10:00,17,20,35,32,20,9,5,25,20
07:11:00,19,23,20,17,24,22,7,21,19
07:12:00,23,19,29,26,23,11,9,24,20
07:13:00,28,23,21,31,23,10,5,25,20
07:14:00,33,23,30,19,18,10,6,25,20
07:15:00,28,19,20,31,36,9,3,27,21
07:16:00,29,26,35,29,29,9,11,30,24
07:17:00,21,26,29,29,25,8,7,26,21
07:18:00,28,29,34,27,23,6,8,28,22
07:19:00,36,24,24,20,26,11,4,26,21
07:20:00,24,26,33,32,34,7,2,30,23
07:21:00,19,40,23,30,28,11,8,28,23
07:22:00,31,22,31,27,29,12,2,28,22
07:23:00,39,29,25,20,27,8,12,28,23
07:24:00,21,25,30,31,26,8,3,27,21
07:25:00,34,32,22,28,26,10,5,28,22
07:26:00,33,37,38,33,18,11,5,32,25
07:27:00,20,28,24,33,34,7,4,28,21
07:28:00,32,24,42,38,28,12,5,33,26
07:29:00,38,22,32,29,28,17,6,30,25
07:30:00,30,35,26,23,30,12,4,29,23
07:31:00,33,32,33,41,34,11,5,35,27
07:32:00,24,22,38,45,33,9,7,32,25
07:33:00,35,24,36,35,28,9,8,32,25
07:34:00,33,36,28,37,35,13,10,34,27
07:35:00,37,35,36,40,33,17,2,36,29
07:36:00,44,40,32,28,38,15,4,36,29
07:37:00,36,31,27,44,39,10,7,35,28
07:38:00,27,40,41,40,37,12,7,37,29
07:39:00,31,39,40,36,42,11,7,38,29
07:40:00,32,35,26,28,32,8,4,31,24
07:41:00,35,43,50,41,38,15,3,41,32
07:42:00,30,32,31,36,35,17,5,33,27
07:43:00,40,36,35,30,33,9,5,35,27
07:44:00,36,34,31,41,37,14,6,36,28
07:45:00,39,36,40,34,37,14,8,37,30
07:46:00,25,25,33,55,35,12,11,35,28
07:47:00,32,34,30,32,24,10,6,30,24
07:48:00,38,38,27,39,38,14,9,36,29
07:49:00,39,38,39,38,34,16,8,38,30
07:50:00,37,38,33,32,31,11,6,34,27
07:51:00,29,41,28,39,47,20,9,37,30
07:52:00,44,37,35,45,30,14,6,38,30
07:53:00,31,37,35,34,24,18,6,32,26
07:54:00,35,40,40,32,38,13,12,37,30
07:55:00,28,34,45,42,40,19,12,38,31
07:56:00,30,48,29,34,35,12,4,35,27
07:57:00,38,30,47,45,37,17,7,39,32
07:58:00,29,39,36,33,33,18,6,34,28
07:59:00,39,30,39,37,37,15,8,36,29
08:00:00,28,42,33,36,29,11,7,34,27
08:01:00,32,35,30,32,34,13,1,33,25
08:02:00,49,35,35,42,30,11,5,38,30
08:03:00,37,37,35,40,35,12,7,37,29
08:04:00,37,30,38,40,36,19,3,36,29
08:05:00,31,34,32,43,29,10,7,34,27
08:06:00,29,41,39,31,36,11,8,35,28
08:07:00,40,33,32,35,35,18,3,35,28
08:08:00,40,38,26,34,31,11,6,34,27
08:09:00,43,30,48,43,34,15,4,40,31
08:10:00,35,38,34,28,43,21,5,36,29
08:11:00,22,30,36,38,31,14,6,31,25
08:12:00,43,42,39,33,35,19,7,38,31
08:13:00,29,32,36,39,49,10,2,37,28
08:14:00,28,30,26,34,28,25,10,29,26
08:15:00,42,32,23,35,29,19,9,32,27
08:16:00,30,26,37,29,32,20,11,31,26
08:17:00,29,47,35,40,31,17,6,36,29
08:18:00,38,37,34,37,31,21,9,35,30
08:19:00,28,36,47,31,38,12,11,36,29
08:20:00,41,34,27,41,42,23,4,37,30
08:21:00,38,39,47,21,32,16,9,35,29
08:22:00,35,35,33,35,39,18,7,35,29
08:23:00,36,27,46,36,37,16,5,36,29
08:24:00,29,26,32,27,33,22,8,29,25
08:25:00,37,38,34,32,28,14,6,34,27
08:26:00,36,38,32,28,29,17,4,33,26
08:27:00,32,27,38,43,32,15,3,34,27
08:28:00,25,34,38,25,32,23,7,31,26
08:29:00,49,29,33,31,32,23,9,35,29
08:30:00,32,35,41,31,28,16,7,33,27
08:31:00,37,46,41,38,39,18,10,40,33
08:32:00,34,29,37,36,36,13,9,34,28
08:33:00,42,38,38,45,47,20,8,42,34
08:34:00,27,30,34,30,39,17,10,32,27
08:35:00,33,31,38,42,39,27,2,37,30
08:36:00,43,47,39,39,41,20,7,42,34
08:37:00,40,34,31,47,31,27,7,37,31
08:38:00,31,38,39,33,35,14,14,35,29
08:39:00,36,38,29,40,31,21,9,35,29
08:40:00,40,31,34,34,35,15,7,35,28
08:41:00,33,43,33,36,29,20,13,35,30
08:42:00,35,30,32,43,37,31,10,35,31
08:43:00,30,38,26,34,28,18,7,31,26
08:44:00,27,39,37,34,32,14,9,34,27
08:45:00,49,32,32,35,26,21,16,35,30
08:46:00,25,36,34,44,37,15,8,35,28
08:47:00,32,37,35,34,31,28,13,34,30
08:48:00,23,31,46,33,33,20,13,33,28
08:49:00,35,44,41,31,36,41,6,37,33
08:50:00,49,39,40,37,38,22,11,41,34
08:51:00,40,32,34,39,34,23,16,36,31
08:52:00,37,43,30,41,32,25,9,37,31
08:53:00,40,19,44,36,35,23,6,35,29
08:54:00,34,30,31,29,32,18,12,31,27
08:55:00,30,44,23,34,35,23,9,33,28
08:56:00,33,39,31,37,23,17,8,33,27
08:57:00,37,33,38,35,30,7,16,35,28
08:58:00,31,33,33,43,31,22,14,34,30
08:59:00,29,24,23,32,29,21,12,27,24
09:00:00,32,26,39,29,33,12,15,32,27
09:01:00,31,32,36,32,22,27,13,31,28
09:02:00,39,27,30,28,29,27,13,31,28
09:03:00,33,38,39,37,28,18,8,35,29
09:04:00,38,35,30,43,28,13,14,35,29
09:05:00,27,26,36,30,26,16,7,29,24
09:06:00,39,26,22,37,28,30,14,30,28
09:07:00,33,42,38,40,42,14,15,39,32
09:08:00,36,31,30,24,27,17,12,30,25
09:09:00,30,24,38,30,34,28,8,31,27
09:10:00,36,42,28,43,45,17,9,39,31
09:11:00,29,33,31,39,35,28,15,33,30
09:12:00,23,26,32,41,43,19,12,33,28
09:13:00,40,30,32,35,27,29,11,33,29
09:14:00,37,31,42,26,35,18,13,34,29
09:15:00,28,42,31,38,21,23,12,32,28
09:16:00,21,23,38,22,41,26,15,29,27
09:17:00,20,23,34,34,34,20,13,29,25
09:18:00,26,39,39,35,26,16,12,33,28
09:19:00,40,35,30,31,40,22,10,35,30
09:20:00,24,28,36,29,30,11,22,29,26
09:21:00,35,34,30,38,30,23,12,33,29
09:22:00,37,31,32,32,36,17,22,34,30
09:23:00,30,47,34,29,28,19,17,34,29
09:24:00,31,36,33,30,26,29,19,31,29
09:25:00,23,34,29,46,28,19,17,32,28
09:26:00,28,37,34,36,18,19,11,31,26
09:27:00,37,32,38,32,28,18,23,33,30
09:28:00,26,24,23,24,15,30,13,22,22
09:29:00,31,28,45,26,25,24,6,31,26
09:30:00,28,32,35,33,26,19,16,31,27
09:31:00,21,34,32,33,33,27,17,31,28
09:32:00,26,33,30,27,28,17,20,29,26
09:33:00,30,30,27,33,25,25,19,29,27
09:34:00,31,26,31,26,22,23,17,27,25
09:35:00,33,42,29,42,38,28,19,37,33
09:36:00,35,30,34,29,40,17,24,34,30
09:37:00,28,33,26,27,27,31,11,28,26
09:38:00,33,16,35,28,28,32,22,28,28
09:39:00,22,38,39,40,24,27,22,33,30
09:40:00,30,31,34,33,21,28,16,30,28
09:41:00,28,25,33,30,25,31,22,28,28
09:42:00,36,26,25,47,25,19,16,32,28
09:43:00,39,33,43,44,36,32,19,39,35
09:44:00,26,36,38,27,25,24,21,30,28
09:45:00,35,32,28,29,38,33,15,32,30
09:46:00,33,26,16,17,34,27,27,25,26
09:47:00,33,27,40,28,35,26,14,33,29
09:48:00,35,32,27,33,26,34,24,31,30
09:49:00,30,46,34,27,41,19,22,36,31
09:50:00,31,29,25,27,37,35,23,30,30
09:51:00,32,33,20,41,43,22,21,34,30
09:52:00,37,35,35,23,22,33,21,30,29
09:53:00,31,35,35,48,29,29,25,36,33
09:54:00,24,26,19,28,31,28,21,26,25
09:55:00,33,25,32,34,33,38,30,31,32
09:56:00,43,28,43,35,35,32,21,37,34
09:57:00,32,35,29,43,21,24,26,32,30
09:58:00,27,19,21,35,27,24,22,26,25
09:59:00,27,39,31,29,24,27,22,30,28
10:00:00,27,23,29,39,27,29,19,29,28
10:01:00,31,32,32,36,19,33,26,30,30
10:02:00,16,18,41,33,29,21,15,27,25
10:03:00,20,30,31,36,34,25,26,30,29
10:04:00,25,39,29,36,30,29,17,32,29
10:05:00,29,25,27,22,32,17,19,27,24
10:06:00,26,31,36,26,30,34,26,30,30
10:07:00,24,32,33,25,31,21,25,29,27
10:08:00,29,33,29,46,27,27,30,33,32
10:09:00,26,38,26,30,22,35,22,28,28
10:10:00,36,26,29,23,22,23,32,27,27
10:11:00,36,36,37,30,34,18,18,35,30
10:12:00,36,22,38,26,37,36,28,32,32
10:13:00,35,28,23,29,32,24,31,29,29
10:14:00,28,36,35,22,20,40,29,28,30
10:15:00,35,28,29,39,30,18,39,32,31
10:16:00,32,33,28,26,26,31,27,29,29
10:17:00,29,23,29,29,33,36,17,29,28
10:18:00,29,36,42,37,42,36,33,37,36
10:19:00,24,37,35,29,34,28,28,32,31
10:20:00,31,24,36,30,23,23,31,29,28
10:21:00,24,27,25,17,27,31,32,24,26
10:22:00,36,28,29,33,29,25,27,31,30
10:23:00,27,27,34,29,34,36,27,30,31
10:24:00,25,45,22,35,35,27,38,32,32
10:25:00,30,31,30,25,24,31,27,28,28
10:26:00,27,27,30,22,28,26,25,27,26
10:27:00,25,29,33,45,35,36,24,33,32
10:28:00,25,29,12,29,19,31,43,23,27
10:29:00,29,42,33,38,32,35,31,35,34
10:30:00,29,24,23,27,31,20,34,27,27
10:31:00,40,30,35,24,26,43,35,31,33
10:32:00,23,31,40,34,22,33,29,30,30
10:33:00,26,29,36,38,35,30,43,33,34
10:34:00,23,40,29,30,37,26,46,32,33
10:35:00,26,32,35,31,31,34,25,31,31
10:36:00,33,32,22,25,28,25,26,28,27
10:37:00,37,35,23,35,28,37,37,32,33
10:38:00,35,30,22,35,32,32,26,31,30
10:39:00,32,29,27,19,26,29,24,27,27
10:40:00,25,20,27,28,24,27,26,25,25
10:41:00,34,18,32,45,15,33,38,29,31
10:42:00,26,27,34,30,36,26,26,31,29
10:43:00,29,28,35,30,36,38,28,32,32
10:44:00,40,23,23,30,26,34,34,28,30
10:45:00,36,29,33,31,30,38,29,32,32
10:46:00,34,31,35,45,37,28,36,36,35
10:47:00,33,33,26,20,30,25,30,28,28
10:48:00,42,28,34,40,26,28,32,34,33
10:49:00,31,30,36,33,36,26,38,33,33
10:50:00,33,39,29,27,31,45,35,32,34
10:51:00,41,28,25,34,28,28,30,31,31
10:52:00,29,35,37,46,21,29,36,34,33
10:53:00,41,24,32,40,33,28,35,34,33
10:54:00,34,30,26,31,44,36,27,33,33
10:55:00,31,35,29,32,32,36,32,32,32
10:56:00,33,26,32,30,26,32,27,29,29
10:57:00,23,35,33,26,36,29,34,31,31
10:58:00,24,29,29,32,29,35,34,29,30
10:59:00,34,35,34,42,24,26,32,34,32
11:00:00,36,29,37,34,33,19,29,34,31
11:01:00,27,22,19,30,33,38,35,26,29
11:02:00,30,30,31,20,31,39,25,28,29
11:03:00,27,21,38,31,27,31,32,29,30
11:04:00,22,29,31,32,29,27,34,29,29
11:05:00,22,26,24,23,33,27,27,26,26
11:06:00,32,33,43,32,23,34,24,33,32
11:07:00,36,26,36,32,43,34,34,35,34
11:08:00,20,22,29,27,28,37,30,25,28
11:09:00,31,28,36,37,39,34,33,34,34
11:10:00,35,29,26,27,21,40,41,28,31
11:11:00,34,33,25,25,40,24,20,31,29
11:12:00,20,31,41,32,29,33,27,31,30
11:13:00,33,33,23,26,33,37,43,30,33
11:14:00,27,16,25,32,33,29,35,27,28
11:15:00,30,29,27,37,32,33,31,31,31
11:16:00,26,24,22,28,25,37,33,25,28
11:17:00,25,37,29,22,26,34,34,28,30
11:18:00,31,28,30,42,45,32,39,35,35
11:19:00,26,38,28,23,25,42,35,28,31
11:20:00,36,23,35,31,35,33,29,32,32
11:21:00,18,35,27,36,21,31,33,27,29
11:22:00,39,42,32,37,39,40,44,38,39
11:23:00,25,26,25,32,30,34,25,28,28
11:24:00,28,33,32,21,33,24,33,29,29
11:25:00,34,30,36,23,36,38,34,32,33
11:26:00,26,25,30,29,39,28,12,30,27
11:27:00,30,33,27,30,34,33,36,31,32
11:28:00,23,39,30,29,33,25,36,31,31
11:29:00,25,32,26,37,30,29,42,30,32
11:30:00,28,26,22,43,22,48,33,28,32
11:31:00,30,32,42,38,34,32,35,35,35
11:32:00,30,30,36,37,32,39,21,33,32
11:33:00,40,28,35,28,27,40,20,32,31
11:34:00,25,35,36,26,32,23,28,31,29
11:35:00,31,40,32,41,30,39,31,35,35
11:36:00,35,19,22,31,41,42,31,30,32
11:37:00,28,36,30,28,29,35,30,30,31
11:38:00,22,28,36,29,37,29,38,30,31
11:39:00,30,41,25,31,32,26,21,32,29
11:40:00,32,26,29,37,28,36,35,30,32
11:41:00,36,39,29,32,47,29,35,37,35
11:42:00,31,36,31,24,50,31,33,34,34
11:43:00,23,39,29,34,36,33,35,32,33
11:44:00,34,25,35,34,39,38,32,33,34
11:45:00,20,42,29,32,24,36,37,29,31
11:46:00,36,29,22,38,38,32,27,33,32
11:47:00,36,27,34,26,31,29,28,31,30
11:48:00,35,37,42,33,26,33,31,35,34
11:49:00,35,26,31,36,22,34,29,30,30
11:50:00,30,42,38,37,39,31,23,37,34
11:51:00,29,37,34,21,36,39,28,31,32
11:52:00,31,35,39,25,34,27,42,33,33
11:53:00,25,26,28,36,20,32,31,27,28
11:54:00,45,43,36,33,36,27,26,39,35
11:55:00,36,29,28,24,31,42,38,30,33
11:56:00,32,28,30,36,32,30,26,32,31
11:57:00,34,26,34,38,29,24,21,32,29
11:58:00,17,35,34,27,32,42,31,29,31
11:59:00,22,30,29,37,43,34,35,32,33
12:00:00,32,32,29,35,37,45,35,33,35
12:01:00,29,31,28,28,32,32,27,30,30
12:02:00,26,33,35,23,30,28,27,29,29
12:03:00,41,35,34,20,41,37,35,34,35
12:04:00,33,32,26,35,30,39,39,31,33
12:05:00,33,35,40,47,45,44,41,40,41
12:06:00,25,27,26,37,33,27,28,30,29
12:07:00,19,35,27,27,33,41,29,28,30
12:08:00,41,26,35,30,30,31,30,32,32
12:09:00,34,35,33,27,38,43,35,33,35
12:10:00,30,32,35,27,39,34,30,33,32
12:11:00,26,20,35,27,28,31,36,27,29
12:12:00,31,28,24,27,39,31,31,30,30
12:13:00,27,25,42,33,32,31,26,32,31
12:14:00,29,32,31,37,41,39,34,34,35
12:15:00,43,31,35,31,31,28,34,34,33
12:16:00,32,27,28,40,35,45,28,32,34
12:17:00,36,28,48,34,44,21,34,38,35
12:18:00,50,30,44,24,20,31,24,34,32
12:19:00,32,31,28,21,40,39,27,30,31
12:20:00,28,39,21,42,26,26,28,31,30
12:21:00,38,24,37,32,42,28,35,35,34
12:22:00,40,33,34,31,39,26,32,35,34
12:23:00,34,37,45,41,29,36,39,37,37
12:24:00,22,21,45,32,39,33,34,32,32
12:25:00,35,39,26,35,26,37,32,32,33
12:26:00,39,36,29,31,29,37,38,33,34
12:27:00,26,31,24,19,32,49,28,26,30
12:28:00,26,41,21,40,30,37,36,32,33
12:29:00,38,27,37,36,33,31,36,34,34
12:30:00,38,34,31,44,48,33,31,39,37
12:31:00,30,37,36,34,26,34,37,33,33
12:32:00,38,36,36,29,31,29,38,34,34
12:33:00,34,29,31,32,38,22,27,33,30
12:34:00,20,33,35,34,40,43,35,32,34
12:35:00,38,29,28,43,27,28,21,33,31
12:36:00,35,31,38,30,26,40,33,32,33
12:37:00,33,27,34,40,29,28,41,33,33
12:38:00,35,24,32,21,34,26,34,29,29
12:39:00,34,33,24,35,31,43,30,31,33
12:40:00,32,31,35,23,30,35,29,30,31
12:41:00,27,40,33,28,27,33,38,31,32
12:42:00,31,50,42,33,34,34,35,38,37
12:43:00,32,33,30,28,51,35,28,35,34
12:44:00,38,26,30,32,40,36,37,33,34
12:45:00,34,23,26,42,40,24,38,33,32
12:46:00,26,30,40,27,41,37,30,33,33
12:47:00,31,30,35,26,38,42,26,32,33
12:48:00,34,32,33,36,32,38,24,33,33
12:49:00,39,27,51,29,39,35,35,37,36
12:50:00,37,45,48,32,38,39,43,40,40
12:51:00,35,32,28,18,34,34,36,29,31
12:52:00,31,32,24,20,50,41,29,31,32
12:53:00,18,33,33,43,34,33,39,32,33
12:54:00,29,39,39,31,39,31,40,35,35
12:55:00,31,35,30,39,30,35,30,33,33
12:56:00,32,36,26,33,31,36,34,32,33
12:57:00,29,34,29,31,36,45,35,32,34
12:58:00,32,29,35,38,41,42,37,35,36
12:59:00,27,28,20,32,29,36,17,27,27
13:00:00,22,35,38,21,33,24,29,30,29
13:01:00,27,19,31,32,37,35,42,29,32
13:02:00,30,33,34,22,38,28,22,31,30
13:03:00,36,43,35,36,30,41,34,36,36
13:04:00,31,20,40,24,26,33,32,28,29
13:05:00,33,35,25,37,30,38,34,32,33
13:06:00,22,26,43,37,32,34,24,32,31
13:07:00,49,29,33,38,27,29,22,35,32
13:08:00,38,26,26,32,41,32,31,33,32
13:09:00,29,32,37,33,27,42,23,32,32
13:10:00,32,43,31,26,36,31,38,34,34
13:11:00,38,24,20,29,32,37,36,29,31
13:12:00,24,27,39,29,26,31,35,29,30
13:13:00,32,33,34,34,38,32,35,34,34
13:14:00,27,29,26,41,23,32,33,29,30
13:15:00,35,34,34,21,41,25,32,33,32
13:16:00,25,21,26,34,31,35,27,27,28
13:17:00,37,38,33,21,36,35,31,33,33
13:18:00,24,30,27,31,37,41,17,30,30
13:19:00,27,29,28,31,41,30,27,31,30
13:20:00,31,28,26,26,30,41,41,28,32
13:21:00,35,39,30,45,34,38,21,37,35
13:22:00,29,41,45,33,19,22,28,33,31
13:23:00,33,33,27,25,35,36,29,31,31
13:24:00,32,26,27,34,38,35,29,31,32
13:25:00,31,45,35,21,41,27,28,35,33
13:26:00,26,34,38,28,43,30,35,34,33
13:27:00,27,26,36,40,32,34,29,32,32
13:28:00,30,31,29,23,35,34,36,30,31
13:29:00,21,21,25,29,29,40,25,25,27
13:30:00,32,31,32,42,39,29,28,35,33
13:31:00,33,31,35,17,34,31,30,30,30
13:32:00,38,26,28,40,31,47,18,33,33
13:33:00,24,38,34,23,30,32,28,30,30
13:34:00,50,29,30,31,44,27,40,37,36
13:35:00,26,34,24,22,35,37,20,28,28
13:36:00,32,17,29,23,28,38,32,26,28
13:37:00,37,34,31,35,33,29,34,34,33
13:38:00,30,30,29,39,37,33,32,33,33
13:39:00,34,21,27,27,38,22,32,29,29
13:40:00,35,30,34,36,31,42,40,33,35
13:41:00,25,33,34,35,31,37,18,32,30
13:42:00,34,32,39,32,33,27,30,34,32
13:43:00,35,33,34,44,34,36,30,36,35
13:44:00,23,30,28,33,36,27,37,30,31
13:45:00,39,37,32,32,39,41,31,36,36
13:46:00,26,45,27,44,43,34,46,37,38
13:47:00,37,32,28,41,39,41,35,35,36
13:48:00,28,35,26,30,27,31,24,29,29
13:49:00,30,31,34,36,38,42,36,34,35
13:50:00,23,37,28,32,30,33,25,30,30
13:51:00,40,36,27,26,25,42,42,31,34
13:52:00,35,34,46,34,32,45,33,36,37
13:53:00,24,28,37,16,23,35,37,26,29
13:54:00,23,28,31,26,36,39,21,29,29
13:55:00,27,34,27,29,32,40,53,30,35
13:56:00,27,28,29,38,36,35,36,32,33
13:57:00,33,28,24,41,32,30,32,32,31
13:58:00,34,31,40,43,34,37,34,36,36
13:59:00,28,35,36,26,33,42,25,32,32
14:00:00,20,26,30,21,24,25,39,24,26
14:01:00,35,32,30,33,40,25,27,34,32
14:02:00,33,31,24,31,43,38,26,32,32
14:03:00,34,34,41,42,27,31,37,36,35
14:04:00,32,41,29,36,39,40,33,35,36
14:05:00,33,33,29,36,29,35,40,32,34
14:06:00,41,30,39,24,36,44,29,34,35
14:07:00,39,39,33,28,40,31,32,36,35
14:08:00,32,32,34,36,30,48,35,33,35
14:09:00,27,43,29,33,34,30,27,33,32
14:10:00,34,30,32,27,36,33,36,32,33
14:11:00,28,20,25,36,31,35,31,28,29
14:12:00,44,31,27,38,33,33,31,35,34
14:13:00,36,35,38,27,32,35,28,34,33
14:14:00,32,23,34,33,31,29,42,31,32
14:15:00,25,43,40,36,32,45,31,35,36
14:16:00,37,32,38,32,30,38,30,34,34
14:17:00,32,34,32,37,36,40,29,34,34
14:18:00,37,22,33,29,40,26,32,32,31
14:19:00,32,30,38,27,40,42,32,33,34
14:20:00,23,28,35,39,31,37,43,31,34
14:21:00,29,34,30,37,34,38,32,33,33
14:22:00,34,38,32,33,34,27,31,34,33
14:23:00,32,35,36,37,40,36,36,36,36
14:24:00,35,41,31,30,35,34,35,34,34
14:25:00,29,35,34,32,36,24,29,33,31
14:26:00,28,19,30,32,30,39,29,28,30
14:27:00,31,35,31,33,39,28,39,34,34
14:28:00,30,27,32,33,34,35,37,31,33
14:29:00,29,28,41,28,38,40,34,33,34
14:30:00,30,19,37,26,32,25,38,29,30
14:31:00,21,35,21,40,31,30,23,30,29
14:32:00,31,36,43,25,35,31,34,34,34
14:33:00,42,30,37,32,29,39,24,34,33
14:34:00,30,38,35,33,39,40,35,35,36
14:35:00,42,39,33,38,40,33,23,38,35
14:36:00,32,39,23,33,39,33,28,33,32
14:37:00,36,23,36,35,27,36,36,31,33
14:38:00,39,40,29,35,42,31,37,37,36
14:39:00,37,30,38,26,39,38,40,34,35
14:40:00,42,37,25,26,30,26,26,32,30
14:41:00,28,33,45,38,31,30,18,35,32
14:42:00,24,35,28,37,24,28,33,30,30
14:43:00,36,31,35,34,45,32,33,36,35
14:44:00,38,33,29,32,30,38,38,32,34
14:45:00,38,38,31,32,32,30,39,34,34
14:46:00,40,40,35,25,35,42,37,35,36
14:47:00,33,36,33,39,24,39,28,33,33
14:48:00,37,33,36,33,43,35,37,36,36
14:49:00,32,38,39,38,35,38,41,36,37
14:50:00,32,35,37,36,20,34,33,32,32
14:51:00,31,32,33,34,38,40,26,34,33
14:52:00,29,40,39,34,31,36,35,35,35
14:53:00,44,39,35,32,39,27,26,38,35
14:54:00,33,39,41,23,30,33,38,33,34
14:55:00,25,23,23,43,33,30,34,29,30
14:56:00,27,31,35,33,34,30,38,32,33
14:57:00,39,40,28,30,38,20,43,35,34
14:58:00,31,32,25,31,26,37,34,29,31
14:59:00,40,29,32,35,32,33,38,34,34
15:00:00,36,38,35,29,40,30,35,36,35
15:01:00,24,25,40,23,40,31,42,30,32
15:02:00,35,21,38,35,39,32,29,34,33
15:03:00,38,42,38,31,45,32,29,39,36
15:04:00,41,31,27,30,38,29,31,33,32
15:05:00,36,33,41,36,26,38,31,34,34
15:06:00,36,39,39,30,34,29,34,36,34
15:07:00,32,33,35,30,29,29,31,32,31
15:08:00,35,29,38,42,30,22,42,35,34
15:09:00,24,29,29,35,39,33,28,31,31
15:10:00,37,33,30,42,39,28,26,36,34
15:11:00,28,39,46,36,30,33,39,36,36
15:12:00,33,35,42,31,32,27,31,35,33
15:13:00,22,33,38,37,33,25,39,33,32
15:14:00,39,31,28,26,26,33,29,30,30
15:15:00,41,34,21,39,41,35,35,35,35
15:16:00,31,35,35,27,40,30,26,34,32
15:17:00,39,40,37,28,35,29,30,36,34
15:18:00,40,31,22,39,29,22,30,32,30
15:19:00,31,38,39,36,38,36,38,36,37
15:20:00,25,35,27,24,22,37,21,27,27
15:21:00,35,32,41,25,22,33,27,31,31
15:22:00,41,29,36,26,37,31,31,34,33
15:23:00,22,25,26,34,30,35,29,27,29
15:24:00,24,35,26,32,30,17,31,29,28
15:25:00,34,34,37,26,20,38,35,30,32
15:26:00,23,39,40,39,32,39,32,35,35
15:27:00,36,34,33,24,35,22,34,32,31
15:28:00,33,24,27,30,25,29,38,28,29
15:29:00,20,31,44,33,40,36,26,34,33
15:30:00,25,20,25,35,29,35,34,27,29
15:31:00,38,33,30,33,35,29,25,34,32
15:32:00,27,33,35,34,28,38,32,31,32
15:33:00,28,36,31,47,40,34,20,36,34
15:34:00,38,39,33,28,29,35,30,33,33
15:35:00,26,37,32,37,27,26,23,32,30
15:36:00,32,32,29,32,34,25,27,32,30
15:37:00,26,32,23,27,38,26,27,29,28
15:38:00,24,37,52,22,26,41,26,32,33
15:39:00,25,28,35,32,28,32,24,30,29
15:40:00,29,36,30,29,45,28,40,34,34
15:41:00,34,39,37,24,41,20,28,35,32
15:42:00,29,29,31,33,32,31,24,31,30
15:43:00,26,34,39,29,32,37,35,32,33
15:44:00,33,35,28,38,33,40,29,33,34
15:45:00,27,33,39,38,21,23,27,32,30
15:46:00,36,34,26,40,36,26,30,34,33
15:47:00,32,40,34,33,39,29,28,36,34
15:48:00,25,28,32,31,25,35,31,28,30
15:49:00,29,33,20,28,32,31,37,28,30
15:50:00,31,30,30,28,29,14,28,30,27
15:51:00,34,34,20,39,30,40,34,31,33
15:52:00,28,31,37,32,37,37,27,33,33
15:53:00,43,28,34,34,29,29,23,34,31
15:54:00,36,38,42,18,25,32,30,32,32
15:55:00,30,39,36,42,46,34,31,39,37
15:56:00,17,30,38,32,36,33,22,31,30
15:57:00,35,29,28,44,34,33,42,34,35
15:58:00,37,20,34,42,47,27,32,36,34
15:59:00,32,42,35,26,17,18,31,30,29
16:00:00,24,27,31,38,41,31,33,32,32
16:01:00,33,43,40,32,39,33,29,37,36
16:02:00,35,42,34,27,32,31,27,34,33
16:03:00,39,42,39,33,39,31,34,38,37
16:04:00,38,34,23,29,34,26,24,32,30
16:05:00,27,37,45,38,38,46,42,37,39
16:06:00,45,35,25,33,33,38,30,34,34
16:07:00,31,46,34,33,47,37,28,38,37
16:08:00,46,32,49,36,38,36,38,40,39
16:09:00,37,40,35,44,37,33,23,39,36
16:10:00,30,37,37,33,39,35,17,35,33
16:11:00,35,37,31,35,38,45,25,35,35
16:12:00,41,37,42,34,39,36,31,39,37
16:13:00,39,37,36,32,15,37,19,32,31
16:14:00,34,41,33,37,45,36,27,38,36
16:15:00,34,31,36,34,40,32,19,35,32
16:16:00,38,49,44,35,30,31,22,39,36
16:17:00,34,44,40,37,36,20,24,38,34
16:18:00,33,43,30,38,44,37,22,38,35
16:19:00,39,51,29,27,30,30,21,35,32
16:20:00,29,28,30,48,25,35,20,32,31
16:21:00,45,39,25,39,39,25,27,37,34
16:22:00,22,38,35,43,34,35,16,34,32
16:23:00,32,23,44,44,35,45,28,36,36
16:24:00,31,44,26,24,40,21,21,33,30
16:25:00,32,30,31,34,41,29,21,34,31
16:26:00,33,40,31,40,29,39,24,35,34
16:27:00,37,40,29,33,34,27,8,35,30
16:28:00,37,46,29,34,40,26,17,37,33
16:29:00,37,36,38,25,39,30,12,35,31
16:30:00,27,45,45,33,40,33,21,38,35
16:31:00,36,40,34,37,30,26,16,35,31
16:32:00,31,34,45,34,33,32,16,35,32
16:33:00,30,28,29,34,34,31,16,31,29
16:34:00,48,41,38,34,30,29,13,38,33
16:35:00,40,33,41,36,25,28,16,35,31
16:36:00,31,39,22,42,41,31,21,35,32
16:37:00,50,36,46,41,39,33,21,42,38
16:38:00,30,33,38,43,45,21,23,38,33
16:39:00,38,38,40,38,28,34,17,36,33
16:40:00,29,42,36,30,37,30,15,35,31
16:41:00,38,31,34,43,35,27,9,36,31
16:42:00,39,45,40,38,34,26,14,39,34
16:43:00,36,44,35,39,29,37,14,37,33
16:44:00,40,35,47,42,36,32,17,40,36
16:45:00,42,49,47,29,43,21,23,42,36
16:46:00,43,32,36,48,30,23,21,38,33
16:47:00,50,38,44,44,36,33,15,42,37
16:48:00,36,47,28,37,28,35,12,35,32
16:49:00,39,39,45,42,39,34,20,41,37
16:50:00,35,37,55,37,33,30,23,39,36
16:51:00,25,44,39,45,31,37,20,37,34
16:52:00,49,43,44,49,36,43,13,44,40
16:53:00,44,43,37,42,32,33,19,40,36
16:54:00,42,22,50,36,39,29,19,38,34
16:55:00,33,51,26,38,34,30,24,36,34
16:56:00,40,35,33,35,34,28,15,35,31
16:57:00,33,47,37,42,26,29,24,37,34
16:58:00,44,44,48,41,25,32,14,40,35
16:59:00,36,35,40,41,33,29,16,37,33
17:00:00,42,44,31,35,53,27,14,41,35
17:01:00,38,39,28,34,37,25,12,35,30
17:02:00,45,36,39,38,40,28,27,40,36
17:03:00,43,37,45,27,37,31,16,38,34
17:04:00,40,43,37,40,45,30,20,41,36
17:05:00,43,48,33,39,42,17,21,41,35
17:06:00,45,51,41,36,40,32,14,43,37
17:07:00,33,33,46,42,46,27,17,40,35
17:08:00,43,49,47,36,36,29,17,42,37
17:09:00,37,49,37,38,46,22,16,41,35
17:10:00,38,44,48,34,43,40,14,41,37
17:11:00,48,51,39,42,42,35,20,44,40
17:12:00,34,45,37,41,42,29,16,40,35
17:13:00,37,40,46,39,46,19,14,42,34
17:14:00,40,41,35,33,34,39,7,37,33
17:15:00,46,46,54,40,45,30,16,46,40
17:16:00,32,40,37,58,34,31,21,40,36
17:17:00,37,47,39,42,43,36,13,42,37
17:18:00,36,37,45,33,46,20,13,39,33
17:19:00,40,44,45,38,36,29,20,41,36
17:20:00,38,35,28,42,41,32,14,37,33
17:21:00,30,31,43,51,41,33,23,39,36
17:22:00,41,39,40,33,42,34,15,39,35
17:23:00,35,37,35,35,36,32,19,36,33
17:24:00,48,48,29,41,41,27,9,41,35
17:25:00,38,45,50,52,48,25,23,47,40
17:26:00,35,36,27,27,43,31,17,34,31
17:27:00,31,45,61,47,36,21,9,44,36
17:28:00,33,31,46,33,42,29,14,37,33
17:29:00,38,37,41,42,31,27,14,38,33
17:30:00,38,43,30,27,40,23,20,36,32
17:31:00,47,47,37,38,38,28,8,41,35
17:32:00,29,37,37,44,37,21,15,37,31
17:33:00,34,43,39,49,28,30,8,39,33
17:34:00,36,32,41,47,32,34,20,38,35
17:35:00,42,37,35,30,37,27,18,36,32
17:36:00,30,30,44,44,34,39,16,36,34
17:37:00,39,40,49,30,33,25,10,38,32
17:38:00,40,28,54,37,34,22,14,39,33
17:39:00,34,37,33,36,33,24,10,35,30
17:40:00,32,37,47,23,44,32,12,37,32
17:41:00,37,46,47,25,40,34,19,39,35
17:42:00,33,44,34,32,46,23,17,38,33
17:43:00,42,44,44,55,35,22,21,44,38
17:44:00,38,43,34,55,42,29,13,42,36
17:45:00,36,33,39,46,41,26,15,39,34
17:46:00,42,44,32,32,44,19,12,39,32
17:47:00,51,24,37,34,39,27,12,37,32
17:48:00,41,47,33,34,38,33,15,39,34
17:49:00,41,46,43,39,44,28,15,43,37
17:50:00,42,45,38,42,42,28,16,42,36
17:51:00,48,40,34,41,43,23,18,41,35
17:52:00,36,29,39,40,49,19,27,39,34
17:53:00,38,41,43,32,35,30,16,38,34
17:54:00,38,46,34,46,35,31,10,40,34
17:55:00,37,44,41,46,42,27,9,42,35
17:56:00,31,52,45,34,36,27,7,40,33
17:57:00,33,29,20,37,28,30,19,29,28
17:58:00,31,39,37,27,37,17,15,34,29
17:59:00,44,42,30,44,42,35,19,40,37
18:00:00,37,42,32,42,34,30,13,37,33
18:01:00,27,28,34,45,51,30,8,37,32
18:02:00,39,38,34,35,37,24,28,37,34
18:03:00,41,27,39,33,36,33,12,35,32
18:04:00,31,55,36,38,30,27,14,38,33
18:05:00,32,39,28,35,29,33,13,33,30
18:06:00,30,34,47,29,38,22,22,36,32
18:07:00,31,27,45,28,45,22,12,35,30
18:08:00,18,38,38,39,41,26,20,35,31
18:09:00,33,29,31,51,40,31,12,37,32
18:10:00,42,45,34,36,27,40,14,37,34
18:11:00,32,33,40,40,38,24,17,37,32
18:12:00,34,28,30,35,33,27,14,32,29
18:13:00,39,38,19,43,44,25,11,37,31
18:14:00,45,41,42,43,31,33,18,40,36
18:15:00,28,25,31,35,32,31,11,30,28
18:16:00,27,38,37,43,42,26,12,37,32
18:17:00,41,42,32,41,46,25,13,40,34
18:18:00,32,24,26,35,37,25,12,31,27
18:19:00,29,34,37,42,34,17,8,35,29
18:20:00,25,25,34,25,49,34,10,32,29
18:21:00,34,38,35,36,27,25,14,34,30
18:22:00,35,27,32,44,37,25,14,35,31
18:23:00,29,30,36,32,34,19,17,32,28
18:24:00,24,46,31,33,24,34,8,32,29
18:25:00,29,33,28,35,24,22,12,30,26
18:26:00,29,35,23,35,30,18,11,30,26
18:27:00,25,31,37,20,26,26,8,28,25
18:28:00,23,42,28,20,19,26,16,26,25
18:29:00,29,35,34,28,36,34,11,32,30
18:30:00,26,33,27,36,24,27,12,29,26
18:31:00,23,33,40,28,28,16,14,30,26
18:32:00,34,29,41,33,28,20,18,33,29
18:33:00,33,35,28,28,34,19,6,32,26
18:34:00,36,27,25,32,26,43,10,29,28
18:35:00,28,25,36,20,32,17,21,28,26
18:36:00,25,29,26,28,26,25,20,27,26
18:37:00,29,17,31,34,21,34,17,26,26
18:38:00,31,33,22,24,32,9,10,28,23
18:39:00,25,21,30,32,22,25,27,26,26
18:40:00,29,38,33,35,33,28,12,34,30
18:41:00,19,27,24,37,23,29,11,26,24
18:42:00,24,34,28,36,26,24,13,30,26
18:43:00,37,31,29,21,30,20,14,30,26
18:44:00,26,32,26,25,18,22,24,25,25
18:45:00,36,34,32,35,31,19,11,34,28
18:46:00,27,33,33,35,19,28,12,29,27
18:47:00,23,22,32,30,34,28,7,28,25
18:48:00,22,22,25,38,36,12,13,29,24
18:49:00,25,30,37,25,22,25,14,28,25
18:50:00,19,31,30,32,29,23,15,28,26
18:51:00,46,33,33,40,26,14,14,36,29
18:52:00,19,26,24,28,20,20,12,23,21
18:53:00,33,26,29,28,25,15,8,28,23
18:54:00,22,32,26,22,34,20,23,27,26
18:55:00,11,26,26,38,32,21,11,27,24
18:56:00,25,30,32,27,24,21,10,28,24
18:57:00,24,26,28,33,24,15,10,27,23
18:58:00,26,31,34,18,28,28,13,27,25
18:59:00,20,26,11,31,26,17,12,23,20
19:00:00,26,20,27,35,22,18,13,26,23
19:01:00,22,28,29,40,26,31,16,29,27
19:02:00,30,29,30,22,26,15,10,27,23
19:03:00,29,25,23,24,23,22,17,25,23
19:04:00,26,34,34,35,40,23,12,34,29
19:05:00,27,29,27,24,31,23,20,28,26
19:06:00,30,44,32,40,30,20,12,35,30
19:07:00,33,20,32,27,32,10,11,29,24
19:08:00,26,40,33,34,30,22,11,33,28
19:09:00,31,30,30,22,38,22,11,30,26
19:10:00,23,31,29,30,29,19,12,28,25
19:11:00,32,28,30,29,36,27,16,31,28
19:12:00,18,27,20,27,36,29,10,26,24
19:13:00,23,26,27,31,31,20,17,28,25
19:14:00,42,18,38,30,29,10,13,31,26
19:15:00,31,43,30,18,26,16,11,30,25
19:16:00,17,33,32,22,35,20,10,28,24
19:17:00,21,13,24,28,41,19,11,25,22
19:18:00,17,39,18,18,28,13,10,24,20
19:19:00,24,20,25,24,27,19,7,24,21
19:20:00,19,24,27,34,17,21,13,24,22
19:21:00,20,18,28,25,24,12,12,23,20
19:22:00,29,23,30,20,24,22,14,25,23
19:23:00,30,28,30,45,24,19,11,31,27
19:24:00,25,26,22,28,30,14,8,26,22
19:25:00,12,30,18,30,14,19,12,21,19
19:26:00,26,18,22,23,19,13,8,22,18
19:27:00,14,26,15,25,26,17,15,21,20
19:28:00,13,28,24,19,18,21,6,20,18
19:29:00,10,30,27,28,22,18,8,23,20
19:30:00,19,28,19,22,18,17,14,21,20
19:31:00,18,31,30,15,26,16,12,24,21
19:32:00,20,26,22,32,19,15,10,24,21
19:33:00,21,20,20,21,25,24,9,21,20
19:34:00,18,16,20,23,21,10,10,20,17
19:35:00,22,18,24,30,26,22,11,24,22
19:36:00,17,18,24,23,21,20,16,21,20
19:37:00,15,20,27,38,21,13,10,24,21
19:38:00,19,22,20,13,19,18,12,19,18
19:39:00,22,34,26,20,22,18,8,25,21
19:40:00,10,18,22,21,21,19,12,18,18
19:41:00,13,13,20,12,15,19,10,15,15
19:42:00,15,18,26,22,16,14,14,19,18
19:43:00,19,19,16,19,21,15,11,19,17
19:44:00,15,25,24,39,15,17,9,24,21
19:45:00,15,14,19,19,23,12,8,18,16
19:46:00,18,17,15,15,22,19,7,17,16
19:47:00,24,23,21,30,16,17,7,23,20
19:48:00,11,15,25,28,21,20,8,20,18
19:49:00,13,22,22,19,16,7,9,18,15
19:50:00,19,14,28,18,10,22,12,18,18
19:51:00,22,18,15,27,21,16,6,21,18
19:52:00,21,22,24,17,17,10,9,20,17
19:53:00,14,17,24,21,15,17,11,18,17
19:54:00,19,17,21,17,19,17,9,19,17
19:55:00,10,19,20,28,19,7,11,19,16
19:56:00,21,14,16,19,18,12,10,18,16
19:57:00,20,15,23,32,24,12,14,23,20
19:58:00,14,13,13,20,17,20,7,15,15
19:59:00,13,26,22,20,24,14,12,21,19
20:00:00,18,22,26,18,14,5,6,20,16
20:01:00,11,18,16,15,22,11,7,16,14
20:02:00,22,25,21,11,16,14,6,19,16
20:03:00,21,18,15,26,9,14,17,18,17
20:04:00,13,16,26,26,24,14,7,21,18
20:05:00,17,14,20,24,20,12,11,19,17
20:06:00,15,18,20,17,34,10,7,21,17
20:07:00,12,19,24,25,23,9,10,21,17
20:08:00,11,24,19,20,21,15,11,19,17
20:09:00,14,21,23,23,14,14,6,19,16
20:10:00,11,14,19,23,23,12,10,18,16
20:11:00,22,25,24,19,13,16,6,21,18
20:12:00,12,18,17,24,28,14,14,20,18
20:13:00,19,22,23,27,17,15,12,22,19
20:14:00,11,28,15,25,14,12,9,19,16
20:15:00,21,17,23,18,10,9,3,18,14
20:16:00,9,25,20,14,17,8,10,17,15
20:17:00,7,21,16,18,16,9,9,16,14
20:18:00,14,18,17,14,12,19,5,15,14
20:19:00,13,17,8,24,24,12,9,17,15
20:20:00,6,10,20,19,19,12,9,15,14
20:21:00,13,11,19,19,9,5,13,14,13
20:22:00,14,13,15,17,22,13,12,16,15
20:23:00,16,13,9,17,14,8,5,14,12
20:24:00,9,13,14,16,10,6,9,12,11
20:25:00,10,9,12,14,16,12,11,12,12
20:26:00,11,16,17,11,15,11,5,14,12
20:27:00,6,15,13,16,21,3,7,14,12
20:28:00,12,6,11,16,11,11,9,11,11
20:29:00,9,16,18,15,15,2,4,15,11
20:30:00,7,13,21,9,11,4,6,12,10
20:31:00,12,18,15,9,18,7,5,14,12
20:32:00,9,7,9,13,14,21,9,10,12
20:33:00,9,15,9,10,25,6,6,14,11
20:34:00,11,16,17,19,16,17,4,16,14
20:35:00,7,14,13,11,12,5,4,11,9
20:36:00,8,9,11,5,8,17,9,8,10
20:37:00,19,13,17,14,16,7,8,16,13
20:38:00,15,11,10,10,12,9,6,12,10
20:39:00,14,15,6,19,28,7,4,16,13
20:40:00,9,10,8,10,12,6,6,10,9
20:41:00,11,12,14,15,23,13,8,15,14
20:42:00,13,10,10,16,12,7,10,12,11
20:43:00,11,16,10,12,15,6,3,13,10
20:44:00,14,11,10,23,9,6,9,13,12
20:45:00,12,16,11,8,18,12,10,13,12
20:46:00,6,8,10,14,7,8,4,9,8
20:47:00,12,15,17,19,11,7,2,15,12
20:48:00,15,9,12,10,11,6,3,11,9
20:49:00,10,7,10,13,9,14,7,10,10
20:50:00,10,10,16,9,7,11,9,10,10
20:51:00,7,10,9,12,12,10,11,10,10
20:52:00,7,17,15,14,15,4,5,14,11
20:53:00,9,11,7,10,12,8,4,10,9
20:54:00,8,9,7,5,16,7,3,9,8
20:55:00,5,10,15,11,7,8,4,10,9
20:56:00,7,12,15,9,10,8,6,11,10
20:57:00,12,16,11,9,11,10,7,12,11
20:58:00,8,6,13,14,16,7,8,11,10
20:59:00,9,8,11,15,7,1,2,10,8
21:00:00,13,4,13,13,15,10,0,12,10
21:01:00,5,5,7,9,9,3,7,7,6
21:02:00,14,11,13,9,7,6,7,11,10
21:03:00,9,3,10,6,13,9,4,8,8
21:04:00,12,8,6,12,16,16,8,11,11
21:05:00,11,12,18,10,15,14,3,13,12
21:06:00,14,16,11,14,9,6,11,13,12
21:07:00,6,19,14,13,17,6,5,14,11
21:08:00,13,7,13,13,9,10,4,11,10
21:09:00,11,11,13,7,12,10,4,11,10
21:10:00,10,16,15,12,10,10,8,13,12
21:11:00,7,15,6,9,10,13,3,9,9
21:12:00,10,8,8,8,14,10,8,10,9
21:13:00,11,10,15,7,14,8,7,11,10
21:14:00,14,9,17,13,15,8,5,14,12
21:15:00,10,10,15,8,17,6,9,12,11
21:16:00,11,10,11,12,6,10,4,10,9
21:17:00,13,14,7,9,11,5,3,11,9
21:18:00,4,6,13,13,6,9,7,8,8
21:19:00,10,12,11,6,15,11,4,11,10
21:20:00,9,14,5,21,13,8,6,12,11
21:21:00,15,13,13,11,13,11,7,13,12
21:22:00,18,13,14,9,10,6,5,13,11
21:23:00,15,13,14,7,10,10,7,12,11
21:24:00,11,13,13,11,12,5,5,12,10
21:25:00,8,13,12,5,5,11,8,9,9
21:26:00,9,9,15,12,15,9,9,12,11
21:27:00,9,13,11,9,10,5,6,10,9
21:28:00,5,12,12,15,6,6,4,10,9
21:29:00,9,9,13,13,8,8,3,10,9
21:30:00,3,11,8,7,10,9,3,8,7
21:31:00,6,5,11,14,7,8,0,9,7
21:32:00,4,14,13,7,12,8,2,10,9
21:33:00,11,17,4,10,7,4,5,10,8
21:34:00,4,7,5,11,14,11,5,8,8
21:35:00,7,14,7,6,7,0,6,8,7
21:36:00,11,9,11,10,9,4,5,10,8
21:37:00,4,12,10,20,12,8,9,12,11
21:38:00,8,10,8,11,12,10,2,10,9
21:39:00,5,9,6,13,7,9,5,8,8
21:40:00,12,15,3,11,14,9,4,11,10
21:41:00,7,9,10,10,6,11,11,8,9
21:42:00,5,14,8,15,9,7,0,10,8
21:43:00,5,8,9,5,5,11,8,6,7
21:44:00,12,17,11,13,8,7,3,12,10
21:45:00,8,12,11,11,10,8,6,10,9
21:46:00,10,15,8,4,12,10,6,10,9
21:47:00,13,14,7,4,6,5,3,9,7
21:48:00,8,14,9,11,7,7,4,10,9
21:49:00,11,10,10,6,12,8,2,10,8
21:50:00,8,6,8,12,4,8,3,8,7
21:51:00,6,14,7,9,13,9,3,10,9
21:52:00,10,7,5,9,7,12,2,8,7
21:53:00,2,7,9,5,6,4,7,6,6
21:54:00,6,10,7,5,8,8,1,7,6
21:55:00,8,5,8,8,7,5,5,7,7
21:56:00,6,16,8,3,8,6,9,8,8
21:57:00,7,9,10,8,13,7,4,9,8
21:58:00,7,16,5,8,10,4,2,9,7
21:59:00,2,9,6,5,3,8,3,5,5
22:00:00,5,11,16,8,7,8,6,9,9
22:01:00,3,8,10,7,4,5,3,6,6
22:02:00,1,7,8,10,9,11,2,7,7
22:03:00,6,10,8,6,7,5,3,7,6
22:04:00,8,11,7,12,15,7,5,11,9
22:05:00,6,17,13,9,6,6,5,10,9
22:06:00,9,15,10,8,8,7,3,10,9
22:07:00,11,15,7,7,10,12,6,10,10
22:08:00,5,8,4,6,6,6,3,6,5
22:09:00,5,9,11,9,9,5,0,9,7
22:10:00,9,10,10,9,9,5,2,9,8
22:11:00,8,9,9,7,2,5,4,7,6
22:12:00,7,11,6,13,14,4,1,10,8
22:13:00,7,9,7,10,6,8,4,8,7
22:14:00,6,14,7,16,6,10,2,10,9
22:15:00,6,10,6,4,8,3,6,7,6
22:16:00,8,7,5,6,8,7,3,7,6
22:17:00,8,10,4,2,10,8,4,7,7
22:18:00,6,5,6,8,6,10,2,6,6
22:19:00,7,7,5,11,5,10,6,7,7
22:20:00,6,13,5,7,8,10,5,8,8
22:21:00,2,7,7,9,11,4,0,7,6
22:22:00,5,6,9,11,9,6,3,8,7
22:23:00,10,12,9,8,4,4,2,9,7
22:24:00,5,4,7,9,8,10,4,7,7
22:25:00,5,9,2,6,10,10,1,6,6
22:26:00,8,3,8,7,8,8,4,7,7
22:27:00,4,6,4,3,8,9,4,5,5
22:28:00,5,8,5,7,10,10,4,7,7
22:29:00,7,7,9,6,5,9,1,7,6
22:30:00,7,7,8,5,8,4,5,7,6
22:31:00,11,14,5,4,6,5,6,8,7
22:32:00,9,8,7,7,9,4,1,8,6
22:33:00,5,3,5,3,5,3,4,4,4
22:34:00,8,7,6,4,5,8,2,6,6
22:35:00,7,5,4,8,6,3,7,6,6
22:36:00,3,0,2,8,4,4,1,3,3
22:37:00,4,9,6,10,9,5,6,8,7
22:38:00,6,8,3,3,8,4,5,6,5
22:39:00,2,6,3,5,8,4,2,5,4
22:40:00,0,3,12,5,5,4,2,5,4
22:41:00,4,9,3,4,5,6,3,5,5
22:42:00,6,2,7,3,2,3,2,4,4
22:43:00,5,7,4,2,3,7,1,4,4
22:44:00,7,2,2,10,6,5,3,5,5
22:45:00,6,8,7,7,4,3,3,6,5
22:46:00,0,6,3,3,4,5,5,3,4
22:47:00,2,2,4,3,8,7,3,4,4
22:48:00,0,9,5,7,1,8,4,4,5
22:49:00,4,5,4,4,3,4,1,4,4
22:50:00,4,3,4,4,6,4,3,4,4
22:51:00,2,4,2,4,10,8,3,4,5
22:52:00,2,1,2,2,3,5,3,2,3
22:53:00,5,6,3,5,3,9,2,4,5
22:54:00,2,6,3,7,5,9,3,5,5
22:55:00,1,4,1,5,6,5,3,3,4
22:56:00,3,1,7,3,6,9,3,4,5
22:57:00,0,2,1,3,2,11,1,2,3
22:58:00,4,7,3,7,6,3,3,5,5
22:59:00,4,4,0,1,6,7,1,3,3
23:00:00,3,6,4,1,7,4,4,4,4
23:01:00,6,3,0,4,7,4,2,4,4
23:02:00,3,6,7,5,8,9,2,6,6
23:03:00,2,3,2,5,3,4,5,3,3
23:04:00,3,3,3,7,4,4,0,4,3
23:05:00,4,1,1,3,4,4,3,3,3
23:06:00,6,2,3,1,7,4,3,4,4
23:07:00,5,6,3,1,5,4,3,4,4
23:08:00,1,3,1,1,8,6,3,3,3
23:09:00,4,2,7,2,8,3,1,5,4
23:10:00,3,3,0,2,2,5,1,2,2
23:11:00,3,3,2,1,7,3,5,3,3
23:12:00,2,5,4,3,6,5,3,4,4
23:13:00,1,2,4,5,5,8,3,3,4
23:14:00,3,1,3,2,4,3,1,3,2
23:15:00,2,4,3,4,7,5,1,4,4
23:16:00,4,3,0,0,6,3,1,3,2
23:17:00,1,4,2,5,3,2,2,3,3
23:18:00,2,3,0,4,3,3,0,2,2
23:19:00,0,4,0,4,3,7,2,2,3
23:20:00,3,2,1,4,4,8,1,3,3
23:21:00,1,1,1,3,5,6,1,2,3
23:22:00,1,2,0,0,1,4,0,1,1
23:23:00,2,1,5,2,7,4,1,3,3
23:24:00,0,1,3,1,6,5,1,2,2
23:25:00,0,2,2,3,1,1,0,2,1
23:26:00,1,1,1,2,3,5,4,2,2
23:27:00,3,1,2,1,4,6,5,2,3
23:28:00,0,4,4,2,3,6,2,3,3
23:29:00,0,3,2,3,5,3,2,3,3
23:30:00,4,4,1,4,3,3,5,3,3
23:31:00,4,3,1,3,4,1,4,3,3
23:32:00,3,2,3,1,7,6,2,3,3
23:33:00,1,1,1,3,5,4,0,2,2
23:34:00,1,0,0,1,5,2,2,1,2
23:35:00,2,1,2,3,1,6,1,2,2
23:36:00,2,0,6,2,5,5,1,3,3
23:37:00,2,1,3,4,4,2,3,3,3
23:38:00,1,1,1,2,2,3,1,1,2
23:39:00,2,2,2,3,0,5,3,2,2
23:40:00,3,1,1,1,3,3,2,2,2
23:41:00,0,1,3,4,3,0,4,2,2
23:42:00,2,0,2,0,2,5,0,1,2
23:43:00,2,3,1,4,2,3,0,2,2
23:44:00,1,1,3,2,5,1,3,2,2
23:45:00,0,3,1,1,9,5,0,3,3
23:46:00,3,4,0,2,6,2,1,3,3
23:47:00,1,1,1,4,2,4,2,2,2
23:48:00,1,1,0,6,4,6,3,2,3
23:49:00,4,1,2,1,3,3,3,2,2
23:50:00,1,3,1,3,3,3,1,2,2
23:51:00,1,0,1,1,3,1,2,1,1
23:52:00,0,2,2,4,2,1,0,2,2
23:53:00,2,3,3,2,3,4,3,3,3
23:54:00,2,4,0,0,4,7,2,2,3
23:55:00,0,3,1,1,2,3,3,1,2
23:56:00,1,2,1,2,4,2,1,2,2
23:57:00,1,2,1,1,2,4,1,1,2
23:58:00,0,1,1,2,1,2,1,1,1
23:59:00,3,4,3,0,2,3,3,2,3
,,,,,,,,,
Totals,,,,,,,,,
12H(7-19),23216,23890,23908,24000,23800,20117,16175,23763,22158
16H(6-22),26396,27550,27621,27745,27439,22594,17781,27350,25304
18H(6-24),26826,28126,28089,28280,28084,23219,18089,27881,25816
24H(0-24),27389,28716,28677,28840,28634,23789,18604,28451,26378
,,,,,,,,,
AM Peak,07:59:00,07:51:00,07:54:00,07:44:00,07:37:00,11:00:00,10:30:00,07:38:00,10:01:00
,2102,2134,2156,2179,2094,1988,1929,2121,1817
,,,,,,,,,
PM Peak,16:52:00,16:57:00,16:44:00,16:35:00,17:00:00,13:40:00,14:14:00,16:57:00,16:37:00
,2337,2453,2436,2371,2382,2113,2001,2370,2077
,,,,,,,,,
,,,,,,,,,
CA Traffic,,,,,,,,,VDA-net R2 15/11/2019
