Site Number,00008012,Unnamed: 2,Site Reference,00008012.1,Unnamed: 5,Unnamed: 6,Lat/Lng.,"52.05994,1.13510",Unnamed: 9
Radar 8012 Yarrmouth Road Ipswich,,,,,,,,,
Vehicle Count Report,,,,Week Begin: 28 October 2019,,,Channel:,Total Flow,
,,,,,,,,,
,,,,,,,,,
,2019-10-28 00:00:00,2019-10-29 00:00:00,2019-10-30 00:00:00,2019-10-31 00:00:00,2019-11-01 00:00:00,2019-11-02 00:00:00,2019-11-03 00:00:00,"5-Day
Ave.","7-Day
Ave."
00:00:00,0,0,4,1,5,7,4,2,3
00:01:00,3,2,3,1,7,2,8,3,4
00:02:00,1,3,3,0,2,6,4,2,3
00:03:00,2,2,0,3,3,3,2,2,2
00:04:00,2,7,8,1,4,5,8,4,5
00:05:00,5,2,5,4,3,4,7,4,4
00:06:00,6,2,3,4,1,6,2,3,3
00:07:00,0,5,3,5,3,3,4,3,3
00:08:00,2,2,1,0,2,4,6,1,2
00:09:00,1,0,2,2,1,5,5,1,2
00:10:00,1,3,2,1,5,2,7,2,3
00:11:00,4,0,3,0,1,2,3,2,2
00:12:00,2,0,5,2,1,6,5,2,3
00:13:00,2,3,4,7,7,2,2,5,4
00:14:00,1,2,2,2,3,9,6,2,4
00:15:00,2,0,2,0,2,4,3,1,2
00:16:00,0,1,2,3,3,5,5,2,3
00:17:00,1,1,6,0,3,9,3,2,3
00:18:00,3,1,1,3,3,4,3,2,3
00:19:00,1,2,1,3,1,5,3,2,2
00:20:00,4,1,0,6,5,4,2,3,3
00:21:00,0,2,2,3,2,1,3,2,2
00:22:00,2,2,1,3,2,5,2,2,2
00:23:00,6,4,0,1,1,6,2,2,3
00:24:00,0,1,2,2,3,1,7,2,2
00:25:00,6,2,1,4,3,1,4,3,3
00:26:00,2,0,0,1,2,2,1,1,1
00:27:00,3,2,2,1,2,5,11,2,4
00:28:00,3,1,2,1,0,6,4,1,2
00:29:00,3,1,3,5,3,2,13,3,4
00:30:00,3,3,2,4,0,4,3,2,3
00:31:00,1,1,2,1,3,5,4,2,2
00:32:00,1,0,5,4,2,3,2,2,2
00:33:00,0,1,0,2,4,5,2,1,2
00:34:00,1,1,2,3,2,4,5,2,3
00:35:00,0,3,1,3,1,6,3,2,2
00:36:00,2,2,2,3,4,1,2,3,2
00:37:00,1,1,2,1,3,5,3,2,2
00:38:00,3,1,4,3,3,5,7,3,4
00:39:00,2,2,3,2,3,2,4,2,3
00:40:00,0,1,1,3,0,7,2,1,2
00:41:00,1,1,0,1,5,1,1,2,1
00:42:00,5,0,0,0,4,6,4,2,3
00:43:00,2,2,2,2,1,4,2,2,2
00:44:00,2,1,1,1,3,5,3,2,2
00:45:00,2,0,2,5,2,2,4,2,2
00:46:00,3,4,1,3,2,4,2,3,3
00:47:00,1,3,5,4,2,2,4,3,3
00:48:00,1,1,0,2,2,1,7,1,2
00:49:00,0,1,2,2,2,2,5,1,2
00:50:00,2,5,0,1,1,5,7,2,3
00:51:00,2,2,5,1,3,2,4,3,3
00:52:00,1,4,2,1,3,1,2,2,2
00:53:00,1,1,3,2,2,1,3,2,2
00:54:00,5,0,2,0,3,4,2,2,2
00:55:00,1,2,3,1,2,1,7,2,2
00:56:00,2,2,1,3,2,5,3,2,3
00:57:00,2,1,0,2,0,3,6,1,2
00:58:00,2,1,1,2,2,2,0,2,1
00:59:00,1,1,0,0,0,3,7,0,2
01:00:00,0,0,1,0,1,3,7,0,2
01:01:00,5,1,0,0,0,2,6,1,2
01:02:00,2,3,1,0,2,4,4,2,2
01:03:00,0,1,3,1,2,3,3,1,2
01:04:00,2,0,1,1,3,3,5,1,2
01:05:00,1,1,0,3,0,3,2,1,1
01:06:00,0,2,1,1,2,3,4,1,2
01:07:00,4,0,3,0,1,3,2,2,2
01:08:00,0,0,1,2,2,2,2,1,1
01:09:00,0,2,0,0,1,3,0,1,1
01:10:00,0,0,1,1,1,4,5,1,2
01:11:00,1,0,2,0,1,4,2,1,1
01:12:00,0,0,0,0,0,0,2,0,0
01:13:00,1,0,4,1,0,1,6,1,2
01:14:00,2,0,3,0,1,3,3,1,2
01:15:00,0,0,0,4,2,1,3,1,1
01:16:00,0,3,1,0,1,3,4,1,2
01:17:00,0,1,2,1,1,3,1,1,1
01:18:00,0,1,0,0,2,2,4,1,1
01:19:00,1,0,2,1,1,1,1,1,1
01:20:00,1,2,0,3,2,1,0,2,1
01:21:00,1,0,0,3,1,3,3,1,2
01:22:00,1,0,2,0,3,2,1,1,1
01:23:00,1,2,1,0,0,2,1,1,1
01:24:00,0,1,0,0,0,0,0,0,0
01:25:00,0,0,2,0,1,5,0,1,1
01:26:00,1,2,3,0,1,4,3,1,2
01:27:00,3,1,0,0,2,3,1,1,1
01:28:00,0,0,0,0,3,3,3,1,1
01:29:00,3,1,0,1,1,1,0,1,1
01:30:00,0,2,2,1,2,0,3,1,1
01:31:00,1,1,1,1,2,5,4,1,2
01:32:00,0,0,0,1,3,1,1,1,1
01:33:00,1,1,3,1,0,3,0,1,1
01:34:00,1,0,0,1,0,0,0,0,0
01:35:00,2,1,1,1,2,2,2,1,2
01:36:00,1,0,2,0,0,0,0,1,0
01:37:00,0,0,0,2,2,2,1,1,1
01:38:00,1,0,2,2,0,0,4,1,1
01:39:00,0,2,0,1,0,0,1,1,1
01:40:00,2,2,0,0,2,2,3,1,2
01:41:00,0,0,1,1,1,2,0,1,1
01:42:00,1,0,1,0,2,1,2,1,1
01:43:00,0,1,0,2,1,1,2,1,1
01:44:00,2,1,0,1,1,1,7,1,2
01:45:00,1,0,0,1,1,0,3,1,1
01:46:00,2,1,3,1,0,1,1,1,1
01:47:00,0,2,0,0,0,0,2,0,1
01:48:00,0,4,1,2,1,2,2,2,2
01:49:00,2,1,0,1,0,0,3,1,1
01:50:00,0,1,0,0,2,1,2,1,1
01:51:00,1,0,1,1,1,4,1,1,1
01:52:00,0,1,1,0,1,3,1,1,1
01:53:00,0,1,2,0,1,4,2,1,1
01:54:00,1,1,2,2,1,3,0,1,1
01:55:00,2,0,0,1,2,0,7,1,2
01:56:00,1,1,1,0,1,2,0,1,1
01:57:00,2,1,0,0,1,2,2,1,1
01:58:00,0,0,1,2,0,2,4,1,1
01:59:00,2,0,2,1,2,1,2,1,1
02:00:00,2,0,0,1,3,1,1,1,1
02:01:00,1,2,1,0,0,1,3,1,1
02:02:00,0,2,2,1,0,1,2,1,1
02:03:00,2,1,0,0,0,1,3,1,1
02:04:00,0,0,0,0,1,0,0,0,0
02:05:00,2,1,1,0,0,0,0,1,1
02:06:00,2,0,0,3,3,2,3,2,2
02:07:00,0,1,0,0,1,1,1,0,1
02:08:00,1,0,0,1,0,2,3,0,1
02:09:00,2,0,0,1,2,1,1,1,1
02:10:00,2,0,1,2,0,3,1,1,1
02:11:00,0,0,1,0,1,2,0,0,1
02:12:00,1,1,1,1,0,3,1,1,1
02:13:00,0,0,0,0,2,2,1,0,1
02:14:00,1,1,1,1,1,3,2,1,1
02:15:00,0,0,0,0,2,0,3,0,1
02:16:00,0,0,0,1,1,1,4,0,1
02:17:00,0,1,0,0,0,0,1,0,0
02:18:00,0,0,1,3,1,0,1,1,1
02:19:00,0,0,0,1,1,0,1,0,0
02:20:00,0,1,0,0,1,0,2,0,1
02:21:00,0,0,0,0,4,0,0,1,1
02:22:00,2,2,0,1,1,0,0,1,1
02:23:00,0,0,1,0,2,1,3,1,1
02:24:00,0,0,1,1,1,1,1,1,1
02:25:00,0,1,0,0,4,0,2,1,1
02:26:00,0,0,2,0,0,1,4,0,1
02:27:00,0,0,1,1,0,0,1,0,0
02:28:00,0,1,1,1,0,1,2,1,1
02:29:00,1,0,0,1,0,0,0,0,0
02:30:00,1,0,0,0,0,3,1,0,1
02:31:00,0,0,0,0,4,1,1,1,1
02:32:00,1,2,0,1,1,2,0,1,1
02:33:00,1,1,0,0,1,1,2,1,1
02:34:00,1,4,1,0,3,0,0,2,1
02:35:00,0,1,0,1,0,1,0,0,0
02:36:00,4,3,0,1,0,1,1,2,1
02:37:00,0,0,0,0,0,1,0,0,0
02:38:00,1,1,1,0,1,0,0,1,1
02:39:00,1,0,0,0,1,0,2,0,1
02:40:00,2,0,1,3,0,1,3,1,1
02:41:00,1,0,0,0,0,1,1,0,0
02:42:00,0,0,0,0,2,2,2,0,1
02:43:00,0,0,1,0,2,0,1,1,1
02:44:00,0,0,1,1,0,1,0,0,0
02:45:00,2,0,0,0,0,1,2,0,1
02:46:00,1,0,0,1,2,1,2,1,1
02:47:00,3,0,0,1,0,3,4,1,2
02:48:00,3,0,0,0,1,3,2,1,1
02:49:00,1,0,0,0,1,1,1,0,1
02:50:00,0,1,1,0,0,0,1,0,0
02:51:00,0,1,0,1,0,2,2,0,1
02:52:00,0,1,0,2,0,0,0,1,0
02:53:00,2,0,1,2,1,1,0,1,1
02:54:00,1,1,1,1,0,2,0,1,1
02:55:00,2,0,1,3,1,2,0,1,1
02:56:00,1,4,2,2,2,0,1,2,2
02:57:00,1,0,1,1,2,0,1,1,1
02:58:00,0,0,2,3,1,2,0,1,1
02:59:00,0,0,1,1,0,2,1,0,1
03:00:00,2,0,2,2,0,2,0,1,1
03:01:00,1,1,1,1,2,1,0,1,1
03:02:00,0,0,1,2,2,1,0,1,1
03:03:00,1,2,2,1,0,0,3,1,1
03:04:00,0,1,1,2,2,0,0,1,1
03:05:00,1,0,2,0,2,1,0,1,1
03:06:00,0,2,0,1,0,0,1,1,1
03:07:00,0,0,0,0,1,1,2,0,1
03:08:00,0,0,1,2,0,3,0,1,1
03:09:00,0,2,0,0,3,2,1,1,1
03:10:00,1,0,1,1,4,4,3,1,2
03:11:00,0,0,1,3,1,0,1,1,1
03:12:00,0,0,2,0,0,1,1,0,1
03:13:00,0,0,1,0,3,2,1,1,1
03:14:00,0,1,1,3,0,0,0,1,1
03:15:00,0,0,4,0,1,1,0,1,1
03:16:00,0,1,1,1,1,1,2,1,1
03:17:00,0,0,0,0,3,1,4,1,1
03:18:00,1,0,3,0,0,1,0,1,1
03:19:00,1,1,0,1,2,1,0,1,1
03:20:00,1,0,1,1,0,1,2,1,1
03:21:00,0,2,1,2,0,0,0,1,1
03:22:00,0,0,2,0,1,0,1,1,1
03:23:00,0,2,0,2,1,0,1,1,1
03:24:00,1,1,0,1,1,1,1,1,1
03:25:00,1,2,0,1,2,1,1,1,1
03:26:00,1,0,1,0,2,1,0,1,1
03:27:00,2,0,2,0,0,0,1,1,1
03:28:00,1,0,1,0,3,2,0,1,1
03:29:00,1,0,1,0,3,0,1,1,1
03:30:00,0,2,1,1,1,3,3,1,2
03:31:00,1,1,0,0,0,0,4,0,1
03:32:00,0,2,2,2,1,1,3,1,2
03:33:00,0,0,0,1,0,1,1,0,0
03:34:00,2,1,1,0,1,1,0,1,1
03:35:00,1,2,0,1,0,0,1,1,1
03:36:00,1,0,0,2,1,1,2,1,1
03:37:00,1,2,1,1,1,1,2,1,1
03:38:00,0,0,1,0,1,1,1,0,1
03:39:00,0,0,1,1,1,3,1,1,1
03:40:00,1,2,0,3,2,2,1,2,2
03:41:00,3,1,1,3,2,0,1,2,2
03:42:00,1,1,1,0,0,0,1,1,1
03:43:00,1,0,1,1,0,0,1,1,1
03:44:00,0,1,0,2,0,2,0,1,1
03:45:00,3,0,3,1,1,1,1,2,1
03:46:00,0,4,2,2,1,0,1,2,1
03:47:00,3,0,1,2,0,1,4,1,2
03:48:00,0,1,2,2,2,5,3,1,2
03:49:00,5,4,0,2,1,1,1,2,2
03:50:00,0,1,0,0,2,1,1,1,1
03:51:00,1,1,1,1,1,2,2,1,1
03:52:00,3,1,1,0,1,0,3,1,1
03:53:00,1,0,1,2,3,1,1,1,1
03:54:00,0,1,1,0,2,0,1,1,1
03:55:00,1,0,2,0,1,0,1,1,1
03:56:00,0,0,0,0,1,0,0,0,0
03:57:00,0,2,1,0,1,1,0,1,1
03:58:00,4,0,2,1,4,3,1,2,2
03:59:00,1,1,0,1,1,1,1,1,1
04:00:00,2,0,0,1,1,3,4,1,2
04:01:00,1,0,0,0,1,0,0,0,0
04:02:00,0,1,0,0,0,1,1,0,0
04:03:00,2,3,1,0,0,1,1,1,1
04:04:00,1,0,2,2,1,1,1,1,1
04:05:00,0,3,1,1,4,1,0,2,1
04:06:00,2,1,2,3,2,0,1,2,2
04:07:00,1,1,0,1,0,1,0,1,1
04:08:00,0,2,5,1,3,1,4,2,2
04:09:00,0,1,1,0,2,2,1,1,1
04:10:00,1,2,2,5,1,2,1,2,2
04:11:00,2,2,3,3,2,4,1,2,2
04:12:00,0,2,2,0,1,0,2,1,1
04:13:00,1,1,1,3,1,0,0,1,1
04:14:00,3,1,0,2,1,1,3,1,2
04:15:00,0,1,2,0,0,1,1,1,1
04:16:00,5,2,1,1,1,0,1,2,2
04:17:00,3,2,2,1,3,1,0,2,2
04:18:00,2,1,2,0,2,1,3,1,2
04:19:00,3,3,1,2,3,0,0,2,2
04:20:00,2,3,0,1,1,0,0,1,1
04:21:00,1,1,5,1,1,1,1,2,2
04:22:00,2,4,3,3,2,2,1,3,2
04:23:00,2,1,1,0,4,1,1,2,1
04:24:00,0,1,3,2,3,1,0,2,1
04:25:00,0,1,1,4,1,0,2,1,1
04:26:00,3,7,2,2,2,1,1,3,3
04:27:00,1,2,1,5,0,1,0,2,1
04:28:00,1,2,0,2,3,2,2,2,2
04:29:00,2,0,0,2,2,3,1,1,1
04:30:00,2,1,2,3,4,1,0,2,2
04:31:00,2,2,1,2,3,0,2,2,2
04:32:00,2,3,2,1,7,1,0,3,2
04:33:00,1,3,2,2,1,4,1,2,2
04:34:00,2,2,1,2,0,2,2,1,2
04:35:00,4,2,2,2,1,1,1,2,2
04:36:00,6,0,4,3,2,1,2,3,3
04:37:00,2,3,3,2,3,2,3,3,3
04:38:00,7,1,1,0,3,2,2,2,2
04:39:00,2,1,1,4,0,1,0,2,1
04:40:00,0,1,5,5,2,2,1,3,2
04:41:00,5,4,6,3,1,0,0,4,3
04:42:00,6,5,3,5,1,0,2,4,3
04:43:00,3,1,2,3,2,1,1,2,2
04:44:00,1,1,4,4,1,4,0,2,2
04:45:00,0,3,1,1,5,0,0,2,1
04:46:00,3,5,0,2,4,3,5,3,3
04:47:00,4,1,2,9,6,3,2,4,4
04:48:00,3,3,4,2,2,2,1,3,2
04:49:00,2,5,3,2,3,0,3,3,3
04:50:00,2,2,2,1,2,1,1,2,2
04:51:00,3,2,1,5,2,1,1,3,2
04:52:00,3,3,5,5,6,0,2,4,3
04:53:00,4,1,2,1,0,2,2,2,2
04:54:00,2,6,4,2,2,3,0,3,3
04:55:00,3,3,3,3,3,1,1,3,2
04:56:00,3,3,2,4,5,1,1,3,3
04:57:00,1,4,5,3,4,1,1,3,3
04:58:00,4,4,6,4,7,2,4,5,4
04:59:00,4,2,4,2,5,2,1,3,3
05:00:00,5,5,1,5,5,0,1,4,3
05:01:00,2,6,8,6,5,1,1,5,4
05:02:00,2,3,0,3,5,3,2,3,3
05:03:00,6,4,2,5,3,5,3,4,4
05:04:00,5,3,1,5,6,2,4,4,4
05:05:00,1,3,5,3,4,1,2,3,3
05:06:00,4,11,4,3,4,3,1,5,4
05:07:00,4,3,8,2,3,5,2,4,4
05:08:00,2,5,1,4,3,1,2,3,3
05:09:00,6,3,4,2,7,3,0,4,4
05:10:00,6,5,10,0,8,4,1,6,5
05:11:00,4,6,8,3,6,3,3,5,5
05:12:00,2,4,5,10,3,6,5,5,5
05:13:00,6,9,6,2,3,2,1,5,4
05:14:00,6,7,9,10,6,7,3,8,7
05:15:00,5,3,5,11,11,3,2,7,6
05:16:00,5,4,8,3,7,2,2,5,4
05:17:00,4,4,7,8,4,4,3,5,5
05:18:00,5,9,4,2,3,1,3,5,4
05:19:00,12,4,6,5,4,5,2,6,5
05:20:00,7,8,4,2,8,0,2,6,4
05:21:00,5,3,7,6,4,2,0,5,4
05:22:00,9,8,7,8,6,4,1,8,6
05:23:00,6,4,6,4,4,1,1,5,4
05:24:00,6,3,5,3,7,1,1,5,4
05:25:00,6,8,5,4,1,5,2,5,4
05:26:00,4,5,6,6,4,3,2,5,4
05:27:00,9,4,6,4,4,4,0,5,4
05:28:00,4,4,11,6,14,6,3,8,7
05:29:00,3,11,5,6,5,1,1,6,5
05:30:00,10,3,12,6,3,1,2,7,5
05:31:00,6,8,4,9,8,2,0,7,5
05:32:00,8,8,3,4,5,2,0,6,4
05:33:00,10,9,9,8,11,5,4,9,8
05:34:00,4,5,6,7,5,0,0,5,4
05:35:00,6,9,4,8,9,2,4,7,6
05:36:00,6,4,4,3,5,2,0,4,3
05:37:00,8,9,2,2,5,1,4,5,4
05:38:00,4,9,5,7,5,3,1,6,5
05:39:00,8,5,5,5,11,1,0,7,5
05:40:00,5,3,4,6,5,6,1,5,4
05:41:00,2,4,5,12,9,4,2,6,5
05:42:00,6,9,10,5,16,3,0,9,7
05:43:00,4,7,3,7,10,2,4,6,5
05:44:00,5,14,10,13,11,1,2,11,8
05:45:00,6,12,10,10,9,2,0,9,7
05:46:00,7,9,8,11,8,1,3,9,7
05:47:00,8,9,12,4,6,6,0,8,6
05:48:00,8,4,6,8,5,3,1,6,5
05:49:00,10,11,7,8,11,3,0,9,7
05:50:00,8,16,8,12,6,0,2,10,7
05:51:00,7,12,4,10,5,2,2,8,6
05:52:00,13,7,16,7,11,3,2,11,8
05:53:00,6,8,12,7,18,5,3,10,8
05:54:00,6,10,15,9,8,5,4,10,8
05:55:00,10,11,13,11,8,1,5,11,8
05:56:00,6,9,12,10,6,4,4,9,7
05:57:00,9,6,7,7,6,3,3,7,6
05:58:00,13,5,6,9,11,3,3,9,7
05:59:00,9,11,8,11,6,1,1,9,7
06:00:00,3,13,6,6,8,2,5,7,6
06:01:00,9,10,11,13,7,4,2,10,8
06:02:00,11,10,8,7,6,5,5,8,7
06:03:00,11,2,6,8,5,0,2,6,5
06:04:00,10,7,12,10,9,6,1,10,8
06:05:00,9,13,7,13,6,3,3,10,8
06:06:00,6,7,8,4,3,4,3,6,5
06:07:00,10,9,10,4,11,5,3,9,7
06:08:00,11,12,4,8,7,2,0,8,6
06:09:00,8,15,10,15,8,2,0,11,8
06:10:00,11,11,11,4,14,0,2,10,8
06:11:00,4,8,17,11,8,4,5,10,8
06:12:00,8,11,5,4,7,2,1,7,5
06:13:00,8,9,14,12,13,5,8,11,10
06:14:00,8,15,10,12,6,4,3,10,8
06:15:00,9,13,8,6,7,3,3,9,7
06:16:00,10,11,7,10,7,5,3,9,8
06:17:00,8,15,9,13,15,0,0,12,9
06:18:00,10,5,14,5,9,4,2,9,7
06:19:00,12,11,9,5,9,2,3,9,7
06:20:00,9,9,9,9,8,2,0,9,7
06:21:00,10,9,14,12,12,7,3,11,10
06:22:00,8,14,12,16,6,3,4,11,9
06:23:00,9,12,11,8,8,2,2,10,7
06:24:00,11,9,19,11,10,5,3,12,10
06:25:00,10,12,12,13,8,4,5,11,9
06:26:00,8,15,11,8,15,9,2,11,10
06:27:00,6,9,16,17,16,4,5,13,10
06:28:00,12,8,10,17,19,3,5,13,11
06:29:00,12,10,10,13,13,2,4,12,9
06:30:00,19,16,6,12,12,12,7,13,12
06:31:00,15,19,19,18,13,3,0,17,12
06:32:00,17,19,15,9,8,7,0,14,11
06:33:00,14,22,16,13,18,9,4,17,14
06:34:00,13,17,19,11,15,8,7,15,13
06:35:00,13,15,17,20,15,5,3,16,13
06:36:00,16,19,16,10,13,9,2,15,12
06:37:00,8,19,9,12,13,10,3,12,11
06:38:00,14,16,26,18,15,6,7,18,15
06:39:00,20,23,16,16,20,10,3,19,15
06:40:00,12,17,19,16,21,5,4,17,13
06:41:00,19,23,17,21,20,8,5,20,16
06:42:00,16,21,21,13,13,10,6,17,14
06:43:00,26,16,17,19,11,11,5,18,15
06:44:00,19,16,17,16,16,6,1,17,13
06:45:00,26,24,16,22,19,11,4,21,17
06:46:00,13,15,11,21,20,12,1,16,13
06:47:00,19,23,27,19,9,8,1,19,15
06:48:00,18,18,15,14,11,11,3,15,13
06:49:00,13,14,14,14,13,14,5,14,12
06:50:00,19,28,19,12,19,8,8,19,16
06:51:00,12,14,22,23,14,8,6,17,14
06:52:00,18,20,13,22,26,10,5,20,16
06:53:00,22,16,27,17,21,7,3,21,16
06:54:00,21,23,21,20,11,2,7,19,15
06:55:00,29,23,21,21,31,8,7,25,20
06:56:00,14,19,18,13,12,7,5,15,13
06:57:00,24,20,18,21,28,9,6,22,18
06:58:00,23,14,14,23,17,6,1,18,14
06:59:00,13,23,28,16,14,7,4,19,15
07:00:00,13,22,20,20,20,10,2,19,15
07:01:00,10,9,16,23,8,5,7,13,11
07:02:00,20,22,25,22,12,7,5,20,16
07:03:00,9,22,20,25,20,4,1,19,14
07:04:00,16,27,19,21,16,10,4,20,16
07:05:00,23,25,25,23,11,12,2,21,17
07:06:00,19,22,18,13,21,7,8,19,15
07:07:00,19,18,20,23,18,4,2,20,15
07:08:00,21,17,20,18,20,6,2,19,15
07:09:00,18,25,16,25,20,10,4,21,17
07:10:00,14,28,28,20,15,8,10,21,18
07:11:00,25,23,22,21,19,13,3,22,18
07:12:00,20,31,24,20,26,8,7,24,19
07:13:00,24,19,25,17,17,9,2,20,16
07:14:00,17,36,21,21,14,7,5,22,17
07:15:00,28,17,25,29,21,10,7,24,20
07:16:00,25,28,28,34,24,17,6,28,23
07:17:00,19,13,26,13,15,8,4,17,14
07:18:00,27,23,27,30,29,10,3,27,21
07:19:00,21,29,16,24,25,8,8,23,19
07:20:00,23,22,29,32,15,9,7,24,20
07:21:00,29,24,25,23,23,11,1,25,19
07:22:00,21,29,23,30,22,2,9,25,19
07:23:00,19,19,20,28,27,10,7,23,19
07:24:00,28,27,30,25,16,9,4,25,20
07:25:00,27,25,20,24,22,10,7,24,19
07:26:00,22,25,22,23,23,6,8,23,18
07:27:00,27,23,35,29,18,11,2,26,21
07:28:00,18,24,21,26,19,8,8,22,18
07:29:00,24,15,22,19,33,9,6,23,18
07:30:00,19,33,18,18,21,12,6,22,18
07:31:00,24,15,26,31,23,5,6,24,19
07:32:00,15,31,29,28,21,15,4,25,20
07:33:00,23,24,23,30,23,9,7,25,20
07:34:00,21,20,19,27,22,5,8,22,17
07:35:00,26,23,25,24,19,14,5,23,19
07:36:00,19,33,34,23,19,9,5,26,20
07:37:00,37,16,17,24,24,16,7,24,20
07:38:00,20,33,18,20,22,19,4,23,19
07:39:00,32,19,27,31,23,10,8,26,21
07:40:00,29,22,29,22,25,14,6,25,21
07:41:00,31,26,21,37,20,12,3,27,21
07:42:00,19,43,24,19,22,9,8,25,21
07:43:00,26,30,28,29,26,10,11,28,23
07:44:00,26,23,21,14,31,11,3,23,18
07:45:00,31,18,32,33,25,8,3,28,21
07:46:00,22,22,11,24,26,12,5,21,17
07:47:00,27,11,32,20,23,20,5,23,20
07:48:00,27,25,17,14,14,15,2,19,16
07:49:00,28,20,25,34,18,16,8,25,21
07:50:00,25,21,28,24,24,22,8,24,22
07:51:00,28,30,29,29,23,22,6,28,24
07:52:00,24,25,31,26,28,15,8,27,22
07:53:00,31,22,16,28,16,13,12,23,20
07:54:00,14,30,23,19,25,11,5,22,18
07:55:00,30,30,18,24,32,13,6,27,22
07:56:00,24,19,29,24,21,23,6,23,21
07:57:00,32,21,15,26,18,9,10,22,19
07:58:00,26,20,28,23,25,9,7,24,20
07:59:00,33,17,28,18,18,19,3,23,19
08:00:00,25,22,28,25,21,15,8,24,21
08:01:00,30,19,19,19,22,13,5,22,18
08:02:00,24,25,27,16,20,13,2,22,18
08:03:00,26,16,24,25,27,14,6,24,20
08:04:00,17,28,27,26,16,13,4,23,19
08:05:00,29,15,25,32,31,11,6,26,21
08:06:00,25,45,29,18,21,11,4,28,22
08:07:00,20,26,27,27,21,11,6,24,20
08:08:00,19,26,9,32,20,21,6,21,19
08:09:00,23,26,27,31,27,23,11,27,24
08:10:00,21,41,9,37,20,17,3,26,21
08:11:00,26,20,32,31,27,19,4,27,23
08:12:00,23,29,21,28,18,14,9,24,20
08:13:00,28,15,25,27,21,16,7,23,20
08:14:00,29,25,20,15,12,20,7,20,18
08:15:00,26,16,21,35,26,15,3,25,20
08:16:00,21,28,28,26,19,15,6,24,20
08:17:00,28,17,31,26,29,23,4,26,23
08:18:00,10,25,27,17,22,14,10,20,18
08:19:00,30,25,34,31,30,17,10,30,25
08:20:00,18,19,23,15,27,11,6,20,17
08:21:00,30,19,29,25,32,22,7,27,23
08:22:00,14,25,20,28,21,25,3,22,19
08:23:00,24,17,21,20,19,10,4,20,16
08:24:00,17,18,16,22,16,21,17,18,18
08:25:00,24,30,30,23,27,19,9,27,23
08:26:00,12,23,15,23,12,22,6,17,16
08:27:00,23,19,23,23,28,21,10,23,21
08:28:00,22,28,21,26,20,18,17,23,22
08:29:00,25,28,22,24,28,21,8,25,22
08:30:00,17,21,21,16,13,23,3,18,16
08:31:00,19,23,16,19,22,16,7,20,17
08:32:00,17,25,17,21,20,15,5,20,17
08:33:00,22,21,19,23,29,12,6,23,19
08:34:00,23,24,25,21,16,17,6,22,19
08:35:00,29,22,27,22,30,20,4,26,22
08:36:00,18,20,27,24,20,22,9,22,20
08:37:00,32,24,23,27,21,26,7,25,23
08:38:00,23,20,23,23,19,14,10,22,19
08:39:00,13,21,27,25,23,18,7,22,19
08:40:00,24,22,14,21,26,25,12,21,21
08:41:00,13,26,21,20,24,24,12,21,20
08:42:00,37,24,27,28,20,25,9,27,24
08:43:00,25,37,20,28,23,25,5,27,23
08:44:00,22,24,30,17,21,18,10,23,20
08:45:00,26,22,24,23,26,26,23,24,24
08:46:00,25,34,26,29,23,14,10,27,23
08:47:00,34,27,20,21,28,18,11,26,23
08:48:00,22,35,28,25,22,29,9,26,24
08:49:00,23,28,18,21,40,16,12,26,23
08:50:00,27,19,36,22,26,16,13,26,23
08:51:00,23,29,17,29,21,18,7,24,21
08:52:00,29,20,37,22,29,19,12,27,24
08:53:00,26,21,26,20,22,24,10,23,21
08:54:00,17,31,29,35,22,15,5,27,22
08:55:00,22,24,22,32,17,19,13,23,21
08:56:00,33,27,21,22,28,21,9,26,23
08:57:00,19,27,24,24,26,10,8,24,20
08:58:00,27,30,30,29,26,15,9,28,24
08:59:00,18,19,27,17,27,17,13,22,20
09:00:00,32,31,23,16,19,16,15,24,22
09:01:00,23,23,20,17,21,17,13,21,19
09:02:00,27,24,26,20,15,25,7,22,21
09:03:00,20,27,24,25,20,25,12,23,22
09:04:00,39,27,39,32,25,21,12,32,28
09:05:00,25,25,22,21,22,11,10,23,19
09:06:00,18,18,19,36,24,14,9,23,20
09:07:00,20,26,26,23,17,14,16,22,20
09:08:00,16,23,31,26,26,16,7,24,21
09:09:00,21,31,20,15,29,24,8,23,21
09:10:00,26,22,29,37,26,26,14,28,26
09:11:00,25,25,24,13,26,21,21,23,22
09:12:00,23,32,27,32,20,12,10,27,22
09:13:00,23,22,23,22,23,14,15,23,20
09:14:00,27,23,27,26,29,19,15,26,24
09:15:00,31,25,19,17,29,22,14,24,22
09:16:00,24,18,22,32,23,17,21,24,22
09:17:00,26,29,21,27,24,22,16,25,24
09:18:00,15,9,20,33,20,25,15,19,20
09:19:00,24,27,25,23,26,20,25,25,24
09:20:00,28,19,26,25,19,16,23,23,22
09:21:00,25,20,17,24,26,22,13,22,21
09:22:00,36,22,30,19,24,17,20,26,24
09:23:00,14,27,20,23,25,24,22,22,22
09:24:00,24,26,26,21,13,37,17,22,23
09:25:00,17,27,21,26,19,21,17,22,21
09:26:00,26,31,23,20,29,10,19,26,23
09:27:00,6,24,14,25,20,20,19,18,18
09:28:00,36,24,31,26,29,21,19,29,27
09:29:00,24,25,22,22,28,18,16,24,22
09:30:00,37,28,29,19,25,19,20,28,25
09:31:00,12,31,16,30,18,30,15,21,22
09:32:00,30,26,35,15,14,23,13,24,22
09:33:00,15,23,26,20,22,28,21,21,22
09:34:00,20,26,24,19,30,19,14,24,22
09:35:00,25,21,13,22,21,27,15,20,21
09:36:00,18,29,26,23,28,25,8,25,22
09:37:00,16,21,19,23,12,25,20,18,19
09:38:00,31,24,28,33,31,23,20,29,27
09:39:00,19,20,27,31,28,28,9,25,23
09:40:00,28,30,21,19,19,27,17,23,23
09:41:00,28,23,23,23,23,29,19,24,24
09:42:00,25,27,19,27,31,32,26,26,27
09:43:00,15,21,23,27,27,37,16,23,24
09:44:00,24,29,14,20,37,20,18,25,23
09:45:00,23,23,21,24,21,27,25,22,23
09:46:00,15,29,32,25,27,22,19,26,24
09:47:00,16,27,28,28,14,31,21,23,24
09:48:00,25,28,29,19,34,18,21,27,25
09:49:00,20,32,20,26,22,17,26,24,23
09:50:00,28,25,28,10,24,21,20,23,22
09:51:00,25,17,25,28,24,10,11,24,20
09:52:00,30,18,18,24,24,21,11,23,21
09:53:00,15,18,24,19,20,17,30,19,20
09:54:00,14,24,23,20,29,16,29,22,22
09:55:00,19,25,27,25,22,8,21,24,21
09:56:00,24,26,14,25,17,23,23,21,22
09:57:00,25,20,25,24,20,9,20,23,20
09:58:00,19,27,17,24,26,19,25,23,22
09:59:00,18,18,15,21,19,18,20,18,18
10:00:00,18,28,23,18,23,26,23,22,23
10:01:00,31,23,30,30,29,23,26,29,27
10:02:00,29,19,17,24,24,32,22,23,24
10:03:00,31,31,24,35,21,20,24,28,27
10:04:00,20,14,17,24,18,21,12,19,18
10:05:00,26,28,24,27,22,23,25,25,25
10:06:00,22,26,24,24,17,36,30,23,26
10:07:00,18,20,23,18,18,17,23,19,20
10:08:00,26,26,29,22,21,42,21,25,27
10:09:00,27,19,16,31,25,19,24,24,23
10:10:00,25,14,15,21,21,28,29,19,22
10:11:00,25,22,22,18,23,15,26,22,22
10:12:00,22,24,36,22,15,11,19,24,21
10:13:00,29,22,18,20,14,21,26,21,21
10:14:00,23,25,32,20,14,14,21,23,21
10:15:00,15,28,18,33,15,7,24,22,20
10:16:00,16,26,20,19,25,16,25,21,21
10:17:00,22,26,25,27,23,3,36,25,23
10:18:00,30,32,17,30,24,24,16,27,25
10:19:00,24,30,28,26,24,11,20,26,23
10:20:00,17,15,24,17,14,24,31,17,20
10:21:00,28,22,21,26,27,20,16,25,23
10:22:00,18,28,19,21,20,23,24,21,22
10:23:00,19,22,26,32,25,9,22,25,22
10:24:00,18,25,28,22,24,26,30,23,25
10:25:00,23,24,21,27,32,14,20,25,23
10:26:00,19,18,24,20,21,27,29,20,23
10:27:00,21,21,18,26,25,11,13,22,19
10:28:00,29,32,25,18,21,26,20,25,24
10:29:00,23,20,13,36,28,9,15,24,21
10:30:00,29,20,22,16,32,30,35,24,26
10:31:00,31,25,16,32,28,23,18,26,25
10:32:00,18,30,27,23,31,24,33,26,27
10:33:00,26,21,25,21,20,21,12,23,21
10:34:00,27,15,25,15,16,32,29,20,23
10:35:00,29,19,24,23,19,7,28,23,21
10:36:00,25,22,21,17,28,18,26,23,22
10:37:00,23,21,27,24,22,12,19,23,21
10:38:00,22,29,20,22,24,20,21,23,23
10:39:00,31,16,32,25,28,18,20,26,24
10:40:00,14,18,23,15,21,28,38,18,22
10:41:00,26,18,18,29,26,10,18,23,21
10:42:00,20,24,22,30,30,18,35,25,26
10:43:00,26,25,22,32,23,8,19,26,22
10:44:00,25,20,19,19,24,25,31,21,23
10:45:00,23,29,25,26,26,27,18,26,25
10:46:00,18,17,16,21,25,36,25,19,23
10:47:00,24,25,32,34,28,15,30,29,27
10:48:00,21,18,17,19,22,26,29,19,22
10:49:00,32,27,29,26,25,11,11,28,23
10:50:00,25,24,20,31,25,26,39,25,27
10:51:00,22,23,16,23,25,23,17,22,21
10:52:00,26,33,21,16,27,21,42,25,27
10:53:00,31,15,23,26,25,17,10,24,21
10:54:00,25,30,28,16,22,22,31,24,25
10:55:00,17,25,27,31,26,23,18,25,24
10:56:00,23,32,18,15,24,24,38,22,25
10:57:00,27,19,23,16,21,11,24,21,20
10:58:00,14,18,16,26,44,26,40,24,26
10:59:00,26,23,29,25,27,30,19,26,26
11:00:00,19,27,11,22,20,24,38,20,23
11:01:00,35,24,27,30,19,20,17,27,25
11:02:00,27,29,20,16,23,30,37,23,26
11:03:00,28,21,17,26,33,23,9,25,22
11:04:00,22,28,22,19,21,13,41,22,24
11:05:00,27,24,26,30,20,17,29,25,25
11:06:00,22,21,24,17,22,20,43,21,24
11:07:00,25,25,14,26,21,15,23,22,21
11:08:00,16,19,34,28,31,19,32,26,26
11:09:00,31,23,16,28,22,24,11,24,22
11:10:00,26,31,30,15,22,41,37,25,29
11:11:00,20,18,32,29,15,26,20,23,23
11:12:00,26,23,25,18,22,18,26,23,23
11:13:00,19,29,22,36,21,14,29,25,24
11:14:00,21,37,26,14,27,20,30,25,25
11:15:00,28,15,22,21,33,13,13,24,21
11:16:00,30,21,21,20,37,16,34,26,26
11:17:00,27,21,17,14,27,26,23,21,22
11:18:00,22,23,27,22,31,22,41,25,27
11:19:00,13,27,26,18,31,27,20,23,23
11:20:00,27,27,26,17,23,25,34,24,26
11:21:00,25,13,23,21,28,16,32,22,23
11:22:00,30,34,21,16,46,21,37,29,29
11:23:00,18,20,23,31,22,25,14,23,22
11:24:00,30,31,18,24,23,28,33,25,27
11:25:00,21,38,19,28,25,15,20,26,24
11:26:00,17,30,14,14,26,7,28,20,19
11:27:00,26,23,25,34,32,5,21,28,24
11:28:00,27,21,30,24,29,10,21,26,23
11:29:00,20,29,33,23,20,17,25,25,24
11:30:00,26,20,18,16,29,16,30,22,22
11:31:00,19,23,30,16,27,15,11,23,20
11:32:00,38,22,18,24,27,11,32,26,25
11:33:00,15,13,24,25,24,18,17,20,19
11:34:00,31,22,26,24,22,12,23,25,23
11:35:00,24,22,21,33,31,8,24,26,23
11:36:00,25,25,29,21,24,10,43,25,25
11:37:00,29,24,20,28,24,29,29,25,26
11:38:00,34,24,21,33,34,17,40,29,29
11:39:00,24,26,25,23,20,26,15,24,23
11:40:00,24,28,23,23,21,29,41,24,27
11:41:00,20,14,28,18,20,26,21,20,21
11:42:00,39,26,24,27,31,20,42,29,30
11:43:00,21,18,34,31,22,17,21,25,23
11:44:00,33,25,24,35,26,12,37,29,27
11:45:00,21,22,20,29,18,19,27,22,22
11:46:00,28,29,28,24,39,10,31,30,27
11:47:00,24,18,35,23,26,6,25,25,22
11:48:00,31,27,31,28,27,14,32,29,27
11:49:00,20,29,31,18,21,7,23,24,21
11:50:00,28,28,26,23,26,22,28,26,26
11:51:00,20,23,36,41,20,24,22,28,27
11:52:00,38,33,22,13,31,26,24,27,27
11:53:00,23,23,32,33,30,23,21,28,26
11:54:00,28,20,24,22,27,21,30,24,25
11:55:00,26,27,25,31,32,22,29,28,27
11:56:00,30,22,15,19,25,16,28,22,22
11:57:00,30,33,32,24,28,19,27,29,28
11:58:00,23,24,20,36,21,9,29,25,23
11:59:00,14,27,24,26,26,18,29,23,23
12:00:00,26,23,21,25,17,21,27,22,23
12:01:00,23,24,26,27,19,17,21,24,22
12:02:00,22,24,18,29,27,13,30,24,23
12:03:00,25,20,26,26,22,21,20,24,23
12:04:00,24,18,22,23,24,14,23,22,21
12:05:00,21,25,28,30,20,17,24,25,24
12:06:00,41,22,16,25,24,18,34,26,26
12:07:00,24,30,28,20,16,22,20,24,23
12:08:00,24,30,19,23,25,33,29,24,26
12:09:00,28,29,31,22,14,21,25,25,24
12:10:00,24,28,19,27,21,19,29,24,24
12:11:00,36,28,22,26,18,23,35,26,27
12:12:00,23,21,25,12,25,24,31,21,23
12:13:00,29,24,32,7,17,20,27,22,22
12:14:00,6,24,21,32,24,25,27,21,23
12:15:00,39,25,20,25,24,42,20,27,28
12:16:00,28,39,24,21,22,25,17,27,25
12:17:00,25,16,22,33,14,19,30,22,23
12:18:00,30,17,23,27,22,3,25,24,21
12:19:00,19,25,31,33,24,18,26,26,25
12:20:00,28,30,23,18,12,4,26,22,20
12:21:00,24,24,25,23,14,18,31,22,23
12:22:00,28,28,19,24,24,17,32,25,25
12:23:00,32,26,20,32,23,23,22,27,25
12:24:00,27,27,18,28,24,15,24,25,23
12:25:00,22,15,39,31,24,36,31,26,28
12:26:00,22,23,21,20,41,16,27,25,24
12:27:00,26,38,36,26,35,20,31,32,30
12:28:00,29,22,16,20,16,4,16,21,18
12:29:00,25,27,32,13,26,21,40,25,26
12:30:00,26,22,20,27,20,18,26,23,23
12:31:00,26,20,25,32,23,15,32,25,25
12:32:00,17,22,30,33,28,12,22,26,23
12:33:00,26,21,17,35,32,18,24,26,25
12:34:00,21,14,19,26,14,7,18,19,17
12:35:00,37,21,24,28,25,23,25,27,26
12:36:00,25,25,21,26,31,14,28,26,24
12:37:00,28,15,27,32,31,22,27,27,26
12:38:00,24,33,20,27,23,13,26,25,24
12:39:00,23,28,25,23,16,23,28,23,24
12:40:00,14,30,19,38,34,6,26,27,24
12:41:00,25,41,20,27,18,21,32,26,26
12:42:00,36,19,22,24,18,8,24,24,22
12:43:00,25,18,36,22,15,20,31,23,24
12:44:00,17,25,20,28,14,15,29,21,21
12:45:00,17,25,25,18,3,20,32,18,20
12:46:00,20,37,17,29,30,17,13,27,23
12:47:00,35,32,36,23,10,16,36,27,27
12:48:00,19,19,26,26,41,9,28,26,24
12:49:00,25,30,35,9,14,23,18,23,22
12:50:00,22,17,17,49,32,21,17,27,25
12:51:00,25,23,27,14,16,25,28,21,23
12:52:00,20,36,17,40,29,40,36,28,31
12:53:00,41,22,24,23,12,20,21,24,23
12:54:00,19,31,17,30,35,28,32,26,27
12:55:00,33,22,25,18,23,25,31,24,25
12:56:00,26,24,18,36,26,13,35,26,25
12:57:00,29,29,25,16,10,17,29,22,22
12:58:00,22,16,24,28,22,11,24,22,21
12:59:00,32,17,35,12,14,20,28,22,23
13:00:00,11,33,27,32,27,5,9,26,21
13:01:00,29,12,29,15,9,19,32,19,21
13:02:00,21,34,21,34,32,20,20,28,26
13:03:00,25,24,22,15,19,26,25,21,22
13:04:00,16,22,10,35,31,23,21,23,23
13:05:00,26,20,27,21,25,20,31,24,24
13:06:00,16,29,17,43,42,22,12,29,26
13:07:00,41,28,26,21,11,9,17,25,22
13:08:00,22,24,27,29,32,35,13,27,26
13:09:00,21,25,26,26,11,15,22,22,21
13:10:00,14,30,17,36,41,27,23,28,27
13:11:00,36,22,28,14,12,11,28,22,22
13:12:00,27,20,20,38,19,11,19,25,22
13:13:00,18,18,30,8,22,10,36,19,20
13:14:00,29,25,26,34,28,16,18,28,25
13:15:00,27,25,22,15,24,10,30,23,22
13:16:00,30,20,22,34,27,17,17,27,24
13:17:00,23,22,33,23,26,13,38,25,25
13:18:00,24,30,23,24,28,15,23,26,24
13:19:00,21,17,35,20,26,15,31,24,24
13:20:00,18,28,15,28,22,11,15,22,20
13:21:00,32,16,35,11,24,14,33,24,24
13:22:00,25,23,20,37,27,14,23,26,24
13:23:00,27,26,25,15,17,13,25,22,21
13:24:00,20,24,11,34,33,17,21,24,23
13:25:00,27,18,30,18,25,13,36,24,24
13:26:00,25,25,19,37,20,18,21,25,24
13:27:00,21,7,38,20,22,18,18,22,21
13:28:00,29,23,29,31,28,27,23,28,27
13:29:00,30,19,28,20,36,7,23,27,23
13:30:00,16,25,17,39,25,9,33,24,23
13:31:00,23,22,27,20,32,13,23,25,23
13:32:00,26,26,15,37,24,13,12,26,22
13:33:00,23,25,35,22,29,11,33,27,25
13:34:00,29,28,18,31,23,18,22,26,24
13:35:00,23,18,30,15,30,26,27,23,24
13:36:00,33,22,25,37,29,20,33,29,28
13:37:00,19,18,30,25,26,20,24,24,23
13:38:00,25,22,23,25,15,22,21,22,22
13:39:00,21,25,29,26,16,18,35,23,24
13:40:00,40,18,20,40,22,18,20,28,25
13:41:00,23,14,27,18,28,14,27,22,22
13:42:00,33,27,17,33,25,23,14,27,25
13:43:00,31,25,27,18,19,22,31,24,25
13:44:00,31,25,24,27,29,23,32,27,27
13:45:00,20,24,32,21,14,24,29,22,23
13:46:00,37,19,12,32,25,15,24,25,23
13:47:00,24,23,25,19,27,15,26,24,23
13:48:00,31,27,19,35,25,28,21,27,27
13:49:00,25,23,28,16,15,16,32,21,22
13:50:00,35,23,24,24,22,11,16,26,22
13:51:00,17,20,28,23,30,4,29,24,22
13:52:00,25,21,19,31,24,31,21,24,25
13:53:00,21,20,34,28,27,3,24,26,22
13:54:00,37,25,18,35,23,19,31,28,27
13:55:00,20,22,25,25,31,7,20,25,21
13:56:00,27,14,15,32,25,27,36,23,25
13:57:00,27,34,38,12,23,16,26,27,25
13:58:00,32,22,14,34,33,13,31,27,26
13:59:00,16,17,29,31,32,15,21,25,23
14:00:00,33,18,20,37,20,32,20,26,26
14:01:00,17,22,22,13,36,19,25,22,22
14:02:00,35,30,17,33,22,16,19,27,25
14:03:00,21,16,31,16,27,18,21,22,21
14:04:00,22,25,23,34,26,32,27,26,27
14:05:00,23,22,22,25,30,5,19,24,21
14:06:00,22,13,15,23,19,19,30,18,20
14:07:00,30,20,32,17,31,8,25,26,23
14:08:00,32,23,29,31,19,34,27,27,28
14:09:00,23,31,28,23,33,16,12,28,24
14:10:00,19,24,24,22,30,21,27,24,24
14:11:00,33,23,34,17,25,8,17,26,22
14:12:00,22,22,23,30,24,27,46,24,28
14:13:00,26,23,39,23,32,2,27,29,25
14:14:00,28,24,24,30,31,18,26,27,26
14:15:00,35,23,33,14,30,15,7,27,22
14:16:00,26,22,21,29,26,22,29,25,25
14:17:00,23,16,24,22,32,10,14,23,20
14:18:00,29,29,20,26,21,29,34,25,27
14:19:00,23,25,23,18,26,20,12,23,21
14:20:00,30,26,13,35,23,16,39,25,26
14:21:00,23,24,29,15,29,21,23,24,23
14:22:00,18,19,23,34,18,17,33,22,23
14:23:00,27,32,32,19,19,12,25,26,24
14:24:00,22,22,28,37,10,28,39,24,27
14:25:00,31,29,31,24,12,21,14,25,23
14:26:00,34,27,17,31,29,30,30,28,28
14:27:00,28,24,33,26,26,21,15,27,25
14:28:00,26,31,19,28,27,18,41,26,27
14:29:00,24,35,26,33,35,8,15,31,25
14:30:00,33,22,21,32,23,9,43,26,26
14:31:00,32,13,28,21,23,17,16,23,21
14:32:00,21,16,14,24,23,5,39,20,20
14:33:00,28,11,25,25,19,17,20,22,21
14:34:00,23,32,27,26,15,10,36,25,24
14:35:00,25,16,29,15,18,17,22,21,20
14:36:00,28,34,22,26,19,7,23,26,23
14:37:00,25,29,28,16,12,10,19,22,20
14:38:00,27,21,25,33,36,24,32,28,28
14:39:00,24,17,31,28,28,19,21,26,24
14:40:00,24,21,21,32,27,16,25,25,24
14:41:00,23,22,33,31,22,22,18,26,24
14:42:00,28,24,23,29,25,10,34,26,25
14:43:00,19,20,30,19,24,24,13,22,21
14:44:00,26,13,19,26,23,20,40,21,24
14:45:00,18,31,26,20,27,13,31,24,24
14:46:00,27,18,30,35,10,10,37,24,24
14:47:00,21,20,22,16,25,7,16,21,18
14:48:00,25,22,20,25,12,15,28,21,21
14:49:00,21,24,25,27,23,17,13,24,21
14:50:00,29,23,21,23,29,27,36,25,27
14:51:00,26,32,22,26,16,33,21,24,25
14:52:00,27,24,27,17,13,26,33,22,24
14:53:00,20,36,29,9,16,17,29,22,22
14:54:00,21,30,17,12,24,24,34,21,23
14:55:00,26,24,24,12,19,16,24,21,21
14:56:00,33,22,19,25,22,17,29,24,24
14:57:00,26,32,28,35,31,17,26,30,28
14:58:00,29,22,24,16,30,21,35,24,25
14:59:00,29,29,22,25,23,20,15,26,23
15:00:00,26,26,27,11,24,25,27,23,24
15:01:00,21,21,19,16,34,16,18,22,21
15:02:00,28,22,28,16,28,29,35,24,27
15:03:00,23,18,19,24,25,23,20,22,22
15:04:00,29,30,30,16,28,23,28,27,26
15:05:00,25,31,21,21,21,31,20,24,24
15:06:00,33,13,21,30,27,19,33,25,25
15:07:00,22,42,28,30,27,26,22,30,28
15:08:00,18,13,33,21,24,17,32,22,23
15:09:00,28,32,22,21,28,23,24,26,25
15:10:00,15,23,33,16,17,22,32,21,23
15:11:00,24,25,18,20,17,25,22,21,22
15:12:00,24,18,33,28,25,16,24,26,24
15:13:00,28,25,22,30,22,25,34,25,27
15:14:00,23,9,27,20,24,27,33,21,23
15:15:00,14,28,23,27,17,17,27,22,22
15:16:00,24,15,22,30,27,18,24,24,23
15:17:00,23,26,23,23,27,20,33,24,25
15:18:00,22,10,30,24,27,20,31,23,23
15:19:00,13,28,16,30,25,32,25,22,24
15:20:00,39,15,22,24,24,19,34,25,25
15:21:00,11,29,19,32,15,28,31,21,24
15:22:00,29,16,22,15,18,18,29,20,21
15:23:00,20,32,24,26,17,15,24,24,23
15:24:00,27,16,22,21,21,25,26,21,23
15:25:00,22,27,24,28,22,23,26,25,25
15:26:00,31,11,21,17,17,16,27,19,20
15:27:00,19,38,22,29,31,28,27,28,28
15:28:00,39,19,26,11,30,19,20,25,23
15:29:00,15,34,15,26,24,27,25,23,24
15:30:00,38,21,27,21,27,14,21,27,24
15:31:00,22,32,27,32,29,29,29,28,29
15:32:00,20,17,25,11,31,16,22,21,20
15:33:00,25,38,23,39,27,27,33,30,30
15:34:00,25,14,34,20,25,18,29,24,24
15:35:00,14,37,26,41,17,25,23,27,26
15:36:00,41,15,31,16,23,22,18,25,24
15:37:00,22,33,22,23,31,26,22,26,26
15:38:00,22,13,27,19,20,24,27,20,22
15:39:00,13,28,28,31,23,13,28,25,23
15:40:00,30,23,37,19,12,18,18,24,22
15:41:00,12,31,15,32,19,19,21,22,21
15:42:00,28,7,25,22,9,15,20,18,18
15:43:00,22,26,16,38,27,26,35,26,27
15:44:00,24,22,36,18,26,28,22,25,25
15:45:00,18,38,17,27,15,17,28,23,23
15:46:00,27,20,38,18,22,18,24,25,24
15:47:00,25,37,18,33,30,15,31,29,27
15:48:00,19,15,32,30,27,22,21,25,24
15:49:00,29,29,26,24,34,28,26,28,28
15:50:00,32,24,33,7,25,20,21,24,23
15:51:00,16,22,22,38,24,19,28,24,24
15:52:00,29,18,26,16,19,16,23,22,21
15:53:00,17,33,11,29,18,27,33,22,24
15:54:00,39,26,35,30,15,15,13,29,25
15:55:00,17,30,15,31,30,25,35,25,26
15:56:00,33,15,34,17,15,25,27,23,24
15:57:00,23,30,22,27,21,25,28,25,25
15:58:00,21,17,31,20,20,19,16,22,21
15:59:00,20,35,15,26,28,36,25,25,26
16:00:00,19,11,26,22,24,18,24,20,21
16:01:00,22,27,18,11,16,24,27,19,21
16:02:00,19,15,15,22,25,16,27,19,20
16:03:00,21,23,14,31,18,21,8,21,19
16:04:00,33,36,21,13,25,23,25,26,25
16:05:00,25,31,27,19,9,23,30,22,23
16:06:00,31,23,31,14,16,20,22,23,22
16:07:00,25,28,17,15,12,25,29,19,22
16:08:00,27,19,35,13,15,12,21,22,20
16:09:00,19,32,21,25,15,31,16,22,23
16:10:00,19,18,33,17,22,24,25,22,23
16:11:00,23,22,23,21,21,24,21,22,22
16:12:00,29,30,19,12,32,22,26,24,24
16:13:00,27,22,5,27,11,24,17,18,19
16:14:00,26,25,16,30,32,15,27,26,24
16:15:00,13,41,15,31,5,29,24,21,23
16:16:00,33,19,25,34,29,23,24,28,27
16:17:00,23,19,10,28,17,32,22,19,22
16:18:00,30,19,22,32,19,20,32,24,25
16:19:00,20,18,24,35,6,29,21,21,22
16:20:00,37,20,22,21,28,18,26,26,25
16:21:00,24,10,18,28,6,26,20,17,19
16:22:00,30,5,23,6,21,11,33,17,18
16:23:00,26,20,20,18,3,22,22,17,19
16:24:00,21,13,30,11,32,31,25,21,23
16:25:00,18,16,23,25,7,24,18,18,19
16:26:00,26,23,24,25,28,23,19,25,24
16:27:00,29,27,13,25,26,18,22,24,23
16:28:00,37,16,15,19,26,7,18,23,20
16:29:00,20,26,28,25,12,18,16,22,21
16:30:00,38,19,20,21,31,13,13,26,22
16:31:00,21,14,13,23,17,13,27,18,18
16:32:00,28,9,18,18,28,15,18,20,19
16:33:00,25,11,23,23,7,19,20,18,18
16:34:00,29,10,14,28,22,29,17,21,21
16:35:00,15,28,21,33,20,14,25,23,22
16:36:00,26,24,11,29,24,19,23,23,22
16:37:00,24,12,21,25,24,17,18,21,20
16:38:00,23,17,35,19,39,11,33,27,25
16:39:00,23,13,28,33,10,13,19,21,20
16:40:00,19,23,16,22,21,7,11,20,17
16:41:00,29,27,25,30,11,9,22,24,22
16:42:00,28,25,27,30,24,21,18,27,25
16:43:00,27,25,28,22,15,13,17,23,21
16:44:00,30,19,24,11,25,11,22,22,20
16:45:00,18,19,20,25,8,22,18,18,19
16:46:00,24,6,16,27,31,19,16,21,20
16:47:00,16,16,20,21,10,19,22,17,18
16:48:00,27,19,13,22,32,27,31,23,24
16:49:00,24,30,18,21,26,32,15,24,24
16:50:00,28,17,11,18,33,20,14,21,20
16:51:00,26,34,24,24,17,14,13,25,22
16:52:00,30,23,10,21,25,17,9,22,19
16:53:00,14,20,29,25,28,14,17,23,21
16:54:00,21,21,24,30,20,17,28,23,23
16:55:00,18,31,29,20,19,29,19,23,24
16:56:00,18,16,17,24,22,32,19,19,21
16:57:00,19,24,30,16,19,20,17,22,21
16:58:00,31,17,16,21,25,27,20,22,22
16:59:00,12,29,42,20,33,23,16,27,25
17:00:00,31,22,22,27,18,21,28,24,24
17:01:00,23,21,24,17,9,18,21,19,19
17:02:00,33,23,20,12,21,17,20,22,21
17:03:00,26,24,27,25,29,20,13,26,23
17:04:00,29,29,29,24,31,28,15,28,26
17:05:00,18,30,20,26,26,28,31,24,26
17:06:00,21,19,13,7,23,12,20,17,16
17:07:00,25,23,31,13,26,32,17,24,24
17:08:00,34,5,12,18,22,18,17,18,18
17:09:00,21,16,21,22,9,18,22,18,18
17:10:00,19,14,15,22,26,31,20,19,21
17:11:00,14,12,10,20,28,22,18,17,18
17:12:00,11,26,18,13,17,25,20,17,19
17:13:00,18,37,16,16,11,21,14,20,19
17:14:00,19,34,15,31,19,17,22,24,22
17:15:00,14,24,22,20,27,20,18,21,21
17:16:00,23,9,15,18,27,25,27,18,21
17:17:00,19,21,26,23,27,15,23,23,22
17:18:00,24,13,14,28,26,17,26,21,21
17:19:00,24,7,17,13,26,15,23,17,18
17:20:00,28,28,23,36,18,30,17,27,26
17:21:00,19,26,21,24,11,17,15,20,19
17:22:00,36,22,34,11,14,20,20,23,22
17:23:00,26,20,24,19,5,24,14,19,19
17:24:00,25,26,23,13,20,18,19,21,21
17:25:00,20,34,14,15,15,18,21,20,20
17:26:00,20,28,22,32,20,17,15,24,22
17:27:00,27,14,23,20,16,19,16,20,19
17:28:00,22,10,16,20,21,27,14,18,19
17:29:00,24,29,31,14,25,22,20,25,24
17:30:00,26,20,21,15,30,22,23,22,22
17:31:00,20,22,21,19,20,25,9,20,19
17:32:00,25,27,15,25,24,23,15,23,22
17:33:00,28,23,28,12,28,21,17,24,22
17:34:00,13,29,17,23,22,17,12,21,19
17:35:00,15,23,18,10,18,23,24,17,19
17:36:00,25,33,20,30,19,14,23,25,23
17:37:00,22,27,26,21,31,24,11,25,23
17:38:00,11,32,23,35,19,19,18,24,22
17:39:00,28,23,27,24,24,16,19,25,23
17:40:00,21,35,30,30,23,17,16,28,25
17:41:00,18,26,26,21,26,25,24,23,24
17:42:00,25,27,19,25,19,22,11,23,21
17:43:00,26,17,20,14,35,26,24,22,23
17:44:00,29,21,26,27,27,16,19,26,24
17:45:00,32,23,26,21,7,19,25,22,22
17:46:00,28,35,33,31,24,32,22,30,29
17:47:00,26,23,29,9,34,11,16,24,21
17:48:00,19,30,21,20,16,22,15,21,20
17:49:00,26,23,15,12,8,18,16,17,17
17:50:00,20,28,15,30,14,20,15,21,20
17:51:00,28,19,18,15,27,19,15,21,20
17:52:00,22,34,11,31,27,22,14,25,23
17:53:00,33,14,7,22,20,13,17,19,18
17:54:00,28,36,9,23,28,29,15,25,24
17:55:00,21,24,12,16,29,13,17,20,19
17:56:00,26,25,29,30,25,17,16,27,24
17:57:00,28,29,28,28,31,19,12,29,25
17:58:00,19,10,20,21,23,27,16,19,19
17:59:00,26,16,27,10,33,24,21,22,22
18:00:00,15,12,28,17,16,21,21,18,19
18:01:00,33,7,25,9,37,22,14,22,21
18:02:00,21,24,34,33,27,21,15,28,25
18:03:00,24,10,25,30,29,14,21,24,22
18:04:00,16,25,21,21,15,27,12,20,20
18:05:00,30,15,23,17,31,16,17,23,21
18:06:00,16,29,20,20,25,17,12,22,20
18:07:00,31,17,7,10,40,20,18,21,20
18:08:00,27,21,14,12,25,15,16,20,19
18:09:00,21,20,21,14,15,19,15,18,18
18:10:00,28,35,32,18,33,18,19,29,26
18:11:00,27,23,16,26,25,20,12,23,21
18:12:00,18,29,26,26,24,15,16,25,22
18:13:00,26,13,10,26,24,34,15,20,21
18:14:00,23,28,29,26,19,15,14,25,22
18:15:00,20,16,33,25,30,20,16,25,23
18:16:00,22,25,23,21,29,29,18,24,24
18:17:00,29,27,25,20,33,15,18,27,24
18:18:00,17,17,26,16,20,20,21,19,20
18:19:00,28,9,20,32,21,23,23,22,22
18:20:00,21,13,34,34,21,22,14,25,23
18:21:00,23,31,18,18,24,21,13,23,21
18:22:00,18,26,21,29,16,17,15,22,20
18:23:00,29,20,27,17,28,19,21,24,23
18:24:00,23,24,27,37,30,21,19,28,26
18:25:00,31,28,22,21,26,11,14,26,22
18:26:00,17,29,24,34,20,18,23,25,24
18:27:00,25,27,24,17,30,16,10,25,21
18:28:00,27,22,26,24,23,20,24,24,24
18:29:00,20,12,18,16,31,20,19,19,19
18:30:00,17,31,23,31,20,19,19,24,23
18:31:00,22,22,29,22,27,20,12,24,22
18:32:00,26,15,8,21,15,17,14,17,17
18:33:00,29,32,24,9,25,18,19,24,22
18:34:00,34,33,20,32,25,22,9,29,25
18:35:00,23,25,18,24,28,15,14,24,21
18:36:00,20,18,23,21,22,14,16,21,19
18:37:00,19,22,27,13,30,13,11,22,19
18:38:00,21,34,28,29,19,20,18,26,24
18:39:00,19,22,12,14,21,24,20,18,19
18:40:00,22,30,33,28,16,17,21,26,24
18:41:00,30,29,20,22,28,16,11,26,22
18:42:00,27,22,24,40,18,8,19,26,23
18:43:00,32,22,20,15,39,24,14,26,24
18:44:00,32,24,38,28,21,21,9,29,25
18:45:00,27,26,20,26,27,20,11,25,22
18:46:00,20,34,22,29,20,14,22,25,23
18:47:00,26,27,20,25,29,13,11,25,22
18:48:00,17,29,24,32,13,26,12,23,22
18:49:00,33,30,20,24,29,24,14,27,25
18:50:00,22,20,43,22,18,16,15,25,22
18:51:00,38,29,12,27,35,24,11,28,25
18:52:00,23,22,27,21,28,17,16,24,22
18:53:00,21,33,25,24,33,15,14,27,24
18:54:00,25,31,30,21,18,24,16,25,24
18:55:00,22,18,11,23,27,20,19,20,20
18:56:00,22,21,35,23,16,19,20,23,22
18:57:00,27,27,21,23,26,20,14,25,23
18:58:00,20,31,27,26,16,19,15,24,22
18:59:00,24,24,14,16,21,15,19,20,19
19:00:00,18,24,17,19,16,18,11,19,18
19:01:00,27,22,18,16,24,23,17,21,21
19:02:00,21,21,23,22,24,19,18,22,21
19:03:00,17,28,24,10,28,20,17,21,21
19:04:00,17,25,17,31,26,19,9,23,21
19:05:00,25,35,22,22,26,18,11,26,23
19:06:00,25,22,23,22,18,13,21,22,21
19:07:00,30,33,25,19,24,7,12,26,21
19:08:00,28,22,23,18,24,20,14,23,21
19:09:00,27,29,22,23,26,20,23,25,24
19:10:00,27,13,24,32,19,19,12,23,21
19:11:00,29,28,21,20,21,16,17,24,22
19:12:00,23,21,36,22,27,20,16,26,24
19:13:00,14,22,21,16,26,15,20,20,19
19:14:00,37,32,23,21,25,13,16,28,24
19:15:00,18,31,23,20,24,16,11,23,20
19:16:00,30,22,20,21,20,19,14,23,21
19:17:00,22,18,33,26,25,7,14,25,21
19:18:00,22,24,22,15,23,18,17,21,20
19:19:00,20,21,13,18,16,21,8,18,17
19:20:00,17,10,32,26,32,17,19,23,22
19:21:00,32,32,20,15,25,16,11,25,22
19:22:00,19,27,25,19,19,20,7,22,19
19:23:00,23,18,17,23,21,18,7,20,18
19:24:00,16,33,27,19,23,9,17,24,21
19:25:00,27,23,28,25,22,18,11,25,22
19:26:00,22,15,28,15,18,16,8,20,17
19:27:00,15,30,27,16,21,12,9,22,19
19:28:00,12,30,23,18,17,12,16,20,18
19:29:00,18,20,16,21,27,21,10,20,19
19:30:00,15,25,14,15,20,15,12,18,17
19:31:00,18,27,20,24,14,15,14,21,19
19:32:00,24,16,21,17,11,20,14,18,18
19:33:00,24,28,19,23,25,21,18,24,23
19:34:00,13,18,18,20,20,14,16,18,17
19:35:00,18,16,19,16,18,11,15,17,16
19:36:00,18,17,19,12,22,11,15,18,16
19:37:00,15,18,22,23,19,15,13,19,18
19:38:00,21,14,25,23,17,9,11,20,17
19:39:00,17,22,18,19,23,15,16,20,19
19:40:00,12,21,15,25,16,22,17,18,18
19:41:00,16,27,25,17,18,11,17,21,19
19:42:00,23,20,19,18,13,16,18,19,18
19:43:00,10,19,19,15,12,8,23,15,15
19:44:00,23,15,24,18,31,16,15,22,20
19:45:00,10,15,20,16,19,18,17,16,16
19:46:00,16,16,22,21,24,23,20,20,20
19:47:00,20,21,22,24,17,12,11,21,18
19:48:00,15,22,10,26,12,16,12,17,16
19:49:00,24,18,20,29,25,11,13,23,20
19:50:00,9,15,19,22,13,13,10,16,14
19:51:00,20,21,26,15,16,12,9,20,17
19:52:00,14,16,19,15,19,10,21,17,16
19:53:00,18,16,19,18,30,12,15,20,18
19:54:00,12,10,20,16,16,17,9,15,14
19:55:00,14,17,20,13,32,5,17,19,17
19:56:00,13,14,13,23,18,19,13,16,16
19:57:00,16,12,16,19,20,11,6,17,14
19:58:00,10,11,20,33,26,10,20,20,19
19:59:00,9,17,17,16,17,7,11,15,13
20:00:00,10,14,11,25,20,11,8,16,14
20:01:00,13,11,19,9,14,20,12,13,14
20:02:00,13,15,21,13,16,8,18,16,15
20:03:00,19,25,17,18,9,10,8,18,15
20:04:00,21,18,16,19,15,14,10,18,16
20:05:00,19,16,19,23,19,14,5,19,16
20:06:00,9,22,15,21,20,7,14,17,15
20:07:00,18,23,25,14,21,12,11,20,18
20:08:00,12,10,18,21,19,14,12,16,15
20:09:00,13,20,15,26,19,16,6,19,16
20:10:00,19,21,26,20,21,17,18,21,20
20:11:00,15,18,17,31,18,15,17,20,19
20:12:00,15,7,18,24,12,10,13,15,14
20:13:00,10,23,18,18,26,15,10,19,17
20:14:00,11,17,14,21,24,10,17,17,16
20:15:00,19,18,19,14,10,6,11,16,14
20:16:00,14,19,24,25,16,15,15,20,18
20:17:00,9,18,17,18,25,10,2,17,14
20:18:00,20,18,24,20,18,19,18,20,20
20:19:00,13,15,16,11,14,6,14,14,13
20:20:00,5,12,18,14,19,14,11,14,13
20:21:00,25,11,13,14,24,18,11,17,17
20:22:00,17,19,13,23,10,9,15,16,15
20:23:00,14,14,15,16,16,19,16,15,16
20:24:00,18,12,17,24,15,15,9,17,16
20:25:00,16,12,12,9,16,17,9,13,13
20:26:00,18,13,13,22,17,17,7,17,15
20:27:00,14,17,17,16,26,11,14,18,16
20:28:00,10,23,11,19,10,13,11,15,14
20:29:00,13,23,16,17,18,16,17,17,17
20:30:00,12,15,10,5,14,8,10,11,11
20:31:00,16,14,6,16,7,11,7,12,11
20:32:00,11,10,11,20,21,15,7,15,14
20:33:00,14,6,18,14,14,18,7,13,13
20:34:00,12,10,13,18,13,19,10,13,14
20:35:00,11,16,14,21,15,15,12,15,15
20:36:00,17,14,12,17,13,12,3,15,13
20:37:00,4,9,13,15,16,16,12,11,12
20:38:00,16,18,15,7,10,13,8,13,12
20:39:00,9,14,11,13,17,11,11,13,12
20:40:00,8,11,11,12,17,15,3,12,11
20:41:00,7,6,16,18,21,11,17,14,14
20:42:00,13,14,11,17,18,18,6,15,14
20:43:00,15,13,9,13,7,19,16,11,13
20:44:00,3,12,13,13,16,17,6,11,11
20:45:00,14,13,10,16,15,13,6,14,12
20:46:00,8,10,15,14,19,16,6,13,13
20:47:00,7,16,8,15,12,17,13,12,13
20:48:00,9,17,7,14,8,16,6,11,11
20:49:00,17,7,18,10,13,14,8,13,12
20:50:00,6,11,7,22,17,11,6,13,11
20:51:00,20,15,16,13,14,13,10,16,14
20:52:00,10,11,17,11,15,9,11,13,12
20:53:00,10,13,12,16,9,15,11,12,12
20:54:00,8,11,10,11,16,15,7,11,11
20:55:00,7,11,18,17,13,18,10,13,13
20:56:00,8,8,8,15,7,24,8,9,11
20:57:00,16,6,12,14,12,14,4,12,11
20:58:00,6,15,12,21,10,11,12,13,12
20:59:00,12,15,10,8,17,13,9,12,12
21:00:00,12,6,9,12,12,15,9,10,11
21:01:00,9,17,11,14,11,12,6,12,11
21:02:00,9,12,10,8,7,8,10,9,9
21:03:00,7,14,7,14,8,6,4,10,9
21:04:00,10,9,12,10,14,19,7,11,12
21:05:00,18,15,8,8,16,8,5,13,11
21:06:00,10,9,14,19,16,7,11,14,12
21:07:00,13,5,11,10,9,10,3,10,9
21:08:00,7,8,10,23,10,12,5,12,11
21:09:00,14,15,15,13,18,11,8,15,13
21:10:00,6,12,7,12,13,15,14,10,11
21:11:00,16,20,13,17,14,8,17,16,15
21:12:00,10,20,9,14,13,15,10,13,13
21:13:00,13,8,8,14,18,12,10,12,12
21:14:00,15,25,15,14,18,12,10,17,16
21:15:00,11,16,7,17,17,18,14,14,14
21:16:00,14,18,9,17,18,20,6,15,15
21:17:00,5,15,20,17,19,16,5,15,14
21:18:00,4,13,16,14,10,20,7,11,12
21:19:00,11,20,12,12,17,15,7,14,13
21:20:00,7,12,16,14,14,16,10,13,13
21:21:00,18,19,9,19,13,10,11,16,14
21:22:00,16,6,10,6,15,12,13,11,11
21:23:00,9,14,12,12,20,16,4,13,12
21:24:00,10,8,20,8,10,9,11,11,11
21:25:00,11,11,9,20,10,9,4,12,11
21:26:00,11,5,16,15,8,12,5,11,10
21:27:00,6,17,13,16,13,15,7,13,12
21:28:00,7,13,11,11,13,10,7,11,10
21:29:00,7,10,7,16,10,13,8,10,10
21:30:00,7,8,7,9,21,8,8,10,10
21:31:00,8,13,19,13,8,11,9,12,12
21:32:00,8,12,12,15,7,12,8,11,11
21:33:00,14,10,8,11,11,10,2,11,9
21:34:00,11,2,16,18,11,8,10,12,11
21:35:00,7,8,13,9,11,15,8,10,10
21:36:00,16,13,13,11,9,11,10,12,12
21:37:00,9,11,10,11,12,10,6,11,10
21:38:00,5,12,16,15,15,13,8,13,12
21:39:00,14,9,10,14,10,17,8,11,12
21:40:00,10,18,12,5,14,11,11,12,12
21:41:00,16,7,8,8,17,7,6,11,10
21:42:00,11,8,12,5,16,14,7,10,10
21:43:00,17,15,13,10,14,11,7,14,12
21:44:00,8,15,12,8,14,14,10,11,12
21:45:00,5,12,11,8,10,13,6,9,9
21:46:00,11,10,9,10,16,10,11,11,11
21:47:00,13,11,8,11,16,11,10,12,11
21:48:00,9,13,16,10,13,7,9,12,11
21:49:00,10,14,13,20,4,12,5,12,11
21:50:00,12,9,12,8,8,12,12,10,10
21:51:00,9,13,12,9,13,13,3,11,10
21:52:00,5,10,10,14,8,13,6,9,9
21:53:00,6,11,15,10,15,8,11,11,11
21:54:00,7,5,12,8,9,10,5,8,8
21:55:00,8,9,13,16,12,8,9,12,11
21:56:00,9,6,5,8,7,7,10,7,7
21:57:00,1,6,8,10,11,14,8,7,8
21:58:00,11,11,10,7,9,7,5,10,9
21:59:00,13,15,3,8,11,12,6,10,10
22:00:00,9,10,12,10,10,8,12,10,10
22:01:00,14,8,7,6,16,11,7,10,10
22:02:00,12,10,11,16,13,12,11,12,12
22:03:00,7,11,9,10,11,8,6,10,9
22:04:00,6,8,11,6,10,14,6,8,9
22:05:00,10,7,7,7,8,13,9,8,9
22:06:00,9,11,13,11,15,14,10,12,12
22:07:00,7,4,7,9,6,8,4,7,6
22:08:00,8,10,14,14,14,2,7,12,10
22:09:00,9,13,5,10,3,7,5,8,7
22:10:00,6,4,13,8,8,15,4,8,8
22:11:00,9,5,8,5,5,12,2,6,7
22:12:00,10,7,10,13,12,13,7,10,10
22:13:00,0,9,12,5,5,14,13,6,8
22:14:00,12,9,5,10,9,11,7,9,9
22:15:00,7,6,11,7,6,9,4,7,7
22:16:00,7,12,7,11,6,15,9,9,10
22:17:00,10,3,5,7,3,10,3,6,6
22:18:00,5,10,15,10,8,7,5,10,9
22:19:00,10,10,5,6,10,10,7,8,8
22:20:00,5,7,5,13,11,11,5,8,8
22:21:00,12,5,13,11,17,16,4,12,11
22:22:00,8,11,5,9,10,10,5,9,8
22:23:00,6,6,11,11,5,18,10,8,10
22:24:00,10,4,4,8,5,7,4,6,6
22:25:00,6,8,12,7,9,19,5,8,9
22:26:00,8,5,8,3,14,9,2,8,7
22:27:00,11,7,12,10,6,8,4,9,8
22:28:00,6,6,4,7,6,8,4,6,6
22:29:00,7,5,8,6,7,5,3,7,6
22:30:00,6,2,13,5,11,10,5,7,7
22:31:00,4,3,6,10,12,9,6,7,7
22:32:00,7,6,6,7,5,6,5,6,6
22:33:00,6,8,6,7,6,2,4,7,6
22:34:00,5,8,5,4,6,5,9,6,6
22:35:00,7,3,11,4,6,14,5,6,7
22:36:00,8,8,6,6,4,10,2,6,6
22:37:00,6,7,7,5,5,10,5,6,6
22:38:00,10,9,4,10,6,7,7,8,8
22:39:00,4,8,4,2,10,10,2,6,6
22:40:00,7,10,9,8,18,6,6,10,9
22:41:00,11,7,5,4,2,6,2,6,5
22:42:00,2,11,11,7,13,4,6,9,8
22:43:00,7,2,7,9,5,10,7,6,7
22:44:00,6,5,6,5,12,18,3,7,8
22:45:00,10,5,9,7,3,7,6,7,7
22:46:00,4,8,3,7,9,8,4,6,6
22:47:00,4,7,8,8,9,11,2,7,7
22:48:00,6,6,2,7,5,16,3,5,6
22:49:00,4,3,3,3,6,4,6,4,4
22:50:00,5,6,7,9,6,4,2,7,6
22:51:00,6,6,2,6,7,9,1,5,5
22:52:00,6,10,3,11,6,5,3,7,6
22:53:00,9,3,4,7,6,8,4,6,6
22:54:00,5,8,5,2,11,9,2,6,6
22:55:00,10,5,4,3,8,6,4,6,6
22:56:00,9,6,8,7,7,8,4,7,7
22:57:00,6,3,6,14,9,10,5,8,8
22:58:00,3,3,6,7,11,12,4,6,7
22:59:00,6,4,5,9,4,7,4,6,6
23:00:00,1,4,4,6,10,5,6,5,5
23:01:00,7,7,6,7,10,8,1,7,7
23:02:00,7,5,11,8,4,4,5,7,6
23:03:00,4,3,4,6,16,8,5,7,7
23:04:00,4,3,4,5,9,8,1,5,5
23:05:00,5,1,6,7,6,9,3,5,5
23:06:00,3,5,2,9,4,9,3,5,5
23:07:00,8,2,8,6,3,6,4,5,5
23:08:00,3,7,7,4,8,7,5,6,6
23:09:00,5,5,7,5,5,4,2,5,5
23:10:00,5,2,7,6,10,4,4,6,5
23:11:00,9,2,4,9,8,9,1,6,6
23:12:00,3,6,4,5,12,3,3,6,5
23:13:00,4,1,5,3,8,5,2,4,4
23:14:00,2,8,10,10,7,9,4,7,7
23:15:00,9,5,2,3,8,11,2,5,6
23:16:00,2,9,1,7,6,10,1,5,5
23:17:00,3,3,5,6,6,9,4,5,5
23:18:00,6,6,3,3,7,6,1,5,5
23:19:00,3,2,3,11,9,5,3,6,5
23:20:00,7,6,7,2,9,11,4,6,7
23:21:00,2,6,5,3,11,6,3,5,5
23:22:00,4,6,4,3,6,8,4,5,5
23:23:00,1,5,6,2,9,12,1,5,5
23:24:00,4,5,3,8,8,3,1,6,5
23:25:00,4,3,3,7,4,11,7,4,6
23:26:00,6,3,7,7,6,9,0,6,5
23:27:00,0,4,1,3,1,4,4,2,2
23:28:00,3,5,7,2,3,8,1,4,4
23:29:00,3,6,4,3,2,4,0,4,3
23:30:00,4,6,4,3,0,1,1,3,3
23:31:00,1,5,0,3,8,6,0,3,3
23:32:00,5,2,3,3,8,5,2,4,4
23:33:00,4,3,7,4,2,8,2,4,4
23:34:00,2,3,5,2,3,5,3,3,3
23:35:00,3,6,6,8,6,3,4,6,5
23:36:00,0,2,5,10,3,7,1,4,4
23:37:00,2,3,6,3,15,8,1,6,5
23:38:00,0,1,2,1,3,5,0,1,2
23:39:00,4,2,3,7,5,6,3,4,4
23:40:00,2,3,3,5,5,11,2,4,4
23:41:00,3,2,3,7,9,7,1,5,5
23:42:00,1,1,3,2,2,5,1,2,2
23:43:00,1,1,6,3,3,5,2,3,3
23:44:00,3,4,2,6,10,7,2,5,5
23:45:00,3,3,4,5,6,4,3,4,4
23:46:00,3,3,0,2,5,7,2,3,3
23:47:00,3,0,2,0,4,10,3,2,3
23:48:00,3,4,3,2,4,7,1,3,3
23:49:00,3,3,2,3,7,9,2,4,4
23:50:00,1,1,0,1,6,4,1,2,2
23:51:00,2,3,4,1,5,3,2,3,3
23:52:00,6,1,2,5,5,3,1,4,3
23:53:00,5,6,5,5,8,6,2,6,5
23:54:00,1,1,4,3,4,6,2,3,3
23:55:00,3,3,7,1,13,4,1,5,5
23:56:00,0,3,4,6,5,5,0,4,3
23:57:00,5,6,3,8,7,8,3,6,6
23:58:00,2,4,1,3,5,5,1,3,3
23:59:00,4,2,3,3,9,7,4,4,5
,,,,,,,,,
Totals,,,,,,,,,
12H(7-19),17459,16977,16863,17194,16692,13461,14483,17037,16161
16H(6-22),20794,20711,20541,20927,20429,16271,16647,20680,19474
18H(6-24),21435,21344,21243,21674,21315,17238,17097,21402,20192
24H(0-24),22206,22112,22042,22472,22199,17952,17823,22206,20972
,,,,,,,,,
AM Peak,10:59:00,08:43:00,08:34:00,07:18:00,10:58:00,09:09:00,10:50:00,08:42:00,10:01:00
,1523,1515,1472,1532,1575,1337,1660,1458,1388
,,,,,,,,,
PM Peak,13:40:00,18:33:00,14:11:00,13:06:00,13:18:00,15:27:00,14:28:00,13:31:00,13:31:00
,1603,1514,1505,1585,1549,1331,1632,1510,1450
,,,,,,,,,
,,,,,,,,,
CA Traffic,,,,,,,,,VDA-net R2 15/11/2019
