Site Number,00008011,Unnamed: 2,Site Reference,00008011.1,Unnamed: 5,Unnamed: 6,Lat/Lng.,"52.06968,1.13457",Unnamed: 9
Radar 8011 Norwich Road Ipswich,,,,,,,,,
Vehicle Count Report,,,,Week Begin: 24 February 2020,,,Channel:,Total Flow,
,,,,,,,,,
,,,,,,,,,
,2020-02-24 00:00:00,2020-02-25 00:00:00,2020-02-26 00:00:00,2020-02-27 00:00:00,2020-02-28 00:00:00,2020-02-29 00:00:00,2020-03-01 00:00:00,"5-Day
Ave.","7-Day
Ave."
00:00:00,2,2,1,2,2,6,7,2,3
00:01:00,2,3,2,0,1,8,6,2,3
00:02:00,3,2,4,2,3,6,4,3,3
00:03:00,2,3,4,2,3,7,10,3,4
00:04:00,3,6,0,2,2,2,6,3,3
00:05:00,1,0,0,3,3,6,14,1,4
00:06:00,0,3,1,1,2,5,6,1,3
00:07:00,1,4,6,3,6,11,11,4,6
00:08:00,4,1,2,3,0,4,9,2,3
00:09:00,5,0,2,3,0,7,7,2,3
00:10:00,1,2,2,3,5,6,8,3,4
00:11:00,5,1,0,0,2,4,7,2,3
00:12:00,4,1,3,4,3,4,9,3,4
00:13:00,3,3,1,2,3,9,9,2,4
00:14:00,1,3,4,2,3,3,7,3,3
00:15:00,1,2,3,1,2,10,2,2,3
00:16:00,2,5,0,2,2,6,8,2,4
00:17:00,2,5,4,2,2,3,4,3,3
00:18:00,2,3,6,2,2,3,8,3,4
00:19:00,0,0,0,2,2,1,13,1,3
00:20:00,3,1,2,1,1,8,6,2,3
00:21:00,3,4,2,2,3,7,7,3,4
00:22:00,2,0,0,4,3,3,6,2,3
00:23:00,1,1,2,8,1,3,5,3,3
00:24:00,2,3,2,3,1,3,8,2,3
00:25:00,2,2,3,0,2,6,4,2,3
00:26:00,1,1,2,2,2,9,10,2,4
00:27:00,3,1,2,5,3,2,4,3,3
00:28:00,4,0,1,4,3,1,3,2,2
00:29:00,1,0,3,1,2,1,3,1,2
00:30:00,0,2,1,2,3,4,5,2,2
00:31:00,3,0,3,2,1,3,6,2,3
00:32:00,0,5,2,2,2,7,8,2,4
00:33:00,0,2,1,1,2,3,2,1,2
00:34:00,2,2,5,3,0,1,3,2,2
00:35:00,7,1,1,3,1,6,3,3,3
00:36:00,2,4,1,3,4,2,6,3,3
00:37:00,2,0,3,3,2,5,6,2,3
00:38:00,2,3,0,3,1,8,7,2,3
00:39:00,2,2,4,3,3,5,12,3,4
00:40:00,5,1,2,2,1,1,3,2,2
00:41:00,2,2,0,3,5,4,8,2,3
00:42:00,1,1,3,5,2,5,1,2,3
00:43:00,1,1,4,1,2,3,9,2,3
00:44:00,2,1,1,3,4,4,3,2,3
00:45:00,5,2,4,4,2,1,8,3,4
00:46:00,2,1,2,3,2,5,8,2,3
00:47:00,3,1,2,0,2,3,10,2,3
00:48:00,2,4,0,3,0,0,5,2,2
00:49:00,3,0,1,3,2,3,4,2,2
00:50:00,1,0,1,2,3,3,7,1,2
00:51:00,0,1,1,0,3,3,3,1,2
00:52:00,0,1,1,3,0,4,8,1,2
00:53:00,2,0,1,1,0,3,3,1,1
00:54:00,1,0,2,0,3,3,3,1,2
00:55:00,1,1,1,2,2,3,6,1,2
00:56:00,1,3,1,1,1,5,2,1,2
00:57:00,0,0,0,0,0,3,1,0,1
00:58:00,0,2,1,1,2,2,3,1,2
00:59:00,4,2,1,3,3,5,5,3,3
01:00:00,3,2,0,1,0,6,2,1,2
01:01:00,4,0,0,2,1,4,5,1,2
01:02:00,1,1,3,1,0,4,1,1,2
01:03:00,0,0,2,1,1,2,7,1,2
01:04:00,2,0,1,2,0,6,3,1,2
01:05:00,2,1,1,1,1,2,4,1,2
01:06:00,0,1,0,4,1,2,3,1,2
01:07:00,1,2,3,0,3,4,5,2,3
01:08:00,2,2,2,2,2,3,5,2,3
01:09:00,0,2,2,2,0,4,6,1,2
01:10:00,0,2,1,2,3,3,7,2,3
01:11:00,1,2,1,0,1,2,3,1,1
01:12:00,0,2,3,2,7,5,3,3,3
01:13:00,2,0,1,0,1,5,7,1,2
01:14:00,2,0,3,0,3,1,1,2,1
01:15:00,0,1,1,3,1,3,6,1,2
01:16:00,1,6,0,4,2,5,6,3,3
01:17:00,1,2,1,2,1,5,3,1,2
01:18:00,2,1,4,0,3,4,3,2,2
01:19:00,1,0,2,1,4,3,7,2,3
01:20:00,0,0,1,3,0,2,1,1,1
01:21:00,0,0,0,1,0,3,3,0,1
01:22:00,0,1,0,0,0,3,6,0,1
01:23:00,0,1,2,1,1,1,4,1,1
01:24:00,0,1,1,0,4,1,2,1,1
01:25:00,2,0,1,3,4,3,1,2,2
01:26:00,2,1,1,0,2,7,3,1,2
01:27:00,1,5,0,1,2,2,4,2,2
01:28:00,0,0,3,1,0,6,3,1,2
01:29:00,2,1,4,0,0,2,3,1,2
01:30:00,0,2,2,1,1,2,3,1,2
01:31:00,1,1,1,0,1,3,4,1,2
01:32:00,1,5,0,1,0,6,4,1,2
01:33:00,1,0,0,0,1,1,9,0,2
01:34:00,1,0,1,1,0,2,3,1,1
01:35:00,0,0,1,3,3,4,5,1,2
01:36:00,0,1,3,3,1,2,2,2,2
01:37:00,1,0,1,1,2,1,3,1,1
01:38:00,0,2,0,1,0,2,3,1,1
01:39:00,0,1,2,1,1,1,1,1,1
01:40:00,2,1,1,0,1,3,3,1,2
01:41:00,2,2,1,0,2,2,2,1,2
01:42:00,1,2,1,1,0,1,3,1,1
01:43:00,2,2,1,1,1,0,4,1,2
01:44:00,0,1,0,2,1,3,4,1,2
01:45:00,1,1,2,1,0,4,2,1,2
01:46:00,0,1,1,0,1,3,3,1,1
01:47:00,3,4,2,2,1,5,7,2,3
01:48:00,1,0,0,0,1,3,3,0,1
01:49:00,0,0,1,3,3,0,3,1,1
01:50:00,2,1,2,1,1,3,2,1,2
01:51:00,1,4,1,3,1,1,8,2,3
01:52:00,1,1,1,0,2,1,5,1,2
01:53:00,1,1,2,2,3,4,3,2,2
01:54:00,2,0,0,2,1,2,7,1,2
01:55:00,1,2,0,1,1,0,4,1,1
01:56:00,0,0,1,0,1,1,1,0,1
01:57:00,1,0,2,1,2,6,1,1,2
01:58:00,0,3,0,2,1,2,4,1,2
01:59:00,0,0,1,1,0,0,2,0,1
02:00:00,1,0,3,0,2,3,5,1,2
02:01:00,1,0,1,1,0,1,4,1,1
02:02:00,0,0,0,1,0,2,3,0,1
02:03:00,3,0,0,2,0,1,5,1,2
02:04:00,2,0,0,0,1,1,4,1,1
02:05:00,0,2,2,0,2,4,3,1,2
02:06:00,0,1,0,0,1,0,0,0,0
02:07:00,0,0,2,1,2,2,6,1,2
02:08:00,0,3,3,1,2,1,6,2,2
02:09:00,4,0,0,2,1,1,5,1,2
02:10:00,4,1,1,0,5,2,4,2,2
02:11:00,2,0,0,2,2,1,3,1,1
02:12:00,0,2,2,3,1,1,2,2,2
02:13:00,1,1,1,5,1,2,2,2,2
02:14:00,0,1,2,2,1,2,10,1,3
02:15:00,1,2,1,0,1,4,8,1,2
02:16:00,0,1,0,0,0,2,5,0,1
02:17:00,0,0,0,0,4,2,3,1,1
02:18:00,0,0,1,0,1,1,1,0,1
02:19:00,0,2,2,2,1,1,8,1,2
02:20:00,1,2,0,2,1,4,2,1,2
02:21:00,0,1,0,1,0,4,3,0,1
02:22:00,0,0,1,3,1,0,4,1,1
02:23:00,2,0,1,1,0,3,1,1,1
02:24:00,1,2,2,0,0,2,5,1,2
02:25:00,1,0,0,2,0,2,2,1,1
02:26:00,1,0,1,3,3,2,4,2,2
02:27:00,0,0,1,0,0,3,2,0,1
02:28:00,1,2,1,0,4,7,0,2,2
02:29:00,0,2,1,2,2,1,1,1,1
02:30:00,1,2,1,2,1,0,5,1,2
02:31:00,0,1,1,2,0,6,1,1,2
02:32:00,1,1,1,0,2,1,4,1,1
02:33:00,0,1,1,1,2,1,3,1,1
02:34:00,2,0,1,0,0,1,0,1,1
02:35:00,1,2,0,2,1,1,2,1,1
02:36:00,3,1,0,0,0,3,2,1,1
02:37:00,1,0,1,2,0,1,0,1,1
02:38:00,0,0,0,4,0,2,4,1,1
02:39:00,0,2,1,2,1,1,4,1,2
02:40:00,2,2,2,2,2,3,7,2,3
02:41:00,0,1,0,1,1,1,7,1,2
02:42:00,0,1,0,2,1,2,0,1,1
02:43:00,4,1,1,1,0,2,5,1,2
02:44:00,0,1,3,0,1,4,5,1,2
02:45:00,1,1,1,1,2,1,7,1,2
02:46:00,0,2,1,3,3,1,2,2,2
02:47:00,0,0,0,1,1,2,3,0,1
02:48:00,0,2,1,1,1,1,3,1,1
02:49:00,1,4,2,1,0,10,3,2,3
02:50:00,0,2,1,3,1,1,5,1,2
02:51:00,3,2,1,4,2,2,2,2,2
02:52:00,0,1,1,1,2,4,3,1,2
02:53:00,0,1,0,0,2,2,7,1,2
02:54:00,1,4,0,2,3,7,3,2,3
02:55:00,3,0,1,2,1,1,2,1,1
02:56:00,0,1,4,0,1,1,4,1,2
02:57:00,1,2,1,1,0,4,2,1,2
02:58:00,0,1,4,2,1,2,6,2,2
02:59:00,1,0,1,2,1,1,8,1,2
03:00:00,0,0,3,0,1,1,3,1,1
03:01:00,3,0,0,0,2,2,1,1,1
03:02:00,0,1,1,4,0,2,4,1,2
03:03:00,1,1,0,0,3,4,3,1,2
03:04:00,0,0,1,2,1,5,4,1,2
03:05:00,2,1,0,0,2,0,1,1,1
03:06:00,0,1,2,2,2,2,2,1,2
03:07:00,1,0,1,1,3,0,2,1,1
03:08:00,0,1,2,1,1,2,2,1,1
03:09:00,1,5,0,1,0,3,2,1,2
03:10:00,0,0,1,0,0,3,2,0,1
03:11:00,1,0,2,1,3,1,2,1,1
03:12:00,2,0,1,0,0,2,4,1,1
03:13:00,5,0,1,2,1,0,0,2,1
03:14:00,0,0,2,2,0,0,6,1,1
03:15:00,0,2,1,1,2,0,1,1,1
03:16:00,0,1,1,1,1,0,1,1,1
03:17:00,1,0,4,1,3,1,2,2,2
03:18:00,0,2,0,0,1,1,3,1,1
03:19:00,1,1,4,3,2,2,4,2,2
03:20:00,1,2,1,0,1,2,3,1,1
03:21:00,0,1,1,2,3,1,1,1,1
03:22:00,1,0,0,0,2,1,2,1,1
03:23:00,0,0,0,3,0,5,3,1,2
03:24:00,2,0,2,2,3,3,4,2,2
03:25:00,0,3,1,1,0,1,1,1,1
03:26:00,1,0,2,4,5,1,3,2,2
03:27:00,1,0,2,0,1,0,2,1,1
03:28:00,1,1,2,4,3,0,2,2,2
03:29:00,0,1,1,1,0,0,4,1,1
03:30:00,0,0,1,1,1,4,2,1,1
03:31:00,1,2,0,4,0,0,1,1,1
03:32:00,0,0,0,1,3,3,4,1,2
03:33:00,1,4,1,4,3,0,5,3,3
03:34:00,4,1,1,1,2,2,2,2,2
03:35:00,0,0,1,2,4,1,2,1,1
03:36:00,5,0,0,3,0,0,0,2,1
03:37:00,1,0,2,2,1,1,2,1,1
03:38:00,2,1,1,1,3,1,1,2,1
03:39:00,2,1,1,2,1,0,2,1,1
03:40:00,0,0,0,0,1,3,3,0,1
03:41:00,2,1,0,0,0,3,1,1,1
03:42:00,2,1,2,2,0,3,1,1,2
03:43:00,0,1,1,1,1,1,3,1,1
03:44:00,2,1,0,1,0,1,2,1,1
03:45:00,1,0,0,1,5,3,2,1,2
03:46:00,1,0,0,2,0,1,2,1,1
03:47:00,1,0,0,0,0,2,1,0,1
03:48:00,2,0,0,2,0,0,2,1,1
03:49:00,2,0,1,1,1,3,0,1,1
03:50:00,0,3,1,1,3,2,5,2,2
03:51:00,3,0,1,1,1,2,2,1,1
03:52:00,2,2,0,3,2,3,1,2,2
03:53:00,1,4,0,0,1,2,1,1,1
03:54:00,0,0,1,1,1,4,3,1,1
03:55:00,0,0,2,1,3,1,3,1,1
03:56:00,4,5,1,0,4,2,3,3,3
03:57:00,1,1,1,0,0,1,5,1,1
03:58:00,0,2,1,4,2,2,3,2,2
03:59:00,0,1,0,6,2,2,2,2,2
04:00:00,0,2,1,0,1,0,2,1,1
04:01:00,0,1,1,2,1,0,3,1,1
04:02:00,4,1,1,2,1,2,0,2,2
04:03:00,1,0,0,1,3,1,3,1,1
04:04:00,3,1,1,2,2,2,1,2,2
04:05:00,0,0,4,0,0,1,0,1,1
04:06:00,1,4,3,4,0,1,1,2,2
04:07:00,2,1,0,1,1,0,5,1,1
04:08:00,1,1,0,2,3,4,3,1,2
04:09:00,2,1,1,4,1,5,4,2,3
04:10:00,0,1,2,2,0,1,7,1,2
04:11:00,1,1,1,2,2,4,1,1,2
04:12:00,1,2,0,2,0,0,3,1,1
04:13:00,7,0,0,2,1,2,2,2,2
04:14:00,0,1,1,4,1,2,0,1,1
04:15:00,0,3,3,4,1,2,2,2,2
04:16:00,1,0,1,1,3,3,2,1,2
04:17:00,2,2,3,0,4,2,2,2,2
04:18:00,2,2,3,3,2,3,0,2,2
04:19:00,2,0,1,1,0,2,5,1,2
04:20:00,2,0,1,0,3,3,3,1,2
04:21:00,5,3,1,1,1,3,3,2,2
04:22:00,0,4,1,1,2,0,2,2,1
04:23:00,1,1,4,3,2,0,6,2,2
04:24:00,2,0,2,3,1,0,1,2,1
04:25:00,5,2,2,6,3,0,1,4,3
04:26:00,2,1,3,2,2,1,2,2,2
04:27:00,4,0,1,4,2,4,6,2,3
04:28:00,5,4,1,1,3,3,1,3,3
04:29:00,4,3,0,3,2,2,1,2,2
04:30:00,2,3,2,0,4,2,1,2,2
04:31:00,3,1,0,8,3,6,2,3,3
04:32:00,0,2,2,5,3,1,2,2,2
04:33:00,3,2,2,1,4,0,4,2,2
04:34:00,2,2,2,1,2,1,3,2,2
04:35:00,4,0,3,1,2,2,4,2,2
04:36:00,5,1,1,1,0,3,3,2,2
04:37:00,1,2,5,4,4,2,3,3,3
04:38:00,0,3,2,4,1,1,3,2,2
04:39:00,4,3,3,3,6,3,7,4,4
04:40:00,5,1,2,6,3,0,2,3,3
04:41:00,2,8,4,5,4,2,1,5,4
04:42:00,1,2,1,2,4,2,4,2,2
04:43:00,3,3,8,7,6,1,2,5,4
04:44:00,1,3,5,4,5,1,1,4,3
04:45:00,3,3,2,4,10,3,2,4,4
04:46:00,4,5,8,7,10,1,2,7,5
04:47:00,1,7,6,7,1,4,4,4,4
04:48:00,6,4,10,3,3,2,3,5,4
04:49:00,4,4,7,8,4,5,2,5,5
04:50:00,4,4,5,7,4,1,4,5,4
04:51:00,4,7,5,4,5,2,0,5,4
04:52:00,3,7,5,3,4,1,1,4,3
04:53:00,5,3,7,13,2,1,3,6,5
04:54:00,5,3,6,12,11,1,3,7,6
04:55:00,9,6,5,6,5,3,1,6,5
04:56:00,4,11,2,6,9,2,1,6,5
04:57:00,10,8,7,6,9,3,1,8,6
04:58:00,4,6,6,6,3,4,1,5,4
04:59:00,4,5,5,10,1,0,3,5,4
05:00:00,5,3,10,5,1,5,3,5,5
05:01:00,2,4,3,8,8,2,5,5,5
05:02:00,3,7,5,6,3,4,1,5,4
05:03:00,4,7,8,11,7,2,2,7,6
05:04:00,5,4,4,18,1,3,0,6,5
05:05:00,1,3,5,3,6,3,5,4,4
05:06:00,7,4,8,8,4,2,1,6,5
05:07:00,5,9,6,4,10,7,4,7,6
05:08:00,11,11,4,4,7,5,2,7,6
05:09:00,8,11,6,13,3,1,3,8,6
05:10:00,7,4,2,7,10,6,4,6,6
05:11:00,11,9,14,5,9,4,1,10,8
05:12:00,3,8,9,12,8,2,3,8,6
05:13:00,10,6,8,6,6,0,7,7,6
05:14:00,6,3,7,12,3,2,5,6,5
05:15:00,4,8,8,9,9,3,3,8,6
05:16:00,7,4,9,6,8,5,1,7,6
05:17:00,8,5,5,12,7,1,0,7,5
05:18:00,5,7,10,11,5,4,2,8,6
05:19:00,13,11,7,4,9,4,3,9,7
05:20:00,6,7,10,12,3,2,2,8,6
05:21:00,10,7,6,9,7,3,2,8,6
05:22:00,13,6,5,7,8,3,6,8,7
05:23:00,7,9,12,14,6,6,4,10,8
05:24:00,10,11,5,14,3,5,3,9,7
05:25:00,7,11,4,3,7,4,3,6,6
05:26:00,10,8,6,8,12,8,7,9,8
05:27:00,7,12,10,4,8,2,5,8,7
05:28:00,5,9,7,13,5,2,2,8,6
05:29:00,1,8,10,9,11,3,2,8,6
05:30:00,10,6,6,10,8,7,5,8,7
05:31:00,8,13,8,13,6,7,3,10,8
05:32:00,13,10,9,17,9,6,5,12,10
05:33:00,9,3,11,8,7,4,3,8,6
05:34:00,14,13,4,17,6,1,7,11,9
05:35:00,11,5,8,9,8,5,2,8,7
05:36:00,10,14,13,11,9,10,6,11,10
05:37:00,3,13,11,17,5,3,4,10,8
05:38:00,7,9,14,5,13,5,6,10,8
05:39:00,11,9,9,8,14,4,4,10,8
05:40:00,7,10,13,13,9,4,3,10,8
05:41:00,5,9,13,11,9,8,2,9,8
05:42:00,7,11,7,8,6,2,1,8,6
05:43:00,14,11,20,12,13,3,2,14,11
05:44:00,10,10,6,11,8,4,3,9,7
05:45:00,15,11,17,9,9,4,2,12,10
05:46:00,6,6,8,15,15,3,1,10,8
05:47:00,8,12,7,17,10,3,2,11,8
05:48:00,11,5,11,8,11,4,2,9,7
05:49:00,6,8,12,8,5,2,4,8,6
05:50:00,19,15,7,11,9,5,4,12,10
05:51:00,10,12,12,2,6,3,4,8,7
05:52:00,12,11,10,13,13,5,3,12,10
05:53:00,9,13,12,11,8,5,2,11,9
05:54:00,10,10,10,8,5,4,1,9,7
05:55:00,7,10,12,8,10,4,3,9,8
05:56:00,11,10,8,14,13,3,0,11,8
05:57:00,7,9,9,10,10,3,2,9,7
05:58:00,4,6,4,7,5,4,5,5,5
05:59:00,8,12,6,16,14,5,1,11,9
06:00:00,9,9,7,9,13,1,4,9,7
06:01:00,7,13,11,8,7,4,2,9,7
06:02:00,8,15,11,8,11,1,2,11,8
06:03:00,14,11,4,14,8,3,0,10,8
06:04:00,8,15,14,11,7,1,2,11,8
06:05:00,10,9,12,16,5,2,0,10,8
06:06:00,8,7,14,11,15,6,3,11,9
06:07:00,12,11,13,9,11,4,1,11,9
06:08:00,13,17,12,11,13,5,7,13,11
06:09:00,13,17,17,19,14,12,1,16,13
06:10:00,15,14,13,12,13,5,7,13,11
06:11:00,9,8,16,12,10,1,4,11,9
06:12:00,15,9,18,12,17,7,4,14,12
06:13:00,10,14,9,9,13,5,5,11,9
06:14:00,9,18,11,16,12,5,3,13,11
06:15:00,22,17,18,10,8,12,6,15,13
06:16:00,12,17,9,17,14,7,1,14,11
06:17:00,9,21,10,9,17,11,3,13,11
06:18:00,12,8,14,19,14,3,6,13,11
06:19:00,16,20,16,12,12,3,4,15,12
06:20:00,20,13,15,10,12,4,2,14,11
06:21:00,8,16,22,16,16,10,1,16,13
06:22:00,8,17,11,15,17,7,2,14,11
06:23:00,22,20,11,15,18,5,5,17,14
06:24:00,16,18,21,17,11,2,5,17,13
06:25:00,22,14,9,9,20,6,4,15,12
06:26:00,8,15,17,14,6,7,3,12,10
06:27:00,15,11,15,9,13,7,4,13,11
06:28:00,11,14,15,23,18,2,2,16,12
06:29:00,11,16,8,18,10,5,3,13,10
06:30:00,13,15,19,15,18,7,5,16,13
06:31:00,21,16,14,16,11,6,6,16,13
06:32:00,17,23,15,21,20,8,11,19,16
06:33:00,11,11,22,21,18,4,4,17,13
06:34:00,23,21,15,20,17,9,1,19,15
06:35:00,17,29,20,19,21,13,6,21,18
06:36:00,21,19,15,27,15,5,5,19,15
06:37:00,15,22,34,17,24,6,3,22,17
06:38:00,17,18,17,16,10,5,7,16,13
06:39:00,22,25,22,14,25,4,7,22,17
06:40:00,17,22,40,15,22,7,3,23,18
06:41:00,20,32,33,18,17,2,3,24,18
06:42:00,19,18,14,26,22,9,4,20,16
06:43:00,11,16,14,23,14,6,4,16,13
06:44:00,31,18,23,12,19,12,3,21,17
06:45:00,21,26,17,25,15,9,4,21,17
06:46:00,27,22,26,24,19,8,4,24,19
06:47:00,22,31,22,22,22,8,4,24,19
06:48:00,28,27,15,19,14,8,4,21,16
06:49:00,28,24,25,27,26,7,6,26,20
06:50:00,17,18,29,16,19,5,3,20,15
06:51:00,23,18,13,16,23,6,5,19,15
06:52:00,20,33,28,34,13,16,5,26,21
06:53:00,31,16,26,18,24,8,3,23,18
06:54:00,19,16,29,28,15,8,6,21,17
06:55:00,16,24,13,19,23,11,4,19,16
06:56:00,22,19,24,17,26,7,2,22,17
06:57:00,28,24,21,16,30,10,3,24,19
06:58:00,25,28,27,24,13,9,5,23,19
06:59:00,13,30,17,21,21,5,1,20,15
07:00:00,23,21,29,31,25,4,4,26,20
07:01:00,14,24,21,48,23,8,3,26,20
07:02:00,32,18,22,17,24,4,5,23,17
07:03:00,15,25,17,21,25,8,6,21,17
07:04:00,26,21,21,24,19,5,4,22,17
07:05:00,18,25,16,31,28,8,3,24,18
07:06:00,32,21,25,31,19,8,3,26,20
07:07:00,25,31,36,22,24,3,4,28,21
07:08:00,21,34,19,20,26,13,2,24,19
07:09:00,28,26,39,28,24,8,5,29,23
07:10:00,25,25,23,19,27,9,2,24,19
07:11:00,32,23,26,22,26,9,2,26,20
07:12:00,24,22,23,21,20,9,4,22,18
07:13:00,19,24,29,30,32,10,1,27,21
07:14:00,27,30,34,23,22,11,4,27,22
07:15:00,24,27,16,21,29,9,3,23,18
07:16:00,36,32,35,25,37,12,8,33,26
07:17:00,29,24,35,26,18,8,8,26,21
07:18:00,34,33,30,29,22,6,5,30,23
07:19:00,29,22,20,35,29,4,6,27,21
07:20:00,30,38,28,30,35,10,1,32,25
07:21:00,35,26,32,22,22,7,7,27,22
07:22:00,24,28,38,34,29,9,9,31,24
07:23:00,29,13,27,21,31,10,6,24,20
07:24:00,24,21,32,31,20,7,4,26,20
07:25:00,28,33,16,19,17,12,3,23,18
07:26:00,25,37,37,22,23,9,10,29,23
07:27:00,34,37,38,32,26,6,9,33,26
07:28:00,34,25,37,23,33,8,6,30,24
07:29:00,29,29,45,25,21,12,7,30,24
07:30:00,31,30,35,30,34,10,5,32,25
07:31:00,31,20,22,28,13,8,9,23,19
07:32:00,21,36,33,26,28,10,7,29,23
07:33:00,23,38,29,34,36,11,5,32,25
07:34:00,29,31,28,14,28,18,7,26,22
07:35:00,33,21,39,35,38,6,9,33,26
07:36:00,26,32,26,41,33,14,5,32,25
07:37:00,32,23,21,30,29,11,2,27,21
07:38:00,20,37,38,22,30,10,5,29,23
07:39:00,28,33,30,27,28,9,5,29,23
07:40:00,29,33,31,24,23,16,6,28,23
07:41:00,29,24,24,38,22,18,6,27,23
07:42:00,37,36,40,29,39,11,8,36,29
07:43:00,34,26,23,25,24,3,8,26,20
07:44:00,27,32,9,31,31,20,7,26,22
07:45:00,36,28,23,35,28,6,7,30,23
07:46:00,25,34,28,27,27,19,6,28,24
07:47:00,28,37,26,34,31,16,5,31,25
07:48:00,37,27,31,22,35,10,9,30,24
07:49:00,37,35,32,31,25,12,7,32,26
07:50:00,29,30,20,35,42,10,5,31,24
07:51:00,28,19,39,36,39,9,8,32,25
07:52:00,27,31,28,30,32,12,9,30,24
07:53:00,41,23,41,30,34,14,10,34,28
07:54:00,33,39,30,33,34,13,2,34,26
07:55:00,32,34,29,26,44,10,5,33,26
07:56:00,33,36,36,24,21,11,7,30,24
07:57:00,28,17,42,27,28,13,6,28,23
07:58:00,37,25,35,30,30,5,2,31,23
07:59:00,34,29,21,35,22,7,8,28,22
08:00:00,32,27,29,40,21,13,5,30,24
08:01:00,30,31,30,35,33,18,9,32,27
08:02:00,19,36,37,23,26,14,5,28,23
08:03:00,31,19,37,31,29,8,9,29,23
08:04:00,30,27,30,23,26,9,12,27,22
08:05:00,31,29,39,27,29,8,5,31,24
08:06:00,29,34,24,22,29,15,3,28,22
08:07:00,31,34,40,22,32,18,6,32,26
08:08:00,36,29,22,25,26,12,10,28,23
08:09:00,25,23,34,29,25,12,6,27,22
08:10:00,27,25,32,34,34,7,5,30,23
08:11:00,27,25,41,28,24,9,7,29,23
08:12:00,29,29,39,30,32,9,13,32,26
08:13:00,27,45,38,31,28,17,10,34,28
08:14:00,32,22,22,21,29,9,6,25,20
08:15:00,32,30,25,26,25,12,4,28,22
08:16:00,30,35,29,27,35,20,8,31,26
08:17:00,35,27,28,26,30,28,6,29,26
08:18:00,32,32,35,26,28,15,8,31,25
08:19:00,33,36,36,41,29,14,5,35,28
08:20:00,20,35,26,23,23,16,8,25,22
08:21:00,27,37,30,31,34,15,10,32,26
08:22:00,34,30,38,31,38,20,17,34,30
08:23:00,35,28,26,27,28,12,7,29,23
08:24:00,30,21,30,34,27,17,13,28,25
08:25:00,26,26,38,28,22,18,6,28,23
08:26:00,33,23,25,26,29,18,13,27,24
08:27:00,24,18,27,25,29,17,8,25,21
08:28:00,24,38,31,31,27,19,10,30,26
08:29:00,22,28,23,27,28,11,11,26,21
08:30:00,22,22,31,26,29,23,5,26,23
08:31:00,24,12,29,25,33,17,6,25,21
08:32:00,35,33,23,27,21,12,10,28,23
08:33:00,19,25,22,27,32,22,6,25,22
08:34:00,20,27,31,39,29,13,13,29,25
08:35:00,30,20,27,30,30,16,13,27,24
08:36:00,23,35,36,35,21,24,11,30,26
08:37:00,33,33,37,37,31,20,9,34,29
08:38:00,35,31,24,15,40,17,8,29,24
08:39:00,34,22,30,37,27,15,14,30,26
08:40:00,27,29,27,20,23,18,12,25,22
08:41:00,25,31,27,32,34,14,8,30,24
08:42:00,35,19,22,27,37,23,8,28,24
08:43:00,18,30,31,33,35,18,20,29,26
08:44:00,31,29,31,28,27,24,12,29,26
08:45:00,30,42,23,30,27,21,10,30,26
08:46:00,32,27,21,23,36,23,12,28,25
08:47:00,37,30,32,33,25,18,10,31,26
08:48:00,26,24,29,31,33,15,18,29,25
08:49:00,22,33,28,28,24,23,10,27,24
08:50:00,26,32,31,27,41,18,10,31,26
08:51:00,38,35,29,21,25,15,11,30,25
08:52:00,25,25,26,28,26,22,17,26,24
08:53:00,18,30,30,31,26,20,11,27,24
08:54:00,28,31,31,27,23,23,11,28,25
08:55:00,20,36,30,36,31,20,24,31,28
08:56:00,25,20,25,22,31,18,7,25,21
08:57:00,27,29,40,25,23,20,18,29,26
08:58:00,26,17,31,25,38,13,8,27,23
08:59:00,25,28,31,24,25,23,13,27,24
09:00:00,26,28,30,24,41,12,11,30,25
09:01:00,30,23,22,36,31,29,10,28,26
09:02:00,31,31,22,32,29,20,21,29,27
09:03:00,30,31,10,37,18,24,8,25,23
09:04:00,30,27,37,25,32,28,9,30,27
09:05:00,19,18,41,24,31,18,11,27,23
09:06:00,24,22,21,29,28,18,11,25,22
09:07:00,30,26,33,20,23,15,11,26,23
09:08:00,26,24,28,20,34,14,16,26,23
09:09:00,24,38,20,18,12,21,11,22,21
09:10:00,25,23,37,26,25,21,11,27,24
09:11:00,24,22,25,26,22,21,21,24,23
09:12:00,20,24,16,32,35,24,12,25,23
09:13:00,24,25,23,32,19,24,12,25,23
09:14:00,28,37,32,27,41,20,4,33,27
09:15:00,29,27,31,40,22,21,13,30,26
09:16:00,18,21,22,20,34,17,13,23,21
09:17:00,22,23,30,29,28,19,14,26,24
09:18:00,25,29,32,17,37,21,10,28,24
09:19:00,34,33,33,34,25,37,15,32,30
09:20:00,19,33,22,25,29,28,16,26,25
09:21:00,32,24,33,28,34,21,18,30,27
09:22:00,11,23,19,30,26,21,18,22,21
09:23:00,27,23,15,16,26,18,22,21,21
09:24:00,25,13,26,20,23,23,13,21,20
09:25:00,24,28,17,24,26,25,13,24,22
09:26:00,22,26,25,30,31,28,18,27,26
09:27:00,26,26,25,20,24,21,9,24,22
09:28:00,22,25,21,20,21,16,11,22,19
09:29:00,22,33,31,26,26,27,21,28,27
09:30:00,24,17,32,20,35,15,21,26,23
09:31:00,25,31,28,24,28,21,13,27,24
09:32:00,21,24,20,23,33,25,12,24,23
09:33:00,23,19,31,20,12,22,19,21,21
09:34:00,22,18,18,26,27,28,14,22,22
09:35:00,44,25,19,29,25,25,24,28,27
09:36:00,23,34,33,23,25,17,26,28,26
09:37:00,33,36,31,25,28,18,27,31,28
09:38:00,23,32,18,28,21,28,17,24,24
09:39:00,28,26,16,20,37,21,17,25,24
09:40:00,29,33,28,23,22,26,20,27,26
09:41:00,30,32,33,26,21,23,13,28,25
09:42:00,25,30,11,19,24,19,19,22,21
09:43:00,22,31,27,33,26,22,27,28,27
09:44:00,23,16,31,25,30,31,16,25,25
09:45:00,18,18,24,33,17,27,21,22,23
09:46:00,26,33,25,28,39,24,26,30,29
09:47:00,25,18,25,29,30,25,24,25,25
09:48:00,25,22,13,23,24,27,38,21,25
09:49:00,28,29,31,23,29,29,16,28,26
09:50:00,33,44,20,24,29,28,36,30,31
09:51:00,39,25,19,23,17,23,12,25,23
09:52:00,20,23,25,31,33,31,23,26,27
09:53:00,20,38,23,28,22,25,26,26,26
09:54:00,26,25,28,17,37,17,23,27,25
09:55:00,25,16,22,30,16,31,25,22,24
09:56:00,13,23,32,24,16,28,20,22,22
09:57:00,28,17,25,30,20,26,27,24,25
09:58:00,16,29,24,19,24,26,27,22,24
09:59:00,22,29,13,33,32,27,26,26,26
10:00:00,22,18,14,24,37,32,17,23,23
10:01:00,14,24,34,20,23,20,27,23,23
10:02:00,19,18,15,12,21,29,17,17,19
10:03:00,17,24,15,22,28,26,28,21,23
10:04:00,22,20,34,27,11,25,27,23,24
10:05:00,22,24,22,23,31,15,32,24,24
10:06:00,25,20,20,26,25,24,28,23,24
10:07:00,36,20,26,28,31,24,23,28,27
10:08:00,21,18,20,31,20,27,16,22,22
10:09:00,24,25,32,31,17,31,24,26,26
10:10:00,15,22,14,21,31,26,26,21,22
10:11:00,21,31,23,24,28,16,22,25,24
10:12:00,21,31,35,29,26,29,26,28,28
10:13:00,25,31,18,25,23,20,21,24,23
10:14:00,21,18,22,29,35,23,26,25,25
10:15:00,23,35,28,18,21,25,28,25,25
10:16:00,29,31,21,25,27,18,20,27,24
10:17:00,26,15,30,19,27,28,24,23,24
10:18:00,22,23,13,26,18,22,17,20,20
10:19:00,24,34,25,11,33,27,13,25,24
10:20:00,14,33,21,14,37,23,13,24,22
10:21:00,19,30,36,22,22,29,36,26,28
10:22:00,35,14,28,12,27,19,21,23,22
10:23:00,28,33,18,22,31,34,11,26,25
10:24:00,17,23,25,19,18,31,26,20,23
10:25:00,23,15,17,22,28,32,25,21,23
10:26:00,12,25,16,14,23,25,27,18,20
10:27:00,37,35,32,20,31,28,24,31,30
10:28:00,20,23,26,33,20,25,14,24,23
10:29:00,22,26,20,29,21,27,27,24,25
10:30:00,23,20,20,33,29,28,25,25,25
10:31:00,21,33,21,18,22,20,26,23,23
10:32:00,24,17,27,29,30,26,26,25,26
10:33:00,19,26,22,25,33,29,24,25,25
10:34:00,24,22,22,22,25,21,24,23,23
10:35:00,32,31,16,22,23,21,27,25,25
10:36:00,29,24,29,26,30,22,25,28,26
10:37:00,29,19,23,21,26,32,19,24,24
10:38:00,29,27,37,20,28,23,17,28,26
10:39:00,17,28,20,24,21,30,27,22,24
10:40:00,15,17,19,25,16,25,25,18,20
10:41:00,24,24,22,22,25,31,25,23,25
10:42:00,22,14,29,25,33,32,29,25,26
10:43:00,24,32,19,20,22,24,16,23,22
10:44:00,25,24,25,24,30,15,26,26,24
10:45:00,21,22,28,22,29,38,27,24,27
10:46:00,34,23,35,21,40,24,30,31,30
10:47:00,40,30,36,29,25,30,33,32,32
10:48:00,20,27,27,27,23,28,19,25,24
10:49:00,29,20,18,18,31,31,26,23,25
10:50:00,21,26,27,29,25,29,27,26,26
10:51:00,28,17,30,30,27,28,20,26,26
10:52:00,26,30,25,30,26,31,21,27,27
10:53:00,21,21,31,15,35,22,23,25,24
10:54:00,25,23,10,19,30,25,21,21,22
10:55:00,25,22,22,32,36,18,22,27,25
10:56:00,22,32,23,24,21,22,22,24,24
10:57:00,28,26,26,29,25,24,20,27,25
10:58:00,27,15,26,23,35,23,18,25,24
10:59:00,32,25,36,17,27,20,28,27,26
11:00:00,28,31,31,22,18,31,10,26,24
11:01:00,20,20,21,22,35,28,20,24,24
11:02:00,14,18,22,24,25,28,23,21,22
11:03:00,22,25,21,22,21,21,22,22,22
11:04:00,34,17,26,33,13,25,24,25,25
11:05:00,27,26,25,18,30,29,31,25,27
11:06:00,30,22,28,25,22,26,26,25,26
11:07:00,16,31,12,16,26,21,14,20,19
11:08:00,25,27,25,30,13,27,26,24,25
11:09:00,17,24,13,31,19,24,19,21,21
11:10:00,26,33,15,34,32,35,24,28,28
11:11:00,29,27,24,18,24,23,21,24,24
11:12:00,20,30,24,27,25,29,24,25,26
11:13:00,22,16,29,26,19,30,21,22,23
11:14:00,29,19,28,17,28,28,26,24,25
11:15:00,25,19,23,27,31,25,35,25,26
11:16:00,27,34,22,25,23,26,20,26,25
11:17:00,31,20,29,27,32,30,22,28,27
11:18:00,26,28,18,35,29,20,30,27,27
11:19:00,29,24,13,26,34,32,25,25,26
11:20:00,20,20,19,21,32,22,23,22,22
11:21:00,22,28,33,20,22,34,19,25,25
11:22:00,24,18,23,27,21,29,20,23,23
11:23:00,30,29,23,36,18,29,26,27,27
11:24:00,18,26,16,21,26,27,31,21,24
11:25:00,24,25,27,23,35,23,23,27,26
11:26:00,21,16,21,25,26,30,22,22,23
11:27:00,25,25,28,19,31,25,27,26,26
11:28:00,20,23,22,21,23,31,18,22,23
11:29:00,27,24,21,28,27,28,29,25,26
11:30:00,15,31,24,24,33,30,19,25,25
11:31:00,21,31,29,41,29,34,21,30,29
11:32:00,26,22,25,31,25,21,26,26,25
11:33:00,34,31,19,22,31,21,21,27,26
11:34:00,20,28,35,22,28,37,16,27,27
11:35:00,37,26,15,18,28,25,24,25,25
11:36:00,26,29,18,27,29,24,24,26,25
11:37:00,28,16,23,22,29,32,24,24,25
11:38:00,16,35,25,39,18,27,25,27,26
11:39:00,27,25,15,26,28,19,27,24,24
11:40:00,16,26,31,23,34,28,14,26,25
11:41:00,35,28,22,27,29,33,25,28,28
11:42:00,19,26,28,26,21,40,27,24,27
11:43:00,22,22,23,27,26,27,23,24,24
11:44:00,24,21,33,16,24,30,22,24,24
11:45:00,23,23,29,20,28,31,28,25,26
11:46:00,18,31,31,16,26,30,33,24,26
11:47:00,24,23,23,18,14,22,26,20,21
11:48:00,24,27,27,24,23,23,29,25,25
11:49:00,22,32,29,24,23,25,27,26,26
11:50:00,22,18,26,29,21,22,25,23,23
11:51:00,21,22,30,27,27,30,30,25,27
11:52:00,35,28,37,20,28,29,22,30,28
11:53:00,17,21,23,19,23,28,30,21,23
11:54:00,20,17,23,27,23,20,34,22,23
11:55:00,23,22,20,21,30,28,31,23,25
11:56:00,15,17,23,18,30,28,24,21,22
11:57:00,25,30,19,30,26,28,27,26,26
11:58:00,21,33,22,22,20,24,26,24,24
11:59:00,26,28,22,23,21,29,32,24,26
12:00:00,21,31,25,27,27,26,28,26,26
12:01:00,25,23,21,21,36,28,35,25,27
12:02:00,29,34,30,19,24,20,29,27,26
12:03:00,22,34,20,34,25,35,19,27,27
12:04:00,19,26,37,29,20,22,27,26,26
12:05:00,34,33,23,28,25,20,29,29,27
12:06:00,30,20,19,16,31,26,23,23,24
12:07:00,25,31,28,17,21,30,34,24,27
12:08:00,23,31,27,17,22,15,33,24,24
12:09:00,27,20,22,19,20,20,26,22,22
12:10:00,19,18,18,27,30,35,37,22,26
12:11:00,34,15,21,25,21,29,30,23,25
12:12:00,18,32,26,16,27,35,17,24,24
12:13:00,22,30,27,26,28,24,18,27,25
12:14:00,37,35,30,30,32,35,32,33,33
12:15:00,25,29,36,28,28,25,24,29,28
12:16:00,25,35,31,22,28,29,24,28,28
12:17:00,20,31,20,20,31,38,41,24,29
12:18:00,26,25,28,19,22,29,27,24,25
12:19:00,19,26,25,32,22,27,28,25,26
12:20:00,17,29,26,26,31,28,24,26,26
12:21:00,26,24,30,34,30,30,31,29,29
12:22:00,32,21,25,33,31,29,21,28,27
12:23:00,24,19,24,21,32,20,27,24,24
12:24:00,25,20,28,24,28,26,27,25,25
12:25:00,27,29,29,25,33,27,24,29,28
12:26:00,18,34,21,26,26,32,29,25,27
12:27:00,25,32,14,19,24,30,23,23,24
12:28:00,23,24,20,29,23,25,31,24,25
12:29:00,37,24,28,16,24,37,32,26,28
12:30:00,22,28,28,17,21,22,26,23,23
12:31:00,16,17,26,25,32,38,29,23,26
12:32:00,27,26,18,14,28,30,24,23,24
12:33:00,22,18,33,36,29,27,26,28,27
12:34:00,23,27,24,32,23,31,35,26,28
12:35:00,20,35,27,22,26,40,28,26,28
12:36:00,24,26,16,21,29,27,21,23,23
12:37:00,24,40,38,33,32,30,34,33,33
12:38:00,20,35,34,29,23,24,28,28,28
12:39:00,23,12,17,26,23,28,23,20,22
12:40:00,25,27,27,26,26,35,33,26,28
12:41:00,25,37,22,16,31,35,24,26,27
12:42:00,22,21,27,28,26,30,30,25,26
12:43:00,23,32,22,30,32,22,31,28,27
12:44:00,15,24,28,36,22,29,28,25,26
12:45:00,27,30,18,25,29,38,25,26,27
12:46:00,28,29,26,28,32,34,28,29,29
12:47:00,25,28,21,20,26,29,29,24,25
12:48:00,27,33,35,32,24,36,29,30,31
12:49:00,20,29,27,31,33,26,29,28,28
12:50:00,28,25,24,34,29,32,34,28,29
12:51:00,38,22,29,27,26,36,31,28,30
12:52:00,26,31,19,31,18,21,32,25,25
12:53:00,18,34,23,24,22,28,28,24,25
12:54:00,27,25,28,14,29,38,23,25,26
12:55:00,23,23,25,14,19,22,28,21,22
12:56:00,26,23,29,26,22,31,25,25,26
12:57:00,26,38,19,22,22,26,31,25,26
12:58:00,20,24,22,23,28,24,21,23,23
12:59:00,31,28,26,32,24,24,25,28,27
13:00:00,22,25,27,26,21,29,35,24,26
13:01:00,22,37,23,26,32,33,25,28,28
13:02:00,27,30,16,21,29,31,30,25,26
13:03:00,24,35,22,20,29,28,22,26,26
13:04:00,18,23,25,22,28,23,33,23,25
13:05:00,31,28,21,24,20,22,32,25,25
13:06:00,19,37,28,30,37,29,21,30,29
13:07:00,23,16,26,28,13,26,20,21,22
13:08:00,27,30,27,24,28,35,22,27,28
13:09:00,35,27,30,21,29,29,45,28,31
13:10:00,22,31,27,17,33,30,27,26,27
13:11:00,27,18,36,28,33,25,17,28,26
13:12:00,32,25,26,21,22,20,24,25,24
13:13:00,21,35,36,28,30,34,33,30,31
13:14:00,29,23,34,24,26,28,29,27,28
13:15:00,30,29,42,26,32,25,39,32,32
13:16:00,28,18,24,25,28,25,28,25,25
13:17:00,25,31,26,33,14,29,25,26,26
13:18:00,12,17,26,32,33,39,24,24,26
13:19:00,22,27,18,31,32,29,37,26,28
13:20:00,24,26,23,32,24,33,23,26,26
13:21:00,30,21,25,28,32,34,26,27,28
13:22:00,23,23,21,26,22,13,29,23,22
13:23:00,21,28,28,26,22,19,32,25,25
13:24:00,21,33,32,25,23,31,27,27,27
13:25:00,29,20,28,28,23,27,27,26,26
13:26:00,24,19,36,19,22,31,26,24,25
13:27:00,27,23,17,32,37,23,22,27,26
13:28:00,18,18,23,27,26,17,31,22,23
13:29:00,27,24,23,30,23,25,21,25,25
13:30:00,19,24,19,27,25,37,23,23,25
13:31:00,32,27,26,33,34,26,24,30,29
13:32:00,34,23,29,32,21,23,30,28,27
13:33:00,32,21,19,23,30,27,32,25,26
13:34:00,24,16,28,31,18,27,31,23,25
13:35:00,23,36,22,18,35,34,20,27,27
13:36:00,23,23,29,21,29,25,37,25,27
13:37:00,28,17,25,24,29,24,12,25,23
13:38:00,24,26,31,27,20,29,26,26,26
13:39:00,32,23,12,28,27,34,27,24,26
13:40:00,23,32,33,25,28,29,22,28,27
13:41:00,24,16,27,29,32,23,30,26,26
13:42:00,31,15,28,32,25,26,29,26,27
13:43:00,34,31,28,22,29,24,28,29,28
13:44:00,17,31,22,36,26,30,22,26,26
13:45:00,32,20,17,34,32,23,33,27,27
13:46:00,27,28,32,24,23,24,14,27,25
13:47:00,32,27,19,29,24,32,36,26,28
13:48:00,22,26,27,18,21,27,23,23,23
13:49:00,24,20,19,34,31,27,32,26,27
13:50:00,14,26,37,24,24,31,28,25,26
13:51:00,27,28,23,27,30,29,28,27,27
13:52:00,27,20,23,24,30,28,24,25,25
13:53:00,30,31,25,24,29,22,25,28,27
13:54:00,28,25,32,13,15,20,14,23,21
13:55:00,17,26,25,17,26,23,32,22,24
13:56:00,26,32,19,25,25,29,27,25,26
13:57:00,29,17,29,26,19,16,34,24,24
13:58:00,29,18,20,27,23,28,25,23,24
13:59:00,36,37,21,29,43,25,20,33,30
14:00:00,22,34,28,33,28,31,23,29,28
14:01:00,25,37,18,22,31,26,21,27,26
14:02:00,29,23,29,35,19,25,20,27,26
14:03:00,19,34,23,29,19,23,31,25,25
14:04:00,24,21,25,20,35,34,20,25,26
14:05:00,28,37,28,32,31,29,30,31,31
14:06:00,27,27,22,30,25,28,19,26,25
14:07:00,27,21,18,22,27,28,25,23,24
14:08:00,24,27,12,27,26,27,29,23,25
14:09:00,25,13,32,33,29,21,18,26,24
14:10:00,21,31,31,24,22,26,22,26,25
14:11:00,19,20,27,23,35,23,27,25,25
14:12:00,25,31,23,23,20,25,25,24,25
14:13:00,33,35,34,33,25,25,20,32,29
14:14:00,22,40,28,30,21,27,34,28,29
14:15:00,31,19,35,27,27,31,25,28,28
14:16:00,17,23,33,26,31,26,16,26,25
14:17:00,35,31,26,22,26,26,27,28,28
14:18:00,22,30,21,25,28,30,22,25,25
14:19:00,22,30,39,32,26,27,20,30,28
14:20:00,28,22,27,23,41,36,21,28,28
14:21:00,23,26,30,19,15,31,37,23,26
14:22:00,20,27,25,26,35,32,31,27,28
14:23:00,18,25,20,20,30,23,25,23,23
14:24:00,26,29,26,22,26,23,34,26,27
14:25:00,21,25,23,27,25,26,29,24,25
14:26:00,21,21,24,28,34,24,17,26,24
14:27:00,32,22,42,26,21,35,31,29,30
14:28:00,28,24,24,34,30,18,34,28,27
14:29:00,20,32,26,30,24,23,29,26,26
14:30:00,18,30,34,24,24,28,21,26,26
14:31:00,34,25,26,35,15,32,35,27,29
14:32:00,26,17,28,25,41,40,25,27,29
14:33:00,24,31,26,33,22,27,24,27,27
14:34:00,18,30,29,20,35,25,30,26,27
14:35:00,28,23,30,14,24,27,37,24,26
14:36:00,35,28,28,34,36,29,19,32,30
14:37:00,22,20,34,27,25,26,26,26,26
14:38:00,25,27,27,28,26,23,36,27,27
14:39:00,18,30,15,24,21,23,21,22,22
14:40:00,24,21,34,26,30,23,30,27,27
14:41:00,27,27,18,33,28,25,22,27,26
14:42:00,19,26,23,34,33,26,23,27,26
14:43:00,25,20,29,29,25,32,21,26,26
14:44:00,31,24,32,23,33,36,21,29,29
14:45:00,24,27,32,37,38,28,19,32,29
14:46:00,32,31,25,24,21,31,28,27,27
14:47:00,26,19,24,25,25,35,29,24,26
14:48:00,21,25,31,28,33,28,21,28,27
14:49:00,20,21,35,24,25,25,32,25,26
14:50:00,21,38,28,25,34,19,29,29,28
14:51:00,35,28,38,26,20,33,17,29,28
14:52:00,29,15,18,26,25,20,39,23,25
14:53:00,26,37,26,29,25,33,25,29,29
14:54:00,28,33,27,24,23,18,23,27,25
14:55:00,25,34,21,32,24,29,27,27,27
14:56:00,22,31,27,31,26,25,30,27,27
14:57:00,35,21,27,29,28,25,19,28,26
14:58:00,28,26,23,31,30,29,26,28,28
14:59:00,27,28,25,30,28,28,20,28,27
15:00:00,14,24,27,24,35,30,35,25,27
15:01:00,22,24,33,36,24,33,28,28,29
15:02:00,26,34,25,23,37,23,25,29,28
15:03:00,32,29,35,17,20,29,16,27,25
15:04:00,21,31,29,30,20,36,28,26,28
15:05:00,26,16,23,29,31,26,29,25,26
15:06:00,28,25,29,34,34,19,27,30,28
15:07:00,26,23,29,25,22,27,25,25,25
15:08:00,18,23,27,32,32,26,30,26,27
15:09:00,39,28,31,27,31,21,30,31,30
15:10:00,30,22,29,26,25,31,23,26,27
15:11:00,21,25,24,19,28,30,29,23,25
15:12:00,28,36,29,33,23,24,29,30,29
15:13:00,33,27,26,23,25,28,19,27,26
15:14:00,34,18,30,31,30,23,17,29,26
15:15:00,29,23,35,32,27,30,30,29,29
15:16:00,30,30,25,24,21,24,27,26,26
15:17:00,31,32,32,21,25,15,14,28,24
15:18:00,31,30,28,29,40,32,29,32,31
15:19:00,38,17,37,24,24,21,14,28,25
15:20:00,32,26,23,33,28,27,23,28,27
15:21:00,28,29,24,24,37,25,23,28,27
15:22:00,21,26,30,31,27,20,23,27,25
15:23:00,28,23,34,27,25,24,24,27,26
15:24:00,25,29,30,25,28,36,30,27,29
15:25:00,24,26,26,23,27,35,18,25,26
15:26:00,23,26,23,26,29,24,22,25,25
15:27:00,26,23,34,28,30,13,25,28,26
15:28:00,24,26,15,22,25,20,31,22,23
15:29:00,27,21,23,14,33,21,24,24,23
15:30:00,28,27,22,31,28,32,21,27,27
15:31:00,17,28,31,32,28,24,27,27,27
15:32:00,25,19,31,25,34,24,19,27,25
15:33:00,35,31,25,26,30,31,27,29,29
15:34:00,27,31,26,23,16,21,14,25,23
15:35:00,32,34,33,21,33,21,21,31,28
15:36:00,25,25,30,30,26,24,14,27,25
15:37:00,23,20,15,20,29,31,29,21,24
15:38:00,26,23,31,15,32,25,22,25,25
15:39:00,29,27,22,30,24,30,28,26,27
15:40:00,22,26,38,28,27,27,22,28,27
15:41:00,21,28,16,33,27,30,30,25,26
15:42:00,17,35,35,27,20,28,19,27,26
15:43:00,30,38,33,29,32,24,20,32,29
15:44:00,37,27,31,30,26,20,29,30,29
15:45:00,27,34,28,36,20,21,21,29,27
15:46:00,30,21,24,24,22,14,30,24,24
15:47:00,28,27,23,26,23,25,21,25,25
15:48:00,20,24,36,27,34,29,18,28,27
15:49:00,24,24,20,20,34,27,13,24,23
15:50:00,27,30,36,34,27,24,22,31,29
15:51:00,23,31,16,31,18,24,21,24,23
15:52:00,25,19,31,25,19,24,30,24,25
15:53:00,25,37,29,30,30,27,17,30,28
15:54:00,26,26,23,31,24,26,22,26,25
15:55:00,14,22,24,27,21,24,28,22,23
15:56:00,29,21,31,31,34,27,24,29,28
15:57:00,30,29,18,33,28,24,23,28,26
15:58:00,28,26,31,23,24,20,21,26,25
15:59:00,25,37,32,43,26,34,14,33,30
16:00:00,40,23,23,15,25,28,15,25,24
16:01:00,17,33,22,31,30,24,26,27,26
16:02:00,35,30,33,28,29,27,16,31,28
16:03:00,31,31,20,24,30,22,31,27,27
16:04:00,28,26,27,29,30,32,21,28,28
16:05:00,27,37,30,23,19,28,20,27,26
16:06:00,31,38,27,29,31,25,23,31,29
16:07:00,21,27,20,23,23,21,23,23,23
16:08:00,31,26,29,28,26,26,27,28,28
16:09:00,26,28,35,22,37,25,24,30,28
16:10:00,30,31,26,40,32,15,25,32,28
16:11:00,21,34,28,22,24,19,16,26,23
16:12:00,33,28,25,43,31,26,29,32,31
16:13:00,26,27,27,24,33,23,25,27,26
16:14:00,28,14,30,34,16,26,27,24,25
16:15:00,22,29,28,19,31,24,30,26,26
16:16:00,29,21,29,36,24,23,22,28,26
16:17:00,23,22,22,30,31,34,25,26,27
16:18:00,24,16,32,32,21,21,28,25,25
16:19:00,24,31,29,14,32,28,21,26,26
16:20:00,28,26,31,30,30,32,29,29,29
16:21:00,24,30,20,17,25,32,29,23,25
16:22:00,31,19,23,31,25,31,25,26,26
16:23:00,22,39,17,30,30,25,30,28,28
16:24:00,38,24,31,28,35,25,32,31,30
16:25:00,16,27,23,29,35,14,32,26,25
16:26:00,29,23,36,28,26,12,31,28,26
16:27:00,18,23,29,28,28,32,19,25,25
16:28:00,34,21,31,21,28,23,16,27,25
16:29:00,22,30,33,29,15,29,20,26,25
16:30:00,27,25,36,31,36,21,16,31,27
16:31:00,20,31,16,27,24,29,17,24,23
16:32:00,26,24,18,29,31,27,22,26,25
16:33:00,25,26,26,27,24,21,17,26,24
16:34:00,34,31,20,25,34,26,20,29,27
16:35:00,27,19,30,30,31,25,28,27,27
16:36:00,27,30,33,28,30,23,26,30,28
16:37:00,28,26,29,19,39,12,20,28,25
16:38:00,31,33,31,39,27,31,15,32,30
16:39:00,39,27,29,21,22,28,22,28,27
16:40:00,28,17,26,30,18,27,21,24,24
16:41:00,22,33,28,37,25,17,23,29,26
16:42:00,22,17,22,36,26,21,15,25,23
16:43:00,22,20,33,16,23,33,31,23,25
16:44:00,33,20,32,27,22,30,20,27,26
16:45:00,29,26,25,22,19,28,24,24,25
16:46:00,36,25,36,35,28,18,20,32,28
16:47:00,23,31,22,24,30,37,24,26,27
16:48:00,33,21,31,23,30,20,30,28,27
16:49:00,12,28,23,31,23,22,25,23,23
16:50:00,27,14,27,30,29,21,30,25,25
16:51:00,31,32,19,25,29,33,19,27,27
16:52:00,26,27,27,21,23,20,22,25,24
16:53:00,27,28,24,29,26,18,20,27,25
16:54:00,24,29,30,28,24,27,21,27,26
16:55:00,21,24,26,29,29,22,25,26,25
16:56:00,30,35,30,23,30,23,18,30,27
16:57:00,24,28,23,25,12,30,21,22,23
16:58:00,23,21,32,17,38,21,15,26,24
16:59:00,20,24,24,38,26,32,17,26,26
17:00:00,19,23,25,22,25,23,23,23,23
17:01:00,40,36,13,27,27,28,18,29,27
17:02:00,21,24,26,21,30,21,12,24,22
17:03:00,27,29,27,39,25,33,28,29,30
17:04:00,25,29,27,25,24,26,22,26,25
17:05:00,22,28,28,38,10,24,18,25,24
17:06:00,33,28,26,26,34,20,16,29,26
17:07:00,34,24,32,23,28,26,18,28,26
17:08:00,32,32,39,21,30,26,31,31,30
17:09:00,19,30,22,29,30,32,23,26,26
17:10:00,25,23,32,31,19,22,21,26,25
17:11:00,22,27,36,36,17,21,15,28,25
17:12:00,26,31,33,29,29,31,17,30,28
17:13:00,21,19,31,26,33,28,25,26,26
17:14:00,35,34,33,27,33,22,27,32,30
17:15:00,35,26,27,42,29,21,18,32,28
17:16:00,32,33,31,24,30,26,16,30,27
17:17:00,25,24,21,25,24,28,28,24,25
17:18:00,26,28,20,25,19,19,21,24,23
17:19:00,23,28,31,31,37,26,14,30,27
17:20:00,30,24,28,29,21,27,18,26,25
17:21:00,18,21,23,18,18,31,22,20,22
17:22:00,34,35,33,16,28,30,34,29,30
17:23:00,20,17,31,19,23,27,26,22,23
17:24:00,27,26,28,31,23,27,12,27,25
17:25:00,32,26,24,20,21,18,19,25,23
17:26:00,24,24,33,23,19,24,17,25,23
17:27:00,25,25,15,28,17,15,19,22,21
17:28:00,19,22,38,21,28,28,13,26,24
17:29:00,27,18,29,30,23,23,25,25,25
17:30:00,19,23,31,32,26,35,20,26,27
17:31:00,29,21,25,22,27,25,21,25,24
17:32:00,21,33,31,19,26,12,20,26,23
17:33:00,31,31,29,25,30,32,15,29,28
17:34:00,25,19,23,27,27,20,27,24,24
17:35:00,13,27,23,23,16,31,19,20,22
17:36:00,29,22,32,30,27,26,7,28,25
17:37:00,28,32,22,28,28,19,14,28,24
17:38:00,24,30,31,21,28,22,36,27,27
17:39:00,31,23,19,31,21,27,26,25,25
17:40:00,31,28,26,16,19,37,16,24,25
17:41:00,23,25,40,26,20,24,22,27,26
17:42:00,29,23,29,26,27,32,13,27,26
17:43:00,30,30,30,34,25,25,14,30,27
17:44:00,25,30,20,27,33,31,16,27,26
17:45:00,29,21,21,34,26,22,15,26,24
17:46:00,29,31,30,16,36,30,21,28,28
17:47:00,24,28,42,30,26,16,6,30,25
17:48:00,39,29,29,30,29,34,25,31,31
17:49:00,19,19,23,24,24,29,19,22,22
17:50:00,32,24,24,25,25,30,19,26,26
17:51:00,21,26,27,32,33,29,20,28,27
17:52:00,22,24,29,24,27,21,14,25,23
17:53:00,27,25,31,31,23,25,17,27,26
17:54:00,33,25,32,20,34,27,28,29,28
17:55:00,24,21,30,32,23,29,29,26,27
17:56:00,22,31,35,25,30,17,13,29,25
17:57:00,27,29,29,24,21,29,25,26,26
17:58:00,29,29,26,20,37,27,20,28,27
17:59:00,26,33,23,35,27,28,23,29,28
18:00:00,34,20,26,27,24,21,6,26,23
18:01:00,22,33,33,37,26,33,14,30,28
18:02:00,26,25,24,27,20,26,27,24,25
18:03:00,19,21,14,20,20,24,18,19,19
18:04:00,18,24,25,29,29,20,17,25,23
18:05:00,19,35,18,32,33,21,20,27,25
18:06:00,25,23,21,24,21,23,17,23,22
18:07:00,20,29,18,27,30,29,15,25,24
18:08:00,29,29,32,25,19,26,20,27,26
18:09:00,15,26,24,31,32,38,16,26,26
18:10:00,32,29,25,25,26,22,20,27,26
18:11:00,19,25,30,29,29,25,17,26,25
18:12:00,31,32,24,17,28,28,16,26,25
18:13:00,19,26,24,32,21,16,10,24,21
18:14:00,35,36,32,26,30,18,17,32,28
18:15:00,15,22,25,27,21,24,26,22,23
18:16:00,29,24,27,31,23,23,13,27,24
18:17:00,23,28,21,28,20,28,25,24,25
18:18:00,30,16,35,20,30,28,15,26,25
18:19:00,29,25,9,32,20,24,24,23,23
18:20:00,25,35,24,27,33,18,42,29,29
18:21:00,32,30,27,29,16,34,28,27,28
18:22:00,30,28,32,29,28,29,27,29,29
18:23:00,17,23,27,16,15,27,15,20,20
18:24:00,34,25,30,20,31,18,22,28,26
18:25:00,25,28,23,35,25,26,21,27,26
18:26:00,32,19,20,30,27,27,14,26,24
18:27:00,10,19,29,23,29,19,29,22,23
18:28:00,29,25,31,26,27,21,24,28,26
18:29:00,36,27,14,29,34,24,21,28,26
18:30:00,22,18,26,28,25,19,22,24,23
18:31:00,22,24,25,24,20,30,22,23,24
18:32:00,17,23,20,25,24,26,14,22,21
18:33:00,15,19,16,29,23,21,26,20,21
18:34:00,24,29,18,23,24,19,12,24,21
18:35:00,29,21,33,25,21,21,21,26,24
18:36:00,24,21,19,20,31,15,22,23,22
18:37:00,23,35,32,32,22,26,10,29,26
18:38:00,29,35,27,25,35,24,17,30,27
18:39:00,20,25,25,30,36,20,19,27,25
18:40:00,27,27,20,15,19,24,18,22,21
18:41:00,22,19,28,33,33,22,17,27,25
18:42:00,25,27,27,19,36,26,15,27,25
18:43:00,28,18,16,34,22,23,22,24,23
18:44:00,12,28,28,28,20,25,17,23,23
18:45:00,24,29,20,21,30,24,18,25,24
18:46:00,24,20,32,25,25,29,9,25,23
18:47:00,22,35,25,23,24,19,24,26,25
18:48:00,33,14,24,22,26,21,20,24,23
18:49:00,24,29,26,37,25,28,24,28,28
18:50:00,38,29,20,30,32,31,20,30,29
18:51:00,23,15,24,26,19,29,18,21,22
18:52:00,25,31,30,22,30,26,19,28,26
18:53:00,16,24,19,31,33,22,16,25,23
18:54:00,23,24,26,25,17,21,17,23,22
18:55:00,22,14,21,28,34,24,23,24,24
18:56:00,17,31,24,29,24,25,20,25,24
18:57:00,29,20,25,22,30,26,18,25,24
18:58:00,18,24,20,26,26,22,11,23,21
18:59:00,19,17,30,27,23,21,21,23,23
19:00:00,24,31,18,20,17,25,21,22,22
19:01:00,14,14,18,32,27,20,24,21,21
19:02:00,24,21,25,19,28,26,26,23,24
19:03:00,25,24,25,20,29,26,15,25,23
19:04:00,24,31,30,20,22,21,17,25,24
19:05:00,21,29,21,29,28,27,23,26,25
19:06:00,21,26,24,34,22,23,20,25,24
19:07:00,26,20,23,23,42,28,15,27,25
19:08:00,19,35,20,30,27,23,13,26,24
19:09:00,24,17,19,22,36,23,16,24,22
19:10:00,26,26,24,19,18,21,23,23,22
19:11:00,24,32,33,29,24,24,19,28,26
19:12:00,16,24,30,25,26,18,14,24,22
19:13:00,17,19,18,27,17,22,28,20,21
19:14:00,20,22,18,20,24,19,16,21,20
19:15:00,15,26,26,31,25,33,14,25,24
19:16:00,28,31,25,18,27,26,11,26,24
19:17:00,20,20,29,14,16,22,14,20,19
19:18:00,22,18,24,26,31,21,12,24,22
19:19:00,27,28,26,20,26,19,18,25,23
19:20:00,22,25,32,22,28,24,19,26,25
19:21:00,16,20,20,26,22,24,2,21,19
19:22:00,20,24,22,32,27,26,19,25,24
19:23:00,13,15,24,24,19,20,13,19,18
19:24:00,10,25,20,19,24,24,15,20,20
19:25:00,16,21,22,16,27,10,15,20,18
19:26:00,20,17,15,16,25,26,12,19,19
19:27:00,17,16,19,18,22,15,14,18,17
19:28:00,22,19,24,21,15,13,17,20,19
19:29:00,22,24,30,27,25,12,8,26,21
19:30:00,13,23,24,24,19,22,17,21,20
19:31:00,19,19,26,15,21,15,21,20,19
19:32:00,13,18,20,16,28,28,16,19,20
19:33:00,14,16,14,19,22,14,16,17,16
19:34:00,16,14,16,12,19,15,7,15,14
19:35:00,20,19,15,24,12,25,18,18,19
19:36:00,8,18,22,16,22,17,16,17,17
19:37:00,22,23,20,18,20,19,27,21,21
19:38:00,19,18,13,15,6,12,18,14,14
19:39:00,22,12,23,29,26,11,9,22,19
19:40:00,23,18,23,18,21,16,16,21,19
19:41:00,14,22,22,24,22,18,23,21,21
19:42:00,13,13,26,22,23,15,10,19,17
19:43:00,13,16,16,14,18,17,18,15,16
19:44:00,28,10,19,26,26,18,15,22,20
19:45:00,18,14,17,21,19,20,11,18,17
19:46:00,21,18,18,15,15,14,14,17,16
19:47:00,3,26,22,20,21,17,6,18,16
19:48:00,11,17,20,25,16,15,18,18,17
19:49:00,18,12,25,21,19,13,12,19,17
19:50:00,12,22,11,15,16,15,13,15,15
19:51:00,14,16,8,25,27,20,10,18,17
19:52:00,16,20,15,22,18,24,16,18,19
19:53:00,23,20,20,21,19,16,6,21,18
19:54:00,16,16,13,8,17,23,16,14,16
19:55:00,14,10,18,22,18,16,15,16,16
19:56:00,14,26,14,18,22,19,14,19,18
19:57:00,11,18,19,18,24,23,13,18,18
19:58:00,11,16,14,12,14,18,14,13,14
19:59:00,19,23,14,14,19,16,11,18,17
20:00:00,17,10,20,21,22,13,10,18,16
20:01:00,13,19,19,18,10,11,10,16,14
20:02:00,17,14,20,22,28,16,17,20,19
20:03:00,17,15,14,8,24,18,10,16,15
20:04:00,8,14,20,20,20,19,14,16,16
20:05:00,14,16,19,17,15,15,16,16,16
20:06:00,10,21,17,18,25,11,15,18,17
20:07:00,17,13,16,20,32,17,14,20,18
20:08:00,19,9,17,7,19,11,14,14,14
20:09:00,11,20,20,26,20,21,11,19,18
20:10:00,11,18,16,18,21,11,13,17,15
20:11:00,17,18,14,22,12,17,15,17,16
20:12:00,16,17,14,15,16,9,10,16,14
20:13:00,25,19,13,25,11,20,17,19,19
20:14:00,18,16,25,23,19,22,12,20,19
20:15:00,10,19,13,24,10,19,10,15,15
20:16:00,12,18,21,19,23,7,11,19,16
20:17:00,17,19,17,18,12,15,27,17,18
20:18:00,17,17,10,15,15,18,16,15,15
20:19:00,14,21,18,15,14,12,13,16,15
20:20:00,10,25,13,12,24,15,11,17,16
20:21:00,8,21,13,21,13,7,16,15,14
20:22:00,9,14,11,17,13,18,7,13,13
20:23:00,15,11,12,13,12,20,16,13,14
20:24:00,13,12,12,16,18,10,9,14,13
20:25:00,17,10,12,10,13,6,17,12,12
20:26:00,9,15,13,12,17,23,9,13,14
20:27:00,7,14,12,19,10,20,15,12,14
20:28:00,17,12,11,12,11,17,19,13,14
20:29:00,10,10,8,7,11,16,20,9,12
20:30:00,5,10,11,17,6,10,17,10,11
20:31:00,8,6,14,18,20,22,14,13,15
20:32:00,9,13,9,12,8,7,13,10,10
20:33:00,17,14,15,8,10,12,18,13,13
20:34:00,11,12,12,21,12,15,5,14,13
20:35:00,7,8,12,15,12,4,8,11,9
20:36:00,19,28,9,8,14,12,18,16,15
20:37:00,23,10,14,27,15,14,9,18,16
20:38:00,10,15,10,12,21,13,9,14,13
20:39:00,19,6,8,8,19,16,8,12,12
20:40:00,14,9,16,18,21,8,15,16,14
20:41:00,10,13,13,10,13,10,16,12,12
20:42:00,14,16,17,8,11,18,13,13,14
20:43:00,7,14,12,12,14,12,7,12,11
20:44:00,17,9,11,10,17,18,8,13,13
20:45:00,17,12,11,10,10,8,12,12,11
20:46:00,17,14,6,16,10,10,6,13,11
20:47:00,12,11,17,15,15,14,21,14,15
20:48:00,10,15,11,7,8,14,6,10,10
20:49:00,18,15,16,13,15,14,6,15,14
20:50:00,13,13,1,12,10,10,10,10,10
20:51:00,9,15,22,11,10,12,7,13,12
20:52:00,9,13,17,14,12,15,7,13,12
20:53:00,8,9,6,12,9,13,8,9,9
20:54:00,9,12,15,12,17,11,10,13,12
20:55:00,9,19,11,4,11,15,6,11,11
20:56:00,15,11,14,15,15,11,14,14,14
20:57:00,12,13,19,21,9,13,7,15,13
20:58:00,13,12,9,13,18,15,11,13,13
20:59:00,7,12,13,7,10,20,14,10,12
21:00:00,17,8,10,12,15,10,9,12,12
21:01:00,9,9,12,8,11,7,14,10,10
21:02:00,12,10,2,15,8,17,9,9,10
21:03:00,9,8,10,14,12,17,7,11,11
21:04:00,11,12,13,12,18,8,10,13,12
21:05:00,14,11,13,18,6,13,8,12,12
21:06:00,11,8,16,8,17,9,16,12,12
21:07:00,11,17,14,8,16,11,9,13,12
21:08:00,13,11,7,17,13,13,8,12,12
21:09:00,12,14,14,9,18,15,3,13,12
21:10:00,15,18,12,21,5,13,9,14,13
21:11:00,12,16,10,15,16,9,16,14,13
21:12:00,17,17,14,11,7,12,7,13,12
21:13:00,16,14,15,19,16,13,6,16,14
21:14:00,18,18,10,19,21,11,6,17,15
21:15:00,13,20,20,7,10,11,12,14,13
21:16:00,11,16,10,24,8,7,13,14,13
21:17:00,7,12,12,19,20,10,14,14,13
21:18:00,8,19,19,12,21,13,13,16,15
21:19:00,11,11,14,10,11,12,8,11,11
21:20:00,7,9,7,14,25,15,5,12,12
21:21:00,18,11,14,18,15,14,13,15,15
21:22:00,12,21,20,13,10,19,16,15,16
21:23:00,10,11,17,15,16,9,5,14,12
21:24:00,8,15,17,23,8,12,10,14,13
21:25:00,15,14,9,12,17,18,11,13,14
21:26:00,17,10,10,12,18,16,4,13,12
21:27:00,11,3,14,17,10,15,5,11,11
21:28:00,5,6,14,13,22,10,10,12,11
21:29:00,15,17,6,9,11,19,15,12,13
21:30:00,13,9,7,9,5,13,5,9,9
21:31:00,9,9,12,12,15,6,12,11,11
21:32:00,13,12,12,13,12,15,7,12,12
21:33:00,7,7,9,6,11,6,8,8,8
21:34:00,8,10,20,12,12,18,12,12,13
21:35:00,11,7,12,7,12,15,10,10,11
21:36:00,8,14,10,21,8,15,7,12,12
21:37:00,6,9,8,10,13,17,9,9,10
21:38:00,9,12,4,14,15,13,9,11,11
21:39:00,8,13,18,13,8,5,14,12,11
21:40:00,14,13,9,10,13,11,15,12,12
21:41:00,7,15,12,19,15,6,7,14,12
21:42:00,11,14,10,5,16,12,9,11,11
21:43:00,7,10,11,10,12,11,6,10,10
21:44:00,6,8,10,8,13,14,10,9,10
21:45:00,6,20,12,23,14,17,6,15,14
21:46:00,9,12,14,9,12,12,6,11,11
21:47:00,9,16,8,19,8,10,6,12,11
21:48:00,6,15,6,15,11,15,5,11,10
21:49:00,8,15,7,15,7,13,6,10,10
21:50:00,9,22,4,18,15,7,12,14,12
21:51:00,9,9,9,22,14,18,10,13,13
21:52:00,5,15,7,9,12,9,13,10,10
21:53:00,7,10,12,19,9,12,4,11,10
21:54:00,5,14,8,18,6,12,10,10,10
21:55:00,10,15,10,22,11,17,4,14,13
21:56:00,11,15,4,14,11,8,4,11,10
21:57:00,8,9,9,10,15,7,7,10,9
21:58:00,8,7,15,12,13,9,7,11,10
21:59:00,17,9,9,12,11,6,4,12,10
22:00:00,8,6,12,12,13,7,4,10,9
22:01:00,9,8,9,13,16,8,5,11,10
22:02:00,11,11,12,8,8,11,5,10,9
22:03:00,5,7,8,15,12,16,1,9,9
22:04:00,10,11,8,13,11,9,2,11,9
22:05:00,22,9,11,16,9,11,5,13,12
22:06:00,7,18,7,9,14,11,14,11,11
22:07:00,7,10,11,13,16,11,4,11,10
22:08:00,10,7,12,15,10,10,4,11,10
22:09:00,4,12,17,21,13,14,4,13,12
22:10:00,11,9,9,15,17,11,7,12,11
22:11:00,10,11,13,14,15,17,10,13,13
22:12:00,12,16,18,4,8,12,3,12,10
22:13:00,11,11,10,12,16,12,12,12,12
22:14:00,15,8,11,18,8,12,4,12,11
22:15:00,11,8,12,14,11,14,14,11,12
22:16:00,14,18,7,11,14,7,4,13,11
22:17:00,8,9,10,14,10,10,9,10,10
22:18:00,12,7,16,17,15,8,5,13,11
22:19:00,3,7,11,20,14,11,14,11,11
22:20:00,7,11,4,17,8,13,6,9,9
22:21:00,7,10,4,10,18,11,8,10,10
22:22:00,9,5,17,11,9,10,6,10,10
22:23:00,7,15,7,15,8,15,4,10,10
22:24:00,9,10,8,13,18,14,7,12,11
22:25:00,13,7,7,11,7,15,2,9,9
22:26:00,10,16,7,8,16,7,6,11,10
22:27:00,6,12,6,9,4,12,4,7,8
22:28:00,11,10,10,10,11,16,5,10,10
22:29:00,14,6,15,3,8,14,11,9,10
22:30:00,19,4,6,12,10,13,5,10,10
22:31:00,12,10,9,11,16,12,7,12,11
22:32:00,10,15,13,8,8,15,3,11,10
22:33:00,24,13,11,6,21,19,4,15,14
22:34:00,16,7,11,14,15,19,9,13,13
22:35:00,18,4,10,9,7,12,6,10,9
22:36:00,17,6,9,14,8,20,2,11,11
22:37:00,14,6,6,8,10,23,2,9,10
22:38:00,11,8,7,12,17,17,6,11,11
22:39:00,10,6,8,11,18,7,9,11,10
22:40:00,11,6,14,17,15,18,7,13,13
22:41:00,12,8,10,11,5,14,7,9,10
22:42:00,13,3,6,9,6,15,5,7,8
22:43:00,12,3,10,9,9,22,5,9,10
22:44:00,7,6,12,12,9,18,5,9,10
22:45:00,9,8,12,11,14,9,4,11,10
22:46:00,4,3,7,8,12,14,6,7,8
22:47:00,12,8,5,9,12,11,3,9,9
22:48:00,4,8,3,6,11,12,8,6,7
22:49:00,5,2,4,9,10,14,10,6,8
22:50:00,12,5,9,8,4,7,5,8,7
22:51:00,8,6,5,14,7,9,9,8,8
22:52:00,6,3,4,6,10,10,9,6,7
22:53:00,8,8,4,11,7,11,5,8,8
22:54:00,7,5,7,4,7,9,5,6,6
22:55:00,13,8,5,12,11,6,3,10,8
22:56:00,7,6,7,7,11,11,2,8,7
22:57:00,5,3,6,7,8,10,1,6,6
22:58:00,7,6,10,5,10,12,3,8,8
22:59:00,9,6,5,6,12,8,4,8,7
23:00:00,6,3,5,11,7,9,9,6,7
23:01:00,6,8,9,4,7,10,10,7,8
23:02:00,5,12,9,7,9,10,5,8,8
23:03:00,6,6,8,5,7,16,7,6,8
23:04:00,5,6,7,7,3,5,8,6,6
23:05:00,4,14,6,9,8,12,4,8,8
23:06:00,8,3,6,11,12,13,12,8,9
23:07:00,2,8,6,8,6,9,9,6,7
23:08:00,7,6,4,6,9,10,9,6,7
23:09:00,2,5,5,3,10,10,12,5,7
23:10:00,8,7,3,10,9,10,15,7,9
23:11:00,2,2,3,8,6,11,8,4,6
23:12:00,4,2,6,8,3,15,16,5,8
23:13:00,4,5,5,4,9,13,11,5,7
23:14:00,10,10,7,4,11,8,17,8,10
23:15:00,5,3,5,5,19,16,10,7,9
23:16:00,3,5,9,1,11,11,11,6,7
23:17:00,3,3,8,3,7,9,4,5,5
23:18:00,6,1,5,2,11,10,8,5,6
23:19:00,7,4,4,9,6,7,6,6,6
23:20:00,7,6,5,12,9,9,2,8,7
23:21:00,1,7,6,2,6,11,0,4,5
23:22:00,1,5,4,4,9,12,6,5,6
23:23:00,5,2,4,7,13,12,7,6,7
23:24:00,5,0,8,7,5,9,6,5,6
23:25:00,3,3,3,3,2,8,5,3,4
23:26:00,8,3,11,4,10,8,3,7,7
23:27:00,0,3,2,2,4,7,2,2,3
23:28:00,3,6,7,4,8,8,1,6,5
23:29:00,3,7,6,7,8,8,4,6,6
23:30:00,3,2,3,1,4,14,6,3,5
23:31:00,6,3,2,3,11,12,7,5,6
23:32:00,4,5,1,8,7,12,0,5,5
23:33:00,0,3,6,4,4,3,4,3,3
23:34:00,1,3,3,8,4,10,4,4,5
23:35:00,4,5,4,6,7,7,5,5,5
23:36:00,1,3,5,2,16,7,2,5,5
23:37:00,4,2,4,5,8,15,2,5,6
23:38:00,1,4,1,1,6,4,0,3,2
23:39:00,4,3,3,2,9,17,6,4,6
23:40:00,3,4,7,4,2,4,3,4,4
23:41:00,2,5,7,2,6,6,1,4,4
23:42:00,1,2,3,5,4,10,8,3,5
23:43:00,1,3,6,3,9,12,5,4,6
23:44:00,1,1,1,3,6,5,4,2,3
23:45:00,5,1,1,3,9,10,4,4,5
23:46:00,6,6,2,3,4,3,2,4,4
23:47:00,1,3,7,2,6,14,3,4,5
23:48:00,4,3,2,2,3,8,1,3,3
23:49:00,0,3,0,5,8,10,6,3,5
23:50:00,3,1,7,7,5,7,4,5,5
23:51:00,1,0,3,4,9,7,2,3,4
23:52:00,2,1,7,3,2,8,2,3,4
23:53:00,4,4,6,3,6,7,2,5,5
23:54:00,2,3,5,0,3,7,1,3,3
23:55:00,0,4,2,1,2,6,2,2,2
23:56:00,4,2,2,3,14,3,3,5,4
23:57:00,5,3,2,4,6,4,2,4,4
23:58:00,2,3,3,5,4,12,4,3,5
23:59:00,1,2,5,5,2,5,0,3,3
,,,,,,,,,
Totals,,,,,,,,,
12H(7-19),18541,18990,19049,18943,19367,17155,14813,18978,18123
16H(6-22),22033,22915,22846,22933,23325,20295,17241,22810,21655
18H(6-24),22863,23652,23676,23884,24432,21596,17911,23701,22573
24H(0-24),23809,24626,24666,25064,25451,22603,19193,24723,23630
,,,,,,,,,
AM Peak,07:27:00,07:25:00,07:26:00,07:35:00,07:47:00,11:00:00,11:00:00,07:26:00,09:48:00
,1815,1803,1881,1751,1784,1641,1463,1794,1470
,,,,,,,,,
PM Peak,15:09:00,12:12:00,17:02:00,15:43:00,14:34:00,12:10:00,12:26:00,15:40:00,14:27:00
,1638,1663,1705,1696,1684,1768,1685,1643,1616
,,,,,,,,,
,,,,,,,,,
CA Traffic,,,,,,,,,VDA-net R2 22/05/2020
