Site Number,00008010,Unnamed: 2,Site Reference,00008010.1,Unnamed: 5,Unnamed: 6,Lat/Lng.,"52.08184,1.11873",Unnamed: 9
Radar 8010 Bury Road Ipswich,,,,,,,,,
Vehicle Count Report,,,,Week Begin: 17 February 2020,,,Channel:,Total Flow,
,,,,,,,,,
,,,,,,,,,
,2020-02-17 00:00:00,2020-02-18 00:00:00,2020-02-19 00:00:00,2020-02-20 00:00:00,2020-02-21 00:00:00,2020-02-22 00:00:00,2020-02-23 00:00:00,"5-Day
Ave.","7-Day
Ave."
00:00:00,1,2,4,2,2,1,7,2,3
00:01:00,0,2,0,2,0,5,1,1,1
00:02:00,1,0,4,2,5,4,4,2,3
00:03:00,2,0,4,2,3,2,6,2,3
00:04:00,1,2,1,2,6,4,6,2,3
00:05:00,3,1,1,5,5,2,5,3,3
00:06:00,0,5,3,3,1,2,5,2,3
00:07:00,0,2,0,0,0,7,5,0,2
00:08:00,3,0,5,0,0,0,6,2,2
00:09:00,1,1,4,3,4,2,5,3,3
00:10:00,7,3,2,1,1,4,0,3,3
00:11:00,2,2,4,0,3,3,8,2,3
00:12:00,1,0,0,1,0,4,2,0,1
00:13:00,1,1,4,1,4,0,5,2,2
00:14:00,1,2,2,0,0,4,4,1,2
00:15:00,3,5,2,1,2,4,2,3,3
00:16:00,0,1,1,1,1,5,2,1,2
00:17:00,2,2,1,3,2,3,0,2,2
00:18:00,0,3,3,2,2,3,7,2,3
00:19:00,1,0,1,1,2,6,7,1,3
00:20:00,1,2,2,2,4,1,4,2,2
00:21:00,3,0,1,1,0,3,2,1,1
00:22:00,1,2,2,3,3,6,1,2,3
00:23:00,1,3,0,2,6,2,5,2,3
00:24:00,2,1,2,1,4,6,4,2,3
00:25:00,1,1,0,0,3,1,2,1,1
00:26:00,1,1,4,1,1,2,6,2,2
00:27:00,5,3,2,1,1,5,4,2,3
00:28:00,1,4,2,2,1,1,2,2,2
00:29:00,0,0,0,2,2,6,3,1,2
00:30:00,2,1,3,1,2,2,5,2,2
00:31:00,1,2,1,1,3,4,6,2,3
00:32:00,1,1,2,1,3,1,0,2,1
00:33:00,1,2,1,2,1,2,6,1,2
00:34:00,2,0,2,3,2,4,4,2,2
00:35:00,0,0,2,2,2,2,2,1,1
00:36:00,0,1,2,2,2,4,2,1,2
00:37:00,1,6,4,0,1,5,1,2,3
00:38:00,1,0,0,1,0,8,4,0,2
00:39:00,2,3,1,2,4,2,4,2,3
00:40:00,1,1,0,3,0,2,0,1,1
00:41:00,2,1,1,4,2,6,5,2,3
00:42:00,2,1,0,1,1,4,1,1,1
00:43:00,1,1,0,3,0,2,1,1,1
00:44:00,4,1,0,0,2,1,0,1,1
00:45:00,1,2,1,0,1,0,1,1,1
00:46:00,1,2,1,4,0,0,5,2,2
00:47:00,0,2,0,1,1,1,6,1,2
00:48:00,0,4,1,1,0,5,1,1,2
00:49:00,2,3,2,0,2,3,2,2,2
00:50:00,1,0,2,1,2,5,3,1,2
00:51:00,0,2,0,1,1,2,4,1,1
00:52:00,0,0,0,6,2,2,3,2,2
00:53:00,0,2,3,0,0,3,1,1,1
00:54:00,2,1,4,0,3,4,0,2,2
00:55:00,1,0,0,0,1,7,5,0,2
00:56:00,1,2,0,1,0,3,3,1,1
00:57:00,0,2,1,0,1,1,0,1,1
00:58:00,3,0,2,1,2,2,3,2,2
00:59:00,3,0,0,2,2,3,4,1,2
01:00:00,0,1,0,1,0,2,2,0,1
01:01:00,2,3,0,1,0,2,4,1,2
01:02:00,1,2,1,1,0,2,7,1,2
01:03:00,1,1,1,2,0,3,3,1,2
01:04:00,1,1,4,1,5,1,4,2,2
01:05:00,1,2,3,2,1,2,3,2,2
01:06:00,3,3,1,2,0,0,5,2,2
01:07:00,1,1,1,1,3,3,2,1,2
01:08:00,2,1,2,1,2,2,0,2,1
01:09:00,1,1,2,0,2,3,2,1,2
01:10:00,1,1,2,0,2,3,1,1,1
01:11:00,1,1,2,1,1,4,2,1,2
01:12:00,5,0,1,1,0,2,3,1,2
01:13:00,1,0,3,2,0,1,3,1,1
01:14:00,1,3,0,2,2,0,0,2,1
01:15:00,0,1,2,0,2,1,4,1,1
01:16:00,0,0,2,1,2,0,0,1,1
01:17:00,4,4,4,2,2,3,2,3,3
01:18:00,0,1,0,0,0,1,3,0,1
01:19:00,1,1,1,1,2,0,5,1,2
01:20:00,1,1,0,0,1,1,0,1,1
01:21:00,0,0,1,1,1,1,2,1,1
01:22:00,1,2,0,3,1,3,2,1,2
01:23:00,0,2,1,1,2,2,2,1,1
01:24:00,2,0,0,1,2,2,4,1,2
01:25:00,0,0,0,1,0,4,3,0,1
01:26:00,1,1,1,2,2,2,2,1,2
01:27:00,2,1,0,2,1,1,5,1,2
01:28:00,0,0,0,0,2,0,2,0,1
01:29:00,1,0,2,1,1,0,0,1,1
01:30:00,0,4,0,2,2,0,3,2,2
01:31:00,0,1,1,0,0,0,2,0,1
01:32:00,2,1,3,0,1,1,2,1,1
01:33:00,1,1,0,3,0,1,0,1,1
01:34:00,2,1,0,2,0,1,3,1,1
01:35:00,1,0,3,1,1,0,4,1,1
01:36:00,1,3,0,2,0,3,0,1,1
01:37:00,1,0,1,1,0,2,2,1,1
01:38:00,1,2,1,0,0,1,2,1,1
01:39:00,0,0,0,1,3,0,3,1,1
01:40:00,1,1,0,1,0,4,3,1,1
01:41:00,1,1,2,0,1,1,1,1,1
01:42:00,0,0,0,0,1,0,3,0,1
01:43:00,0,0,1,2,3,0,2,1,1
01:44:00,0,1,1,1,1,3,2,1,1
01:45:00,0,1,0,0,1,3,1,0,1
01:46:00,0,1,0,1,1,2,2,1,1
01:47:00,0,1,1,0,2,1,3,1,1
01:48:00,1,0,1,3,2,1,3,1,2
01:49:00,1,1,2,1,1,1,5,1,2
01:50:00,1,0,0,1,0,0,2,0,1
01:51:00,0,0,1,1,0,0,0,0,0
01:52:00,0,3,4,2,1,1,3,2,2
01:53:00,0,0,1,1,1,0,6,1,1
01:54:00,2,0,0,1,0,4,5,1,2
01:55:00,1,0,2,0,1,0,2,1,1
01:56:00,1,0,1,1,1,3,6,1,2
01:57:00,0,0,1,0,1,1,1,0,1
01:58:00,3,1,1,0,0,0,1,1,1
01:59:00,2,0,0,0,1,1,3,1,1
02:00:00,2,0,0,1,0,1,2,1,1
02:01:00,0,0,3,0,0,2,1,1,1
02:02:00,1,1,1,0,2,1,3,1,1
02:03:00,0,1,0,0,0,3,1,0,1
02:04:00,2,0,1,1,0,1,2,1,1
02:05:00,1,0,0,0,0,1,0,0,0
02:06:00,0,0,0,1,0,3,0,0,1
02:07:00,1,0,0,0,0,2,2,0,1
02:08:00,0,1,0,0,3,0,1,1,1
02:09:00,1,0,0,1,0,0,1,0,0
02:10:00,2,1,0,1,1,0,4,1,1
02:11:00,0,3,0,0,2,1,1,1,1
02:12:00,0,0,1,0,1,1,3,0,1
02:13:00,1,2,1,1,3,0,3,2,2
02:14:00,0,1,4,0,1,3,1,1,1
02:15:00,0,0,2,0,1,0,0,1,0
02:16:00,1,1,1,0,0,1,3,1,1
02:17:00,1,1,1,1,2,0,3,1,1
02:18:00,1,1,2,0,2,0,3,1,1
02:19:00,0,0,0,1,1,0,3,0,1
02:20:00,0,3,1,0,1,1,2,1,1
02:21:00,0,0,1,1,1,1,2,1,1
02:22:00,2,1,0,0,0,0,1,1,1
02:23:00,0,0,1,2,3,2,3,1,2
02:24:00,2,0,0,1,0,0,0,1,0
02:25:00,1,2,1,1,2,1,4,1,2
02:26:00,1,2,1,1,0,1,0,1,1
02:27:00,2,3,2,2,1,1,1,2,2
02:28:00,1,0,0,2,2,4,1,1,1
02:29:00,0,0,0,1,1,0,2,0,1
02:30:00,0,1,0,0,3,0,3,1,1
02:31:00,1,1,1,0,0,3,0,1,1
02:32:00,0,1,2,0,1,4,0,1,1
02:33:00,4,0,1,1,0,1,1,1,1
02:34:00,0,0,1,0,0,0,0,0,0
02:35:00,1,0,2,1,1,0,1,1,1
02:36:00,1,3,1,1,0,1,2,1,1
02:37:00,1,2,0,0,0,3,2,1,1
02:38:00,0,2,0,1,1,1,1,1,1
02:39:00,0,1,0,1,6,1,1,2,1
02:40:00,1,1,3,0,1,1,3,1,1
02:41:00,1,1,0,3,0,1,2,1,1
02:42:00,0,1,0,1,2,0,2,1,1
02:43:00,1,2,2,1,0,1,3,1,1
02:44:00,0,3,1,3,2,4,2,2,2
02:45:00,1,0,1,4,1,4,2,1,2
02:46:00,1,2,0,1,4,0,2,2,1
02:47:00,0,2,2,1,1,2,1,1,1
02:48:00,1,1,0,2,2,3,1,1,1
02:49:00,0,2,4,1,0,2,4,1,2
02:50:00,2,1,2,1,0,0,0,1,1
02:51:00,0,1,0,1,2,1,1,1,1
02:52:00,0,1,0,1,2,2,2,1,1
02:53:00,2,1,0,0,0,2,0,1,1
02:54:00,0,4,2,3,5,3,2,3,3
02:55:00,0,1,0,1,1,0,3,1,1
02:56:00,0,1,5,0,0,3,0,1,1
02:57:00,1,1,1,1,3,0,1,1,1
02:58:00,1,1,0,0,3,0,3,1,1
02:59:00,0,1,1,0,3,0,0,1,1
03:00:00,0,0,2,1,0,3,1,1,1
03:01:00,1,0,0,0,0,2,2,0,1
03:02:00,0,1,3,2,4,1,2,2,2
03:03:00,1,1,1,1,1,1,1,1,1
03:04:00,0,3,0,0,0,1,3,1,1
03:05:00,4,0,0,1,0,1,5,1,2
03:06:00,1,1,3,0,3,0,1,2,1
03:07:00,1,0,2,1,2,1,0,1,1
03:08:00,0,1,1,2,1,1,3,1,1
03:09:00,1,2,0,0,0,2,1,1,1
03:10:00,0,0,1,4,1,3,2,1,2
03:11:00,1,0,0,2,2,0,1,1,1
03:12:00,1,0,0,0,1,0,0,0,0
03:13:00,2,0,2,2,1,0,3,1,1
03:14:00,1,0,0,0,0,0,0,0,0
03:15:00,1,0,1,0,0,2,1,0,1
03:16:00,1,2,0,0,1,1,3,1,1
03:17:00,2,1,0,2,1,1,1,1,1
03:18:00,0,0,0,0,2,2,1,0,1
03:19:00,0,0,2,3,1,2,1,1,1
03:20:00,3,2,3,2,1,1,0,2,2
03:21:00,0,2,3,2,3,1,0,2,2
03:22:00,3,0,1,0,0,2,0,1,1
03:23:00,1,1,0,2,0,0,0,1,1
03:24:00,0,0,1,0,0,1,3,0,1
03:25:00,1,2,0,0,1,0,2,1,1
03:26:00,0,3,0,2,2,0,2,1,1
03:27:00,1,1,3,0,0,2,1,1,1
03:28:00,0,0,1,0,1,2,2,0,1
03:29:00,0,0,0,0,1,0,4,0,1
03:30:00,0,1,1,1,1,0,1,1,1
03:31:00,1,1,2,0,1,0,0,1,1
03:32:00,0,0,0,1,1,1,2,0,1
03:33:00,1,0,0,0,0,1,1,0,0
03:34:00,1,1,0,0,2,2,3,1,1
03:35:00,1,2,0,3,0,3,2,1,2
03:36:00,0,0,1,0,2,3,2,1,1
03:37:00,0,0,0,2,0,2,2,0,1
03:38:00,1,0,1,1,1,0,3,1,1
03:39:00,2,0,0,0,0,1,2,0,1
03:40:00,0,1,1,1,1,2,1,1,1
03:41:00,2,2,0,1,1,0,1,1,1
03:42:00,3,2,0,0,1,1,0,1,1
03:43:00,1,1,1,0,0,0,2,1,1
03:44:00,0,1,0,0,1,2,1,0,1
03:45:00,0,3,1,1,1,1,1,1,1
03:46:00,1,1,0,0,3,1,1,1,1
03:47:00,2,0,0,0,0,2,4,0,1
03:48:00,0,1,0,0,2,1,2,1,1
03:49:00,0,0,0,0,1,1,2,0,1
03:50:00,2,2,3,0,4,0,1,2,2
03:51:00,0,1,1,1,1,3,4,1,2
03:52:00,0,0,2,1,0,0,0,1,0
03:53:00,0,2,0,0,3,0,2,1,1
03:54:00,1,0,0,1,4,1,2,1,1
03:55:00,1,3,1,2,1,2,1,2,2
03:56:00,2,2,0,3,0,0,1,1,1
03:57:00,1,1,0,2,2,1,3,1,1
03:58:00,2,0,0,1,4,3,1,1,2
03:59:00,3,1,2,1,1,3,0,2,2
04:00:00,1,3,2,2,2,1,0,2,2
04:01:00,1,1,2,1,2,1,1,1,1
04:02:00,1,0,1,2,3,1,3,1,2
04:03:00,1,1,1,1,1,0,0,1,1
04:04:00,3,0,3,1,3,2,1,2,2
04:05:00,0,0,0,1,0,2,0,0,0
04:06:00,2,1,2,0,1,0,2,1,1
04:07:00,2,0,1,1,2,0,1,1,1
04:08:00,1,2,3,0,7,1,1,3,2
04:09:00,0,2,1,1,2,3,1,1,1
04:10:00,1,1,3,3,1,0,0,2,1
04:11:00,0,3,4,4,0,1,2,2,2
04:12:00,2,1,1,3,2,2,3,2,2
04:13:00,1,0,0,2,1,0,2,1,1
04:14:00,1,0,0,3,0,0,1,1,1
04:15:00,1,0,0,1,1,4,0,1,1
04:16:00,4,2,1,1,2,0,2,2,2
04:17:00,0,2,2,4,0,3,0,2,2
04:18:00,0,1,2,1,4,1,1,2,1
04:19:00,0,1,0,1,1,2,1,1,1
04:20:00,1,1,2,1,1,0,2,1,1
04:21:00,2,1,1,2,0,2,2,1,1
04:22:00,1,2,4,1,4,0,0,2,2
04:23:00,2,1,0,1,1,0,1,1,1
04:24:00,0,1,1,2,1,3,2,1,1
04:25:00,1,1,0,2,1,0,0,1,1
04:26:00,3,1,0,1,0,1,1,1,1
04:27:00,0,2,2,2,2,1,1,2,1
04:28:00,3,0,0,1,1,1,1,1,1
04:29:00,0,0,3,2,2,0,1,1,1
04:30:00,2,0,1,0,2,2,2,1,1
04:31:00,2,2,2,1,1,1,0,2,1
04:32:00,4,0,2,3,4,2,0,3,2
04:33:00,4,3,3,1,0,3,1,2,2
04:34:00,2,2,3,1,5,4,1,3,3
04:35:00,1,4,2,1,2,2,0,2,2
04:36:00,2,2,1,2,3,1,2,2,2
04:37:00,0,5,3,4,1,2,0,3,2
04:38:00,2,2,5,0,4,4,0,3,2
04:39:00,3,3,3,4,4,3,2,3,3
04:40:00,1,2,0,1,3,2,0,1,1
04:41:00,5,2,7,4,0,3,0,4,3
04:42:00,1,3,4,4,2,1,3,3,3
04:43:00,2,5,2,2,5,0,1,3,2
04:44:00,4,2,1,1,5,1,2,3,2
04:45:00,7,6,5,2,4,4,2,5,4
04:46:00,5,2,4,6,3,2,5,4,4
04:47:00,5,4,1,4,4,1,1,4,3
04:48:00,3,9,3,5,9,1,2,6,5
04:49:00,5,8,1,7,2,3,1,5,4
04:50:00,6,2,0,1,6,0,1,3,2
04:51:00,4,7,9,7,7,2,3,7,6
04:52:00,3,7,3,3,4,1,4,4,4
04:53:00,5,3,8,4,4,4,1,5,4
04:54:00,6,10,6,6,4,0,3,6,5
04:55:00,5,5,6,6,7,1,2,6,5
04:56:00,6,5,8,3,6,0,0,6,4
04:57:00,4,5,4,4,7,2,3,5,4
04:58:00,4,5,3,2,2,3,1,3,3
04:59:00,9,6,3,10,4,1,0,6,5
05:00:00,4,4,5,4,6,1,2,5,4
05:01:00,7,3,4,9,5,0,1,6,4
05:02:00,6,4,7,8,4,1,2,6,5
05:03:00,8,8,6,2,5,4,1,6,5
05:04:00,8,3,2,4,3,1,1,4,3
05:05:00,3,6,7,3,10,4,2,6,5
05:06:00,5,8,9,1,5,1,1,6,4
05:07:00,2,5,12,6,8,1,2,7,5
05:08:00,7,10,7,8,5,4,3,7,6
05:09:00,5,2,5,3,4,4,1,4,3
05:10:00,6,6,10,14,12,2,3,10,8
05:11:00,8,7,7,6,3,3,1,6,5
05:12:00,4,9,11,8,13,2,2,9,7
05:13:00,5,4,6,10,10,7,7,7,7
05:14:00,5,11,6,5,7,1,1,7,5
05:15:00,9,6,10,5,6,2,0,7,5
05:16:00,11,8,9,8,6,7,4,8,8
05:17:00,9,9,4,5,5,4,1,6,5
05:18:00,10,5,7,6,4,4,1,6,5
05:19:00,7,4,8,7,12,5,5,8,7
05:20:00,5,3,9,7,4,3,2,6,5
05:21:00,6,10,11,6,5,2,1,8,6
05:22:00,9,6,6,2,11,7,4,7,6
05:23:00,4,12,6,11,5,6,1,8,6
05:24:00,6,9,15,6,3,6,4,8,7
05:25:00,10,7,7,15,9,6,3,10,8
05:26:00,7,7,5,5,11,5,5,7,6
05:27:00,8,6,5,1,10,7,4,6,6
05:28:00,7,7,7,10,7,5,1,8,6
05:29:00,4,8,12,4,8,5,4,7,6
05:30:00,8,3,2,8,9,11,5,6,7
05:31:00,5,7,7,9,8,3,2,7,6
05:32:00,11,13,3,6,6,3,3,8,6
05:33:00,7,8,9,5,6,4,4,7,6
05:34:00,9,10,9,9,9,2,6,9,8
05:35:00,11,3,10,13,9,12,3,9,9
05:36:00,12,8,17,12,9,3,3,12,9
05:37:00,10,10,10,12,9,1,4,10,8
05:38:00,5,15,7,9,4,3,1,8,6
05:39:00,11,4,14,5,5,1,1,8,6
05:40:00,10,11,9,9,20,5,1,12,9
05:41:00,7,8,10,8,6,5,5,8,7
05:42:00,7,10,8,9,11,5,2,9,7
05:43:00,6,8,13,4,11,4,2,8,7
05:44:00,10,5,10,10,13,7,4,10,8
05:45:00,9,11,3,9,2,6,1,7,6
05:46:00,18,2,10,8,8,3,7,9,8
05:47:00,11,6,6,7,10,2,0,8,6
05:48:00,8,16,13,11,12,4,1,12,9
05:49:00,10,9,9,9,6,1,3,9,7
05:50:00,11,8,13,11,7,4,4,10,8
05:51:00,4,4,11,11,15,8,4,9,8
05:52:00,15,5,13,6,6,5,1,9,7
05:53:00,4,10,3,15,8,4,3,8,7
05:54:00,12,9,10,11,12,5,3,11,9
05:55:00,7,11,10,7,5,3,3,8,7
05:56:00,9,10,7,8,5,4,3,8,7
05:57:00,5,7,8,9,11,2,2,8,6
05:58:00,11,14,4,10,6,5,2,9,7
05:59:00,3,9,8,13,10,4,3,9,7
06:00:00,12,7,7,5,8,5,5,8,7
06:01:00,9,7,16,8,5,6,4,9,8
06:02:00,11,8,4,7,8,1,1,8,6
06:03:00,7,7,10,9,13,1,3,9,7
06:04:00,12,13,14,8,12,1,0,12,9
06:05:00,11,14,17,13,16,3,1,14,11
06:06:00,11,12,8,13,12,4,5,11,9
06:07:00,4,15,5,10,13,8,2,9,8
06:08:00,16,10,12,11,7,3,0,11,8
06:09:00,13,14,9,13,15,4,3,13,10
06:10:00,12,7,12,13,10,8,1,11,9
06:11:00,15,9,21,11,8,2,10,13,11
06:12:00,14,14,19,11,20,6,2,16,12
06:13:00,14,15,12,18,7,6,6,13,11
06:14:00,17,9,14,13,3,4,3,11,9
06:15:00,15,6,9,13,11,7,5,11,9
06:16:00,10,28,14,9,15,5,4,15,12
06:17:00,19,7,15,18,7,7,2,13,11
06:18:00,14,15,14,13,10,4,6,13,11
06:19:00,17,9,12,14,20,10,6,14,13
06:20:00,11,10,9,13,13,4,4,11,9
06:21:00,18,13,14,11,10,8,2,13,11
06:22:00,10,14,16,13,11,4,2,13,10
06:23:00,17,17,15,13,18,2,6,16,13
06:24:00,22,14,22,21,16,7,3,19,15
06:25:00,14,15,12,12,13,2,6,13,11
06:26:00,14,18,17,16,16,6,2,16,13
06:27:00,12,7,13,15,7,2,4,11,9
06:28:00,22,27,18,10,16,5,5,19,15
06:29:00,16,18,18,15,12,4,4,16,12
06:30:00,16,14,22,18,21,7,5,18,15
06:31:00,12,18,18,18,12,6,6,16,13
06:32:00,24,22,14,24,13,6,1,19,15
06:33:00,20,11,23,11,20,6,4,17,14
06:34:00,16,17,14,17,21,12,3,17,14
06:35:00,16,16,23,26,13,4,7,19,15
06:36:00,14,17,14,13,15,5,1,15,11
06:37:00,8,21,16,19,18,9,8,16,14
06:38:00,16,11,13,20,19,6,3,16,13
06:39:00,16,15,19,20,21,5,4,18,14
06:40:00,20,22,23,23,20,6,4,22,17
06:41:00,19,24,21,21,13,4,6,20,15
06:42:00,21,19,10,22,24,5,3,19,15
06:43:00,24,29,14,16,15,8,4,20,16
06:44:00,20,25,24,19,29,7,4,23,18
06:45:00,24,22,22,29,18,5,4,23,18
06:46:00,21,22,22,22,18,12,6,21,18
06:47:00,21,26,27,15,19,9,3,22,17
06:48:00,25,18,19,19,18,4,2,20,15
06:49:00,18,25,25,16,19,8,6,21,17
06:50:00,23,10,22,30,22,10,4,21,17
06:51:00,17,27,25,14,26,7,3,22,17
06:52:00,23,24,19,28,23,8,2,23,18
06:53:00,23,26,21,28,21,8,7,24,19
06:54:00,27,31,29,28,21,14,3,27,22
06:55:00,19,24,23,25,18,15,5,22,18
06:56:00,25,13,21,21,14,7,6,19,15
06:57:00,18,20,28,23,17,10,7,21,18
06:58:00,25,11,25,14,31,5,2,21,16
06:59:00,23,17,20,16,20,14,4,19,16
07:00:00,20,22,25,22,18,6,1,21,16
07:01:00,24,28,18,22,9,11,4,20,17
07:02:00,28,27,28,20,28,7,9,26,21
07:03:00,22,23,28,27,18,9,3,24,19
07:04:00,19,14,15,23,15,7,0,17,13
07:05:00,15,19,13,21,19,14,7,17,15
07:06:00,25,31,25,34,24,11,2,28,22
07:07:00,19,12,17,20,19,5,3,17,14
07:08:00,25,22,23,29,24,9,5,25,20
07:09:00,22,19,29,37,23,17,3,26,21
07:10:00,24,21,25,28,22,7,3,24,19
07:11:00,27,25,36,20,24,7,1,26,20
07:12:00,26,31,27,26,32,8,3,28,22
07:13:00,23,29,14,26,25,8,1,23,18
07:14:00,28,26,42,23,30,12,1,30,23
07:15:00,35,25,32,25,28,6,3,29,22
07:16:00,37,32,36,32,21,4,6,32,24
07:17:00,29,27,23,21,31,14,3,26,21
07:18:00,19,22,30,25,24,4,5,24,18
07:19:00,25,22,28,26,25,9,6,25,20
07:20:00,27,29,31,31,17,10,5,27,21
07:21:00,24,26,30,25,26,4,4,26,20
07:22:00,30,21,19,14,32,11,7,23,19
07:23:00,28,28,24,39,33,9,1,30,23
07:24:00,28,28,26,21,28,7,2,26,20
07:25:00,21,30,40,36,27,10,2,31,24
07:26:00,26,35,33,31,18,5,3,29,22
07:27:00,32,29,29,21,25,6,3,27,21
07:28:00,28,33,21,21,27,4,3,26,20
07:29:00,29,21,30,17,25,17,3,24,20
07:30:00,27,20,32,33,28,12,4,28,22
07:31:00,16,23,33,27,28,9,1,25,20
07:32:00,29,21,26,23,21,12,5,24,20
07:33:00,28,22,24,28,19,9,6,24,19
07:34:00,43,29,25,38,24,12,7,32,25
07:35:00,41,33,23,16,28,16,6,28,23
07:36:00,25,39,23,20,31,8,6,28,22
07:37:00,29,24,27,35,31,16,3,29,24
07:38:00,36,29,29,30,32,9,15,31,26
07:39:00,30,30,36,36,30,20,4,32,27
07:40:00,17,14,28,19,22,8,7,20,16
07:41:00,28,25,35,28,25,12,5,28,23
07:42:00,22,32,24,33,27,14,4,28,22
07:43:00,34,29,27,24,30,7,4,29,22
07:44:00,20,30,35,16,28,19,5,26,22
07:45:00,22,25,30,23,32,16,5,26,22
07:46:00,23,16,28,23,26,7,6,23,18
07:47:00,15,20,31,34,37,10,2,27,21
07:48:00,28,26,32,23,21,21,3,26,22
07:49:00,26,29,24,19,24,14,9,24,21
07:50:00,27,22,26,28,20,12,6,25,20
07:51:00,27,26,28,29,28,14,8,28,23
07:52:00,17,26,25,34,32,20,5,27,23
07:53:00,26,30,23,30,21,10,2,26,20
07:54:00,24,28,26,24,29,6,8,26,21
07:55:00,26,23,26,27,22,12,3,25,20
07:56:00,23,25,22,26,18,7,9,23,19
07:57:00,24,19,27,23,24,14,1,23,19
07:58:00,37,24,32,36,25,10,3,31,24
07:59:00,32,33,20,23,24,14,5,26,22
08:00:00,29,29,21,20,30,11,7,26,21
08:01:00,30,27,29,22,28,13,3,27,22
08:02:00,26,26,34,24,26,12,6,27,22
08:03:00,29,23,34,31,24,9,4,28,22
08:04:00,17,24,30,29,19,11,10,24,20
08:05:00,28,21,33,35,28,12,2,29,23
08:06:00,30,31,29,29,29,8,5,30,23
08:07:00,28,32,23,24,28,16,6,27,22
08:08:00,24,24,24,31,30,8,8,27,21
08:09:00,39,31,28,30,28,16,9,31,26
08:10:00,30,20,29,27,18,13,7,25,21
08:11:00,24,20,27,22,34,14,8,25,21
08:12:00,28,21,25,29,25,12,5,26,21
08:13:00,31,24,37,23,28,11,5,29,23
08:14:00,22,18,20,27,18,11,13,21,18
08:15:00,29,23,25,18,22,17,9,23,20
08:16:00,20,22,30,28,26,11,2,25,20
08:17:00,26,25,34,34,30,12,11,30,25
08:18:00,23,22,22,33,26,18,9,25,22
08:19:00,19,33,28,23,29,13,5,26,21
08:20:00,24,36,25,24,23,10,9,26,22
08:21:00,27,23,24,40,24,22,4,28,23
08:22:00,18,31,21,23,27,14,3,24,20
08:23:00,31,28,23,23,17,18,8,24,21
08:24:00,20,24,28,21,32,10,6,25,20
08:25:00,22,22,24,28,17,16,9,23,20
08:26:00,15,19,19,19,21,18,1,19,16
08:27:00,33,23,32,21,20,11,8,26,21
08:28:00,28,14,19,25,25,13,6,22,19
08:29:00,19,31,23,22,32,18,4,25,21
08:30:00,20,29,19,25,16,21,8,22,20
08:31:00,27,21,19,21,21,13,4,22,18
08:32:00,15,24,20,21,24,18,5,21,18
08:33:00,17,28,26,21,23,14,6,23,19
08:34:00,20,23,22,35,27,17,9,25,22
08:35:00,21,21,27,20,33,16,9,24,21
08:36:00,19,26,26,19,25,22,8,23,21
08:37:00,23,22,17,33,23,10,6,24,19
08:38:00,29,22,21,24,19,18,12,23,21
08:39:00,13,25,30,23,25,17,8,23,20
08:40:00,24,25,26,19,23,16,5,23,20
08:41:00,24,34,21,25,26,21,7,26,23
08:42:00,22,24,26,21,19,22,6,22,20
08:43:00,15,24,30,22,31,20,8,24,21
08:44:00,26,15,27,40,8,13,8,23,20
08:45:00,30,27,29,26,19,20,11,26,23
08:46:00,19,25,16,24,12,15,11,19,17
08:47:00,18,19,21,22,20,11,11,20,17
08:48:00,18,16,22,26,18,26,7,20,19
08:49:00,25,33,27,25,23,18,11,27,23
08:50:00,28,30,27,19,20,11,10,25,21
08:51:00,21,23,21,12,20,14,6,19,17
08:52:00,18,21,26,16,21,17,9,20,18
08:53:00,23,14,26,19,18,15,7,20,17
08:54:00,9,28,18,20,22,16,11,19,18
08:55:00,20,15,20,22,23,16,10,20,18
08:56:00,26,20,18,14,16,11,7,19,16
08:57:00,29,9,17,19,22,22,17,19,19
08:58:00,21,24,25,18,26,24,8,23,21
08:59:00,27,14,23,17,25,23,8,21,20
09:00:00,11,27,18,30,28,17,7,23,20
09:01:00,16,21,20,26,28,6,6,22,18
09:02:00,17,21,29,20,20,23,8,21,20
09:03:00,18,7,17,23,32,17,10,19,18
09:04:00,24,30,13,24,20,22,10,22,20
09:05:00,20,18,17,24,23,17,9,20,18
09:06:00,32,10,20,25,20,15,11,21,19
09:07:00,21,20,22,17,21,18,17,20,19
09:08:00,16,27,8,21,20,8,16,18,17
09:09:00,19,23,25,25,22,23,13,23,21
09:10:00,28,27,27,23,29,21,14,27,24
09:11:00,19,18,21,20,21,18,13,20,19
09:12:00,26,26,28,22,22,18,16,25,23
09:13:00,31,21,26,19,18,23,11,23,21
09:14:00,34,35,30,24,19,24,6,28,25
09:15:00,19,18,21,25,27,24,19,22,22
09:16:00,27,23,31,14,24,19,12,24,21
09:17:00,30,24,29,19,23,19,9,25,22
09:18:00,21,30,17,28,19,22,12,23,21
09:19:00,18,28,16,30,20,18,14,22,21
09:20:00,17,19,12,29,22,24,12,20,19
09:21:00,18,26,12,30,24,21,10,22,20
09:22:00,24,32,24,23,31,18,10,27,23
09:23:00,27,20,40,30,33,23,14,30,27
09:24:00,16,21,21,21,27,23,23,21,22
09:25:00,14,20,31,24,27,25,14,23,22
09:26:00,24,31,29,19,17,17,10,24,21
09:27:00,26,20,25,24,20,18,15,23,21
09:28:00,18,15,26,19,27,24,22,21,22
09:29:00,22,13,22,16,24,15,21,19,19
09:30:00,21,29,25,27,28,37,22,26,27
09:31:00,21,26,34,24,27,21,14,26,24
09:32:00,26,25,19,21,17,26,12,22,21
09:33:00,30,30,16,26,14,26,18,23,23
09:34:00,20,15,14,24,28,22,22,20,21
09:35:00,27,28,20,23,22,20,16,24,22
09:36:00,20,12,30,26,28,17,21,23,22
09:37:00,18,16,29,29,25,20,14,23,22
09:38:00,24,17,27,23,25,21,15,23,22
09:39:00,21,35,23,9,24,17,15,22,21
09:40:00,23,17,17,22,29,27,12,22,21
09:41:00,18,27,25,26,36,33,24,26,27
09:42:00,27,22,27,25,21,19,21,24,23
09:43:00,24,37,27,27,25,20,15,28,25
09:44:00,16,29,25,38,20,24,22,26,25
09:45:00,29,27,32,24,23,17,18,27,24
09:46:00,20,23,26,25,28,26,16,24,23
09:47:00,22,19,30,26,20,30,16,23,23
09:48:00,27,20,32,22,19,27,20,24,24
09:49:00,29,25,30,28,29,20,19,28,26
09:50:00,18,23,27,33,22,13,21,25,22
09:51:00,37,22,29,22,19,27,14,26,24
09:52:00,31,21,21,26,29,38,26,26,27
09:53:00,28,30,22,25,14,28,18,24,24
09:54:00,18,32,22,22,29,28,14,25,24
09:55:00,7,17,24,20,27,24,26,19,21
09:56:00,26,23,26,18,18,23,14,22,21
09:57:00,29,24,15,21,20,19,19,22,21
09:58:00,18,22,31,20,28,27,19,24,24
09:59:00,26,20,26,25,26,31,27,25,26
10:00:00,18,22,23,34,19,27,10,23,22
10:01:00,28,20,28,28,21,26,22,25,25
10:02:00,26,27,16,19,23,19,24,22,22
10:03:00,30,21,31,15,24,19,23,24,23
10:04:00,26,22,26,22,23,15,14,24,21
10:05:00,25,23,30,20,23,20,16,24,22
10:06:00,27,27,28,22,20,18,25,25,24
10:07:00,18,20,19,26,23,26,21,21,22
10:08:00,20,21,13,17,33,21,19,21,21
10:09:00,33,21,33,27,25,23,19,28,26
10:10:00,22,13,21,17,21,28,22,19,21
10:11:00,34,26,22,19,22,32,17,25,25
10:12:00,29,28,25,23,24,23,28,26,26
10:13:00,22,25,27,20,21,24,19,23,23
10:14:00,24,28,24,18,35,29,21,26,26
10:15:00,19,37,26,27,23,15,23,26,24
10:16:00,23,18,31,36,25,20,23,27,25
10:17:00,20,23,31,40,25,29,14,28,26
10:18:00,28,25,19,30,28,24,25,26,26
10:19:00,30,22,23,22,23,26,29,24,25
10:20:00,19,24,28,15,29,29,26,23,24
10:21:00,18,33,27,26,26,26,20,26,25
10:22:00,13,24,30,28,26,22,25,24,24
10:23:00,28,27,19,35,33,28,24,28,28
10:24:00,25,28,31,27,35,31,17,29,28
10:25:00,21,27,21,27,22,37,24,24,26
10:26:00,31,21,31,24,19,35,27,25,27
10:27:00,27,27,32,29,23,24,19,28,26
10:28:00,28,33,29,29,28,21,23,29,27
10:29:00,32,35,23,27,32,30,22,30,29
10:30:00,21,28,24,18,29,20,21,24,23
10:31:00,25,29,28,21,27,30,23,26,26
10:32:00,25,15,23,26,28,26,22,23,24
10:33:00,22,21,23,28,25,27,23,24,24
10:34:00,21,23,32,26,35,27,27,27,27
10:35:00,27,32,20,29,35,26,26,29,28
10:36:00,30,20,31,17,25,26,26,25,25
10:37:00,30,27,24,16,36,18,23,27,25
10:38:00,19,30,19,32,22,32,25,24,26
10:39:00,23,23,39,32,25,24,19,28,26
10:40:00,36,19,26,23,16,24,22,24,24
10:41:00,19,36,28,34,26,26,25,29,28
10:42:00,24,16,27,30,32,25,18,26,25
10:43:00,28,22,36,22,33,38,26,28,29
10:44:00,35,32,18,23,26,30,24,27,27
10:45:00,14,29,19,28,34,27,18,25,24
10:46:00,27,32,27,26,30,29,26,28,28
10:47:00,24,20,16,30,33,25,29,25,25
10:48:00,23,31,28,31,37,27,27,30,29
10:49:00,37,24,16,23,26,26,20,25,25
10:50:00,26,20,27,17,29,26,31,24,25
10:51:00,10,22,24,29,21,29,24,21,23
10:52:00,38,23,28,28,19,37,25,27,28
10:53:00,28,17,15,28,26,30,27,23,24
10:54:00,35,26,26,37,26,32,24,30,29
10:55:00,16,23,25,24,25,25,24,23,23
10:56:00,20,22,24,30,26,30,25,24,25
10:57:00,20,24,29,21,28,19,24,24,24
10:58:00,25,27,36,22,22,29,31,26,27
10:59:00,19,19,27,22,29,16,18,23,21
11:00:00,26,23,23,31,24,23,27,25,25
11:01:00,25,22,26,22,33,23,23,26,25
11:02:00,14,31,21,24,26,21,28,23,24
11:03:00,14,21,35,25,26,27,28,24,25
11:04:00,31,32,28,16,23,21,21,26,25
11:05:00,28,29,30,19,26,31,32,26,28
11:06:00,18,21,22,21,30,32,19,22,23
11:07:00,20,14,25,30,24,24,25,23,23
11:08:00,25,35,22,18,29,30,21,26,26
11:09:00,30,24,17,23,31,14,20,25,23
11:10:00,29,20,31,21,18,34,18,24,24
11:11:00,26,22,32,27,20,24,31,25,26
11:12:00,35,18,28,21,30,22,33,26,27
11:13:00,18,14,10,25,34,31,24,20,22
11:14:00,24,22,33,15,30,16,30,25,24
11:15:00,20,24,32,30,31,28,26,27,27
11:16:00,14,16,34,29,24,31,21,23,24
11:17:00,17,28,23,25,29,19,33,24,25
11:18:00,23,23,31,19,25,34,28,24,26
11:19:00,19,27,27,28,22,35,34,25,27
11:20:00,12,25,32,15,24,21,31,22,23
11:21:00,29,32,28,30,25,26,24,29,28
11:22:00,26,28,35,32,32,26,28,31,30
11:23:00,27,31,23,19,25,28,29,25,26
11:24:00,22,26,18,30,25,27,15,24,23
11:25:00,34,21,28,28,25,29,32,27,28
11:26:00,31,21,21,35,32,27,19,28,27
11:27:00,28,37,32,28,33,32,15,32,29
11:28:00,26,22,24,28,23,26,31,25,26
11:29:00,15,21,21,25,32,21,17,23,22
11:30:00,22,29,19,18,24,26,27,22,24
11:31:00,22,36,22,23,21,22,26,25,25
11:32:00,31,27,31,22,26,23,24,27,26
11:33:00,32,22,34,20,34,35,24,28,29
11:34:00,17,27,30,17,29,32,36,24,27
11:35:00,24,22,23,21,17,37,24,21,24
11:36:00,17,19,16,36,30,28,32,24,25
11:37:00,29,30,20,31,21,38,20,26,27
11:38:00,20,33,22,18,32,34,34,25,28
11:39:00,28,28,33,35,31,27,27,31,30
11:40:00,29,25,24,15,26,26,21,24,24
11:41:00,19,32,28,36,32,35,30,29,30
11:42:00,21,16,17,22,18,22,30,19,21
11:43:00,31,20,25,37,36,30,19,30,28
11:44:00,29,25,27,28,19,18,31,26,25
11:45:00,21,33,26,36,22,32,29,28,28
11:46:00,20,29,14,20,21,26,27,21,22
11:47:00,21,32,22,26,26,27,34,25,27
11:48:00,15,30,29,22,29,20,41,25,27
11:49:00,29,25,21,32,20,39,21,25,27
11:50:00,31,21,22,27,31,28,37,26,28
11:51:00,14,30,29,25,29,19,27,25,25
11:52:00,16,23,23,26,27,28,26,23,24
11:53:00,21,33,21,34,23,25,30,26,27
11:54:00,31,16,27,36,30,31,39,28,30
11:55:00,19,16,32,30,29,24,24,25,25
11:56:00,22,29,30,23,25,26,26,26,26
11:57:00,27,37,26,20,30,27,37,28,29
11:58:00,24,35,29,36,23,37,33,29,31
11:59:00,26,30,30,27,20,31,20,27,26
12:00:00,24,34,28,32,37,34,26,31,31
12:01:00,32,21,27,23,28,23,34,26,27
12:02:00,11,18,28,28,31,24,20,23,23
12:03:00,31,17,27,26,30,26,22,26,26
12:04:00,21,27,32,12,27,31,24,24,25
12:05:00,29,26,23,28,25,33,28,26,27
12:06:00,31,29,32,14,23,27,24,26,26
12:07:00,31,21,26,28,27,20,35,27,27
12:08:00,17,38,33,23,28,24,39,28,29
12:09:00,28,27,23,30,21,42,30,26,29
12:10:00,29,29,33,27,24,33,30,28,29
12:11:00,36,25,28,19,35,30,24,29,28
12:12:00,28,18,32,27,31,33,30,27,28
12:13:00,27,24,24,26,21,28,28,24,25
12:14:00,29,25,32,28,18,36,25,26,28
12:15:00,38,36,20,28,17,30,38,28,30
12:16:00,18,17,28,16,24,30,43,21,25
12:17:00,27,21,19,17,23,19,20,21,21
12:18:00,23,26,22,22,36,32,37,26,28
12:19:00,20,20,36,17,19,20,30,22,23
12:20:00,20,29,28,22,15,30,26,23,24
12:21:00,32,35,37,24,13,29,36,28,29
12:22:00,33,25,33,21,14,28,24,25,25
12:23:00,24,21,23,39,20,36,38,25,29
12:24:00,18,34,29,32,26,29,26,28,28
12:25:00,21,23,12,32,25,22,28,23,23
12:26:00,27,18,18,27,17,34,16,21,22
12:27:00,23,20,27,31,33,34,26,27,28
12:28:00,30,26,29,25,31,22,39,28,29
12:29:00,23,24,19,33,30,33,26,26,27
12:30:00,35,28,21,20,31,23,35,27,28
12:31:00,24,25,16,27,28,22,33,24,25
12:32:00,35,30,26,26,27,19,20,29,26
12:33:00,21,21,20,23,22,30,16,21,22
12:34:00,33,37,25,29,31,28,28,31,30
12:35:00,29,25,20,29,27,22,26,26,25
12:36:00,18,36,29,34,22,33,21,28,28
12:37:00,20,29,21,20,28,21,21,24,23
12:38:00,19,32,34,9,23,27,28,23,25
12:39:00,30,21,30,25,23,7,27,26,23
12:40:00,26,33,25,20,26,33,29,26,27
12:41:00,24,24,31,21,29,35,27,26,27
12:42:00,26,26,20,11,27,24,25,22,23
12:43:00,28,14,20,27,22,28,23,22,23
12:44:00,32,34,12,25,26,41,31,26,29
12:45:00,25,27,33,17,21,35,32,25,27
12:46:00,15,29,18,29,21,27,24,22,23
12:47:00,24,27,15,21,29,25,36,23,25
12:48:00,27,38,15,11,35,36,32,25,28
12:49:00,23,17,16,20,24,30,29,20,23
12:50:00,26,22,17,12,29,25,28,21,23
12:51:00,24,19,21,16,31,25,37,22,25
12:52:00,22,26,37,18,24,30,36,25,28
12:53:00,22,17,28,15,29,28,26,22,24
12:54:00,26,24,24,19,18,24,23,22,23
12:55:00,26,16,22,19,21,23,21,21,21
12:56:00,30,21,21,34,17,24,28,25,25
12:57:00,27,20,27,25,25,26,21,25,24
12:58:00,28,27,27,21,22,24,23,25,25
12:59:00,17,29,21,20,23,41,28,22,26
13:00:00,26,25,17,11,30,35,34,22,25
13:01:00,26,17,27,18,29,27,28,23,25
13:02:00,29,24,17,26,26,28,27,24,25
13:03:00,23,28,26,22,26,24,26,25,25
13:04:00,23,21,18,36,24,22,24,24,24
13:05:00,22,29,31,32,28,27,24,28,28
13:06:00,22,27,22,28,28,35,31,25,28
13:07:00,30,27,22,21,19,24,36,24,26
13:08:00,24,29,19,28,31,21,22,26,25
13:09:00,41,29,20,28,25,28,36,29,30
13:10:00,33,26,14,27,18,34,25,24,25
13:11:00,24,20,28,22,23,29,35,23,26
13:12:00,28,26,24,31,19,28,32,26,27
13:13:00,18,21,28,27,22,28,28,23,25
13:14:00,18,20,34,13,16,27,29,20,22
13:15:00,17,26,24,32,20,34,34,24,27
13:16:00,28,15,26,24,29,31,24,24,25
13:17:00,37,22,28,34,25,23,37,29,29
13:18:00,30,22,22,23,25,26,41,24,27
13:19:00,33,22,30,37,32,19,34,31,30
13:20:00,30,16,20,37,29,19,38,26,27
13:21:00,25,9,23,28,28,26,26,23,24
13:22:00,26,27,33,15,32,26,18,27,25
13:23:00,21,31,24,21,12,30,20,22,23
13:24:00,20,13,19,20,27,30,27,20,22
13:25:00,24,5,29,25,22,25,34,21,23
13:26:00,25,23,18,26,24,28,27,23,24
13:27:00,28,26,22,25,24,26,33,25,26
13:28:00,27,23,19,23,29,33,27,24,26
13:29:00,25,16,33,14,30,27,31,24,25
13:30:00,25,21,20,27,14,26,27,21,23
13:31:00,22,25,33,26,28,21,32,27,27
13:32:00,23,31,24,30,22,15,28,26,25
13:33:00,19,22,37,27,30,38,28,27,29
13:34:00,39,23,24,27,36,38,34,30,32
13:35:00,30,31,28,34,32,21,31,31,30
13:36:00,27,17,22,31,34,27,23,26,26
13:37:00,33,21,31,29,28,32,34,28,30
13:38:00,23,27,24,25,19,25,28,24,24
13:39:00,33,25,22,33,27,29,26,28,28
13:40:00,23,27,6,18,24,29,30,20,22
13:41:00,38,26,14,29,20,23,25,25,25
13:42:00,21,29,18,18,30,22,26,23,23
13:43:00,28,27,22,37,33,28,38,29,30
13:44:00,26,26,11,25,24,28,30,22,24
13:45:00,32,19,20,32,22,27,21,25,25
13:46:00,18,22,27,32,27,23,27,25,25
13:47:00,24,24,38,29,25,14,24,28,25
13:48:00,31,37,19,17,31,28,24,27,27
13:49:00,26,26,22,27,20,16,21,24,23
13:50:00,32,22,19,31,24,20,28,26,25
13:51:00,26,27,19,25,28,30,32,25,27
13:52:00,13,35,29,21,24,30,29,24,26
13:53:00,31,28,26,25,28,24,30,28,27
13:54:00,21,23,23,25,29,25,30,24,25
13:55:00,28,24,26,14,28,28,32,24,26
13:56:00,26,24,8,28,36,23,26,24,24
13:57:00,25,42,9,23,24,15,32,25,24
13:58:00,28,26,20,21,27,23,25,24,24
13:59:00,20,28,26,23,20,17,28,23,23
14:00:00,24,30,28,29,31,25,28,28,28
14:01:00,30,37,19,25,27,23,30,28,27
14:02:00,21,27,20,25,34,26,23,25,25
14:03:00,24,18,16,23,21,18,23,20,20
14:04:00,26,18,29,26,39,27,31,28,28
14:05:00,33,19,14,21,20,25,29,21,23
14:06:00,22,28,28,23,26,22,23,25,25
14:07:00,26,34,19,23,19,23,29,24,25
14:08:00,26,27,9,17,25,19,35,21,23
14:09:00,32,27,18,23,24,39,28,25,27
14:10:00,23,27,26,31,27,29,26,27,27
14:11:00,35,26,32,24,16,25,25,27,26
14:12:00,28,22,27,22,21,25,29,24,25
14:13:00,28,35,35,17,18,17,23,27,25
14:14:00,12,30,25,30,26,20,22,25,24
14:15:00,22,33,20,23,27,22,24,25,24
14:16:00,33,28,33,29,29,15,31,30,28
14:17:00,25,33,21,18,27,30,18,25,25
14:18:00,22,31,23,22,20,21,37,24,25
14:19:00,33,29,28,24,26,30,26,28,28
14:20:00,31,23,18,21,22,26,26,23,24
14:21:00,14,36,24,20,16,26,35,22,24
14:22:00,27,15,16,19,27,24,32,21,23
14:23:00,24,24,18,22,30,29,26,24,25
14:24:00,24,20,21,29,24,35,25,24,25
14:25:00,35,28,21,23,15,23,26,24,24
14:26:00,21,35,18,27,36,24,24,27,26
14:27:00,22,27,27,25,23,26,34,25,26
14:28:00,28,25,28,29,21,30,29,26,27
14:29:00,18,14,26,21,27,24,21,21,22
14:30:00,21,20,27,25,22,32,20,23,24
14:31:00,31,22,24,19,25,33,30,24,26
14:32:00,31,14,20,27,22,27,33,23,25
14:33:00,31,25,23,28,24,36,28,26,28
14:34:00,21,27,24,30,27,26,28,26,26
14:35:00,31,34,30,33,28,29,31,31,31
14:36:00,24,34,31,31,27,28,24,29,28
14:37:00,31,21,32,16,28,17,28,26,25
14:38:00,26,29,24,28,24,25,22,26,25
14:39:00,21,28,20,12,34,29,26,23,24
14:40:00,26,22,20,24,23,25,32,23,25
14:41:00,31,13,30,22,27,33,29,25,26
14:42:00,19,19,28,35,17,23,18,24,23
14:43:00,32,24,22,28,24,33,34,26,28
14:44:00,29,34,30,25,12,32,18,26,26
14:45:00,33,36,27,32,37,26,19,33,30
14:46:00,18,23,16,16,20,15,22,19,19
14:47:00,33,28,19,15,18,27,31,23,24
14:48:00,32,27,14,20,26,22,25,24,24
14:49:00,26,26,6,28,26,17,29,22,23
14:50:00,25,16,23,30,21,25,35,23,25
14:51:00,37,20,20,28,31,34,27,27,28
14:52:00,27,19,22,29,32,27,26,26,26
14:53:00,21,28,34,19,34,23,16,27,25
14:54:00,30,26,36,27,30,26,17,30,27
14:55:00,25,22,25,32,23,23,26,25,25
14:56:00,13,37,29,21,24,32,26,25,26
14:57:00,27,31,22,20,29,21,25,26,25
14:58:00,29,22,20,32,22,21,30,25,25
14:59:00,30,27,33,15,26,23,26,26,26
15:00:00,32,24,30,18,26,22,23,26,25
15:01:00,29,31,28,27,30,23,36,29,29
15:02:00,24,22,20,22,30,33,34,24,26
15:03:00,32,22,34,18,24,25,29,26,26
15:04:00,32,18,21,30,25,23,26,25,25
15:05:00,32,28,27,19,31,28,31,27,28
15:06:00,27,33,25,26,19,30,24,26,26
15:07:00,20,25,26,31,24,12,19,25,22
15:08:00,28,36,24,22,28,28,28,28,28
15:09:00,18,24,25,27,24,37,17,24,25
15:10:00,18,24,25,31,28,30,27,25,26
15:11:00,26,24,33,23,33,17,23,28,26
15:12:00,21,16,18,26,27,19,27,22,22
15:13:00,34,11,12,20,30,14,24,21,21
15:14:00,28,22,29,25,33,23,20,27,26
15:15:00,34,35,39,25,21,28,33,31,31
15:16:00,19,24,23,30,28,19,29,25,25
15:17:00,23,28,32,19,17,25,30,24,25
15:18:00,23,20,28,27,33,25,14,26,24
15:19:00,22,16,26,34,28,27,24,25,25
15:20:00,31,28,20,22,24,25,19,25,24
15:21:00,25,30,34,26,30,22,20,29,27
15:22:00,32,30,31,28,38,28,21,32,30
15:23:00,30,17,25,20,28,18,26,24,23
15:24:00,29,35,22,22,28,31,32,27,28
15:25:00,29,38,24,28,16,31,25,27,27
15:26:00,36,19,32,30,22,22,24,28,26
15:27:00,36,16,15,28,30,25,25,25,25
15:28:00,35,22,30,27,26,23,22,28,26
15:29:00,31,33,26,23,24,31,22,27,27
15:30:00,23,29,22,36,37,15,25,29,27
15:31:00,30,27,24,30,29,20,17,28,25
15:32:00,26,23,22,30,26,24,29,25,26
15:33:00,27,21,28,25,39,27,20,28,27
15:34:00,20,21,30,37,29,27,23,27,27
15:35:00,22,31,29,32,22,22,41,27,28
15:36:00,26,27,29,21,24,26,23,25,25
15:37:00,27,34,33,26,12,28,24,26,26
15:38:00,23,25,33,32,18,20,27,26,25
15:39:00,33,21,27,30,39,22,17,30,27
15:40:00,27,21,22,34,31,24,22,27,26
15:41:00,19,16,39,26,32,23,22,26,25
15:42:00,31,24,29,27,33,22,27,29,28
15:43:00,31,24,31,34,33,14,26,31,28
15:44:00,26,23,26,26,24,25,25,25,25
15:45:00,30,25,17,29,18,15,22,24,22
15:46:00,27,18,20,31,24,20,20,24,23
15:47:00,21,28,29,34,26,37,27,28,29
15:48:00,16,20,27,34,28,24,21,25,24
15:49:00,29,25,22,22,28,22,26,25,25
15:50:00,28,30,30,30,19,26,18,27,26
15:51:00,25,32,30,32,28,35,16,29,28
15:52:00,18,22,24,23,27,22,30,23,24
15:53:00,27,33,27,25,24,27,18,27,26
15:54:00,21,32,33,33,27,20,19,29,26
15:55:00,25,26,32,31,29,31,11,29,26
15:56:00,26,20,19,32,31,29,21,26,25
15:57:00,31,23,29,33,34,32,31,30,30
15:58:00,19,29,17,32,25,26,23,24,24
15:59:00,19,27,21,26,26,18,18,24,22
16:00:00,17,22,19,31,30,27,24,24,24
16:01:00,29,22,28,23,30,34,29,26,28
16:02:00,23,27,24,36,32,17,28,28,27
16:03:00,28,24,20,26,27,20,27,25,25
16:04:00,23,19,29,35,23,28,22,26,26
16:05:00,26,25,35,28,38,28,32,30,30
16:06:00,28,31,19,30,28,27,29,27,27
16:07:00,24,26,32,25,26,31,20,27,26
16:08:00,14,39,29,24,27,27,17,27,25
16:09:00,19,29,38,22,39,23,14,29,26
16:10:00,16,28,29,38,31,23,23,28,27
16:11:00,13,28,34,32,32,20,27,28,27
16:12:00,21,21,22,33,28,15,30,25,24
16:13:00,28,25,18,30,28,25,17,26,24
16:14:00,21,26,22,32,28,24,12,26,24
16:15:00,29,32,26,27,28,25,12,28,26
16:16:00,32,30,29,23,29,32,20,29,28
16:17:00,19,30,23,33,21,20,20,25,24
16:18:00,23,28,13,19,32,35,20,23,24
16:19:00,25,25,16,31,26,29,19,25,24
16:20:00,25,31,22,27,28,26,23,27,26
16:21:00,30,29,23,27,30,27,23,28,27
16:22:00,20,30,27,16,19,26,15,22,22
16:23:00,25,27,35,22,28,25,18,27,26
16:24:00,33,31,26,31,19,25,25,28,27
16:25:00,40,36,30,25,16,22,18,29,27
16:26:00,20,26,21,23,23,22,24,23,23
16:27:00,18,33,24,18,25,18,19,24,22
16:28:00,27,30,13,28,26,29,18,25,24
16:29:00,5,33,28,25,23,24,15,23,22
16:30:00,15,41,31,31,14,24,15,26,24
16:31:00,26,14,32,13,26,27,18,22,22
16:32:00,26,34,23,26,31,28,19,28,27
16:33:00,28,31,19,21,25,24,12,25,23
16:34:00,18,22,25,27,24,21,26,23,23
16:35:00,32,25,30,40,20,22,20,29,27
16:36:00,33,35,25,31,20,38,19,29,29
16:37:00,27,22,18,30,24,23,17,24,23
16:38:00,29,32,27,18,21,35,20,25,26
16:39:00,26,26,25,17,32,33,10,25,24
16:40:00,18,30,8,29,26,27,14,22,22
16:41:00,32,28,22,28,28,22,24,28,26
16:42:00,29,30,33,15,27,32,16,27,26
16:43:00,20,34,22,14,17,27,15,21,21
16:44:00,20,34,27,25,18,28,15,25,24
16:45:00,30,24,24,34,31,26,13,29,26
16:46:00,26,19,26,28,19,28,34,24,26
16:47:00,26,21,25,27,26,28,28,25,26
16:48:00,24,24,26,20,14,21,16,22,21
16:49:00,30,30,22,30,20,35,22,26,27
16:50:00,22,31,20,25,31,39,22,26,27
16:51:00,18,28,16,31,17,15,21,22,21
16:52:00,15,25,31,29,18,30,7,24,22
16:53:00,23,24,24,31,27,29,17,26,25
16:54:00,23,23,32,22,37,31,25,27,28
16:55:00,19,28,27,28,29,14,20,26,24
16:56:00,28,33,19,23,25,23,22,26,25
16:57:00,20,23,19,24,19,34,20,21,23
16:58:00,38,23,29,22,25,28,23,27,27
16:59:00,30,29,28,30,29,30,17,29,28
17:00:00,23,29,22,25,29,32,22,26,26
17:01:00,24,29,33,30,36,22,13,30,27
17:02:00,21,26,30,34,22,36,15,27,26
17:03:00,15,32,27,35,16,16,24,25,24
17:04:00,26,24,32,26,22,18,12,26,23
17:05:00,25,30,29,22,22,32,22,26,26
17:06:00,34,30,34,29,28,33,12,31,29
17:07:00,29,26,31,28,35,30,17,30,28
17:08:00,24,29,20,25,38,24,14,27,25
17:09:00,17,24,17,30,28,35,23,23,25
17:10:00,10,19,23,25,20,28,23,19,21
17:11:00,17,27,24,27,31,24,19,25,24
17:12:00,22,31,20,28,27,24,15,26,24
17:13:00,28,26,30,27,26,27,24,27,27
17:14:00,28,38,24,23,30,21,22,29,27
17:15:00,27,38,19,20,23,29,12,25,24
17:16:00,26,32,25,27,32,24,21,28,27
17:17:00,26,24,33,24,31,22,17,28,25
17:18:00,19,29,29,24,27,25,8,26,23
17:19:00,24,20,22,25,24,22,19,23,22
17:20:00,34,25,31,23,31,20,17,29,26
17:21:00,26,32,26,33,22,20,25,28,26
17:22:00,26,23,38,25,17,17,15,26,23
17:23:00,33,25,20,29,7,25,20,23,23
17:24:00,29,28,25,22,15,28,12,24,23
17:25:00,24,27,26,25,10,29,11,22,22
17:26:00,18,32,30,29,19,30,20,26,25
17:27:00,19,24,26,29,30,25,12,26,24
17:28:00,25,32,25,23,39,32,20,29,28
17:29:00,21,27,29,32,26,32,18,27,26
17:30:00,23,26,28,37,26,32,23,28,28
17:31:00,28,22,37,31,31,21,20,30,27
17:32:00,29,28,22,23,16,22,15,24,22
17:33:00,19,26,20,23,34,27,15,24,23
17:34:00,31,17,21,38,33,28,17,28,26
17:35:00,26,33,46,32,25,29,15,32,29
17:36:00,26,27,23,31,24,25,8,26,23
17:37:00,29,34,23,22,24,24,23,26,26
17:38:00,24,22,23,31,24,36,18,25,25
17:39:00,21,32,36,31,27,25,17,29,27
17:40:00,22,23,22,28,30,31,13,25,24
17:41:00,25,33,36,33,31,32,19,32,30
17:42:00,37,30,26,38,29,29,11,32,29
17:43:00,26,27,31,26,32,24,17,28,26
17:44:00,26,34,29,22,20,20,19,26,24
17:45:00,37,23,21,22,36,27,18,28,26
17:46:00,19,26,34,29,25,34,16,27,26
17:47:00,20,24,29,23,27,27,24,25,25
17:48:00,25,29,30,26,22,30,13,26,25
17:49:00,25,25,21,35,32,21,19,28,25
17:50:00,27,26,26,26,21,22,18,25,24
17:51:00,41,27,27,22,31,15,12,30,25
17:52:00,31,16,29,28,22,19,14,25,23
17:53:00,25,22,28,17,25,27,14,23,23
17:54:00,30,21,24,27,25,23,14,25,23
17:55:00,35,26,33,34,38,21,10,33,28
17:56:00,21,33,25,34,30,27,13,29,26
17:57:00,24,29,36,19,28,20,14,27,24
17:58:00,23,33,29,34,21,25,14,28,26
17:59:00,32,36,22,31,28,31,16,30,28
18:00:00,28,28,34,18,22,24,13,26,24
18:01:00,28,28,16,24,31,27,14,25,24
18:02:00,21,32,26,35,32,23,13,29,26
18:03:00,30,32,29,27,21,30,11,28,26
18:04:00,24,22,22,32,27,20,11,25,23
18:05:00,24,20,23,28,38,16,16,27,24
18:06:00,34,38,29,30,18,27,20,30,28
18:07:00,36,23,26,24,26,30,15,27,26
18:08:00,28,28,26,19,30,31,12,26,25
18:09:00,24,23,31,19,35,22,21,26,25
18:10:00,30,23,24,22,28,16,7,25,21
18:11:00,26,22,30,29,17,20,13,25,22
18:12:00,30,15,29,39,27,27,19,28,27
18:13:00,27,28,25,27,22,25,16,26,24
18:14:00,26,30,28,31,31,29,21,29,28
18:15:00,28,30,28,24,29,23,15,28,25
18:16:00,19,31,26,24,33,30,12,27,25
18:17:00,34,28,28,38,34,22,15,32,28
18:18:00,25,38,18,32,19,24,19,26,25
18:19:00,34,24,32,22,42,29,14,31,28
18:20:00,17,27,25,28,26,14,7,25,21
18:21:00,28,22,27,19,25,13,26,24,23
18:22:00,36,25,24,36,26,23,18,29,27
18:23:00,23,24,31,25,31,16,8,27,23
18:24:00,34,22,23,27,24,29,7,26,24
18:25:00,21,27,22,24,20,22,16,23,22
18:26:00,25,22,19,19,15,25,19,20,21
18:27:00,27,34,28,20,34,14,15,29,25
18:28:00,20,19,24,30,28,29,16,24,24
18:29:00,32,26,35,17,23,16,15,27,23
18:30:00,27,21,32,20,32,20,10,26,23
18:31:00,22,15,25,31,26,24,12,24,22
18:32:00,23,31,20,32,33,25,12,28,25
18:33:00,26,22,14,20,24,33,15,21,22
18:34:00,22,19,26,20,32,23,20,24,23
18:35:00,23,21,21,17,30,24,17,22,22
18:36:00,19,14,23,24,23,13,11,21,18
18:37:00,12,31,19,23,30,16,13,23,21
18:38:00,27,18,28,28,25,18,13,25,22
18:39:00,16,16,23,25,38,37,10,24,24
18:40:00,23,19,21,11,35,18,14,22,20
18:41:00,22,24,18,27,30,12,15,24,21
18:42:00,28,27,23,17,27,32,15,24,24
18:43:00,25,13,22,29,19,14,13,22,19
18:44:00,20,23,20,21,23,16,21,21,21
18:45:00,33,17,24,18,21,22,13,23,21
18:46:00,15,26,27,28,30,17,16,25,23
18:47:00,22,13,15,27,22,30,6,20,19
18:48:00,16,14,20,25,29,14,16,21,19
18:49:00,29,14,23,27,19,30,13,22,22
18:50:00,21,14,25,23,32,16,14,23,21
18:51:00,22,23,26,29,23,21,15,25,23
18:52:00,24,21,16,24,18,16,14,21,19
18:53:00,21,23,28,18,11,17,15,20,19
18:54:00,22,16,22,25,27,15,13,22,20
18:55:00,18,20,21,25,25,16,13,22,20
18:56:00,17,17,21,18,18,16,16,18,18
18:57:00,20,18,24,25,18,18,17,21,20
18:58:00,19,22,17,15,26,28,6,20,19
18:59:00,19,25,17,27,25,13,19,23,21
19:00:00,15,25,30,17,19,23,19,21,21
19:01:00,18,21,20,17,17,17,16,19,18
19:02:00,23,9,21,20,14,19,20,17,18
19:03:00,20,20,19,20,23,25,12,20,20
19:04:00,23,16,22,27,30,17,4,24,20
19:05:00,21,22,26,22,12,14,10,21,18
19:06:00,21,19,23,15,16,14,18,19,18
19:07:00,17,11,30,16,17,23,8,18,17
19:08:00,15,23,18,28,23,16,13,21,19
19:09:00,24,15,26,27,28,25,22,24,24
19:10:00,20,17,23,15,22,13,16,19,18
19:11:00,17,22,23,20,28,14,13,22,20
19:12:00,27,13,17,25,25,28,13,21,21
19:13:00,18,20,19,18,23,23,11,20,19
19:14:00,17,12,11,28,21,29,9,18,18
19:15:00,16,17,12,17,31,23,18,19,19
19:16:00,27,8,14,14,15,21,8,16,15
19:17:00,18,18,21,18,23,19,16,20,19
19:18:00,21,9,25,13,10,21,14,16,16
19:19:00,20,18,20,26,20,20,9,21,19
19:20:00,20,13,20,22,16,18,16,18,18
19:21:00,21,21,15,26,14,10,13,19,17
19:22:00,18,11,18,14,17,17,11,16,15
19:23:00,20,14,18,21,16,16,10,18,16
19:24:00,10,16,21,17,17,16,9,16,15
19:25:00,11,14,22,13,23,16,12,17,16
19:26:00,19,13,25,19,16,26,11,18,18
19:27:00,14,21,24,14,26,16,16,20,19
19:28:00,19,19,15,15,19,13,11,17,16
19:29:00,19,16,14,20,10,22,8,16,16
19:30:00,18,16,20,13,12,24,15,16,17
19:31:00,15,22,12,10,16,12,15,15,15
19:32:00,21,15,20,14,30,17,10,20,18
19:33:00,9,14,16,17,14,12,21,14,15
19:34:00,22,21,16,9,27,10,10,19,16
19:35:00,18,20,15,11,15,17,11,16,15
19:36:00,16,27,21,13,22,20,18,20,20
19:37:00,17,15,24,17,20,16,9,19,17
19:38:00,16,20,19,16,19,17,11,18,17
19:39:00,19,22,19,13,25,13,11,20,17
19:40:00,11,22,19,17,9,17,8,16,15
19:41:00,16,21,15,13,15,15,7,16,15
19:42:00,16,25,20,12,14,15,6,17,15
19:43:00,22,17,15,24,16,19,9,19,17
19:44:00,10,20,11,14,8,14,11,13,13
19:45:00,23,19,17,11,9,19,13,16,16
19:46:00,15,15,11,20,20,12,10,16,15
19:47:00,15,20,10,11,14,11,5,14,12
19:48:00,14,21,17,9,17,15,13,16,15
19:49:00,13,18,22,7,24,16,10,17,16
19:50:00,11,18,12,18,14,12,11,15,14
19:51:00,13,14,22,21,17,16,12,17,16
19:52:00,15,16,23,14,13,18,11,16,16
19:53:00,14,19,15,11,16,17,13,15,15
19:54:00,5,29,15,8,10,9,6,13,12
19:55:00,11,17,7,9,12,15,14,11,12
19:56:00,10,18,14,9,20,12,13,14,14
19:57:00,9,25,9,14,22,10,10,16,14
19:58:00,14,28,12,17,17,13,6,18,15
19:59:00,11,19,8,10,11,14,3,12,11
20:00:00,8,11,22,17,9,12,11,13,13
20:01:00,14,20,13,14,16,17,12,15,15
20:02:00,20,26,14,9,14,12,4,17,14
20:03:00,8,14,17,12,16,7,9,13,12
20:04:00,12,17,17,7,16,16,8,14,13
20:05:00,16,20,19,11,15,13,9,16,15
20:06:00,12,14,17,19,14,12,11,15,14
20:07:00,18,16,15,10,13,16,10,14,14
20:08:00,13,29,8,15,20,16,10,17,16
20:09:00,12,19,8,16,19,12,9,15,14
20:10:00,15,18,11,11,21,3,5,15,12
20:11:00,9,16,12,21,3,7,17,12,12
20:12:00,8,14,11,17,16,16,8,13,13
20:13:00,19,15,8,9,9,10,8,12,11
20:14:00,19,10,18,14,17,14,6,16,14
20:15:00,11,10,15,15,8,13,11,12,12
20:16:00,11,14,12,17,7,6,8,12,11
20:17:00,13,19,10,12,18,15,8,14,14
20:18:00,7,20,13,8,9,12,10,11,11
20:19:00,13,22,14,17,23,15,8,18,16
20:20:00,13,20,5,8,22,14,12,14,13
20:21:00,15,15,15,9,15,16,10,14,14
20:22:00,20,16,17,11,16,15,13,16,15
20:23:00,13,14,14,12,10,10,11,13,12
20:24:00,6,11,7,20,21,13,9,13,12
20:25:00,14,20,15,20,11,14,12,16,15
20:26:00,5,8,17,10,24,6,15,13,12
20:27:00,16,16,18,11,12,9,8,15,13
20:28:00,9,16,10,13,9,10,11,11,11
20:29:00,7,9,10,9,16,8,6,10,9
20:30:00,12,6,11,5,18,6,10,10,10
20:31:00,8,14,15,11,17,8,9,13,12
20:32:00,11,7,16,6,11,9,6,10,9
20:33:00,8,12,14,16,14,13,9,13,12
20:34:00,5,11,8,16,17,16,6,11,11
20:35:00,7,7,9,13,10,6,4,9,8
20:36:00,12,11,8,14,11,6,13,11,11
20:37:00,7,7,9,22,14,9,7,12,11
20:38:00,8,13,8,11,21,6,7,12,11
20:39:00,12,14,16,12,14,13,8,14,13
20:40:00,6,17,10,12,12,17,10,11,12
20:41:00,8,7,11,17,12,11,2,11,10
20:42:00,13,9,9,5,12,9,8,10,9
20:43:00,4,11,12,8,18,7,8,11,10
20:44:00,12,9,9,10,7,10,10,9,10
20:45:00,12,13,12,13,8,17,13,12,13
20:46:00,9,7,13,7,12,6,3,10,8
20:47:00,8,3,8,6,9,8,8,7,7
20:48:00,10,13,6,9,13,12,5,10,10
20:49:00,8,14,5,11,11,7,5,10,9
20:50:00,12,5,7,13,15,8,7,10,10
20:51:00,9,6,5,7,13,10,4,8,8
20:52:00,6,14,18,8,10,9,6,11,10
20:53:00,12,8,11,20,9,17,6,12,12
20:54:00,8,13,14,14,14,5,8,13,11
20:55:00,14,9,10,15,8,7,10,11,10
20:56:00,11,4,5,5,9,9,6,7,7
20:57:00,9,8,9,11,13,9,5,10,9
20:58:00,1,6,6,6,7,14,9,5,7
20:59:00,14,10,10,9,3,11,6,9,9
21:00:00,6,5,7,8,12,13,4,8,8
21:01:00,5,7,10,13,11,5,8,9,8
21:02:00,11,12,8,4,8,7,4,9,8
21:03:00,11,10,7,16,8,9,7,10,10
21:04:00,4,7,7,17,11,15,10,9,10
21:05:00,7,7,14,10,10,10,5,10,9
21:06:00,4,4,12,9,8,5,8,7,7
21:07:00,6,17,14,12,15,10,6,13,11
21:08:00,12,13,8,10,7,8,11,10,10
21:09:00,6,12,11,11,9,7,5,10,9
21:10:00,5,9,9,15,3,10,5,8,8
21:11:00,14,19,11,9,11,11,8,13,12
21:12:00,14,9,11,8,6,4,7,10,8
21:13:00,6,18,16,16,14,11,8,14,13
21:14:00,7,9,4,15,11,8,7,9,9
21:15:00,3,10,7,14,9,11,8,9,9
21:16:00,8,5,6,8,12,8,4,8,7
21:17:00,13,5,8,10,7,8,6,9,8
21:18:00,13,8,10,16,5,5,4,10,9
21:19:00,8,8,6,7,10,9,8,8,8
21:20:00,10,9,7,10,8,8,3,9,8
21:21:00,8,4,14,8,14,10,9,10,10
21:22:00,7,8,6,7,11,9,4,8,7
21:23:00,9,10,5,11,11,7,7,9,9
21:24:00,11,9,5,7,8,7,10,8,8
21:25:00,10,5,3,12,6,9,6,7,7
21:26:00,5,12,12,11,9,6,10,10,9
21:27:00,12,9,12,15,9,5,4,11,9
21:28:00,5,13,9,22,6,12,6,11,10
21:29:00,6,11,9,13,9,9,4,10,9
21:30:00,7,9,9,9,11,7,6,9,8
21:31:00,3,11,8,12,7,5,1,8,7
21:32:00,12,8,15,6,4,7,4,9,8
21:33:00,4,5,5,6,12,7,3,6,6
21:34:00,8,11,14,9,7,2,5,10,8
21:35:00,12,8,6,7,9,7,7,8,8
21:36:00,14,8,9,8,5,7,5,9,8
21:37:00,2,6,7,8,9,7,1,6,6
21:38:00,5,11,7,12,5,7,7,8,8
21:39:00,7,13,12,6,5,7,1,9,7
21:40:00,4,7,5,6,14,5,7,7,7
21:41:00,10,11,11,12,8,2,5,10,8
21:42:00,8,8,10,4,6,4,1,7,6
21:43:00,9,10,12,11,8,11,6,10,10
21:44:00,4,6,2,7,13,9,8,6,7
21:45:00,7,16,6,5,7,12,3,8,8
21:46:00,5,4,11,11,4,10,5,7,7
21:47:00,4,8,5,8,6,7,7,6,6
21:48:00,9,9,8,3,18,10,5,9,9
21:49:00,8,10,1,8,14,9,5,8,8
21:50:00,4,4,11,10,15,8,3,9,8
21:51:00,5,8,7,7,6,6,4,7,6
21:52:00,11,16,10,7,15,5,6,12,10
21:53:00,7,5,6,8,11,8,7,7,7
21:54:00,7,7,10,7,9,6,9,8,8
21:55:00,7,3,6,9,7,11,5,6,7
21:56:00,4,8,7,3,9,13,3,6,7
21:57:00,5,7,9,9,6,6,12,7,8
21:58:00,7,3,4,4,18,10,5,7,7
21:59:00,4,5,9,5,13,6,6,7,7
22:00:00,7,8,5,8,8,4,3,7,6
22:01:00,7,11,4,6,8,9,2,7,7
22:02:00,11,2,9,7,6,4,5,7,6
22:03:00,5,11,4,9,16,10,6,9,9
22:04:00,9,8,7,7,9,9,4,8,8
22:05:00,2,7,8,9,9,6,1,7,6
22:06:00,11,9,11,8,6,17,10,9,10
22:07:00,11,5,10,10,6,8,4,8,8
22:08:00,13,7,9,6,15,8,8,10,9
22:09:00,5,11,15,7,8,5,8,9,8
22:10:00,7,13,11,15,12,4,10,12,10
22:11:00,9,10,8,14,3,11,3,9,8
22:12:00,10,9,13,8,7,11,9,9,10
22:13:00,3,15,12,10,10,2,6,10,8
22:14:00,7,8,9,8,8,12,7,8,8
22:15:00,7,5,14,16,6,9,6,10,9
22:16:00,4,12,8,7,11,5,8,8,8
22:17:00,10,5,10,6,9,12,6,8,8
22:18:00,5,11,6,15,8,12,5,9,9
22:19:00,11,7,12,10,7,6,1,9,8
22:20:00,2,9,11,7,10,6,8,8,8
22:21:00,7,5,8,8,15,6,6,9,8
22:22:00,11,12,7,6,12,4,5,10,8
22:23:00,6,23,10,10,4,15,8,11,11
22:24:00,9,1,6,3,7,9,5,5,6
22:25:00,9,10,8,7,8,7,4,8,8
22:26:00,4,8,4,2,6,3,8,5,5
22:27:00,6,6,9,10,11,8,7,8,8
22:28:00,10,13,7,4,13,7,5,9,8
22:29:00,3,10,4,2,5,1,3,5,4
22:30:00,7,8,7,6,3,4,5,6,6
22:31:00,2,8,5,6,12,7,4,7,6
22:32:00,9,6,8,8,9,5,7,8,7
22:33:00,2,6,6,5,5,8,5,5,5
22:34:00,2,12,4,10,7,8,2,7,6
22:35:00,7,2,3,9,12,7,4,7,6
22:36:00,3,3,4,9,7,8,2,5,5
22:37:00,4,11,4,5,9,7,0,7,6
22:38:00,6,6,6,6,4,8,3,6,6
22:39:00,2,1,8,4,13,9,6,6,6
22:40:00,1,3,8,5,8,7,1,5,5
22:41:00,7,4,3,10,14,4,8,8,7
22:42:00,4,2,5,4,4,4,1,4,3
22:43:00,5,10,6,9,13,7,6,9,8
22:44:00,7,11,11,7,7,11,2,9,8
22:45:00,4,10,5,4,12,5,0,7,6
22:46:00,0,5,13,11,8,9,3,7,7
22:47:00,4,4,7,5,13,7,5,7,6
22:48:00,11,11,5,1,7,8,0,7,6
22:49:00,10,4,8,3,7,5,4,6,6
22:50:00,7,6,10,7,3,4,4,7,6
22:51:00,6,14,10,6,8,1,2,9,7
22:52:00,4,8,10,4,6,10,4,6,7
22:53:00,6,5,8,6,5,13,3,6,7
22:54:00,3,7,9,3,10,5,1,6,5
22:55:00,5,9,8,5,10,3,3,7,6
22:56:00,4,7,5,5,10,8,4,6,6
22:57:00,7,5,2,10,11,3,3,7,6
22:58:00,9,3,9,3,11,6,4,7,6
22:59:00,6,2,4,1,6,13,8,4,6
23:00:00,4,7,3,4,4,9,3,4,5
23:01:00,3,3,4,3,4,3,1,3,3
23:02:00,5,5,7,7,3,3,2,5,5
23:03:00,4,2,5,5,8,7,0,5,4
23:04:00,3,5,5,8,4,1,1,5,4
23:05:00,4,2,9,5,2,5,5,4,5
23:06:00,6,3,3,6,9,5,5,5,5
23:07:00,4,5,3,2,10,10,1,5,5
23:08:00,4,5,5,8,6,4,1,6,5
23:09:00,3,4,4,7,5,8,6,5,5
23:10:00,1,3,7,4,5,2,2,4,3
23:11:00,5,1,4,5,1,2,4,3,3
23:12:00,4,4,1,4,4,4,2,3,3
23:13:00,4,6,4,3,10,8,2,5,5
23:14:00,3,5,3,4,9,8,2,5,5
23:15:00,2,2,1,6,6,1,7,3,4
23:16:00,4,5,6,3,5,5,4,5,5
23:17:00,4,3,6,3,6,6,3,4,4
23:18:00,1,8,4,7,10,4,4,6,5
23:19:00,4,7,2,6,2,8,2,4,4
23:20:00,2,4,4,1,4,3,2,3,3
23:21:00,4,6,1,3,6,3,4,4,4
23:22:00,1,5,4,4,8,4,2,4,4
23:23:00,3,3,5,6,6,3,3,5,4
23:24:00,6,5,5,3,7,5,0,5,4
23:25:00,2,1,4,1,1,4,5,2,3
23:26:00,2,7,4,10,9,3,3,6,5
23:27:00,5,3,4,3,4,4,1,4,3
23:28:00,2,3,1,4,4,5,4,3,3
23:29:00,0,1,2,7,3,11,4,3,4
23:30:00,3,5,3,7,7,6,3,5,5
23:31:00,7,1,7,2,7,3,1,5,4
23:32:00,1,3,4,3,6,5,0,3,3
23:33:00,2,4,5,3,4,3,2,4,3
23:34:00,2,2,1,0,6,7,6,2,3
23:35:00,3,5,3,1,4,2,6,3,3
23:36:00,5,1,1,1,3,4,2,2,2
23:37:00,6,2,1,2,7,1,2,4,3
23:38:00,3,3,5,5,4,5,1,4,4
23:39:00,2,5,1,4,4,7,0,3,3
23:40:00,2,1,2,0,1,8,1,1,2
23:41:00,0,3,6,0,2,2,3,2,2
23:42:00,3,1,0,1,4,6,2,2,2
23:43:00,1,3,3,5,7,6,3,4,4
23:44:00,2,3,1,5,4,5,0,3,3
23:45:00,2,1,1,1,2,2,1,1,1
23:46:00,5,4,2,5,3,4,4,4,4
23:47:00,2,1,2,3,6,3,0,3,2
23:48:00,2,3,3,2,1,3,2,2,2
23:49:00,4,2,4,4,2,9,2,3,4
23:50:00,6,2,3,5,6,6,2,4,4
23:51:00,3,1,4,4,7,4,1,4,3
23:52:00,2,4,1,4,4,6,1,3,3
23:53:00,2,6,4,2,5,1,1,4,3
23:54:00,0,2,1,1,5,1,1,2,2
23:55:00,3,4,2,3,4,7,4,3,4
23:56:00,2,3,3,2,6,9,1,3,4
23:57:00,1,0,4,6,2,9,0,3,3
23:58:00,2,0,4,1,3,2,1,2,2
23:59:00,1,3,1,3,4,9,2,2,3
,,,,,,,,,
Totals,,,,,,,,,
12H(7-19),17979,18109,18083,18287,18416,16740,14157,18175,17396
16H(6-22),21091,21477,21401,21554,21796,19263,15954,21464,20362
18H(6-24),21644,22142,22063,22203,22608,19990,16369,22132,21003
24H(0-24),22490,23013,22964,23066,23553,20735,17147,23017,21853
,,,,,,,,,
AM Peak,07:14:00,07:10:00,07:14:00,07:23:00,10:28:00,10:42:00,11:00:00,07:14:00,09:59:00
,1641,1580,1704,1620,1647,1646,1619,1615,1508
,,,,,,,,,
PM Peak,14:31:00,16:17:00,17:17:00,15:18:00,15:22:00,12:03:00,12:44:00,17:26:00,15:14:00
,1649,1702,1649,1736,1675,1697,1753,1633,1564
,,,,,,,,,
,,,,,,,,,
CA Traffic,,,,,,,,,VDA-net R2 22/05/2020
