﻿Site Number,00008018,,Site Reference,00008018,,,Lat/Lng.,"52.04617,1.17834",
Radar 8018 Nacton Road Ipswich,,,,,,,,,
Vehicle Count Report,,,,Week Begin: 04 November 2019,,,Channel:,Not Assigned,
,,,,,,,,,
,,,,,,,,,
,"Mon
Nov 04","Tue
Nov 05","Wed
Nov 06","Thu
Nov 07","Fri
Nov 08","Sat
Nov 09","Sun
Nov 10","5-Day
Ave.","7-Day
Ave."
00:00,0,4,2,1,1,1,5,2,2
00:01,0,3,0,1,1,0,1,1,1
00:02,4,0,1,2,0,0,2,1,1
00:03,0,0,2,1,0,4,2,1,1
00:04,0,0,1,3,1,1,1,1,1
00:05,0,0,2,4,1,1,2,1,1
00:06,0,1,0,1,1,2,1,1,1
00:07,1,2,1,2,0,4,2,1,2
00:08,0,0,1,0,0,0,5,0,1
00:09,0,3,1,1,0,1,4,1,1
00:10,1,1,1,1,0,1,9,1,2
00:11,0,0,0,1,2,1,3,1,1
00:12,0,1,0,0,0,3,3,0,1
00:13,1,1,2,2,1,0,4,1,2
00:14,3,1,1,1,1,3,1,1,2
00:15,2,1,0,0,1,1,1,1,1
00:16,0,1,3,1,0,0,0,1,1
00:17,0,0,0,0,0,1,1,0,0
00:18,0,0,0,1,0,1,3,0,1
00:19,0,1,2,1,0,0,5,1,1
00:20,1,0,0,0,1,1,1,0,1
00:21,1,0,1,0,1,1,2,1,1
00:22,0,0,0,0,1,0,2,0,0
00:23,0,0,0,2,1,1,0,1,1
00:24,1,1,0,0,1,0,3,1,1
00:25,1,0,1,1,0,5,2,1,1
00:26,0,1,0,0,1,1,0,0,0
00:27,0,0,0,0,2,2,1,0,1
00:28,3,0,0,0,1,1,1,1,1
00:29,1,0,2,0,0,1,1,1,1
00:30,2,0,0,2,3,0,1,1,1
00:31,0,0,0,0,0,1,3,0,1
00:32,0,1,1,2,2,0,3,1,1
00:33,0,0,2,2,2,0,1,1,1
00:34,0,1,1,1,1,2,2,1,1
00:35,1,0,0,1,1,0,1,1,1
00:36,0,2,0,2,3,2,2,1,2
00:37,0,0,0,0,0,3,3,0,1
00:38,2,1,3,0,0,1,0,1,1
00:39,0,1,0,0,0,1,0,0,0
00:40,0,1,1,0,0,1,2,0,1
00:41,0,0,1,0,0,1,2,0,1
00:42,0,1,1,0,0,4,2,0,1
00:43,0,0,0,0,1,0,2,0,0
00:44,1,0,0,0,3,1,2,1,1
00:45,0,0,1,0,0,2,0,0,0
00:46,0,0,1,0,2,2,1,1,1
00:47,0,0,1,0,0,5,2,0,1
00:48,0,0,2,0,1,2,2,1,1
00:49,0,0,0,0,0,6,1,0,1
00:50,0,0,0,0,0,0,1,0,0
00:51,0,0,0,0,0,0,3,0,0
00:52,1,2,1,1,0,2,2,1,1
00:53,0,0,0,0,0,3,1,0,1
00:54,1,1,0,1,1,0,4,1,1
00:55,0,1,1,0,3,0,3,1,1
00:56,0,0,0,1,0,2,0,0,0
00:57,0,0,0,0,2,1,1,0,1
00:58,0,0,0,0,0,5,1,0,1
00:59,1,1,0,0,0,2,4,0,1
01:00,0,0,0,2,1,2,0,1,1
01:01,0,0,0,0,0,1,1,0,0
01:02,1,0,0,1,0,5,1,0,1
01:03,0,1,1,0,1,1,2,1,1
01:04,0,1,0,1,0,1,2,0,1
01:05,1,0,1,0,0,2,1,0,1
01:06,0,0,0,0,1,4,3,0,1
01:07,0,0,1,0,0,1,1,0,0
01:08,0,0,0,0,1,1,6,0,1
01:09,0,0,0,0,0,1,1,0,0
01:10,0,1,0,0,0,6,0,0,1
01:11,1,0,0,2,0,4,0,1,1
01:12,1,0,0,0,0,2,0,0,0
01:13,1,2,1,0,0,1,0,1,1
01:14,0,1,1,0,0,0,2,0,1
01:15,0,0,0,0,1,2,0,0,0
01:16,0,1,0,0,0,2,1,0,1
01:17,0,1,1,0,1,0,1,1,1
01:18,0,0,1,0,2,1,3,1,1
01:19,0,1,0,1,0,1,3,0,1
01:20,1,0,2,0,1,2,1,1,1
01:21,0,1,0,0,0,1,3,0,1
01:22,0,0,0,1,2,0,2,1,1
01:23,1,0,0,0,0,2,1,0,1
01:24,1,2,0,0,1,0,0,1,1
01:25,0,0,0,0,0,0,1,0,0
01:26,0,0,0,1,1,2,0,0,1
01:27,0,0,0,1,0,4,1,0,1
01:28,0,1,0,0,1,4,4,0,1
01:29,0,2,0,0,0,0,0,0,0
01:30,1,1,2,0,1,1,2,1,1
01:31,1,0,1,0,0,0,2,0,1
01:32,0,0,0,1,2,0,1,1,1
01:33,0,0,1,0,0,0,0,0,0
01:34,0,3,0,0,0,0,1,1,1
01:35,0,0,1,0,1,2,3,0,1
01:36,1,0,0,0,0,1,2,0,1
01:37,1,0,0,0,1,1,1,0,1
01:38,1,0,0,0,0,1,0,0,0
01:39,0,1,0,0,3,0,3,1,1
01:40,0,0,1,0,1,2,2,0,1
01:41,1,0,3,0,1,0,2,1,1
01:42,0,1,0,0,1,0,0,0,0
01:43,0,0,0,1,1,2,0,0,1
01:44,0,0,1,0,1,3,2,0,1
01:45,0,0,0,1,2,0,1,1,1
01:46,0,0,1,0,0,0,1,0,0
01:47,0,2,1,0,1,0,2,1,1
01:48,1,1,1,1,1,0,2,1,1
01:49,0,0,0,1,1,0,0,0,0
01:50,0,0,0,0,2,0,1,0,0
01:51,0,1,1,0,1,0,1,1,1
01:52,0,1,1,0,1,0,0,1,0
01:53,0,1,0,0,0,0,1,0,0
01:54,0,2,0,0,0,1,1,0,1
01:55,1,0,0,2,0,0,0,1,0
01:56,0,2,0,1,0,2,2,1,1
01:57,0,0,0,0,0,1,1,0,0
01:58,0,0,0,1,0,1,2,0,1
01:59,1,0,1,2,0,1,0,1,1
02:00,0,0,0,1,0,1,1,0,0
02:01,0,1,1,1,0,1,1,1,1
02:02,0,1,0,0,0,0,1,0,0
02:03,0,0,0,0,0,0,0,0,0
02:04,1,1,0,0,1,1,1,1,1
02:05,0,0,1,0,0,0,2,0,0
02:06,0,0,0,1,0,1,2,0,1
02:07,0,0,0,0,0,0,0,0,0
02:08,0,1,1,0,1,1,0,1,1
02:09,0,0,0,1,1,0,1,0,0
02:10,1,0,0,1,0,3,7,0,2
02:11,0,0,0,0,1,2,1,0,1
02:12,0,0,2,0,2,0,3,1,1
02:13,0,2,0,0,1,1,1,1,1
02:14,1,0,0,1,0,2,0,0,1
02:15,0,0,0,0,1,2,2,0,1
02:16,2,0,2,0,2,1,0,1,1
02:17,0,0,0,0,0,1,0,0,0
02:18,2,1,0,0,0,0,0,1,0
02:19,0,3,1,2,2,1,0,2,1
02:20,0,0,1,1,1,0,0,1,0
02:21,0,0,1,0,0,0,1,0,0
02:22,0,0,0,0,1,0,0,0,0
02:23,0,0,0,0,0,0,1,0,0
02:24,2,0,0,0,0,0,3,0,1
02:25,0,1,1,0,1,0,1,1,1
02:26,0,1,0,0,0,0,1,0,0
02:27,1,0,0,1,0,0,3,0,1
02:28,0,0,0,0,0,0,2,0,0
02:29,0,1,0,0,0,1,0,0,0
02:30,0,1,0,0,0,0,0,0,0
02:31,0,1,0,0,0,0,0,0,0
02:32,1,0,0,0,0,0,3,0,1
02:33,1,0,0,0,1,0,1,0,0
02:34,1,1,0,0,0,0,5,0,1
02:35,0,0,0,0,1,0,1,0,0
02:36,0,1,0,0,0,1,1,0,0
02:37,0,0,0,0,0,1,2,0,0
02:38,0,2,0,2,0,1,1,1,1
02:39,0,0,1,1,0,0,0,0,0
02:40,0,0,0,0,0,0,1,0,0
02:41,0,0,0,0,0,0,3,0,0
02:42,1,0,1,0,1,0,1,1,1
02:43,0,1,1,0,0,1,1,0,1
02:44,1,0,0,2,0,3,1,1,1
02:45,0,0,0,0,0,1,1,0,0
02:46,1,0,0,0,1,2,2,0,1
02:47,0,0,0,0,1,1,0,0,0
02:48,0,0,1,0,1,1,2,0,1
02:49,0,0,0,0,1,1,0,0,0
02:50,1,0,0,0,0,4,2,0,1
02:51,1,0,0,1,0,0,0,0,0
02:52,0,1,0,0,0,0,1,0,0
02:53,0,1,0,0,1,0,3,0,1
02:54,0,0,0,0,1,0,0,0,0
02:55,0,0,0,0,1,0,2,0,0
02:56,0,0,0,1,0,0,0,0,0
02:57,1,1,0,0,1,1,1,1,1
02:58,0,0,0,0,0,1,0,0,0
02:59,1,0,0,0,0,0,0,0,0
03:00,0,0,0,0,0,3,1,0,1
03:01,0,0,0,0,1,0,0,0,0
03:02,0,0,0,3,0,0,1,1,1
03:03,1,0,0,1,0,0,2,0,1
03:04,0,0,0,1,1,1,0,0,0
03:05,0,0,0,2,0,1,0,0,0
03:06,0,0,0,1,0,0,2,0,0
03:07,1,1,0,0,0,0,2,0,1
03:08,0,0,0,1,0,1,1,0,0
03:09,1,0,0,0,0,1,1,0,0
03:10,0,0,0,0,0,0,1,0,0
03:11,0,0,2,0,0,0,0,0,0
03:12,0,0,0,0,1,0,2,0,0
03:13,0,0,0,0,1,0,0,0,0
03:14,0,0,0,0,0,0,0,0,0
03:15,0,0,0,0,1,0,1,0,0
03:16,0,0,1,0,0,1,0,0,0
03:17,0,0,0,1,0,0,0,0,0
03:18,0,0,0,0,0,0,1,0,0
03:19,0,0,0,0,1,0,1,0,0
03:20,0,0,0,0,1,0,0,0,0
03:21,1,0,1,0,0,0,0,0,0
03:22,0,0,0,0,1,0,2,0,0
03:23,1,1,0,0,0,1,0,0,0
03:24,0,1,0,0,0,0,0,0,0
03:25,0,0,0,0,0,2,0,0,0
03:26,0,1,1,0,0,0,1,0,0
03:27,0,1,1,0,0,0,0,0,0
03:28,0,0,0,1,0,0,0,0,0
03:29,1,1,0,0,0,0,0,0,0
03:30,1,0,0,0,0,0,0,0,0
03:31,0,0,0,0,1,0,0,0,0
03:32,0,0,0,0,0,0,1,0,0
03:33,0,0,0,0,0,0,1,0,0
03:34,0,0,0,0,0,1,0,0,0
03:35,0,0,0,0,1,0,0,0,0
03:36,0,1,0,0,0,0,0,0,0
03:37,0,0,0,0,0,1,0,0,0
03:38,0,0,0,0,0,0,0,0,0
03:39,0,0,0,0,1,0,0,0,0
03:40,1,1,0,0,1,0,0,1,0
03:41,0,0,1,0,0,1,1,0,0
03:42,0,0,0,0,0,0,1,0,0
03:43,0,0,0,0,0,3,0,0,0
03:44,0,1,0,0,0,0,1,0,0
03:45,0,1,0,0,0,0,3,0,1
03:46,1,0,2,0,1,0,2,1,1
03:47,0,0,0,1,0,0,0,0,0
03:48,0,1,0,0,0,0,0,0,0
03:49,0,0,0,1,1,0,0,0,0
03:50,0,0,0,0,0,1,2,0,0
03:51,0,0,0,0,1,0,0,0,0
03:52,0,0,1,0,2,0,1,1,1
03:53,0,0,0,0,1,1,0,0,0
03:54,0,0,0,0,0,0,0,0,0
03:55,2,1,0,0,0,0,0,1,0
03:56,0,0,0,1,2,0,0,1,0
03:57,0,1,0,0,0,2,1,0,1
03:58,0,0,0,0,0,1,0,0,0
03:59,1,0,0,0,0,0,0,0,0
04:00,0,0,0,0,0,1,1,0,0
04:01,2,1,0,0,0,0,0,1,0
04:02,0,0,0,0,0,0,3,0,0
04:03,0,0,1,0,0,0,3,0,1
04:04,1,1,2,0,0,1,0,1,1
04:05,0,0,0,0,0,0,0,0,0
04:06,1,1,1,1,0,0,0,1,1
04:07,0,0,0,0,0,0,1,0,0
04:08,0,0,0,0,0,2,1,0,0
04:09,0,0,0,0,0,0,1,0,0
04:10,0,0,0,0,0,1,1,0,0
04:11,1,0,1,1,0,0,1,1,1
04:12,0,0,0,0,0,0,0,0,0
04:13,0,0,0,0,0,0,1,0,0
04:14,0,0,0,0,1,1,1,0,0
04:15,0,3,0,1,0,0,1,1,1
04:16,1,0,1,0,1,0,0,1,0
04:17,0,0,0,1,0,1,1,0,0
04:18,1,0,0,0,0,0,2,0,0
04:19,0,1,0,1,0,0,0,0,0
04:20,0,1,0,0,0,0,1,0,0
04:21,0,0,0,1,1,2,1,0,1
04:22,0,1,1,1,1,1,0,1,1
04:23,1,1,1,1,2,0,1,1,1
04:24,0,0,1,0,0,0,0,0,0
04:25,1,3,0,2,0,2,0,1,1
04:26,0,1,0,2,0,1,1,1,1
04:27,1,0,0,1,2,0,2,1,1
04:28,3,0,0,0,0,0,2,1,1
04:29,0,1,1,1,0,0,1,1,1
04:30,0,0,0,3,3,1,1,1,1
04:31,2,0,1,1,0,1,0,1,1
04:32,1,1,0,1,1,1,2,1,1
04:33,0,2,0,4,3,2,2,2,2
04:34,0,0,0,1,0,0,0,0,0
04:35,0,1,0,1,0,1,1,0,1
04:36,2,0,0,1,0,0,1,1,1
04:37,1,0,1,0,1,1,0,1,1
04:38,0,0,2,0,2,1,1,1,1
04:39,0,0,1,1,0,0,0,0,0
04:40,0,1,1,1,1,0,0,1,1
04:41,2,2,0,0,0,2,0,1,1
04:42,0,0,0,0,0,0,0,0,0
04:43,0,1,1,0,1,0,1,1,1
04:44,1,0,0,3,1,1,0,1,1
04:45,1,5,2,1,2,0,0,2,2
04:46,2,2,1,0,3,0,0,2,1
04:47,1,0,1,1,1,0,0,1,1
04:48,1,1,1,1,2,0,0,1,1
04:49,0,0,0,0,0,0,1,0,0
04:50,1,0,0,1,1,0,0,1,0
04:51,1,0,1,1,0,1,0,1,1
04:52,3,3,1,0,1,2,1,2,2
04:53,0,2,0,2,2,1,1,1,1
04:54,2,2,3,0,0,2,2,1,2
04:55,0,0,1,1,0,0,0,0,0
04:56,0,1,0,1,3,1,0,1,1
04:57,1,0,0,1,0,0,3,0,1
04:58,0,2,0,2,2,1,2,1,1
04:59,1,0,2,1,1,1,0,1,1
05:00,1,0,1,1,2,0,0,1,1
05:01,1,2,0,3,1,1,0,1,1
05:02,2,0,2,2,0,0,1,1,1
05:03,1,1,1,0,1,0,0,1,1
05:04,0,1,0,1,2,1,0,1,1
05:05,1,1,1,1,2,0,0,1,1
05:06,1,1,2,0,1,0,0,1,1
05:07,0,1,0,0,0,0,0,0,0
05:08,0,3,1,2,2,0,0,2,1
05:09,3,0,1,1,3,0,0,2,1
05:10,1,0,0,1,0,0,1,0,0
05:11,1,0,2,1,0,0,0,1,1
05:12,0,1,1,0,1,1,0,1,1
05:13,0,0,1,1,3,1,0,1,1
05:14,1,1,1,0,1,0,0,1,1
05:15,1,0,2,5,0,1,0,2,1
05:16,1,2,2,3,1,2,1,2,2
05:17,0,1,1,1,0,0,0,1,0
05:18,2,3,1,4,1,2,1,2,2
05:19,0,1,3,2,2,0,1,2,1
05:20,1,2,1,0,0,1,0,1,1
05:21,0,5,0,3,0,2,0,2,1
05:22,4,0,1,5,1,2,0,2,2
05:23,0,3,2,3,1,0,1,2,1
05:24,2,3,3,1,3,0,0,2,2
05:25,1,1,3,1,1,1,0,1,1
05:26,4,2,2,0,1,1,0,2,1
05:27,1,2,2,4,1,0,0,2,1
05:28,3,2,0,1,1,1,0,1,1
05:29,3,2,0,2,1,2,0,2,1
05:30,4,0,1,1,0,2,0,1,1
05:31,2,2,2,0,2,2,0,2,1
05:32,3,0,4,0,2,0,0,2,1
05:33,1,2,2,3,1,0,0,2,1
05:34,0,1,3,2,2,1,1,2,1
05:35,2,1,0,0,4,1,1,1,1
05:36,3,0,2,2,1,0,0,2,1
05:37,2,0,2,3,0,0,0,1,1
05:38,2,2,0,2,2,6,0,2,2
05:39,1,2,0,0,2,0,0,1,1
05:40,1,3,3,0,2,2,1,2,2
05:41,2,1,2,3,4,0,0,2,2
05:42,2,0,4,3,3,1,0,2,2
05:43,1,2,2,2,3,0,1,2,2
05:44,5,2,1,5,3,0,1,3,2
05:45,3,4,4,2,2,0,2,3,2
05:46,2,1,3,3,2,0,0,2,2
05:47,6,4,2,5,5,2,1,4,4
05:48,1,5,1,1,1,1,1,2,2
05:49,6,1,4,2,3,1,0,3,2
05:50,3,4,3,4,3,2,1,3,3
05:51,4,3,3,4,0,3,1,3,3
05:52,2,5,7,3,1,0,0,4,3
05:53,5,2,2,4,4,1,1,3,3
05:54,6,3,2,0,1,3,0,2,2
05:55,1,0,2,5,3,0,0,2,2
05:56,2,2,2,1,1,0,2,2,1
05:57,2,2,0,3,5,1,0,2,2
05:58,1,1,0,2,3,1,0,1,1
05:59,0,2,2,2,1,1,1,1,1
06:00,0,0,0,0,1,1,0,0,0
06:01,3,2,1,3,2,0,0,2,2
06:02,3,3,1,3,4,1,1,3,2
06:03,4,1,1,4,2,0,0,2,2
06:04,1,1,1,2,1,0,0,1,1
06:05,1,2,2,0,2,0,0,1,1
06:06,3,0,2,6,2,0,0,3,2
06:07,3,5,2,0,6,1,1,3,3
06:08,0,2,0,5,1,0,1,2,1
06:09,1,2,3,2,3,0,0,2,2
06:10,2,2,2,2,1,1,0,2,1
06:11,2,2,3,2,0,2,0,2,2
06:12,3,1,0,2,1,1,0,1,1
06:13,5,4,2,4,1,0,1,3,2
06:14,3,4,0,1,6,0,1,3,2
06:15,1,1,3,1,3,3,1,2,2
06:16,5,2,2,0,2,0,0,2,2
06:17,1,1,2,1,3,0,0,2,1
06:18,3,4,7,4,2,2,1,4,3
06:19,2,1,2,2,0,0,4,1,2
06:20,2,1,0,3,0,1,0,1,1
06:21,7,3,4,4,2,0,0,4,3
06:22,2,3,2,2,0,1,1,2,2
06:23,1,3,1,2,1,0,1,2,1
06:24,1,3,3,1,1,1,2,2,2
06:25,2,4,0,3,2,2,2,2,2
06:26,5,0,1,3,4,2,2,3,2
06:27,5,3,1,3,4,1,1,3,3
06:28,0,3,2,2,7,1,1,3,2
06:29,3,6,2,2,5,1,1,4,3
06:30,1,1,2,4,0,2,1,2,2
06:31,3,5,3,1,2,2,2,3,3
06:32,1,5,2,3,2,0,1,3,2
06:33,1,4,2,3,0,5,1,2,2
06:34,2,3,7,2,3,2,2,3,3
06:35,4,4,4,3,6,1,2,4,3
06:36,8,3,3,2,5,2,1,4,3
06:37,3,5,3,2,0,1,3,3,2
06:38,3,4,3,3,2,1,2,3,3
06:39,5,2,6,2,4,1,0,4,3
06:40,6,4,7,7,6,1,1,6,5
06:41,9,4,7,3,1,1,2,5,4
06:42,1,5,3,4,4,3,1,3,3
06:43,3,7,3,5,4,0,0,4,3
06:44,4,3,9,5,4,1,1,5,4
06:45,2,9,4,8,6,3,0,6,5
06:46,5,6,8,5,6,2,0,6,5
06:47,5,3,3,6,9,3,2,5,4
06:48,3,9,3,6,4,2,2,5,4
06:49,8,12,3,7,6,2,0,7,5
06:50,5,5,2,3,1,4,2,3,3
06:51,3,4,6,7,5,2,2,5,4
06:52,3,4,3,0,6,2,1,3,3
06:53,5,3,4,2,4,5,0,4,3
06:54,2,4,5,3,2,4,1,3,3
06:55,5,7,3,6,2,0,1,5,3
06:56,3,3,5,4,1,1,0,3,2
06:57,7,6,4,4,3,0,3,5,4
06:58,2,2,5,2,3,2,1,3,2
06:59,4,5,3,4,2,3,4,4,4
07:00,4,5,4,4,1,2,0,4,3
07:01,3,7,1,8,5,3,2,5,4
07:02,1,2,3,6,3,2,2,3,3
07:03,5,2,5,4,2,2,0,4,3
07:04,5,2,2,3,2,2,0,3,2
07:05,2,5,6,3,3,0,1,4,3
07:06,5,4,7,5,4,1,1,5,4
07:07,3,5,1,2,3,3,0,3,2
07:08,3,5,7,5,3,1,2,5,4
07:09,4,8,7,10,6,3,2,7,6
07:10,4,5,5,4,3,5,0,4,4
07:11,2,3,4,3,2,3,1,3,3
07:12,2,1,5,6,5,1,1,4,3
07:13,7,1,5,5,4,1,1,4,3
07:14,4,9,1,4,6,2,4,5,4
07:15,5,9,8,7,11,2,1,8,6
07:16,6,7,3,3,4,1,3,5,4
07:17,3,7,6,5,4,3,0,5,4
07:18,8,6,7,5,5,1,2,6,5
07:19,5,5,8,5,6,2,1,6,5
07:20,5,1,3,2,7,4,0,4,3
07:21,7,4,4,4,4,1,3,5,4
07:22,3,6,3,8,6,3,0,5,4
07:23,3,3,5,3,2,2,0,3,3
07:24,9,8,3,3,10,2,5,7,6
07:25,7,8,3,4,5,1,0,5,4
07:26,3,2,5,1,5,3,1,3,3
07:27,4,7,3,7,2,3,2,5,4
07:28,3,3,5,4,6,1,0,4,3
07:29,5,5,8,4,1,3,1,5,4
07:30,10,9,1,3,3,2,2,5,4
07:31,4,7,5,4,7,3,3,5,5
07:32,7,7,0,7,4,1,1,5,4
07:33,3,3,7,2,4,1,1,4,3
07:34,1,5,7,3,4,4,0,4,3
07:35,8,5,5,6,8,3,1,6,5
07:36,8,7,11,8,3,1,3,7,6
07:37,8,6,8,10,4,3,1,7,6
07:38,3,10,3,5,3,4,5,5,5
07:39,3,5,5,5,1,4,3,4,4
07:40,3,7,8,9,4,1,0,6,5
07:41,8,5,5,7,5,3,2,6,5
07:42,5,4,13,6,7,6,1,7,6
07:43,12,3,9,4,6,1,0,7,5
07:44,9,9,11,5,7,2,2,8,6
07:45,8,7,4,6,6,4,1,6,5
07:46,7,10,3,3,4,3,1,5,4
07:47,6,8,4,3,5,8,2,5,5
07:48,8,11,4,5,8,0,0,7,5
07:49,5,9,7,1,8,1,1,6,5
07:50,4,5,9,10,8,2,3,7,6
07:51,10,8,8,5,3,7,5,7,7
07:52,7,10,5,9,7,2,1,8,6
07:53,4,7,6,7,4,9,4,6,6
07:54,6,9,7,2,4,2,3,6,5
07:55,5,7,8,3,7,5,1,6,5
07:56,1,10,7,4,3,5,1,5,4
07:57,6,4,3,4,4,3,4,4,4
07:58,7,7,5,8,9,4,2,7,6
07:59,5,2,5,2,8,4,0,4,4
08:00,7,6,7,3,8,1,1,6,5
08:01,8,5,10,5,11,2,2,8,6
08:02,10,8,8,10,4,2,1,8,6
08:03,5,10,3,3,7,2,3,6,5
08:04,8,3,9,9,5,3,0,7,5
08:05,6,5,4,5,8,6,0,6,5
08:06,2,5,6,6,10,5,1,6,5
08:07,6,4,7,8,7,5,2,6,6
08:08,6,9,7,3,12,5,0,7,6
08:09,8,10,10,5,7,5,0,8,6
08:10,9,6,8,8,6,5,3,7,6
08:11,9,2,6,5,4,7,3,5,5
08:12,5,9,5,16,2,5,3,7,6
08:13,4,10,6,5,4,4,2,6,5
08:14,7,6,7,10,4,8,4,7,7
08:15,3,7,6,4,9,8,0,6,5
08:16,7,7,10,5,2,9,2,6,6
08:17,6,6,10,6,8,5,2,7,6
08:18,7,6,5,9,5,5,3,6,6
08:19,9,4,5,7,8,3,1,7,5
08:20,7,7,7,3,7,1,1,6,5
08:21,5,9,4,7,7,4,0,6,5
08:22,4,5,4,10,0,4,4,5,4
08:23,9,8,9,6,7,4,4,8,7
08:24,8,10,9,4,0,7,3,6,6
08:25,6,6,4,5,10,4,1,6,5
08:26,5,8,8,8,4,4,0,7,5
08:27,8,7,4,10,4,5,2,7,6
08:28,4,4,7,10,7,2,0,6,5
08:29,7,11,4,4,6,5,2,6,6
08:30,11,4,5,4,6,8,2,6,6
08:31,7,12,7,4,7,3,2,7,6
08:32,6,4,3,5,8,2,2,5,4
08:33,8,4,4,9,6,2,2,6,5
08:34,8,9,7,6,6,6,0,7,6
08:35,7,6,2,3,7,7,2,5,5
08:36,6,7,5,8,9,4,3,7,6
08:37,12,7,6,10,7,6,3,8,7
08:38,6,9,7,15,5,3,0,8,6
08:39,2,5,6,5,6,11,2,5,5
08:40,6,8,8,5,4,6,1,6,5
08:41,5,10,8,8,6,6,2,7,6
08:42,14,10,9,11,5,7,4,10,9
08:43,2,5,12,9,5,6,0,7,6
08:44,3,10,2,10,4,4,3,6,5
08:45,8,4,4,8,8,6,3,6,6
08:46,7,8,10,3,6,8,2,7,6
08:47,11,5,5,3,5,6,1,6,5
08:48,6,4,7,5,12,9,2,7,6
08:49,14,5,9,3,5,5,3,7,6
08:50,12,8,10,14,9,2,4,11,8
08:51,3,1,8,7,7,7,0,5,5
08:52,6,5,6,5,6,10,2,6,6
08:53,7,5,7,1,6,6,3,5,5
08:54,11,5,8,6,4,7,1,7,6
08:55,3,5,4,6,7,3,4,5,5
08:56,10,5,0,7,5,6,2,5,5
08:57,11,2,6,3,2,4,3,5,4
08:58,7,7,6,8,5,6,4,7,6
08:59,8,11,8,2,9,10,3,8,7
09:00,9,3,3,3,8,7,5,5,5
09:01,17,5,11,1,7,1,5,8,7
09:02,6,8,2,8,6,6,3,6,6
09:03,13,5,12,3,8,6,3,8,7
09:04,6,4,2,7,11,5,6,6,6
09:05,6,11,3,4,4,3,6,6,5
09:06,7,5,5,7,2,7,3,5,5
09:07,7,5,9,6,7,5,4,7,6
09:08,4,7,3,6,8,9,1,6,5
09:09,9,6,4,1,4,4,5,5,5
09:10,11,6,3,10,3,9,2,7,6
09:11,6,7,4,5,8,5,4,6,6
09:12,5,11,9,4,5,13,3,7,7
09:13,5,15,7,7,6,6,2,8,7
09:14,4,7,5,7,5,5,6,6,6
09:15,6,7,9,10,3,7,4,7,7
09:16,6,5,4,11,9,8,5,7,7
09:17,7,4,5,10,4,10,3,6,6
09:18,4,6,2,3,5,6,4,4,4
09:19,2,7,5,8,9,5,5,6,6
09:20,14,1,4,6,3,13,7,6,7
09:21,6,3,5,6,9,6,2,6,5
09:22,6,8,7,6,5,3,5,6,6
09:23,4,3,4,8,3,1,5,4,4
09:24,3,7,9,5,9,5,5,7,6
09:25,3,13,7,5,8,5,4,7,6
09:26,1,5,7,3,9,10,3,5,5
09:27,4,5,6,5,5,5,6,5,5
09:28,8,7,7,2,6,7,2,6,6
09:29,7,7,3,6,5,1,5,6,5
09:30,5,5,9,9,6,10,3,7,7
09:31,8,4,5,7,4,4,3,6,5
09:32,5,6,3,8,7,6,3,6,5
09:33,4,5,8,2,10,7,1,6,5
09:34,10,3,5,7,5,3,5,6,5
09:35,6,12,1,7,5,8,9,6,7
09:36,5,5,4,12,6,5,5,6,6
09:37,5,3,9,5,4,8,4,5,5
09:38,8,5,9,7,9,6,7,8,7
09:39,3,2,7,1,12,3,9,5,5
09:40,15,2,5,6,2,5,0,6,5
09:41,3,3,8,12,10,7,7,7,7
09:42,5,2,9,9,4,10,6,6,6
09:43,2,4,6,4,7,2,4,5,4
09:44,10,9,6,8,11,14,7,9,9
09:45,5,0,5,5,5,8,7,4,5
09:46,7,3,5,3,7,6,6,5,5
09:47,5,9,5,6,7,10,9,6,7
09:48,8,6,8,4,5,6,6,6,6
09:49,8,4,5,9,6,7,4,6,6
09:50,3,7,8,7,7,10,6,6,7
09:51,6,5,8,12,6,10,6,7,8
09:52,7,10,3,3,7,6,6,6,6
09:53,5,11,6,6,1,13,6,6,7
09:54,9,7,9,12,3,7,11,8,8
09:55,7,5,7,4,13,5,6,7,7
09:56,11,3,5,8,8,10,4,7,7
09:57,7,7,0,11,7,5,6,6,6
09:58,6,6,7,3,4,9,6,5,6
09:59,9,6,6,5,4,10,3,6,6
10:00,6,9,2,7,11,7,6,7,7
10:01,9,5,5,7,2,10,8,6,7
10:02,3,9,8,4,10,1,2,7,5
10:03,4,2,1,4,4,11,9,3,5
10:04,3,6,4,5,4,7,7,4,5
10:05,6,6,7,4,7,8,4,6,6
10:06,3,8,5,2,3,6,2,4,4
10:07,3,7,10,8,5,4,5,7,6
10:08,8,6,7,9,7,4,10,7,7
10:09,7,2,7,3,5,6,1,5,4
10:10,13,6,2,11,7,11,4,8,8
10:11,3,4,7,5,5,3,8,5,5
10:12,3,3,3,7,6,12,4,4,5
10:13,5,6,6,7,7,6,6,6,6
10:14,11,9,10,5,6,9,6,8,8
10:15,9,2,10,9,12,10,9,8,9
10:16,5,5,4,6,7,10,7,5,6
10:17,7,6,6,4,1,6,3,5,5
10:18,2,4,6,3,4,9,4,4,5
10:19,6,10,5,4,5,5,3,6,5
10:20,3,8,3,10,4,9,6,6,6
10:21,12,6,11,6,14,3,9,10,9
10:22,8,3,4,6,12,9,8,7,7
10:23,13,13,5,4,4,11,7,8,8
10:24,10,4,4,8,6,5,2,6,6
10:25,3,8,6,6,3,7,3,5,5
10:26,6,4,2,5,9,7,7,5,6
10:27,4,7,6,8,12,5,8,7,7
10:28,6,1,5,4,7,10,8,5,6
10:29,5,7,6,3,4,3,7,5,5
10:30,10,5,4,5,10,7,7,7,7
10:31,10,5,1,5,4,8,4,5,5
10:32,9,8,8,6,7,8,8,8,8
10:33,6,4,4,4,6,8,3,5,5
10:34,3,8,7,5,11,13,2,7,7
10:35,10,7,10,5,4,3,11,7,7
10:36,11,6,5,5,4,5,3,6,6
10:37,5,9,7,6,12,16,7,8,9
10:38,7,12,7,2,10,8,7,8,8
10:39,8,6,14,7,2,7,2,7,7
10:40,6,1,5,5,7,7,3,5,5
10:41,8,7,4,5,5,7,5,6,6
10:42,3,10,11,3,8,8,4,7,7
10:43,11,7,6,9,8,7,8,8,8
10:44,11,7,2,5,5,12,1,6,6
10:45,7,6,8,5,9,11,6,7,7
10:46,6,4,6,5,8,7,7,6,6
10:47,13,5,3,13,4,8,4,8,7
10:48,5,8,4,7,10,11,9,7,8
10:49,10,5,10,3,7,9,10,7,8
10:50,5,9,4,7,10,9,10,7,8
10:51,7,6,3,4,7,6,7,5,6
10:52,2,6,9,4,4,5,6,5,5
10:53,8,1,3,7,7,3,10,5,6
10:54,5,2,3,8,4,11,9,4,6
10:55,8,4,9,6,4,13,6,6,7
10:56,5,4,7,6,9,7,11,6,7
10:57,9,11,6,11,7,9,3,9,8
10:58,6,5,5,2,6,10,6,5,6
10:59,5,4,9,3,3,6,6,5,5
11:00,7,5,5,6,4,3,11,5,6
11:01,8,7,3,6,6,5,4,6,6
11:02,11,7,4,6,5,6,7,7,7
11:03,8,4,6,6,14,4,3,8,6
11:04,2,4,6,9,5,3,10,5,6
11:05,9,9,7,3,10,4,12,8,8
11:06,5,7,3,10,4,10,5,6,6
11:07,5,1,0,5,5,4,1,3,3
11:08,9,6,7,8,6,11,6,7,8
11:09,6,8,4,4,5,15,5,5,7
11:10,10,2,5,7,11,6,5,7,7
11:11,6,7,3,7,3,4,6,5,5
11:12,8,3,6,5,4,7,2,5,5
11:13,9,5,8,10,4,11,10,7,8
11:14,3,7,2,11,20,12,9,9,9
11:15,9,9,6,8,3,6,6,7,7
11:16,4,6,7,2,8,6,6,5,6
11:17,8,8,10,8,7,8,4,8,8
11:18,5,9,5,6,5,10,2,6,6
11:19,5,6,10,6,6,10,2,7,6
11:20,10,7,7,3,9,10,8,7,8
11:21,8,2,7,6,10,7,10,7,7
11:22,10,5,8,9,4,5,10,7,7
11:23,5,5,10,5,8,9,7,7,7
11:24,9,14,6,4,2,7,1,7,6
11:25,6,3,2,4,8,8,7,5,5
11:26,6,2,4,3,4,6,12,4,5
11:27,3,13,4,10,9,6,9,8,8
11:28,5,6,13,11,10,3,5,9,8
11:29,6,6,6,6,5,7,5,6,6
11:30,3,7,7,9,11,4,4,7,6
11:31,1,7,6,7,8,4,10,6,6
11:32,11,6,7,8,3,10,6,7,7
11:33,3,5,5,8,6,12,10,5,7
11:34,4,8,4,2,6,16,8,5,7
11:35,8,10,11,4,11,7,3,9,8
11:36,6,9,2,0,8,3,8,5,5
11:37,5,4,3,10,11,6,3,7,6
11:38,10,9,7,5,3,7,2,7,6
11:39,5,8,10,9,4,5,6,7,7
11:40,10,2,5,6,8,2,8,6,6
11:41,8,5,4,6,5,9,11,6,7
11:42,9,6,11,7,7,7,3,8,7
11:43,5,7,6,9,5,12,8,6,7
11:44,12,6,4,3,13,5,9,8,7
11:45,7,10,10,11,4,7,6,8,8
11:46,13,4,5,6,12,16,7,8,9
11:47,6,2,10,9,3,9,6,6,6
11:48,3,5,9,7,9,7,8,7,7
11:49,5,5,5,6,8,7,1,6,5
11:50,10,3,8,5,5,9,9,6,7
11:51,5,4,11,4,8,6,6,6,6
11:52,6,10,7,8,9,7,7,8,8
11:53,7,6,7,2,5,11,1,5,6
11:54,2,4,15,10,6,7,10,7,8
11:55,7,4,3,2,5,11,4,4,5
11:56,12,2,9,8,7,3,5,8,7
11:57,12,5,4,7,6,13,2,7,7
11:58,12,5,1,9,7,4,9,7,7
11:59,5,15,8,6,8,8,7,8,8
12:00,8,9,12,3,12,9,6,9,8
12:01,9,7,3,3,10,10,4,6,7
12:02,8,5,3,7,12,5,5,7,6
12:03,5,5,8,4,3,6,5,5,5
12:04,6,9,2,6,6,17,6,6,7
12:05,7,4,11,7,6,11,10,7,8
12:06,10,7,5,7,7,7,6,7,7
12:07,8,4,4,5,6,7,5,5,6
12:08,5,4,3,4,4,5,14,4,6
12:09,8,9,9,8,6,10,6,8,8
12:10,8,12,7,7,6,10,7,8,8
12:11,5,6,9,6,3,6,10,6,6
12:12,8,5,8,10,6,11,2,7,7
12:13,12,4,6,10,9,8,9,8,8
12:14,11,11,8,4,11,7,7,9,8
12:15,9,6,9,11,2,9,6,7,7
12:16,10,8,5,4,13,15,13,8,10
12:17,5,1,6,6,7,15,9,5,7
12:18,8,3,8,8,4,8,7,6,7
12:19,6,3,9,9,12,7,3,8,7
12:20,5,3,6,3,4,5,14,4,6
12:21,16,10,11,10,7,2,5,11,9
12:22,8,13,7,4,3,11,10,7,8
12:23,6,8,8,3,5,9,6,6,6
12:24,3,8,7,3,8,3,14,6,7
12:25,5,7,6,12,8,11,4,8,8
12:26,5,5,3,5,9,9,8,5,6
12:27,8,7,10,6,14,9,11,9,9
12:28,8,1,7,8,9,10,5,7,7
12:29,11,9,8,8,11,4,9,9,9
12:30,3,7,3,10,7,7,5,6,6
12:31,10,4,8,3,6,6,10,6,7
12:32,8,3,7,6,9,8,8,7,7
12:33,13,4,11,11,11,12,7,10,10
12:34,10,7,5,5,5,11,14,6,8
12:35,8,8,5,3,4,5,7,6,6
12:36,5,5,3,5,2,7,12,4,6
12:37,3,6,7,2,10,5,6,6,6
12:38,8,2,8,6,10,9,4,7,7
12:39,8,7,2,6,8,11,5,6,7
12:40,7,5,11,3,7,10,13,7,8
12:41,6,6,11,8,7,13,8,8,8
12:42,5,11,11,12,5,7,4,9,8
12:43,9,4,11,3,5,12,9,6,8
12:44,7,6,11,3,8,6,5,7,7
12:45,8,5,5,10,8,11,9,7,8
12:46,5,5,4,3,10,3,7,5,5
12:47,9,7,13,6,7,3,5,8,7
12:48,6,6,9,11,8,10,9,8,8
12:49,3,6,9,2,9,14,6,6,7
12:50,8,10,7,8,8,5,6,8,7
12:51,10,5,8,3,6,7,8,6,7
12:52,5,10,8,5,5,10,8,7,7
12:53,5,5,4,9,9,5,8,6,6
12:54,6,4,6,9,9,11,4,7,7
12:55,9,4,5,8,8,9,6,7,7
12:56,5,6,4,7,9,15,9,6,8
12:57,4,7,3,7,9,8,9,6,7
12:58,4,2,12,7,12,2,13,7,7
12:59,6,9,4,6,1,9,10,5,6
13:00,9,8,8,7,10,15,4,8,9
13:01,5,1,7,3,6,13,10,4,6
13:02,6,5,6,5,12,13,15,7,9
13:03,7,11,3,13,6,8,2,8,7
13:04,7,4,7,4,6,4,11,6,6
13:05,9,3,4,9,11,7,3,7,7
13:06,10,6,4,10,10,7,10,8,8
13:07,9,3,3,6,6,6,8,5,6
13:08,11,8,4,7,8,2,11,8,7
13:09,2,2,6,6,9,3,7,5,5
13:10,11,5,9,9,9,12,13,9,10
13:11,3,8,0,15,3,12,10,6,7
13:12,11,6,5,6,5,4,7,7,6
13:13,6,5,5,6,6,11,10,6,7
13:14,7,5,9,4,9,3,8,7,6
13:15,10,11,0,1,8,5,4,6,6
13:16,5,5,3,5,7,9,6,5,6
13:17,9,2,4,5,7,6,6,5,6
13:18,11,9,5,4,6,4,9,7,7
13:19,5,3,2,11,10,3,5,6,6
13:20,7,3,5,6,7,10,7,6,6
13:21,13,5,12,2,3,10,6,7,7
13:22,10,6,7,9,9,9,9,8,8
13:23,7,8,3,9,2,10,7,6,7
13:24,11,5,5,4,8,8,4,7,6
13:25,11,3,9,7,8,5,6,8,7
13:26,5,7,2,5,8,7,4,5,5
13:27,4,12,9,6,11,8,10,8,9
13:28,2,6,2,9,2,9,8,4,5
13:29,8,4,4,11,2,8,7,6,6
13:30,4,3,11,7,8,9,10,7,7
13:31,8,9,6,4,13,5,16,8,9
13:32,6,8,9,5,4,12,3,6,7
13:33,10,4,6,6,9,7,6,7,7
13:34,1,10,4,3,4,7,7,4,5
13:35,11,9,9,7,4,9,10,8,8
13:36,8,8,6,7,9,5,4,8,7
13:37,10,7,4,8,3,6,8,6,7
13:38,10,4,7,10,8,12,4,8,8
13:39,11,7,3,7,8,13,8,7,8
13:40,6,7,5,6,11,3,6,7,6
13:41,7,11,4,14,5,12,6,8,8
13:42,8,14,7,6,6,8,8,8,8
13:43,6,3,5,6,11,12,5,6,7
13:44,10,7,5,7,5,4,11,7,7
13:45,9,6,10,8,9,6,7,8,8
13:46,3,7,6,5,4,6,3,5,5
13:47,4,4,8,13,6,10,7,7,7
13:48,11,10,5,6,9,6,14,8,9
13:49,9,5,11,2,9,4,4,7,6
13:50,4,5,11,8,6,9,13,7,8
13:51,9,8,5,7,10,16,7,8,9
13:52,9,9,9,5,9,9,6,8,8
13:53,0,4,3,12,9,5,4,6,5
13:54,11,12,4,7,9,12,6,9,9
13:55,5,3,3,5,12,7,7,6,6
13:56,7,6,7,9,10,7,12,8,8
13:57,8,5,4,5,6,8,8,6,6
13:58,7,4,8,15,4,9,12,8,8
13:59,8,4,10,7,8,7,11,7,8
14:00,3,10,10,12,6,7,9,8,8
14:01,8,6,7,4,12,12,6,7,8
14:02,5,6,2,11,7,10,12,6,8
14:03,13,8,9,1,8,4,14,8,8
14:04,9,9,7,11,11,8,7,9,9
14:05,10,3,5,9,9,10,10,7,8
14:06,4,7,10,5,4,7,6,6,6
14:07,7,6,9,14,5,12,6,8,8
14:08,8,6,10,5,8,8,5,7,7
14:09,8,9,7,4,6,15,10,7,8
14:10,7,6,12,5,9,9,8,8,8
14:11,6,8,14,7,4,4,6,8,7
14:12,6,12,6,14,6,13,15,9,10
14:13,14,4,4,3,11,6,8,7,7
14:14,6,6,10,9,7,8,11,8,8
14:15,10,3,2,8,9,5,6,6,6
14:16,3,8,0,2,10,11,11,5,6
14:17,9,7,7,7,10,8,9,8,8
14:18,13,6,11,9,7,12,8,9,9
14:19,3,3,7,4,11,4,4,6,5
14:20,12,4,9,8,15,5,10,10,9
14:21,6,7,9,7,8,7,11,7,8
14:22,8,9,10,6,14,6,0,9,8
14:23,7,9,1,8,11,13,5,7,8
14:24,11,7,15,5,4,8,16,8,9
14:25,11,7,4,12,8,9,6,8,8
14:26,4,5,11,14,5,10,7,8,8
14:27,11,10,1,5,7,7,14,7,8
14:28,11,9,9,3,7,7,4,8,7
14:29,6,9,7,10,6,11,4,8,8
14:30,5,7,2,7,7,9,10,6,7
14:31,4,5,6,10,10,9,3,7,7
14:32,10,10,2,9,3,4,8,7,7
14:33,6,3,8,8,6,6,5,6,6
14:34,6,9,3,6,6,8,11,6,7
14:35,4,1,6,10,4,6,4,5,5
14:36,3,5,1,3,9,6,3,4,4
14:37,8,10,9,2,4,9,14,7,8
14:38,9,9,7,8,6,7,8,8,8
14:39,9,6,7,8,6,15,10,7,9
14:40,11,9,7,4,9,8,10,8,8
14:41,6,6,8,6,5,7,4,6,6
14:42,5,2,7,7,6,5,6,5,5
14:43,9,5,5,8,6,10,4,7,7
14:44,9,7,9,10,6,6,10,8,8
14:45,3,6,9,10,11,3,5,8,7
14:46,21,7,5,2,6,7,5,8,8
14:47,6,9,6,4,9,15,2,7,7
14:48,5,7,7,10,3,10,6,6,7
14:49,7,8,10,7,7,7,7,8,8
14:50,2,10,4,10,7,9,6,7,7
14:51,10,14,5,7,5,12,11,8,9
14:52,5,8,8,5,14,4,8,8,7
14:53,7,3,3,7,11,12,9,6,7
14:54,12,4,8,9,4,3,10,7,7
14:55,7,4,9,7,10,5,9,7,7
14:56,13,7,9,8,12,7,9,10,9
14:57,14,7,8,9,9,10,5,9,9
14:58,7,2,8,9,9,10,3,7,7
14:59,8,7,7,9,7,4,11,8,8
15:00,8,4,6,11,3,7,10,6,7
15:01,4,7,8,10,9,7,11,8,8
15:02,10,9,8,6,8,5,8,8,8
15:03,7,13,7,4,4,12,7,7,8
15:04,7,8,4,8,6,13,10,7,8
15:05,8,11,8,9,21,8,5,11,10
15:06,8,5,10,10,9,5,4,8,7
15:07,11,8,9,11,6,7,5,9,8
15:08,9,5,13,4,12,15,11,9,10
15:09,9,8,3,8,8,4,8,7,7
15:10,12,10,4,10,6,8,5,8,8
15:11,8,5,6,6,3,8,7,6,6
15:12,5,10,11,13,7,5,4,9,8
15:13,12,9,14,9,14,4,8,12,10
15:14,13,10,7,10,3,7,15,9,9
15:15,7,3,10,7,10,13,9,7,8
15:16,10,7,8,4,10,14,3,8,8
15:17,8,7,6,4,11,10,5,7,7
15:18,6,7,5,13,7,9,5,8,7
15:19,11,10,5,14,3,15,5,9,9
15:20,8,5,13,3,12,4,10,8,8
15:21,7,13,7,14,5,8,7,9,9
15:22,14,8,5,4,9,7,6,8,8
15:23,9,11,7,8,7,9,4,8,8
15:24,9,6,5,7,12,7,4,8,7
15:25,9,6,7,6,12,6,11,8,8
15:26,10,4,6,8,10,8,7,8,8
15:27,12,13,12,6,14,5,4,11,9
15:28,12,13,8,4,10,11,13,9,10
15:29,12,8,4,9,6,5,5,8,7
15:30,13,10,9,16,14,6,10,12,11
15:31,15,11,9,10,14,8,5,12,10
15:32,8,5,11,8,9,5,11,8,8
15:33,6,9,3,10,8,16,6,7,8
15:34,14,12,10,16,6,3,1,12,9
15:35,7,10,6,14,10,9,6,9,9
15:36,9,11,9,8,16,2,7,11,9
15:37,6,6,15,12,6,8,6,9,8
15:38,18,10,8,16,18,5,9,14,12
15:39,9,5,7,11,4,9,9,7,8
15:40,12,12,14,14,14,10,11,13,12
15:41,11,6,5,7,12,8,5,8,8
15:42,11,11,8,11,8,6,6,10,9
15:43,11,8,9,8,9,8,5,9,8
15:44,5,9,5,13,7,15,7,8,9
15:45,4,7,8,6,15,1,7,8,7
15:46,8,7,8,12,14,3,1,10,8
15:47,12,8,10,10,3,7,10,9,9
15:48,7,7,3,10,13,4,3,8,7
15:49,11,5,14,6,7,6,8,9,8
15:50,5,8,7,13,13,9,8,9,9
15:51,9,17,6,9,12,9,7,11,10
15:52,14,7,6,10,13,12,8,10,10
15:53,11,8,4,10,9,4,5,8,7
15:54,7,8,11,15,18,12,12,12,12
15:55,9,11,8,11,6,8,9,9,9
15:56,8,6,3,9,19,11,7,9,9
15:57,2,4,8,9,7,4,10,6,6
15:58,6,5,5,9,11,8,7,7,7
15:59,6,9,13,7,8,5,8,9,8
16:00,6,6,15,11,7,7,10,9,9
16:01,7,8,7,7,13,17,10,8,10
16:02,6,2,11,11,12,8,9,8,8
16:03,5,5,11,10,9,7,6,8,8
16:04,7,6,4,7,5,4,6,6,6
16:05,11,10,9,9,10,9,5,10,9
16:06,18,6,7,6,10,5,5,9,8
16:07,11,9,8,7,11,6,8,9,9
16:08,16,9,8,7,13,11,8,11,10
16:09,10,7,4,6,7,9,9,7,7
16:10,2,13,6,12,8,11,7,8,8
16:11,16,8,7,8,11,3,11,10,9
16:12,5,4,13,13,6,3,6,8,7
16:13,13,7,5,11,10,9,10,9,9
16:14,12,7,10,12,6,7,5,9,8
16:15,4,7,9,10,9,9,5,8,8
16:16,6,10,12,9,7,8,6,9,8
16:17,6,8,7,8,10,6,1,8,7
16:18,12,5,7,6,11,3,14,8,8
16:19,16,3,10,7,6,10,4,8,8
16:20,9,6,11,7,13,11,2,9,8
16:21,6,5,3,6,10,8,7,6,6
16:22,8,8,2,15,9,6,5,8,8
16:23,8,8,11,6,4,7,4,7,7
16:24,9,6,5,8,8,7,4,7,7
16:25,11,9,5,6,8,7,8,8,8
16:26,10,10,7,3,12,11,9,8,9
16:27,6,18,6,7,8,6,2,9,8
16:28,5,5,12,3,6,7,14,6,7
16:29,13,7,5,5,10,7,6,8,8
16:30,6,8,13,9,9,10,5,9,9
16:31,4,8,5,8,8,17,4,7,8
16:32,12,9,8,13,9,4,12,10,10
16:33,10,4,11,8,7,10,5,8,8
16:34,9,9,7,6,5,5,9,7,7
16:35,6,5,7,11,12,9,1,8,7
16:36,11,8,7,6,10,11,9,8,9
16:37,9,6,11,10,2,6,6,8,7
16:38,7,8,11,9,7,4,11,8,8
16:39,8,11,12,9,8,6,4,10,8
16:40,14,3,5,7,11,4,3,8,7
16:41,11,9,4,12,10,10,12,9,10
16:42,13,11,8,6,8,8,7,9,9
16:43,11,10,9,9,10,4,10,10,9
16:44,14,5,11,5,5,8,5,8,8
16:45,13,7,11,6,11,10,3,10,9
16:46,11,9,9,14,8,3,8,10,9
16:47,12,7,8,7,13,3,4,9,8
16:48,8,9,9,14,6,11,8,9,9
16:49,13,18,11,3,10,18,8,11,12
16:50,10,9,6,8,13,9,9,9,9
16:51,8,15,9,9,8,9,6,10,9
16:52,13,3,9,8,10,5,3,9,7
16:53,8,8,2,10,10,5,10,8,8
16:54,12,8,8,10,13,13,3,10,10
16:55,11,7,7,11,9,5,3,9,8
16:56,7,6,9,9,12,8,3,9,8
16:57,5,8,8,11,15,6,7,9,9
16:58,12,4,8,7,10,11,7,8,8
16:59,11,9,10,11,9,1,3,10,8
17:00,14,7,13,13,3,4,7,10,9
17:01,6,11,9,8,4,8,11,8,8
17:02,9,9,6,13,14,14,5,10,10
17:03,5,3,10,11,5,9,4,7,7
17:04,6,16,9,11,5,4,6,9,8
17:05,10,9,4,9,5,6,7,7,7
17:06,9,7,10,8,14,10,1,10,8
17:07,5,14,7,8,17,4,5,10,9
17:08,13,6,9,6,8,8,5,8,8
17:09,13,6,10,7,15,8,8,10,10
17:10,10,11,6,3,7,7,10,7,8
17:11,13,10,12,12,12,7,5,12,10
17:12,7,4,5,2,2,10,5,4,5
17:13,10,10,8,9,11,5,6,10,8
17:14,7,10,11,5,5,5,5,8,7
17:15,11,9,8,14,7,10,2,10,9
17:16,8,13,10,4,6,9,8,8,8
17:17,8,7,8,9,12,4,5,9,8
17:18,7,12,10,8,6,4,4,9,7
17:19,6,5,8,8,8,6,4,7,6
17:20,11,13,14,16,5,8,8,12,11
17:21,14,14,7,7,7,4,5,10,8
17:22,12,5,7,4,7,13,6,7,8
17:23,8,8,10,9,10,7,3,9,8
17:24,9,9,5,5,6,10,7,7,7
17:25,10,7,8,6,6,4,5,7,7
17:26,7,14,7,7,4,7,8,8,8
17:27,17,4,6,11,5,6,2,9,7
17:28,12,12,7,5,6,14,7,8,9
17:29,13,18,9,5,13,5,4,12,10
17:30,11,6,11,8,10,3,9,9,8
17:31,9,8,8,9,9,8,4,9,8
17:32,6,8,4,7,9,4,3,7,6
17:33,16,6,6,5,7,9,2,8,7
17:34,7,12,8,6,3,10,8,7,8
17:35,6,6,8,6,4,14,4,6,7
17:36,8,11,8,7,6,7,4,8,7
17:37,5,8,6,10,8,10,10,7,8
17:38,6,8,8,4,7,5,7,7,6
17:39,5,12,8,9,13,11,8,9,9
17:40,11,4,8,8,11,6,7,8,8
17:41,6,6,14,10,9,8,2,9,8
17:42,11,13,9,6,5,8,1,9,8
17:43,17,8,8,8,6,7,3,9,8
17:44,10,5,6,11,6,12,4,8,8
17:45,13,13,7,7,14,3,6,11,9
17:46,15,3,9,11,6,4,7,9,8
17:47,3,7,5,3,1,8,5,4,5
17:48,7,9,14,9,7,4,5,9,8
17:49,3,6,11,10,12,6,4,8,7
17:50,10,12,6,8,6,7,5,8,8
17:51,5,5,6,8,8,6,4,6,6
17:52,9,8,1,6,10,9,2,7,6
17:53,5,15,8,9,8,3,6,9,8
17:54,7,2,11,7,14,8,4,8,8
17:55,7,8,5,6,6,11,6,6,7
17:56,6,11,2,7,8,5,5,7,6
17:57,10,6,9,8,12,4,4,9,8
17:58,3,11,4,8,8,9,7,7,7
17:59,5,10,7,11,6,6,6,8,7
18:00,12,9,4,8,10,6,4,9,8
18:01,8,8,4,6,10,7,7,7,7
18:02,7,12,10,8,11,4,4,10,8
18:03,11,7,5,11,8,9,3,8,8
18:04,7,10,12,10,8,7,4,9,8
18:05,8,7,7,11,5,2,7,8,7
18:06,10,5,5,10,8,7,2,8,7
18:07,14,8,7,9,6,10,5,9,8
18:08,7,10,11,5,7,7,3,8,7
18:09,5,6,11,6,5,5,3,7,6
18:10,7,11,7,8,2,10,4,7,7
18:11,13,12,4,8,6,8,4,9,8
18:12,7,10,9,8,8,3,8,8,8
18:13,9,7,10,4,6,9,6,7,7
18:14,11,12,12,9,8,3,5,10,9
18:15,8,9,4,16,6,8,9,9,9
18:16,10,5,4,4,6,8,8,6,6
18:17,3,7,10,10,6,6,7,7,7
18:18,9,9,5,11,5,8,3,8,7
18:19,7,7,13,10,2,9,1,8,7
18:20,9,6,5,10,8,4,5,8,7
18:21,3,14,6,8,8,7,3,8,7
18:22,8,5,5,8,10,15,4,7,8
18:23,12,6,6,8,10,3,2,8,7
18:24,7,6,7,11,10,7,7,8,8
18:25,12,7,3,7,2,5,3,6,6
18:26,10,1,11,3,7,1,4,6,5
18:27,8,4,7,11,7,7,4,7,7
18:28,8,3,7,3,4,6,3,5,5
18:29,12,3,7,7,2,5,3,6,6
18:30,9,7,2,6,9,5,1,7,6
18:31,6,5,8,8,6,6,4,7,6
18:32,9,8,0,11,13,6,8,8,8
18:33,3,5,6,14,8,2,8,7,7
18:34,6,5,12,9,11,3,8,9,8
18:35,4,6,4,3,10,6,4,5,5
18:36,8,11,8,6,6,4,15,8,8
18:37,3,5,6,14,7,4,4,7,6
18:38,7,7,10,9,5,5,7,8,7
18:39,10,6,8,8,7,7,5,8,7
18:40,5,9,7,5,7,1,0,7,5
18:41,5,12,5,9,7,9,6,8,8
18:42,8,5,11,9,8,11,10,8,9
18:43,11,10,13,4,18,2,2,11,9
18:44,3,5,10,8,8,13,5,7,7
18:45,5,12,15,3,4,7,4,8,7
18:46,5,7,6,8,12,5,1,8,6
18:47,5,10,8,4,2,3,3,6,5
18:48,11,13,8,12,10,7,6,11,10
18:49,7,8,13,8,10,5,8,9,8
18:50,5,7,4,12,7,10,5,7,7
18:51,3,4,3,6,3,10,4,4,5
18:52,15,12,8,10,7,4,3,10,8
18:53,8,9,5,5,7,6,8,7,7
18:54,5,5,7,8,14,3,5,8,7
18:55,13,6,5,10,5,3,8,8,7
18:56,4,5,15,11,9,7,5,9,8
18:57,7,7,7,8,12,11,6,8,8
18:58,2,7,6,11,9,9,6,7,7
18:59,5,10,10,5,7,2,4,7,6
19:00,10,7,4,13,5,11,7,8,8
19:01,3,4,5,8,3,4,6,5,5
19:02,12,3,7,9,8,7,5,8,7
19:03,10,7,5,9,8,5,9,8,8
19:04,6,5,4,3,6,4,1,5,4
19:05,6,8,3,6,9,7,8,6,7
19:06,5,2,12,5,4,1,2,6,4
19:07,15,3,11,8,9,2,5,9,8
19:08,13,9,3,4,2,3,5,6,6
19:09,9,13,7,10,12,9,3,10,9
19:10,7,3,7,6,4,8,6,5,6
19:11,11,7,9,11,8,9,1,9,8
19:12,12,6,12,12,9,4,5,10,9
19:13,7,5,5,9,5,3,5,6,6
19:14,5,2,9,14,5,10,4,7,7
19:15,9,4,7,14,9,8,9,9,9
19:16,6,11,8,10,5,5,7,8,7
19:17,8,6,7,7,11,7,1,8,7
19:18,5,8,5,6,9,2,2,7,5
19:19,2,6,5,12,4,4,3,6,5
19:20,8,8,14,7,4,2,4,8,7
19:21,5,7,7,4,11,5,2,7,6
19:22,8,10,8,4,9,5,1,8,6
19:23,7,3,7,16,5,4,2,8,6
19:24,5,6,6,9,8,8,6,7,7
19:25,5,11,7,8,5,5,2,7,6
19:26,4,0,10,8,4,5,2,5,5
19:27,9,7,7,3,6,12,5,6,7
19:28,5,6,7,5,3,6,3,5,5
19:29,5,4,7,9,4,5,3,6,5
19:30,6,6,8,15,3,8,3,8,7
19:31,7,5,8,2,6,5,3,6,5
19:32,5,4,5,8,3,8,3,5,5
19:33,5,10,3,6,6,3,5,6,5
19:34,7,8,2,11,4,9,0,6,6
19:35,5,2,5,12,11,8,0,7,6
19:36,6,5,4,6,1,6,5,4,5
19:37,7,6,7,10,5,6,4,7,6
19:38,4,5,8,6,6,3,2,6,5
19:39,9,8,5,8,8,2,4,8,6
19:40,2,6,6,4,8,9,3,5,5
19:41,6,8,6,7,6,5,5,7,6
19:42,4,9,4,15,8,3,1,8,6
19:43,5,7,8,6,6,2,3,6,5
19:44,7,6,6,9,6,13,4,7,7
19:45,5,9,1,7,2,3,10,5,5
19:46,2,10,8,7,10,5,2,7,6
19:47,6,1,1,7,10,6,4,5,5
19:48,5,8,5,6,7,1,4,6,5
19:49,3,9,13,3,12,6,1,8,7
19:50,3,8,4,10,6,1,0,6,5
19:51,6,5,7,5,8,3,2,6,5
19:52,5,5,5,2,10,8,6,5,6
19:53,9,3,6,12,2,8,1,6,6
19:54,9,12,8,6,5,7,3,8,7
19:55,6,2,1,5,7,2,3,4,4
19:56,5,5,3,5,6,7,4,5,5
19:57,2,5,9,1,4,7,5,4,5
19:58,6,6,7,2,5,6,6,5,5
19:59,2,4,6,3,3,4,1,4,3
20:00,6,9,7,3,1,6,3,5,5
20:01,9,4,4,5,2,5,2,5,4
20:02,3,3,11,3,4,4,3,5,4
20:03,3,10,3,5,4,7,1,5,5
20:04,6,5,10,3,5,6,3,6,5
20:05,3,1,5,7,3,5,2,4,4
20:06,5,10,6,5,4,5,3,6,5
20:07,0,7,4,8,6,4,4,5,5
20:08,5,11,7,8,7,8,3,8,7
20:09,9,6,4,5,1,1,0,5,4
20:10,4,3,4,10,10,8,3,6,6
20:11,8,5,10,4,2,3,8,6,6
20:12,9,0,10,5,4,3,3,6,5
20:13,4,15,6,6,5,4,4,7,6
20:14,9,5,7,2,7,6,7,6,6
20:15,4,17,9,4,4,3,6,8,7
20:16,6,6,11,11,4,3,4,8,6
20:17,10,8,7,7,5,7,3,7,7
20:18,4,7,4,3,3,2,5,4,4
20:19,4,11,5,7,8,4,5,7,6
20:20,3,5,5,5,4,10,8,4,6
20:21,1,4,0,5,4,9,4,3,4
20:22,3,3,2,2,8,1,3,4,3
20:23,5,2,9,4,4,4,3,5,4
20:24,7,13,1,5,8,4,5,7,6
20:25,5,3,5,5,8,5,3,5,5
20:26,5,0,10,3,2,6,3,4,4
20:27,2,7,1,7,3,1,6,4,4
20:28,3,4,2,2,2,3,3,3,3
20:29,6,4,8,7,12,6,7,7,7
20:30,0,2,2,3,8,3,0,3,3
20:31,4,3,4,2,6,3,2,4,3
20:32,5,7,4,6,3,3,6,5,5
20:33,6,5,3,5,4,5,7,5,5
20:34,6,4,3,1,3,2,4,3,3
20:35,5,8,2,4,4,6,3,5,5
20:36,5,3,8,1,4,4,2,4,4
20:37,5,6,6,6,5,3,3,6,5
20:38,5,2,4,6,5,7,3,4,5
20:39,3,5,2,5,6,2,1,4,3
20:40,2,2,7,2,4,3,4,3,3
20:41,3,6,5,4,7,2,1,5,4
20:42,8,7,4,7,4,3,6,6,6
20:43,4,0,6,3,5,3,3,4,3
20:44,4,4,3,4,9,7,4,5,5
20:45,7,10,5,3,7,2,2,6,5
20:46,3,2,3,6,7,5,4,4,4
20:47,6,4,1,4,6,3,5,4,4
20:48,3,2,5,2,6,5,3,4,4
20:49,3,2,4,6,3,6,5,4,4
20:50,7,2,3,7,4,0,2,5,4
20:51,3,8,5,5,5,7,3,5,5
20:52,4,6,5,2,2,5,6,4,4
20:53,6,3,5,5,7,3,0,5,4
20:54,4,8,5,3,7,6,2,5,5
20:55,4,8,5,6,2,1,3,5,4
20:56,3,2,3,2,2,2,8,2,3
20:57,1,5,4,7,7,2,0,5,4
20:58,2,3,4,2,3,1,4,3,3
20:59,5,5,4,6,4,4,2,5,4
21:00,1,3,1,7,7,4,6,4,4
21:01,4,7,5,8,3,4,3,5,5
21:02,2,3,3,4,5,3,5,3,4
21:03,4,5,3,3,4,7,2,4,4
21:04,6,2,8,3,2,4,3,4,4
21:05,5,1,2,8,1,0,3,3,3
21:06,4,3,8,4,8,1,5,5,5
21:07,5,5,5,5,5,4,2,5,4
21:08,4,3,3,3,7,3,3,4,4
21:09,2,5,2,2,8,4,2,4,4
21:10,8,8,1,5,3,2,3,5,4
21:11,6,5,5,4,2,4,5,4,4
21:12,3,4,2,5,5,3,1,4,3
21:13,6,6,4,4,6,3,4,5,5
21:14,6,4,5,7,5,3,6,5,5
21:15,8,1,4,5,5,4,2,5,4
21:16,0,5,4,6,3,0,3,4,3
21:17,6,4,7,2,5,7,5,5,5
21:18,4,3,5,4,2,5,1,4,3
21:19,5,3,4,5,3,4,2,4,4
21:20,2,4,5,3,4,4,7,4,4
21:21,1,5,1,2,8,4,2,3,3
21:22,2,3,5,4,5,3,5,4,4
21:23,3,0,2,5,3,6,3,3,3
21:24,5,2,4,5,4,7,3,4,4
21:25,2,3,1,5,2,2,5,3,3
21:26,4,2,7,7,5,10,3,5,5
21:27,4,4,4,8,7,6,3,5,5
21:28,2,4,3,4,0,4,6,3,3
21:29,3,3,6,6,4,2,5,4,4
21:30,4,0,7,4,5,2,0,4,3
21:31,3,2,4,2,7,2,3,4,3
21:32,3,6,3,3,2,2,2,3,3
21:33,5,7,3,3,7,6,6,5,5
21:34,3,5,3,1,2,6,4,3,3
21:35,1,2,2,2,2,0,2,2,2
21:36,5,3,2,10,3,3,0,5,4
21:37,7,2,1,3,4,2,1,3,3
21:38,8,5,3,4,5,5,3,5,5
21:39,5,6,7,3,3,5,5,5,5
21:40,2,7,6,4,5,3,1,5,4
21:41,4,5,3,6,5,4,3,5,4
21:42,6,3,3,8,3,2,1,5,4
21:43,3,5,3,4,4,2,1,4,3
21:44,3,3,3,2,1,7,2,2,3
21:45,0,4,1,4,2,3,6,2,3
21:46,7,4,5,2,3,4,2,4,4
21:47,5,3,4,2,3,0,2,3,3
21:48,4,4,3,3,2,3,7,3,4
21:49,3,4,6,4,2,6,5,4,4
21:50,4,4,1,4,4,4,4,3,4
21:51,1,2,4,1,4,2,1,2,2
21:52,3,3,4,3,2,1,0,3,2
21:53,2,3,2,1,4,3,2,2,2
21:54,3,4,3,6,5,5,0,4,4
21:55,3,6,6,2,4,0,6,4,4
21:56,1,5,3,4,3,3,1,3,3
21:57,2,2,3,4,8,3,3,4,4
21:58,6,3,3,6,4,6,1,4,4
21:59,6,2,4,4,8,5,3,5,5
22:00,1,3,3,4,5,4,1,3,3
22:01,3,6,3,2,5,3,5,4,4
22:02,3,4,4,4,5,4,1,4,4
22:03,7,2,5,0,2,3,4,3,3
22:04,1,4,3,8,10,4,2,5,5
22:05,4,1,4,2,5,7,3,3,4
22:06,4,3,3,4,4,6,2,4,4
22:07,3,1,5,4,7,3,2,4,4
22:08,3,5,5,2,3,1,2,4,3
22:09,4,4,2,5,4,6,3,4,4
22:10,1,4,6,1,5,4,4,3,4
22:11,3,3,6,7,3,6,6,4,5
22:12,2,4,2,5,2,2,7,3,3
22:13,7,4,4,6,5,4,2,5,5
22:14,6,3,0,3,2,5,4,3,3
22:15,3,0,8,4,3,4,3,4,4
22:16,3,1,4,7,6,2,1,4,3
22:17,3,7,0,3,7,6,4,4,4
22:18,0,2,4,5,5,4,1,3,3
22:19,3,0,3,1,4,3,4,2,3
22:20,6,3,5,5,2,2,1,4,3
22:21,2,2,3,3,3,3,3,3,3
22:22,2,1,3,2,6,4,2,3,3
22:23,2,3,1,3,2,7,4,2,3
22:24,5,1,6,6,4,2,4,4,4
22:25,2,5,3,1,3,3,0,3,2
22:26,4,7,6,0,6,2,4,5,4
22:27,2,10,3,4,7,2,2,5,4
22:28,3,6,2,3,3,2,1,3,3
22:29,4,1,1,1,4,4,1,2,2
22:30,1,2,1,1,3,1,1,2,1
22:31,4,2,5,2,3,2,1,3,3
22:32,4,2,2,1,4,4,2,3,3
22:33,2,1,5,0,6,2,2,3,3
22:34,2,4,4,2,2,3,2,3,3
22:35,3,1,5,3,7,2,2,4,3
22:36,2,1,1,2,3,0,2,2,2
22:37,2,3,2,5,3,4,0,3,3
22:38,5,0,2,4,1,1,7,2,3
22:39,1,3,2,3,1,5,1,2,2
22:40,1,4,5,7,4,2,0,4,3
22:41,3,9,1,2,2,1,2,3,3
22:42,1,2,1,4,3,4,0,2,2
22:43,1,3,0,2,5,4,1,2,2
22:44,3,2,3,2,0,1,2,2,2
22:45,3,2,3,4,7,0,0,4,3
22:46,2,3,3,1,5,2,3,3,3
22:47,4,4,2,1,5,3,1,3,3
22:48,3,3,3,2,3,2,2,3,3
22:49,0,4,2,2,3,2,2,2,2
22:50,1,1,1,0,3,2,2,1,1
22:51,2,3,0,4,4,2,1,3,2
22:52,0,2,0,4,8,3,0,3,2
22:53,2,3,2,1,2,0,1,2,2
22:54,2,2,0,2,4,7,2,2,3
22:55,5,1,2,5,4,6,0,3,3
22:56,1,2,3,4,2,4,4,2,3
22:57,2,3,0,0,3,7,0,2,2
22:58,3,2,0,0,0,3,0,1,1
22:59,5,3,1,4,3,3,0,3,3
23:00,2,1,3,1,3,2,2,2,2
23:01,2,3,1,0,5,3,6,2,3
23:02,1,2,4,4,5,0,2,3,3
23:03,1,2,2,2,3,2,5,2,2
23:04,2,3,3,2,4,8,3,3,4
23:05,5,2,5,2,3,7,1,3,4
23:06,1,1,2,3,4,0,3,2,2
23:07,4,1,2,4,3,4,2,3,3
23:08,2,0,0,2,1,2,0,1,1
23:09,3,1,0,1,4,2,5,2,2
23:10,1,2,0,2,1,0,1,1,1
23:11,4,2,5,1,6,3,4,4,4
23:12,2,5,4,2,2,4,1,3,3
23:13,3,1,1,1,1,3,1,1,2
23:14,1,0,0,4,4,1,1,2,2
23:15,4,3,1,0,2,2,1,2,2
23:16,0,2,2,2,5,2,2,2,2
23:17,0,1,1,3,1,5,1,1,2
23:18,0,1,0,0,2,5,0,1,1
23:19,1,1,7,1,5,5,0,3,3
23:20,1,4,0,0,3,1,0,2,1
23:21,1,1,5,4,6,4,2,3,3
23:22,1,1,0,2,1,2,3,1,1
23:23,4,2,0,1,2,7,2,2,3
23:24,1,2,1,5,1,1,2,2,2
23:25,1,0,2,2,1,2,2,1,1
23:26,2,4,3,2,3,3,2,3,3
23:27,1,3,3,3,2,4,1,2,2
23:28,3,0,2,1,3,3,1,2,2
23:29,3,5,2,4,0,3,2,3,3
23:30,2,1,1,1,0,4,0,1,1
23:31,0,3,0,2,1,1,3,1,1
23:32,0,0,3,5,1,6,3,2,3
23:33,0,0,4,2,2,0,0,2,1
23:34,2,2,1,1,0,2,3,1,2
23:35,0,0,3,2,6,4,0,2,2
23:36,3,1,2,0,3,4,1,2,2
23:37,3,0,0,2,1,2,0,1,1
23:38,3,1,2,0,6,5,2,2,3
23:39,1,1,2,0,1,5,1,1,2
23:40,3,1,3,1,2,3,2,2,2
23:41,0,3,2,1,1,1,1,1,1
23:42,2,2,0,0,2,2,0,1,1
23:43,2,2,0,2,3,3,0,2,2
23:44,0,3,1,1,4,2,2,2,2
23:45,2,0,3,2,1,5,1,2,2
23:46,2,1,1,2,4,0,2,2,2
23:47,0,2,0,0,1,6,1,1,1
23:48,3,3,1,2,2,1,0,2,2
23:49,1,1,1,0,2,0,1,1,1
23:50,0,2,2,1,2,3,1,1,2
23:51,3,1,1,3,4,1,0,2,2
23:52,2,0,1,1,3,2,1,1,1
23:53,2,0,4,0,2,0,3,2,2
23:54,2,0,0,0,0,6,2,0,1
23:55,0,0,2,1,3,4,2,1,2
23:56,0,1,1,1,5,1,1,2,1
23:57,1,2,1,2,2,0,1,2,1
23:58,2,2,3,1,1,4,1,2,2
23:59,1,0,2,1,5,1,0,2,1
,,,,,,,,,
Totals,,,,,,,,,
12H(7-19),5416,4909,4856,5065,5243,4993,4054,5098,4934
16H(6-22),6493,6033,5942,6238,6333,5874,4736,6208,5950
18H(6-24),6758,6301,6218,6515,6724,6236,4955,6503,6244
24H(0-24),6983,6542,6441,6767,6988,6538,5322,6744,6512
,,,,,,,,,
AM Peak,08:11,07:45,07:55,07:57,10:21,09:50,10:48,07:51,09:51
,442,427,392,393,417,469,401,393,387
,,,,,,,,,
PM Peak,16:34,16:46,16:32,15:18,15:23,12:04,13:28,15:21,15:12
,599,537,507,580,607,526,488,540,514
,,,,,,,,,
,,,,,,,,,
CA Traffic,,,,,,,,,VDA-net R2 15/11/2019