Site Number,00008023,Unnamed: 2,Site Reference,00008023.1,Unnamed: 5,Unnamed: 6,Lat/Lng.,"52.07076,1.17594",Unnamed: 9
Radar 8023 Colchester Road Ipswich,,,,,,,,,
Vehicle Count Report,,,,Week Begin: 09 December 2019,,,Channel:,Total Flow,
,,,,,,,,,
,,,,,,,,,
,2019-12-09 00:00:00,2019-12-10 00:00:00,2019-12-11 00:00:00,2019-12-12 00:00:00,2019-12-13 00:00:00,2019-12-14 00:00:00,2019-12-15 00:00:00,"5-Day
Ave.","7-Day
Ave."
00:00:00,4,2,0,2,1,5,9,2,3
00:01:00,1,3,3,1,1,1,9,2,3
00:02:00,2,2,3,0,4,5,7,2,3
00:03:00,2,2,1,0,5,3,9,2,3
00:04:00,0,1,2,3,0,5,3,1,2
00:05:00,2,1,0,3,0,2,7,1,2
00:06:00,2,1,1,1,0,7,4,1,2
00:07:00,2,1,1,4,4,6,12,2,4
00:08:00,2,3,8,5,3,4,10,4,5
00:09:00,1,2,1,2,2,3,11,2,3
00:10:00,2,1,0,0,0,5,6,1,2
00:11:00,1,1,2,1,5,5,6,2,3
00:12:00,0,3,0,3,2,2,11,2,3
00:13:00,0,2,3,1,1,3,4,1,2
00:14:00,2,1,0,4,4,3,5,2,3
00:15:00,0,2,1,1,1,7,8,1,3
00:16:00,2,0,1,1,5,8,5,2,3
00:17:00,2,0,2,3,1,9,6,2,3
00:18:00,1,1,1,2,1,0,6,1,2
00:19:00,2,0,2,3,2,6,3,2,3
00:20:00,1,5,1,2,3,9,7,2,4
00:21:00,0,1,1,3,1,7,6,1,3
00:22:00,2,2,1,1,1,1,7,1,2
00:23:00,1,0,0,0,4,4,9,1,3
00:24:00,2,2,3,2,1,4,4,2,3
00:25:00,0,0,4,2,1,6,4,1,2
00:26:00,1,1,2,2,2,5,5,2,3
00:27:00,0,1,1,4,5,5,6,2,3
00:28:00,1,1,2,2,4,5,7,2,3
00:29:00,0,0,1,0,2,4,4,1,2
00:30:00,1,0,0,1,0,3,4,0,1
00:31:00,0,2,1,2,0,1,2,1,1
00:32:00,0,1,0,2,0,2,6,1,2
00:33:00,1,2,0,0,0,4,4,1,2
00:34:00,1,1,1,1,0,5,8,1,2
00:35:00,2,1,1,1,1,5,10,1,3
00:36:00,0,2,2,0,0,1,2,1,1
00:37:00,1,0,0,1,1,5,7,1,2
00:38:00,2,1,1,2,2,4,6,2,3
00:39:00,2,2,1,0,0,4,3,1,2
00:40:00,2,2,1,1,4,6,1,2,2
00:41:00,0,0,0,2,3,3,4,1,2
00:42:00,3,0,1,2,3,7,4,2,3
00:43:00,0,0,1,2,2,1,2,1,1
00:44:00,3,1,1,1,3,5,7,2,3
00:45:00,1,0,3,1,1,2,3,1,2
00:46:00,1,0,0,1,0,2,1,0,1
00:47:00,2,3,3,0,0,4,8,2,3
00:48:00,1,2,0,1,1,1,2,1,1
00:49:00,1,1,2,1,1,1,4,1,2
00:50:00,1,0,0,0,1,3,5,0,1
00:51:00,2,0,0,0,1,3,4,1,1
00:52:00,2,0,1,1,0,4,6,1,2
00:53:00,1,1,1,2,2,3,4,1,2
00:54:00,0,1,1,1,1,2,3,1,1
00:55:00,0,1,1,1,3,3,4,1,2
00:56:00,0,0,1,2,1,3,4,1,2
00:57:00,2,0,1,1,3,1,2,1,1
00:58:00,0,2,0,2,1,3,5,1,2
00:59:00,2,0,1,0,0,4,5,1,2
01:00:00,0,0,2,1,3,2,3,1,2
01:01:00,0,0,1,0,1,2,4,0,1
01:02:00,0,0,0,0,0,3,4,0,1
01:03:00,1,1,0,0,1,6,2,1,2
01:04:00,1,0,0,1,2,4,4,1,2
01:05:00,1,0,2,0,0,0,3,1,1
01:06:00,0,1,0,2,1,1,0,1,1
01:07:00,0,1,0,2,2,0,3,1,1
01:08:00,0,1,1,5,0,0,3,1,1
01:09:00,2,0,0,3,0,2,2,1,1
01:10:00,0,0,1,2,0,4,6,1,2
01:11:00,1,0,0,0,0,2,7,0,1
01:12:00,1,1,0,1,2,3,1,1,1
01:13:00,1,0,0,1,2,2,4,1,1
01:14:00,0,0,1,0,2,0,3,1,1
01:15:00,1,0,0,0,1,2,0,0,1
01:16:00,0,2,0,1,1,1,3,1,1
01:17:00,1,0,1,0,0,4,4,0,1
01:18:00,0,0,0,2,1,1,3,1,1
01:19:00,0,0,0,1,1,6,3,0,2
01:20:00,1,0,1,0,1,3,3,1,1
01:21:00,0,0,2,0,0,2,3,0,1
01:22:00,0,3,0,0,0,1,4,1,1
01:23:00,0,0,0,0,0,1,1,0,0
01:24:00,1,1,1,0,1,1,5,1,1
01:25:00,0,1,0,0,0,3,2,0,1
01:26:00,0,0,0,1,2,0,0,1,0
01:27:00,0,0,0,0,3,2,2,1,1
01:28:00,0,0,0,1,2,3,3,1,1
01:29:00,0,1,2,2,1,1,4,1,2
01:30:00,0,0,1,1,0,6,2,0,1
01:31:00,0,0,1,0,0,1,4,0,1
01:32:00,1,1,0,2,1,1,2,1,1
01:33:00,2,0,2,4,1,3,1,2,2
01:34:00,1,0,0,1,1,0,2,1,1
01:35:00,0,1,0,0,0,2,2,0,1
01:36:00,0,0,0,0,0,1,1,0,0
01:37:00,1,1,1,0,0,0,6,1,1
01:38:00,1,1,2,1,0,4,3,1,2
01:39:00,2,0,2,1,2,3,0,1,1
01:40:00,1,0,3,1,2,2,4,1,2
01:41:00,0,1,0,1,0,1,4,0,1
01:42:00,0,0,0,1,1,1,2,0,1
01:43:00,0,1,0,0,0,0,4,0,1
01:44:00,0,0,0,3,0,1,1,1,1
01:45:00,1,1,0,1,0,3,2,1,1
01:46:00,0,0,0,0,0,1,1,0,0
01:47:00,0,0,0,0,1,1,3,0,1
01:48:00,1,0,0,0,1,0,1,0,0
01:49:00,0,0,1,0,2,2,3,1,1
01:50:00,0,0,2,1,0,0,3,1,1
01:51:00,0,1,0,0,1,2,2,0,1
01:52:00,0,2,0,1,2,1,3,1,1
01:53:00,0,0,0,1,1,1,5,0,1
01:54:00,0,2,1,0,0,1,3,1,1
01:55:00,1,0,0,1,0,0,1,0,0
01:56:00,0,0,0,0,0,1,2,0,0
01:57:00,0,1,1,0,0,1,1,0,1
01:58:00,0,0,0,0,0,0,1,0,0
01:59:00,2,1,0,0,1,3,0,1,1
02:00:00,1,2,0,0,0,2,3,1,1
02:01:00,0,0,0,0,0,0,0,0,0
02:02:00,0,0,1,0,1,0,1,0,0
02:03:00,2,0,0,0,0,1,0,0,0
02:04:00,1,0,0,0,0,2,1,0,1
02:05:00,0,0,0,0,1,1,4,0,1
02:06:00,1,1,0,0,2,0,1,1,1
02:07:00,1,0,0,0,0,1,2,0,1
02:08:00,0,1,0,2,1,3,1,1,1
02:09:00,1,0,1,0,1,0,0,1,0
02:10:00,0,2,0,1,0,3,3,1,1
02:11:00,0,0,1,2,2,0,0,1,1
02:12:00,0,0,0,0,1,0,0,0,0
02:13:00,1,0,0,2,0,0,1,1,1
02:14:00,0,0,0,1,1,1,0,0,0
02:15:00,1,3,1,0,3,0,0,2,1
02:16:00,2,0,0,0,1,1,1,1,1
02:17:00,1,0,1,0,1,1,3,1,1
02:18:00,0,0,2,1,0,1,1,1,1
02:19:00,1,0,0,0,1,2,1,0,1
02:20:00,3,1,0,0,0,0,0,1,1
02:21:00,0,0,0,2,0,0,3,0,1
02:22:00,1,1,1,0,2,0,3,1,1
02:23:00,1,0,0,1,1,2,1,1,1
02:24:00,0,0,0,1,2,1,3,1,1
02:25:00,0,0,0,0,0,2,0,0,0
02:26:00,1,0,0,0,1,2,2,0,1
02:27:00,2,1,0,0,0,0,2,1,1
02:28:00,1,0,0,0,0,1,1,0,0
02:29:00,0,0,0,0,0,0,0,0,0
02:30:00,0,0,1,0,1,1,2,0,1
02:31:00,1,0,2,0,2,0,1,1,1
02:32:00,1,0,1,0,0,1,4,0,1
02:33:00,0,0,0,1,0,1,1,0,0
02:34:00,0,0,1,0,0,2,0,0,0
02:35:00,1,0,0,0,0,1,1,0,0
02:36:00,0,0,0,0,0,1,1,0,0
02:37:00,1,0,0,0,0,1,4,0,1
02:38:00,1,0,1,1,2,3,1,1,1
02:39:00,0,1,0,0,0,1,0,0,0
02:40:00,0,1,0,2,1,1,0,1,1
02:41:00,0,0,1,0,1,2,0,0,1
02:42:00,1,0,2,0,1,1,0,1,1
02:43:00,2,1,1,0,1,0,2,1,1
02:44:00,0,0,1,0,1,1,0,0,0
02:45:00,0,0,1,0,1,0,3,0,1
02:46:00,0,1,0,0,0,1,1,0,0
02:47:00,0,1,0,0,0,0,0,0,0
02:48:00,1,0,0,1,0,0,3,0,1
02:49:00,0,1,0,0,1,0,1,0,0
02:50:00,0,1,0,0,2,2,0,1,1
02:51:00,0,2,0,1,0,2,0,1,1
02:52:00,0,1,0,0,1,3,0,0,1
02:53:00,0,0,0,0,1,0,1,0,0
02:54:00,0,0,0,0,1,0,1,0,0
02:55:00,1,1,0,0,0,0,1,0,0
02:56:00,0,0,0,1,0,1,1,0,0
02:57:00,2,0,1,0,0,1,2,1,1
02:58:00,0,1,0,1,0,1,1,0,1
02:59:00,0,0,1,2,0,1,1,1,1
03:00:00,0,0,1,0,0,2,0,0,0
03:01:00,1,0,0,1,0,1,0,0,0
03:02:00,0,0,0,2,1,1,2,1,1
03:03:00,2,0,0,0,0,1,0,0,0
03:04:00,0,0,1,0,0,0,0,0,0
03:05:00,1,0,1,0,0,0,0,0,0
03:06:00,0,0,1,1,1,1,1,1,1
03:07:00,0,2,0,2,0,2,0,1,1
03:08:00,0,0,1,0,1,2,1,0,1
03:09:00,2,0,1,0,1,2,1,1,1
03:10:00,0,0,0,1,1,0,2,0,1
03:11:00,0,0,1,0,0,1,1,0,0
03:12:00,0,0,0,0,2,2,0,0,1
03:13:00,1,0,0,1,0,2,0,0,1
03:14:00,0,2,0,1,2,1,0,1,1
03:15:00,0,2,1,3,1,1,0,1,1
03:16:00,1,0,1,0,0,0,1,0,0
03:17:00,0,0,1,1,1,2,0,1,1
03:18:00,0,0,2,0,0,0,2,0,1
03:19:00,1,0,0,1,0,1,0,0,0
03:20:00,0,0,1,0,1,1,1,0,1
03:21:00,0,0,3,0,0,0,1,1,1
03:22:00,0,0,1,1,1,0,1,1,1
03:23:00,1,1,1,4,0,1,1,1,1
03:24:00,2,2,1,1,0,0,1,1,1
03:25:00,1,0,0,1,1,0,1,1,1
03:26:00,1,0,1,1,0,2,0,1,1
03:27:00,1,0,0,1,0,0,1,0,0
03:28:00,1,1,1,0,0,3,0,1,1
03:29:00,0,2,1,0,0,1,0,1,1
03:30:00,0,0,0,0,1,0,0,0,0
03:31:00,1,1,1,0,0,0,1,1,1
03:32:00,1,2,1,0,0,1,0,1,1
03:33:00,0,2,0,1,3,1,1,1,1
03:34:00,1,0,1,2,0,3,1,1,1
03:35:00,0,0,1,1,1,0,0,1,0
03:36:00,0,1,0,0,0,1,1,0,0
03:37:00,0,0,0,2,1,1,0,1,1
03:38:00,1,0,0,1,3,0,0,1,1
03:39:00,0,0,0,0,0,1,2,0,0
03:40:00,0,0,1,1,0,0,0,0,0
03:41:00,0,0,1,0,0,1,0,0,0
03:42:00,0,1,1,1,0,1,1,1,1
03:43:00,0,0,0,1,2,2,1,1,1
03:44:00,1,1,1,0,0,2,0,1,1
03:45:00,0,1,0,1,1,1,0,1,1
03:46:00,0,1,0,0,2,2,1,1,1
03:47:00,1,0,0,0,1,1,0,0,0
03:48:00,1,3,0,0,0,0,1,1,1
03:49:00,2,1,0,0,1,1,0,1,1
03:50:00,2,0,0,1,0,3,1,1,1
03:51:00,1,4,0,0,0,1,0,1,1
03:52:00,0,1,1,0,0,0,2,0,1
03:53:00,1,3,1,1,1,2,1,1,1
03:54:00,3,0,0,1,3,2,1,1,1
03:55:00,3,0,1,1,0,0,3,1,1
03:56:00,0,1,0,0,1,0,0,0,0
03:57:00,0,1,0,1,1,1,1,1,1
03:58:00,1,1,0,1,1,0,3,1,1
03:59:00,0,0,0,1,0,0,3,0,1
04:00:00,0,1,1,1,3,1,1,1,1
04:01:00,1,1,1,1,1,2,1,1,1
04:02:00,0,1,1,0,0,1,0,0,0
04:03:00,2,1,1,1,2,1,1,1,1
04:04:00,2,2,3,1,1,0,1,2,1
04:05:00,1,1,2,2,1,2,1,1,1
04:06:00,1,0,2,1,1,2,0,1,1
04:07:00,2,0,2,1,1,1,2,1,1
04:08:00,2,1,0,1,1,2,0,1,1
04:09:00,0,0,1,0,1,1,1,0,1
04:10:00,0,1,0,1,2,1,0,1,1
04:11:00,1,0,0,0,0,0,1,0,0
04:12:00,1,0,1,0,2,1,0,1,1
04:13:00,1,1,0,1,1,0,3,1,1
04:14:00,1,0,1,0,0,1,0,0,0
04:15:00,2,1,0,3,1,0,0,1,1
04:16:00,0,0,1,0,3,1,0,1,1
04:17:00,2,1,3,0,1,0,2,1,1
04:18:00,1,1,1,1,1,3,0,1,1
04:19:00,1,0,0,1,1,2,1,1,1
04:20:00,0,0,1,0,0,0,1,0,0
04:21:00,0,1,0,0,0,1,0,0,0
04:22:00,2,1,3,1,0,1,3,1,2
04:23:00,2,1,1,1,0,2,0,1,1
04:24:00,1,0,1,0,1,1,1,1,1
04:25:00,1,0,0,2,1,1,1,1,1
04:26:00,1,4,0,1,3,1,1,2,2
04:27:00,0,1,1,1,1,0,1,1,1
04:28:00,0,5,0,0,1,2,1,1,1
04:29:00,3,1,2,4,0,2,2,2,2
04:30:00,1,0,0,1,1,3,0,1,1
04:31:00,1,1,1,0,4,2,1,1,1
04:32:00,1,2,0,1,0,3,0,1,1
04:33:00,2,0,3,0,2,0,0,1,1
04:34:00,1,1,3,1,1,0,1,1,1
04:35:00,4,1,2,1,0,3,0,2,2
04:36:00,4,3,2,1,3,1,1,3,2
04:37:00,4,5,0,1,4,1,0,3,2
04:38:00,2,2,0,4,2,2,2,2,2
04:39:00,1,3,1,4,2,1,2,2,2
04:40:00,2,2,1,1,0,1,2,1,1
04:41:00,2,0,2,2,1,1,0,1,1
04:42:00,3,1,1,1,0,3,0,1,1
04:43:00,1,3,3,0,3,1,0,2,2
04:44:00,1,2,2,0,3,0,1,2,1
04:45:00,2,2,2,1,4,1,1,2,2
04:46:00,1,2,2,2,1,1,1,2,1
04:47:00,1,3,4,1,4,0,0,3,2
04:48:00,5,1,2,2,1,0,2,2,2
04:49:00,4,4,4,1,2,1,0,3,2
04:50:00,1,2,2,4,2,1,0,2,2
04:51:00,4,1,1,1,4,1,0,2,2
04:52:00,2,1,2,2,0,1,0,1,1
04:53:00,4,1,3,0,3,1,3,2,2
04:54:00,1,3,0,4,3,2,1,2,2
04:55:00,3,3,4,3,1,0,0,3,2
04:56:00,2,2,3,2,2,1,1,2,2
04:57:00,0,3,4,2,1,0,1,2,2
04:58:00,3,1,0,3,1,2,1,2,2
04:59:00,3,2,1,2,1,0,1,2,1
05:00:00,0,1,1,4,3,3,1,2,2
05:01:00,2,0,4,1,3,2,0,2,2
05:02:00,3,0,3,4,3,1,2,3,2
05:03:00,5,3,1,6,2,1,0,3,3
05:04:00,2,2,1,1,2,2,2,2,2
05:05:00,3,1,3,0,0,0,2,1,1
05:06:00,2,3,3,1,1,2,0,2,2
05:07:00,2,0,2,2,0,2,0,1,1
05:08:00,5,4,0,1,4,2,2,3,3
05:09:00,2,4,3,4,0,1,1,3,2
05:10:00,4,2,3,3,2,0,1,3,2
05:11:00,3,4,3,3,2,1,2,3,3
05:12:00,3,1,0,4,5,4,0,3,2
05:13:00,5,5,2,0,2,1,1,3,2
05:14:00,3,3,3,2,3,3,2,3,3
05:15:00,3,2,7,5,2,1,3,4,3
05:16:00,3,3,5,6,4,0,2,4,3
05:17:00,2,2,7,6,4,2,0,4,3
05:18:00,6,8,5,2,3,1,1,5,4
05:19:00,1,4,3,2,7,1,2,3,3
05:20:00,3,2,2,2,3,2,2,2,2
05:21:00,4,3,3,3,2,5,1,3,3
05:22:00,4,0,2,4,0,2,0,2,2
05:23:00,3,6,4,5,5,1,3,5,4
05:24:00,10,2,8,3,5,4,2,6,5
05:25:00,4,6,3,1,3,3,1,3,3
05:26:00,3,4,2,3,2,1,0,3,2
05:27:00,6,6,6,4,2,1,2,5,4
05:28:00,4,5,1,2,6,4,1,4,3
05:29:00,3,4,6,5,6,0,0,5,3
05:30:00,5,5,14,9,7,2,1,8,6
05:31:00,3,5,5,5,5,1,2,5,4
05:32:00,7,4,8,3,5,1,1,5,4
05:33:00,4,4,5,5,4,2,0,4,3
05:34:00,6,6,13,6,2,5,0,7,5
05:35:00,5,9,6,9,4,1,2,7,5
05:36:00,4,2,3,6,8,2,1,5,4
05:37:00,8,6,6,4,2,2,2,5,4
05:38:00,8,6,10,4,9,3,1,7,6
05:39:00,5,5,10,6,6,3,2,6,5
05:40:00,6,10,1,9,3,4,1,6,5
05:41:00,4,8,8,8,8,3,2,7,6
05:42:00,4,7,7,4,9,4,1,6,5
05:43:00,5,7,2,6,3,7,1,5,4
05:44:00,10,2,9,11,4,4,0,7,6
05:45:00,3,5,6,3,7,5,2,5,4
05:46:00,11,7,11,7,5,1,1,8,6
05:47:00,5,5,8,4,2,4,1,5,4
05:48:00,3,7,2,6,10,3,0,6,4
05:49:00,4,5,8,5,7,1,2,6,5
05:50:00,6,7,10,7,3,4,2,7,6
05:51:00,8,11,7,7,6,0,0,8,6
05:52:00,5,11,5,5,7,2,1,7,5
05:53:00,8,5,2,11,11,4,1,7,6
05:54:00,4,8,7,8,5,2,1,6,5
05:55:00,4,3,8,10,4,6,2,6,5
05:56:00,4,2,5,7,5,0,0,5,3
05:57:00,0,11,3,6,4,3,2,5,4
05:58:00,7,4,4,5,8,0,1,6,4
05:59:00,6,6,3,4,6,4,0,5,4
06:00:00,10,9,7,4,6,2,3,7,6
06:01:00,7,9,5,6,4,1,1,6,5
06:02:00,7,5,6,10,7,0,1,7,5
06:03:00,9,3,10,10,3,6,2,7,6
06:04:00,5,7,6,6,7,3,3,6,5
06:05:00,5,8,4,9,6,2,0,6,5
06:06:00,8,5,3,5,6,2,2,5,4
06:07:00,5,11,10,14,12,5,2,10,8
06:08:00,4,14,7,7,5,3,4,7,6
06:09:00,7,14,9,10,6,3,1,9,7
06:10:00,5,11,7,7,6,1,1,7,5
06:11:00,9,11,6,10,7,2,2,9,7
06:12:00,7,7,16,3,13,3,2,9,7
06:13:00,9,8,8,14,13,1,2,10,8
06:14:00,10,9,7,12,8,2,10,9,8
06:15:00,15,12,4,10,5,4,2,9,7
06:16:00,4,9,10,6,9,8,1,8,7
06:17:00,9,9,10,15,10,1,2,11,8
06:18:00,11,8,11,8,12,11,1,10,9
06:19:00,9,12,13,4,9,1,2,9,7
06:20:00,5,16,13,15,14,7,5,13,11
06:21:00,9,13,13,14,6,4,2,11,9
06:22:00,15,10,11,6,9,4,1,10,8
06:23:00,10,10,13,12,10,4,5,11,9
06:24:00,22,16,13,16,14,6,5,16,13
06:25:00,15,11,8,15,18,2,2,13,10
06:26:00,9,12,14,12,18,4,2,13,10
06:27:00,9,11,11,14,13,6,5,12,10
06:28:00,13,16,16,17,15,4,6,15,12
06:29:00,23,9,15,10,12,7,4,14,11
06:30:00,17,13,12,9,16,3,3,13,10
06:31:00,9,8,13,16,10,4,1,11,9
06:32:00,13,14,18,11,14,6,7,14,12
06:33:00,19,19,11,12,18,3,2,16,12
06:34:00,19,16,9,22,14,6,3,16,13
06:35:00,15,11,11,14,13,5,8,13,11
06:36:00,17,14,14,14,9,7,3,14,11
06:37:00,16,19,13,18,17,7,4,17,13
06:38:00,14,15,15,15,10,6,3,14,11
06:39:00,13,22,22,15,11,6,4,17,13
06:40:00,17,11,24,18,13,8,4,17,14
06:41:00,21,15,12,19,20,3,9,17,14
06:42:00,13,24,16,15,12,7,2,16,13
06:43:00,22,18,21,12,23,7,3,19,15
06:44:00,14,15,14,19,15,17,9,15,15
06:45:00,15,16,21,15,15,2,11,16,14
06:46:00,13,14,9,15,14,12,10,13,12
06:47:00,22,12,18,26,16,7,5,19,15
06:48:00,18,16,23,27,19,6,1,21,16
06:49:00,15,19,16,9,19,7,6,16,13
06:50:00,25,21,24,15,14,4,1,20,15
06:51:00,11,28,21,20,16,8,2,19,15
06:52:00,14,26,11,14,14,8,3,16,13
06:53:00,15,9,19,14,20,14,7,15,14
06:54:00,28,12,16,18,12,11,3,17,14
06:55:00,28,21,27,14,18,13,3,22,18
06:56:00,18,14,27,20,18,5,5,19,15
06:57:00,14,20,8,18,18,8,5,16,13
06:58:00,22,19,18,15,14,6,2,18,14
06:59:00,11,21,24,24,21,7,1,20,16
07:00:00,13,13,20,17,20,9,2,17,13
07:01:00,21,18,18,26,15,4,6,20,15
07:02:00,23,22,15,16,23,6,3,20,15
07:03:00,33,13,21,22,20,1,3,22,16
07:04:00,19,25,24,17,16,8,1,20,16
07:05:00,23,25,22,20,26,4,4,23,18
07:06:00,15,20,25,22,29,9,4,22,18
07:07:00,28,25,25,19,26,4,2,25,18
07:08:00,18,28,27,34,32,10,5,28,22
07:09:00,29,27,18,29,22,9,3,25,20
07:10:00,36,24,28,27,14,8,4,26,20
07:11:00,38,25,29,29,13,7,9,27,21
07:12:00,38,26,36,28,18,13,5,29,23
07:13:00,39,33,20,23,16,7,6,26,21
07:14:00,23,21,36,23,33,7,3,27,21
07:15:00,29,38,37,35,34,8,11,35,27
07:16:00,32,35,29,35,34,14,5,33,26
07:17:00,27,35,20,39,35,6,5,31,24
07:18:00,21,31,33,29,29,7,6,29,22
07:19:00,32,30,27,44,30,9,7,33,26
07:20:00,35,36,27,38,31,11,13,33,27
07:21:00,32,33,31,24,33,10,8,31,24
07:22:00,23,24,41,33,33,10,4,31,24
07:23:00,24,33,45,36,21,8,7,32,25
07:24:00,40,27,38,30,23,8,7,32,25
07:25:00,20,35,33,30,28,10,9,29,24
07:26:00,26,34,35,34,30,11,4,32,25
07:27:00,33,26,29,40,28,8,6,31,24
07:28:00,35,39,27,22,22,10,3,29,23
07:29:00,29,27,35,43,23,7,6,31,24
07:30:00,31,27,31,26,33,11,4,30,23
07:31:00,35,33,29,41,26,6,2,33,25
07:32:00,34,35,33,34,23,24,7,32,27
07:33:00,36,40,31,46,47,13,1,40,31
07:34:00,31,33,36,52,34,12,3,37,29
07:35:00,47,35,37,40,28,9,4,37,29
07:36:00,37,42,23,25,25,9,5,30,24
07:37:00,38,37,43,34,36,4,8,38,29
07:38:00,34,33,34,32,31,10,8,33,26
07:39:00,41,30,33,34,36,9,3,35,27
07:40:00,30,43,30,28,30,18,8,32,27
07:41:00,36,22,27,34,38,15,5,31,25
07:42:00,31,42,32,40,36,15,4,36,29
07:43:00,26,36,39,31,30,11,5,32,25
07:44:00,48,41,30,40,36,17,2,39,31
07:45:00,31,31,41,23,33,6,14,32,26
07:46:00,28,37,39,35,23,11,4,32,25
07:47:00,36,28,27,21,40,11,5,30,24
07:48:00,33,21,33,29,32,12,4,30,23
07:49:00,34,31,33,39,35,17,5,34,28
07:50:00,38,35,34,28,35,13,4,34,27
07:51:00,37,31,31,29,30,6,2,32,24
07:52:00,32,31,29,29,32,10,12,31,25
07:53:00,22,29,37,36,33,12,5,31,25
07:54:00,15,27,37,32,36,9,5,29,23
07:55:00,36,37,38,46,27,13,2,37,28
07:56:00,31,41,27,26,34,16,9,32,26
07:57:00,21,41,36,38,35,10,5,34,27
07:58:00,34,30,34,28,25,19,10,30,26
07:59:00,39,34,28,26,27,8,9,31,24
08:00:00,32,40,29,28,30,18,5,32,26
08:01:00,26,24,32,42,36,9,3,32,25
08:02:00,27,29,37,33,26,15,10,30,25
08:03:00,36,22,33,29,42,13,11,32,27
08:04:00,33,37,45,37,36,12,3,38,29
08:05:00,40,34,26,29,35,15,4,33,26
08:06:00,31,21,25,35,42,10,4,31,24
08:07:00,32,35,29,24,38,14,4,32,25
08:08:00,48,34,38,36,33,12,4,38,29
08:09:00,32,34,14,41,28,14,5,30,24
08:10:00,37,26,32,25,46,20,6,33,27
08:11:00,29,37,41,36,38,11,9,36,29
08:12:00,40,35,26,33,17,12,9,30,25
08:13:00,32,37,23,35,24,12,1,30,23
08:14:00,27,34,30,31,28,11,4,30,24
08:15:00,34,29,23,22,26,22,3,27,23
08:16:00,26,35,33,38,22,16,6,31,25
08:17:00,27,29,25,32,19,12,10,26,22
08:18:00,36,18,31,30,39,28,6,31,27
08:19:00,33,21,38,27,19,22,13,28,25
08:20:00,29,33,24,32,26,19,13,29,25
08:21:00,30,28,24,26,30,13,5,28,22
08:22:00,27,23,27,31,20,9,8,26,21
08:23:00,27,25,22,21,16,15,5,22,19
08:24:00,22,25,29,19,26,15,10,24,21
08:25:00,21,29,34,31,25,13,8,28,23
08:26:00,33,35,25,24,31,17,5,30,24
08:27:00,38,34,31,32,35,9,6,34,26
08:28:00,26,22,34,31,31,11,12,29,24
08:29:00,33,27,26,33,28,16,8,29,24
08:30:00,31,30,32,29,21,12,9,29,23
08:31:00,28,31,33,38,23,13,13,31,26
08:32:00,25,26,22,23,24,19,7,24,21
08:33:00,28,24,29,32,19,23,10,26,24
08:34:00,27,28,30,24,32,12,9,28,23
08:35:00,28,33,33,29,22,26,14,29,26
08:36:00,32,28,28,31,26,24,8,29,25
08:37:00,20,31,31,25,30,27,4,27,24
08:38:00,26,33,32,33,26,30,10,30,27
08:39:00,26,27,24,34,27,19,11,28,24
08:40:00,35,25,25,31,26,14,12,28,24
08:41:00,18,27,18,26,28,35,10,23,23
08:42:00,25,29,32,35,33,18,11,31,26
08:43:00,26,29,35,29,31,19,12,30,26
08:44:00,29,25,39,31,39,32,12,33,30
08:45:00,39,28,31,36,20,17,9,31,26
08:46:00,39,27,39,30,30,22,9,33,28
08:47:00,30,23,39,26,29,24,5,29,25
08:48:00,28,29,36,26,31,18,15,30,26
08:49:00,30,36,35,28,37,15,7,33,27
08:50:00,24,24,27,36,27,23,9,28,24
08:51:00,20,29,40,31,34,19,17,31,27
08:52:00,33,29,36,37,36,22,9,34,29
08:53:00,39,39,28,26,28,21,7,32,27
08:54:00,23,34,28,33,30,25,13,30,27
08:55:00,36,30,25,29,22,19,11,28,25
08:56:00,23,26,34,36,25,20,13,29,25
08:57:00,34,40,29,35,24,22,9,32,28
08:58:00,20,35,37,27,30,21,12,30,26
08:59:00,33,27,21,31,35,21,10,29,25
09:00:00,34,27,38,23,19,19,7,28,24
09:01:00,22,34,23,32,33,15,12,29,24
09:02:00,29,29,20,28,20,19,14,25,23
09:03:00,31,33,31,34,19,24,5,30,25
09:04:00,26,32,27,27,31,17,16,29,25
09:05:00,31,24,18,29,32,23,10,27,24
09:06:00,22,23,33,22,31,16,14,26,23
09:07:00,26,32,26,42,16,23,15,28,26
09:08:00,27,34,31,24,28,26,12,29,26
09:09:00,37,18,24,30,30,19,4,28,23
09:10:00,36,30,20,32,28,20,19,29,26
09:11:00,32,27,28,45,24,27,11,31,28
09:12:00,32,32,28,27,27,18,10,29,25
09:13:00,33,34,29,35,36,31,18,33,31
09:14:00,27,32,29,34,25,32,8,29,27
09:15:00,30,29,23,20,20,25,15,24,23
09:16:00,25,35,27,33,28,38,13,30,28
09:17:00,32,33,24,25,22,19,19,27,25
09:18:00,29,29,32,36,30,28,9,31,28
09:19:00,29,22,32,40,34,21,19,31,28
09:20:00,27,19,24,23,18,27,20,22,23
09:21:00,35,28,25,23,25,29,12,27,25
09:22:00,35,29,24,21,37,21,18,29,26
09:23:00,28,26,30,42,32,38,16,32,30
09:24:00,31,23,19,25,33,31,13,26,25
09:25:00,32,28,29,27,27,27,21,29,27
09:26:00,31,21,35,23,27,33,17,27,27
09:27:00,30,29,22,29,36,33,24,29,29
09:28:00,42,27,25,27,32,26,16,31,28
09:29:00,36,26,26,15,31,34,11,27,26
09:30:00,22,25,35,23,26,20,19,26,24
09:31:00,21,17,34,32,25,22,8,26,23
09:32:00,21,26,27,25,22,20,16,24,22
09:33:00,34,26,36,22,14,37,24,26,28
09:34:00,36,23,33,28,39,27,16,32,29
09:35:00,28,28,32,23,33,19,13,29,25
09:36:00,21,28,42,22,33,38,16,29,29
09:37:00,20,32,31,35,21,25,23,28,27
09:38:00,35,24,22,32,23,29,24,27,27
09:39:00,38,20,33,33,41,35,25,33,32
09:40:00,40,36,34,27,30,25,24,33,31
09:41:00,33,25,34,25,20,30,33,27,29
09:42:00,27,37,28,27,29,32,18,30,28
09:43:00,30,35,46,30,26,31,19,33,31
09:44:00,23,29,28,33,31,28,24,29,28
09:45:00,18,25,32,22,20,28,26,23,24
09:46:00,22,33,26,29,29,22,32,28,28
09:47:00,21,23,27,20,27,35,25,24,25
09:48:00,29,24,33,30,27,35,13,29,27
09:49:00,27,31,30,40,31,26,25,32,30
09:50:00,26,28,29,30,38,35,25,30,30
09:51:00,28,33,26,37,27,35,25,30,30
09:52:00,20,41,34,15,32,32,37,28,30
09:53:00,37,31,36,30,24,42,26,32,32
09:54:00,25,24,23,19,24,24,19,23,23
09:55:00,30,31,28,24,28,38,33,28,30
09:56:00,25,38,26,28,30,30,19,29,28
09:57:00,24,34,27,29,28,40,26,28,30
09:58:00,28,25,36,19,21,21,29,26,26
09:59:00,25,16,29,34,26,29,19,26,25
10:00:00,31,35,34,24,18,26,17,28,26
10:01:00,18,25,29,22,32,42,24,25,27
10:02:00,35,23,30,30,22,33,22,28,28
10:03:00,32,20,22,30,29,22,28,27,26
10:04:00,19,29,25,36,26,42,22,27,28
10:05:00,35,37,32,26,24,23,24,31,29
10:06:00,23,25,24,31,17,31,22,24,25
10:07:00,25,23,21,32,31,38,25,26,28
10:08:00,23,13,29,32,34,37,27,26,28
10:09:00,34,36,26,31,29,34,27,31,31
10:10:00,34,31,30,26,19,28,29,28,28
10:11:00,22,24,21,30,38,35,26,27,28
10:12:00,33,38,18,20,23,32,17,26,26
10:13:00,23,26,18,26,24,33,26,23,25
10:14:00,23,27,25,26,34,34,28,27,28
10:15:00,26,25,31,16,31,31,22,26,26
10:16:00,30,24,29,30,14,29,32,25,27
10:17:00,36,15,32,20,33,27,26,27,27
10:18:00,32,34,27,27,25,35,31,29,30
10:19:00,29,31,27,25,28,40,26,28,29
10:20:00,31,26,32,26,26,30,33,28,29
10:21:00,35,26,33,17,30,36,29,28,29
10:22:00,22,19,17,20,25,22,28,21,22
10:23:00,21,26,27,4,25,35,27,21,24
10:24:00,25,29,25,28,32,26,29,28,28
10:25:00,25,23,27,31,27,35,34,27,29
10:26:00,36,39,25,43,21,32,19,33,31
10:27:00,30,30,27,32,19,35,38,28,30
10:28:00,21,12,24,39,12,34,21,22,23
10:29:00,26,33,23,27,36,28,25,29,28
10:30:00,30,24,24,29,28,44,36,27,31
10:31:00,30,29,34,28,32,24,25,31,29
10:32:00,23,30,19,29,27,32,26,26,27
10:33:00,26,30,26,22,24,20,30,26,25
10:34:00,30,25,25,16,34,28,35,26,28
10:35:00,25,32,26,35,19,31,34,27,29
10:36:00,30,31,33,23,37,29,33,31,31
10:37:00,19,33,24,40,29,37,37,29,31
10:38:00,18,21,28,35,24,32,28,25,27
10:39:00,30,32,26,28,26,18,33,28,28
10:40:00,24,27,30,27,25,29,21,27,26
10:41:00,39,37,14,34,27,37,25,30,30
10:42:00,21,31,31,30,36,30,26,30,29
10:43:00,34,28,18,34,24,37,29,28,29
10:44:00,29,30,22,22,22,29,24,25,25
10:45:00,31,33,27,31,34,37,30,31,32
10:46:00,25,44,30,27,30,31,27,31,31
10:47:00,29,31,23,25,19,43,20,25,27
10:48:00,22,29,28,26,23,27,38,26,28
10:49:00,22,35,22,21,26,34,32,25,27
10:50:00,38,40,18,36,34,39,22,33,32
10:51:00,22,29,38,26,39,21,26,31,29
10:52:00,33,28,27,35,33,28,36,31,31
10:53:00,24,18,30,31,21,32,21,25,25
10:54:00,26,31,30,24,29,27,27,28,28
10:55:00,25,22,33,25,31,40,23,27,28
10:56:00,30,23,27,27,33,37,31,28,30
10:57:00,18,30,35,38,26,28,28,29,29
10:58:00,34,26,33,23,36,28,26,30,29
10:59:00,31,26,19,25,21,27,22,24,24
11:00:00,27,28,26,25,21,35,31,25,28
11:01:00,20,23,12,33,33,33,32,24,27
11:02:00,28,22,25,33,21,41,27,26,28
11:03:00,36,28,24,37,32,35,17,31,30
11:04:00,19,12,26,24,29,26,32,22,24
11:05:00,28,31,25,33,26,30,19,29,27
11:06:00,25,21,38,21,33,28,29,28,28
11:07:00,31,23,32,34,27,26,29,29,29
11:08:00,24,26,30,34,30,43,26,29,30
11:09:00,30,19,22,26,22,33,22,24,25
11:10:00,32,14,33,29,32,26,39,28,29
11:11:00,34,28,33,27,22,22,18,29,26
11:12:00,18,36,27,31,21,26,19,27,25
11:13:00,30,28,19,28,34,30,28,28,28
11:14:00,24,21,26,39,35,24,25,29,28
11:15:00,26,29,21,35,38,37,29,30,31
11:16:00,21,26,30,36,24,27,24,27,27
11:17:00,31,34,30,22,25,36,30,28,30
11:18:00,29,32,32,26,32,37,36,30,32
11:19:00,25,32,19,30,25,36,23,26,27
11:20:00,17,30,26,30,27,26,40,26,28
11:21:00,31,28,25,31,26,39,20,28,29
11:22:00,24,19,23,33,26,29,26,25,26
11:23:00,32,27,26,34,29,32,33,30,30
11:24:00,36,26,25,25,28,27,29,28,28
11:25:00,20,20,18,25,26,24,24,22,22
11:26:00,20,18,25,30,26,29,25,24,25
11:27:00,26,26,31,25,26,26,31,27,27
11:28:00,41,16,34,36,23,23,28,30,29
11:29:00,22,25,33,22,31,27,19,27,26
11:30:00,27,29,29,26,23,35,24,27,28
11:31:00,33,21,22,28,27,38,24,26,28
11:32:00,33,39,26,26,33,38,27,31,32
11:33:00,24,32,29,31,26,35,25,28,29
11:34:00,24,40,30,31,28,36,30,31,31
11:35:00,30,27,28,27,27,20,23,28,26
11:36:00,29,26,29,27,23,23,15,27,25
11:37:00,32,20,25,27,21,39,38,25,29
11:38:00,19,34,34,37,32,35,25,31,31
11:39:00,22,13,32,38,35,41,32,28,30
11:40:00,29,34,39,26,37,32,26,33,32
11:41:00,34,27,34,30,34,29,25,32,30
11:42:00,26,28,22,26,20,31,20,24,25
11:43:00,38,38,25,26,47,28,32,35,33
11:44:00,25,26,21,37,32,50,26,28,31
11:45:00,31,19,35,30,33,33,38,30,31
11:46:00,31,33,33,30,32,41,30,32,33
11:47:00,30,25,35,23,22,30,25,27,27
11:48:00,30,36,35,28,31,33,33,32,32
11:49:00,32,31,29,25,31,34,37,30,31
11:50:00,23,29,34,32,29,38,26,29,30
11:51:00,25,21,38,31,26,38,30,28,30
11:52:00,40,35,31,31,26,31,36,33,33
11:53:00,20,31,25,30,34,41,20,28,29
11:54:00,28,25,25,37,27,36,29,28,30
11:55:00,42,18,30,33,28,34,37,30,32
11:56:00,38,25,18,28,41,29,36,30,31
11:57:00,27,28,20,35,31,33,31,28,29
11:58:00,25,33,28,45,29,33,38,32,33
11:59:00,22,40,34,25,29,37,30,30,31
12:00:00,16,17,24,34,38,32,32,26,28
12:01:00,25,19,25,32,21,27,24,24,25
12:02:00,22,35,29,21,35,40,23,28,29
12:03:00,19,17,23,22,32,39,20,23,25
12:04:00,30,31,28,37,35,29,29,32,31
12:05:00,37,36,20,28,34,32,32,31,31
12:06:00,23,28,34,34,16,26,31,27,27
12:07:00,22,23,32,33,31,35,40,28,31
12:08:00,25,33,28,37,43,32,26,33,32
12:09:00,29,43,26,33,34,26,32,33,32
12:10:00,36,30,28,30,31,40,41,31,34
12:11:00,27,26,31,39,23,30,29,29,29
12:12:00,32,30,28,32,33,41,26,31,32
12:13:00,31,40,31,24,37,27,43,33,33
12:14:00,32,25,21,29,41,34,17,30,28
12:15:00,26,31,35,30,22,38,27,29,30
12:16:00,23,40,21,32,38,36,30,31,31
12:17:00,31,28,30,35,31,31,30,31,31
12:18:00,23,18,27,24,30,33,22,24,25
12:19:00,14,25,26,23,34,32,40,24,28
12:20:00,30,39,50,37,27,19,27,37,33
12:21:00,32,24,32,31,23,38,30,28,30
12:22:00,34,28,24,32,24,36,32,28,30
12:23:00,27,36,23,37,19,32,30,28,29
12:24:00,29,26,34,36,29,32,20,31,29
12:25:00,37,31,33,29,35,33,37,33,34
12:26:00,30,29,31,27,33,38,28,30,31
12:27:00,27,28,34,31,26,32,35,29,30
12:28:00,32,22,28,26,37,35,35,29,31
12:29:00,25,23,17,26,30,39,30,24,27
12:30:00,24,25,25,28,24,31,29,25,27
12:31:00,27,33,34,27,28,35,26,30,30
12:32:00,16,22,32,35,23,32,42,26,29
12:33:00,19,26,21,22,25,37,34,23,26
12:34:00,36,33,27,24,35,32,33,31,31
12:35:00,24,31,23,26,31,31,29,27,28
12:36:00,35,28,29,26,24,37,38,28,31
12:37:00,21,31,29,33,38,33,36,30,32
12:38:00,30,24,30,22,32,38,31,28,30
12:39:00,34,28,34,34,31,28,40,32,33
12:40:00,20,25,16,26,23,45,33,22,27
12:41:00,28,30,27,26,24,36,32,27,29
12:42:00,30,31,31,24,35,29,37,30,31
12:43:00,25,31,25,19,21,42,31,24,28
12:44:00,37,28,41,27,31,32,38,33,33
12:45:00,32,28,26,34,21,33,35,28,30
12:46:00,32,21,31,32,27,33,37,29,30
12:47:00,32,32,25,22,30,38,36,28,31
12:48:00,41,30,26,29,31,28,37,31,32
12:49:00,24,18,22,19,30,30,35,23,25
12:50:00,30,40,34,25,32,33,34,32,33
12:51:00,31,27,23,27,35,31,39,29,30
12:52:00,35,20,35,30,30,33,31,30,31
12:53:00,21,34,28,29,24,27,30,27,28
12:54:00,28,26,20,27,39,35,35,28,30
12:55:00,33,28,22,22,33,25,34,28,28
12:56:00,21,27,27,25,30,32,34,26,28
12:57:00,25,6,16,32,22,35,38,20,25
12:58:00,29,20,33,37,35,37,28,31,31
12:59:00,22,30,40,34,27,39,24,31,31
13:00:00,15,29,34,22,43,32,42,29,31
13:01:00,30,35,30,28,43,27,37,33,33
13:02:00,25,33,14,31,35,33,33,28,29
13:03:00,31,30,25,16,35,33,25,27,28
13:04:00,29,34,27,34,31,34,20,31,30
13:05:00,26,22,29,21,26,30,19,25,25
13:06:00,28,32,18,36,38,34,29,30,31
13:07:00,20,27,25,43,26,35,32,28,30
13:08:00,28,26,29,19,28,27,25,26,26
13:09:00,23,34,23,22,33,24,32,27,27
13:10:00,32,33,29,24,37,32,32,31,31
13:11:00,23,29,26,33,38,32,29,30,30
13:12:00,32,25,21,27,26,45,33,26,30
13:13:00,35,30,22,30,36,42,30,31,32
13:14:00,28,38,21,25,23,32,20,27,27
13:15:00,23,33,23,27,36,40,24,28,29
13:16:00,29,38,35,31,32,31,26,33,32
13:17:00,31,31,30,33,39,29,34,33,32
13:18:00,25,32,34,26,34,28,20,30,28
13:19:00,22,29,27,28,32,38,26,28,29
13:20:00,21,33,27,21,37,30,22,28,27
13:21:00,20,31,25,28,24,23,35,26,27
13:22:00,8,21,25,27,26,34,28,21,24
13:23:00,28,19,35,31,23,37,25,27,28
13:24:00,22,23,28,32,37,32,39,28,30
13:25:00,27,27,31,24,21,29,27,26,27
13:26:00,39,29,30,33,28,33,26,32,31
13:27:00,36,31,28,30,23,33,26,30,30
13:28:00,29,25,16,22,29,31,24,24,25
13:29:00,37,23,31,36,33,30,34,32,32
13:30:00,32,20,22,37,36,30,37,29,31
13:31:00,27,27,16,26,30,28,29,25,26
13:32:00,26,25,30,22,29,32,20,26,26
13:33:00,18,25,30,27,35,35,21,27,27
13:34:00,26,15,29,29,33,24,29,26,26
13:35:00,33,15,29,25,32,26,24,27,26
13:36:00,40,30,28,30,27,41,37,31,33
13:37:00,29,35,24,20,36,39,28,29,30
13:38:00,23,30,29,33,28,25,28,29,28
13:39:00,30,36,31,28,27,23,25,30,29
13:40:00,38,44,21,24,32,32,18,32,30
13:41:00,28,27,30,32,30,33,22,29,29
13:42:00,23,24,19,29,22,39,29,23,26
13:43:00,23,29,33,30,24,35,26,28,29
13:44:00,17,27,30,31,32,34,24,27,28
13:45:00,24,17,32,35,26,28,32,27,28
13:46:00,34,41,26,26,22,29,22,30,29
13:47:00,26,28,31,46,39,30,38,34,34
13:48:00,31,28,35,20,38,31,32,30,31
13:49:00,20,35,24,26,31,24,23,27,26
13:50:00,36,29,34,24,23,37,24,29,30
13:51:00,29,26,28,27,17,37,29,25,28
13:52:00,24,28,26,23,30,36,31,26,28
13:53:00,31,28,22,29,25,35,24,27,28
13:54:00,33,35,35,34,25,30,33,32,32
13:55:00,31,33,28,41,26,25,21,32,29
13:56:00,16,23,19,29,34,24,23,24,24
13:57:00,40,21,22,28,19,37,27,26,28
13:58:00,23,26,23,32,38,31,36,28,30
13:59:00,24,19,29,38,21,29,42,26,29
14:00:00,35,37,23,26,20,26,24,28,27
14:01:00,32,34,28,31,37,27,15,32,29
14:02:00,30,29,25,29,24,34,25,27,28
14:03:00,29,27,24,41,34,20,29,31,29
14:04:00,27,36,37,28,45,32,28,35,33
14:05:00,28,30,22,32,33,32,25,29,29
14:06:00,29,28,16,31,34,24,23,28,26
14:07:00,32,36,40,29,27,43,37,33,35
14:08:00,25,38,33,27,30,39,27,31,31
14:09:00,31,37,23,27,22,22,36,28,28
14:10:00,32,27,38,32,28,29,19,31,29
14:11:00,37,31,30,36,24,27,28,32,30
14:12:00,36,36,29,30,33,35,31,33,33
14:13:00,23,39,32,33,24,35,22,30,30
14:14:00,28,25,28,40,33,34,28,31,31
14:15:00,31,19,35,34,30,23,33,30,29
14:16:00,34,32,23,29,25,26,24,29,28
14:17:00,24,37,27,28,19,32,27,27,28
14:18:00,35,38,37,34,36,38,27,36,35
14:19:00,38,36,27,28,27,29,27,31,30
14:20:00,38,38,32,17,40,19,29,33,30
14:21:00,25,25,30,21,38,29,22,28,27
14:22:00,24,33,20,40,32,24,27,30,29
14:23:00,31,37,30,40,24,32,24,32,31
14:24:00,28,36,30,39,28,29,18,32,30
14:25:00,27,18,23,29,33,26,22,26,25
14:26:00,26,32,28,32,20,27,33,28,28
14:27:00,34,34,29,27,34,33,27,32,31
14:28:00,33,24,30,44,30,35,26,32,32
14:29:00,31,25,39,31,40,24,29,33,31
14:30:00,35,24,25,30,33,25,22,29,28
14:31:00,26,19,34,41,32,25,29,30,29
14:32:00,31,31,37,28,33,35,27,32,32
14:33:00,39,28,27,23,34,34,35,30,31
14:34:00,31,31,26,26,34,37,25,30,30
14:35:00,32,34,34,35,26,24,27,32,30
14:36:00,33,30,36,36,34,30,17,34,31
14:37:00,27,35,40,21,32,39,23,31,31
14:38:00,40,31,32,27,34,31,28,33,32
14:39:00,39,27,27,23,14,37,11,26,25
14:40:00,28,29,24,27,36,33,20,29,28
14:41:00,25,31,33,23,26,27,18,28,26
14:42:00,29,31,18,25,34,26,17,27,26
14:43:00,24,31,29,28,42,32,27,31,30
14:44:00,35,39,38,39,24,33,29,35,34
14:45:00,34,25,37,33,33,31,33,32,32
14:46:00,30,32,29,38,35,30,24,33,31
14:47:00,35,32,27,28,40,21,29,32,30
14:48:00,40,22,35,30,33,25,32,32,31
14:49:00,29,34,31,33,36,28,31,33,32
14:50:00,31,28,36,38,36,33,33,34,34
14:51:00,30,35,30,23,30,32,29,30,30
14:52:00,26,28,25,37,34,30,20,30,29
14:53:00,32,38,42,32,29,27,31,35,33
14:54:00,21,37,31,34,28,21,34,30,29
14:55:00,35,28,23,39,39,29,28,33,32
14:56:00,35,36,36,31,29,32,31,33,33
14:57:00,36,35,32,25,31,37,22,32,31
14:58:00,28,30,30,28,23,22,22,28,26
14:59:00,29,32,35,33,33,28,19,32,30
15:00:00,33,35,26,27,29,36,11,30,28
15:01:00,28,29,31,35,36,23,24,32,29
15:02:00,36,31,26,34,25,37,23,30,30
15:03:00,25,31,32,32,27,27,27,29,29
15:04:00,35,22,34,30,28,19,30,30,28
15:05:00,38,31,32,29,36,24,32,33,32
15:06:00,26,29,28,42,24,32,12,30,28
15:07:00,26,32,34,31,26,29,24,30,29
15:08:00,28,34,31,31,36,28,35,32,32
15:09:00,39,29,31,16,32,31,33,29,30
15:10:00,34,27,25,30,34,28,21,30,28
15:11:00,19,32,37,34,29,36,31,30,31
15:12:00,26,28,22,22,31,29,42,26,29
15:13:00,23,29,33,37,26,29,30,30,30
15:14:00,20,28,32,29,30,24,26,28,27
15:15:00,23,31,33,19,35,24,20,28,26
15:16:00,27,26,25,26,28,22,25,26,26
15:17:00,29,27,28,26,21,21,30,26,26
15:18:00,28,19,23,15,26,25,32,22,24
15:19:00,22,33,24,24,27,28,26,26,26
15:20:00,22,25,17,21,24,23,30,22,23
15:21:00,22,28,23,21,30,21,29,25,25
15:22:00,24,19,35,19,30,36,35,25,28
15:23:00,29,25,29,28,15,16,21,25,23
15:24:00,31,24,26,20,22,31,30,25,26
15:25:00,26,25,35,20,25,32,19,26,26
15:26:00,28,31,20,26,31,26,26,27,27
15:27:00,22,32,35,40,21,27,21,30,28
15:28:00,20,36,35,25,35,17,34,30,29
15:29:00,29,37,29,19,35,23,30,30,29
15:30:00,18,27,37,28,31,37,23,28,29
15:31:00,36,19,32,21,36,22,30,29,28
15:32:00,12,29,29,35,30,21,29,27,26
15:33:00,17,26,25,29,27,37,22,25,26
15:34:00,29,23,34,31,28,26,24,29,28
15:35:00,31,31,32,34,30,26,20,32,29
15:36:00,28,33,31,34,38,25,24,33,30
15:37:00,22,35,29,32,34,32,28,30,30
15:38:00,38,35,27,27,36,29,26,33,31
15:39:00,36,32,26,33,23,29,21,30,29
15:40:00,30,27,32,24,32,30,20,29,28
15:41:00,30,29,27,25,24,22,20,27,25
15:42:00,25,28,27,31,37,16,21,30,26
15:43:00,24,34,24,26,36,18,35,29,28
15:44:00,26,30,23,33,26,39,24,28,29
15:45:00,32,24,23,31,32,28,31,28,29
15:46:00,22,29,32,39,39,24,26,32,30
15:47:00,36,34,27,36,29,33,26,32,32
15:48:00,31,29,31,34,33,25,30,32,30
15:49:00,25,31,24,31,31,29,28,28,28
15:50:00,30,28,30,38,26,31,21,30,29
15:51:00,32,41,25,30,37,21,22,33,30
15:52:00,36,33,25,28,30,20,28,30,29
15:53:00,40,26,33,23,31,22,26,31,29
15:54:00,33,27,31,33,29,23,29,31,29
15:55:00,31,29,29,38,37,27,31,33,32
15:56:00,26,37,29,34,43,26,29,34,32
15:57:00,29,37,34,24,41,36,24,33,32
15:58:00,25,27,32,36,39,33,21,32,30
15:59:00,28,26,33,29,27,22,28,29,28
16:00:00,30,34,34,32,35,27,22,33,31
16:01:00,35,28,32,36,33,29,20,33,30
16:02:00,19,29,19,31,39,25,29,27,27
16:03:00,39,33,32,30,27,26,26,32,30
16:04:00,34,26,42,22,40,31,24,33,31
16:05:00,36,41,28,36,39,26,30,36,34
16:06:00,36,33,33,34,23,41,25,32,32
16:07:00,38,28,31,34,27,29,25,32,30
16:08:00,36,29,30,28,36,34,26,32,31
16:09:00,35,37,36,35,41,27,25,37,34
16:10:00,40,36,36,31,29,20,23,34,31
16:11:00,31,36,34,34,22,18,28,31,29
16:12:00,31,39,30,24,43,16,28,33,30
16:13:00,41,18,27,32,36,27,35,31,31
16:14:00,28,28,38,39,35,26,24,34,31
16:15:00,35,33,33,35,32,33,22,34,32
16:16:00,42,30,31,33,29,35,25,33,32
16:17:00,33,39,39,38,26,26,39,35,34
16:18:00,28,31,32,32,43,24,27,33,31
16:19:00,34,37,30,27,33,23,19,32,29
16:20:00,30,30,33,29,37,26,33,32,31
16:21:00,28,30,30,27,30,27,35,29,30
16:22:00,35,29,33,26,27,25,36,30,30
16:23:00,38,23,30,25,23,27,27,28,28
16:24:00,31,31,24,38,43,27,27,33,32
16:25:00,38,41,28,26,25,26,27,32,30
16:26:00,41,34,31,41,25,29,26,34,32
16:27:00,40,41,40,35,38,29,27,39,36
16:28:00,35,35,29,29,31,24,25,32,30
16:29:00,33,23,40,32,35,24,30,33,31
16:30:00,25,39,37,34,27,25,28,32,31
16:31:00,41,32,32,32,41,31,34,36,35
16:32:00,25,40,45,40,38,31,22,38,34
16:33:00,39,37,28,34,39,22,26,35,32
16:34:00,37,30,25,33,34,30,29,32,31
16:35:00,35,32,38,39,26,27,22,34,31
16:36:00,30,26,35,39,45,23,18,35,31
16:37:00,25,30,35,40,28,27,22,32,30
16:38:00,29,36,28,35,33,30,26,32,31
16:39:00,30,35,39,43,24,17,21,34,30
16:40:00,32,34,39,24,32,19,25,32,29
16:41:00,31,29,36,34,48,36,16,36,33
16:42:00,35,29,33,26,33,37,21,31,31
16:43:00,27,33,29,39,41,31,19,34,31
16:44:00,34,39,35,40,28,39,22,35,34
16:45:00,27,30,29,23,36,25,27,29,28
16:46:00,36,45,37,31,40,27,14,38,33
16:47:00,28,32,38,30,37,28,22,33,31
16:48:00,33,39,33,30,34,27,15,34,30
16:49:00,30,19,38,36,35,29,27,32,31
16:50:00,36,37,27,34,38,27,16,34,31
16:51:00,26,30,38,33,35,31,17,32,30
16:52:00,32,33,36,35,29,37,16,33,31
16:53:00,45,38,37,32,36,29,31,38,35
16:54:00,31,30,32,36,34,31,28,33,32
16:55:00,28,36,36,33,35,26,18,34,30
16:56:00,30,36,34,31,29,32,25,32,31
16:57:00,31,33,41,24,31,23,24,32,30
16:58:00,34,32,25,40,36,20,16,33,29
16:59:00,27,35,32,39,27,18,22,32,29
17:00:00,35,38,35,34,40,24,24,36,33
17:01:00,27,38,28,27,37,30,16,31,29
17:02:00,26,34,33,37,28,29,24,32,30
17:03:00,33,30,35,30,39,30,26,33,32
17:04:00,28,43,31,34,36,43,25,34,34
17:05:00,46,29,29,32,35,27,18,34,31
17:06:00,38,27,27,46,32,33,22,34,32
17:07:00,32,30,24,34,37,26,18,31,29
17:08:00,39,42,42,31,39,33,30,39,37
17:09:00,31,29,33,28,25,22,10,29,25
17:10:00,35,41,30,32,32,32,29,34,33
17:11:00,31,34,31,37,26,29,18,32,29
17:12:00,32,34,33,26,31,24,19,31,28
17:13:00,34,36,30,29,25,30,20,31,29
17:14:00,40,32,31,35,39,31,19,35,32
17:15:00,36,31,44,41,40,45,23,38,37
17:16:00,34,38,37,36,31,31,12,35,31
17:17:00,39,40,32,46,35,34,16,38,35
17:18:00,35,33,34,25,29,31,23,31,30
17:19:00,41,39,29,40,39,25,23,38,34
17:20:00,36,27,31,38,34,37,25,33,33
17:21:00,29,48,37,31,39,30,12,37,32
17:22:00,36,36,37,34,33,27,18,35,32
17:23:00,29,34,27,37,34,22,21,32,29
17:24:00,34,34,39,31,31,29,21,34,31
17:25:00,27,31,37,33,32,33,15,32,30
17:26:00,37,31,35,31,33,23,31,33,32
17:27:00,41,37,27,35,31,37,20,34,33
17:28:00,43,30,32,36,22,31,12,33,29
17:29:00,28,36,25,36,35,31,20,32,30
17:30:00,33,22,36,30,41,27,14,32,29
17:31:00,30,30,28,28,30,30,27,29,29
17:32:00,31,42,42,32,20,29,21,33,31
17:33:00,40,34,31,23,34,29,15,32,29
17:34:00,29,37,36,32,30,29,18,33,30
17:35:00,34,28,27,37,27,29,15,31,28
17:36:00,28,32,47,31,34,17,18,34,30
17:37:00,26,36,31,39,34,34,14,33,31
17:38:00,34,28,44,24,35,34,19,33,31
17:39:00,34,41,33,32,42,27,11,36,31
17:40:00,41,42,32,32,30,31,14,35,32
17:41:00,36,29,38,36,30,38,14,34,32
17:42:00,33,38,32,26,40,25,15,34,30
17:43:00,39,30,33,34,35,31,16,34,31
17:44:00,36,25,24,38,28,25,25,30,29
17:45:00,31,35,36,39,36,33,18,35,33
17:46:00,32,42,38,36,34,29,14,36,32
17:47:00,29,32,33,34,34,29,13,32,29
17:48:00,36,36,33,40,38,32,13,37,33
17:49:00,34,43,42,36,35,26,15,38,33
17:50:00,40,30,40,41,35,31,13,37,33
17:51:00,29,33,33,29,37,25,13,32,28
17:52:00,26,28,26,27,31,19,20,28,25
17:53:00,32,42,43,34,31,31,14,36,32
17:54:00,42,34,39,31,30,29,16,35,32
17:55:00,31,30,34,30,28,31,15,31,28
17:56:00,24,30,28,37,20,30,20,28,27
17:57:00,29,32,32,30,40,24,11,33,28
17:58:00,26,28,35,32,17,27,14,28,26
17:59:00,30,36,28,39,23,26,12,31,28
18:00:00,30,34,31,27,36,21,20,32,28
18:01:00,23,27,37,34,36,24,22,31,29
18:02:00,22,29,31,37,26,35,17,29,28
18:03:00,32,30,34,29,29,21,19,31,28
18:04:00,28,25,23,36,31,22,14,29,26
18:05:00,33,37,33,34,23,33,15,32,30
18:06:00,30,24,31,28,32,22,22,29,27
18:07:00,34,42,29,33,29,22,21,33,30
18:08:00,32,26,26,42,31,33,18,31,30
18:09:00,30,33,27,34,25,23,18,30,27
18:10:00,30,34,34,42,27,25,18,33,30
18:11:00,24,31,31,30,22,19,26,28,26
18:12:00,23,41,28,31,32,15,11,31,26
18:13:00,37,30,35,45,28,19,18,35,30
18:14:00,20,35,34,31,27,23,18,29,27
18:15:00,26,26,31,36,21,28,16,28,26
18:16:00,30,39,27,43,32,30,16,34,31
18:17:00,36,27,36,38,28,23,18,33,29
18:18:00,28,32,34,33,25,25,13,30,27
18:19:00,36,39,26,38,30,21,11,34,29
18:20:00,24,36,30,32,13,26,7,27,24
18:21:00,34,33,30,32,28,19,24,31,29
18:22:00,21,39,31,33,30,21,14,31,27
18:23:00,40,33,31,38,23,33,20,33,31
18:24:00,31,25,36,24,37,27,12,31,27
18:25:00,26,26,39,30,15,26,13,27,25
18:26:00,41,30,31,17,29,32,20,30,29
18:27:00,19,29,35,32,26,29,19,28,27
18:28:00,23,35,39,37,32,21,15,33,29
18:29:00,29,29,31,32,36,20,21,31,28
18:30:00,21,35,33,29,22,17,20,28,25
18:31:00,28,33,27,28,26,17,15,28,25
18:32:00,30,31,18,32,24,18,14,27,24
18:33:00,26,24,28,35,24,12,22,27,24
18:34:00,28,25,35,35,19,26,10,28,25
18:35:00,30,24,30,25,21,23,15,26,24
18:36:00,26,34,33,24,29,24,21,29,27
18:37:00,30,34,34,33,28,24,11,32,28
18:38:00,27,27,26,30,33,27,14,29,26
18:39:00,30,28,25,27,30,33,20,28,28
18:40:00,22,32,21,33,39,20,17,29,26
18:41:00,29,19,34,33,27,23,14,28,26
18:42:00,23,31,27,29,35,28,15,29,27
18:43:00,20,30,31,31,13,11,13,25,21
18:44:00,28,32,33,25,31,27,16,30,27
18:45:00,28,21,28,21,28,24,16,25,24
18:46:00,28,29,19,23,32,26,17,26,25
18:47:00,28,27,26,31,31,24,14,29,26
18:48:00,28,32,30,29,24,13,9,29,24
18:49:00,31,34,26,28,29,30,13,30,27
18:50:00,29,32,33,23,28,32,15,29,27
18:51:00,40,23,33,34,31,23,13,32,28
18:52:00,34,27,27,31,40,29,21,32,30
18:53:00,35,25,32,28,27,29,13,29,27
18:54:00,27,22,22,38,23,18,18,26,24
18:55:00,28,32,23,20,31,29,12,27,25
18:56:00,30,34,20,29,23,26,15,27,25
18:57:00,26,28,34,20,36,25,19,29,27
18:58:00,36,27,37,26,36,22,13,32,28
18:59:00,19,29,32,22,37,18,15,28,25
19:00:00,31,29,18,28,33,33,17,28,27
19:01:00,32,31,28,31,24,25,13,29,26
19:02:00,26,34,16,23,31,34,10,26,25
19:03:00,35,31,21,24,29,16,16,28,25
19:04:00,25,28,20,28,40,24,19,28,26
19:05:00,26,28,21,28,33,18,12,27,24
19:06:00,29,34,21,23,26,21,18,27,25
19:07:00,24,30,30,33,35,21,13,30,27
19:08:00,19,33,36,23,42,26,14,31,28
19:09:00,30,24,26,35,38,23,13,31,27
19:10:00,26,34,30,44,26,18,20,32,28
19:11:00,26,28,21,31,35,21,19,28,26
19:12:00,21,40,23,24,34,23,15,28,26
19:13:00,32,27,24,28,32,20,6,29,24
19:14:00,26,35,28,43,31,14,13,33,27
19:15:00,23,25,15,30,20,15,11,23,20
19:16:00,27,25,25,35,34,14,12,29,25
19:17:00,29,27,30,24,27,21,15,27,25
19:18:00,29,27,33,27,28,25,13,29,26
19:19:00,30,30,27,31,32,17,16,30,26
19:20:00,24,27,23,19,23,32,12,23,23
19:21:00,29,24,36,27,28,12,17,29,25
19:22:00,17,36,24,29,30,17,26,27,26
19:23:00,28,30,31,32,24,16,18,29,26
19:24:00,35,25,21,22,27,11,19,26,23
19:25:00,25,24,20,25,21,12,18,23,21
19:26:00,30,27,16,11,27,18,16,22,21
19:27:00,29,21,27,30,20,22,14,25,23
19:28:00,17,26,26,15,21,18,9,21,19
19:29:00,19,20,26,40,23,13,11,26,22
19:30:00,16,29,23,28,27,23,7,25,22
19:31:00,19,33,15,26,27,21,12,24,22
19:32:00,11,21,13,22,28,27,14,19,19
19:33:00,25,29,22,20,20,19,15,23,21
19:34:00,19,13,22,21,15,20,18,18,18
19:35:00,22,24,33,23,27,21,20,26,24
19:36:00,20,21,14,21,23,23,21,20,20
19:37:00,19,20,30,28,15,10,11,22,19
19:38:00,20,31,15,18,21,21,16,21,20
19:39:00,19,19,23,23,18,20,9,20,19
19:40:00,32,32,16,31,25,15,16,27,24
19:41:00,22,29,21,26,26,18,14,25,22
19:42:00,17,26,18,21,21,17,18,21,20
19:43:00,16,16,22,24,30,16,11,22,19
19:44:00,14,18,18,21,15,10,11,17,15
19:45:00,20,23,21,28,16,15,16,22,20
19:46:00,22,20,15,24,15,19,12,19,18
19:47:00,17,19,15,22,23,19,15,19,19
19:48:00,19,18,11,23,13,14,20,17,17
19:49:00,14,18,21,27,25,15,4,21,18
19:50:00,16,29,31,27,15,14,10,24,20
19:51:00,12,23,28,25,13,10,15,20,18
19:52:00,19,20,15,20,24,10,16,20,18
19:53:00,6,20,14,21,13,14,15,15,15
19:54:00,20,24,23,27,17,10,8,22,18
19:55:00,13,18,26,13,10,10,13,16,15
19:56:00,12,19,20,17,16,21,7,17,16
19:57:00,20,9,15,17,13,13,18,15,15
19:58:00,17,29,16,33,9,13,13,21,19
19:59:00,15,15,10,23,14,13,16,15,15
20:00:00,11,30,24,21,16,11,9,20,17
20:01:00,23,24,22,18,17,5,5,21,16
20:02:00,15,15,18,26,15,18,11,18,17
20:03:00,9,22,17,25,25,17,13,20,18
20:04:00,14,22,14,18,16,15,10,17,16
20:05:00,10,15,18,19,19,12,23,16,17
20:06:00,16,11,11,25,13,19,13,15,15
20:07:00,24,24,22,18,19,16,12,21,19
20:08:00,14,16,16,18,12,8,3,15,12
20:09:00,14,17,9,22,23,15,12,17,16
20:10:00,22,13,20,15,16,7,12,17,15
20:11:00,22,31,14,23,11,15,15,20,19
20:12:00,15,9,29,10,21,8,15,17,15
20:13:00,15,33,22,20,9,11,13,20,18
20:14:00,13,25,23,18,16,18,15,19,18
20:15:00,13,23,25,17,15,15,15,19,18
20:16:00,20,22,23,14,12,15,12,18,17
20:17:00,20,16,20,21,13,11,5,18,15
20:18:00,16,14,17,22,13,16,16,16,16
20:19:00,14,18,17,18,13,10,21,16,16
20:20:00,19,25,11,19,14,10,14,18,16
20:21:00,15,14,25,20,13,4,14,17,15
20:22:00,12,18,11,23,18,18,10,16,16
20:23:00,18,17,18,21,10,12,13,17,16
20:24:00,17,19,17,17,12,11,12,16,15
20:25:00,13,12,10,15,15,2,11,13,11
20:26:00,8,14,13,15,18,8,7,14,12
20:27:00,11,15,12,18,15,9,12,14,13
20:28:00,12,17,12,15,15,7,8,14,12
20:29:00,18,8,21,17,15,12,6,16,14
20:30:00,12,16,13,12,15,13,16,14,14
20:31:00,10,11,15,18,9,10,9,13,12
20:32:00,11,9,16,16,10,12,14,12,13
20:33:00,9,25,7,13,9,10,5,13,11
20:34:00,4,14,10,8,16,6,15,10,10
20:35:00,16,10,17,16,15,8,9,15,13
20:36:00,15,14,20,9,15,13,18,15,15
20:37:00,20,13,10,16,15,8,13,15,14
20:38:00,14,12,16,13,13,4,15,14,12
20:39:00,14,15,11,17,16,12,12,15,14
20:40:00,20,20,18,12,15,7,10,17,15
20:41:00,17,16,17,23,20,6,10,19,16
20:42:00,13,15,11,20,10,15,7,14,13
20:43:00,12,8,16,13,18,12,12,13,13
20:44:00,7,11,16,7,7,7,13,10,10
20:45:00,12,12,10,6,15,15,11,11,12
20:46:00,18,14,9,15,13,6,11,14,12
20:47:00,12,7,15,10,17,10,8,12,11
20:48:00,11,12,14,21,10,7,9,14,12
20:49:00,12,10,15,10,10,9,6,11,10
20:50:00,14,9,13,12,16,11,7,13,12
20:51:00,14,10,11,20,11,7,5,13,11
20:52:00,18,11,9,9,15,11,5,12,11
20:53:00,11,12,8,14,11,9,8,11,10
20:54:00,6,15,12,17,10,8,1,12,10
20:55:00,5,17,12,11,9,5,12,11,10
20:56:00,8,15,10,14,12,11,12,12,12
20:57:00,17,14,13,15,5,10,6,13,11
20:58:00,13,19,10,15,6,9,7,13,11
20:59:00,12,9,10,22,7,12,4,12,11
21:00:00,12,13,8,10,11,6,8,11,10
21:01:00,7,10,6,9,9,7,5,8,8
21:02:00,6,8,13,10,13,13,6,10,10
21:03:00,22,15,13,17,12,2,11,16,13
21:04:00,6,15,13,11,14,6,8,12,10
21:05:00,12,16,12,10,16,9,10,13,12
21:06:00,13,15,11,13,11,12,8,13,12
21:07:00,8,16,15,12,6,6,8,11,10
21:08:00,7,14,18,15,7,10,11,12,12
21:09:00,9,21,8,18,13,6,11,14,12
21:10:00,3,15,14,16,13,8,6,12,11
21:11:00,14,12,11,16,15,9,13,14,13
21:12:00,13,16,11,13,5,6,5,12,10
21:13:00,8,17,15,15,14,4,10,14,12
21:14:00,15,16,18,10,12,4,11,14,12
21:15:00,17,19,11,11,18,9,8,15,13
21:16:00,10,14,14,16,11,6,10,13,12
21:17:00,12,16,19,12,7,10,5,13,12
21:18:00,10,6,16,16,12,10,8,12,11
21:19:00,8,13,15,13,20,11,17,14,14
21:20:00,5,13,19,17,8,5,17,12,12
21:21:00,10,18,12,13,8,16,8,12,12
21:22:00,11,11,14,23,9,11,6,14,12
21:23:00,9,14,16,12,9,10,4,12,11
21:24:00,10,8,15,11,7,7,5,10,9
21:25:00,10,16,16,14,11,12,8,13,12
21:26:00,10,27,13,22,7,7,11,16,14
21:27:00,10,12,9,8,7,8,6,9,9
21:28:00,17,22,12,11,11,4,5,15,12
21:29:00,16,16,13,13,8,6,7,13,11
21:30:00,15,18,11,11,4,8,11,12,11
21:31:00,9,12,18,7,12,10,4,12,10
21:32:00,10,17,13,12,8,10,7,12,11
21:33:00,6,11,14,9,8,10,2,10,9
21:34:00,18,5,10,20,13,14,12,13,13
21:35:00,10,4,12,17,8,9,5,10,9
21:36:00,13,16,15,14,10,9,4,14,12
21:37:00,11,15,14,15,11,8,7,13,12
21:38:00,9,10,13,8,6,10,6,9,9
21:39:00,15,16,11,9,4,12,5,11,10
21:40:00,7,22,10,14,10,5,4,13,10
21:41:00,9,13,10,6,10,5,14,10,10
21:42:00,10,19,5,4,10,11,8,10,10
21:43:00,11,12,12,6,16,12,7,11,11
21:44:00,9,10,14,14,6,11,7,11,10
21:45:00,11,10,8,11,11,6,3,10,9
21:46:00,13,8,10,9,4,7,6,9,8
21:47:00,14,10,6,19,17,4,5,13,11
21:48:00,4,14,5,5,15,13,5,9,9
21:49:00,11,16,13,10,8,9,12,12,11
21:50:00,12,12,11,10,6,3,11,10,9
21:51:00,13,10,8,18,8,14,5,11,11
21:52:00,11,12,9,8,9,8,3,10,9
21:53:00,20,14,6,8,7,10,5,11,10
21:54:00,11,14,13,11,8,14,1,11,10
21:55:00,18,20,7,11,12,8,5,14,12
21:56:00,11,21,3,10,8,12,5,11,10
21:57:00,10,17,10,9,12,5,4,12,10
21:58:00,10,13,3,13,5,9,2,9,8
21:59:00,13,17,7,8,10,5,1,11,9
22:00:00,13,22,12,8,6,13,7,12,12
22:01:00,8,11,9,10,8,9,3,9,8
22:02:00,10,24,12,13,12,6,7,14,12
22:03:00,4,26,8,9,4,7,4,10,9
22:04:00,10,16,10,8,4,10,6,10,9
22:05:00,10,32,14,9,11,10,3,15,13
22:06:00,6,18,11,13,8,15,3,11,11
22:07:00,17,16,8,9,5,11,4,11,10
22:08:00,6,18,8,9,12,9,8,11,10
22:09:00,7,14,15,14,8,5,4,12,10
22:10:00,8,8,12,10,6,4,4,9,7
22:11:00,15,7,19,6,12,9,6,12,11
22:12:00,11,17,6,5,20,9,4,12,10
22:13:00,11,10,14,18,10,18,8,13,13
22:14:00,14,14,4,10,13,6,7,11,10
22:15:00,12,12,11,6,12,7,8,11,10
22:16:00,13,11,18,14,6,11,5,12,11
22:17:00,11,19,10,22,13,14,5,15,13
22:18:00,11,14,16,12,8,7,7,12,11
22:19:00,5,11,10,7,12,10,14,9,10
22:20:00,16,10,17,10,6,17,7,12,12
22:21:00,9,7,9,8,16,4,7,10,9
22:22:00,7,12,8,13,8,16,5,10,10
22:23:00,6,10,9,11,15,14,5,10,10
22:24:00,7,14,11,11,8,9,8,10,10
22:25:00,11,13,12,13,13,11,2,12,11
22:26:00,8,9,6,15,11,5,7,10,9
22:27:00,6,9,14,12,12,9,1,11,9
22:28:00,6,7,16,12,10,3,4,10,8
22:29:00,5,7,13,14,7,9,2,9,8
22:30:00,6,11,10,10,13,6,3,10,8
22:31:00,7,4,5,4,12,5,4,6,6
22:32:00,9,7,10,14,9,7,6,10,9
22:33:00,11,13,9,11,8,9,6,10,10
22:34:00,9,11,3,7,7,11,3,7,7
22:35:00,5,14,18,9,6,16,3,10,10
22:36:00,7,6,10,6,6,4,1,7,6
22:37:00,5,7,6,8,5,10,4,6,6
22:38:00,9,7,4,14,2,9,4,7,7
22:39:00,7,7,6,10,3,11,3,7,7
22:40:00,2,9,14,12,15,6,4,10,9
22:41:00,2,9,5,7,18,13,0,8,8
22:42:00,4,6,9,4,8,8,2,6,6
22:43:00,9,11,6,11,9,6,4,9,8
22:44:00,2,2,10,9,13,7,5,7,7
22:45:00,4,4,1,12,12,13,4,7,7
22:46:00,7,7,9,8,13,5,3,9,7
22:47:00,3,7,19,6,7,6,9,8,8
22:48:00,4,8,9,12,11,13,8,9,9
22:49:00,3,9,7,4,10,12,2,7,7
22:50:00,5,14,7,7,6,8,2,8,7
22:51:00,6,10,8,8,15,2,3,9,7
22:52:00,5,1,3,5,10,20,5,5,7
22:53:00,6,7,2,9,6,7,3,6,6
22:54:00,7,4,3,5,11,9,5,6,6
22:55:00,2,4,5,11,9,13,0,6,6
22:56:00,4,8,3,5,5,9,4,5,5
22:57:00,3,8,7,8,4,9,6,6,6
22:58:00,7,5,3,8,10,3,1,7,5
22:59:00,5,9,2,7,14,7,4,7,7
23:00:00,4,6,7,8,5,6,3,6,6
23:01:00,5,1,5,1,8,3,6,4,4
23:02:00,3,6,2,6,12,17,3,6,7
23:03:00,4,1,7,1,9,7,2,4,4
23:04:00,2,5,4,4,9,12,2,5,5
23:05:00,2,2,4,6,12,11,3,5,6
23:06:00,4,3,7,3,8,10,2,5,5
23:07:00,4,4,4,7,12,8,6,6,6
23:08:00,0,4,6,5,4,4,2,4,4
23:09:00,3,2,3,4,11,3,5,5,4
23:10:00,5,4,9,2,7,10,4,5,6
23:11:00,1,7,1,4,11,8,3,5,5
23:12:00,7,4,6,6,15,7,3,8,7
23:13:00,2,4,4,9,4,13,1,5,5
23:14:00,5,8,7,2,5,8,2,5,5
23:15:00,3,0,8,8,9,10,6,6,6
23:16:00,6,8,3,3,2,13,4,4,6
23:17:00,0,4,4,2,6,8,3,3,4
23:18:00,1,3,6,3,6,8,1,4,4
23:19:00,2,5,6,4,11,8,0,6,5
23:20:00,1,3,5,3,5,12,2,3,4
23:21:00,2,1,3,5,6,10,3,3,4
23:22:00,4,2,6,4,13,5,3,6,5
23:23:00,6,7,2,6,6,8,6,5,6
23:24:00,6,4,5,1,6,9,6,4,5
23:25:00,5,3,3,3,8,5,3,4,4
23:26:00,2,3,5,5,8,8,0,5,4
23:27:00,3,4,2,6,4,5,4,4,4
23:28:00,2,2,5,2,6,10,1,3,4
23:29:00,1,1,6,7,6,6,4,4,4
23:30:00,0,2,3,5,8,9,2,4,4
23:31:00,3,3,4,4,3,6,1,3,3
23:32:00,7,1,1,2,6,9,1,3,4
23:33:00,4,4,4,3,5,5,1,4,4
23:34:00,0,2,7,5,9,7,1,5,4
23:35:00,1,0,4,3,7,10,4,3,4
23:36:00,2,3,4,3,10,8,2,4,5
23:37:00,3,2,0,3,4,7,0,2,3
23:38:00,2,3,5,1,6,0,3,3,3
23:39:00,2,2,2,6,7,7,2,4,4
23:40:00,1,4,3,4,9,7,1,4,4
23:41:00,1,0,2,6,6,7,4,3,4
23:42:00,1,5,6,0,6,8,1,4,4
23:43:00,2,2,2,5,10,7,1,4,4
23:44:00,3,3,5,3,9,8,1,5,5
23:45:00,2,2,2,3,7,8,2,3,4
23:46:00,5,3,5,1,6,12,2,4,5
23:47:00,5,3,3,6,5,6,0,4,4
23:48:00,2,2,2,5,2,7,2,3,3
23:49:00,1,3,7,2,10,7,2,5,5
23:50:00,4,3,4,3,7,9,2,4,5
23:51:00,1,0,2,3,6,10,5,2,4
23:52:00,1,3,2,1,7,10,2,3,4
23:53:00,0,2,3,3,2,7,2,2,3
23:54:00,0,1,1,5,0,14,2,1,3
23:55:00,1,0,3,3,7,11,2,3,4
23:56:00,2,1,2,2,4,4,3,2,3
23:57:00,2,1,2,2,6,7,3,3,3
23:58:00,4,5,0,2,8,10,3,4,5
23:59:00,1,0,6,3,5,9,0,3,3
,,,,,,,,,
Totals,,,,,,,,,
12H(7-19),21237,21460,21315,21761,21437,19306,15534,21442,20293
16H(6-22),24866,25598,25053,25823,25060,21868,17680,25280,23707
18H(6-24),25472,26421,25849,26632,26054,22907,18106,26086,24492
24H(0-24),26002,26934,26387,27186,26620,23563,18825,26626,25074
,,,,,,,,,
AM Peak,07:20:00,07:15:00,07:12:00,07:15:00,07:14:00,11:00:00,11:00:00,07:15:00,10:01:00
,1957,1975,1952,2008,1904,1944,1678,1953,1681
,,,,,,,,,
PM Peak,16:52:00,16:50:00,16:27:00,16:30:00,16:27:00,12:21:00,12:04:00,16:26:00,16:24:00
,2025,2064,2027,2041,2044,2010,1952,2025,1881
,,,,,,,,,
,,,,,,,,,
CA Traffic,,,,,,,,,VDA-net R2 16/01/2020
