Site Number,00008023,Unnamed: 2,Site Reference,00008023.1,Unnamed: 5,Unnamed: 6,Lat/Lng.,"52.07076,1.17594",Unnamed: 9
Radar 8023 Colchester Road Ipswich,,,,,,,,,
Vehicle Count Report,,,,Week Begin: 30 December 2019,,,Channel:,Total Flow,
,,,,,,,,,
,,,,,,,,,
,2019-12-30 00:00:00,2019-12-31 00:00:00,2020-01-01 00:00:00,2020-01-02 00:00:00,2020-01-03 00:00:00,2020-01-04 00:00:00,2020-01-05 00:00:00,"5-Day
Ave.","7-Day
Ave."
00:00:00,2,1,0,1,2,4,3,1,2
00:01:00,2,2,5,2,3,3,4,3,3
00:02:00,0,3,2,5,1,6,2,2,3
00:03:00,2,3,1,2,0,1,2,2,2
00:04:00,4,3,1,1,4,2,6,3,3
00:05:00,4,3,2,0,0,2,6,2,2
00:06:00,1,1,1,0,2,4,0,1,1
00:07:00,3,2,0,3,3,2,2,2,2
00:08:00,2,8,5,2,4,5,2,4,4
00:09:00,2,1,1,1,3,2,4,2,2
00:10:00,2,2,2,3,4,3,2,3,3
00:11:00,1,5,4,1,3,1,3,3,3
00:12:00,1,0,3,2,1,5,4,1,2
00:13:00,1,4,10,4,2,2,3,4,4
00:14:00,4,2,2,2,4,4,1,3,3
00:15:00,2,3,6,2,2,4,4,3,3
00:16:00,0,1,10,4,4,0,3,4,3
00:17:00,1,1,6,1,1,2,7,2,3
00:18:00,3,5,9,0,2,4,4,4,4
00:19:00,0,2,5,0,4,5,5,2,3
00:20:00,2,1,11,1,2,3,2,3,3
00:21:00,1,2,13,2,1,3,6,4,4
00:22:00,1,1,16,4,1,5,1,5,4
00:23:00,3,1,15,1,2,5,8,4,5
00:24:00,1,1,14,1,0,4,5,3,4
00:25:00,1,1,14,5,2,2,2,5,4
00:26:00,1,1,14,2,3,1,8,4,4
00:27:00,2,2,14,2,1,2,5,4,4
00:28:00,3,2,8,0,1,2,6,3,3
00:29:00,1,1,9,0,1,0,2,2,2
00:30:00,0,6,14,1,1,5,6,4,5
00:31:00,3,1,16,1,0,2,3,4,4
00:32:00,2,6,16,2,3,1,6,6,5
00:33:00,1,0,10,0,0,3,5,2,3
00:34:00,2,2,10,1,0,4,2,3,3
00:35:00,1,2,7,1,2,0,0,3,2
00:36:00,1,1,16,0,1,0,3,4,3
00:37:00,0,3,11,0,1,1,2,3,3
00:38:00,3,2,17,0,0,2,2,4,4
00:39:00,1,0,15,2,2,2,1,4,3
00:40:00,1,1,16,1,3,0,3,4,4
00:41:00,1,1,9,0,2,1,2,3,2
00:42:00,3,1,3,0,3,1,2,2,2
00:43:00,2,1,20,0,2,2,0,5,4
00:44:00,3,3,10,0,0,0,2,3,3
00:45:00,0,0,9,0,1,1,2,2,2
00:46:00,2,0,9,2,1,2,0,3,2
00:47:00,1,0,8,1,1,0,4,2,2
00:48:00,1,1,9,0,1,0,2,2,2
00:49:00,3,3,5,0,0,1,2,2,2
00:50:00,1,0,7,1,0,0,1,2,1
00:51:00,1,4,13,1,0,1,2,4,3
00:52:00,1,3,10,1,2,0,2,3,3
00:53:00,3,0,12,1,1,2,2,3,3
00:54:00,1,3,10,0,2,2,0,3,3
00:55:00,1,1,13,0,0,1,2,3,3
00:56:00,1,0,10,0,1,4,3,2,3
00:57:00,0,0,7,0,1,3,3,2,2
00:58:00,2,1,7,0,1,0,0,2,2
00:59:00,4,0,9,3,1,1,0,3,3
01:00:00,0,1,13,1,1,3,5,3,3
01:01:00,0,1,12,1,1,1,1,3,2
01:02:00,2,1,9,1,1,1,1,3,2
01:03:00,0,2,8,0,2,0,2,2,2
01:04:00,0,0,6,0,1,1,3,1,2
01:05:00,1,0,5,1,1,1,2,2,2
01:06:00,2,0,12,0,0,1,2,3,2
01:07:00,2,0,8,0,0,1,0,2,2
01:08:00,2,1,5,0,0,0,2,2,1
01:09:00,0,0,13,0,1,0,2,3,2
01:10:00,0,1,12,0,2,2,2,3,3
01:11:00,0,0,9,0,1,2,1,2,2
01:12:00,1,1,11,0,1,2,1,3,2
01:13:00,0,0,9,0,0,0,0,2,1
01:14:00,1,1,8,0,0,0,4,2,2
01:15:00,1,2,14,1,1,0,1,4,3
01:16:00,1,0,7,1,2,1,0,2,2
01:17:00,1,0,6,0,0,0,1,1,1
01:18:00,3,2,10,0,1,0,0,3,2
01:19:00,0,0,4,0,0,0,1,1,1
01:20:00,1,1,11,1,3,3,1,3,3
01:21:00,1,1,8,0,0,1,0,2,2
01:22:00,1,0,6,0,0,2,3,1,2
01:23:00,0,0,2,2,1,3,2,1,1
01:24:00,2,1,13,0,2,0,0,4,3
01:25:00,0,0,7,0,0,2,3,1,2
01:26:00,0,1,9,0,3,0,0,3,2
01:27:00,2,3,6,1,0,0,2,2,2
01:28:00,0,0,8,0,1,0,1,2,1
01:29:00,0,0,6,0,0,1,2,1,1
01:30:00,2,0,7,1,1,1,1,2,2
01:31:00,0,1,4,1,0,5,1,1,2
01:32:00,1,0,10,1,0,1,3,2,2
01:33:00,0,0,5,1,0,1,3,1,1
01:34:00,0,1,6,1,1,0,0,2,1
01:35:00,0,2,5,1,0,2,0,2,1
01:36:00,2,0,6,0,2,1,0,2,2
01:37:00,0,1,10,2,1,1,1,3,2
01:38:00,0,0,5,0,1,1,3,1,1
01:39:00,1,2,3,0,0,0,1,1,1
01:40:00,0,0,4,0,0,1,2,1,1
01:41:00,1,2,10,0,1,0,3,3,2
01:42:00,3,0,8,0,2,0,2,3,2
01:43:00,0,2,4,1,0,2,1,1,1
01:44:00,0,1,4,2,0,1,1,1,1
01:45:00,0,0,3,1,0,0,1,1,1
01:46:00,0,0,5,0,0,1,1,1,1
01:47:00,0,0,2,0,1,0,0,1,0
01:48:00,0,0,7,0,2,1,1,2,2
01:49:00,1,0,7,1,1,1,1,2,2
01:50:00,1,1,6,1,2,0,1,2,2
01:51:00,0,0,8,2,0,0,0,2,1
01:52:00,2,1,5,0,1,1,1,2,2
01:53:00,1,1,5,0,0,2,1,1,1
01:54:00,2,1,5,0,1,0,0,2,1
01:55:00,1,0,7,0,1,1,1,2,2
01:56:00,0,0,6,1,0,2,2,1,2
01:57:00,1,0,7,0,0,0,2,2,1
01:58:00,1,0,7,0,0,1,0,2,1
01:59:00,0,0,4,1,2,2,0,1,1
02:00:00,1,0,7,0,0,0,1,2,1
02:01:00,0,0,1,1,1,2,1,1,1
02:02:00,0,2,7,0,0,2,0,2,2
02:03:00,0,1,4,0,0,2,1,1,1
02:04:00,0,2,6,0,0,0,0,2,1
02:05:00,1,0,6,0,0,0,0,1,1
02:06:00,1,0,4,0,0,0,2,1,1
02:07:00,0,2,5,0,0,0,2,1,1
02:08:00,1,1,5,1,0,3,0,2,2
02:09:00,0,0,5,0,1,0,0,1,1
02:10:00,4,0,6,0,2,0,2,2,2
02:11:00,0,0,1,0,0,2,1,0,1
02:12:00,3,2,4,0,0,1,0,2,1
02:13:00,0,0,4,1,0,0,2,1,1
02:14:00,0,1,4,0,0,3,2,1,1
02:15:00,2,0,4,0,0,0,2,1,1
02:16:00,0,0,5,0,0,1,1,1,1
02:17:00,0,0,6,0,0,1,1,1,1
02:18:00,0,1,1,0,1,2,0,1,1
02:19:00,0,0,4,1,0,3,1,1,1
02:20:00,0,1,2,1,1,1,0,1,1
02:21:00,0,1,0,0,1,0,1,0,0
02:22:00,1,0,2,0,1,0,0,1,1
02:23:00,1,0,3,1,0,1,0,1,1
02:24:00,2,1,2,0,2,1,0,1,1
02:25:00,2,0,4,2,1,3,1,2,2
02:26:00,0,1,4,1,1,1,2,1,1
02:27:00,0,1,3,1,0,0,0,1,1
02:28:00,1,0,2,2,1,0,0,1,1
02:29:00,0,2,5,0,0,0,0,1,1
02:30:00,1,0,4,1,0,0,1,1,1
02:31:00,0,1,0,1,2,0,2,1,1
02:32:00,1,3,1,0,4,0,3,2,2
02:33:00,0,3,3,0,0,1,1,1,1
02:34:00,0,0,3,0,1,3,1,1,1
02:35:00,0,0,1,0,1,2,0,0,1
02:36:00,1,1,2,0,0,0,1,1,1
02:37:00,1,1,3,1,1,0,2,1,1
02:38:00,0,0,8,0,0,0,0,2,1
02:39:00,2,0,4,0,0,0,1,1,1
02:40:00,1,0,3,1,0,2,2,1,1
02:41:00,1,1,3,1,2,1,0,2,1
02:42:00,0,2,1,0,0,1,1,1,1
02:43:00,0,3,2,0,0,2,1,1,1
02:44:00,0,0,4,0,0,1,5,1,1
02:45:00,0,0,0,1,1,1,3,0,1
02:46:00,1,0,6,0,1,0,4,2,2
02:47:00,1,0,5,0,1,0,3,1,1
02:48:00,0,0,3,0,0,2,0,1,1
02:49:00,1,0,3,0,1,0,1,1,1
02:50:00,0,0,3,0,0,1,1,1,1
02:51:00,0,1,2,0,0,0,1,1,1
02:52:00,0,0,5,1,0,0,0,1,1
02:53:00,0,0,0,0,1,1,1,0,0
02:54:00,0,0,3,0,0,0,0,1,0
02:55:00,1,0,6,0,1,0,2,2,1
02:56:00,0,1,2,0,0,1,0,1,1
02:57:00,1,1,2,0,0,0,0,1,1
02:58:00,1,1,2,1,0,0,0,1,1
02:59:00,1,0,3,0,0,0,0,1,1
03:00:00,0,1,0,0,1,1,3,0,1
03:01:00,1,1,1,0,0,1,0,1,1
03:02:00,1,0,1,1,1,0,0,1,1
03:03:00,0,1,0,0,0,1,0,0,0
03:04:00,1,1,1,1,0,0,0,1,1
03:05:00,1,0,1,0,0,1,0,0,0
03:06:00,1,0,1,0,2,0,0,1,1
03:07:00,0,0,1,1,0,0,1,0,0
03:08:00,0,0,0,0,0,0,2,0,0
03:09:00,1,3,1,1,1,0,0,1,1
03:10:00,0,0,0,0,0,0,3,0,0
03:11:00,0,0,1,1,0,1,0,0,0
03:12:00,0,0,0,0,0,0,0,0,0
03:13:00,1,0,5,1,0,0,0,1,1
03:14:00,0,4,2,1,0,0,1,1,1
03:15:00,0,1,4,0,2,1,0,1,1
03:16:00,0,0,1,2,0,0,2,1,1
03:17:00,0,0,3,0,0,0,0,1,0
03:18:00,0,0,2,0,0,0,1,0,0
03:19:00,0,0,0,0,0,0,0,0,0
03:20:00,0,0,0,0,1,0,0,0,0
03:21:00,0,0,1,2,0,1,2,1,1
03:22:00,1,0,1,0,0,0,0,0,0
03:23:00,0,0,0,1,1,0,0,0,0
03:24:00,0,0,2,0,1,0,1,1,1
03:25:00,0,0,1,0,0,0,1,0,0
03:26:00,0,1,2,1,0,1,1,1,1
03:27:00,1,1,1,0,0,1,2,1,1
03:28:00,2,1,2,1,0,0,1,1,1
03:29:00,2,0,1,0,1,1,2,1,1
03:30:00,0,0,0,1,1,0,1,0,0
03:31:00,1,0,3,0,1,0,0,1,1
03:32:00,0,0,4,0,1,0,0,1,1
03:33:00,1,0,0,0,2,0,0,1,0
03:34:00,0,0,2,0,1,1,0,1,1
03:35:00,1,0,1,0,0,0,0,0,0
03:36:00,1,1,1,0,0,0,1,1,1
03:37:00,0,1,1,0,0,0,2,0,1
03:38:00,0,0,1,0,0,1,1,0,0
03:39:00,2,1,1,1,0,3,0,1,1
03:40:00,0,0,1,1,0,0,0,0,0
03:41:00,0,0,0,1,2,0,1,1,1
03:42:00,0,0,0,0,0,0,0,0,0
03:43:00,0,1,3,0,2,0,0,1,1
03:44:00,1,0,0,1,0,1,0,0,0
03:45:00,1,0,0,0,0,1,1,0,0
03:46:00,0,1,0,1,0,1,0,0,0
03:47:00,1,0,4,1,0,0,0,1,1
03:48:00,0,1,2,0,1,0,2,1,1
03:49:00,1,0,1,1,4,0,1,1,1
03:50:00,0,0,1,1,1,1,1,1,1
03:51:00,1,0,1,0,3,0,2,1,1
03:52:00,1,1,1,0,0,1,0,1,1
03:53:00,0,0,1,0,1,1,0,0,0
03:54:00,1,0,3,2,1,0,1,1,1
03:55:00,3,1,3,3,4,0,0,3,2
03:56:00,0,1,0,2,1,1,1,1,1
03:57:00,0,1,2,1,1,0,0,1,1
03:58:00,0,1,1,1,0,0,1,1,1
03:59:00,0,1,0,0,1,2,0,0,1
04:00:00,0,1,0,0,0,3,0,0,1
04:01:00,0,1,0,1,0,0,0,0,0
04:02:00,1,1,2,0,0,1,0,1,1
04:03:00,1,3,1,1,1,1,1,1,1
04:04:00,1,1,1,1,1,0,0,1,1
04:05:00,1,1,2,0,1,3,0,1,1
04:06:00,0,0,0,1,0,3,0,0,1
04:07:00,1,0,0,1,0,0,2,0,1
04:08:00,0,0,1,3,0,1,0,1,1
04:09:00,1,1,1,0,1,0,1,1,1
04:10:00,4,0,1,0,1,0,1,1,1
04:11:00,0,0,0,0,1,0,2,0,0
04:12:00,2,0,0,0,3,1,0,1,1
04:13:00,1,0,0,0,2,1,0,1,1
04:14:00,1,2,1,3,3,0,0,2,1
04:15:00,3,1,2,0,0,0,1,1,1
04:16:00,0,1,0,2,2,1,1,1,1
04:17:00,1,0,0,0,1,1,0,0,0
04:18:00,1,1,0,0,1,0,1,1,1
04:19:00,0,1,2,3,0,1,0,1,1
04:20:00,1,0,0,1,1,0,1,1,1
04:21:00,0,2,1,1,1,0,0,1,1
04:22:00,0,0,1,0,1,0,0,0,0
04:23:00,0,2,1,2,1,0,1,1,1
04:24:00,1,0,0,3,0,0,0,1,1
04:25:00,2,0,1,0,0,2,0,1,1
04:26:00,1,0,0,1,0,0,0,0,0
04:27:00,2,1,1,1,1,0,1,1,1
04:28:00,4,3,0,1,0,0,2,2,1
04:29:00,0,0,0,2,0,0,2,0,1
04:30:00,1,0,2,0,1,2,1,1,1
04:31:00,3,0,1,0,2,0,0,1,1
04:32:00,1,1,0,0,1,0,0,1,0
04:33:00,1,0,0,0,0,0,1,0,0
04:34:00,0,1,1,3,0,1,0,1,1
04:35:00,3,3,1,1,0,0,1,2,1
04:36:00,2,1,0,0,3,3,1,1,1
04:37:00,0,0,0,2,0,2,2,0,1
04:38:00,2,0,1,2,2,1,1,1,1
04:39:00,2,3,0,2,1,0,2,2,1
04:40:00,0,0,0,1,2,0,1,1,1
04:41:00,0,1,1,0,0,1,0,0,0
04:42:00,1,3,2,2,2,3,1,2,2
04:43:00,3,6,0,2,3,1,2,3,2
04:44:00,2,3,1,4,2,0,3,2,2
04:45:00,2,2,0,5,3,1,2,2,2
04:46:00,4,1,1,2,0,2,0,2,1
04:47:00,1,1,0,2,1,1,0,1,1
04:48:00,3,3,0,2,4,1,0,2,2
04:49:00,3,0,1,5,2,0,1,2,2
04:50:00,0,1,1,2,1,1,2,1,1
04:51:00,2,3,0,1,0,0,1,1,1
04:52:00,4,0,0,0,1,0,1,1,1
04:53:00,2,1,3,3,3,2,0,2,2
04:54:00,1,3,1,1,1,1,1,1,1
04:55:00,0,0,0,1,1,2,0,0,1
04:56:00,3,2,1,1,1,0,1,2,1
04:57:00,1,0,0,0,4,2,0,1,1
04:58:00,0,0,0,1,2,4,0,1,1
04:59:00,1,0,2,0,5,0,3,2,2
05:00:00,1,0,1,0,1,1,0,1,1
05:01:00,2,1,2,3,3,0,0,2,2
05:02:00,2,2,0,2,1,0,1,1,1
05:03:00,1,2,0,2,1,3,1,1,1
05:04:00,1,1,0,2,2,3,0,1,1
05:05:00,2,2,0,0,1,0,1,1,1
05:06:00,6,3,0,1,2,1,1,2,2
05:07:00,4,2,1,0,0,0,3,1,1
05:08:00,3,1,1,4,4,0,0,3,2
05:09:00,2,1,1,3,5,1,3,2,2
05:10:00,1,2,1,2,0,1,1,1,1
05:11:00,0,0,0,4,4,4,1,2,2
05:12:00,3,0,3,2,2,3,2,2,2
05:13:00,0,3,0,6,2,3,1,2,2
05:14:00,5,5,2,1,1,2,2,3,3
05:15:00,3,2,1,2,2,2,2,2,2
05:16:00,2,1,1,1,1,2,0,1,1
05:17:00,2,0,2,3,2,4,1,2,2
05:18:00,2,1,2,2,2,2,2,2,2
05:19:00,0,1,1,4,3,2,0,2,2
05:20:00,1,0,0,1,0,3,1,0,1
05:21:00,1,3,0,4,1,2,0,2,2
05:22:00,3,1,2,0,1,2,0,1,1
05:23:00,2,6,1,3,3,1,0,3,2
05:24:00,3,3,0,3,0,2,2,2,2
05:25:00,2,4,1,1,2,0,0,2,1
05:26:00,0,1,2,1,3,1,1,1,1
05:27:00,0,0,1,4,3,0,2,2,1
05:28:00,0,2,0,2,2,2,0,1,1
05:29:00,2,2,1,4,2,1,1,2,2
05:30:00,1,1,1,3,0,4,0,1,1
05:31:00,0,2,0,2,1,1,0,1,1
05:32:00,2,2,2,2,4,1,3,2,2
05:33:00,5,3,1,4,4,1,1,3,3
05:34:00,1,3,1,2,3,1,2,2,2
05:35:00,1,1,0,3,2,3,7,1,2
05:36:00,4,5,3,4,4,4,2,4,4
05:37:00,2,5,2,2,0,2,2,2,2
05:38:00,2,0,0,7,7,5,1,3,3
05:39:00,2,0,2,3,5,3,2,2,2
05:40:00,1,1,0,3,1,1,3,1,1
05:41:00,4,5,0,1,2,0,1,2,2
05:42:00,3,3,2,2,4,4,0,3,3
05:43:00,5,6,1,6,4,2,1,4,4
05:44:00,3,2,0,7,3,2,0,3,2
05:45:00,3,2,1,3,3,1,0,2,2
05:46:00,2,2,1,4,8,3,2,3,3
05:47:00,5,3,1,5,3,3,2,3,3
05:48:00,4,4,2,4,4,0,2,4,3
05:49:00,3,2,3,6,5,1,0,4,3
05:50:00,2,8,0,7,5,2,3,4,4
05:51:00,3,2,1,1,1,1,2,2,2
05:52:00,3,2,1,3,5,1,0,3,2
05:53:00,3,4,1,1,1,0,4,2,2
05:54:00,2,1,1,2,3,1,1,2,2
05:55:00,1,1,1,1,7,4,1,2,2
05:56:00,7,5,1,4,0,1,5,3,3
05:57:00,5,5,3,6,9,3,2,6,5
05:58:00,0,1,2,3,5,3,0,2,2
05:59:00,1,1,1,4,1,2,0,2,1
06:00:00,8,1,2,4,7,0,0,4,3
06:01:00,2,4,1,8,7,5,2,4,4
06:02:00,3,2,0,3,2,2,1,2,2
06:03:00,3,0,2,3,6,2,4,3,3
06:04:00,3,6,2,3,6,2,4,4,4
06:05:00,2,3,1,6,9,3,1,4,4
06:06:00,5,4,1,9,3,4,2,4,4
06:07:00,1,6,0,5,5,2,1,3,3
06:08:00,2,1,0,8,5,4,0,3,3
06:09:00,3,1,1,6,6,5,5,3,4
06:10:00,4,5,3,2,7,3,2,4,4
06:11:00,5,4,1,6,8,3,3,5,4
06:12:00,2,3,1,9,5,2,2,4,3
06:13:00,3,4,2,8,12,5,0,6,5
06:14:00,5,4,2,15,10,3,4,7,6
06:15:00,5,4,4,8,9,4,3,6,5
06:16:00,2,6,2,5,9,4,3,5,4
06:17:00,4,0,1,8,7,4,1,4,4
06:18:00,6,4,2,8,7,7,3,5,5
06:19:00,0,3,2,7,7,7,1,4,4
06:20:00,7,3,3,10,4,2,2,5,4
06:21:00,4,3,3,9,10,5,2,6,5
06:22:00,3,1,3,10,10,3,2,5,5
06:23:00,4,9,0,8,13,2,1,7,5
06:24:00,5,4,3,14,18,3,6,9,8
06:25:00,9,4,1,10,5,2,1,6,5
06:26:00,5,2,1,4,13,2,6,5,5
06:27:00,4,4,1,11,2,4,6,4,5
06:28:00,6,4,2,5,11,1,1,6,4
06:29:00,7,2,3,9,11,2,3,6,5
06:30:00,8,9,1,8,10,9,4,7,7
06:31:00,11,8,2,10,9,0,3,8,6
06:32:00,6,3,1,12,11,3,3,7,6
06:33:00,7,6,5,10,15,4,2,9,7
06:34:00,7,12,3,14,11,8,3,9,8
06:35:00,7,7,6,16,7,6,3,9,7
06:36:00,9,7,2,13,12,9,6,9,8
06:37:00,7,7,3,7,10,8,3,7,6
06:38:00,6,9,1,11,15,4,2,8,7
06:39:00,8,7,4,12,10,5,8,8,8
06:40:00,8,7,4,15,15,6,3,10,8
06:41:00,3,10,7,11,6,3,2,7,6
06:42:00,9,4,3,11,15,5,4,8,7
06:43:00,15,11,3,14,19,6,5,12,10
06:44:00,15,9,3,18,6,7,0,10,8
06:45:00,16,11,4,12,12,8,6,11,10
06:46:00,15,8,6,12,16,4,2,11,9
06:47:00,10,13,2,11,9,5,6,9,8
06:48:00,5,9,0,9,15,5,5,8,7
06:49:00,3,7,2,11,15,6,6,8,7
06:50:00,4,15,4,14,15,3,4,10,8
06:51:00,8,9,4,14,8,9,0,9,7
06:52:00,11,5,5,13,17,3,4,10,8
06:53:00,9,5,1,18,13,6,2,9,8
06:54:00,5,2,1,12,9,5,6,6,6
06:55:00,5,8,3,10,16,5,3,8,7
06:56:00,11,9,2,8,13,3,3,9,7
06:57:00,13,10,4,17,13,3,5,11,9
06:58:00,5,4,0,13,7,12,3,6,6
06:59:00,14,13,0,17,13,4,6,11,10
07:00:00,7,6,3,9,10,3,2,7,6
07:01:00,7,11,6,7,13,9,3,9,8
07:02:00,10,10,1,18,17,7,1,11,9
07:03:00,13,7,3,14,15,10,3,10,9
07:04:00,15,11,3,17,20,7,7,13,11
07:05:00,11,8,4,20,14,5,5,11,10
07:06:00,12,10,3,23,21,0,4,14,10
07:07:00,15,10,4,17,11,5,5,11,10
07:08:00,8,11,1,13,22,12,9,11,11
07:09:00,11,14,3,27,21,11,3,15,13
07:10:00,18,15,5,20,18,8,6,15,13
07:11:00,10,4,2,20,28,11,4,13,11
07:12:00,9,17,0,15,13,10,4,11,10
07:13:00,10,11,6,23,19,10,7,14,12
07:14:00,14,9,0,9,24,9,10,11,11
07:15:00,17,18,0,18,29,5,6,16,13
07:16:00,9,16,4,23,14,9,3,13,11
07:17:00,17,16,3,20,31,6,5,17,14
07:18:00,14,13,6,25,18,8,10,15,13
07:19:00,11,12,1,23,20,9,4,13,11
07:20:00,12,9,4,19,19,10,6,13,11
07:21:00,16,17,1,17,25,11,7,15,13
07:22:00,10,13,3,27,24,6,7,15,13
07:23:00,10,17,3,17,16,6,8,13,11
07:24:00,18,12,1,16,27,11,7,15,13
07:25:00,7,13,9,30,25,7,7,17,14
07:26:00,22,18,5,28,22,14,3,19,16
07:27:00,6,16,4,16,25,7,13,13,12
07:28:00,20,9,1,30,20,10,7,16,14
07:29:00,23,17,4,27,21,11,2,18,15
07:30:00,19,15,2,24,19,15,5,16,14
07:31:00,17,11,3,26,27,4,5,17,13
07:32:00,17,23,2,23,23,5,1,18,13
07:33:00,13,9,3,27,38,6,4,18,14
07:34:00,4,12,6,15,24,7,4,12,10
07:35:00,32,18,1,24,27,8,5,20,16
07:36:00,22,24,3,30,16,5,8,19,15
07:37:00,16,24,4,27,26,10,3,19,16
07:38:00,19,10,2,29,30,10,9,18,16
07:39:00,13,15,5,25,22,9,8,16,14
07:40:00,10,20,5,19,27,13,7,16,14
07:41:00,13,15,7,27,31,10,10,19,16
07:42:00,15,18,2,22,31,8,4,18,14
07:43:00,20,18,6,22,22,14,8,18,16
07:44:00,23,16,6,28,34,12,3,21,17
07:45:00,14,19,2,29,22,10,5,17,14
07:46:00,21,22,3,25,18,10,4,18,15
07:47:00,20,10,4,9,28,14,5,14,13
07:48:00,17,17,3,32,29,10,10,20,17
07:49:00,24,13,6,24,20,11,6,17,15
07:50:00,22,24,4,24,30,11,14,21,18
07:51:00,21,10,3,31,30,10,7,19,16
07:52:00,13,18,3,27,21,9,5,16,14
07:53:00,14,14,7,22,22,16,5,16,14
07:54:00,13,14,2,15,24,7,9,14,12
07:55:00,15,16,6,28,29,11,8,19,16
07:56:00,15,17,5,25,25,14,4,17,15
07:57:00,19,15,3,24,23,10,11,17,15
07:58:00,20,11,5,22,24,18,3,16,15
07:59:00,22,10,4,26,25,10,8,17,15
08:00:00,17,15,1,17,24,16,8,15,14
08:01:00,16,17,2,18,21,9,4,15,12
08:02:00,13,14,5,23,26,11,3,16,14
08:03:00,18,17,3,26,20,8,4,17,14
08:04:00,21,19,0,31,32,9,7,21,17
08:05:00,18,19,3,26,32,12,4,20,16
08:06:00,24,18,2,16,23,8,7,17,14
08:07:00,19,15,2,25,25,12,4,17,15
08:08:00,24,14,2,26,38,16,7,21,18
08:09:00,24,26,2,25,25,16,5,20,18
08:10:00,23,14,3,27,22,4,9,18,15
08:11:00,13,23,1,21,26,9,6,17,14
08:12:00,30,21,2,29,32,14,7,23,19
08:13:00,21,10,4,22,39,17,6,19,17
08:14:00,13,22,2,19,30,14,7,17,15
08:15:00,18,23,3,30,26,12,9,20,17
08:16:00,17,20,3,33,23,12,5,19,16
08:17:00,23,13,5,33,15,18,5,18,16
08:18:00,19,12,4,22,24,18,3,16,15
08:19:00,17,18,2,20,21,9,6,16,13
08:20:00,22,18,5,20,28,17,5,19,16
08:21:00,16,17,10,22,30,9,3,19,15
08:22:00,24,15,8,24,30,18,8,20,18
08:23:00,21,25,5,27,21,16,9,20,18
08:24:00,12,11,4,17,22,12,6,13,12
08:25:00,23,5,1,17,25,14,6,14,13
08:26:00,18,20,5,23,23,19,5,18,16
08:27:00,20,17,5,19,26,19,6,17,16
08:28:00,15,13,6,18,21,13,8,15,13
08:29:00,28,15,3,25,24,10,6,19,16
08:30:00,15,19,5,18,20,18,7,15,15
08:31:00,15,21,8,26,19,9,9,18,15
08:32:00,26,21,3,19,22,21,11,18,18
08:33:00,18,23,5,22,17,10,4,17,14
08:34:00,20,18,7,23,22,13,18,18,17
08:35:00,17,20,2,19,24,11,8,16,14
08:36:00,17,20,5,17,19,8,10,16,14
08:37:00,15,21,4,23,21,15,3,17,15
08:38:00,17,15,5,23,22,22,5,16,16
08:39:00,26,16,8,23,35,22,9,22,20
08:40:00,20,19,3,35,31,18,7,22,19
08:41:00,19,20,6,27,23,13,14,19,17
08:42:00,15,15,6,22,22,15,7,16,15
08:43:00,14,21,1,25,23,11,14,17,16
08:44:00,27,10,6,25,26,22,18,19,19
08:45:00,17,15,0,38,26,18,12,19,18
08:46:00,14,12,9,17,20,14,10,14,14
08:47:00,20,15,1,25,28,14,14,18,17
08:48:00,16,13,7,18,29,18,6,17,15
08:49:00,14,15,4,24,16,16,12,15,14
08:50:00,17,26,2,32,24,25,11,20,20
08:51:00,8,19,4,18,29,11,9,16,14
08:52:00,21,20,8,24,15,9,18,18,16
08:53:00,18,22,0,20,13,21,13,15,15
08:54:00,20,12,3,20,30,14,12,17,16
08:55:00,13,20,7,10,13,20,6,13,13
08:56:00,14,22,4,14,24,24,5,16,15
08:57:00,15,8,5,14,24,21,11,13,14
08:58:00,19,15,5,15,26,19,11,16,16
08:59:00,12,18,6,23,18,7,7,15,13
09:00:00,18,14,3,18,26,16,10,16,15
09:01:00,10,21,9,25,16,16,6,16,15
09:02:00,12,14,4,18,21,16,6,14,13
09:03:00,21,25,5,6,19,15,12,15,15
09:04:00,16,20,8,30,21,21,11,19,18
09:05:00,27,19,5,15,20,15,9,17,16
09:06:00,19,11,7,21,23,18,13,16,16
09:07:00,15,8,10,23,26,9,12,16,15
09:08:00,15,8,4,25,21,23,13,15,16
09:09:00,25,25,4,9,18,16,10,16,15
09:10:00,16,22,3,29,20,16,11,18,17
09:11:00,17,17,4,21,20,20,17,16,17
09:12:00,17,19,4,23,19,24,12,16,17
09:13:00,20,15,7,9,34,16,11,17,16
09:14:00,15,15,6,25,23,13,12,17,16
09:15:00,17,17,10,19,21,16,14,17,16
09:16:00,25,16,7,16,22,15,9,17,16
09:17:00,32,16,5,14,28,21,19,19,19
09:18:00,16,24,4,23,30,29,11,19,20
09:19:00,20,16,7,24,18,14,6,17,15
09:20:00,7,19,3,18,14,20,11,12,13
09:21:00,13,15,6,15,24,19,10,15,15
09:22:00,30,12,10,21,17,12,6,18,15
09:23:00,18,19,7,25,33,21,15,20,20
09:24:00,15,16,4,16,16,18,7,13,13
09:25:00,21,14,7,32,32,16,24,21,21
09:26:00,16,17,5,12,22,28,14,14,16
09:27:00,25,11,10,22,19,23,11,17,17
09:28:00,16,21,8,15,21,14,18,16,16
09:29:00,16,13,10,15,22,17,15,15,15
09:30:00,22,27,7,27,26,18,12,22,20
09:31:00,17,20,3,18,14,14,23,14,16
09:32:00,18,21,9,20,30,26,14,20,20
09:33:00,23,14,11,18,24,21,17,18,18
09:34:00,24,17,5,15,28,16,17,18,17
09:35:00,18,17,8,15,20,26,17,16,17
09:36:00,22,23,6,26,18,17,17,19,18
09:37:00,22,18,6,17,28,14,17,18,17
09:38:00,25,14,6,32,23,26,26,20,22
09:39:00,24,21,9,25,26,19,14,21,20
09:40:00,26,26,6,21,29,25,19,22,22
09:41:00,21,17,10,29,17,28,17,19,20
09:42:00,27,26,5,26,36,27,17,24,23
09:43:00,24,29,7,18,23,21,18,20,20
09:44:00,21,19,8,19,20,29,19,17,19
09:45:00,23,20,7,26,24,27,28,20,22
09:46:00,29,26,10,15,16,18,15,19,18
09:47:00,31,16,7,14,44,22,21,22,22
09:48:00,25,23,4,22,36,17,17,22,21
09:49:00,26,28,10,22,20,28,23,21,22
09:50:00,22,20,12,17,26,21,25,19,20
09:51:00,29,19,3,27,30,24,23,22,22
09:52:00,20,25,8,17,24,26,24,19,21
09:53:00,28,23,14,29,21,18,21,23,22
09:54:00,18,27,8,19,27,17,21,20,20
09:55:00,19,22,12,26,16,27,20,19,20
09:56:00,16,23,12,22,12,30,21,17,19
09:57:00,27,27,17,21,18,25,29,22,23
09:58:00,26,17,8,12,27,32,23,18,21
09:59:00,12,17,3,32,28,31,20,18,20
10:00:00,18,15,12,21,24,14,13,18,17
10:01:00,18,24,10,34,25,20,23,22,22
10:02:00,16,18,12,21,31,26,13,20,20
10:03:00,24,19,9,23,23,31,33,20,23
10:04:00,21,27,10,22,25,23,12,21,20
10:05:00,23,19,11,23,26,22,26,20,21
10:06:00,26,23,6,19,26,14,31,20,21
10:07:00,28,25,12,24,35,28,19,25,24
10:08:00,25,32,8,28,31,24,29,25,25
10:09:00,24,23,3,17,30,29,17,19,20
10:10:00,17,9,13,14,25,33,12,16,18
10:11:00,29,35,12,26,23,23,20,25,24
10:12:00,28,16,17,31,23,28,14,23,22
10:13:00,23,25,8,26,24,25,30,21,23
10:14:00,26,28,11,23,27,27,29,23,24
10:15:00,36,24,7,26,23,21,28,23,24
10:16:00,24,22,14,24,24,26,25,22,23
10:17:00,22,17,7,17,29,33,24,18,21
10:18:00,21,30,9,27,26,19,36,23,24
10:19:00,27,27,11,21,23,32,22,22,23
10:20:00,22,28,15,30,25,12,23,24,22
10:21:00,25,27,14,32,33,22,30,26,26
10:22:00,26,30,10,34,22,33,27,24,26
10:23:00,38,19,12,24,30,26,20,25,24
10:24:00,36,23,17,17,30,25,17,25,24
10:25:00,30,20,16,20,24,21,18,22,21
10:26:00,31,21,13,13,37,30,27,23,25
10:27:00,28,23,10,30,25,29,34,23,26
10:28:00,34,28,11,27,32,26,20,26,25
10:29:00,22,23,14,29,22,18,28,22,22
10:30:00,27,33,14,24,27,35,19,25,26
10:31:00,38,21,15,21,34,16,18,26,23
10:32:00,24,30,11,28,18,14,27,22,22
10:33:00,22,17,14,20,42,31,28,23,25
10:34:00,22,34,11,31,22,26,16,24,23
10:35:00,38,19,11,28,23,17,34,24,24
10:36:00,22,26,16,31,41,30,20,27,27
10:37:00,20,24,10,16,35,26,21,21,22
10:38:00,27,22,18,25,24,32,31,23,26
10:39:00,24,17,18,27,16,31,18,20,22
10:40:00,33,17,16,23,30,28,23,24,24
10:41:00,27,27,17,34,24,39,21,26,27
10:42:00,28,31,11,14,21,25,22,21,22
10:43:00,37,25,14,16,29,16,18,24,22
10:44:00,27,29,20,29,27,21,25,26,25
10:45:00,23,30,19,14,36,31,22,24,25
10:46:00,25,32,14,26,28,35,30,25,27
10:47:00,30,34,18,25,30,20,31,27,27
10:48:00,24,25,18,36,22,30,24,25,26
10:49:00,28,21,17,25,17,33,30,22,24
10:50:00,25,31,15,28,26,16,24,25,24
10:51:00,29,22,20,21,26,19,23,24,23
10:52:00,37,26,19,27,25,31,23,27,27
10:53:00,29,22,16,34,28,34,26,26,27
10:54:00,23,31,13,33,27,28,30,25,26
10:55:00,21,28,16,26,14,21,20,21,21
10:56:00,22,28,16,24,21,22,23,22,22
10:57:00,22,26,11,31,23,41,25,23,26
10:58:00,43,38,28,20,23,31,27,30,30
10:59:00,29,22,21,16,34,28,21,24,24
11:00:00,31,32,6,27,20,21,19,23,22
11:01:00,31,22,9,18,30,27,18,22,22
11:02:00,32,35,14,19,33,24,26,27,26
11:03:00,35,28,17,34,24,24,29,28,27
11:04:00,23,27,14,8,30,32,28,20,23
11:05:00,27,31,10,14,34,19,21,23,22
11:06:00,24,40,9,33,24,29,22,26,26
11:07:00,18,24,19,30,33,42,20,25,27
11:08:00,30,23,20,22,31,16,26,25,24
11:09:00,37,29,18,16,27,30,18,25,25
11:10:00,19,40,18,30,28,37,25,27,28
11:11:00,24,29,23,14,31,27,20,24,24
11:12:00,35,26,16,25,31,16,30,27,26
11:13:00,35,40,18,15,32,36,23,28,28
11:14:00,21,18,20,30,33,34,29,24,26
11:15:00,26,36,18,18,33,29,22,26,26
11:16:00,36,34,19,22,28,18,25,28,26
11:17:00,14,28,18,23,36,25,19,24,23
11:18:00,18,26,17,22,23,30,25,21,23
11:19:00,28,35,21,21,32,29,20,27,27
11:20:00,25,27,12,26,36,31,25,25,26
11:21:00,39,26,13,34,23,32,19,27,27
11:22:00,24,22,21,32,33,28,15,26,25
11:23:00,32,23,18,30,25,29,29,26,27
11:24:00,28,20,18,22,32,37,28,24,26
11:25:00,25,38,20,18,32,28,21,27,26
11:26:00,39,24,20,22,24,19,22,26,24
11:27:00,34,27,22,21,31,27,29,27,27
11:28:00,36,21,23,31,30,31,31,28,29
11:29:00,26,20,15,14,32,24,20,21,22
11:30:00,31,35,19,20,29,29,14,27,25
11:31:00,26,41,11,23,17,29,24,24,24
11:32:00,27,24,24,37,26,32,31,28,29
11:33:00,17,30,14,32,25,30,29,24,25
11:34:00,27,31,18,29,34,21,23,28,26
11:35:00,30,33,22,20,36,22,18,28,26
11:36:00,33,33,21,26,31,29,29,29,29
11:37:00,34,30,21,20,35,30,24,28,28
11:38:00,40,25,24,20,30,21,26,28,27
11:39:00,26,14,13,34,28,29,29,23,25
11:40:00,29,17,17,30,34,22,23,25,25
11:41:00,23,23,19,22,33,25,25,24,24
11:42:00,26,24,21,19,30,32,29,24,26
11:43:00,30,25,29,27,28,37,29,28,29
11:44:00,30,26,16,33,26,33,25,26,27
11:45:00,31,25,13,26,23,37,26,24,26
11:46:00,31,24,9,27,33,23,30,25,25
11:47:00,29,29,25,33,27,22,29,29,28
11:48:00,20,32,13,30,24,33,18,24,24
11:49:00,26,23,25,29,22,41,30,25,28
11:50:00,34,31,20,19,30,27,21,27,26
11:51:00,30,33,24,23,31,32,30,28,29
11:52:00,30,23,15,22,33,35,28,25,27
11:53:00,28,36,17,25,29,40,28,27,29
11:54:00,25,25,22,31,27,26,29,26,26
11:55:00,20,24,17,31,29,32,30,24,26
11:56:00,24,25,14,24,31,30,31,24,26
11:57:00,36,30,28,21,24,21,18,28,25
11:58:00,22,29,32,24,18,27,32,25,26
11:59:00,25,19,25,28,32,30,21,26,26
12:00:00,28,37,19,35,30,27,17,30,28
12:01:00,37,28,15,29,43,22,27,30,29
12:02:00,27,32,30,22,22,27,29,27,27
12:03:00,37,18,24,21,37,28,27,27,27
12:04:00,29,33,23,17,28,29,31,26,27
12:05:00,41,25,25,28,22,25,39,28,29
12:06:00,22,28,23,26,32,43,33,26,30
12:07:00,29,29,22,24,25,26,26,26,26
12:08:00,31,32,17,12,36,22,18,26,24
12:09:00,36,30,34,27,18,32,27,29,29
12:10:00,35,38,24,28,21,29,21,29,28
12:11:00,16,31,30,17,37,23,30,26,26
12:12:00,32,36,15,21,25,21,24,26,25
12:13:00,32,40,28,28,29,32,19,31,30
12:14:00,17,25,25,25,15,22,29,21,23
12:15:00,37,46,21,33,39,16,37,35,33
12:16:00,27,26,20,22,32,43,24,25,28
12:17:00,32,31,25,29,30,37,26,29,30
12:18:00,37,37,12,37,32,20,31,31,29
12:19:00,26,25,22,17,32,40,34,24,28
12:20:00,27,29,17,27,34,35,37,27,29
12:21:00,37,19,26,28,34,26,33,29,29
12:22:00,26,37,24,31,25,34,21,29,28
12:23:00,27,23,25,32,25,25,33,26,27
12:24:00,24,27,28,16,20,27,32,23,25
12:25:00,32,25,20,22,30,29,28,26,27
12:26:00,32,32,24,25,30,19,38,29,29
12:27:00,29,35,22,27,32,29,28,29,29
12:28:00,21,36,17,21,36,36,37,26,29
12:29:00,33,27,23,25,30,31,26,28,28
12:30:00,33,29,13,25,25,37,22,25,26
12:31:00,28,30,11,18,25,27,36,22,25
12:32:00,32,27,26,27,32,31,30,29,29
12:33:00,39,22,24,26,27,42,31,28,30
12:34:00,25,27,29,25,26,31,31,26,28
12:35:00,33,18,17,40,37,32,26,29,29
12:36:00,19,27,26,27,22,23,32,24,25
12:37:00,21,27,23,20,21,41,27,22,26
12:38:00,28,21,24,27,27,35,33,25,28
12:39:00,36,35,20,18,33,24,27,28,28
12:40:00,33,28,21,29,28,32,30,28,29
12:41:00,23,22,25,32,37,35,28,28,29
12:42:00,28,18,21,35,18,27,29,24,25
12:43:00,25,30,11,27,35,30,33,26,27
12:44:00,23,24,24,28,26,32,29,25,27
12:45:00,32,32,26,34,32,37,36,31,33
12:46:00,31,15,33,25,21,30,28,25,26
12:47:00,23,37,29,27,37,35,38,31,32
12:48:00,29,34,19,28,27,38,25,27,29
12:49:00,32,24,13,32,22,21,29,25,25
12:50:00,29,32,21,33,39,25,26,31,29
12:51:00,27,36,20,19,28,26,21,26,25
12:52:00,25,29,16,35,27,31,36,26,28
12:53:00,30,20,17,21,30,25,34,24,25
12:54:00,22,25,19,27,25,21,22,24,23
12:55:00,30,25,22,26,38,29,29,28,28
12:56:00,35,29,25,35,25,39,35,30,32
12:57:00,31,33,22,33,31,27,29,30,29
12:58:00,33,30,18,30,22,29,34,27,28
12:59:00,30,35,23,26,33,27,27,29,29
13:00:00,18,31,14,24,28,24,20,23,23
13:01:00,29,18,22,40,37,35,27,29,30
13:02:00,25,41,14,20,21,33,30,24,26
13:03:00,32,22,23,16,18,29,25,22,24
13:04:00,32,24,21,21,37,31,29,27,28
13:05:00,26,36,17,29,27,30,38,27,29
13:06:00,29,30,24,28,35,35,25,29,29
13:07:00,21,30,16,25,30,28,31,24,26
13:08:00,34,28,17,24,34,33,31,27,29
13:09:00,25,21,29,25,40,21,28,28,27
13:10:00,30,42,16,18,26,25,38,26,28
13:11:00,19,17,17,24,29,37,26,21,24
13:12:00,28,26,16,24,34,37,28,26,28
13:13:00,28,18,13,35,26,32,24,24,25
13:14:00,27,35,16,26,30,32,35,27,29
13:15:00,32,33,14,31,19,25,28,26,26
13:16:00,37,35,15,21,29,28,34,27,28
13:17:00,28,34,18,26,36,38,29,28,30
13:18:00,31,23,22,31,35,26,26,28,28
13:19:00,20,19,23,16,31,30,33,22,25
13:20:00,21,19,27,40,29,22,34,27,27
13:21:00,36,32,18,26,37,21,31,30,29
13:22:00,23,28,15,23,35,23,28,25,25
13:23:00,18,35,15,25,33,20,26,25,25
13:24:00,24,19,21,29,28,37,25,24,26
13:25:00,36,19,23,24,22,33,33,25,27
13:26:00,30,28,15,23,28,26,22,25,25
13:27:00,34,29,20,29,22,26,24,27,26
13:28:00,19,24,20,23,37,24,30,25,25
13:29:00,26,30,14,37,33,37,27,28,29
13:30:00,24,36,20,31,20,27,28,26,27
13:31:00,24,26,29,22,15,26,25,23,24
13:32:00,24,35,21,38,35,27,25,31,29
13:33:00,29,24,22,21,33,31,21,26,26
13:34:00,26,30,15,17,31,34,30,24,26
13:35:00,26,26,23,33,34,20,35,28,28
13:36:00,28,21,14,22,32,41,20,23,25
13:37:00,30,32,16,21,30,20,30,26,26
13:38:00,35,31,10,28,24,24,31,26,26
13:39:00,31,28,21,19,35,34,28,27,28
13:40:00,24,24,22,27,37,32,14,27,26
13:41:00,37,31,16,37,25,35,28,29,30
13:42:00,35,34,23,26,26,39,30,29,30
13:43:00,24,39,16,29,35,34,40,29,31
13:44:00,23,31,20,24,35,25,15,27,25
13:45:00,27,33,16,26,23,34,19,25,25
13:46:00,32,25,21,28,26,27,31,26,27
13:47:00,29,26,20,31,37,32,36,29,30
13:48:00,26,23,23,29,29,28,21,26,26
13:49:00,29,33,22,17,40,30,23,28,28
13:50:00,20,18,20,31,39,28,30,26,27
13:51:00,32,29,19,21,27,26,29,26,26
13:52:00,23,32,23,29,26,28,31,27,27
13:53:00,31,31,27,28,31,24,31,30,29
13:54:00,30,25,21,14,29,37,27,24,26
13:55:00,29,22,12,36,29,23,29,26,26
13:56:00,14,32,14,33,35,21,22,26,24
13:57:00,24,23,19,30,33,35,25,26,27
13:58:00,35,33,24,21,31,20,23,29,27
13:59:00,30,32,23,23,33,38,27,28,29
14:00:00,32,29,14,18,43,43,30,27,30
14:01:00,35,22,20,28,33,33,27,28,28
14:02:00,25,30,16,18,34,23,24,25,24
14:03:00,32,25,15,31,30,24,23,27,26
14:04:00,26,33,20,34,31,32,29,29,29
14:05:00,16,22,16,16,31,29,24,20,22
14:06:00,37,37,37,28,34,36,26,35,34
14:07:00,36,23,20,32,31,31,25,28,28
14:08:00,38,43,17,31,35,36,26,33,32
14:09:00,28,32,28,23,28,31,22,28,27
14:10:00,33,29,19,20,26,22,30,25,26
14:11:00,38,18,28,28,36,43,17,30,30
14:12:00,35,29,32,23,28,20,26,29,28
14:13:00,35,34,18,36,34,30,29,31,31
14:14:00,26,29,15,25,26,35,22,24,25
14:15:00,18,31,21,32,31,25,26,27,26
14:16:00,29,25,17,27,30,34,32,26,28
14:17:00,38,22,20,24,33,29,25,27,27
14:18:00,22,21,14,38,25,28,25,24,25
14:19:00,25,31,21,24,32,27,31,27,27
14:20:00,35,26,17,27,37,27,19,28,27
14:21:00,32,41,25,25,28,15,10,30,25
14:22:00,27,22,25,26,33,35,33,27,29
14:23:00,27,29,20,25,31,16,36,26,26
14:24:00,19,33,18,20,16,38,31,21,25
14:25:00,33,25,27,41,35,23,18,32,29
14:26:00,28,35,24,20,27,20,21,27,25
14:27:00,35,37,17,22,21,23,25,26,26
14:28:00,39,22,16,24,23,25,28,25,25
14:29:00,47,17,22,28,34,28,25,30,29
14:30:00,25,26,27,23,26,23,28,25,25
14:31:00,36,28,24,18,15,29,24,24,25
14:32:00,27,32,21,26,17,28,28,25,26
14:33:00,40,27,18,20,22,23,26,25,25
14:34:00,26,30,21,35,32,27,30,29,29
14:35:00,29,27,26,32,11,26,18,25,24
14:36:00,25,24,17,34,29,42,22,26,28
14:37:00,27,33,19,23,35,34,29,27,29
14:38:00,24,24,20,25,35,31,26,26,26
14:39:00,28,27,31,36,25,32,24,29,29
14:40:00,24,34,22,20,20,24,26,24,24
14:41:00,32,26,17,29,28,34,17,26,26
14:42:00,28,26,22,30,28,32,21,27,27
14:43:00,28,29,20,32,23,16,26,26,25
14:44:00,25,32,15,34,41,37,28,29,30
14:45:00,34,30,22,36,27,16,28,30,28
14:46:00,31,28,23,21,31,23,18,27,25
14:47:00,30,33,13,27,39,24,24,28,27
14:48:00,22,28,8,24,31,23,23,23,23
14:49:00,26,33,27,32,24,31,31,28,29
14:50:00,24,36,38,32,37,20,28,33,31
14:51:00,37,27,17,25,33,31,26,28,28
14:52:00,34,29,19,31,40,26,24,31,29
14:53:00,25,30,34,25,33,32,27,29,29
14:54:00,22,33,17,35,35,32,32,28,29
14:55:00,39,22,17,22,19,31,26,24,25
14:56:00,21,26,20,26,29,22,20,24,23
14:57:00,28,29,11,27,26,35,22,24,25
14:58:00,31,27,17,26,32,31,26,27,27
14:59:00,37,28,20,21,31,28,26,27,27
15:00:00,28,32,25,33,31,22,15,30,27
15:01:00,26,17,24,23,29,24,15,24,23
15:02:00,34,31,18,30,16,37,26,26,27
15:03:00,31,35,23,36,39,31,19,33,31
15:04:00,34,27,24,21,27,29,31,27,28
15:05:00,29,30,18,28,24,33,29,26,27
15:06:00,34,21,14,29,23,16,25,24,23
15:07:00,30,34,23,29,37,27,20,31,29
15:08:00,29,22,33,38,27,32,25,30,29
15:09:00,37,41,21,29,24,26,18,30,28
15:10:00,32,33,22,25,27,30,22,28,27
15:11:00,24,37,20,31,29,24,16,28,26
15:12:00,41,29,11,35,32,31,31,30,30
15:13:00,26,29,24,35,31,24,34,29,29
15:14:00,22,30,11,38,24,19,23,25,24
15:15:00,34,31,11,28,27,20,21,26,25
15:16:00,31,28,17,38,26,26,19,28,26
15:17:00,26,27,18,35,30,32,24,27,27
15:18:00,44,35,20,22,27,15,10,30,25
15:19:00,29,31,23,24,28,34,32,27,29
15:20:00,34,45,17,26,23,22,23,29,27
15:21:00,35,24,24,19,23,21,13,25,23
15:22:00,29,31,15,26,26,19,21,25,24
15:23:00,33,38,21,34,14,30,31,28,29
15:24:00,27,30,20,24,18,29,26,24,25
15:25:00,29,23,11,26,24,24,25,23,23
15:26:00,26,30,21,28,40,21,18,29,26
15:27:00,35,34,15,21,23,27,25,26,26
15:28:00,33,32,15,31,26,13,30,27,26
15:29:00,18,22,13,11,27,23,29,18,20
15:30:00,31,33,23,31,32,25,37,30,30
15:31:00,35,35,14,37,34,29,20,31,29
15:32:00,29,19,18,27,30,29,21,25,25
15:33:00,31,32,9,26,22,20,23,24,23
15:34:00,28,34,20,29,28,27,22,28,27
15:35:00,33,26,17,28,28,17,25,26,25
15:36:00,27,30,22,31,30,28,20,28,27
15:37:00,24,30,23,29,34,24,36,28,29
15:38:00,35,32,18,49,31,26,22,33,30
15:39:00,30,37,16,21,35,24,30,28,28
15:40:00,39,25,9,29,22,33,19,25,25
15:41:00,25,25,20,24,21,36,28,23,26
15:42:00,24,27,19,20,31,34,29,24,26
15:43:00,39,29,11,29,27,26,22,27,26
15:44:00,19,29,20,30,37,39,20,27,28
15:45:00,29,28,13,24,31,31,25,25,26
15:46:00,23,22,10,27,28,20,27,22,22
15:47:00,24,33,20,32,21,32,27,26,27
15:48:00,24,34,10,25,33,25,18,25,24
15:49:00,30,31,18,31,26,26,30,27,27
15:50:00,21,24,13,28,32,28,25,24,24
15:51:00,18,27,15,26,28,33,22,23,24
15:52:00,30,31,17,24,32,33,29,27,28
15:53:00,22,35,13,27,26,27,19,25,24
15:54:00,30,36,12,28,25,37,29,26,28
15:55:00,27,28,15,27,16,23,17,23,22
15:56:00,26,27,16,38,33,35,27,28,29
15:57:00,27,32,23,29,30,21,37,28,28
15:58:00,18,30,25,29,35,33,22,27,27
15:59:00,38,25,16,24,32,17,31,27,26
16:00:00,28,23,11,25,24,28,29,22,24
16:01:00,25,28,27,33,36,32,21,30,29
16:02:00,30,30,24,34,31,26,22,30,28
16:03:00,30,26,17,22,22,26,21,23,23
16:04:00,33,36,18,33,27,15,22,29,26
16:05:00,26,24,22,32,30,25,14,27,25
16:06:00,24,30,18,25,33,24,21,26,25
16:07:00,28,21,19,21,29,25,21,24,23
16:08:00,30,30,28,28,31,28,17,29,27
16:09:00,21,34,16,39,44,25,23,31,29
16:10:00,23,30,13,26,24,35,24,23,25
16:11:00,33,30,20,28,25,26,23,27,26
16:12:00,38,29,11,34,36,30,22,30,29
16:13:00,33,23,29,26,39,13,37,30,29
16:14:00,25,27,20,32,31,19,30,27,26
16:15:00,38,22,11,33,31,38,26,27,28
16:16:00,42,26,13,39,38,30,20,32,30
16:17:00,38,27,24,38,29,31,24,31,30
16:18:00,41,23,24,34,34,18,23,31,28
16:19:00,33,29,17,27,32,33,24,28,28
16:20:00,24,30,21,33,30,28,20,28,27
16:21:00,44,38,15,32,26,24,27,31,29
16:22:00,24,19,21,30,38,29,28,26,27
16:23:00,30,17,15,29,38,33,30,26,27
16:24:00,23,24,12,30,28,15,20,23,22
16:25:00,29,22,17,20,32,34,21,24,25
16:26:00,30,21,22,30,20,35,20,25,25
16:27:00,38,25,8,27,37,23,17,27,25
16:28:00,29,25,9,41,36,23,34,28,28
16:29:00,34,30,17,26,28,30,30,27,28
16:30:00,33,35,16,32,33,28,17,30,28
16:31:00,33,28,19,32,34,16,15,29,25
16:32:00,33,38,18,23,27,21,20,28,26
16:33:00,40,29,13,29,35,37,16,29,28
16:34:00,19,29,9,29,33,19,16,24,22
16:35:00,28,25,18,28,29,30,20,26,25
16:36:00,31,31,10,29,35,27,17,27,26
16:37:00,27,29,11,22,32,26,13,24,23
16:38:00,30,32,14,28,35,24,11,28,25
16:39:00,30,25,16,33,32,21,14,27,24
16:40:00,31,20,20,34,31,30,16,27,26
16:41:00,34,31,14,27,31,21,11,27,24
16:42:00,25,20,14,35,41,26,19,27,26
16:43:00,24,29,12,37,30,21,19,26,25
16:44:00,28,25,17,30,36,31,24,27,27
16:45:00,30,17,18,32,35,21,20,26,25
16:46:00,33,19,21,31,32,30,20,27,27
16:47:00,34,28,20,27,30,22,27,28,27
16:48:00,26,34,23,30,23,32,19,27,27
16:49:00,30,21,15,30,40,13,13,27,23
16:50:00,25,36,13,23,36,22,12,27,24
16:51:00,34,20,8,27,33,31,19,24,25
16:52:00,24,29,11,18,25,32,15,21,22
16:53:00,32,18,12,16,27,18,27,21,21
16:54:00,21,31,25,23,17,26,16,23,23
16:55:00,19,20,24,24,31,27,29,24,25
16:56:00,19,18,12,34,33,25,16,23,22
16:57:00,35,21,18,32,32,27,22,28,27
16:58:00,24,31,11,40,36,21,20,28,26
16:59:00,30,26,15,32,28,18,20,26,24
17:00:00,18,21,15,25,30,18,23,22,21
17:01:00,27,28,18,22,22,27,19,23,23
17:02:00,26,33,16,24,40,34,18,28,27
17:03:00,22,16,20,31,24,16,19,23,21
17:04:00,21,19,22,28,30,22,21,24,23
17:05:00,24,28,15,23,29,33,18,24,24
17:06:00,28,33,15,39,35,28,19,30,28
17:07:00,34,19,15,41,35,22,15,29,26
17:08:00,31,30,17,26,32,27,30,27,28
17:09:00,20,16,13,35,28,27,20,22,23
17:10:00,31,19,17,41,46,27,22,31,29
17:11:00,32,21,8,26,31,27,10,24,22
17:12:00,27,26,25,30,35,33,14,29,27
17:13:00,32,24,7,32,43,15,26,28,26
17:14:00,30,23,14,41,29,19,25,27,26
17:15:00,37,24,20,32,35,25,16,30,27
17:16:00,33,27,19,28,32,28,27,28,28
17:17:00,29,25,13,30,37,15,10,27,23
17:18:00,30,18,18,43,35,27,15,29,27
17:19:00,25,23,17,36,26,14,20,25,23
17:20:00,31,25,19,38,22,20,9,27,23
17:21:00,34,27,16,35,32,18,12,29,25
17:22:00,16,20,14,32,41,24,12,25,23
17:23:00,34,23,15,25,31,19,15,26,23
17:24:00,34,28,24,30,36,21,13,30,27
17:25:00,22,24,13,34,28,18,17,24,22
17:26:00,28,22,10,33,31,21,11,25,22
17:27:00,17,21,14,30,38,22,9,24,22
17:28:00,26,23,13,30,27,26,13,24,23
17:29:00,24,25,14,38,34,17,15,27,24
17:30:00,32,13,17,25,25,9,15,22,19
17:31:00,21,19,26,32,28,15,14,25,22
17:32:00,21,30,13,30,45,18,8,28,24
17:33:00,31,13,12,36,34,29,20,25,25
17:34:00,30,26,14,24,24,19,21,24,23
17:35:00,23,17,9,24,33,25,5,21,19
17:36:00,19,16,8,21,23,20,17,17,18
17:37:00,21,20,17,30,26,18,13,23,21
17:38:00,24,16,13,31,28,31,15,22,23
17:39:00,14,17,10,27,27,26,16,19,20
17:40:00,21,18,9,38,30,16,19,23,22
17:41:00,21,25,14,30,31,21,21,24,23
17:42:00,26,23,11,35,25,19,16,24,22
17:43:00,14,15,14,35,22,21,14,20,19
17:44:00,29,28,12,36,37,22,17,28,26
17:45:00,33,18,18,30,27,17,11,25,22
17:46:00,24,18,12,31,36,24,17,24,23
17:47:00,31,18,12,34,26,22,12,24,22
17:48:00,27,30,6,34,15,28,13,22,22
17:49:00,19,22,13,37,39,18,13,26,23
17:50:00,21,27,5,22,23,20,16,20,19
17:51:00,34,18,12,36,28,21,16,26,24
17:52:00,19,27,9,23,34,23,15,22,21
17:53:00,20,21,11,37,21,18,15,22,20
17:54:00,21,20,10,24,36,17,16,22,21
17:55:00,14,14,5,26,28,17,11,17,16
17:56:00,11,16,19,30,26,18,13,20,19
17:57:00,20,30,15,22,27,19,16,23,21
17:58:00,26,10,12,27,23,22,19,20,20
17:59:00,12,14,13,23,28,22,24,18,19
18:00:00,18,18,14,25,18,16,19,19,18
18:01:00,24,15,8,27,15,13,18,18,17
18:02:00,20,21,7,24,19,16,27,18,19
18:03:00,18,23,11,18,27,25,19,19,20
18:04:00,29,16,11,19,29,23,14,21,20
18:05:00,24,20,7,27,26,13,17,21,19
18:06:00,22,20,14,22,26,25,15,21,21
18:07:00,19,22,14,26,20,20,15,20,19
18:08:00,22,24,11,21,35,15,19,23,21
18:09:00,8,17,11,25,29,22,17,18,18
18:10:00,20,15,16,21,24,18,16,19,19
18:11:00,15,13,9,25,25,25,16,17,18
18:12:00,14,17,11,26,22,13,12,18,16
18:13:00,24,12,11,27,18,24,17,18,19
18:14:00,18,22,13,23,27,17,16,21,19
18:15:00,20,15,14,12,30,20,15,18,18
18:16:00,17,17,18,17,27,22,14,19,19
18:17:00,18,17,17,35,23,14,23,22,21
18:18:00,14,15,14,14,24,21,19,16,17
18:19:00,23,11,13,23,21,21,15,18,18
18:20:00,27,11,10,20,20,19,15,18,17
18:21:00,20,23,10,25,28,14,13,21,19
18:22:00,26,15,10,18,27,22,21,19,20
18:23:00,18,18,7,12,27,13,14,16,16
18:24:00,24,26,20,30,15,26,10,23,22
18:25:00,14,17,13,21,11,17,14,15,15
18:26:00,23,20,15,27,16,18,11,20,19
18:27:00,15,15,8,15,26,17,10,16,15
18:28:00,15,11,7,23,19,14,14,15,15
18:29:00,13,12,13,20,31,10,10,18,16
18:30:00,11,19,8,18,12,23,18,14,16
18:31:00,21,17,10,19,16,20,9,17,16
18:32:00,23,23,8,18,26,13,13,20,18
18:33:00,19,25,11,14,18,16,6,17,16
18:34:00,14,21,9,26,22,12,14,18,17
18:35:00,26,9,7,13,22,16,12,15,15
18:36:00,16,15,15,22,27,18,9,19,17
18:37:00,25,11,16,16,16,15,11,17,16
18:38:00,29,26,11,20,20,10,17,21,19
18:39:00,26,19,9,23,13,11,13,18,16
18:40:00,20,21,4,30,15,19,7,18,17
18:41:00,19,13,4,20,15,18,11,14,14
18:42:00,24,26,9,22,22,19,12,21,19
18:43:00,17,16,13,25,29,13,12,20,18
18:44:00,9,14,16,19,21,19,10,16,15
18:45:00,18,23,7,20,20,14,15,18,17
18:46:00,19,21,9,17,22,18,10,18,17
18:47:00,11,13,15,23,22,10,13,17,15
18:48:00,17,16,9,21,23,19,8,17,16
18:49:00,17,19,15,13,25,20,8,18,17
18:50:00,19,21,4,19,20,22,11,17,17
18:51:00,11,25,16,18,27,16,10,19,18
18:52:00,10,12,18,16,17,21,12,15,15
18:53:00,14,14,16,19,18,18,16,16,16
18:54:00,16,23,12,22,19,20,7,18,17
18:55:00,12,20,7,15,21,20,9,15,15
18:56:00,21,18,11,15,16,15,12,16,15
18:57:00,16,18,13,20,19,15,14,17,16
18:58:00,16,20,8,20,19,16,11,17,16
18:59:00,12,19,20,11,15,15,12,15,15
19:00:00,28,23,7,26,19,15,4,21,17
19:01:00,15,24,11,19,18,11,15,17,16
19:02:00,14,16,10,11,25,13,6,15,14
19:03:00,20,17,13,23,19,13,9,18,16
19:04:00,11,26,13,14,22,10,7,17,15
19:05:00,20,14,10,17,25,10,20,17,17
19:06:00,19,24,11,19,21,19,8,19,17
19:07:00,14,24,9,21,22,16,9,18,16
19:08:00,19,19,19,18,23,21,8,20,18
19:09:00,23,23,15,15,21,13,8,19,17
19:10:00,12,24,11,19,25,4,11,18,15
19:11:00,22,27,11,22,16,22,14,20,19
19:12:00,24,16,7,20,14,10,13,16,15
19:13:00,20,17,12,9,20,12,15,16,15
19:14:00,14,21,17,21,12,12,12,17,16
19:15:00,15,15,10,17,21,14,13,16,15
19:16:00,17,18,10,24,22,16,13,18,17
19:17:00,24,26,6,23,13,13,17,18,17
19:18:00,20,21,7,13,14,15,7,15,14
19:19:00,23,21,11,14,16,15,18,17,17
19:20:00,8,18,17,13,11,10,11,13,13
19:21:00,10,18,19,19,20,17,9,17,16
19:22:00,17,19,5,13,15,14,16,14,14
19:23:00,17,17,9,12,12,10,13,13,13
19:24:00,16,11,19,14,9,13,15,14,14
19:25:00,20,22,13,17,18,10,9,18,16
19:26:00,8,7,9,6,10,11,10,8,9
19:27:00,20,21,8,12,19,9,11,16,14
19:28:00,14,10,11,14,16,16,13,13,13
19:29:00,14,18,9,11,19,10,6,14,12
19:30:00,18,17,9,27,13,13,4,17,14
19:31:00,9,10,10,11,11,15,16,10,12
19:32:00,9,22,10,8,6,12,11,11,11
19:33:00,9,14,14,20,16,13,10,15,14
19:34:00,15,26,12,7,16,13,7,15,14
19:35:00,9,16,12,12,23,16,20,14,15
19:36:00,11,28,8,16,25,13,17,18,17
19:37:00,9,21,13,16,17,11,7,15,13
19:38:00,16,17,7,12,11,7,12,13,12
19:39:00,15,24,10,20,19,16,9,18,16
19:40:00,15,20,9,14,19,8,17,15,15
19:41:00,12,10,7,13,16,17,11,12,12
19:42:00,19,25,13,12,26,11,11,19,17
19:43:00,16,16,14,10,10,10,5,13,12
19:44:00,11,13,13,17,9,18,14,13,14
19:45:00,13,14,19,10,26,14,10,16,15
19:46:00,10,18,11,16,9,10,11,13,12
19:47:00,12,13,14,14,14,15,10,13,13
19:48:00,6,17,7,16,18,18,10,13,13
19:49:00,15,18,17,14,11,14,7,15,14
19:50:00,17,18,9,9,10,14,9,13,12
19:51:00,10,10,16,11,11,7,7,12,10
19:52:00,11,12,8,9,22,10,15,12,12
19:53:00,14,24,10,19,12,14,3,16,14
19:54:00,14,18,8,9,15,15,9,13,13
19:55:00,11,16,11,11,26,9,13,15,14
19:56:00,8,15,12,20,13,12,11,14,13
19:57:00,13,21,11,29,16,12,13,18,16
19:58:00,17,14,6,13,11,14,11,12,12
19:59:00,10,18,11,16,10,21,14,13,14
20:00:00,20,15,11,15,17,3,12,16,13
20:01:00,11,11,10,19,19,19,15,14,15
20:02:00,13,12,16,9,12,7,10,12,11
20:03:00,8,15,13,10,12,6,6,12,10
20:04:00,16,12,11,8,11,10,12,12,11
20:05:00,13,16,12,10,22,12,14,15,14
20:06:00,13,24,5,9,12,10,15,13,13
20:07:00,15,12,11,19,13,8,8,14,12
20:08:00,8,18,11,9,14,19,9,12,13
20:09:00,8,21,5,17,8,11,6,12,11
20:10:00,9,11,15,22,11,8,12,14,13
20:11:00,11,13,8,10,14,6,10,11,10
20:12:00,11,13,16,11,15,11,16,13,13
20:13:00,8,10,16,15,16,15,20,13,14
20:14:00,11,20,10,8,13,13,14,12,13
20:15:00,18,16,9,11,11,10,10,13,12
20:16:00,9,8,17,15,19,12,13,14,13
20:17:00,13,18,16,14,15,10,13,15,14
20:18:00,10,13,14,7,14,11,8,12,11
20:19:00,18,16,10,19,10,6,7,15,12
20:20:00,9,17,10,9,12,8,6,11,10
20:21:00,9,8,12,8,7,6,12,9,9
20:22:00,5,14,8,14,17,7,9,12,11
20:23:00,13,8,7,20,25,12,13,15,14
20:24:00,16,16,10,9,23,13,10,15,14
20:25:00,7,16,5,8,9,10,8,9,9
20:26:00,12,8,9,11,7,10,7,9,9
20:27:00,8,9,11,10,15,12,10,11,11
20:28:00,3,11,13,12,12,5,8,10,9
20:29:00,9,9,5,2,10,5,9,7,7
20:30:00,12,5,10,9,9,11,10,9,9
20:31:00,6,9,10,9,15,6,10,10,9
20:32:00,8,9,7,13,7,8,10,9,9
20:33:00,11,11,6,10,9,6,8,9,9
20:34:00,10,11,11,4,9,4,7,9,8
20:35:00,14,8,11,12,13,7,5,12,10
20:36:00,7,12,7,8,12,8,9,9,9
20:37:00,12,4,11,9,15,7,3,10,9
20:38:00,14,8,8,10,5,11,10,9,9
20:39:00,6,7,4,7,9,5,8,7,7
20:40:00,8,12,10,9,6,8,12,9,9
20:41:00,16,5,5,11,10,8,5,9,9
20:42:00,9,5,12,12,8,9,5,9,9
20:43:00,7,6,6,4,7,10,8,6,7
20:44:00,13,6,7,9,8,10,3,9,8
20:45:00,10,12,3,10,6,10,5,8,8
20:46:00,9,8,8,10,9,7,10,9,9
20:47:00,8,16,12,5,7,5,7,10,9
20:48:00,14,7,5,6,9,7,8,8,8
20:49:00,1,13,10,8,10,10,10,8,9
20:50:00,12,9,9,6,5,6,10,8,8
20:51:00,7,5,5,14,9,9,5,8,8
20:52:00,13,9,9,10,7,10,5,10,9
20:53:00,12,11,6,9,9,4,6,9,8
20:54:00,7,11,7,10,2,10,9,7,8
20:55:00,6,5,7,9,7,6,7,7,7
20:56:00,9,7,10,7,10,11,5,9,8
20:57:00,6,11,10,6,6,9,2,8,7
20:58:00,10,6,8,7,9,6,5,8,7
20:59:00,11,6,5,1,10,7,14,7,8
21:00:00,9,15,13,16,10,7,7,13,11
21:01:00,4,4,9,10,9,5,10,7,7
21:02:00,5,10,7,8,10,3,9,8,7
21:03:00,8,5,7,8,8,5,11,7,7
21:04:00,8,10,10,5,6,6,8,8,8
21:05:00,14,13,8,12,10,12,8,11,11
21:06:00,4,9,5,7,10,8,4,7,7
21:07:00,9,5,6,6,4,12,8,6,7
21:08:00,13,9,8,8,10,9,8,10,9
21:09:00,9,10,7,8,10,8,3,9,8
21:10:00,2,4,7,14,14,7,7,8,8
21:11:00,9,6,8,11,7,7,8,8,8
21:12:00,5,5,8,9,12,9,9,8,8
21:13:00,11,2,9,13,6,8,9,8,8
21:14:00,10,5,9,6,11,10,7,8,8
21:15:00,9,7,8,15,5,4,12,9,9
21:16:00,5,5,9,12,11,3,4,8,7
21:17:00,10,7,5,6,11,4,12,8,8
21:18:00,10,7,7,3,14,11,9,8,9
21:19:00,3,9,5,9,11,7,6,7,7
21:20:00,9,7,7,14,6,13,8,9,9
21:21:00,5,4,3,12,6,7,5,6,6
21:22:00,10,3,7,7,6,5,4,7,6
21:23:00,5,8,5,5,8,10,7,6,7
21:24:00,7,11,6,8,8,6,7,8,8
21:25:00,9,5,8,11,3,1,9,7,7
21:26:00,7,12,4,9,13,4,13,9,9
21:27:00,3,6,6,4,8,5,8,5,6
21:28:00,10,6,5,5,8,11,7,7,7
21:29:00,2,8,6,4,9,2,8,6,6
21:30:00,8,7,4,5,8,11,6,6,7
21:31:00,9,6,6,12,5,7,10,8,8
21:32:00,7,7,2,8,3,7,9,5,6
21:33:00,7,8,8,11,9,3,11,9,8
21:34:00,2,1,8,8,4,3,8,5,5
21:35:00,5,4,10,10,12,5,10,8,8
21:36:00,5,10,7,8,10,8,5,8,8
21:37:00,10,7,4,3,9,9,6,7,7
21:38:00,4,8,7,4,5,7,8,6,6
21:39:00,5,9,12,10,11,5,5,9,8
21:40:00,5,13,8,14,9,7,6,10,9
21:41:00,3,7,4,9,11,3,5,7,6
21:42:00,5,5,4,8,15,4,8,7,7
21:43:00,5,3,5,6,6,5,3,5,5
21:44:00,12,5,0,6,8,5,6,6,6
21:45:00,10,3,8,3,9,4,7,7,6
21:46:00,7,8,8,14,4,5,5,8,7
21:47:00,6,2,9,7,7,6,4,6,6
21:48:00,5,5,9,5,5,7,4,6,6
21:49:00,11,7,5,8,10,16,3,8,9
21:50:00,6,7,7,5,6,5,4,6,6
21:51:00,10,6,4,8,11,11,6,8,8
21:52:00,6,5,7,4,11,9,4,7,7
21:53:00,4,5,7,8,7,5,5,6,6
21:54:00,4,2,8,11,5,6,3,6,6
21:55:00,11,9,10,1,3,6,6,7,7
21:56:00,5,4,5,8,8,9,6,6,6
21:57:00,5,3,5,7,2,11,3,4,5
21:58:00,11,3,5,3,5,10,9,5,7
21:59:00,7,3,4,8,7,3,8,6,6
22:00:00,11,8,9,7,8,7,5,9,8
22:01:00,6,8,4,5,8,6,3,6,6
22:02:00,5,4,2,7,8,9,4,5,6
22:03:00,10,8,7,9,4,7,5,8,7
22:04:00,7,7,5,7,5,8,6,6,6
22:05:00,7,6,14,6,6,4,8,8,7
22:06:00,6,4,7,15,6,7,2,8,7
22:07:00,5,5,3,8,6,9,5,5,6
22:08:00,11,7,5,11,3,11,2,7,7
22:09:00,10,4,4,11,5,7,9,7,7
22:10:00,12,9,8,6,5,8,8,8,8
22:11:00,10,11,9,9,5,8,8,9,9
22:12:00,8,8,5,9,5,8,10,7,8
22:13:00,7,6,5,4,14,7,8,7,7
22:14:00,9,6,10,13,9,12,3,9,9
22:15:00,3,6,7,10,11,5,7,7,7
22:16:00,9,9,6,8,3,8,9,7,7
22:17:00,11,4,9,16,13,12,8,11,10
22:18:00,5,1,4,8,5,10,3,5,5
22:19:00,9,8,6,9,5,10,3,7,7
22:20:00,0,2,5,9,6,7,8,4,5
22:21:00,10,5,6,10,6,6,9,7,7
22:22:00,8,3,2,8,7,8,2,6,5
22:23:00,6,1,3,11,10,9,2,6,6
22:24:00,5,4,3,11,10,5,3,7,6
22:25:00,6,2,3,12,8,8,3,6,6
22:26:00,3,6,3,6,9,4,3,5,5
22:27:00,5,3,4,14,8,6,7,7,7
22:28:00,3,4,2,9,4,10,5,4,5
22:29:00,6,3,3,6,12,6,5,6,6
22:30:00,10,6,6,7,7,6,4,7,7
22:31:00,1,5,4,5,4,8,2,4,4
22:32:00,5,2,6,3,6,8,1,4,4
22:33:00,3,2,7,9,10,7,2,6,6
22:34:00,4,5,2,5,10,5,2,5,5
22:35:00,4,4,3,5,4,17,1,4,5
22:36:00,4,3,7,1,10,5,2,5,5
22:37:00,4,6,4,3,7,10,2,5,5
22:38:00,8,4,3,10,7,5,4,6,6
22:39:00,7,5,6,7,5,9,5,6,6
22:40:00,5,1,6,6,9,5,9,5,6
22:41:00,3,4,3,5,7,7,5,4,5
22:42:00,7,6,0,3,5,5,5,4,4
22:43:00,3,2,5,5,7,4,6,4,5
22:44:00,3,3,4,8,3,3,2,4,4
22:45:00,8,7,3,6,6,5,4,6,6
22:46:00,3,8,1,5,9,6,7,5,6
22:47:00,1,7,1,2,9,4,5,4,4
22:48:00,5,6,0,7,5,5,3,5,4
22:49:00,8,6,4,8,4,4,5,6,6
22:50:00,8,8,3,7,9,6,4,7,6
22:51:00,4,6,3,4,8,3,4,5,5
22:52:00,6,1,5,5,8,5,1,5,4
22:53:00,7,6,5,3,8,7,5,6,6
22:54:00,5,2,0,4,8,7,1,4,4
22:55:00,5,3,1,5,4,8,7,4,5
22:56:00,9,2,2,2,6,3,5,4,4
22:57:00,3,3,4,8,6,4,6,5,5
22:58:00,3,5,2,1,7,5,1,4,3
22:59:00,5,4,4,4,4,7,3,4,4
23:00:00,5,2,3,1,9,2,2,4,3
23:01:00,5,6,0,5,5,5,2,4,4
23:02:00,6,3,1,2,1,4,0,3,2
23:03:00,5,6,7,2,4,1,1,5,4
23:04:00,5,3,1,4,3,3,1,3,3
23:05:00,6,6,2,3,7,6,3,5,5
23:06:00,6,5,1,3,4,4,2,4,4
23:07:00,6,10,5,3,4,7,1,6,5
23:08:00,2,2,3,5,6,4,5,4,4
23:09:00,1,6,4,7,9,6,1,5,5
23:10:00,4,7,0,5,6,4,2,4,4
23:11:00,3,2,7,3,6,6,0,4,4
23:12:00,3,5,2,3,7,11,2,4,5
23:13:00,8,4,5,3,6,9,3,5,5
23:14:00,3,2,4,3,7,5,0,4,3
23:15:00,2,5,0,3,3,9,3,3,4
23:16:00,4,5,1,2,3,5,1,3,3
23:17:00,3,2,3,2,8,6,2,4,4
23:18:00,4,8,5,6,7,10,2,6,6
23:19:00,1,2,1,6,2,9,2,2,3
23:20:00,7,4,1,7,5,5,3,5,5
23:21:00,7,6,0,1,5,7,3,4,4
23:22:00,6,3,3,8,4,6,4,5,5
23:23:00,8,2,1,1,3,5,1,3,3
23:24:00,4,1,2,1,4,5,0,2,2
23:25:00,4,3,4,3,3,9,0,3,4
23:26:00,3,2,2,1,2,5,2,2,2
23:27:00,6,4,5,1,2,2,2,4,3
23:28:00,0,1,1,4,3,2,4,2,2
23:29:00,3,2,2,3,4,3,4,3,3
23:30:00,5,6,1,3,5,5,3,4,4
23:31:00,5,2,2,1,2,6,1,2,3
23:32:00,5,1,1,2,1,7,3,2,3
23:33:00,7,2,0,6,1,9,7,3,5
23:34:00,5,4,0,5,5,5,2,4,4
23:35:00,2,3,3,3,3,3,2,3,3
23:36:00,2,4,5,3,6,6,2,4,4
23:37:00,0,3,2,3,4,1,1,2,2
23:38:00,1,1,2,3,0,2,0,1,1
23:39:00,1,3,1,0,5,10,2,2,3
23:40:00,6,2,1,3,2,6,0,3,3
23:41:00,3,4,1,2,9,7,2,4,4
23:42:00,4,2,0,2,2,5,1,2,2
23:43:00,3,3,1,0,1,1,1,2,1
23:44:00,4,2,2,5,1,3,1,3,3
23:45:00,1,4,3,2,4,5,1,3,3
23:46:00,3,2,2,4,3,8,2,3,3
23:47:00,3,8,1,0,5,1,1,3,3
23:48:00,5,3,1,3,7,3,0,4,3
23:49:00,2,2,1,2,8,8,3,3,4
23:50:00,2,1,1,1,4,4,1,2,2
23:51:00,2,1,2,2,7,1,1,3,2
23:52:00,4,0,0,2,3,9,0,2,3
23:53:00,1,4,2,2,3,5,1,2,3
23:54:00,3,0,0,4,2,2,2,2,2
23:55:00,3,5,1,1,6,4,3,3,3
23:56:00,6,2,3,3,5,5,2,4,4
23:57:00,2,2,2,2,0,9,2,2,3
23:58:00,4,1,0,0,4,3,3,2,2
23:59:00,4,2,2,2,4,5,1,3,3
,,,,,,,,,
Totals,,,,,,,,,
12H(7-19),17887,17103,10098,18221,19585,16644,14128,16579,16238
16H(6-22),20207,19603,11871,20843,22340,18632,15937,18973,18490
18H(6-24),20799,20095,12257,21442,23010,19360,16322,19521,19041
24H(0-24),21220,20503,13598,21840,23452,19777,16799,20123,19598
,,,,,,,,,
AM Peak,10:58:00,10:39:00,11:00:00,09:59:00,10:58:00,10:57:00,10:57:00,10:01:00,10:01:00
,1717,1695,1094,1492,1753,1730,1485,1398,1424
,,,,,,,,,
PM Peak,14:25:00,14:40:00,12:02:00,16:56:00,16:33:00,12:16:00,12:18:00,14:39:00,12:00:00
,1826,1803,1320,1884,1930,1837,1797,1638,1667
,,,,,,,,,
,,,,,,,,,
CA Traffic,,,,,,,,,VDA-net R2 16/01/2020
