Site Number,00009151,Unnamed: 2,Site Reference,00009151.1,Unnamed: 5,Unnamed: 6,Lat/Lng.,"52.04302,1.10101",Unnamed: 9
London Road Ipswich,,,,,,,,,
Vehicle Count Report,,,,Week Begin: 02 December 2019,,,Channel:,Total Flow,
,,,,,,,,,
,,,,,,,,,
,2019-12-02 00:00:00,2019-12-03 00:00:00,2019-12-04 00:00:00,2019-12-05 00:00:00,2019-12-06 00:00:00,2019-12-07 00:00:00,2019-12-08 00:00:00,"5-Day
Ave.","7-Day
Ave."
00:00:00,1,1,6,5,0,6,6,3,4
00:01:00,2,5,0,3,1,4,7,2,3
00:02:00,2,1,2,1,1,7,1,1,2
00:03:00,1,0,0,0,5,5,8,1,3
00:04:00,0,6,1,1,2,1,5,2,2
00:05:00,0,2,1,1,3,5,9,1,3
00:06:00,2,3,6,2,4,4,9,3,4
00:07:00,0,1,2,3,1,6,6,1,3
00:08:00,2,2,1,1,0,2,6,1,2
00:09:00,1,2,3,5,3,3,1,3,3
00:10:00,2,2,4,4,5,10,9,3,5
00:11:00,3,3,2,2,4,5,2,3,3
00:12:00,4,2,5,4,6,2,3,4,4
00:13:00,0,3,2,4,2,3,5,2,3
00:14:00,2,2,5,2,4,4,3,3,3
00:15:00,1,7,5,2,6,3,12,4,5
00:16:00,1,0,4,1,4,6,7,2,3
00:17:00,2,4,4,5,6,6,0,4,4
00:18:00,3,0,2,3,1,6,6,2,3
00:19:00,2,2,6,1,4,4,8,3,4
00:20:00,1,3,1,4,1,6,5,2,3
00:21:00,4,0,2,3,1,5,7,2,3
00:22:00,1,1,1,1,3,6,3,1,2
00:23:00,1,3,0,8,1,1,5,3,3
00:24:00,2,1,2,2,4,2,7,2,3
00:25:00,0,4,5,2,3,1,3,3,3
00:26:00,4,0,3,3,0,3,3,2,2
00:27:00,1,1,0,4,1,6,4,1,2
00:28:00,1,1,1,2,5,3,6,2,3
00:29:00,3,0,1,3,2,5,5,2,3
00:30:00,5,2,1,3,2,2,7,3,3
00:31:00,0,2,1,3,3,1,1,2,2
00:32:00,1,3,2,3,0,8,7,2,3
00:33:00,2,0,1,4,3,0,5,2,2
00:34:00,0,1,1,1,1,1,2,1,1
00:35:00,2,0,6,2,0,1,6,2,2
00:36:00,0,1,0,0,2,4,7,1,2
00:37:00,2,2,3,2,2,5,5,2,3
00:38:00,1,2,2,2,1,3,1,2,2
00:39:00,0,4,0,3,5,2,8,2,3
00:40:00,3,0,2,0,2,3,6,1,2
00:41:00,0,2,2,0,2,2,2,1,1
00:42:00,1,1,4,3,0,7,2,2,3
00:43:00,2,2,2,1,1,5,2,2,2
00:44:00,1,0,0,1,2,0,5,1,1
00:45:00,3,1,2,1,1,6,4,2,3
00:46:00,3,3,1,6,3,4,1,3,3
00:47:00,3,1,1,1,2,7,1,2,2
00:48:00,1,1,2,4,3,2,1,2,2
00:49:00,0,1,2,2,3,2,5,2,2
00:50:00,1,0,2,1,0,4,3,1,2
00:51:00,1,3,0,1,3,3,4,2,2
00:52:00,0,3,4,3,1,1,3,2,2
00:53:00,1,0,3,3,0,1,0,1,1
00:54:00,1,3,6,0,1,2,2,2,2
00:55:00,0,2,1,0,0,8,3,1,2
00:56:00,0,3,3,0,3,11,1,2,3
00:57:00,2,0,4,3,3,2,6,2,3
00:58:00,1,3,2,1,2,4,2,2,2
00:59:00,0,3,1,1,3,5,1,2,2
01:00:00,0,3,0,1,4,6,3,2,2
01:01:00,3,2,1,3,4,5,2,3,3
01:02:00,4,2,1,2,1,4,2,2,2
01:03:00,1,1,0,1,3,3,3,1,2
01:04:00,1,1,0,1,1,2,4,1,1
01:05:00,1,3,1,1,3,3,2,2,2
01:06:00,5,3,0,3,4,3,2,3,3
01:07:00,3,2,4,0,5,5,3,3,3
01:08:00,0,0,4,2,1,1,3,1,2
01:09:00,2,1,2,0,3,2,5,2,2
01:10:00,1,1,0,1,3,4,3,1,2
01:11:00,2,2,2,0,2,3,2,2,2
01:12:00,1,6,3,0,1,3,3,2,2
01:13:00,2,1,2,1,3,3,2,2,2
01:14:00,0,1,5,0,1,2,3,1,2
01:15:00,1,4,1,4,2,3,2,2,2
01:16:00,2,1,3,1,1,2,3,2,2
01:17:00,2,2,0,0,2,3,5,1,2
01:18:00,1,1,1,1,0,3,3,1,1
01:19:00,1,0,0,1,1,1,2,1,1
01:20:00,0,0,2,0,0,1,4,0,1
01:21:00,1,1,0,3,2,2,2,1,2
01:22:00,1,1,3,1,0,3,0,1,1
01:23:00,2,2,0,0,1,4,4,1,2
01:24:00,0,2,1,2,2,5,3,1,2
01:25:00,0,0,1,0,3,3,2,1,1
01:26:00,2,3,1,1,1,3,0,2,2
01:27:00,2,0,1,1,1,5,1,1,2
01:28:00,2,0,0,0,0,3,4,0,1
01:29:00,1,1,0,2,2,6,0,1,2
01:30:00,1,1,0,2,1,3,0,1,1
01:31:00,1,2,2,1,2,4,2,2,2
01:32:00,1,0,1,1,2,2,2,1,1
01:33:00,1,1,0,3,3,1,1,2,1
01:34:00,2,1,1,1,1,4,3,1,2
01:35:00,0,0,1,0,1,4,3,0,1
01:36:00,0,0,1,3,0,3,0,1,1
01:37:00,1,1,0,3,2,2,2,1,2
01:38:00,2,2,1,0,1,2,0,1,1
01:39:00,0,1,1,4,5,2,0,2,2
01:40:00,1,2,0,0,1,3,2,1,1
01:41:00,0,0,0,0,1,2,3,0,1
01:42:00,3,0,2,0,2,3,0,1,1
01:43:00,0,2,0,3,0,3,0,1,1
01:44:00,4,2,0,1,1,0,0,2,1
01:45:00,0,3,0,0,1,1,1,1,1
01:46:00,1,0,1,3,2,1,3,1,2
01:47:00,1,1,1,2,2,3,2,1,2
01:48:00,0,1,1,3,2,0,0,1,1
01:49:00,0,0,1,1,2,5,2,1,2
01:50:00,1,1,1,0,1,0,0,1,1
01:51:00,2,1,1,1,1,2,2,1,1
01:52:00,2,0,3,2,0,1,0,1,1
01:53:00,1,4,1,2,0,1,2,2,2
01:54:00,1,0,0,3,2,3,0,1,1
01:55:00,1,1,0,0,1,2,1,1,1
01:56:00,0,2,0,2,1,4,2,1,2
01:57:00,1,3,0,0,3,1,4,1,2
01:58:00,0,3,0,0,1,1,0,1,1
01:59:00,2,0,1,0,2,1,0,1,1
02:00:00,0,4,3,1,4,3,0,2,2
02:01:00,0,3,1,3,0,2,3,1,2
02:02:00,0,0,0,1,0,5,2,0,1
02:03:00,0,1,1,0,4,2,0,1,1
02:04:00,1,1,0,0,2,2,1,1,1
02:05:00,1,0,1,0,0,0,1,0,0
02:06:00,1,0,1,2,0,3,1,1,1
02:07:00,2,0,1,0,1,2,0,1,1
02:08:00,0,0,0,2,3,0,2,1,1
02:09:00,0,0,0,1,1,1,2,0,1
02:10:00,0,0,0,0,1,2,0,0,0
02:11:00,0,2,4,1,0,1,1,1,1
02:12:00,3,0,1,2,1,1,0,1,1
02:13:00,1,0,0,0,2,1,0,1,1
02:14:00,0,2,2,2,1,3,0,1,1
02:15:00,0,1,0,0,1,3,1,0,1
02:16:00,0,0,1,3,1,1,0,1,1
02:17:00,0,0,2,0,0,1,1,0,1
02:18:00,2,0,1,1,1,4,1,1,1
02:19:00,1,0,1,0,1,3,1,1,1
02:20:00,1,2,0,0,3,2,4,1,2
02:21:00,1,2,2,0,1,0,2,1,1
02:22:00,1,1,0,1,3,3,0,1,1
02:23:00,0,1,0,1,1,0,0,1,0
02:24:00,5,1,0,0,0,1,3,1,1
02:25:00,0,0,2,1,1,3,2,1,1
02:26:00,0,1,2,0,0,0,3,1,1
02:27:00,1,2,1,1,0,1,1,1,1
02:28:00,0,0,0,1,3,3,1,1,1
02:29:00,0,3,2,1,1,2,2,1,2
02:30:00,1,0,1,0,1,2,3,1,1
02:31:00,1,1,0,1,2,3,1,1,1
02:32:00,0,0,0,0,1,4,0,0,1
02:33:00,0,1,2,0,0,2,0,1,1
02:34:00,1,1,1,1,2,2,1,1,1
02:35:00,0,0,2,0,0,3,4,0,1
02:36:00,0,1,0,1,0,1,1,0,1
02:37:00,3,0,2,2,0,3,3,1,2
02:38:00,1,0,0,0,2,0,2,1,1
02:39:00,0,1,2,0,2,0,1,1,1
02:40:00,0,1,2,0,2,1,3,1,1
02:41:00,2,3,0,0,1,1,1,1,1
02:42:00,2,2,0,2,0,1,2,1,1
02:43:00,0,2,0,1,3,2,1,1,1
02:44:00,0,1,1,1,1,2,0,1,1
02:45:00,0,1,1,1,1,0,4,1,1
02:46:00,0,1,0,0,0,0,1,0,0
02:47:00,2,1,2,0,3,4,2,2,2
02:48:00,1,1,3,1,0,3,1,1,1
02:49:00,1,3,0,4,0,3,1,2,2
02:50:00,1,0,0,0,0,3,0,0,1
02:51:00,1,1,1,0,0,4,0,1,1
02:52:00,1,2,0,2,4,0,0,2,1
02:53:00,2,1,0,0,0,0,2,1,1
02:54:00,0,1,2,1,1,1,2,1,1
02:55:00,0,1,0,3,0,1,2,1,1
02:56:00,1,0,1,2,4,4,0,2,2
02:57:00,0,1,2,0,0,2,4,1,1
02:58:00,1,1,0,0,2,1,2,1,1
02:59:00,2,0,0,0,1,1,1,1,1
03:00:00,2,0,0,0,1,1,1,1,1
03:01:00,0,2,1,0,1,2,1,1,1
03:02:00,0,0,1,3,1,1,0,1,1
03:03:00,1,0,0,1,0,1,3,0,1
03:04:00,1,0,0,0,1,3,2,0,1
03:05:00,2,2,0,1,1,1,1,1,1
03:06:00,0,0,0,0,3,5,1,1,1
03:07:00,1,1,0,2,2,2,2,1,1
03:08:00,1,0,3,0,0,1,1,1,1
03:09:00,0,0,1,1,1,0,1,1,1
03:10:00,1,1,1,1,1,2,1,1,1
03:11:00,0,1,0,2,1,2,2,1,1
03:12:00,1,2,0,0,0,3,2,1,1
03:13:00,0,0,3,1,1,2,3,1,1
03:14:00,0,2,1,0,1,4,2,1,1
03:15:00,1,1,2,0,3,2,2,1,2
03:16:00,0,0,2,0,2,0,1,1,1
03:17:00,0,0,2,0,1,0,2,1,1
03:18:00,1,1,2,0,1,1,2,1,1
03:19:00,0,1,0,0,1,1,0,0,0
03:20:00,1,0,1,0,2,2,1,1,1
03:21:00,3,0,0,2,3,3,0,2,2
03:22:00,1,1,1,1,1,2,0,1,1
03:23:00,0,0,1,0,3,0,2,1,1
03:24:00,1,1,0,2,1,3,2,1,1
03:25:00,4,0,1,2,2,1,0,2,1
03:26:00,1,1,1,1,1,0,1,1,1
03:27:00,2,2,0,2,2,1,1,2,1
03:28:00,0,4,0,1,2,3,2,1,2
03:29:00,0,4,2,2,1,0,1,2,1
03:30:00,2,0,1,5,1,2,0,2,2
03:31:00,0,3,3,1,1,0,0,2,1
03:32:00,1,1,0,4,1,0,1,1,1
03:33:00,1,1,0,2,0,0,1,1,1
03:34:00,1,0,0,1,0,2,1,0,1
03:35:00,2,1,2,2,1,3,1,2,2
03:36:00,2,0,1,1,0,1,4,1,1
03:37:00,2,2,0,0,1,0,1,1,1
03:38:00,0,1,1,0,0,1,0,0,0
03:39:00,1,0,0,2,2,2,1,1,1
03:40:00,0,1,0,1,4,3,1,1,1
03:41:00,0,1,3,0,0,1,1,1,1
03:42:00,2,0,2,0,1,1,1,1,1
03:43:00,1,2,1,0,0,2,0,1,1
03:44:00,1,3,2,1,0,1,1,1,1
03:45:00,1,0,2,1,2,1,2,1,1
03:46:00,1,1,3,1,3,0,3,2,2
03:47:00,1,1,1,2,2,2,1,1,1
03:48:00,3,0,1,2,0,1,0,1,1
03:49:00,1,2,0,2,2,1,1,1,1
03:50:00,0,1,0,2,1,4,0,1,1
03:51:00,3,2,2,1,2,3,1,2,2
03:52:00,0,3,1,2,0,3,0,1,1
03:53:00,1,3,4,6,1,2,0,3,2
03:54:00,1,2,1,1,1,2,0,1,1
03:55:00,4,3,2,3,3,2,1,3,3
03:56:00,6,1,0,1,1,2,0,2,2
03:57:00,2,1,1,0,1,0,2,1,1
03:58:00,0,4,2,1,1,0,7,2,2
03:59:00,2,0,1,1,1,1,1,1,1
04:00:00,2,1,0,1,1,1,0,1,1
04:01:00,2,0,1,3,2,2,0,2,1
04:02:00,1,0,0,1,2,1,0,1,1
04:03:00,1,0,0,1,1,0,0,1,0
04:04:00,0,0,1,1,2,1,0,1,1
04:05:00,2,1,1,2,0,0,1,1,1
04:06:00,1,0,2,1,1,2,0,1,1
04:07:00,2,2,0,2,1,2,2,1,2
04:08:00,1,1,1,4,0,0,1,1,1
04:09:00,0,3,2,2,0,1,0,1,1
04:10:00,2,3,4,1,1,1,1,2,2
04:11:00,0,0,4,1,7,0,0,2,2
04:12:00,1,0,4,2,1,2,1,2,2
04:13:00,2,2,0,5,3,2,1,2,2
04:14:00,1,4,1,0,1,2,2,1,2
04:15:00,3,1,4,4,5,0,0,3,2
04:16:00,1,4,1,1,4,1,1,2,2
04:17:00,1,5,1,1,1,0,0,2,1
04:18:00,2,2,3,1,3,2,1,2,2
04:19:00,2,0,2,4,4,3,1,2,2
04:20:00,2,2,2,3,1,0,3,2,2
04:21:00,3,2,2,5,1,1,2,3,2
04:22:00,3,1,3,2,2,6,0,2,2
04:23:00,2,2,4,3,3,1,2,3,2
04:24:00,1,0,2,3,2,1,1,2,1
04:25:00,1,3,0,1,2,0,0,1,1
04:26:00,5,2,5,2,4,0,0,4,3
04:27:00,2,1,3,1,4,0,0,2,2
04:28:00,1,1,3,1,2,4,4,2,2
04:29:00,2,3,0,2,4,0,0,2,2
04:30:00,1,1,0,3,0,1,2,1,1
04:31:00,4,0,3,1,2,0,1,2,2
04:32:00,0,3,3,3,3,1,3,2,2
04:33:00,0,1,2,0,2,3,1,1,1
04:34:00,1,1,1,1,3,2,2,1,2
04:35:00,2,2,2,3,0,1,1,2,2
04:36:00,6,4,1,6,2,1,4,4,3
04:37:00,2,3,2,4,2,1,0,3,2
04:38:00,2,0,5,0,4,4,0,2,2
04:39:00,1,2,2,0,3,1,2,2,2
04:40:00,2,1,4,1,2,0,3,2,2
04:41:00,2,2,3,4,3,1,1,3,2
04:42:00,2,1,2,2,2,3,2,2,2
04:43:00,2,1,2,1,0,1,0,1,1
04:44:00,2,1,2,2,8,2,0,3,2
04:45:00,5,3,2,1,3,3,0,3,2
04:46:00,2,3,4,4,9,2,1,4,4
04:47:00,3,4,2,5,4,5,0,4,3
04:48:00,2,1,4,0,2,1,0,2,1
04:49:00,1,1,1,3,3,2,1,2,2
04:50:00,0,3,1,1,2,2,1,1,1
04:51:00,9,1,7,2,4,0,0,5,3
04:52:00,5,5,2,1,5,1,1,4,3
04:53:00,2,3,3,2,2,3,0,2,2
04:54:00,3,9,1,3,1,2,0,3,3
04:55:00,1,2,3,1,2,0,1,2,1
04:56:00,4,1,2,3,4,5,1,3,3
04:57:00,1,5,3,1,4,3,3,3,3
04:58:00,1,3,4,3,4,0,1,3,2
04:59:00,3,0,4,1,1,2,2,2,2
05:00:00,4,4,5,9,0,4,1,4,4
05:01:00,1,3,4,1,3,1,0,2,2
05:02:00,0,1,1,4,2,1,2,2,2
05:03:00,5,2,4,0,3,0,0,3,2
05:04:00,4,2,2,3,3,5,2,3,3
05:05:00,7,5,3,1,4,2,1,4,3
05:06:00,4,3,6,3,4,3,0,4,3
05:07:00,3,1,8,4,4,1,2,4,3
05:08:00,2,4,4,1,4,1,3,3,3
05:09:00,1,3,5,6,8,0,2,5,4
05:10:00,8,5,2,3,2,3,1,4,3
05:11:00,4,7,5,1,7,1,2,5,4
05:12:00,3,2,0,1,8,1,3,3,3
05:13:00,5,3,7,2,1,2,0,4,3
05:14:00,7,7,2,10,3,2,2,6,5
05:15:00,4,6,3,5,7,3,0,5,4
05:16:00,9,6,2,3,1,3,4,4,4
05:17:00,3,3,5,4,6,6,1,4,4
05:18:00,2,4,4,1,3,3,1,3,3
05:19:00,6,1,3,6,6,1,1,4,3
05:20:00,2,2,3,4,2,4,1,3,3
05:21:00,7,7,3,3,3,2,1,5,4
05:22:00,3,2,4,3,5,1,1,3,3
05:23:00,2,3,3,9,7,1,1,5,4
05:24:00,6,8,8,6,6,5,4,7,6
05:25:00,5,3,5,5,7,5,1,5,4
05:26:00,7,4,5,5,3,8,1,5,5
05:27:00,4,8,3,5,7,3,2,5,5
05:28:00,2,0,8,5,5,3,2,4,4
05:29:00,6,8,2,5,6,2,3,5,5
05:30:00,3,2,6,5,3,2,0,4,3
05:31:00,10,5,2,1,11,4,2,6,5
05:32:00,5,4,3,9,5,1,1,5,4
05:33:00,4,4,4,2,1,2,2,3,3
05:34:00,6,4,5,5,6,3,5,5,5
05:35:00,6,7,5,7,3,1,3,6,5
05:36:00,5,5,2,5,2,6,3,4,4
05:37:00,7,3,3,11,11,7,2,7,6
05:38:00,7,5,3,3,3,2,3,4,4
05:39:00,7,5,5,1,8,11,1,5,5
05:40:00,5,11,5,7,9,1,1,7,6
05:41:00,6,7,14,3,2,5,3,6,6
05:42:00,6,5,6,8,15,4,4,8,7
05:43:00,5,11,6,9,7,1,1,8,6
05:44:00,6,7,4,3,3,4,3,5,4
05:45:00,7,7,5,7,11,1,3,7,6
05:46:00,9,13,4,7,6,5,0,8,6
05:47:00,6,6,8,8,2,3,6,6,6
05:48:00,5,3,2,8,9,3,1,5,4
05:49:00,3,13,5,5,10,3,1,7,6
05:50:00,12,6,11,6,5,3,1,8,6
05:51:00,3,1,14,7,9,4,2,7,6
05:52:00,7,7,8,5,4,3,1,6,5
05:53:00,7,8,11,13,6,1,1,9,7
05:54:00,2,9,8,11,10,1,0,8,6
05:55:00,10,7,3,4,9,2,1,7,5
05:56:00,5,10,8,12,5,2,7,8,7
05:57:00,9,9,5,9,7,5,1,8,6
05:58:00,8,2,6,6,13,1,1,7,5
05:59:00,5,4,4,3,4,1,0,4,3
06:00:00,6,10,10,14,6,6,1,9,8
06:01:00,6,5,5,9,1,3,1,5,4
06:02:00,11,5,11,7,11,4,1,9,7
06:03:00,3,1,7,9,10,3,3,6,5
06:04:00,14,13,5,16,11,4,3,12,9
06:05:00,7,7,17,9,13,4,4,11,9
06:06:00,4,5,2,12,3,7,7,5,6
06:07:00,15,17,11,10,17,6,4,14,11
06:08:00,6,6,16,9,4,7,1,8,7
06:09:00,9,14,9,19,10,4,1,12,9
06:10:00,14,6,4,5,5,6,4,7,6
06:11:00,5,3,17,12,6,3,1,9,7
06:12:00,9,10,6,10,17,4,4,10,9
06:13:00,7,5,9,10,3,4,2,7,6
06:14:00,6,11,2,15,13,1,4,9,7
06:15:00,14,13,17,8,13,8,2,13,11
06:16:00,19,6,7,14,13,4,1,12,9
06:17:00,5,10,5,16,5,2,1,8,6
06:18:00,16,21,16,9,14,4,2,15,12
06:19:00,5,8,9,7,9,3,3,8,6
06:20:00,8,16,10,19,12,3,4,13,10
06:21:00,13,8,6,3,11,10,1,8,7
06:22:00,8,14,11,14,15,6,2,12,10
06:23:00,17,9,12,9,17,4,2,13,10
06:24:00,7,12,13,22,6,4,3,12,10
06:25:00,2,10,16,5,10,2,2,9,7
06:26:00,14,10,12,8,12,5,1,11,9
06:27:00,7,9,11,16,11,7,3,11,9
06:28:00,12,15,7,6,10,7,1,10,8
06:29:00,10,15,10,9,7,3,1,10,8
06:30:00,4,8,8,13,15,3,3,10,8
06:31:00,14,19,12,10,12,7,2,13,11
06:32:00,9,10,11,13,13,8,4,11,10
06:33:00,6,11,14,11,9,1,3,10,8
06:34:00,12,13,7,19,7,6,2,12,9
06:35:00,7,13,21,16,6,7,1,13,10
06:36:00,13,8,23,16,10,5,6,14,12
06:37:00,12,10,7,15,16,7,2,12,10
06:38:00,15,7,19,9,17,3,4,13,11
06:39:00,15,14,14,8,11,3,1,12,9
06:40:00,16,10,7,31,9,2,2,15,11
06:41:00,8,27,25,11,14,4,2,17,13
06:42:00,11,10,6,11,19,3,4,11,9
06:43:00,24,6,10,16,14,5,3,14,11
06:44:00,6,21,6,5,9,3,0,9,7
06:45:00,16,10,17,4,6,7,2,11,9
06:46:00,13,15,6,14,13,6,5,12,10
06:47:00,14,11,22,10,15,5,1,14,11
06:48:00,16,17,13,13,7,8,3,13,11
06:49:00,11,20,15,9,11,4,7,13,11
06:50:00,9,12,8,15,15,5,0,12,9
06:51:00,11,8,10,13,9,7,5,10,9
06:52:00,14,16,12,8,10,2,0,12,9
06:53:00,14,13,10,22,15,3,4,15,12
06:54:00,7,20,19,10,15,7,3,14,12
06:55:00,15,13,13,23,6,4,3,14,11
06:56:00,12,10,16,17,17,3,2,14,11
06:57:00,7,21,13,10,19,5,4,14,11
06:58:00,9,19,19,12,10,7,4,14,11
06:59:00,19,11,9,8,25,6,1,14,11
07:00:00,11,13,14,15,8,4,3,12,10
07:01:00,34,7,16,13,7,10,5,15,13
07:02:00,9,17,17,14,19,11,4,15,13
07:03:00,20,16,11,22,6,4,3,15,12
07:04:00,17,22,13,7,21,4,2,16,12
07:05:00,15,17,16,21,15,12,2,17,14
07:06:00,11,13,20,14,12,0,4,14,11
07:07:00,13,13,8,11,19,8,4,13,11
07:08:00,14,19,16,16,12,2,4,15,12
07:09:00,16,11,21,21,17,9,2,17,14
07:10:00,22,16,22,10,13,12,3,17,14
07:11:00,9,11,8,23,11,7,6,12,11
07:12:00,24,20,30,10,29,3,7,23,18
07:13:00,8,17,15,17,10,4,4,13,11
07:14:00,24,17,16,21,23,13,1,20,16
07:15:00,17,18,12,20,15,4,7,16,13
07:16:00,19,13,28,13,14,6,0,17,13
07:17:00,9,17,16,22,22,8,0,17,13
07:18:00,17,17,22,13,16,4,5,17,13
07:19:00,30,11,10,30,20,12,3,20,17
07:20:00,13,24,16,23,17,6,5,19,15
07:21:00,25,10,24,22,10,6,7,18,15
07:22:00,18,24,14,23,13,8,6,18,15
07:23:00,22,22,18,32,18,5,4,22,17
07:24:00,29,19,22,16,27,12,5,23,19
07:25:00,11,18,16,22,25,9,7,18,15
07:26:00,20,23,16,36,20,4,6,23,18
07:27:00,12,20,23,23,16,8,2,19,15
07:28:00,21,19,21,12,15,6,6,18,14
07:29:00,18,26,29,13,20,6,2,21,16
07:30:00,12,11,14,23,14,7,6,15,12
07:31:00,39,20,11,29,13,13,5,22,19
07:32:00,10,18,26,16,20,14,6,18,16
07:33:00,20,25,19,20,26,10,2,22,17
07:34:00,11,23,29,16,12,10,4,18,15
07:35:00,29,29,19,34,28,9,3,28,22
07:36:00,17,13,23,19,18,6,5,18,14
07:37:00,12,17,17,33,27,5,2,21,16
07:38:00,24,14,30,9,18,11,4,19,16
07:39:00,17,26,47,30,26,13,4,29,23
07:40:00,23,17,13,30,9,5,7,18,15
07:41:00,13,20,25,12,21,8,3,18,15
07:42:00,16,21,27,27,25,7,2,23,18
07:43:00,21,30,17,18,21,15,9,21,19
07:44:00,11,18,26,19,25,5,2,20,15
07:45:00,29,16,13,25,17,7,2,20,16
07:46:00,27,30,19,24,36,20,3,27,23
07:47:00,29,13,38,33,14,11,4,25,20
07:48:00,18,39,25,17,18,13,9,23,20
07:49:00,37,16,38,22,19,11,3,26,21
07:50:00,20,28,21,32,24,10,0,25,19
07:51:00,26,16,22,20,26,5,4,22,17
07:52:00,17,21,23,20,18,11,2,20,16
07:53:00,28,24,22,28,29,7,7,26,21
07:54:00,13,26,25,11,15,9,7,18,15
07:55:00,19,22,39,38,24,12,2,28,22
07:56:00,25,25,39,18,15,19,5,24,21
07:57:00,26,19,13,27,18,12,6,21,17
07:58:00,18,24,28,15,18,11,2,21,17
07:59:00,18,16,31,34,20,12,7,24,20
08:00:00,16,31,20,9,23,5,6,20,16
08:01:00,17,15,33,26,23,10,3,23,18
08:02:00,14,28,20,11,12,14,5,17,15
08:03:00,23,14,26,26,31,12,2,24,19
08:04:00,15,23,40,28,37,7,1,29,22
08:05:00,27,21,24,15,14,5,12,20,17
08:06:00,17,18,34,28,24,8,6,24,19
08:07:00,25,21,13,24,14,7,5,19,16
08:08:00,12,15,26,21,40,13,3,23,19
08:09:00,26,22,42,20,12,11,3,24,19
08:10:00,20,27,22,27,31,16,9,25,22
08:11:00,23,24,29,13,21,15,11,22,19
08:12:00,10,24,40,26,15,11,1,23,18
08:13:00,28,19,18,17,20,12,6,20,17
08:14:00,18,35,30,27,23,11,6,27,21
08:15:00,15,19,13,24,25,12,8,19,17
08:16:00,10,20,24,19,22,12,3,19,16
08:17:00,19,46,29,31,31,12,8,31,25
08:18:00,14,22,32,21,18,10,4,21,17
08:19:00,31,16,34,23,21,11,4,25,20
08:20:00,31,12,26,26,15,12,3,22,18
08:21:00,8,27,21,19,19,14,6,19,16
08:22:00,30,21,16,30,22,13,7,24,20
08:23:00,20,22,20,15,27,7,10,21,17
08:24:00,16,25,35,21,29,9,5,25,20
08:25:00,31,21,17,13,10,15,3,18,16
08:26:00,20,16,32,18,32,10,4,24,19
08:27:00,27,23,21,36,15,14,5,24,20
08:28:00,15,15,31,20,21,13,1,20,17
08:29:00,18,13,34,18,15,12,5,20,16
08:30:00,10,16,22,20,20,13,4,18,15
08:31:00,31,31,16,31,14,18,7,25,21
08:32:00,16,18,30,10,22,11,10,19,17
08:33:00,21,32,19,27,18,20,7,23,21
08:34:00,15,23,24,25,22,6,9,22,18
08:35:00,23,19,25,17,22,13,11,21,19
08:36:00,19,39,18,31,28,23,2,27,23
08:37:00,26,27,28,20,21,14,10,24,21
08:38:00,18,27,17,23,22,20,11,21,20
08:39:00,23,23,36,18,15,10,2,23,18
08:40:00,21,18,12,21,19,12,8,18,16
08:41:00,20,18,28,17,40,17,9,25,21
08:42:00,21,16,8,24,15,19,8,17,16
08:43:00,23,16,28,31,28,11,10,25,21
08:44:00,32,14,34,25,20,25,4,25,22
08:45:00,5,8,16,29,26,22,5,17,16
08:46:00,31,7,29,15,10,15,11,18,17
08:47:00,8,11,17,18,20,16,4,15,13
08:48:00,20,31,19,25,8,15,5,21,18
08:49:00,8,20,36,19,16,19,9,20,18
08:50:00,26,25,16,19,25,28,9,22,21
08:51:00,15,15,32,22,19,18,1,21,17
08:52:00,22,18,17,29,20,22,7,21,19
08:53:00,28,20,19,23,25,12,6,23,19
08:54:00,12,18,11,11,20,12,5,14,13
08:55:00,22,11,21,20,15,8,4,18,14
08:56:00,13,22,27,17,22,18,10,20,18
08:57:00,17,29,18,20,31,15,7,23,20
08:58:00,16,15,28,13,25,21,11,19,18
08:59:00,14,15,23,25,24,16,7,20,18
09:00:00,21,22,26,5,13,13,7,17,15
09:01:00,13,16,14,21,24,21,10,18,17
09:02:00,14,7,30,19,19,8,2,18,14
09:03:00,15,20,17,19,18,9,8,18,15
09:04:00,12,20,19,26,36,20,11,23,21
09:05:00,21,12,10,13,16,23,9,14,15
09:06:00,15,18,21,22,19,17,14,19,18
09:07:00,17,17,12,15,19,11,8,16,14
09:08:00,14,23,38,20,29,31,9,25,23
09:09:00,21,16,9,26,27,7,10,20,17
09:10:00,15,22,25,7,15,23,9,17,17
09:11:00,13,22,21,33,22,17,9,22,20
09:12:00,21,18,28,24,28,5,10,24,19
09:13:00,22,14,21,18,11,18,10,17,16
09:14:00,28,25,9,22,34,17,18,24,22
09:15:00,12,10,21,10,19,23,14,14,16
09:16:00,11,25,37,13,17,11,8,21,17
09:17:00,31,25,9,22,21,12,14,22,19
09:18:00,19,14,20,6,18,11,8,15,14
09:19:00,13,23,17,31,21,11,6,21,17
09:20:00,34,7,26,17,17,21,6,20,18
09:21:00,17,23,19,24,16,17,5,20,17
09:22:00,22,29,17,26,25,14,16,24,21
09:23:00,16,22,19,5,16,15,9,16,15
09:24:00,17,27,30,31,29,19,13,27,24
09:25:00,29,27,15,33,12,19,17,23,22
09:26:00,15,19,18,17,28,14,9,19,17
09:27:00,21,22,17,23,28,12,19,22,20
09:28:00,20,18,26,24,17,13,10,21,18
09:29:00,12,12,26,17,25,25,19,18,19
09:30:00,14,22,15,22,12,18,18,17,17
09:31:00,37,17,19,10,22,9,10,21,18
09:32:00,20,15,21,25,25,14,6,21,18
09:33:00,27,34,28,21,22,27,12,26,24
09:34:00,12,21,27,21,25,18,19,21,20
09:35:00,28,12,16,30,23,18,23,22,21
09:36:00,12,25,21,14,24,22,4,19,17
09:37:00,14,19,23,27,17,8,29,20,20
09:38:00,21,24,36,16,22,15,9,24,20
09:39:00,26,26,16,25,28,17,16,24,22
09:40:00,15,14,9,15,12,16,10,13,13
09:41:00,19,16,24,26,19,23,10,21,20
09:42:00,12,25,26,11,29,24,17,21,21
09:43:00,18,25,17,30,19,23,13,22,21
09:44:00,26,28,12,11,15,24,14,18,19
09:45:00,15,17,27,23,19,21,17,20,20
09:46:00,23,16,27,27,17,9,21,22,20
09:47:00,24,11,16,17,25,15,13,19,17
09:48:00,15,25,26,36,18,19,15,24,22
09:49:00,23,26,25,17,18,26,14,22,21
09:50:00,18,23,5,24,31,23,11,20,19
09:51:00,22,25,27,17,8,29,20,20,21
09:52:00,23,13,19,11,26,14,8,18,16
09:53:00,20,18,20,25,22,24,20,21,21
09:54:00,23,13,8,12,15,15,8,14,13
09:55:00,13,26,27,21,19,20,12,21,20
09:56:00,24,12,25,11,23,22,17,19,19
09:57:00,18,15,21,27,15,24,18,19,20
09:58:00,21,13,29,17,18,19,22,20,20
09:59:00,21,27,17,24,20,13,19,22,20
10:00:00,17,18,21,18,19,24,19,19,19
10:01:00,27,26,22,13,29,19,15,23,22
10:02:00,15,18,32,20,21,21,11,21,20
10:03:00,18,15,23,27,20,19,11,21,19
10:04:00,17,30,21,19,11,19,25,20,20
10:05:00,10,15,21,11,31,28,14,18,19
10:06:00,22,12,17,14,14,17,9,16,15
10:07:00,15,17,20,21,25,20,15,20,19
10:08:00,22,13,12,8,15,34,27,14,19
10:09:00,16,18,26,27,33,16,29,24,24
10:10:00,22,15,12,29,18,18,9,19,18
10:11:00,23,18,24,13,11,13,17,18,17
10:12:00,17,19,21,24,21,30,19,20,22
10:13:00,19,21,19,17,19,19,15,19,18
10:14:00,28,22,23,22,22,17,27,23,23
10:15:00,15,13,21,19,13,25,23,16,18
10:16:00,25,18,22,24,25,21,15,23,21
10:17:00,9,16,24,9,24,19,16,16,17
10:18:00,18,17,17,15,16,21,13,17,17
10:19:00,21,12,16,21,21,25,22,18,20
10:20:00,25,12,24,28,27,18,18,23,22
10:21:00,16,17,19,13,21,31,25,17,20
10:22:00,18,10,21,27,17,20,15,19,18
10:23:00,25,24,20,14,28,23,16,22,21
10:24:00,15,25,21,27,16,21,13,21,20
10:25:00,16,15,29,13,19,17,20,18,18
10:26:00,13,19,26,25,28,33,21,22,24
10:27:00,23,18,12,11,27,14,15,18,17
10:28:00,21,19,11,17,15,22,16,17,17
10:29:00,21,22,21,24,20,20,12,22,20
10:30:00,12,17,20,16,27,26,20,18,20
10:31:00,24,20,18,29,17,12,13,22,19
10:32:00,13,16,29,16,20,17,21,19,19
10:33:00,22,18,24,26,28,29,27,24,25
10:34:00,17,21,27,13,22,27,14,20,20
10:35:00,26,10,12,21,15,27,16,17,18
10:36:00,15,19,28,10,33,22,14,21,20
10:37:00,16,18,18,22,10,28,21,17,19
10:38:00,19,17,18,16,21,15,11,18,17
10:39:00,24,27,30,25,33,25,23,28,27
10:40:00,17,25,15,26,23,9,21,21,19
10:41:00,19,30,20,14,23,21,26,21,22
10:42:00,23,17,11,34,23,16,13,22,20
10:43:00,14,24,20,22,27,23,21,21,22
10:44:00,21,14,24,18,26,16,14,21,19
10:45:00,13,31,20,8,18,38,16,18,21
10:46:00,19,19,19,19,18,12,33,19,20
10:47:00,23,25,30,10,28,27,15,23,23
10:48:00,20,12,13,21,9,20,23,15,17
10:49:00,18,23,15,15,23,26,15,19,19
10:50:00,23,14,19,24,18,26,21,20,21
10:51:00,13,23,24,23,23,19,18,21,20
10:52:00,22,18,25,19,31,32,21,23,24
10:53:00,12,19,14,24,13,22,19,16,18
10:54:00,16,23,23,29,28,23,25,24,24
10:55:00,15,24,18,15,23,9,26,19,19
10:56:00,18,24,15,18,30,21,18,21,21
10:57:00,17,10,14,25,17,28,25,17,19
10:58:00,26,29,23,18,22,23,16,24,22
10:59:00,12,36,16,23,23,17,22,22,21
11:00:00,21,11,20,14,26,12,13,18,17
11:01:00,24,26,14,30,30,22,28,25,25
11:02:00,10,9,20,24,12,13,18,15,15
11:03:00,20,28,9,24,24,26,23,21,22
11:04:00,20,14,19,16,31,25,29,20,22
11:05:00,24,26,23,14,17,25,24,21,22
11:06:00,19,11,27,17,19,18,22,19,19
11:07:00,26,15,12,17,17,23,25,17,19
11:08:00,22,16,20,30,30,22,16,24,22
11:09:00,21,12,19,12,16,14,24,16,17
11:10:00,10,25,16,21,26,29,12,20,20
11:11:00,26,16,20,11,20,18,19,19,19
11:12:00,14,27,26,20,33,23,18,24,23
11:13:00,28,18,21,31,16,21,18,23,22
11:14:00,20,25,17,19,29,39,34,22,26
11:15:00,24,11,20,24,18,27,13,19,20
11:16:00,14,19,16,18,13,30,29,16,20
11:17:00,12,25,32,15,20,26,21,21,22
11:18:00,19,17,17,27,17,21,19,19,20
11:19:00,11,26,21,24,24,35,23,21,23
11:20:00,18,19,12,24,32,17,24,21,21
11:21:00,18,21,30,15,13,36,10,19,20
11:22:00,14,25,21,20,17,28,23,19,21
11:23:00,21,33,22,13,31,23,18,24,23
11:24:00,17,18,20,24,20,25,27,20,22
11:25:00,27,12,27,23,28,30,27,23,25
11:26:00,18,25,21,16,21,16,21,20,20
11:27:00,18,16,15,27,27,33,12,21,21
11:28:00,26,25,21,19,21,20,34,22,24
11:29:00,17,26,9,23,15,27,18,18,19
11:30:00,20,27,26,22,29,27,30,25,26
11:31:00,13,16,22,34,18,32,17,21,22
11:32:00,20,27,18,14,36,19,23,23,22
11:33:00,16,12,40,25,32,46,20,25,27
11:34:00,20,23,24,27,24,11,29,24,23
11:35:00,14,10,23,22,29,24,27,20,21
11:36:00,18,10,14,34,18,11,27,19,19
11:37:00,17,19,30,8,26,26,15,20,20
11:38:00,20,41,13,22,35,24,37,26,27
11:39:00,18,11,20,18,22,14,15,18,17
11:40:00,18,38,26,23,27,21,32,26,26
11:41:00,29,15,16,19,22,18,23,20,20
11:42:00,25,18,27,22,16,23,24,22,22
11:43:00,18,17,16,11,38,24,21,20,21
11:44:00,13,35,25,26,9,34,39,22,26
11:45:00,16,17,17,16,30,14,19,19,18
11:46:00,23,16,27,19,12,29,26,19,22
11:47:00,28,31,12,21,28,23,21,24,23
11:48:00,19,15,24,24,29,34,28,22,25
11:49:00,21,20,22,28,16,22,26,21,22
11:50:00,24,24,14,10,25,21,23,19,20
11:51:00,14,26,27,26,20,24,42,23,26
11:52:00,22,12,13,14,22,23,21,17,18
11:53:00,15,23,23,26,30,24,22,23,23
11:54:00,21,20,8,32,38,32,18,24,24
11:55:00,19,18,32,23,22,22,23,23,23
11:56:00,26,14,8,23,18,33,12,18,19
11:57:00,15,21,29,20,23,17,29,22,22
11:58:00,21,26,28,26,26,25,35,25,27
11:59:00,20,23,35,14,23,42,25,23,26
12:00:00,28,8,12,16,19,23,34,17,20
12:01:00,22,20,15,16,18,24,10,18,18
12:02:00,4,22,20,16,35,21,30,19,21
12:03:00,20,16,20,26,31,24,17,23,22
12:04:00,19,26,16,19,19,22,31,20,22
12:05:00,13,20,14,30,36,27,26,23,24
12:06:00,23,20,21,15,27,13,20,21,20
12:07:00,9,22,13,27,14,24,28,17,20
12:08:00,18,17,18,17,22,21,6,18,17
12:09:00,15,34,39,31,20,22,33,28,28
12:10:00,27,16,11,10,25,30,14,18,19
12:11:00,9,28,27,20,31,21,25,23,23
12:12:00,24,13,15,45,25,38,16,24,25
12:13:00,16,27,31,16,25,17,33,23,24
12:14:00,34,25,19,18,15,24,16,22,22
12:15:00,10,26,22,19,24,22,45,20,24
12:16:00,21,27,14,28,45,25,24,27,26
12:17:00,20,17,21,26,23,33,22,21,23
12:18:00,17,21,25,21,22,27,19,21,22
12:19:00,20,16,13,26,23,28,26,20,22
12:20:00,22,18,26,21,23,21,14,22,21
12:21:00,8,12,19,37,36,38,26,22,25
12:22:00,19,23,22,13,25,19,30,20,22
12:23:00,24,17,21,24,22,26,20,22,22
12:24:00,17,31,19,34,20,30,31,24,26
12:25:00,11,13,18,9,21,18,18,14,15
12:26:00,20,25,17,36,29,26,21,25,25
12:27:00,8,23,32,15,16,14,24,19,19
12:28:00,32,14,16,32,25,25,24,24,24
12:29:00,12,22,23,16,29,31,25,20,23
12:30:00,30,26,21,29,26,23,28,26,26
12:31:00,23,14,16,18,19,42,21,18,22
12:32:00,18,25,20,19,11,25,22,19,20
12:33:00,21,20,19,37,35,34,19,26,26
12:34:00,21,19,26,13,15,23,31,19,21
12:35:00,18,22,14,22,14,35,17,18,20
12:36:00,15,17,30,20,32,15,24,23,22
12:37:00,20,22,22,22,21,34,25,21,24
12:38:00,9,31,18,16,31,21,25,21,22
12:39:00,29,22,16,23,12,36,18,20,22
12:40:00,11,23,16,15,32,26,30,19,22
12:41:00,14,19,16,30,19,26,25,20,21
12:42:00,19,29,28,27,27,23,26,26,26
12:43:00,15,9,16,23,37,20,36,20,22
12:44:00,24,20,21,18,17,31,19,20,21
12:45:00,22,30,24,13,13,21,32,20,22
12:46:00,12,33,18,32,31,32,25,25,26
12:47:00,28,17,27,17,21,19,25,22,22
12:48:00,14,25,9,27,37,24,44,22,26
12:49:00,13,14,19,17,16,18,20,16,17
12:50:00,21,25,26,18,34,25,22,25,24
12:51:00,27,20,11,22,13,35,25,19,22
12:52:00,18,27,34,19,29,26,24,25,25
12:53:00,27,20,25,22,23,29,15,23,23
12:54:00,12,18,25,36,17,17,24,22,21
12:55:00,23,13,15,27,20,30,24,20,22
12:56:00,15,23,21,14,26,20,17,20,19
12:57:00,29,15,6,21,28,27,26,20,22
12:58:00,11,16,26,25,25,21,30,21,22
12:59:00,16,15,24,22,19,21,19,19,19
13:00:00,15,25,18,21,27,26,20,21,22
13:01:00,12,12,19,17,23,29,12,17,18
13:02:00,24,20,19,12,31,22,23,21,22
13:03:00,27,16,22,21,10,26,28,19,21
13:04:00,16,16,16,10,24,12,23,16,17
13:05:00,18,20,32,33,22,34,20,25,26
13:06:00,25,27,15,17,24,11,34,22,22
13:07:00,18,36,21,28,22,25,11,25,23
13:08:00,31,13,21,16,23,30,31,21,24
13:09:00,15,33,30,25,22,25,12,25,23
13:10:00,29,11,12,25,32,18,29,22,22
13:11:00,22,17,29,20,13,16,21,20,20
13:12:00,25,31,19,21,32,14,19,26,23
13:13:00,7,15,21,26,18,24,20,17,19
13:14:00,21,28,12,26,22,13,25,22,21
13:15:00,12,22,31,18,32,29,25,23,24
13:16:00,30,25,20,17,20,21,37,22,24
13:17:00,14,20,24,32,20,16,18,22,21
13:18:00,28,18,13,14,34,41,20,21,24
13:19:00,18,27,18,23,29,24,22,23,23
13:20:00,23,20,33,20,27,38,19,25,26
13:21:00,12,19,27,15,18,21,24,18,19
13:22:00,27,13,24,34,29,24,39,25,27
13:23:00,12,19,6,16,29,12,23,16,17
13:24:00,21,34,18,17,29,24,29,24,25
13:25:00,18,24,26,11,15,15,15,19,18
13:26:00,31,20,26,22,32,22,31,26,26
13:27:00,15,19,17,22,16,34,25,18,21
13:28:00,28,31,29,22,26,27,19,27,26
13:29:00,13,25,15,22,12,41,18,17,21
13:30:00,19,27,15,25,19,18,33,21,22
13:31:00,20,16,25,9,24,27,24,19,21
13:32:00,28,21,30,23,18,23,10,24,22
13:33:00,16,39,11,18,25,17,18,22,21
13:34:00,30,15,19,25,14,31,10,21,21
13:35:00,22,14,19,25,24,18,24,21,21
13:36:00,29,14,20,18,17,21,15,20,19
13:37:00,20,24,13,27,23,20,18,21,21
13:38:00,18,21,27,25,34,20,28,25,25
13:39:00,17,17,23,19,12,29,21,18,20
13:40:00,23,16,20,31,14,15,25,21,21
13:41:00,10,23,24,15,31,33,13,21,21
13:42:00,21,21,28,36,31,24,32,27,28
13:43:00,35,19,14,10,43,23,19,24,23
13:44:00,30,10,31,15,13,16,26,20,20
13:45:00,12,30,18,31,16,20,22,21,21
13:46:00,17,18,23,12,29,22,34,20,22
13:47:00,19,29,10,26,13,25,17,19,20
13:48:00,21,8,26,17,23,30,24,19,21
13:49:00,15,28,12,26,14,14,16,19,18
13:50:00,27,20,18,15,28,23,35,22,24
13:51:00,19,17,26,21,20,16,17,21,19
13:52:00,17,9,31,8,24,22,16,18,18
13:53:00,19,30,20,21,8,17,18,20,19
13:54:00,30,18,24,21,25,20,23,24,23
13:55:00,21,23,13,29,10,28,24,19,21
13:56:00,21,35,11,10,16,15,32,19,20
13:57:00,23,15,29,21,30,33,26,24,25
13:58:00,28,26,34,32,17,16,34,27,27
13:59:00,14,17,11,22,30,24,11,19,18
14:00:00,16,23,25,25,17,20,25,21,22
14:01:00,17,11,13,24,18,21,20,17,18
14:02:00,31,28,28,28,29,18,22,29,26
14:03:00,19,12,31,17,14,29,21,19,20
14:04:00,30,26,27,44,31,27,28,32,30
14:05:00,15,23,27,12,10,31,9,17,18
14:06:00,32,32,13,24,27,18,36,26,26
14:07:00,12,24,15,34,16,31,19,20,22
14:08:00,30,19,19,20,26,11,29,23,22
14:09:00,16,8,14,23,17,24,15,16,17
14:10:00,17,22,39,15,14,26,24,21,22
14:11:00,17,32,26,17,40,19,13,26,23
14:12:00,37,32,24,27,18,44,34,28,31
14:13:00,27,9,15,18,22,23,22,18,19
14:14:00,30,20,20,32,35,25,24,27,27
14:15:00,22,15,28,16,14,17,14,19,18
14:16:00,16,18,18,24,29,27,27,21,23
14:17:00,33,14,25,29,10,14,11,22,19
14:18:00,28,17,19,21,20,32,27,21,23
14:19:00,29,35,28,21,29,16,17,28,25
14:20:00,12,26,8,34,23,29,28,21,23
14:21:00,22,30,21,14,35,19,29,24,24
14:22:00,16,21,16,27,25,24,18,21,21
14:23:00,36,19,21,32,22,18,30,26,25
14:24:00,21,16,29,20,19,29,16,21,21
14:25:00,26,21,25,24,25,18,26,24,24
14:26:00,16,33,26,33,25,27,15,27,25
14:27:00,20,17,26,13,11,31,23,17,20
14:28:00,22,34,11,27,15,20,28,22,22
14:29:00,21,19,23,17,28,26,22,22,22
14:30:00,19,31,11,20,17,15,29,20,20
14:31:00,19,26,16,22,37,23,12,24,22
14:32:00,10,22,32,33,9,16,19,21,20
14:33:00,31,19,22,27,20,22,18,24,23
14:34:00,22,17,19,18,13,38,33,18,23
14:35:00,23,12,28,26,28,13,22,23,22
14:36:00,29,24,11,18,14,20,23,19,20
14:37:00,26,25,34,24,33,18,19,28,26
14:38:00,37,13,20,28,16,25,38,23,25
14:39:00,14,25,33,17,16,17,12,21,19
14:40:00,23,25,21,26,31,24,25,25,25
14:41:00,28,36,20,17,13,17,17,23,21
14:42:00,23,25,28,28,23,31,18,25,25
14:43:00,24,30,28,22,24,17,19,26,23
14:44:00,15,19,25,22,13,36,22,19,22
14:45:00,20,28,32,22,28,22,19,26,24
14:46:00,28,17,21,23,28,24,27,23,24
14:47:00,22,19,24,23,27,20,19,23,22
14:48:00,25,31,20,41,12,28,22,26,26
14:49:00,23,23,37,19,17,23,15,24,22
14:50:00,16,16,26,23,10,27,30,18,21
14:51:00,24,21,29,25,25,17,11,25,22
14:52:00,11,27,18,14,30,31,23,20,22
14:53:00,26,5,35,36,21,25,29,25,25
14:54:00,24,23,22,19,36,20,20,25,23
14:55:00,23,10,24,31,19,36,27,21,24
14:56:00,16,23,19,16,19,12,24,19,18
14:57:00,17,18,27,18,32,30,22,22,23
14:58:00,30,23,23,27,19,17,23,24,23
14:59:00,12,23,18,28,28,31,19,22,23
15:00:00,32,13,28,35,25,28,17,27,25
15:01:00,12,28,20,18,28,15,21,21,20
15:02:00,18,14,24,29,18,18,28,21,21
15:03:00,29,24,16,15,20,26,29,21,23
15:04:00,23,12,38,19,19,18,8,22,20
15:05:00,30,23,10,16,14,28,17,19,20
15:06:00,27,17,27,23,30,18,21,25,23
15:07:00,19,24,24,13,16,29,18,19,20
15:08:00,26,29,18,25,17,18,30,23,23
15:09:00,13,20,28,19,18,30,18,20,21
15:10:00,22,21,24,14,31,19,23,22,22
15:11:00,17,18,22,27,15,32,13,20,21
15:12:00,35,30,16,25,20,14,18,25,23
15:13:00,18,21,25,29,25,37,18,24,25
15:14:00,29,30,25,15,19,20,29,24,24
15:15:00,11,18,15,25,20,34,14,18,20
15:16:00,22,23,32,16,34,15,26,25,24
15:17:00,21,18,17,28,16,40,21,20,23
15:18:00,17,22,25,27,16,22,28,21,22
15:19:00,10,13,22,13,39,32,27,19,22
15:20:00,35,28,21,10,26,16,18,24,22
15:21:00,29,22,11,29,19,20,16,22,21
15:22:00,18,23,21,16,27,18,10,21,19
15:23:00,19,31,22,30,17,24,27,24,24
15:24:00,24,18,21,14,32,19,15,22,20
15:25:00,16,22,16,20,15,22,24,18,19
15:26:00,41,18,31,34,13,27,20,27,26
15:27:00,13,15,22,16,55,27,30,24,25
15:28:00,31,28,26,19,8,14,21,22,21
15:29:00,14,11,23,39,22,21,17,22,21
15:30:00,27,22,31,14,13,12,16,21,19
15:31:00,14,26,31,21,23,30,15,23,23
15:32:00,20,21,14,42,27,13,17,25,22
15:33:00,31,25,34,17,23,28,19,26,25
15:34:00,26,19,8,22,34,27,22,22,23
15:35:00,28,24,32,19,12,22,31,23,24
15:36:00,21,13,23,26,14,31,17,19,21
15:37:00,21,19,18,19,27,20,18,21,20
15:38:00,24,23,37,24,11,21,12,24,22
15:39:00,23,24,14,27,32,29,18,24,24
15:40:00,20,24,20,15,19,11,17,20,18
15:41:00,18,18,39,23,27,27,31,25,26
15:42:00,26,18,25,10,37,19,11,23,21
15:43:00,20,27,25,23,12,20,11,21,20
15:44:00,21,13,38,24,26,17,25,24,23
15:45:00,30,27,19,20,39,13,17,27,24
15:46:00,24,19,21,35,17,17,25,23,23
15:47:00,19,28,27,16,19,16,23,22,21
15:48:00,40,16,29,27,27,27,19,28,26
15:49:00,15,18,19,37,12,19,17,20,20
15:50:00,22,20,36,19,25,40,18,24,26
15:51:00,30,28,19,16,19,17,24,22,22
15:52:00,17,23,21,23,45,28,17,26,25
15:53:00,18,21,17,14,9,11,26,16,17
15:54:00,14,14,36,13,19,22,21,19,20
15:55:00,29,15,23,37,15,37,15,24,24
15:56:00,18,36,31,22,39,16,21,29,26
15:57:00,37,20,44,29,16,43,17,29,29
15:58:00,12,20,21,20,15,15,18,18,17
15:59:00,14,23,17,28,29,25,18,22,22
16:00:00,39,23,29,21,20,30,15,26,25
16:01:00,34,21,25,20,24,20,17,25,23
16:02:00,21,25,30,44,15,18,30,27,26
16:03:00,36,24,14,23,40,30,20,27,27
16:04:00,18,17,46,35,23,12,12,28,23
16:05:00,16,32,17,40,18,19,23,25,24
16:06:00,41,27,25,22,43,26,19,32,29
16:07:00,16,22,19,25,20,14,9,20,18
16:08:00,17,38,24,16,23,26,20,24,23
16:09:00,35,24,27,26,47,13,15,32,27
16:10:00,23,19,19,26,21,24,25,22,22
16:11:00,30,35,42,18,26,15,17,30,26
16:12:00,22,26,24,46,49,28,15,33,30
16:13:00,36,30,27,17,17,25,25,25,25
16:14:00,22,26,32,10,23,26,21,23,23
16:15:00,23,19,18,36,22,23,16,24,22
16:16:00,14,34,30,29,26,16,16,27,24
16:17:00,13,11,20,33,42,29,22,24,24
16:18:00,22,20,26,17,23,18,16,22,20
16:19:00,23,27,13,19,27,24,21,22,22
16:20:00,19,14,25,35,30,25,22,25,24
16:21:00,15,20,19,25,13,15,17,18,18
16:22:00,12,31,23,33,12,36,19,22,24
16:23:00,17,30,24,21,37,20,14,26,23
16:24:00,23,20,23,25,19,20,26,22,22
16:25:00,32,45,40,17,26,15,16,32,27
16:26:00,38,18,12,24,24,30,16,23,23
16:27:00,34,21,27,19,23,16,15,25,22
16:28:00,31,10,15,30,26,35,15,22,23
16:29:00,20,21,18,10,17,23,13,17,17
16:30:00,20,31,29,21,19,31,20,24,24
16:31:00,13,14,10,23,39,14,22,20,19
16:32:00,24,25,24,17,20,31,16,22,22
16:33:00,25,17,16,28,20,15,14,21,19
16:34:00,25,23,26,14,37,17,12,25,22
16:35:00,18,22,40,37,22,11,16,28,24
16:36:00,33,20,20,18,35,25,15,25,24
16:37:00,11,38,23,30,15,31,13,23,23
16:38:00,27,22,29,14,14,10,15,21,19
16:39:00,18,29,23,23,39,29,27,26,27
16:40:00,18,26,35,41,21,12,21,28,25
16:41:00,15,22,15,20,31,25,15,21,20
16:42:00,21,19,18,15,18,18,9,18,17
16:43:00,23,32,53,48,30,18,9,37,30
16:44:00,32,17,12,16,20,23,17,19,20
16:45:00,31,29,23,23,25,19,14,26,23
16:46:00,32,19,36,43,25,29,15,31,28
16:47:00,17,25,19,6,23,10,11,18,16
16:48:00,21,42,17,17,31,25,14,26,24
16:49:00,19,10,36,47,23,11,16,27,23
16:50:00,26,35,26,15,30,18,20,26,24
16:51:00,16,16,45,28,33,18,7,28,23
16:52:00,30,15,18,47,10,25,12,24,22
16:53:00,13,34,19,10,40,18,19,23,22
16:54:00,26,21,31,18,18,9,5,23,18
16:55:00,25,31,15,27,27,13,18,25,22
16:56:00,17,16,29,22,11,21,10,19,18
16:57:00,36,26,11,27,23,28,13,25,23
16:58:00,20,25,25,22,28,13,19,24,22
16:59:00,23,13,21,26,17,22,8,20,19
17:00:00,20,40,13,18,26,21,16,23,22
17:01:00,17,12,43,28,8,13,15,22,19
17:02:00,24,22,16,11,30,29,14,21,21
17:03:00,16,17,16,16,21,20,13,17,17
17:04:00,19,21,32,38,31,26,7,28,25
17:05:00,15,42,13,33,15,12,15,24,21
17:06:00,35,7,24,26,19,23,17,22,22
17:07:00,26,27,41,23,38,7,12,31,25
17:08:00,19,41,16,29,13,32,17,24,24
17:09:00,19,9,30,19,21,20,14,20,19
17:10:00,29,32,16,23,48,18,9,30,25
17:11:00,18,30,23,21,16,26,28,22,23
17:12:00,20,16,25,23,14,13,17,20,18
17:13:00,40,53,18,35,39,31,17,37,33
17:14:00,22,11,21,25,16,18,14,19,18
17:15:00,21,25,37,29,18,19,5,26,22
17:16:00,21,25,13,25,41,12,11,25,21
17:17:00,37,17,23,28,17,21,22,24,24
17:18:00,8,30,30,41,22,16,15,26,23
17:19:00,18,26,26,30,40,18,11,28,24
17:20:00,38,17,28,23,22,16,11,26,22
17:21:00,17,32,22,32,19,21,11,24,22
17:22:00,33,36,29,15,47,17,26,32,29
17:23:00,12,25,34,31,15,23,14,23,22
17:24:00,15,30,20,23,24,19,17,22,21
17:25:00,45,19,24,20,11,14,15,24,21
17:26:00,18,27,22,34,25,19,11,25,22
17:27:00,27,18,14,22,24,10,17,21,19
17:28:00,38,21,35,39,23,17,15,31,27
17:29:00,15,17,12,11,32,21,8,17,17
17:30:00,29,17,19,16,19,17,13,20,19
17:31:00,21,41,22,36,10,21,14,26,24
17:32:00,29,23,23,20,20,22,8,23,21
17:33:00,16,25,35,31,17,34,10,25,24
17:34:00,20,23,20,11,27,23,16,20,20
17:35:00,19,27,18,20,16,22,15,20,20
17:36:00,19,18,31,15,23,11,17,21,19
17:37:00,17,28,21,23,27,26,6,23,21
17:38:00,37,18,24,13,39,19,19,26,24
17:39:00,18,47,31,16,14,28,10,25,23
17:40:00,37,18,22,36,11,17,7,25,21
17:41:00,14,24,28,21,35,19,24,24,24
17:42:00,21,30,17,19,12,24,10,20,19
17:43:00,21,20,44,28,23,29,14,27,26
17:44:00,23,25,13,22,13,15,15,19,18
17:45:00,28,33,24,37,22,18,7,29,24
17:46:00,24,20,36,22,24,30,21,25,25
17:47:00,19,19,26,18,21,14,14,21,19
17:48:00,35,35,34,39,17,21,16,32,28
17:49:00,23,14,19,26,12,16,6,19,17
17:50:00,34,26,32,29,24,18,10,29,25
17:51:00,19,20,4,31,21,15,15,19,18
17:52:00,23,36,30,21,39,24,11,30,26
17:53:00,40,14,14,30,11,19,3,22,19
17:54:00,15,26,32,34,20,15,16,25,23
17:55:00,34,12,28,22,27,13,18,25,22
17:56:00,16,24,24,22,23,16,3,22,18
17:57:00,22,26,29,25,21,23,5,25,22
17:58:00,25,22,24,22,25,18,9,24,21
17:59:00,27,32,38,23,22,19,9,28,24
18:00:00,20,21,12,31,15,19,11,20,18
18:01:00,32,36,22,23,29,14,7,28,23
18:02:00,22,23,15,13,25,29,10,20,20
18:03:00,24,30,34,34,30,20,12,30,26
18:04:00,27,12,21,19,22,19,17,20,20
18:05:00,21,33,17,29,24,12,8,25,21
18:06:00,16,13,19,18,12,13,13,16,15
18:07:00,21,24,14,22,32,18,13,23,21
18:08:00,43,37,42,20,21,14,8,33,26
18:09:00,24,22,19,29,18,19,22,22,22
18:10:00,32,21,32,18,16,16,4,24,20
18:11:00,21,18,19,24,28,27,15,22,22
18:12:00,19,20,34,16,30,22,18,24,23
18:13:00,23,33,26,22,31,18,12,27,24
18:14:00,25,21,30,23,8,18,10,21,19
18:15:00,28,36,22,19,28,18,15,27,24
18:16:00,17,30,12,28,18,17,9,21,19
18:17:00,21,26,42,16,22,11,14,25,22
18:18:00,33,28,14,30,31,10,12,27,23
18:19:00,31,35,31,27,27,21,13,30,26
18:20:00,28,18,18,14,14,23,14,18,18
18:21:00,13,26,25,30,22,13,10,23,20
18:22:00,33,26,8,13,16,10,13,19,17
18:23:00,18,29,22,35,28,18,9,26,23
18:24:00,36,26,24,27,14,22,6,25,22
18:25:00,14,27,25,28,15,18,12,22,20
18:26:00,22,12,27,12,18,20,7,18,17
18:27:00,13,27,17,24,30,10,3,22,18
18:28:00,13,18,27,16,17,25,13,18,18
18:29:00,13,17,19,18,23,15,5,18,16
18:30:00,36,39,20,38,17,18,6,30,25
18:31:00,13,18,13,22,21,11,13,17,16
18:32:00,12,38,12,24,17,28,8,21,20
18:33:00,21,18,21,22,19,24,9,20,19
18:34:00,14,25,11,31,20,19,9,20,18
18:35:00,16,9,32,21,31,15,8,22,19
18:36:00,26,27,13,33,13,11,11,22,19
18:37:00,14,11,28,18,32,20,12,21,19
18:38:00,11,29,12,13,22,16,10,17,16
18:39:00,21,5,20,40,17,17,8,21,18
18:40:00,21,20,15,17,15,19,6,18,16
18:41:00,19,15,7,27,26,18,8,19,17
18:42:00,16,15,23,16,15,19,12,17,17
18:43:00,6,17,11,25,20,19,8,16,15
18:44:00,15,31,8,34,15,18,17,21,20
18:45:00,22,8,15,16,15,15,6,15,14
18:46:00,12,37,21,26,28,16,13,25,22
18:47:00,14,15,24,35,20,5,7,22,17
18:48:00,18,21,14,13,18,19,11,17,16
18:49:00,24,16,27,31,23,15,7,24,20
18:50:00,22,30,27,16,21,13,8,23,20
18:51:00,13,17,9,16,14,14,14,14,14
18:52:00,16,21,20,22,25,11,12,21,18
18:53:00,12,10,12,29,18,15,3,16,14
18:54:00,29,15,12,18,14,21,9,18,17
18:55:00,12,19,19,31,13,20,10,19,18
18:56:00,21,19,14,20,23,13,11,19,17
18:57:00,12,14,20,23,17,17,8,17,16
18:58:00,14,12,11,14,20,16,6,14,13
18:59:00,16,19,15,21,17,15,9,18,16
19:00:00,15,15,12,13,26,26,7,16,16
19:01:00,13,25,12,23,17,15,9,18,16
19:02:00,20,17,24,13,9,20,7,17,16
19:03:00,21,10,21,28,21,17,4,20,17
19:04:00,20,5,21,19,24,10,12,18,16
19:05:00,16,23,19,24,19,11,11,20,18
19:06:00,5,19,9,18,15,18,7,13,13
19:07:00,22,11,11,22,16,10,12,16,15
19:08:00,14,20,24,14,9,7,10,16,14
19:09:00,16,9,14,11,17,12,5,13,12
19:10:00,10,22,20,16,12,6,9,16,14
19:11:00,20,14,10,12,24,11,11,16,15
19:12:00,14,21,13,20,10,12,7,16,14
19:13:00,13,19,19,8,17,16,14,15,15
19:14:00,27,10,10,20,19,9,7,17,15
19:15:00,12,13,21,8,16,15,6,14,13
19:16:00,21,15,10,24,21,10,7,18,15
19:17:00,14,14,17,12,16,9,8,15,13
19:18:00,17,15,7,17,23,11,6,16,14
19:19:00,17,21,16,11,15,11,6,16,14
19:20:00,15,12,19,21,13,11,11,16,15
19:21:00,28,12,12,11,10,17,3,15,13
19:22:00,8,18,18,18,27,22,1,18,16
19:23:00,11,13,18,19,8,12,9,14,13
19:24:00,16,13,10,14,11,16,12,13,13
19:25:00,20,12,15,19,14,18,6,16,15
19:26:00,14,24,6,16,24,10,13,17,15
19:27:00,15,13,16,21,16,13,12,16,15
19:28:00,13,12,8,17,16,9,3,13,11
19:29:00,13,8,14,21,17,10,14,15,14
19:30:00,13,18,12,11,19,8,7,15,13
19:31:00,11,15,9,10,12,14,13,11,12
19:32:00,20,16,14,12,13,12,2,15,13
19:33:00,15,9,8,17,12,20,7,12,13
19:34:00,8,12,17,15,8,9,15,12,12
19:35:00,9,11,13,22,14,7,10,14,12
19:36:00,18,15,5,15,7,13,10,12,12
19:37:00,7,16,15,16,14,9,8,14,12
19:38:00,23,13,18,11,4,10,8,14,12
19:39:00,24,8,18,13,14,7,4,15,13
19:40:00,10,11,21,21,14,11,5,15,13
19:41:00,12,11,7,7,18,5,5,11,9
19:42:00,15,16,19,8,15,8,9,15,13
19:43:00,7,4,7,15,11,6,8,9,8
19:44:00,8,13,3,6,19,10,10,10,10
19:45:00,12,15,22,20,9,8,9,16,14
19:46:00,15,15,10,9,23,5,7,14,12
19:47:00,11,14,14,30,7,9,12,15,14
19:48:00,17,9,10,10,11,11,7,11,11
19:49:00,8,15,8,17,13,4,6,12,10
19:50:00,12,11,15,6,10,12,7,11,10
19:51:00,12,1,8,8,14,12,10,9,9
19:52:00,10,12,11,16,8,10,13,11,11
19:53:00,11,14,15,8,8,7,8,11,10
19:54:00,6,12,7,10,10,8,12,9,9
19:55:00,11,14,4,12,4,7,5,9,8
19:56:00,10,9,20,15,15,6,4,14,11
19:57:00,10,12,11,7,11,6,5,10,9
19:58:00,11,19,14,17,5,10,7,13,12
19:59:00,11,7,8,13,11,13,5,10,10
20:00:00,25,6,10,15,10,11,12,13,13
20:01:00,7,10,8,19,4,14,5,10,10
20:02:00,6,12,13,4,9,16,6,9,9
20:03:00,15,12,8,14,17,5,3,13,11
20:04:00,5,8,6,14,3,12,2,7,7
20:05:00,8,7,14,10,13,6,2,10,9
20:06:00,20,12,8,12,6,10,9,12,11
20:07:00,15,8,11,9,11,8,10,11,10
20:08:00,10,9,16,14,8,9,12,11,11
20:09:00,9,14,6,6,20,10,3,11,10
20:10:00,10,10,13,18,9,9,4,12,10
20:11:00,8,13,8,6,13,6,9,10,9
20:12:00,14,5,12,21,7,10,5,12,11
20:13:00,17,20,19,10,12,6,18,16,15
20:14:00,8,8,10,9,9,20,3,9,10
20:15:00,20,10,12,7,15,13,10,13,12
20:16:00,13,9,9,12,7,4,4,10,8
20:17:00,22,9,8,8,13,12,12,12,12
20:18:00,10,14,15,16,7,9,9,12,11
20:19:00,11,13,7,7,11,12,9,10,10
20:20:00,4,9,7,10,12,12,4,8,8
20:21:00,5,10,5,10,12,10,7,8,8
20:22:00,6,15,6,9,7,7,11,9,9
20:23:00,13,12,13,16,7,8,15,12,12
20:24:00,4,4,9,5,11,8,10,7,7
20:25:00,17,15,7,12,4,13,2,11,10
20:26:00,10,5,10,15,11,9,7,10,10
20:27:00,9,11,11,5,9,11,6,9,9
20:28:00,8,11,5,15,10,8,7,10,9
20:29:00,7,9,9,7,17,9,7,10,9
20:30:00,8,13,15,9,3,12,6,10,9
20:31:00,9,4,3,13,9,3,7,8,7
20:32:00,10,5,9,11,9,3,7,9,8
20:33:00,5,4,11,11,10,14,9,8,9
20:34:00,10,13,11,10,15,7,6,12,10
20:35:00,13,3,4,12,8,7,9,8,8
20:36:00,4,11,3,12,5,7,6,7,7
20:37:00,5,7,7,6,12,8,12,7,8
20:38:00,10,7,7,13,6,8,5,9,8
20:39:00,3,12,5,13,7,8,3,8,7
20:40:00,13,8,7,5,11,6,4,9,8
20:41:00,14,6,14,6,13,7,6,11,9
20:42:00,6,14,12,4,8,12,3,9,8
20:43:00,6,2,6,13,12,7,2,8,7
20:44:00,11,11,13,19,5,2,4,12,9
20:45:00,7,5,4,7,6,7,8,6,6
20:46:00,7,13,6,6,9,11,6,8,8
20:47:00,6,13,10,10,6,4,7,9,8
20:48:00,12,7,15,13,7,12,7,11,10
20:49:00,6,10,4,5,8,5,8,7,7
20:50:00,7,6,7,10,6,4,4,7,6
20:51:00,6,6,5,3,5,5,6,5,5
20:52:00,3,5,10,4,14,5,9,7,7
20:53:00,7,5,7,15,10,6,9,9,8
20:54:00,8,10,11,7,7,7,5,9,8
20:55:00,5,4,7,8,14,5,5,8,7
20:56:00,8,9,12,11,15,8,9,11,10
20:57:00,11,8,7,13,5,3,7,9,8
20:58:00,12,7,3,4,8,3,2,7,6
20:59:00,3,7,8,9,4,3,7,6,6
21:00:00,7,0,12,5,7,3,8,6,6
21:01:00,2,7,7,8,5,7,9,6,6
21:02:00,11,6,8,4,9,8,6,8,7
21:03:00,6,4,5,11,7,2,11,7,7
21:04:00,6,7,8,9,11,16,5,8,9
21:05:00,9,4,2,2,8,5,9,5,6
21:06:00,5,10,8,13,9,1,3,9,7
21:07:00,12,8,3,9,13,7,1,9,8
21:08:00,9,3,7,4,5,5,10,6,6
21:09:00,3,8,8,5,12,12,1,7,7
21:10:00,10,6,7,1,7,7,3,6,6
21:11:00,11,0,10,11,2,10,5,7,7
21:12:00,5,13,7,11,8,6,4,9,8
21:13:00,4,10,5,5,10,2,6,7,6
21:14:00,8,9,4,8,8,5,2,7,6
21:15:00,5,8,7,9,13,7,6,8,8
21:16:00,7,6,9,7,9,11,9,8,8
21:17:00,8,14,6,16,6,8,12,10,10
21:18:00,8,7,10,13,15,7,2,11,9
21:19:00,10,13,8,2,5,3,10,8,7
21:20:00,10,7,11,11,10,3,5,10,8
21:21:00,2,8,5,9,6,6,6,6,6
21:22:00,10,7,11,4,7,5,6,8,7
21:23:00,9,4,11,18,10,8,6,10,9
21:24:00,5,6,9,6,11,6,2,7,6
21:25:00,7,6,10,17,5,7,4,9,8
21:26:00,1,7,7,2,3,13,7,4,6
21:27:00,4,11,10,4,11,4,3,8,7
21:28:00,9,5,4,9,8,7,3,7,6
21:29:00,10,8,11,7,6,10,2,8,8
21:30:00,4,3,4,4,8,5,6,5,5
21:31:00,4,8,3,10,8,8,4,7,6
21:32:00,4,11,6,7,12,7,2,8,7
21:33:00,5,3,8,7,14,9,0,7,7
21:34:00,9,6,7,9,9,3,6,8,7
21:35:00,8,4,9,12,4,4,5,7,7
21:36:00,7,6,8,3,10,11,0,7,6
21:37:00,6,3,3,10,10,3,3,6,5
21:38:00,3,5,7,0,6,8,7,4,5
21:39:00,4,8,10,7,14,7,5,9,8
21:40:00,6,5,4,2,12,4,1,6,5
21:41:00,7,6,9,7,5,6,5,7,6
21:42:00,6,5,11,8,8,11,1,8,7
21:43:00,10,8,2,3,12,6,1,7,6
21:44:00,6,5,5,6,12,10,10,7,8
21:45:00,5,1,8,10,9,4,6,7,6
21:46:00,1,14,3,7,1,4,6,5,5
21:47:00,6,8,7,11,7,5,4,8,7
21:48:00,14,7,11,4,6,1,7,8,7
21:49:00,3,6,3,6,6,7,3,5,5
21:50:00,10,8,12,10,7,11,5,9,9
21:51:00,5,4,4,18,6,3,4,7,6
21:52:00,5,3,8,12,12,12,4,8,8
21:53:00,7,14,2,4,6,2,5,7,6
21:54:00,5,8,8,13,11,9,2,9,8
21:55:00,4,2,9,7,10,5,4,6,6
21:56:00,4,7,5,9,7,5,6,6,6
21:57:00,6,1,5,8,4,8,6,5,5
21:58:00,6,6,6,6,9,8,5,7,7
21:59:00,2,5,8,2,4,10,5,4,5
22:00:00,6,12,3,10,17,3,4,10,8
22:01:00,10,4,7,4,5,8,5,6,6
22:02:00,7,3,7,10,8,7,3,7,6
22:03:00,5,4,2,12,5,3,5,6,5
22:04:00,7,5,5,5,12,6,3,7,6
22:05:00,7,11,10,8,5,7,2,8,7
22:06:00,12,4,5,8,15,6,5,9,8
22:07:00,5,8,8,17,4,7,2,8,7
22:08:00,14,4,4,3,6,10,3,6,6
22:09:00,9,7,4,14,10,4,6,9,8
22:10:00,10,11,6,8,8,3,7,9,8
22:11:00,10,7,14,16,6,6,4,11,9
22:12:00,5,6,6,5,9,12,3,6,7
22:13:00,16,8,7,10,6,7,3,9,8
22:14:00,3,2,6,11,7,7,8,6,6
22:15:00,7,6,1,15,10,10,3,8,7
22:16:00,15,15,1,19,9,2,5,12,9
22:17:00,1,6,8,8,8,13,1,6,6
22:18:00,15,8,7,12,7,12,4,10,9
22:19:00,19,6,6,7,10,5,2,10,8
22:20:00,7,7,5,20,8,7,2,9,8
22:21:00,7,4,5,13,9,16,4,8,8
22:22:00,4,6,12,12,8,4,2,8,7
22:23:00,14,7,9,7,5,18,1,8,9
22:24:00,6,8,11,14,9,8,3,10,8
22:25:00,12,10,12,7,10,4,4,10,8
22:26:00,6,7,4,8,10,11,3,7,7
22:27:00,5,1,5,7,10,4,6,6,5
22:28:00,14,6,9,8,8,10,4,9,8
22:29:00,6,4,4,7,11,9,3,6,6
22:30:00,7,6,8,12,14,14,2,9,9
22:31:00,6,3,11,5,11,9,2,7,7
22:32:00,5,2,3,4,17,9,4,6,6
22:33:00,8,3,7,6,12,14,3,7,8
22:34:00,7,6,5,11,11,11,2,8,8
22:35:00,5,10,9,4,5,18,4,7,8
22:36:00,9,7,8,8,7,11,2,8,7
22:37:00,8,7,10,6,8,1,5,8,6
22:38:00,4,9,6,14,5,16,1,8,8
22:39:00,3,9,5,7,8,4,2,6,5
22:40:00,7,6,5,10,10,21,2,8,9
22:41:00,7,7,5,5,11,13,2,7,7
22:42:00,7,4,8,9,10,7,4,8,7
22:43:00,7,9,2,17,13,17,4,10,10
22:44:00,5,9,6,2,8,5,0,6,5
22:45:00,5,4,3,7,11,15,0,6,6
22:46:00,2,2,1,4,10,16,7,4,6
22:47:00,8,14,1,6,11,6,6,8,7
22:48:00,8,5,5,10,3,10,1,6,6
22:49:00,4,12,9,4,9,13,4,8,8
22:50:00,2,4,12,8,6,10,3,6,6
22:51:00,2,5,3,7,9,12,7,5,6
22:52:00,2,6,4,4,8,10,8,5,6
22:53:00,4,5,4,11,4,7,4,6,6
22:54:00,1,17,5,1,13,1,2,7,6
22:55:00,7,5,5,20,6,4,4,9,7
22:56:00,6,0,6,15,5,8,5,6,6
22:57:00,4,15,4,2,5,4,2,6,5
22:58:00,4,6,7,13,9,6,7,8,7
22:59:00,4,9,5,4,7,7,2,6,5
23:00:00,3,8,4,14,3,3,8,6,6
23:01:00,6,3,3,11,3,8,2,5,5
23:02:00,7,1,4,8,11,5,4,6,6
23:03:00,4,5,2,2,4,12,2,3,4
23:04:00,3,7,1,10,5,13,3,5,6
23:05:00,3,5,6,12,3,4,2,6,5
23:06:00,7,3,3,5,5,7,3,5,5
23:07:00,3,3,5,17,9,6,3,7,7
23:08:00,1,6,1,5,10,1,4,5,4
23:09:00,1,6,4,6,14,13,3,6,7
23:10:00,4,4,1,9,9,1,4,5,5
23:11:00,2,6,4,8,6,9,5,5,6
23:12:00,4,3,3,2,5,15,3,3,5
23:13:00,7,1,3,13,11,9,0,7,6
23:14:00,0,5,5,4,3,12,6,3,5
23:15:00,4,4,4,5,8,5,1,5,4
23:16:00,3,4,8,6,6,2,2,5,4
23:17:00,0,2,4,4,6,5,3,3,3
23:18:00,3,1,0,0,2,7,3,1,2
23:19:00,2,4,1,8,5,6,3,4,4
23:20:00,6,3,3,3,3,6,1,4,4
23:21:00,6,2,4,6,7,9,2,5,5
23:22:00,2,8,2,2,6,7,2,4,4
23:23:00,0,6,5,7,4,9,3,4,5
23:24:00,1,2,2,8,3,6,1,3,3
23:25:00,6,4,0,4,9,6,2,5,4
23:26:00,3,4,4,3,7,7,2,4,4
23:27:00,1,3,1,3,10,7,3,4,4
23:28:00,5,7,4,3,8,7,1,5,5
23:29:00,3,1,3,2,6,14,4,3,5
23:30:00,0,4,1,7,5,6,2,3,4
23:31:00,1,0,7,3,4,6,4,3,4
23:32:00,3,1,2,2,7,8,1,3,3
23:33:00,4,5,5,7,5,7,4,5,5
23:34:00,5,1,6,4,9,5,2,5,5
23:35:00,2,6,7,5,7,5,2,5,5
23:36:00,3,7,2,1,10,2,3,5,4
23:37:00,6,5,0,3,3,3,2,3,3
23:38:00,0,1,2,5,6,6,1,3,3
23:39:00,3,5,3,2,9,11,1,4,5
23:40:00,3,1,2,2,3,4,0,2,2
23:41:00,2,3,3,2,10,1,3,4,3
23:42:00,1,3,5,7,6,6,2,4,4
23:43:00,0,0,1,3,4,6,1,2,2
23:44:00,2,1,3,4,6,12,2,3,4
23:45:00,3,4,3,7,5,7,3,4,5
23:46:00,4,3,5,3,2,3,2,3,3
23:47:00,1,2,1,1,7,4,3,2,3
23:48:00,5,0,5,4,4,5,1,4,3
23:49:00,4,1,2,4,4,9,0,3,3
23:50:00,2,3,1,3,6,6,2,3,3
23:51:00,4,1,3,2,3,11,0,3,3
23:52:00,1,1,3,5,2,7,3,2,3
23:53:00,3,2,2,3,5,8,1,3,3
23:54:00,4,3,1,1,5,2,0,3,2
23:55:00,3,1,4,1,4,13,3,3,4
23:56:00,2,4,6,3,4,8,2,4,4
23:57:00,2,2,2,0,1,11,2,1,3
23:58:00,1,1,4,3,4,6,2,3,3
23:59:00,2,2,1,6,4,0,0,3,2
,,,,,,,,,
Totals,,,,,,,,,
12H(7-19),14886,15342,15895,15941,15970,14280,11604,15607,14845
16H(6-22),17327,17798,18352,18650,18550,16128,12949,18135,17108
18H(6-24),17925,18395,18903,19484,19416,17065,13299,18825,17784
24H(0-24),18629,19131,19645,20245,20278,17920,13993,19586,18549
,,,,,,,,,
AM Peak,07:45:00,07:39:00,07:38:00,07:23:00,10:55:00,11:00:00,11:00:00,07:45:00,10:00:00
,1265,1354,1565,1364,1409,1463,1391,1358,1196
,,,,,,,,,
PM Peak,17:25:00,17:31:00,15:26:00,16:34:00,15:56:00,12:10:00,12:09:00,15:56:00,15:47:00
,1496,1510,1532,1528,1540,1532,1446,1483,1391
,,,,,,,,,
,,,,,,,,,
CA Traffic,,,,,,,,,VDA-net R2 16/01/2020
