Site Number,00009151,Unnamed: 2,Site Reference,00009151.1,Unnamed: 5,Unnamed: 6,Lat/Lng.,"52.04302,1.10101",Unnamed: 9
London Road Ipswich,,,,,,,,,
Vehicle Count Report,,,,Week Begin: 27 January 2020,,,Channel:,Total Flow,
,,,,,,,,,
,,,,,,,,,
,2020-01-27 00:00:00,2020-01-28 00:00:00,2020-01-29 00:00:00,2020-01-30 00:00:00,2020-01-31 00:00:00,2020-02-01 00:00:00,2020-02-02 00:00:00,"5-Day
Ave.","7-Day
Ave."
00:00:00,0,3,1,1,1,4,1,1,2
00:01:00,4,2,1,8,2,5,3,3,4
00:02:00,3,3,1,4,2,6,7,3,4
00:03:00,1,0,1,1,0,10,3,1,2
00:04:00,1,1,1,0,3,6,3,1,2
00:05:00,3,0,4,3,2,3,2,2,2
00:06:00,1,2,2,4,1,5,6,2,3
00:07:00,1,0,1,4,5,4,4,2,3
00:08:00,2,2,1,1,1,4,4,1,2
00:09:00,1,2,0,0,2,4,2,1,2
00:10:00,2,1,2,2,2,5,1,2,2
00:11:00,0,1,1,2,3,1,5,1,2
00:12:00,1,1,1,2,2,3,2,1,2
00:13:00,1,3,3,7,1,5,1,3,3
00:14:00,2,3,3,3,4,4,3,3,3
00:15:00,4,1,4,1,0,0,5,2,2
00:16:00,2,0,3,1,1,0,6,1,2
00:17:00,2,1,3,1,1,2,8,2,3
00:18:00,2,0,2,0,2,8,1,1,2
00:19:00,5,3,5,2,3,6,7,4,4
00:20:00,2,2,4,1,4,14,2,3,4
00:21:00,3,2,0,1,1,5,2,1,2
00:22:00,1,3,3,4,0,6,2,2,3
00:23:00,1,2,2,3,3,2,0,2,2
00:24:00,3,3,0,2,6,8,4,3,4
00:25:00,0,3,2,2,3,3,2,2,2
00:26:00,0,5,2,0,6,2,4,3,3
00:27:00,4,0,0,1,3,8,0,2,2
00:28:00,1,2,2,1,1,1,7,1,2
00:29:00,0,1,1,0,2,4,1,1,1
00:30:00,0,1,2,2,4,6,3,2,3
00:31:00,3,3,0,1,1,3,1,2,2
00:32:00,2,4,2,2,4,1,0,3,2
00:33:00,3,2,4,3,1,5,1,3,3
00:34:00,4,1,2,2,1,5,1,2,2
00:35:00,2,0,3,5,4,5,0,3,3
00:36:00,2,4,3,1,0,5,1,2,2
00:37:00,3,1,2,1,4,2,1,2,2
00:38:00,0,3,2,1,6,3,2,2,2
00:39:00,2,1,0,1,1,1,8,1,2
00:40:00,1,1,1,1,0,6,3,1,2
00:41:00,1,1,2,2,2,3,3,2,2
00:42:00,1,0,1,1,1,2,3,1,1
00:43:00,0,0,3,1,2,1,2,1,1
00:44:00,1,0,1,2,2,3,6,1,2
00:45:00,1,1,2,3,2,2,2,2,2
00:46:00,2,2,2,2,2,1,3,2,2
00:47:00,1,1,5,4,2,1,1,3,2
00:48:00,0,0,3,1,2,3,1,1,1
00:49:00,0,1,2,1,4,4,3,2,2
00:50:00,0,1,2,1,0,3,0,1,1
00:51:00,2,1,0,0,4,5,1,1,2
00:52:00,1,3,2,1,0,2,4,1,2
00:53:00,1,1,1,1,4,1,0,2,1
00:54:00,1,2,2,0,1,3,2,1,2
00:55:00,0,0,1,1,2,5,2,1,2
00:56:00,0,2,1,1,5,6,0,2,2
00:57:00,0,0,2,3,4,4,1,2,2
00:58:00,2,1,2,1,1,5,2,1,2
00:59:00,0,2,1,4,4,6,4,2,3
01:00:00,1,3,3,2,2,5,2,2,3
01:01:00,0,1,3,0,1,2,2,1,1
01:02:00,1,1,1,3,5,2,3,2,2
01:03:00,1,0,1,1,3,4,4,1,2
01:04:00,0,5,1,2,1,2,2,2,2
01:05:00,1,1,0,0,3,1,4,1,1
01:06:00,0,3,0,2,1,1,3,1,1
01:07:00,1,3,1,1,2,4,3,2,2
01:08:00,1,2,4,4,2,8,1,3,3
01:09:00,3,0,0,1,1,7,0,1,2
01:10:00,0,0,1,3,0,1,1,1,1
01:11:00,1,4,1,0,1,6,1,1,2
01:12:00,1,1,2,2,2,3,0,2,2
01:13:00,1,1,1,0,1,3,2,1,1
01:14:00,2,1,1,1,0,3,0,1,1
01:15:00,2,0,2,2,1,1,1,1,1
01:16:00,0,1,1,0,0,1,3,0,1
01:17:00,0,2,0,0,4,0,0,1,1
01:18:00,3,2,3,2,2,2,2,2,2
01:19:00,2,1,0,0,0,2,3,1,1
01:20:00,1,1,1,0,4,3,1,1,2
01:21:00,0,0,0,0,1,3,5,0,1
01:22:00,3,1,0,1,1,2,2,1,1
01:23:00,2,3,2,1,1,4,1,2,2
01:24:00,0,0,2,3,2,6,2,1,2
01:25:00,0,4,0,0,2,4,3,1,2
01:26:00,0,1,0,3,2,3,2,1,2
01:27:00,1,2,1,2,1,1,0,1,1
01:28:00,2,1,1,1,1,1,2,1,1
01:29:00,2,1,1,0,2,3,2,1,2
01:30:00,1,1,1,0,0,5,2,1,1
01:31:00,0,3,0,0,1,3,0,1,1
01:32:00,0,1,1,1,0,0,0,1,0
01:33:00,1,0,1,2,4,0,2,2,1
01:34:00,2,0,1,3,0,4,2,1,2
01:35:00,1,3,0,1,3,6,2,2,2
01:36:00,0,3,0,1,2,3,0,1,1
01:37:00,1,0,1,3,0,2,1,1,1
01:38:00,2,3,3,1,1,1,2,2,2
01:39:00,0,3,0,2,1,4,2,1,2
01:40:00,1,1,2,0,2,1,2,1,1
01:41:00,1,2,2,1,1,4,2,1,2
01:42:00,0,0,0,0,0,1,0,0,0
01:43:00,2,0,1,2,0,0,0,1,1
01:44:00,1,1,2,0,0,1,1,1,1
01:45:00,0,1,1,2,2,3,2,1,2
01:46:00,0,2,0,0,0,1,0,0,0
01:47:00,1,0,0,1,2,3,1,1,1
01:48:00,3,0,0,2,1,1,1,1,1
01:49:00,1,0,3,1,1,4,0,1,1
01:50:00,0,4,4,0,3,1,2,2,2
01:51:00,0,1,0,1,1,5,2,1,1
01:52:00,1,0,0,2,4,1,0,1,1
01:53:00,0,3,1,0,0,2,0,1,1
01:54:00,0,1,0,0,1,2,1,0,1
01:55:00,0,2,2,1,2,4,0,1,2
01:56:00,0,1,1,0,0,1,0,0,0
01:57:00,1,2,2,0,2,2,0,1,1
01:58:00,1,1,1,1,3,1,0,1,1
01:59:00,0,0,3,0,0,3,1,1,1
02:00:00,1,0,0,2,0,1,1,1,1
02:01:00,0,1,1,1,0,2,0,1,1
02:02:00,0,1,0,0,0,3,0,0,1
02:03:00,0,0,1,0,0,3,1,0,1
02:04:00,0,0,3,1,2,1,0,1,1
02:05:00,0,1,2,1,1,2,1,1,1
02:06:00,0,0,2,2,2,2,0,1,1
02:07:00,0,0,3,0,3,2,3,1,2
02:08:00,0,1,1,2,1,2,1,1,1
02:09:00,1,0,2,3,1,0,0,1,1
02:10:00,1,0,4,0,1,1,2,1,1
02:11:00,2,1,0,2,2,4,2,1,2
02:12:00,0,2,1,1,0,1,1,1,1
02:13:00,0,0,1,1,2,1,1,1,1
02:14:00,1,3,2,0,1,1,1,1,1
02:15:00,1,0,1,0,0,3,1,0,1
02:16:00,0,3,2,0,0,3,3,1,2
02:17:00,0,1,0,1,0,1,3,0,1
02:18:00,0,1,3,0,1,0,0,1,1
02:19:00,0,0,2,0,1,2,2,1,1
02:20:00,2,0,3,1,1,0,1,1,1
02:21:00,1,2,0,1,1,2,1,1,1
02:22:00,1,0,0,2,2,2,0,1,1
02:23:00,0,0,2,1,1,2,4,1,1
02:24:00,2,0,1,0,1,2,0,1,1
02:25:00,0,1,0,1,2,2,0,1,1
02:26:00,1,0,0,0,0,0,1,0,0
02:27:00,0,2,0,0,3,1,1,1,1
02:28:00,0,1,2,1,0,3,0,1,1
02:29:00,2,1,1,0,0,2,1,1,1
02:30:00,0,0,0,1,1,1,0,0,0
02:31:00,1,1,0,1,0,1,0,1,1
02:32:00,0,1,0,0,5,1,1,1,1
02:33:00,2,0,1,1,1,1,0,1,1
02:34:00,0,3,1,2,1,2,3,1,2
02:35:00,0,1,1,1,1,1,1,1,1
02:36:00,2,0,3,1,1,1,1,1,1
02:37:00,2,4,2,1,1,0,3,2,2
02:38:00,0,2,1,1,0,6,0,1,1
02:39:00,3,0,0,1,0,1,1,1,1
02:40:00,1,1,0,0,0,1,2,0,1
02:41:00,0,1,2,2,2,0,2,1,1
02:42:00,1,1,3,0,2,2,1,1,1
02:43:00,0,0,0,0,3,2,2,1,1
02:44:00,2,1,4,3,1,1,1,2,2
02:45:00,0,0,0,0,1,0,0,0,0
02:46:00,2,0,4,0,2,1,1,2,1
02:47:00,1,0,0,0,1,0,4,0,1
02:48:00,1,1,3,1,2,0,0,2,1
02:49:00,5,2,3,0,0,3,1,2,2
02:50:00,0,1,1,1,3,1,0,1,1
02:51:00,1,1,0,0,3,2,0,1,1
02:52:00,1,1,2,1,0,1,1,1,1
02:53:00,1,0,2,0,0,0,2,1,1
02:54:00,0,1,2,1,1,1,1,1,1
02:55:00,3,0,2,0,1,1,0,1,1
02:56:00,3,0,1,2,3,0,0,2,1
02:57:00,0,0,0,0,1,1,2,0,1
02:58:00,2,2,1,0,0,0,1,1,1
02:59:00,0,2,1,2,0,4,0,1,1
03:00:00,1,2,0,0,0,2,0,1,1
03:01:00,1,2,1,1,2,3,1,1,2
03:02:00,0,1,0,1,0,2,0,0,1
03:03:00,0,0,0,0,2,2,0,0,1
03:04:00,0,1,2,0,1,2,3,1,1
03:05:00,0,1,0,0,1,1,1,0,1
03:06:00,0,1,0,0,2,2,1,1,1
03:07:00,0,0,2,1,2,1,2,1,1
03:08:00,0,1,1,0,2,0,1,1,1
03:09:00,0,1,2,0,3,1,0,1,1
03:10:00,2,4,0,1,1,0,0,2,1
03:11:00,3,1,2,1,2,1,0,2,1
03:12:00,3,4,0,1,2,0,0,2,1
03:13:00,0,2,0,1,1,4,1,1,1
03:14:00,1,1,2,0,1,2,0,1,1
03:15:00,1,0,1,1,0,1,0,1,1
03:16:00,2,0,2,1,1,1,2,1,1
03:17:00,1,1,1,0,0,3,1,1,1
03:18:00,1,2,0,1,1,0,0,1,1
03:19:00,0,2,1,0,0,1,0,1,1
03:20:00,0,1,1,0,1,1,0,1,1
03:21:00,1,0,1,2,1,0,0,1,1
03:22:00,1,1,0,0,4,0,4,1,1
03:23:00,1,0,0,1,2,1,3,1,1
03:24:00,1,0,3,1,2,2,0,1,1
03:25:00,1,1,0,2,2,2,2,1,1
03:26:00,3,2,1,0,1,2,2,1,2
03:27:00,3,1,1,4,2,1,0,2,2
03:28:00,1,2,1,0,3,1,0,1,1
03:29:00,1,3,0,1,2,1,0,1,1
03:30:00,0,2,2,0,1,1,1,1,1
03:31:00,3,0,1,0,1,0,0,1,1
03:32:00,2,0,0,0,1,2,3,1,1
03:33:00,1,2,2,1,0,2,0,1,1
03:34:00,0,3,2,0,2,3,0,1,1
03:35:00,1,4,0,1,0,0,0,1,1
03:36:00,0,1,1,1,1,3,1,1,1
03:37:00,2,1,2,1,1,2,1,1,1
03:38:00,2,0,1,0,2,3,2,1,1
03:39:00,1,0,1,2,1,1,1,1,1
03:40:00,0,0,4,2,2,0,2,2,1
03:41:00,2,1,1,1,0,1,0,1,1
03:42:00,0,0,1,0,3,3,0,1,1
03:43:00,1,1,1,1,0,3,1,1,1
03:44:00,0,2,0,0,1,2,0,1,1
03:45:00,1,1,0,4,1,1,0,1,1
03:46:00,3,3,2,0,1,2,0,2,2
03:47:00,1,2,1,1,3,1,1,2,1
03:48:00,2,3,2,2,2,2,0,2,2
03:49:00,3,3,3,1,1,1,0,2,2
03:50:00,3,2,3,1,3,2,1,2,2
03:51:00,1,1,1,1,3,0,2,1,1
03:52:00,5,2,2,0,3,0,0,2,2
03:53:00,1,1,2,2,1,1,2,1,1
03:54:00,1,1,0,1,3,1,0,1,1
03:55:00,1,2,2,2,1,3,1,2,2
03:56:00,1,2,2,3,2,0,0,2,1
03:57:00,1,1,1,2,0,2,1,1,1
03:58:00,0,0,2,1,2,3,1,1,1
03:59:00,3,1,0,1,1,0,2,1,1
04:00:00,5,3,1,1,2,0,0,2,2
04:01:00,1,0,4,1,0,0,0,1,1
04:02:00,1,2,2,4,2,2,1,2,2
04:03:00,0,2,1,1,2,1,1,1,1
04:04:00,3,0,1,4,2,4,0,2,2
04:05:00,6,3,0,0,2,0,1,2,2
04:06:00,0,1,2,1,0,0,2,1,1
04:07:00,5,1,1,1,3,1,0,2,2
04:08:00,1,4,4,1,3,0,2,3,2
04:09:00,0,0,0,6,1,2,0,1,1
04:10:00,1,2,1,1,3,2,5,2,2
04:11:00,3,1,0,1,1,0,0,1,1
04:12:00,1,4,2,3,2,1,3,2,2
04:13:00,4,9,2,3,2,1,0,4,3
04:14:00,2,1,3,4,1,1,0,2,2
04:15:00,0,2,2,2,2,4,1,2,2
04:16:00,4,0,1,3,2,0,0,2,1
04:17:00,1,2,1,4,0,2,1,2,2
04:18:00,0,1,1,1,1,0,1,1,1
04:19:00,0,3,0,2,2,1,1,1,1
04:20:00,2,1,3,1,2,3,2,2,2
04:21:00,2,3,5,1,3,1,0,3,2
04:22:00,2,3,0,6,3,1,0,3,2
04:23:00,2,5,1,1,2,0,1,2,2
04:24:00,2,1,3,1,4,1,0,2,2
04:25:00,1,1,1,5,3,1,1,2,2
04:26:00,2,3,1,2,5,10,0,3,3
04:27:00,1,1,6,2,0,1,2,2,2
04:28:00,1,2,0,1,3,4,1,1,2
04:29:00,3,0,5,0,4,4,1,2,2
04:30:00,1,0,1,5,1,3,2,2,2
04:31:00,2,4,4,1,1,0,0,2,2
04:32:00,3,2,0,4,1,2,1,2,2
04:33:00,4,1,3,0,3,0,2,2,2
04:34:00,1,4,5,7,1,1,1,4,3
04:35:00,3,3,2,1,2,1,0,2,2
04:36:00,0,1,1,1,7,0,1,2,2
04:37:00,5,3,4,2,2,0,3,3,3
04:38:00,1,10,1,3,2,2,0,3,3
04:39:00,2,2,3,2,4,1,1,3,2
04:40:00,0,2,1,4,4,1,1,2,2
04:41:00,3,0,5,1,2,0,4,2,2
04:42:00,6,3,0,4,8,4,2,4,4
04:43:00,0,3,3,4,1,2,2,2,2
04:44:00,5,3,8,2,1,2,0,4,3
04:45:00,3,1,2,1,4,2,2,2,2
04:46:00,3,3,5,1,4,1,2,3,3
04:47:00,5,1,3,1,6,3,1,3,3
04:48:00,3,1,3,2,2,2,0,2,2
04:49:00,3,5,4,0,2,1,1,3,2
04:50:00,3,2,2,3,2,4,0,2,2
04:51:00,2,4,2,2,1,3,1,2,2
04:52:00,5,6,6,2,2,0,0,4,3
04:53:00,3,5,2,3,2,0,1,3,2
04:54:00,4,2,4,5,1,2,0,3,3
04:55:00,2,2,4,3,2,1,3,3,2
04:56:00,3,2,2,1,0,1,1,2,1
04:57:00,1,4,2,2,3,1,1,2,2
04:58:00,2,4,3,6,2,1,0,3,3
04:59:00,3,2,2,3,2,2,0,2,2
05:00:00,2,1,1,0,2,0,0,1,1
05:01:00,5,3,5,7,4,1,1,5,4
05:02:00,5,3,1,3,1,1,3,3,2
05:03:00,5,1,5,8,0,0,0,4,3
05:04:00,1,5,2,3,0,1,0,2,2
05:05:00,2,3,0,1,5,2,3,2,2
05:06:00,3,4,0,6,3,2,1,3,3
05:07:00,2,7,4,2,6,1,1,4,3
05:08:00,2,4,1,2,2,0,1,2,2
05:09:00,0,6,5,3,6,1,1,4,3
05:10:00,2,4,2,2,2,2,4,2,3
05:11:00,4,5,5,8,4,2,1,5,4
05:12:00,4,1,3,5,3,1,1,3,3
05:13:00,6,2,4,5,3,5,3,4,4
05:14:00,7,6,2,2,0,2,1,3,3
05:15:00,6,4,3,6,3,2,1,4,4
05:16:00,3,3,5,3,5,3,1,4,3
05:17:00,8,2,2,3,2,1,3,3,3
05:18:00,4,7,8,7,9,4,0,7,6
05:19:00,4,3,4,1,8,3,0,4,3
05:20:00,4,6,7,5,3,1,5,5,4
05:21:00,5,4,1,6,8,3,3,5,4
05:22:00,3,2,4,9,8,2,2,5,4
05:23:00,8,3,6,10,4,2,0,6,5
05:24:00,6,6,5,2,13,1,2,6,5
05:25:00,1,7,3,4,2,2,2,3,3
05:26:00,3,6,8,6,5,3,1,6,5
05:27:00,4,3,3,1,7,4,0,4,3
05:28:00,11,2,8,2,7,1,1,6,5
05:29:00,4,10,13,4,0,2,1,6,5
05:30:00,14,3,5,3,9,2,2,7,5
05:31:00,8,13,5,5,6,4,0,7,6
05:32:00,9,2,3,10,5,0,2,6,4
05:33:00,3,9,3,2,2,2,0,4,3
05:34:00,5,7,5,10,6,2,4,7,6
05:35:00,4,8,6,6,7,4,0,6,5
05:36:00,4,3,8,7,5,3,1,5,4
05:37:00,8,9,7,10,7,5,3,8,7
05:38:00,4,12,11,3,8,6,2,8,7
05:39:00,12,7,8,4,9,5,5,8,7
05:40:00,5,13,9,8,13,6,2,10,8
05:41:00,3,7,5,5,7,4,0,5,4
05:42:00,5,4,2,4,8,4,1,5,4
05:43:00,4,11,9,12,8,5,4,9,8
05:44:00,4,7,8,9,7,3,1,7,6
05:45:00,8,7,6,10,11,3,3,8,7
05:46:00,10,9,6,6,5,1,6,7,6
05:47:00,16,4,6,3,8,1,3,7,6
05:48:00,6,9,7,12,5,4,5,8,7
05:49:00,4,9,5,10,13,7,1,8,7
05:50:00,3,8,11,3,7,3,1,6,5
05:51:00,17,6,1,10,9,2,0,9,6
05:52:00,15,4,10,7,15,3,0,10,8
05:53:00,3,7,8,2,0,2,3,4,4
05:54:00,5,9,7,6,6,10,1,7,6
05:55:00,14,9,7,11,6,3,4,9,8
05:56:00,7,5,4,9,6,3,4,6,5
05:57:00,12,11,9,4,13,4,2,10,8
05:58:00,10,5,6,11,3,2,3,7,6
05:59:00,10,9,11,8,8,0,5,9,7
06:00:00,8,2,5,15,8,6,0,8,6
06:01:00,7,8,5,4,2,4,5,5,5
06:02:00,9,10,10,7,9,5,3,9,8
06:03:00,11,2,10,4,9,1,2,7,6
06:04:00,9,3,4,2,7,6,2,5,5
06:05:00,8,5,8,13,9,5,1,9,7
06:06:00,10,7,18,8,15,3,4,12,9
06:07:00,16,14,3,10,3,4,3,9,8
06:08:00,10,12,17,7,22,3,3,14,11
06:09:00,15,8,12,6,9,4,2,10,8
06:10:00,12,13,6,14,7,4,1,10,8
06:11:00,12,11,9,12,6,7,4,10,9
06:12:00,16,5,9,10,8,5,2,10,8
06:13:00,10,9,14,11,8,4,1,10,8
06:14:00,10,11,8,4,13,6,4,9,8
06:15:00,14,15,8,24,7,6,4,14,11
06:16:00,9,4,21,8,8,6,3,10,8
06:17:00,17,18,16,9,15,3,4,15,12
06:18:00,6,17,10,13,5,4,1,10,8
06:19:00,19,7,5,8,20,5,4,12,10
06:20:00,5,10,24,15,19,6,3,15,12
06:21:00,11,18,12,19,11,5,3,14,11
06:22:00,13,8,27,18,11,6,4,15,12
06:23:00,10,18,5,6,14,10,1,11,9
06:24:00,18,8,13,5,10,6,1,11,9
06:25:00,10,13,19,17,19,2,6,16,12
06:26:00,14,9,21,10,16,4,3,14,11
06:27:00,12,8,16,12,16,5,2,13,10
06:28:00,6,14,9,21,7,4,2,11,9
06:29:00,11,6,14,17,15,5,5,13,10
06:30:00,18,17,17,13,8,7,3,15,12
06:31:00,8,12,18,13,15,0,1,13,10
06:32:00,9,17,13,17,17,11,6,15,13
06:33:00,19,10,12,18,11,9,2,14,12
06:34:00,6,13,10,22,16,4,3,13,11
06:35:00,13,8,19,18,9,4,1,13,10
06:36:00,10,23,13,7,12,7,3,13,11
06:37:00,22,18,6,21,17,6,5,17,14
06:38:00,16,13,18,6,15,9,3,14,11
06:39:00,13,7,10,18,7,12,0,11,10
06:40:00,10,11,18,9,23,4,4,14,11
06:41:00,23,25,15,14,12,5,3,18,14
06:42:00,10,15,24,8,19,3,0,15,11
06:43:00,20,14,15,24,13,4,0,17,13
06:44:00,16,11,12,12,14,6,5,13,11
06:45:00,24,8,20,15,7,2,1,15,11
06:46:00,20,21,11,6,21,7,3,16,13
06:47:00,16,18,22,15,18,9,1,18,14
06:48:00,15,14,12,27,20,3,5,18,14
06:49:00,8,19,17,20,25,3,3,18,14
06:50:00,19,20,8,17,10,4,8,15,12
06:51:00,22,15,20,15,26,4,3,20,15
06:52:00,13,19,12,19,16,4,1,16,12
06:53:00,24,13,17,20,17,10,4,18,15
06:54:00,7,17,21,23,7,7,3,15,12
06:55:00,18,17,10,15,25,7,2,17,13
06:56:00,17,19,5,18,6,4,2,13,10
06:57:00,28,20,20,11,20,4,4,20,15
06:58:00,11,18,17,20,12,10,2,16,13
06:59:00,29,13,28,23,15,6,5,22,17
07:00:00,9,18,29,15,11,7,3,16,13
07:01:00,24,14,19,21,23,2,6,20,16
07:02:00,28,14,20,12,12,9,2,17,14
07:03:00,12,22,17,13,20,5,6,17,14
07:04:00,27,17,21,14,17,5,5,19,15
07:05:00,14,21,12,15,22,4,1,17,13
07:06:00,14,27,25,28,15,4,6,22,17
07:07:00,17,16,32,10,16,7,1,18,14
07:08:00,13,13,19,29,14,4,6,18,14
07:09:00,20,20,8,14,20,6,2,16,13
07:10:00,16,14,21,21,25,11,2,19,16
07:11:00,16,22,26,18,12,8,4,19,15
07:12:00,28,25,16,26,19,5,1,23,17
07:13:00,15,28,16,14,11,4,5,17,13
07:14:00,19,15,18,11,24,6,9,17,15
07:15:00,24,36,9,13,18,5,2,20,15
07:16:00,24,4,37,29,20,11,2,23,18
07:17:00,17,23,16,24,19,7,2,20,15
07:18:00,30,18,24,15,8,6,7,19,15
07:19:00,17,28,17,31,24,3,2,23,17
07:20:00,16,15,30,18,13,7,4,18,15
07:21:00,23,27,20,29,29,4,7,26,20
07:22:00,16,21,24,19,21,11,4,20,17
07:23:00,24,34,20,29,23,10,9,26,21
07:24:00,23,13,27,19,32,9,2,23,18
07:25:00,19,30,11,26,14,7,3,20,16
07:26:00,31,21,30,18,30,7,2,26,20
07:27:00,27,15,18,24,21,8,6,21,17
07:28:00,28,38,16,26,27,14,5,27,22
07:29:00,22,22,32,16,19,10,2,22,18
07:30:00,23,17,19,19,27,4,7,21,17
07:31:00,29,19,17,26,16,5,3,21,16
07:32:00,22,21,15,18,24,8,2,20,16
07:33:00,25,19,24,39,33,9,4,28,22
07:34:00,25,20,19,17,25,10,5,21,17
07:35:00,17,28,27,34,30,11,4,27,22
07:36:00,26,19,11,16,14,8,5,17,14
07:37:00,15,29,25,26,27,9,0,24,19
07:38:00,28,17,10,26,22,6,7,21,17
07:39:00,22,19,34,19,35,15,4,26,21
07:40:00,34,14,41,44,10,3,4,29,21
07:41:00,29,21,15,18,28,12,5,22,18
07:42:00,20,31,22,22,24,9,1,24,18
07:43:00,25,19,20,15,21,11,11,20,17
07:44:00,14,30,13,25,20,11,5,20,17
07:45:00,30,22,26,12,21,4,4,22,17
07:46:00,20,22,30,14,35,11,5,24,20
07:47:00,31,15,29,18,14,7,6,21,17
07:48:00,24,16,18,31,24,6,7,23,18
07:49:00,25,38,20,13,26,12,3,24,20
07:50:00,30,22,29,23,21,12,6,25,20
07:51:00,25,24,17,15,22,5,2,21,16
07:52:00,21,23,36,26,18,13,4,25,20
07:53:00,27,39,20,31,29,6,4,29,22
07:54:00,22,19,19,19,23,10,7,20,17
07:55:00,10,26,22,25,13,7,9,19,16
07:56:00,30,22,19,18,31,6,6,24,19
07:57:00,28,34,30,28,19,6,6,28,22
07:58:00,15,16,21,13,18,7,1,17,13
07:59:00,26,19,32,22,20,16,6,24,20
08:00:00,21,15,21,21,36,12,4,23,19
08:01:00,31,29,14,29,15,8,1,24,18
08:02:00,10,39,21,27,26,13,5,25,20
08:03:00,27,17,31,19,13,7,2,21,17
08:04:00,23,31,44,33,30,10,2,32,25
08:05:00,30,21,12,20,29,7,3,22,17
08:06:00,16,32,39,31,17,12,3,27,21
08:07:00,33,13,18,15,31,8,2,22,17
08:08:00,26,33,22,27,21,14,5,26,21
08:09:00,20,26,35,15,26,4,10,24,19
08:10:00,22,19,11,23,13,9,11,18,15
08:11:00,20,30,42,21,28,10,4,28,22
08:12:00,28,16,20,20,24,8,5,22,17
08:13:00,26,30,27,20,18,14,6,24,20
08:14:00,21,12,24,14,29,14,4,20,17
08:15:00,35,19,32,46,17,10,5,30,23
08:16:00,13,27,29,15,24,19,6,22,19
08:17:00,14,29,26,29,20,10,4,24,19
08:18:00,33,24,26,15,25,9,10,25,20
08:19:00,20,28,24,22,28,8,3,24,19
08:20:00,23,22,24,36,20,9,7,25,20
08:21:00,27,28,8,20,22,14,1,21,17
08:22:00,32,10,29,17,17,12,6,21,18
08:23:00,19,32,21,26,22,13,4,24,20
08:24:00,22,13,23,37,15,17,9,22,19
08:25:00,23,28,41,16,19,9,4,25,20
08:26:00,17,21,18,22,27,7,11,21,18
08:27:00,20,19,29,16,14,14,4,20,17
08:28:00,21,27,18,24,24,2,4,23,17
08:29:00,26,15,20,29,17,12,5,21,18
08:30:00,15,26,31,11,28,8,11,22,19
08:31:00,23,36,17,32,17,15,11,25,22
08:32:00,27,17,42,22,16,10,5,25,20
08:33:00,28,22,12,21,24,17,7,21,19
08:34:00,11,28,19,21,10,11,9,18,16
08:35:00,29,41,18,14,23,9,7,25,20
08:36:00,14,11,36,26,35,17,5,24,21
08:37:00,31,32,16,15,23,15,6,23,20
08:38:00,11,36,23,21,21,15,2,22,18
08:39:00,22,7,17,21,27,20,5,19,17
08:40:00,13,15,24,29,11,9,5,18,15
08:41:00,20,36,24,16,28,17,4,25,21
08:42:00,15,19,23,11,9,16,5,15,14
08:43:00,14,24,28,26,20,11,3,22,18
08:44:00,34,24,12,16,31,19,12,23,21
08:45:00,10,17,31,23,14,9,4,19,15
08:46:00,23,22,15,20,23,13,8,21,18
08:47:00,17,20,18,32,15,15,6,20,18
08:48:00,21,10,22,21,13,15,7,17,16
08:49:00,21,38,34,15,32,11,10,28,23
08:50:00,14,14,15,26,15,20,5,17,16
08:51:00,29,22,22,20,19,8,4,22,18
08:52:00,15,14,21,34,19,17,9,21,18
08:53:00,30,29,23,18,28,21,4,26,22
08:54:00,15,26,7,22,8,17,7,16,15
08:55:00,16,22,8,18,11,20,13,15,15
08:56:00,22,13,19,26,27,9,5,21,17
08:57:00,25,22,8,11,16,14,10,16,15
08:58:00,15,22,16,21,22,15,8,19,17
08:59:00,33,28,11,18,18,8,11,22,18
09:00:00,14,15,27,21,24,12,9,20,17
09:01:00,22,26,12,16,17,15,3,19,16
09:02:00,20,16,14,15,11,16,2,15,13
09:03:00,11,12,22,11,17,13,12,15,14
09:04:00,28,41,16,17,11,12,3,23,18
09:05:00,20,29,31,12,14,13,4,21,18
09:06:00,20,28,14,24,23,15,14,22,20
09:07:00,23,24,10,15,7,16,10,16,15
09:08:00,21,23,20,25,16,28,5,21,20
09:09:00,24,31,20,19,21,4,9,23,18
09:10:00,31,12,22,16,18,22,8,20,18
09:11:00,13,23,22,43,17,21,8,24,21
09:12:00,18,9,13,13,25,23,8,16,16
09:13:00,25,36,23,27,24,13,15,27,23
09:14:00,17,23,16,13,14,11,11,17,15
09:15:00,24,23,19,21,38,21,5,25,22
09:16:00,14,31,32,27,18,22,12,24,22
09:17:00,24,25,14,16,17,12,3,19,16
09:18:00,16,22,21,14,28,15,12,20,18
09:19:00,26,34,15,20,23,17,11,24,21
09:20:00,21,9,18,21,15,17,10,17,16
09:21:00,32,18,17,23,37,25,12,25,23
09:22:00,21,20,19,12,15,23,12,17,17
09:23:00,16,14,22,22,25,17,11,20,18
09:24:00,16,7,17,14,20,27,4,15,15
09:25:00,21,18,23,26,25,23,8,23,21
09:26:00,21,10,11,19,17,14,14,16,15
09:27:00,32,29,24,15,17,11,8,23,19
09:28:00,28,25,15,30,22,20,20,24,23
09:29:00,21,13,13,9,29,21,14,17,17
09:30:00,40,22,29,25,18,25,11,27,24
09:31:00,15,28,32,17,13,9,9,21,18
09:32:00,22,18,28,19,16,26,18,21,21
09:33:00,23,24,15,25,32,16,13,24,21
09:34:00,14,18,25,17,16,23,21,18,19
09:35:00,29,27,21,10,29,24,13,23,22
09:36:00,24,15,27,17,24,15,24,21,21
09:37:00,26,25,22,17,8,23,8,20,18
09:38:00,19,28,18,15,29,27,14,22,21
09:39:00,17,13,25,18,23,17,18,19,19
09:40:00,23,16,31,11,19,35,12,20,21
09:41:00,21,20,17,15,25,11,13,20,17
09:42:00,24,21,21,22,17,17,8,21,19
09:43:00,12,23,16,14,25,38,14,18,20
09:44:00,25,23,21,22,24,18,9,23,20
09:45:00,21,19,33,20,10,18,17,21,20
09:46:00,13,18,16,16,32,32,20,19,21
09:47:00,22,32,33,28,9,24,19,25,24
09:48:00,18,19,19,19,30,21,16,21,20
09:49:00,26,29,22,21,15,19,20,23,22
09:50:00,28,24,16,11,21,19,16,20,19
09:51:00,16,21,27,25,21,18,22,22,21
09:52:00,14,30,13,17,17,21,12,18,18
09:53:00,26,22,22,28,23,20,21,24,23
09:54:00,8,20,20,18,20,33,16,17,19
09:55:00,21,23,21,24,25,12,11,23,20
09:56:00,16,15,5,16,14,26,14,13,15
09:57:00,24,23,22,36,17,8,10,24,20
09:58:00,20,22,19,14,26,24,15,20,20
09:59:00,13,23,35,31,12,20,13,23,21
10:00:00,18,14,9,6,26,21,16,15,16
10:01:00,21,27,18,27,16,8,15,22,19
10:02:00,8,7,20,9,29,17,18,15,15
10:03:00,24,22,13,20,23,17,11,20,19
10:04:00,9,15,25,13,25,17,18,17,17
10:05:00,21,19,7,22,14,26,13,17,17
10:06:00,18,23,28,24,15,32,16,22,22
10:07:00,25,15,25,11,25,20,21,20,20
10:08:00,21,26,14,20,20,21,13,20,19
10:09:00,16,21,13,21,15,23,15,17,18
10:10:00,22,18,18,15,30,27,14,21,21
10:11:00,16,9,7,19,19,21,17,14,15
10:12:00,26,22,22,6,25,26,14,20,20
10:13:00,15,16,11,25,23,19,24,18,19
10:14:00,18,27,31,23,12,32,23,22,24
10:15:00,9,14,31,14,23,18,16,18,18
10:16:00,25,21,11,23,20,36,20,20,22
10:17:00,30,14,15,14,18,18,18,18,18
10:18:00,13,22,24,19,25,31,17,21,22
10:19:00,20,17,17,18,13,11,21,17,17
10:20:00,15,17,11,24,23,30,12,18,19
10:21:00,19,17,21,21,15,31,12,19,19
10:22:00,21,25,14,20,14,21,14,19,18
10:23:00,11,6,14,12,26,17,18,14,15
10:24:00,20,21,26,10,22,14,26,20,20
10:25:00,26,8,27,18,20,25,13,20,20
10:26:00,26,18,22,24,16,14,9,21,18
10:27:00,18,17,21,16,17,24,19,18,19
10:28:00,14,20,30,24,22,9,9,22,18
10:29:00,26,27,23,19,22,27,21,23,24
10:30:00,19,15,10,35,38,17,17,23,22
10:31:00,14,20,29,23,26,25,16,22,22
10:32:00,14,15,18,19,18,25,19,17,18
10:33:00,18,20,21,25,17,33,24,20,23
10:34:00,33,23,21,12,23,25,11,22,21
10:35:00,25,13,21,32,12,27,25,21,22
10:36:00,21,24,11,11,29,20,13,19,18
10:37:00,20,21,12,16,12,28,22,16,19
10:38:00,20,16,12,18,33,35,25,20,23
10:39:00,32,29,32,14,13,21,18,24,23
10:40:00,18,20,13,16,34,21,19,20,20
10:41:00,15,26,22,15,19,22,22,19,20
10:42:00,18,10,22,14,26,26,8,18,18
10:43:00,23,27,19,15,26,14,21,22,21
10:44:00,23,21,25,24,17,20,23,22,22
10:45:00,19,22,24,33,26,30,17,25,24
10:46:00,29,27,18,10,25,31,12,22,22
10:47:00,18,17,13,22,24,37,16,19,21
10:48:00,26,21,24,16,14,16,19,20,19
10:49:00,25,29,18,27,14,22,31,23,24
10:50:00,15,15,18,11,18,25,24,15,18
10:51:00,15,12,30,19,25,23,28,20,22
10:52:00,40,14,26,17,15,16,17,22,21
10:53:00,13,26,11,11,31,29,26,18,21
10:54:00,17,16,23,23,22,15,17,20,19
10:55:00,12,20,16,21,25,19,24,19,20
10:56:00,20,23,24,11,13,27,25,18,20
10:57:00,21,22,9,17,18,26,27,17,20
10:58:00,18,25,21,18,28,20,14,22,21
10:59:00,21,21,20,5,19,9,33,17,18
11:00:00,29,20,14,11,22,26,30,19,22
11:01:00,32,13,19,23,11,21,12,20,19
11:02:00,16,20,29,14,26,23,22,21,21
11:03:00,19,14,19,23,23,20,22,20,20
11:04:00,14,29,21,19,33,26,17,23,23
11:05:00,26,13,22,13,17,15,21,18,18
11:06:00,19,22,26,22,24,26,21,23,23
11:07:00,28,17,13,14,29,16,30,20,21
11:08:00,18,21,18,22,25,37,12,21,22
11:09:00,15,17,22,17,13,27,21,17,19
11:10:00,19,22,22,28,31,22,16,24,23
11:11:00,15,14,12,13,10,25,22,13,16
11:12:00,24,13,28,18,27,29,14,22,22
11:13:00,17,28,19,22,15,21,25,20,21
11:14:00,22,21,23,22,20,22,16,22,21
11:15:00,15,23,15,17,26,27,23,19,21
11:16:00,20,16,19,18,17,27,25,18,20
11:17:00,26,17,22,16,28,31,21,22,23
11:18:00,13,18,16,18,11,22,22,15,17
11:19:00,17,10,31,18,29,40,30,21,25
11:20:00,13,13,18,29,23,26,33,19,22
11:21:00,20,29,18,13,30,16,24,22,21
11:22:00,23,13,19,15,19,11,34,18,19
11:23:00,22,22,19,17,23,23,15,21,20
11:24:00,22,18,15,21,24,38,30,20,24
11:25:00,24,32,17,19,16,19,17,22,21
11:26:00,19,21,26,30,30,27,26,25,26
11:27:00,21,8,24,17,17,39,24,17,21
11:28:00,25,27,27,31,31,30,26,28,28
11:29:00,22,17,24,14,15,22,22,18,19
11:30:00,18,21,14,18,35,47,27,21,26
11:31:00,13,18,20,26,20,26,8,19,19
11:32:00,20,15,15,20,27,24,30,19,22
11:33:00,16,12,18,22,36,22,14,21,20
11:34:00,27,16,13,17,25,30,29,20,22
11:35:00,14,28,21,10,22,15,17,19,18
11:36:00,15,15,26,16,23,26,30,19,22
11:37:00,16,30,20,35,34,25,12,27,25
11:38:00,24,14,27,19,21,24,20,21,21
11:39:00,22,33,19,26,21,22,20,24,23
11:40:00,27,16,27,10,19,28,15,20,20
11:41:00,19,19,13,22,17,17,36,18,20
11:42:00,25,26,26,11,27,28,13,23,22
11:43:00,19,14,10,18,18,32,23,16,19
11:44:00,16,25,29,15,31,34,30,23,26
11:45:00,19,19,21,19,29,23,27,21,22
11:46:00,19,28,16,20,14,23,33,19,22
11:47:00,23,14,25,25,31,18,18,24,22
11:48:00,14,23,14,19,11,37,42,16,23
11:49:00,28,18,20,22,25,14,14,23,20
11:50:00,14,28,15,26,38,21,36,24,25
11:51:00,31,16,18,19,25,32,14,22,22
11:52:00,24,16,26,24,20,32,26,22,24
11:53:00,24,16,21,27,24,33,24,22,24
11:54:00,20,26,17,28,21,24,15,22,22
11:55:00,27,16,25,13,36,29,20,23,24
11:56:00,18,21,8,19,11,42,21,15,20
11:57:00,23,14,24,23,21,24,15,21,21
11:58:00,12,29,20,25,32,30,36,24,26
11:59:00,21,22,25,19,21,29,27,22,23
12:00:00,22,28,9,21,30,18,21,22,21
12:01:00,21,8,19,12,13,51,19,15,20
12:02:00,14,20,14,29,19,22,31,19,21
12:03:00,19,24,18,16,44,31,24,24,25
12:04:00,21,16,19,28,22,22,31,21,23
12:05:00,27,24,16,17,19,30,16,21,21
12:06:00,20,18,26,19,29,20,27,22,23
12:07:00,28,26,15,21,15,45,20,21,24
12:08:00,15,19,30,31,22,26,26,23,24
12:09:00,19,19,10,15,18,20,10,16,16
12:10:00,13,17,17,22,21,33,41,18,23
12:11:00,13,19,37,11,21,36,12,20,21
12:12:00,26,14,21,22,22,35,22,21,23
12:13:00,21,23,18,3,23,22,9,18,17
12:14:00,20,25,19,31,24,31,31,24,26
12:15:00,10,12,19,26,24,24,11,18,18
12:16:00,29,25,17,19,13,20,30,21,22
12:17:00,14,15,16,19,20,35,17,17,19
12:18:00,24,25,28,23,35,16,32,27,26
12:19:00,19,23,20,26,17,26,22,21,22
12:20:00,15,17,28,24,31,22,25,23,23
12:21:00,22,14,15,18,17,39,23,17,21
12:22:00,20,20,25,11,14,27,16,18,19
12:23:00,22,20,24,24,31,33,29,24,26
12:24:00,23,35,15,29,16,28,38,24,26
12:25:00,15,16,20,14,28,19,28,19,20
12:26:00,31,26,24,25,29,15,23,27,25
12:27:00,18,19,26,22,26,41,16,22,24
12:28:00,29,26,16,19,19,14,22,22,21
12:29:00,17,22,22,13,19,22,41,19,22
12:30:00,24,20,13,14,40,28,16,22,22
12:31:00,20,17,21,25,10,28,25,19,21
12:32:00,25,34,19,22,33,28,37,27,28
12:33:00,12,16,28,19,15,28,22,18,20
12:34:00,21,27,17,23,22,25,32,22,24
12:35:00,12,19,18,19,10,30,20,16,18
12:36:00,17,21,25,20,28,26,15,22,22
12:37:00,14,35,17,20,12,28,41,20,24
12:38:00,19,15,25,27,27,44,20,23,25
12:39:00,27,25,17,25,18,24,17,22,22
12:40:00,26,12,28,12,26,25,32,21,23
12:41:00,22,21,21,27,23,26,27,23,24
12:42:00,29,7,20,22,37,19,19,23,22
12:43:00,16,23,32,29,25,21,35,25,26
12:44:00,25,31,25,24,24,40,14,26,26
12:45:00,12,18,16,29,24,36,27,20,23
12:46:00,21,18,31,8,21,23,33,20,22
12:47:00,19,27,16,24,27,18,29,23,23
12:48:00,15,20,22,22,21,29,32,20,23
12:49:00,20,19,18,19,27,19,19,21,20
12:50:00,15,18,31,19,24,31,22,21,23
12:51:00,20,23,7,22,25,34,26,19,22
12:52:00,19,25,26,28,25,29,11,25,23
12:53:00,23,13,15,24,22,31,26,19,22
12:54:00,14,23,24,31,22,44,33,23,27
12:55:00,22,33,13,11,28,28,11,21,21
12:56:00,23,19,23,25,13,25,15,21,20
12:57:00,29,33,19,15,33,32,32,26,28
12:58:00,28,33,21,20,20,21,20,24,23
12:59:00,21,18,24,19,19,23,27,20,22
13:00:00,36,27,20,34,33,24,8,30,26
13:01:00,15,23,16,14,25,20,27,19,20
13:02:00,17,21,14,24,25,25,13,20,20
13:03:00,22,12,15,16,15,32,18,16,19
13:04:00,16,20,22,21,17,24,27,19,21
13:05:00,22,17,27,23,26,41,23,23,26
13:06:00,25,23,14,24,15,30,31,20,23
13:07:00,18,19,25,21,36,38,36,24,28
13:08:00,31,16,16,17,17,24,23,19,21
13:09:00,14,36,24,17,24,48,21,23,26
13:10:00,27,14,17,29,15,26,31,20,23
13:11:00,15,23,32,26,21,23,32,23,25
13:12:00,26,14,15,12,42,15,28,22,22
13:13:00,30,21,28,30,19,32,28,26,27
13:14:00,16,22,19,16,27,22,24,20,21
13:15:00,29,14,17,21,32,47,32,23,27
13:16:00,23,28,22,29,13,30,21,23,24
13:17:00,20,32,25,20,25,30,28,24,26
13:18:00,18,15,26,23,16,28,27,20,22
13:19:00,31,25,20,21,27,24,19,25,24
13:20:00,10,15,21,36,16,22,28,20,21
13:21:00,22,35,25,12,31,30,26,25,26
13:22:00,25,25,15,15,12,36,31,18,23
13:23:00,8,16,27,38,21,18,15,22,20
13:24:00,21,36,11,27,27,29,28,24,26
13:25:00,39,7,25,21,16,32,16,22,22
13:26:00,10,19,21,24,30,33,25,21,23
13:27:00,28,44,27,24,32,33,23,31,30
13:28:00,20,13,15,24,15,23,18,17,18
13:29:00,30,33,31,26,36,29,28,31,30
13:30:00,5,11,18,17,22,60,38,15,24
13:31:00,17,25,33,19,38,33,23,26,27
13:32:00,31,34,18,17,12,23,34,22,24
13:33:00,18,15,27,16,30,47,11,21,23
13:34:00,25,26,17,12,22,23,32,20,22
13:35:00,19,16,24,22,31,36,19,22,24
13:36:00,27,33,16,19,21,29,29,23,25
13:37:00,13,15,34,19,29,45,12,22,24
13:38:00,20,20,16,14,29,26,15,20,20
13:39:00,27,39,31,17,28,34,27,28,29
13:40:00,18,12,32,23,19,45,25,21,25
13:41:00,39,16,22,24,20,29,40,24,27
13:42:00,25,22,20,16,25,34,22,22,23
13:43:00,17,23,12,27,29,37,20,22,24
13:44:00,10,31,19,21,27,30,23,22,23
13:45:00,34,15,20,15,33,36,23,23,25
13:46:00,20,33,25,27,21,32,41,25,28
13:47:00,32,12,18,18,25,26,13,21,21
13:48:00,15,17,36,32,20,50,38,24,30
13:49:00,20,36,23,13,27,23,9,24,22
13:50:00,19,9,25,15,13,26,16,16,18
13:51:00,17,16,23,12,24,45,32,18,24
13:52:00,20,29,19,18,20,22,24,21,22
13:53:00,17,14,19,13,18,45,39,16,24
13:54:00,22,22,26,14,30,19,12,23,21
13:55:00,24,28,14,20,19,42,16,21,23
13:56:00,11,19,22,18,18,25,17,18,19
13:57:00,20,25,17,19,18,26,29,20,22
13:58:00,25,19,22,19,31,33,21,23,24
13:59:00,17,19,16,21,15,19,22,18,18
14:00:00,21,11,18,22,31,40,13,21,22
14:01:00,20,34,32,20,21,16,37,25,26
14:02:00,29,14,13,19,23,22,19,20,20
14:03:00,15,29,19,10,31,35,24,21,23
14:04:00,23,15,22,14,21,10,20,19,18
14:05:00,11,24,26,7,28,22,25,19,20
14:06:00,30,12,16,15,9,30,16,16,18
14:07:00,15,26,32,17,45,23,25,27,26
14:08:00,19,15,15,22,13,36,13,17,19
14:09:00,21,24,27,18,22,27,22,22,23
14:10:00,20,24,21,29,38,20,35,26,27
14:11:00,29,21,19,31,21,16,24,24,23
14:12:00,18,35,26,26,33,21,23,28,26
14:13:00,22,22,13,27,22,21,23,21,21
14:14:00,15,20,19,26,26,21,26,21,22
14:15:00,24,20,15,29,28,27,29,23,25
14:16:00,25,16,21,14,19,22,23,19,20
14:17:00,22,28,24,17,31,28,28,24,25
14:18:00,18,24,14,19,28,12,18,21,19
14:19:00,18,28,18,20,13,22,38,19,22
14:20:00,18,9,30,23,21,16,18,20,19
14:21:00,24,27,40,29,13,39,16,27,27
14:22:00,20,10,15,13,25,26,37,17,21
14:23:00,13,26,22,19,24,25,20,21,21
14:24:00,16,14,21,31,13,20,33,19,21
14:25:00,12,26,26,21,18,39,16,21,23
14:26:00,25,21,28,19,27,19,22,24,23
14:27:00,15,17,22,17,20,29,30,18,21
14:28:00,28,20,19,38,16,24,22,24,24
14:29:00,17,35,22,26,16,32,29,23,25
14:30:00,24,16,33,22,19,15,17,23,21
14:31:00,25,27,23,24,40,24,29,28,27
14:32:00,26,36,27,18,12,39,16,24,25
14:33:00,18,12,20,27,34,22,34,22,24
14:34:00,38,23,29,22,14,22,23,25,24
14:35:00,14,15,6,20,24,20,33,16,19
14:36:00,20,28,23,16,17,26,20,21,21
14:37:00,32,29,9,24,22,29,24,23,24
14:38:00,21,11,25,11,28,20,25,19,20
14:39:00,23,24,26,24,22,16,25,24,23
14:40:00,14,11,20,26,29,34,23,20,22
14:41:00,36,28,40,15,12,26,21,26,25
14:42:00,13,25,24,34,24,22,24,24,24
14:43:00,21,18,30,24,19,30,27,22,24
14:44:00,18,25,14,17,32,23,33,21,23
14:45:00,18,24,33,33,22,27,25,26,26
14:46:00,16,18,24,22,19,25,25,20,21
14:47:00,18,29,22,18,32,21,10,24,21
14:48:00,24,19,12,19,18,32,35,18,23
14:49:00,30,27,27,28,36,15,9,30,25
14:50:00,11,14,14,14,16,25,14,14,15
14:51:00,33,21,23,26,27,22,28,26,26
14:52:00,15,13,27,14,15,17,20,17,17
14:53:00,10,38,17,23,35,16,22,25,23
14:54:00,26,19,33,20,13,39,21,22,24
14:55:00,17,25,19,21,22,15,20,21,20
14:56:00,29,11,29,7,14,32,25,18,21
14:57:00,15,27,23,19,14,21,23,20,20
14:58:00,24,24,19,21,17,31,34,21,24
14:59:00,21,10,21,26,34,12,14,22,20
15:00:00,26,17,10,35,25,29,31,23,25
15:01:00,15,15,22,13,19,13,12,17,16
15:02:00,25,28,22,18,14,38,18,21,23
15:03:00,11,29,35,20,25,18,30,24,24
15:04:00,20,24,15,9,18,22,16,17,18
15:05:00,31,29,23,19,23,14,24,25,23
15:06:00,28,12,17,27,13,26,18,19,20
15:07:00,24,32,20,18,26,16,22,24,23
15:08:00,17,20,23,19,25,16,22,21,20
15:09:00,21,25,16,21,26,25,20,22,22
15:10:00,29,29,12,32,20,25,37,24,26
15:11:00,25,15,24,17,33,16,16,23,21
15:12:00,39,22,24,17,22,29,25,25,25
15:13:00,16,27,20,33,16,13,11,22,19
15:14:00,24,15,22,16,26,25,27,21,22
15:15:00,22,24,23,9,15,15,18,19,18
15:16:00,19,20,19,24,22,23,12,21,20
15:17:00,15,18,15,14,23,20,31,17,19
15:18:00,15,18,24,24,28,38,29,22,25
15:19:00,33,19,24,14,23,12,16,23,20
15:20:00,19,22,19,17,28,24,18,21,21
15:21:00,20,20,29,38,25,13,17,26,23
15:22:00,28,20,3,15,21,21,26,17,19
15:23:00,17,18,27,21,16,39,20,20,23
15:24:00,42,32,23,23,21,10,14,28,24
15:25:00,14,21,23,25,25,35,11,22,22
15:26:00,20,31,23,19,18,15,19,22,21
15:27:00,15,13,18,19,25,23,17,18,19
15:28:00,23,13,30,27,18,27,26,22,23
15:29:00,31,28,15,14,13,28,11,20,20
15:30:00,12,12,18,21,38,30,26,20,22
15:31:00,28,27,17,29,18,9,17,24,21
15:32:00,20,19,43,14,10,34,22,21,23
15:33:00,19,23,11,27,30,18,15,22,20
15:34:00,20,23,28,16,27,21,17,23,22
15:35:00,34,30,17,23,22,36,26,25,27
15:36:00,13,22,23,29,17,19,16,21,20
15:37:00,21,19,11,19,30,30,21,20,22
15:38:00,30,21,25,27,20,9,18,25,21
15:39:00,11,23,32,14,16,24,23,19,20
15:40:00,19,23,24,26,30,23,16,24,23
15:41:00,30,24,22,26,22,21,21,25,24
15:42:00,25,21,11,24,22,30,24,21,22
15:43:00,21,31,26,33,31,29,21,28,27
15:44:00,23,22,41,13,23,18,17,24,22
15:45:00,19,24,13,34,29,34,23,24,25
15:46:00,13,23,23,23,19,18,15,20,19
15:47:00,26,12,30,17,18,30,29,21,23
15:48:00,17,35,17,39,25,16,10,27,23
15:49:00,25,22,18,21,15,24,18,20,20
15:50:00,31,25,36,9,26,23,23,25,25
15:51:00,25,32,22,30,37,20,17,29,26
15:52:00,31,15,36,24,12,14,27,24,23
15:53:00,15,28,10,4,18,27,14,15,17
15:54:00,19,24,42,42,31,20,24,32,29
15:55:00,40,34,14,12,9,25,24,22,23
15:56:00,18,17,20,27,23,24,11,21,20
15:57:00,15,20,22,31,29,28,21,23,24
15:58:00,11,23,45,26,18,16,22,25,23
15:59:00,40,32,20,6,21,24,11,24,22
16:00:00,25,9,22,35,25,17,17,23,21
16:01:00,19,38,22,16,30,20,14,25,23
16:02:00,21,21,39,11,19,18,34,22,23
16:03:00,20,11,19,36,21,25,14,21,21
16:04:00,26,54,18,12,25,12,21,27,24
16:05:00,22,23,34,23,26,25,6,26,23
16:06:00,23,11,21,37,26,17,26,24,23
16:07:00,32,40,19,14,29,29,16,27,26
16:08:00,23,16,25,26,35,9,11,25,21
16:09:00,22,16,24,32,28,27,24,24,25
16:10:00,36,32,16,26,17,20,22,25,24
16:11:00,31,21,43,17,37,16,23,30,27
16:12:00,12,35,26,34,27,23,19,27,25
16:13:00,25,22,24,8,44,19,22,25,23
16:14:00,39,28,41,26,27,26,16,32,29
16:15:00,33,23,15,43,29,4,20,29,24
16:16:00,19,36,21,13,33,28,17,24,24
16:17:00,22,24,31,32,21,16,32,26,25
16:18:00,8,36,18,30,19,22,14,22,21
16:19:00,28,25,50,17,30,22,21,30,28
16:20:00,41,35,21,34,20,19,12,30,26
16:21:00,13,19,33,15,34,23,18,23,22
16:22:00,8,28,10,31,9,8,11,17,15
16:23:00,24,21,22,11,28,27,19,21,22
16:24:00,20,29,17,33,34,23,27,27,26
16:25:00,30,36,15,39,27,32,13,29,27
16:26:00,20,22,29,22,38,20,16,26,24
16:27:00,23,23,21,23,15,23,10,21,20
16:28:00,30,27,44,41,22,15,29,33,30
16:29:00,19,19,27,17,30,13,17,22,20
16:30:00,27,23,38,14,18,27,15,24,23
16:31:00,18,20,10,40,28,20,13,23,21
16:32:00,25,35,14,15,39,29,15,26,25
16:33:00,13,13,31,12,15,13,17,17,16
16:34:00,26,26,17,33,38,29,17,28,27
16:35:00,15,27,22,17,23,21,11,21,19
16:36:00,36,31,42,39,29,28,11,35,31
16:37:00,10,30,19,18,19,22,16,19,19
16:38:00,30,24,20,18,21,26,12,23,22
16:39:00,14,24,49,22,22,5,23,26,23
16:40:00,25,24,17,27,22,34,18,23,24
16:41:00,20,17,24,12,35,13,17,22,20
16:42:00,16,28,26,19,26,29,10,23,22
16:43:00,23,19,31,31,39,20,14,29,25
16:44:00,14,36,24,16,16,34,12,21,22
16:45:00,21,25,37,13,34,21,10,26,23
16:46:00,20,27,14,35,30,52,10,25,27
16:47:00,10,20,14,23,20,11,14,17,16
16:48:00,29,21,28,19,28,31,23,25,26
16:49:00,16,42,16,43,23,15,11,28,24
16:50:00,32,13,24,14,34,25,20,23,23
16:51:00,22,22,28,22,16,46,16,22,25
16:52:00,13,44,36,28,22,19,18,29,26
16:53:00,34,20,36,18,33,32,11,28,26
16:54:00,22,29,19,31,22,23,12,25,23
16:55:00,17,35,26,6,36,41,17,24,25
16:56:00,32,21,22,23,14,15,21,22,21
16:57:00,19,27,17,18,24,43,17,21,24
16:58:00,29,20,44,8,39,21,12,28,25
16:59:00,16,29,18,39,19,37,13,24,24
17:00:00,26,17,24,19,25,19,10,22,20
17:01:00,23,26,13,22,24,22,15,22,21
17:02:00,23,16,21,27,25,32,13,22,22
17:03:00,10,24,42,30,15,18,27,24,24
17:04:00,30,35,25,35,24,40,9,30,28
17:05:00,14,14,32,11,24,18,12,19,18
17:06:00,19,17,14,21,28,46,12,20,22
17:07:00,38,31,25,31,29,13,13,31,26
17:08:00,15,21,34,17,22,44,10,22,23
17:09:00,19,39,22,18,26,17,23,25,23
17:10:00,41,20,39,46,32,38,21,36,34
17:11:00,23,21,26,26,19,13,18,23,21
17:12:00,16,42,15,36,19,45,10,26,26
17:13:00,47,20,38,25,17,17,28,29,27
17:14:00,16,19,25,28,24,45,7,22,23
17:15:00,24,41,14,32,33,25,6,29,25
17:16:00,29,24,37,15,21,31,17,25,25
17:17:00,15,35,14,42,28,28,4,27,24
17:18:00,22,13,34,24,32,25,22,25,25
17:19:00,17,16,9,33,18,67,10,19,24
17:20:00,28,44,23,45,21,24,11,32,28
17:21:00,24,20,39,22,43,18,18,30,26
17:22:00,17,25,24,32,32,60,13,26,29
17:23:00,37,38,28,56,33,19,19,38,33
17:24:00,10,20,32,25,19,31,15,21,22
17:25:00,56,35,15,17,27,36,8,30,28
17:26:00,8,15,28,34,48,22,16,27,24
17:27:00,30,19,37,16,25,24,9,25,23
17:28:00,42,33,19,30,21,25,15,29,26
17:29:00,17,18,22,23,20,16,10,20,18
17:30:00,13,31,39,37,20,43,13,28,28
17:31:00,29,24,20,21,33,14,12,25,22
17:32:00,18,25,27,26,17,18,14,23,21
17:33:00,26,39,34,36,23,19,15,32,27
17:34:00,23,25,18,36,44,21,11,29,25
17:35:00,22,17,17,30,16,32,9,20,20
17:36:00,21,33,27,27,36,29,13,29,27
17:37:00,21,20,26,26,22,27,9,23,22
17:38:00,29,45,15,28,19,24,29,27,27
17:39:00,28,21,29,33,44,24,11,31,27
17:40:00,21,38,28,28,19,16,15,27,24
17:41:00,27,27,42,32,32,33,4,32,28
17:42:00,16,26,22,48,11,16,15,25,22
17:43:00,27,31,29,18,26,32,18,26,26
17:44:00,13,18,39,35,39,15,13,29,25
17:45:00,34,39,26,37,17,33,10,31,28
17:46:00,18,18,29,23,22,17,7,22,19
17:47:00,24,38,12,35,43,17,6,30,25
17:48:00,29,14,19,36,21,17,19,24,22
17:49:00,34,28,34,15,36,20,11,29,25
17:50:00,21,21,24,23,8,22,11,19,19
17:51:00,26,27,38,24,22,24,12,27,25
17:52:00,16,34,14,34,26,28,13,25,24
17:53:00,24,16,44,43,22,26,10,30,26
17:54:00,42,32,15,13,21,37,17,25,25
17:55:00,24,22,18,25,26,19,10,23,21
17:56:00,33,25,32,43,22,26,20,31,29
17:57:00,15,22,22,15,29,22,16,21,20
17:58:00,32,22,26,32,22,12,10,27,22
17:59:00,12,29,18,55,18,27,16,26,25
18:00:00,29,17,38,12,20,29,4,23,21
18:01:00,21,41,22,15,20,24,14,24,22
18:02:00,22,10,33,34,19,33,7,24,23
18:03:00,20,24,22,23,16,12,19,21,19
18:04:00,43,24,23,20,21,38,14,26,26
18:05:00,23,42,22,21,17,15,10,25,21
18:06:00,21,18,22,40,29,30,12,26,25
18:07:00,25,29,28,22,15,15,14,24,21
18:08:00,24,15,27,28,20,31,15,23,23
18:09:00,24,30,33,11,35,20,10,27,23
18:10:00,17,18,21,17,16,15,9,18,16
18:11:00,23,25,30,37,25,23,14,28,25
18:12:00,16,20,17,29,30,19,9,22,20
18:13:00,25,34,42,17,24,22,10,28,25
18:14:00,30,16,15,52,12,15,5,25,21
18:15:00,25,48,17,13,23,34,18,25,25
18:16:00,28,13,17,26,27,11,15,22,20
18:17:00,23,23,21,41,18,18,8,25,22
18:18:00,14,25,22,23,25,27,9,22,21
18:19:00,34,24,16,35,26,34,11,27,26
18:20:00,18,17,49,24,25,12,12,27,22
18:21:00,30,35,20,15,14,32,17,23,23
18:22:00,10,26,17,25,24,18,9,20,18
18:23:00,21,17,20,19,19,23,12,19,19
18:24:00,24,33,22,26,23,14,16,26,23
18:25:00,16,15,26,15,21,27,5,19,18
18:26:00,17,28,20,26,24,16,17,23,21
18:27:00,24,12,24,29,12,32,11,20,21
18:28:00,16,25,18,22,29,11,11,22,19
18:29:00,19,17,19,33,13,29,20,20,21
18:30:00,26,25,25,23,12,25,12,22,21
18:31:00,14,15,23,23,17,12,12,18,17
18:32:00,18,26,18,30,31,28,12,25,23
18:33:00,17,16,30,15,14,19,11,18,17
18:34:00,28,20,17,18,17,15,18,20,19
18:35:00,12,20,19,28,24,24,12,21,20
18:36:00,19,18,22,15,22,11,4,19,16
18:37:00,19,28,23,24,16,23,13,22,21
18:38:00,25,17,16,17,22,13,12,19,17
18:39:00,16,21,29,19,21,10,15,21,19
18:40:00,10,28,13,11,14,24,7,15,15
18:41:00,21,24,18,19,21,14,6,21,18
18:42:00,12,12,9,17,25,19,9,15,15
18:43:00,16,13,14,28,20,11,16,18,17
18:44:00,27,30,18,15,21,19,6,22,19
18:45:00,23,11,16,14,13,16,14,15,15
18:46:00,9,25,25,8,18,12,4,17,14
18:47:00,24,22,18,28,23,21,9,23,21
18:48:00,11,14,16,4,14,19,10,12,13
18:49:00,21,15,20,25,26,22,9,21,20
18:50:00,15,18,18,18,15,21,4,17,16
18:51:00,15,12,25,15,20,16,13,17,17
18:52:00,9,10,19,17,26,24,12,16,17
18:53:00,11,17,15,30,18,11,6,18,15
18:54:00,16,14,12,11,21,15,9,15,14
18:55:00,10,24,15,17,10,14,8,15,14
18:56:00,15,12,23,12,24,19,9,17,16
18:57:00,8,21,15,12,12,19,14,14,14
18:58:00,27,15,16,9,20,22,3,17,16
18:59:00,17,20,15,19,15,22,4,17,16
19:00:00,11,11,19,19,25,12,4,17,14
19:01:00,17,20,7,16,13,8,12,15,13
19:02:00,14,14,26,20,19,8,10,19,16
19:03:00,16,16,11,14,6,24,11,13,14
19:04:00,10,13,17,15,25,14,11,16,15
19:05:00,12,20,25,7,19,16,9,17,15
19:06:00,17,9,15,13,18,11,3,14,12
19:07:00,11,12,18,19,15,11,7,15,13
19:08:00,14,10,15,12,13,18,6,13,13
19:09:00,18,24,14,12,25,14,12,19,17
19:10:00,11,4,11,27,15,7,12,14,12
19:11:00,17,23,8,15,15,23,6,16,15
19:12:00,7,15,25,23,19,15,13,18,17
19:13:00,10,9,12,13,22,10,11,13,12
19:14:00,15,4,19,15,23,20,11,15,15
19:15:00,13,25,15,12,11,6,14,15,14
19:16:00,14,6,15,24,19,12,8,16,14
19:17:00,17,16,17,7,13,6,9,14,12
19:18:00,7,15,7,9,11,16,8,10,10
19:19:00,16,8,21,16,16,6,2,15,12
19:20:00,12,17,5,18,7,13,15,12,12
19:21:00,10,9,11,26,11,11,7,13,12
19:22:00,18,15,14,11,23,16,6,16,15
19:23:00,10,10,10,22,15,10,12,13,13
19:24:00,13,19,16,8,12,7,7,14,12
19:25:00,10,11,5,19,12,16,8,11,12
19:26:00,17,7,18,6,14,11,12,12,12
19:27:00,19,17,5,17,14,4,10,14,12
19:28:00,13,13,15,10,19,10,9,14,13
19:29:00,13,16,12,13,13,5,14,13,12
19:30:00,11,13,15,14,18,5,11,14,12
19:31:00,16,17,17,15,11,7,5,15,13
19:32:00,18,9,15,21,12,11,10,15,14
19:33:00,9,16,16,12,9,11,9,12,12
19:34:00,7,9,13,5,14,14,9,10,10
19:35:00,18,10,14,14,10,17,6,13,13
19:36:00,8,15,15,4,7,7,8,10,9
19:37:00,10,8,16,15,19,18,10,14,14
19:38:00,15,18,13,5,13,14,8,13,12
19:39:00,8,11,10,16,17,12,10,12,12
19:40:00,12,14,18,12,12,5,8,14,12
19:41:00,8,10,14,13,16,7,9,12,11
19:42:00,8,8,16,13,16,16,15,12,13
19:43:00,12,9,6,14,6,19,3,9,10
19:44:00,8,12,15,11,14,5,5,12,10
19:45:00,7,7,6,18,20,13,6,12,11
19:46:00,13,10,12,8,8,7,8,10,9
19:47:00,17,15,7,15,17,9,13,14,13
19:48:00,17,22,9,9,15,10,6,14,13
19:49:00,11,5,11,6,9,8,11,8,9
19:50:00,10,12,16,11,29,7,10,16,14
19:51:00,8,7,15,7,8,22,5,9,10
19:52:00,10,14,7,15,10,5,13,11,11
19:53:00,3,10,14,19,10,6,5,11,10
19:54:00,10,13,17,13,16,14,8,14,13
19:55:00,5,12,6,5,20,5,7,10,9
19:56:00,12,10,6,13,3,8,12,9,9
19:57:00,5,9,7,7,8,9,12,7,8
19:58:00,13,13,9,4,10,9,12,10,10
19:59:00,5,2,15,12,14,12,5,10,9
20:00:00,8,10,7,11,7,10,9,9,9
20:01:00,10,10,5,7,10,5,6,8,8
20:02:00,10,3,8,15,14,16,3,10,10
20:03:00,9,14,6,19,7,11,8,11,11
20:04:00,7,8,10,13,17,10,8,11,10
20:05:00,16,10,9,10,11,11,6,11,10
20:06:00,6,8,8,12,11,10,9,9,9
20:07:00,10,8,14,16,17,6,8,13,11
20:08:00,8,9,10,7,8,1,10,8,8
20:09:00,6,17,11,11,11,5,5,11,9
20:10:00,16,16,2,6,12,5,5,10,9
20:11:00,1,9,12,12,12,9,11,9,9
20:12:00,11,17,10,15,7,13,11,12,12
20:13:00,15,8,16,7,13,7,2,12,10
20:14:00,11,14,9,14,7,4,16,11,11
20:15:00,15,9,15,15,16,7,12,14,13
20:16:00,9,17,15,6,14,5,3,12,10
20:17:00,10,4,9,15,3,12,10,8,9
20:18:00,9,18,22,13,19,10,10,16,14
20:19:00,8,5,8,14,15,3,6,10,8
20:20:00,19,18,7,6,6,12,8,11,11
20:21:00,7,5,11,12,10,10,7,9,9
20:22:00,13,12,13,19,12,4,6,14,11
20:23:00,9,9,10,7,12,5,9,9,9
20:24:00,7,8,14,10,14,9,4,11,9
20:25:00,13,7,10,11,5,9,11,9,9
20:26:00,13,7,10,13,12,13,9,11,11
20:27:00,2,14,6,11,10,11,10,9,9
20:28:00,14,14,3,5,12,4,0,10,7
20:29:00,20,14,15,8,7,8,9,13,12
20:30:00,7,4,5,9,10,4,8,7,7
20:31:00,7,10,13,5,14,11,7,10,10
20:32:00,8,8,5,12,8,6,8,8,8
20:33:00,8,6,5,10,6,9,10,7,8
20:34:00,11,6,4,2,8,6,6,6,6
20:35:00,9,13,12,11,15,3,2,12,9
20:36:00,9,3,7,10,8,11,12,7,9
20:37:00,8,12,6,8,8,7,12,8,9
20:38:00,8,4,12,8,14,13,2,9,9
20:39:00,7,8,10,6,7,7,10,8,8
20:40:00,7,11,10,14,12,9,10,11,10
20:41:00,7,8,16,11,12,12,5,11,10
20:42:00,4,10,8,8,2,9,2,6,6
20:43:00,8,11,13,7,13,3,12,10,10
20:44:00,7,9,5,9,16,9,9,9,9
20:45:00,3,10,9,9,5,4,3,7,6
20:46:00,14,7,12,10,14,5,7,11,10
20:47:00,8,9,7,8,8,12,6,8,8
20:48:00,11,4,4,6,9,10,10,7,8
20:49:00,5,19,11,4,7,5,6,9,8
20:50:00,12,5,7,7,9,8,6,8,8
20:51:00,8,12,14,14,8,5,5,11,9
20:52:00,6,6,8,4,8,14,6,6,7
20:53:00,4,2,8,17,3,7,6,7,7
20:54:00,5,8,9,6,8,7,5,7,7
20:55:00,5,6,9,8,5,3,9,7,6
20:56:00,11,8,7,7,18,4,8,10,9
20:57:00,2,4,10,6,15,8,3,7,7
20:58:00,9,6,4,7,6,8,9,6,7
20:59:00,5,7,5,11,12,4,12,8,8
21:00:00,2,12,4,5,11,11,5,7,7
21:01:00,9,8,8,17,8,6,7,10,9
21:02:00,8,4,9,8,6,8,7,7,7
21:03:00,8,9,7,9,10,5,6,9,8
21:04:00,8,13,10,9,9,7,3,10,8
21:05:00,5,5,6,14,14,4,7,9,8
21:06:00,7,4,4,13,9,10,5,7,7
21:07:00,2,5,6,3,2,3,4,4,4
21:08:00,5,10,6,7,9,6,7,7,7
21:09:00,10,8,8,6,5,4,10,7,7
21:10:00,5,5,4,8,7,5,8,6,6
21:11:00,3,7,1,8,12,3,6,6,6
21:12:00,10,5,8,4,9,6,3,7,6
21:13:00,14,12,10,7,10,12,5,11,10
21:14:00,4,8,8,13,12,7,12,9,9
21:15:00,3,3,11,6,10,2,6,7,6
21:16:00,9,13,10,10,4,2,7,9,8
21:17:00,4,6,4,13,10,3,7,7,7
21:18:00,15,6,14,8,11,5,2,11,9
21:19:00,2,6,4,8,12,2,9,6,6
21:20:00,5,10,6,13,10,8,5,9,8
21:21:00,18,10,9,1,8,5,5,9,8
21:22:00,7,13,3,8,17,9,2,10,8
21:23:00,5,1,11,4,9,5,10,6,6
21:24:00,12,2,7,15,12,7,8,10,9
21:25:00,10,8,8,6,8,10,4,8,8
21:26:00,4,7,13,7,14,4,5,9,8
21:27:00,7,19,2,10,11,9,4,10,9
21:28:00,3,7,7,8,17,6,8,8,8
21:29:00,6,5,11,7,12,6,10,8,8
21:30:00,7,9,5,5,6,13,3,6,7
21:31:00,8,2,11,7,6,5,1,7,6
21:32:00,8,6,4,8,3,6,1,6,5
21:33:00,10,10,8,6,3,4,4,7,6
21:34:00,7,15,7,13,3,12,3,9,9
21:35:00,7,3,3,5,7,4,0,5,4
21:36:00,4,8,5,13,12,14,4,8,9
21:37:00,6,5,7,4,14,8,5,7,7
21:38:00,8,8,9,9,7,4,3,8,7
21:39:00,12,12,2,10,10,10,0,9,8
21:40:00,4,6,5,5,2,10,8,4,6
21:41:00,6,7,5,12,14,6,3,9,8
21:42:00,5,6,9,7,17,9,1,9,8
21:43:00,7,2,4,4,6,7,7,5,5
21:44:00,4,7,10,6,11,5,1,8,6
21:45:00,4,9,6,3,15,9,4,7,7
21:46:00,11,5,9,7,10,10,5,8,8
21:47:00,6,8,7,9,3,12,0,7,6
21:48:00,12,9,7,6,10,0,3,9,7
21:49:00,12,8,6,12,10,6,4,10,8
21:50:00,4,6,7,7,10,12,3,7,7
21:51:00,6,8,3,5,5,4,1,5,5
21:52:00,8,4,7,8,18,4,3,9,7
21:53:00,3,6,5,5,4,6,1,5,4
21:54:00,8,10,10,7,7,1,6,8,7
21:55:00,5,9,7,7,12,6,4,8,7
21:56:00,5,5,7,3,3,2,2,5,4
21:57:00,6,11,5,7,13,9,5,8,8
21:58:00,5,9,1,6,11,2,1,6,5
21:59:00,7,8,13,7,10,7,4,9,8
22:00:00,7,9,4,3,9,2,1,6,5
22:01:00,6,5,7,4,7,5,4,6,5
22:02:00,5,3,3,2,11,3,5,5,5
22:03:00,8,3,9,7,7,4,1,7,6
22:04:00,8,9,9,3,8,10,2,7,7
22:05:00,5,11,3,9,5,4,0,7,5
22:06:00,4,3,3,4,6,4,3,4,4
22:07:00,4,8,3,4,17,5,4,7,6
22:08:00,10,3,6,4,4,4,5,5,5
22:09:00,8,7,10,5,7,3,4,7,6
22:10:00,6,11,0,5,6,7,0,6,5
22:11:00,4,6,8,7,15,5,4,8,7
22:12:00,5,11,6,6,9,6,5,7,7
22:13:00,0,14,2,6,17,0,5,8,6
22:14:00,4,0,8,2,12,15,6,5,7
22:15:00,7,12,6,7,13,7,3,9,8
22:16:00,7,9,8,3,10,3,1,7,6
22:17:00,7,11,7,11,9,7,5,9,8
22:18:00,7,9,9,11,8,13,6,9,9
22:19:00,7,13,14,7,10,3,4,10,8
22:20:00,10,5,6,14,8,18,5,9,9
22:21:00,4,6,5,8,5,3,6,6,5
22:22:00,6,11,2,12,3,13,5,7,7
22:23:00,4,7,8,5,10,14,4,7,7
22:24:00,1,6,3,7,9,4,3,5,5
22:25:00,11,6,1,10,6,20,1,7,8
22:26:00,6,6,2,8,11,7,6,7,7
22:27:00,2,10,3,6,5,18,2,5,7
22:28:00,5,7,3,6,23,6,4,9,8
22:29:00,5,6,7,4,8,18,1,6,7
22:30:00,0,6,10,7,5,12,1,6,6
22:31:00,10,4,8,6,5,10,1,7,6
22:32:00,8,8,5,11,10,17,2,8,9
22:33:00,3,2,3,3,4,10,6,3,4
22:34:00,3,6,4,5,9,8,2,5,5
22:35:00,3,3,6,5,12,8,6,6,6
22:36:00,7,5,6,9,5,7,4,6,6
22:37:00,2,9,5,3,10,2,0,6,4
22:38:00,4,13,2,6,5,1,3,6,5
22:39:00,4,0,6,4,6,10,4,4,5
22:40:00,3,4,6,2,6,3,4,4,4
22:41:00,7,9,3,6,7,8,3,6,6
22:42:00,2,2,7,7,10,12,1,6,6
22:43:00,8,7,8,1,6,1,2,6,5
22:44:00,3,4,7,9,8,8,2,6,6
22:45:00,2,0,6,7,14,12,1,6,6
22:46:00,7,6,3,5,11,6,4,6,6
22:47:00,2,3,8,8,6,6,7,5,6
22:48:00,4,4,3,5,4,7,5,4,5
22:49:00,3,8,2,4,8,9,2,5,5
22:50:00,1,6,8,4,11,4,2,6,5
22:51:00,9,6,5,3,7,2,1,6,5
22:52:00,3,7,3,5,6,6,2,5,5
22:53:00,4,3,5,3,7,4,7,4,5
22:54:00,3,3,5,6,2,0,1,4,3
22:55:00,4,4,2,4,8,6,3,4,4
22:56:00,5,3,5,5,6,6,2,5,5
22:57:00,4,2,9,4,3,4,2,4,4
22:58:00,4,7,3,5,5,9,0,5,5
22:59:00,7,4,4,4,8,4,2,5,5
23:00:00,3,3,6,4,10,9,0,5,5
23:01:00,1,3,4,6,8,2,5,4,4
23:02:00,1,3,6,3,2,9,3,3,4
23:03:00,3,3,6,2,10,4,1,5,4
23:04:00,4,7,6,5,10,6,1,6,6
23:05:00,4,6,4,3,10,10,5,5,6
23:06:00,3,7,9,2,1,0,2,4,3
23:07:00,9,3,6,1,7,7,0,5,5
23:08:00,2,4,5,2,9,6,0,4,4
23:09:00,4,3,11,3,11,1,5,6,5
23:10:00,6,4,6,3,5,12,0,5,5
23:11:00,5,2,2,6,7,0,1,4,3
23:12:00,5,1,5,3,3,4,2,3,3
23:13:00,4,6,7,4,8,2,4,6,5
23:14:00,2,2,4,3,5,3,4,3,3
23:15:00,7,1,3,4,5,8,0,4,4
23:16:00,0,2,5,4,6,8,2,3,4
23:17:00,1,1,3,3,6,1,3,3,3
23:18:00,0,1,2,3,12,4,2,4,3
23:19:00,2,4,5,4,3,3,2,4,3
23:20:00,3,4,9,4,12,3,1,6,5
23:21:00,2,5,3,1,8,10,0,4,4
23:22:00,2,3,4,2,9,2,1,4,3
23:23:00,2,5,4,0,0,1,5,2,2
23:24:00,4,1,2,4,8,7,1,4,4
23:25:00,3,2,3,5,2,7,2,3,3
23:26:00,1,1,2,9,10,3,5,5,4
23:27:00,2,3,2,1,5,2,2,3,2
23:28:00,5,0,1,3,10,2,3,4,3
23:29:00,3,0,2,5,4,6,4,3,3
23:30:00,1,3,0,1,5,2,2,2,2
23:31:00,1,5,2,2,1,5,1,2,2
23:32:00,2,1,4,4,4,4,3,3,3
23:33:00,1,3,6,0,2,1,5,2,3
23:34:00,1,3,2,3,4,7,1,3,3
23:35:00,3,1,6,2,5,9,3,3,4
23:36:00,2,4,1,2,2,6,1,2,3
23:37:00,3,1,5,5,3,3,2,3,3
23:38:00,2,1,6,3,1,5,0,3,3
23:39:00,1,2,2,0,6,2,3,2,2
23:40:00,3,4,3,5,4,2,3,4,3
23:41:00,4,2,1,4,7,0,2,4,3
23:42:00,1,0,4,0,4,3,3,2,2
23:43:00,3,3,0,4,3,7,3,3,3
23:44:00,1,1,0,1,5,4,3,2,2
23:45:00,4,0,4,3,10,2,1,4,3
23:46:00,0,3,2,4,8,9,4,3,4
23:47:00,5,4,2,1,12,3,3,5,4
23:48:00,4,1,2,1,1,2,2,2,2
23:49:00,6,2,3,2,3,4,2,3,3
23:50:00,0,0,2,2,4,0,4,2,2
23:51:00,0,3,2,2,10,3,0,3,3
23:52:00,4,1,3,4,4,3,1,3,3
23:53:00,2,4,4,3,2,3,1,3,3
23:54:00,4,2,1,0,7,7,0,3,3
23:55:00,1,3,3,2,1,1,3,2,2
23:56:00,1,3,2,2,7,1,3,3,3
23:57:00,3,2,2,4,5,3,1,3,3
23:58:00,0,4,1,2,5,4,1,2,2
23:59:00,1,1,2,4,7,6,0,3,3
,,,,,,,,,
Totals,,,,,,,,,
12H(7-19),15437,15998,15848,15581,16278,15822,11812,15828,15254
16H(6-22),17925,18514,18437,18260,19111,17668,13243,18449,17594
18H(6-24),18384,19046,18973,18780,19951,18354,13557,19027,18149
24H(0-24),19140,19847,19758,19533,20811,19172,14082,19818,18906
,,,,,,,,,
AM Peak,07:23:00,07:42:00,07:39:00,07:25:00,11:00:00,11:00:00,10:49:00,07:21:00,10:01:00
,1443,1449,1476,1380,1400,1565,1383,1406,1195
,,,,,,,,,
PM Peak,17:10:00,16:48:00,17:03:00,17:09:00,15:59:00,13:01:00,12:23:00,17:07:00,16:48:00
,1489,1596,1588,1754,1591,1884,1514,1581,1473
,,,,,,,,,
,,,,,,,,,
CA Traffic,,,,,,,,,VDA-net R2 14/02/2020
