Site Number,00008019,Unnamed: 2,Site Reference,00008019.1,Unnamed: 5,Unnamed: 6,Lat/Lng.,"52.05179,1.19564",Unnamed: 9
Radar 8019 Foxhall Road Ipswich,,,,,,,,,
Vehicle Count Report,,,,Week Begin: 14 September 2020,,,Channel:,Total Flow,
,,,,,,,,,
,,,,,,,,,
,2020-09-14 00:00:00,2020-09-15 00:00:00,2020-09-16 00:00:00,2020-09-17 00:00:00,2020-09-18 00:00:00,2020-09-19 00:00:00,2020-09-20 00:00:00,"5-Day
Ave.","7-Day
Ave."
00:00:00,0,0,0,2,1,2,2,1,1
00:01:00,0,0,0,0,2,0,0,0,0
00:02:00,2,1,1,0,0,1,1,1,1
00:03:00,1,0,0,1,0,1,1,0,1
00:04:00,0,1,2,1,1,2,3,1,1
00:05:00,1,2,1,0,0,1,2,1,1
00:06:00,0,1,1,0,0,1,1,0,1
00:07:00,0,2,0,0,0,1,8,0,2
00:08:00,1,2,0,1,0,2,4,1,1
00:09:00,0,1,0,1,1,5,0,1,1
00:10:00,0,0,2,0,0,3,4,0,1
00:11:00,0,0,0,0,0,0,2,0,0
00:12:00,0,0,1,0,1,2,1,0,1
00:13:00,1,1,1,2,1,2,0,1,1
00:14:00,0,0,1,0,1,2,0,0,1
00:15:00,2,0,0,0,2,4,1,1,1
00:16:00,1,0,0,0,1,4,1,0,1
00:17:00,0,1,1,0,1,2,0,1,1
00:18:00,1,0,1,0,2,2,0,1,1
00:19:00,0,0,1,0,0,1,3,0,1
00:20:00,1,0,0,0,0,2,1,0,1
00:21:00,0,0,0,1,1,1,0,0,0
00:22:00,0,0,0,0,0,2,3,0,1
00:23:00,0,0,0,1,2,1,1,1,1
00:24:00,0,0,1,0,0,1,2,0,1
00:25:00,0,1,0,1,1,1,0,1,1
00:26:00,0,0,0,2,0,1,1,0,1
00:27:00,0,0,1,2,0,2,1,1,1
00:28:00,1,0,1,1,1,0,4,1,1
00:29:00,0,1,1,1,0,4,0,1,1
00:30:00,0,0,0,0,0,1,0,0,0
00:31:00,0,1,0,0,1,1,1,0,1
00:32:00,0,0,0,0,0,0,4,0,1
00:33:00,0,0,0,0,0,0,1,0,0
00:34:00,0,0,0,0,1,0,1,0,0
00:35:00,0,1,0,0,1,1,1,0,1
00:36:00,0,0,0,0,1,0,0,0,0
00:37:00,1,0,0,1,0,1,1,0,1
00:38:00,0,0,1,0,1,0,2,0,1
00:39:00,1,0,1,0,0,0,1,0,0
00:40:00,1,0,0,0,0,1,1,0,0
00:41:00,1,0,0,0,0,2,5,0,1
00:42:00,0,0,0,0,0,1,2,0,0
00:43:00,0,0,1,0,0,0,1,0,0
00:44:00,0,0,1,0,0,0,0,0,0
00:45:00,0,1,0,0,0,1,1,0,0
00:46:00,0,0,0,0,0,1,0,0,0
00:47:00,1,1,0,1,2,0,1,1,1
00:48:00,0,1,0,0,0,1,1,0,0
00:49:00,2,0,0,0,0,0,1,0,0
00:50:00,0,0,0,0,0,4,2,0,1
00:51:00,2,0,0,0,0,1,0,0,0
00:52:00,0,1,0,0,1,0,1,0,0
00:53:00,0,0,0,0,0,1,0,0,0
00:54:00,1,0,2,0,0,2,1,1,1
00:55:00,1,0,0,0,1,0,0,0,0
00:56:00,1,0,0,0,1,0,0,0,0
00:57:00,0,0,0,1,0,2,1,0,1
00:58:00,1,0,0,0,0,2,0,0,0
00:59:00,0,0,0,0,0,1,0,0,0
01:00:00,0,0,1,0,1,0,0,0,0
01:01:00,0,0,2,0,0,1,1,0,1
01:02:00,0,0,0,0,0,2,1,0,0
01:03:00,0,1,0,0,1,2,1,0,1
01:04:00,0,0,0,0,0,2,1,0,0
01:05:00,1,0,1,0,1,1,1,1,1
01:06:00,1,2,0,0,2,0,1,1,1
01:07:00,1,0,0,0,0,1,0,0,0
01:08:00,0,0,0,3,1,0,0,1,1
01:09:00,0,0,1,1,1,1,0,1,1
01:10:00,0,0,1,0,0,2,0,0,0
01:11:00,0,0,0,0,0,0,0,0,0
01:12:00,1,3,0,1,1,0,0,1,1
01:13:00,0,0,0,0,0,1,0,0,0
01:14:00,0,0,1,0,0,0,2,0,0
01:15:00,0,0,1,0,1,0,1,0,0
01:16:00,0,0,1,0,0,1,0,0,0
01:17:00,0,1,0,0,0,0,2,0,0
01:18:00,0,0,2,0,0,0,0,0,0
01:19:00,0,0,0,0,0,1,0,0,0
01:20:00,0,0,0,0,0,1,0,0,0
01:21:00,0,0,0,0,0,1,0,0,0
01:22:00,0,0,1,0,0,0,1,0,0
01:23:00,0,0,0,1,0,0,1,0,0
01:24:00,1,0,0,0,0,0,0,0,0
01:25:00,0,0,0,0,0,1,1,0,0
01:26:00,0,0,0,1,0,1,2,0,1
01:27:00,1,0,0,0,0,1,0,0,0
01:28:00,0,0,0,1,0,0,1,0,0
01:29:00,0,0,0,0,0,0,1,0,0
01:30:00,1,0,0,0,1,0,0,0,0
01:31:00,0,1,0,0,0,0,0,0,0
01:32:00,0,0,0,0,0,2,2,0,1
01:33:00,0,0,0,1,0,1,1,0,0
01:34:00,1,0,1,0,0,1,4,0,1
01:35:00,0,0,0,0,0,2,1,0,0
01:36:00,0,1,0,0,0,2,3,0,1
01:37:00,0,0,1,0,0,2,0,0,0
01:38:00,0,0,0,1,0,0,1,0,0
01:39:00,0,2,0,1,2,0,0,1,1
01:40:00,0,0,0,0,0,0,0,0,0
01:41:00,0,0,0,0,0,0,1,0,0
01:42:00,0,0,1,0,0,0,1,0,0
01:43:00,0,0,0,0,0,2,1,0,0
01:44:00,0,0,0,1,0,2,0,0,0
01:45:00,0,0,1,2,0,1,0,1,1
01:46:00,0,0,0,0,2,1,1,0,1
01:47:00,0,0,0,0,0,0,1,0,0
01:48:00,0,0,0,1,2,0,1,1,1
01:49:00,0,0,0,0,1,1,0,0,0
01:50:00,0,0,0,0,0,0,2,0,0
01:51:00,0,1,1,1,0,0,1,1,1
01:52:00,0,0,0,0,1,2,0,0,0
01:53:00,0,0,0,0,0,0,0,0,0
01:54:00,2,1,0,0,0,0,0,1,0
01:55:00,0,0,0,2,0,0,1,0,0
01:56:00,0,0,1,0,0,1,0,0,0
01:57:00,0,1,0,1,1,0,2,1,1
01:58:00,0,0,0,1,0,0,0,0,0
01:59:00,0,0,0,0,0,0,2,0,0
02:00:00,0,1,0,0,1,0,1,0,0
02:01:00,0,0,0,0,1,2,0,0,0
02:02:00,0,0,0,0,0,0,0,0,0
02:03:00,0,0,1,0,2,0,2,1,1
02:04:00,0,0,0,0,0,0,0,0,0
02:05:00,1,0,1,0,0,0,0,0,0
02:06:00,0,1,0,1,0,0,0,0,0
02:07:00,0,2,0,0,0,0,0,0,0
02:08:00,1,0,0,0,0,0,0,0,0
02:09:00,0,0,0,0,1,1,0,0,0
02:10:00,0,0,0,0,0,0,0,0,0
02:11:00,0,0,1,0,0,0,0,0,0
02:12:00,0,0,1,0,3,0,0,1,1
02:13:00,0,0,2,0,0,0,0,0,0
02:14:00,0,0,0,1,0,0,0,0,0
02:15:00,0,0,1,0,0,0,0,0,0
02:16:00,0,0,0,1,0,1,1,0,0
02:17:00,1,0,0,0,0,0,0,0,0
02:18:00,0,0,0,0,0,0,0,0,0
02:19:00,0,0,0,1,0,1,1,0,0
02:20:00,0,1,0,0,1,0,0,0,0
02:21:00,0,0,0,0,0,0,0,0,0
02:22:00,0,0,0,0,0,0,1,0,0
02:23:00,1,1,0,0,0,0,0,0,0
02:24:00,0,2,0,0,0,0,0,0,0
02:25:00,0,1,0,0,0,0,0,0,0
02:26:00,2,0,1,0,0,2,2,1,1
02:27:00,0,0,0,0,1,0,1,0,0
02:28:00,1,2,0,0,1,1,0,1,1
02:29:00,0,0,0,2,0,1,0,0,0
02:30:00,1,0,1,1,0,0,0,1,0
02:31:00,0,0,0,0,0,0,1,0,0
02:32:00,0,0,1,0,1,1,0,0,0
02:33:00,0,0,0,0,1,1,1,0,0
02:34:00,0,0,0,0,0,0,0,0,0
02:35:00,0,0,1,0,0,0,0,0,0
02:36:00,0,0,0,1,0,0,2,0,0
02:37:00,1,1,0,1,1,0,0,1,1
02:38:00,0,0,1,0,1,1,1,0,1
02:39:00,0,0,0,0,0,0,0,0,0
02:40:00,0,0,0,0,0,0,1,0,0
02:41:00,0,1,0,0,0,0,0,0,0
02:42:00,1,0,0,1,0,0,1,0,0
02:43:00,0,1,2,0,1,0,0,1,1
02:44:00,0,1,0,0,0,1,0,0,0
02:45:00,0,0,0,0,0,0,1,0,0
02:46:00,0,1,0,0,0,3,0,0,1
02:47:00,2,2,1,0,1,0,2,1,1
02:48:00,0,0,1,1,0,0,0,0,0
02:49:00,0,0,0,0,2,0,0,0,0
02:50:00,0,0,2,1,0,0,0,1,0
02:51:00,0,0,2,0,0,1,0,0,0
02:52:00,1,0,0,1,0,0,0,0,0
02:53:00,1,0,0,1,0,1,0,0,0
02:54:00,0,0,1,0,0,1,0,0,0
02:55:00,0,0,0,1,0,2,0,0,0
02:56:00,0,1,0,0,0,1,0,0,0
02:57:00,0,1,1,0,0,0,1,0,0
02:58:00,0,0,0,0,0,0,0,0,0
02:59:00,0,0,1,0,1,0,0,0,0
03:00:00,0,0,0,0,1,0,1,0,0
03:01:00,0,0,0,0,0,0,1,0,0
03:02:00,0,0,1,0,0,0,2,0,0
03:03:00,0,0,0,0,0,0,0,0,0
03:04:00,0,1,0,0,0,1,1,0,0
03:05:00,0,1,0,2,0,0,2,1,1
03:06:00,0,0,0,0,0,0,0,0,0
03:07:00,0,0,0,1,0,2,0,0,0
03:08:00,0,0,0,0,0,0,0,0,0
03:09:00,0,0,0,1,0,0,0,0,0
03:10:00,1,0,0,0,0,0,0,0,0
03:11:00,0,0,1,0,0,0,1,0,0
03:12:00,0,1,0,0,0,0,0,0,0
03:13:00,0,0,0,0,0,0,0,0,0
03:14:00,0,0,1,1,0,0,0,0,0
03:15:00,0,0,1,0,0,0,0,0,0
03:16:00,0,0,1,0,0,0,1,0,0
03:17:00,0,0,0,0,0,0,0,0,0
03:18:00,0,0,0,0,1,0,1,0,0
03:19:00,0,1,0,0,0,1,1,0,0
03:20:00,0,0,1,0,0,0,0,0,0
03:21:00,0,0,1,0,1,1,0,0,0
03:22:00,0,0,0,0,0,0,1,0,0
03:23:00,0,0,0,2,0,0,0,0,0
03:24:00,0,0,0,0,0,0,0,0,0
03:25:00,0,0,0,0,0,0,0,0,0
03:26:00,0,0,1,1,0,0,1,0,0
03:27:00,0,0,1,0,1,0,0,0,0
03:28:00,1,0,1,1,0,0,0,1,0
03:29:00,1,0,1,0,0,1,0,0,0
03:30:00,1,0,0,0,0,0,1,0,0
03:31:00,0,1,0,0,0,0,0,0,0
03:32:00,0,1,1,0,0,0,0,0,0
03:33:00,0,0,1,0,0,0,1,0,0
03:34:00,0,0,0,0,0,0,0,0,0
03:35:00,0,0,0,0,0,1,0,0,0
03:36:00,0,0,0,0,1,0,0,0,0
03:37:00,0,0,0,0,0,1,0,0,0
03:38:00,0,0,0,0,0,1,0,0,0
03:39:00,0,0,0,0,0,0,0,0,0
03:40:00,0,1,0,0,1,1,0,0,0
03:41:00,0,0,0,1,0,1,0,0,0
03:42:00,0,0,0,0,0,0,0,0,0
03:43:00,0,0,0,0,0,1,0,0,0
03:44:00,0,1,0,0,0,0,0,0,0
03:45:00,0,0,0,0,0,0,0,0,0
03:46:00,0,0,1,1,0,0,0,0,0
03:47:00,0,0,0,0,1,0,0,0,0
03:48:00,0,0,1,0,0,0,0,0,0
03:49:00,0,0,0,0,1,0,0,0,0
03:50:00,0,0,0,0,0,0,0,0,0
03:51:00,1,0,0,0,0,0,0,0,0
03:52:00,0,0,0,0,1,1,0,0,0
03:53:00,0,1,0,0,1,0,0,0,0
03:54:00,0,0,0,0,0,0,0,0,0
03:55:00,0,0,0,1,0,0,0,0,0
03:56:00,0,0,0,0,0,0,0,0,0
03:57:00,0,0,0,0,0,0,1,0,0
03:58:00,0,0,0,0,0,0,1,0,0
03:59:00,0,0,1,0,1,0,0,0,0
04:00:00,1,0,0,0,0,2,0,0,0
04:01:00,0,0,0,0,1,0,0,0,0
04:02:00,0,0,0,0,0,0,0,0,0
04:03:00,1,0,0,0,0,0,0,0,0
04:04:00,0,0,0,0,1,0,0,0,0
04:05:00,0,0,0,1,0,0,0,0,0
04:06:00,0,0,0,0,0,0,0,0,0
04:07:00,0,1,0,1,1,1,0,1,1
04:08:00,1,0,1,0,1,0,0,1,0
04:09:00,0,0,0,1,0,0,0,0,0
04:10:00,0,0,0,0,0,0,0,0,0
04:11:00,0,0,0,0,0,0,0,0,0
04:12:00,0,0,1,0,0,0,0,0,0
04:13:00,0,1,0,1,0,0,0,0,0
04:14:00,0,0,1,0,0,0,0,0,0
04:15:00,0,0,0,0,0,1,0,0,0
04:16:00,0,0,0,0,0,0,0,0,0
04:17:00,0,0,0,2,1,0,0,1,0
04:18:00,0,0,0,0,0,0,0,0,0
04:19:00,0,1,0,0,0,1,0,0,0
04:20:00,0,0,0,0,0,0,0,0,0
04:21:00,0,1,0,0,0,0,0,0,0
04:22:00,0,0,0,0,0,0,0,0,0
04:23:00,0,0,0,1,0,0,0,0,0
04:24:00,0,0,0,0,0,0,0,0,0
04:25:00,0,0,0,0,0,0,0,0,0
04:26:00,1,0,0,0,1,0,0,0,0
04:27:00,1,1,0,0,0,1,0,0,0
04:28:00,1,1,1,0,1,0,0,1,1
04:29:00,1,0,0,1,0,0,0,0,0
04:30:00,1,2,1,0,1,1,0,1,1
04:31:00,0,0,0,1,1,0,0,0,0
04:32:00,0,0,0,2,1,0,0,1,0
04:33:00,0,0,0,0,1,0,0,0,0
04:34:00,1,0,0,1,0,0,0,0,0
04:35:00,0,0,0,0,2,0,1,0,0
04:36:00,0,0,0,0,1,0,0,0,0
04:37:00,0,0,2,0,1,0,0,1,0
04:38:00,0,0,2,1,1,0,1,1,1
04:39:00,0,0,0,0,0,0,0,0,0
04:40:00,1,1,0,0,1,0,0,1,0
04:41:00,0,0,1,0,0,1,1,0,0
04:42:00,0,1,1,1,1,0,0,1,1
04:43:00,0,0,1,1,1,1,0,1,1
04:44:00,0,1,0,0,1,1,0,0,0
04:45:00,0,0,0,0,0,0,0,0,0
04:46:00,0,1,3,1,0,0,1,1,1
04:47:00,0,0,0,0,0,0,0,0,0
04:48:00,2,1,0,2,0,0,0,1,1
04:49:00,0,1,0,0,0,0,0,0,0
04:50:00,0,1,1,1,0,0,0,1,0
04:51:00,0,1,1,1,1,1,0,1,1
04:52:00,1,1,1,0,1,0,0,1,1
04:53:00,2,0,0,0,1,1,0,1,1
04:54:00,1,1,1,0,0,0,0,1,0
04:55:00,0,0,1,0,1,1,0,0,0
04:56:00,0,0,0,1,1,0,0,0,0
04:57:00,0,0,1,0,1,0,0,0,0
04:58:00,0,2,0,1,0,0,0,1,0
04:59:00,1,0,0,0,0,0,0,0,0
05:00:00,0,0,0,0,0,0,0,0,0
05:01:00,0,0,1,0,1,0,0,0,0
05:02:00,0,0,0,1,0,1,0,0,0
05:03:00,0,0,0,0,1,1,0,0,0
05:04:00,1,0,0,1,2,0,0,1,1
05:05:00,0,1,2,0,0,0,0,1,0
05:06:00,1,0,0,0,1,1,0,0,0
05:07:00,1,0,3,0,3,0,0,1,1
05:08:00,0,0,2,0,0,1,0,0,0
05:09:00,1,2,0,1,0,0,0,1,1
05:10:00,1,0,0,0,0,0,0,0,0
05:11:00,3,0,0,0,0,0,0,1,0
05:12:00,1,0,0,0,1,0,2,0,1
05:13:00,1,0,0,0,1,2,0,0,1
05:14:00,2,1,1,0,1,0,0,1,1
05:15:00,0,1,1,0,1,1,0,1,1
05:16:00,1,0,1,1,0,0,0,1,0
05:17:00,0,1,1,0,0,1,0,0,0
05:18:00,0,0,1,1,0,1,0,0,0
05:19:00,0,0,0,0,0,0,1,0,0
05:20:00,0,1,1,1,0,1,0,1,1
05:21:00,0,1,0,0,1,3,0,0,1
05:22:00,0,1,2,2,0,0,2,1,1
05:23:00,2,1,1,1,2,1,0,1,1
05:24:00,2,0,2,0,0,0,0,1,1
05:25:00,2,1,0,1,3,0,0,1,1
05:26:00,0,0,0,1,1,0,2,0,1
05:27:00,1,0,0,3,1,0,0,1,1
05:28:00,0,0,0,0,2,0,1,0,0
05:29:00,2,1,1,1,0,0,0,1,1
05:30:00,1,0,1,1,0,0,0,1,0
05:31:00,1,1,1,1,1,3,0,1,1
05:32:00,1,0,2,1,2,0,0,1,1
05:33:00,1,0,0,0,0,0,0,0,0
05:34:00,2,1,1,1,0,0,1,1,1
05:35:00,0,2,1,2,2,3,1,1,2
05:36:00,0,1,2,2,1,3,1,1,1
05:37:00,1,1,1,1,1,0,0,1,1
05:38:00,3,1,1,2,0,2,1,1,1
05:39:00,1,2,0,1,0,1,1,1,1
05:40:00,1,1,0,1,1,1,1,1,1
05:41:00,0,3,0,4,0,1,0,1,1
05:42:00,3,0,4,1,2,0,2,2,2
05:43:00,0,1,2,0,0,2,1,1,1
05:44:00,3,5,0,1,1,1,1,2,2
05:45:00,3,1,4,2,1,1,1,2,2
05:46:00,1,2,0,1,2,1,0,1,1
05:47:00,4,3,1,1,0,2,1,2,2
05:48:00,2,2,2,1,5,1,0,2,2
05:49:00,0,3,6,1,1,4,2,2,2
05:50:00,0,2,0,3,3,0,0,2,1
05:51:00,2,2,1,5,3,2,0,3,2
05:52:00,5,1,2,1,1,1,0,2,2
05:53:00,1,3,2,1,2,1,0,2,1
05:54:00,0,3,1,3,1,1,1,2,1
05:55:00,3,0,3,1,4,0,0,2,2
05:56:00,2,0,4,1,2,1,4,2,2
05:57:00,2,2,3,1,2,4,2,2,2
05:58:00,3,2,5,1,0,0,1,2,2
05:59:00,2,1,0,5,0,2,1,2,2
06:00:00,0,1,2,0,1,1,0,1,1
06:01:00,4,0,2,1,1,1,0,2,1
06:02:00,2,2,3,4,0,0,1,2,2
06:03:00,0,2,1,1,1,1,0,1,1
06:04:00,4,4,1,1,1,2,1,2,2
06:05:00,1,2,5,3,2,0,0,3,2
06:06:00,3,3,2,3,1,0,1,2,2
06:07:00,4,2,1,0,3,2,1,2,2
06:08:00,0,4,2,5,2,1,3,3,2
06:09:00,3,2,2,1,0,1,3,2,2
06:10:00,2,1,4,0,3,1,1,2,2
06:11:00,2,3,1,7,3,2,0,3,3
06:12:00,5,4,0,6,3,0,2,4,3
06:13:00,0,4,6,2,0,1,1,2,2
06:14:00,4,3,1,6,1,2,1,3,3
06:15:00,3,4,5,1,1,2,1,3,2
06:16:00,2,4,2,2,2,0,2,2,2
06:17:00,2,4,1,3,4,2,2,3,3
06:18:00,3,2,1,5,5,0,0,3,2
06:19:00,3,3,4,1,0,1,0,2,2
06:20:00,4,1,3,4,3,3,1,3,3
06:21:00,2,3,3,2,2,1,1,2,2
06:22:00,2,0,2,6,3,1,1,3,2
06:23:00,2,5,3,6,2,1,1,4,3
06:24:00,1,6,7,4,3,3,0,4,3
06:25:00,6,1,5,4,1,2,1,3,3
06:26:00,2,4,0,2,4,1,0,2,2
06:27:00,1,4,4,6,4,2,2,4,3
06:28:00,4,3,2,3,7,3,3,4,4
06:29:00,2,10,1,10,3,3,4,5,5
06:30:00,12,8,8,3,4,6,1,7,6
06:31:00,3,6,4,3,3,1,1,4,3
06:32:00,4,4,3,4,4,4,7,4,4
06:33:00,13,2,2,7,1,1,2,5,4
06:34:00,2,3,11,3,9,2,1,6,4
06:35:00,4,1,3,2,3,4,3,3,3
06:36:00,7,4,3,3,8,4,2,5,4
06:37:00,1,5,3,3,2,2,4,3,3
06:38:00,2,2,6,6,6,3,2,4,4
06:39:00,1,8,7,7,4,1,1,5,4
06:40:00,6,2,2,6,1,1,1,3,3
06:41:00,6,6,16,6,3,2,3,7,6
06:42:00,9,6,0,5,4,4,3,5,4
06:43:00,3,1,9,7,5,6,4,5,5
06:44:00,8,9,2,4,3,2,4,5,5
06:45:00,3,5,4,8,7,4,1,5,5
06:46:00,8,10,2,9,5,4,3,7,6
06:47:00,3,7,9,10,7,2,2,7,6
06:48:00,7,3,4,1,13,8,0,6,5
06:49:00,8,2,13,9,7,7,4,8,7
06:50:00,7,6,4,3,5,4,5,5,5
06:51:00,8,13,7,4,5,2,3,7,6
06:52:00,4,6,5,6,5,4,2,5,5
06:53:00,2,2,2,7,4,4,2,3,3
06:54:00,2,5,2,6,4,3,1,4,3
06:55:00,2,16,6,9,1,5,1,7,6
06:56:00,6,3,4,5,5,3,0,5,4
06:57:00,12,6,5,7,6,4,4,7,6
06:58:00,6,5,4,4,4,5,4,5,5
06:59:00,7,2,10,6,5,4,4,6,5
07:00:00,14,5,7,7,9,3,3,8,7
07:01:00,2,8,7,7,7,1,3,6,5
07:02:00,9,2,0,7,12,1,4,6,5
07:03:00,5,3,6,3,4,3,2,4,4
07:04:00,5,8,12,6,7,1,0,8,6
07:05:00,6,6,10,5,12,4,3,8,7
07:06:00,12,7,4,10,5,3,1,8,6
07:07:00,2,13,4,9,6,2,3,7,6
07:08:00,8,3,7,7,7,1,2,6,5
07:09:00,14,12,5,10,4,3,4,9,7
07:10:00,9,10,7,7,8,5,1,8,7
07:11:00,10,8,3,7,11,4,2,8,6
07:12:00,3,7,9,7,8,4,2,7,6
07:13:00,8,6,14,12,7,4,3,9,8
07:14:00,8,10,7,10,8,1,8,9,7
07:15:00,6,5,17,9,9,3,0,9,7
07:16:00,8,5,4,3,8,3,1,6,5
07:17:00,2,5,12,11,6,4,6,7,7
07:18:00,5,6,5,12,7,4,3,7,6
07:19:00,9,6,13,7,8,4,2,9,7
07:20:00,11,9,4,9,10,3,4,9,7
07:21:00,6,4,10,13,10,2,1,9,7
07:22:00,11,15,14,9,9,5,1,12,9
07:23:00,15,9,7,10,6,4,2,9,8
07:24:00,12,5,12,9,10,4,2,10,8
07:25:00,12,7,10,6,8,8,6,9,8
07:26:00,8,9,6,10,5,6,1,8,6
07:27:00,14,4,13,13,11,1,4,11,9
07:28:00,16,13,8,6,13,4,3,11,9
07:29:00,4,19,14,9,9,2,4,11,9
07:30:00,9,7,20,10,7,3,3,11,8
07:31:00,14,12,10,9,10,5,5,11,9
07:32:00,11,4,15,8,12,7,4,10,9
07:33:00,10,14,9,8,11,2,2,10,8
07:34:00,12,16,6,12,10,2,3,11,9
07:35:00,7,10,10,12,12,2,2,10,8
07:36:00,15,10,12,12,6,6,0,11,9
07:37:00,7,1,8,9,17,3,5,8,7
07:38:00,14,16,8,9,17,8,3,13,11
07:39:00,9,15,16,11,10,1,3,12,9
07:40:00,9,3,5,11,18,3,2,9,7
07:41:00,13,15,13,10,8,5,2,12,9
07:42:00,5,5,5,12,8,4,1,7,6
07:43:00,16,10,12,19,17,8,5,15,12
07:44:00,13,15,12,10,8,5,4,12,10
07:45:00,11,3,4,11,4,7,5,7,6
07:46:00,16,20,10,7,11,9,7,13,11
07:47:00,6,16,16,11,11,4,2,12,9
07:48:00,7,15,13,15,12,6,1,12,10
07:49:00,17,22,16,11,8,9,1,15,12
07:50:00,10,9,1,12,14,1,1,9,7
07:51:00,9,25,17,15,11,8,4,15,13
07:52:00,10,12,14,7,14,7,1,11,9
07:53:00,19,0,5,14,15,9,1,11,9
07:54:00,13,17,17,18,13,6,5,16,13
07:55:00,5,16,13,6,14,4,3,11,9
07:56:00,10,3,12,13,17,9,0,11,9
07:57:00,6,8,12,10,8,6,4,9,8
07:58:00,9,9,1,7,15,8,4,8,8
07:59:00,22,10,15,4,11,6,2,12,10
08:00:00,6,17,14,14,10,8,3,12,10
08:01:00,9,0,9,19,14,3,2,10,8
08:02:00,14,13,11,11,14,3,2,13,10
08:03:00,17,18,5,12,20,2,5,14,11
08:04:00,17,7,11,13,8,1,2,11,8
08:05:00,7,14,15,16,11,3,3,13,10
08:06:00,14,15,5,15,17,7,1,13,11
08:07:00,21,14,9,11,10,1,3,13,10
08:08:00,10,17,4,9,11,9,3,10,9
08:09:00,13,1,11,9,12,4,2,9,7
08:10:00,4,12,10,7,14,3,5,9,8
08:11:00,14,18,8,8,14,7,2,12,10
08:12:00,17,8,14,12,7,4,3,12,9
08:13:00,9,10,3,12,10,12,1,9,8
08:14:00,10,7,14,21,11,4,2,13,10
08:15:00,11,13,16,20,18,4,5,16,12
08:16:00,18,18,10,10,16,3,3,14,11
08:17:00,14,10,17,13,12,4,8,13,11
08:18:00,6,11,7,5,9,2,2,8,6
08:19:00,9,11,5,12,14,9,2,10,9
08:20:00,13,13,16,7,9,4,3,12,9
08:21:00,7,16,13,13,10,4,0,12,9
08:22:00,17,8,11,13,10,4,4,12,10
08:23:00,9,11,1,10,15,7,4,9,8
08:24:00,15,19,4,19,4,5,3,12,10
08:25:00,14,11,14,13,8,7,4,12,10
08:26:00,4,14,5,7,14,7,2,9,8
08:27:00,10,6,14,12,10,5,6,10,9
08:28:00,18,14,11,12,10,6,1,13,10
08:29:00,5,19,11,9,9,14,5,11,10
08:30:00,13,1,14,8,17,11,3,11,10
08:31:00,11,12,2,13,16,8,4,11,9
08:32:00,0,5,13,11,11,4,3,8,7
08:33:00,13,12,12,9,10,8,1,11,9
08:34:00,14,10,5,17,12,3,1,12,9
08:35:00,5,12,14,15,12,8,5,12,10
08:36:00,15,11,13,13,16,10,5,14,12
08:37:00,9,0,3,18,9,8,2,8,7
08:38:00,12,14,14,16,9,7,2,13,11
08:39:00,14,17,14,20,12,9,7,15,13
08:40:00,9,3,12,8,14,8,6,9,9
08:41:00,9,13,13,9,17,8,1,12,10
08:42:00,19,15,7,8,10,7,4,12,10
08:43:00,7,9,13,16,19,4,7,13,11
08:44:00,9,10,13,11,12,7,1,11,9
08:45:00,9,12,8,12,18,11,8,12,11
08:46:00,10,8,13,14,12,9,2,11,10
08:47:00,13,15,15,10,13,13,1,13,11
08:48:00,8,10,7,10,9,13,5,9,9
08:49:00,7,14,17,12,13,9,7,13,11
08:50:00,11,4,10,9,5,6,3,8,7
08:51:00,5,17,6,10,14,14,5,10,10
08:52:00,17,10,13,11,15,8,5,13,11
08:53:00,17,19,10,14,12,10,6,14,13
08:54:00,16,13,8,18,14,9,6,14,12
08:55:00,2,6,13,15,10,10,4,9,9
08:56:00,18,16,10,17,16,14,9,15,14
08:57:00,12,16,10,23,15,6,6,15,13
08:58:00,5,11,13,21,19,8,2,14,11
08:59:00,17,12,15,10,12,8,6,13,11
09:00:00,15,6,2,7,12,11,2,8,8
09:01:00,10,15,16,19,12,9,3,14,12
09:02:00,13,13,19,17,8,9,4,14,12
09:03:00,14,8,3,13,9,11,3,9,9
09:04:00,16,12,19,16,17,3,4,16,12
09:05:00,14,11,11,14,10,12,4,12,11
09:06:00,8,10,8,12,10,8,2,10,8
09:07:00,16,15,15,16,21,9,6,17,14
09:08:00,15,17,7,12,10,5,4,12,10
09:09:00,6,8,10,12,14,6,5,10,9
09:10:00,17,18,9,10,15,13,1,14,12
09:11:00,11,19,7,10,13,19,2,12,12
09:12:00,14,3,8,12,16,4,4,11,9
09:13:00,14,14,16,7,10,11,4,12,11
09:14:00,7,15,9,14,10,18,6,11,11
09:15:00,9,7,10,12,10,9,4,10,9
09:16:00,6,11,19,21,12,6,3,14,11
09:17:00,10,17,2,10,10,10,9,10,10
09:18:00,14,13,9,4,15,12,7,11,11
09:19:00,1,12,18,4,14,11,9,10,10
09:20:00,11,5,1,7,15,8,8,8,8
09:21:00,12,7,11,13,10,10,0,11,9
09:22:00,2,6,16,13,10,6,7,9,9
09:23:00,9,0,12,11,12,10,6,9,9
09:24:00,10,12,14,13,7,5,5,11,9
09:25:00,3,8,2,11,10,6,7,7,7
09:26:00,17,1,11,8,9,7,6,9,8
09:27:00,6,14,9,9,10,10,6,10,9
09:28:00,8,12,5,5,9,13,7,8,8
09:29:00,17,1,13,8,8,7,3,9,8
09:30:00,4,16,8,11,4,8,7,9,8
09:31:00,9,19,9,9,6,11,2,10,9
09:32:00,13,7,8,9,9,9,5,9,9
09:33:00,7,7,4,9,7,11,5,7,7
09:34:00,12,2,11,5,8,17,6,8,9
09:35:00,2,11,12,8,9,13,8,8,9
09:36:00,12,15,8,5,8,14,7,10,10
09:37:00,8,6,13,5,8,8,8,8,8
09:38:00,11,8,8,7,7,11,16,8,10
09:39:00,6,6,5,7,6,14,11,6,8
09:40:00,8,5,4,4,8,15,10,6,8
09:41:00,11,16,13,14,4,15,11,12,12
09:42:00,3,6,4,12,15,12,11,8,9
09:43:00,9,6,8,6,7,11,10,7,8
09:44:00,12,0,10,7,10,1,13,8,8
09:45:00,9,9,4,5,10,7,9,7,8
09:46:00,16,11,10,13,7,10,15,11,12
09:47:00,7,4,6,11,7,8,12,7,8
09:48:00,10,18,15,10,9,13,12,12,12
09:49:00,5,1,14,10,2,13,14,6,8
09:50:00,7,12,0,5,16,16,13,8,10
09:51:00,4,11,12,7,11,10,8,9,9
09:52:00,10,3,13,8,11,9,10,9,9
09:53:00,14,11,9,6,9,15,14,10,11
09:54:00,1,12,11,9,11,11,13,9,10
09:55:00,12,10,8,7,7,12,10,9,9
09:56:00,15,10,14,13,11,15,4,13,12
09:57:00,0,9,6,4,9,9,10,6,7
09:58:00,13,13,10,5,10,7,12,10,10
09:59:00,11,9,7,6,10,8,15,9,9
10:00:00,10,10,6,10,7,10,9,9,9
10:01:00,9,9,11,8,8,9,7,9,9
10:02:00,5,7,5,6,10,17,12,7,9
10:03:00,7,7,12,12,5,4,7,9,8
10:04:00,5,5,2,12,5,11,11,6,7
10:05:00,10,10,9,11,8,8,12,10,10
10:06:00,10,6,10,10,15,11,12,10,11
10:07:00,6,5,3,11,8,13,13,7,8
10:08:00,14,12,10,9,8,10,14,11,11
10:09:00,3,2,11,12,11,10,13,8,9
10:10:00,14,9,11,3,10,11,5,9,9
10:11:00,6,9,17,10,6,20,16,10,12
10:12:00,12,5,3,5,9,17,7,7,8
10:13:00,9,8,13,12,5,13,13,9,10
10:14:00,8,7,12,10,6,13,7,9,9
10:15:00,14,8,7,8,10,10,9,9,9
10:16:00,5,0,10,10,9,11,10,7,8
10:17:00,12,9,5,8,15,11,9,10,10
10:18:00,4,9,10,7,7,13,6,7,8
10:19:00,9,7,7,9,8,13,8,8,9
10:20:00,14,7,7,8,13,18,9,10,11
10:21:00,5,2,13,15,9,18,9,9,10
10:22:00,13,5,4,10,12,11,10,9,9
10:23:00,8,12,7,5,9,16,6,8,9
10:24:00,10,4,10,7,13,17,5,9,9
10:25:00,11,17,3,12,7,10,12,10,10
10:26:00,4,8,8,6,16,14,7,8,9
10:27:00,11,9,9,10,11,11,5,10,9
10:28:00,3,1,7,11,12,6,10,7,7
10:29:00,11,8,12,7,16,16,11,11,12
10:30:00,5,10,5,7,12,11,7,8,8
10:31:00,10,7,12,9,9,15,16,9,11
10:32:00,7,11,8,11,5,12,6,8,9
10:33:00,9,1,3,8,9,14,6,6,7
10:34:00,12,13,14,8,8,14,9,11,11
10:35:00,4,14,5,9,3,14,10,7,8
10:36:00,6,9,7,6,8,20,8,7,9
10:37:00,4,9,6,8,9,10,10,7,8
10:38:00,5,6,7,8,7,12,8,7,8
10:39:00,11,16,10,9,6,17,8,10,11
10:40:00,6,12,3,9,9,6,18,8,9
10:41:00,11,10,7,13,13,10,13,11,11
10:42:00,19,11,13,11,11,19,14,13,14
10:43:00,6,10,4,9,7,13,14,7,9
10:44:00,14,9,12,7,11,9,8,11,10
10:45:00,2,7,10,11,2,12,8,6,7
10:46:00,10,5,7,11,8,6,6,8,8
10:47:00,10,8,5,16,11,9,15,10,11
10:48:00,5,3,6,7,17,11,14,8,9
10:49:00,10,12,6,10,9,14,10,9,10
10:50:00,5,6,9,8,7,7,15,7,8
10:51:00,14,9,4,10,7,9,13,9,9
10:52:00,4,8,10,15,7,21,9,9,11
10:53:00,12,12,12,14,5,16,11,11,12
10:54:00,16,17,6,9,15,15,12,13,13
10:55:00,3,7,9,9,14,13,9,8,9
10:56:00,11,8,8,10,8,12,8,9,9
10:57:00,3,7,8,11,15,14,6,9,9
10:58:00,6,13,11,6,2,10,8,8,8
10:59:00,14,10,2,7,15,8,12,10,10
11:00:00,6,6,7,4,23,9,15,9,10
11:01:00,10,10,9,2,11,13,11,8,9
11:02:00,3,2,12,13,13,13,12,9,10
11:03:00,8,9,7,7,15,7,11,9,9
11:04:00,8,10,8,14,12,7,13,10,10
11:05:00,11,7,10,10,10,7,6,10,9
11:06:00,15,10,2,9,12,11,5,10,9
11:07:00,5,4,4,7,13,11,10,7,8
11:08:00,16,6,7,6,9,12,6,9,9
11:09:00,11,8,11,14,7,14,11,10,11
11:10:00,11,2,6,17,15,9,9,10,10
11:11:00,12,12,8,5,11,7,7,10,9
11:12:00,5,18,7,8,7,10,7,9,9
11:13:00,12,9,9,4,9,11,8,9,9
11:14:00,6,13,7,7,15,15,10,10,10
11:15:00,9,3,8,13,5,15,5,8,8
11:16:00,6,8,14,10,9,7,12,9,9
11:17:00,12,10,3,6,12,13,15,9,10
11:18:00,13,10,9,10,8,17,9,10,11
11:19:00,0,12,4,14,12,8,9,8,8
11:20:00,11,1,4,16,8,17,8,8,9
11:21:00,16,9,7,4,5,12,11,8,9
11:22:00,4,4,7,13,8,13,9,7,8
11:23:00,12,10,8,9,9,11,9,10,10
11:24:00,7,10,14,6,10,17,8,9,10
11:25:00,7,5,10,6,6,10,10,7,8
11:26:00,3,13,4,6,14,12,14,8,9
11:27:00,12,0,7,6,8,6,13,7,7
11:28:00,3,7,5,11,12,13,8,8,8
11:29:00,11,17,11,8,8,10,11,11,11
11:30:00,7,8,14,5,15,9,6,10,9
11:31:00,7,18,6,7,5,7,12,9,9
11:32:00,7,6,11,13,13,13,6,10,10
11:33:00,7,16,5,5,11,16,7,9,10
11:34:00,15,4,13,14,12,10,8,12,11
11:35:00,2,7,13,1,8,11,8,6,7
11:36:00,12,15,3,4,5,15,8,8,9
11:37:00,9,6,10,4,6,10,6,7,7
11:38:00,9,16,10,10,10,19,8,11,12
11:39:00,11,7,8,10,10,16,15,9,11
11:40:00,5,11,13,11,8,7,6,10,9
11:41:00,16,15,2,9,11,6,10,11,10
11:42:00,9,5,12,15,9,9,11,10,10
11:43:00,12,14,17,4,10,11,11,11,11
11:44:00,16,11,10,14,10,11,6,12,11
11:45:00,7,7,7,13,10,13,12,9,10
11:46:00,13,8,5,13,16,15,12,11,12
11:47:00,1,2,13,14,9,11,11,8,9
11:48:00,12,13,11,13,15,13,13,13,13
11:49:00,4,10,10,8,11,18,2,9,9
11:50:00,5,6,8,9,12,14,13,8,10
11:51:00,9,17,8,5,10,9,14,10,10
11:52:00,4,7,14,12,11,10,12,10,10
11:53:00,7,12,4,10,19,15,14,10,12
11:54:00,5,12,8,9,9,13,15,9,10
11:55:00,18,8,3,16,11,12,15,11,12
11:56:00,9,14,10,6,11,12,5,10,10
11:57:00,9,1,5,3,8,7,20,5,8
11:58:00,15,12,8,5,9,10,6,10,9
11:59:00,5,11,13,3,11,11,12,9,9
12:00:00,13,10,10,9,11,19,6,11,11
12:01:00,19,8,5,15,9,14,22,11,13
12:02:00,10,5,4,5,12,7,21,7,9
12:03:00,12,8,11,18,10,11,19,12,13
12:04:00,9,10,11,10,9,13,9,10,10
12:05:00,9,8,8,3,9,9,13,7,8
12:06:00,8,15,11,7,11,11,12,10,11
12:07:00,9,7,7,9,6,15,6,8,8
12:08:00,11,10,8,19,8,15,14,11,12
12:09:00,4,11,3,11,14,15,2,9,9
12:10:00,7,12,11,9,12,11,17,10,11
12:11:00,8,10,2,15,8,11,16,9,10
12:12:00,8,5,10,7,17,15,10,9,10
12:13:00,16,17,12,15,14,7,12,15,13
12:14:00,3,15,9,6,15,11,14,10,10
12:15:00,11,2,10,11,11,17,16,9,11
12:16:00,4,10,8,12,10,11,12,9,10
12:17:00,10,16,9,9,10,8,12,11,11
12:18:00,14,7,6,11,10,12,13,10,10
12:19:00,9,9,7,12,12,10,12,10,10
12:20:00,11,4,9,6,12,10,13,8,9
12:21:00,5,15,11,8,8,13,8,9,10
12:22:00,12,11,14,10,7,16,22,11,13
12:23:00,6,8,2,11,15,17,13,8,10
12:24:00,15,10,9,4,18,11,10,11,11
12:25:00,8,9,16,10,14,9,1,11,10
12:26:00,4,2,9,7,15,15,6,7,8
12:27:00,16,0,11,12,8,12,9,9,10
12:28:00,4,0,4,9,14,12,12,6,8
12:29:00,8,0,13,8,7,12,8,7,8
12:30:00,12,0,19,12,10,12,14,11,11
12:31:00,4,0,7,7,15,10,9,7,7
12:32:00,7,0,16,12,12,15,8,9,10
12:33:00,10,0,4,8,14,15,15,7,9
12:34:00,12,0,8,12,13,12,14,9,10
12:35:00,10,0,8,3,15,10,10,7,8
12:36:00,3,0,8,15,13,17,12,8,10
12:37:00,11,0,14,8,7,11,12,8,9
12:38:00,13,0,1,13,6,15,9,7,8
12:39:00,4,0,17,7,8,5,10,7,7
12:40:00,14,0,3,8,9,10,10,7,8
12:41:00,4,18,7,9,16,18,15,11,12
12:42:00,17,10,12,2,5,8,7,9,9
12:43:00,23,10,9,15,14,12,12,14,14
12:44:00,2,18,12,11,19,19,12,12,13
12:45:00,11,4,11,7,13,7,16,9,10
12:46:00,14,10,8,14,10,19,15,11,13
12:47:00,16,16,14,9,9,9,13,13,12
12:48:00,13,9,8,10,5,11,8,9,9
12:49:00,3,11,10,13,8,10,8,9,9
12:50:00,13,8,1,11,7,17,14,8,10
12:51:00,3,12,13,10,12,17,11,10,11
12:52:00,13,8,10,12,5,12,10,10,10
12:53:00,5,11,5,7,14,14,10,8,9
12:54:00,11,15,7,8,7,11,7,10,9
12:55:00,5,2,1,4,16,9,8,6,6
12:56:00,10,12,18,5,13,13,13,12,12
12:57:00,13,11,12,8,12,15,18,11,13
12:58:00,6,14,8,8,15,11,6,10,10
12:59:00,10,15,18,6,16,9,9,13,12
13:00:00,9,4,2,12,11,13,6,8,8
13:01:00,11,9,12,12,17,18,6,12,12
13:02:00,9,9,16,19,19,14,9,14,14
13:03:00,1,8,3,9,13,13,7,7,8
13:04:00,14,10,10,8,12,9,12,11,11
13:05:00,5,7,6,10,9,10,8,7,8
13:06:00,10,6,14,14,15,9,12,12,11
13:07:00,11,9,7,10,11,12,14,10,11
13:08:00,2,10,7,11,11,24,9,8,11
13:09:00,9,13,8,8,14,11,11,10,11
13:10:00,9,2,9,11,15,17,13,9,11
13:11:00,13,8,8,12,8,17,6,10,10
13:12:00,13,11,14,15,11,15,11,13,13
13:13:00,2,9,4,11,9,15,13,7,9
13:14:00,11,10,8,11,16,7,8,11,10
13:15:00,14,3,12,8,11,14,10,10,10
13:16:00,0,13,11,9,9,8,7,8,8
13:17:00,13,10,10,9,11,7,10,11,10
13:18:00,12,11,6,4,16,14,7,10,10
13:19:00,9,11,5,11,17,16,9,11,11
13:20:00,16,3,8,13,7,17,6,9,10
13:21:00,13,14,11,13,11,7,10,12,11
13:22:00,9,7,13,8,12,17,9,10,11
13:23:00,10,8,4,9,8,15,9,8,9
13:24:00,2,11,7,14,13,14,9,9,10
13:25:00,9,8,7,14,8,15,6,9,10
13:26:00,9,12,10,12,8,17,11,10,11
13:27:00,6,6,14,5,10,5,13,8,8
13:28:00,11,6,12,7,13,10,6,10,9
13:29:00,2,10,12,9,10,14,6,9,9
13:30:00,9,8,13,8,12,15,9,10,11
13:31:00,8,14,6,14,11,13,12,11,11
13:32:00,9,4,16,10,18,10,10,11,11
13:33:00,11,7,13,15,9,11,6,11,10
13:34:00,3,7,10,5,9,10,8,7,7
13:35:00,11,8,13,8,14,13,14,11,12
13:36:00,13,9,3,9,9,10,9,9,9
13:37:00,6,1,10,10,9,12,9,7,8
13:38:00,15,16,11,8,10,13,9,12,12
13:39:00,8,10,9,7,13,10,13,9,10
13:40:00,11,6,17,13,6,14,7,11,11
13:41:00,9,14,10,9,7,15,11,10,11
13:42:00,2,1,9,11,13,14,12,7,9
13:43:00,10,11,15,9,11,23,8,11,12
13:44:00,16,9,1,8,10,8,11,9,9
13:45:00,8,14,12,12,11,8,5,11,10
13:46:00,11,15,15,6,13,8,14,12,12
13:47:00,7,4,12,7,13,9,7,9,8
13:48:00,14,10,9,6,8,12,9,9,10
13:49:00,4,9,3,7,3,8,7,5,6
13:50:00,11,6,14,5,13,13,8,10,10
13:51:00,2,17,12,10,12,7,10,11,10
13:52:00,15,11,5,12,6,16,7,10,10
13:53:00,10,5,16,9,10,11,15,10,11
13:54:00,11,15,4,8,10,9,5,10,9
13:55:00,10,8,4,11,7,12,12,8,9
13:56:00,5,8,9,5,11,17,10,8,9
13:57:00,8,6,7,13,8,15,14,8,10
13:58:00,8,10,2,9,9,13,8,8,8
13:59:00,9,10,5,11,10,17,5,9,10
14:00:00,14,11,12,16,11,14,15,13,13
14:01:00,5,3,13,12,7,6,12,8,8
14:02:00,13,12,12,10,7,17,10,11,12
14:03:00,2,11,12,9,12,19,12,9,11
14:04:00,8,2,18,8,11,17,13,9,11
14:05:00,11,9,2,8,13,7,4,9,8
14:06:00,5,5,11,11,12,11,12,9,10
14:07:00,12,8,19,12,10,6,9,12,11
14:08:00,2,11,2,15,11,10,12,8,9
14:09:00,12,11,11,16,7,15,11,11,12
14:10:00,6,8,20,8,13,15,6,11,11
14:11:00,6,3,1,7,16,6,11,7,7
14:12:00,12,13,13,8,13,13,8,12,11
14:13:00,12,8,19,7,18,11,9,13,12
14:14:00,12,10,8,13,9,10,5,10,10
14:15:00,9,9,16,16,12,13,7,12,12
14:16:00,8,8,7,8,19,10,7,10,10
14:17:00,16,11,9,11,7,7,7,11,10
14:18:00,4,2,18,10,7,15,19,8,11
14:19:00,14,11,7,9,14,11,11,11,11
14:20:00,5,9,15,11,11,13,9,10,10
14:21:00,6,10,10,10,11,20,4,9,10
14:22:00,5,8,12,15,15,13,12,11,11
14:23:00,12,10,13,11,7,14,10,11,11
14:24:00,10,18,16,5,5,11,4,11,10
14:25:00,10,4,10,9,5,14,5,8,8
14:26:00,15,11,10,15,10,14,11,12,12
14:27:00,4,7,10,17,9,8,7,9,9
14:28:00,13,6,11,12,15,9,10,11,11
14:29:00,2,18,8,8,7,5,12,9,9
14:30:00,8,4,8,8,10,13,12,8,9
14:31:00,11,18,11,12,6,16,9,12,12
14:32:00,6,20,7,8,11,16,7,10,11
14:33:00,9,7,11,10,12,14,9,10,10
14:34:00,3,13,12,11,16,16,11,11,12
14:35:00,12,12,7,15,10,9,13,11,11
14:36:00,18,8,13,16,10,13,4,13,12
14:37:00,5,16,8,13,12,9,6,11,10
14:38:00,12,9,5,12,8,6,8,9,9
14:39:00,12,12,10,13,13,11,11,12,12
14:40:00,1,13,8,11,8,18,8,8,10
14:41:00,11,10,10,6,11,6,9,10,9
14:42:00,17,7,9,9,13,15,9,11,11
14:43:00,10,12,7,18,8,8,7,11,10
14:44:00,6,11,10,8,10,10,7,9,9
14:45:00,11,15,7,11,11,7,12,11,11
14:46:00,5,7,6,10,12,9,7,8,8
14:47:00,12,13,6,9,7,13,4,9,9
14:48:00,12,2,10,8,17,8,7,10,9
14:49:00,8,8,11,9,18,8,10,11,10
14:50:00,12,10,13,6,15,7,10,11,10
14:51:00,9,6,13,16,10,10,9,11,10
14:52:00,5,5,17,13,10,8,8,10,9
14:53:00,6,7,12,8,13,14,10,9,10
14:54:00,4,7,10,15,11,8,13,9,10
14:55:00,2,4,8,14,4,9,12,6,8
14:56:00,10,2,14,11,15,7,8,10,10
14:57:00,17,9,11,12,14,14,6,13,12
14:58:00,9,11,9,14,8,8,5,10,9
14:59:00,16,10,9,13,15,11,9,13,12
15:00:00,11,14,7,13,17,13,9,12,12
15:01:00,6,11,6,12,12,10,15,9,10
15:02:00,5,11,8,6,6,7,13,7,8
15:03:00,14,17,10,11,10,8,14,12,12
15:04:00,6,4,18,11,16,27,20,11,15
15:05:00,9,15,7,8,14,16,16,11,12
15:06:00,3,5,8,5,14,9,12,7,8
15:07:00,11,5,12,11,15,6,9,11,10
15:08:00,16,7,11,13,7,8,15,11,11
15:09:00,6,6,13,12,14,13,9,10,10
15:10:00,14,12,17,6,10,6,10,12,11
15:11:00,21,11,13,10,8,10,7,13,11
15:12:00,9,17,11,9,12,19,9,12,12
15:13:00,9,19,9,15,12,7,16,13,12
15:14:00,12,6,12,12,17,17,9,12,12
15:15:00,14,17,10,16,12,15,8,14,13
15:16:00,14,22,7,14,8,9,7,13,12
15:17:00,6,10,17,8,9,13,7,10,10
15:18:00,16,12,11,14,10,10,9,13,12
15:19:00,17,8,15,12,9,14,5,12,11
15:20:00,11,16,18,6,10,13,10,12,12
15:21:00,19,6,14,10,13,16,6,12,12
15:22:00,11,12,12,11,11,11,14,11,12
15:23:00,11,18,6,11,13,10,7,12,11
15:24:00,12,7,14,14,11,14,9,12,12
15:25:00,8,13,10,6,20,9,9,11,11
15:26:00,14,15,11,10,21,9,11,14,13
15:27:00,6,0,9,10,24,11,11,10,10
15:28:00,9,17,13,17,11,13,10,13,13
15:29:00,14,16,15,11,9,14,7,13,12
15:30:00,8,4,13,13,16,12,9,11,11
15:31:00,17,16,20,11,17,9,8,16,14
15:32:00,8,8,7,11,10,10,13,9,10
15:33:00,6,12,17,5,9,7,18,10,11
15:34:00,10,17,12,2,14,8,15,11,11
15:35:00,12,6,4,4,9,10,6,7,7
15:36:00,12,14,10,16,11,13,7,13,12
15:37:00,4,13,8,17,9,9,8,10,10
15:38:00,12,9,16,14,12,7,13,13,12
15:39:00,6,12,15,7,18,12,8,12,11
15:40:00,13,5,14,18,16,8,12,13,12
15:41:00,13,10,6,8,16,8,9,11,10
15:42:00,8,4,11,14,10,14,8,9,10
15:43:00,20,14,15,15,19,6,8,17,14
15:44:00,2,17,9,11,12,10,11,10,10
15:45:00,14,8,8,9,13,10,9,10,10
15:46:00,9,10,10,11,12,12,8,10,10
15:47:00,11,5,7,17,11,7,10,10,10
15:48:00,16,11,11,14,11,12,14,13,13
15:49:00,2,14,8,12,12,17,7,10,10
15:50:00,18,8,13,14,7,12,6,12,11
15:51:00,16,14,11,10,18,8,10,14,12
15:52:00,6,10,14,8,14,7,11,10,10
15:53:00,11,16,10,10,10,9,7,11,10
15:54:00,10,16,11,17,9,13,15,13,13
15:55:00,15,3,15,9,10,10,4,10,9
15:56:00,8,13,12,12,17,12,15,12,13
15:57:00,3,14,10,13,18,8,5,12,10
15:58:00,15,10,14,7,16,10,12,12,12
15:59:00,15,17,9,16,10,10,6,13,12
16:00:00,8,7,12,8,15,10,6,10,9
16:01:00,14,12,13,13,13,7,10,13,12
16:02:00,7,21,15,18,14,9,4,15,13
16:03:00,18,5,18,9,13,10,8,13,12
16:04:00,14,9,18,22,15,11,8,16,14
16:05:00,8,16,14,13,23,5,7,15,12
16:06:00,13,14,12,14,15,16,7,14,13
16:07:00,0,14,9,15,12,8,16,10,11
16:08:00,14,8,6,9,12,9,6,10,9
16:09:00,15,17,15,22,20,11,6,18,15
16:10:00,4,10,16,13,12,12,14,11,12
16:11:00,14,11,15,13,13,11,9,13,12
16:12:00,12,14,12,9,9,13,11,11,11
16:13:00,14,7,10,14,4,9,8,10,9
16:14:00,13,13,12,13,15,12,10,13,13
16:15:00,2,14,14,12,13,15,11,11,12
16:16:00,17,7,11,16,12,9,7,13,11
16:17:00,9,22,13,11,11,12,14,13,13
16:18:00,15,9,10,12,12,13,13,12,12
16:19:00,11,16,16,10,11,12,9,13,12
16:20:00,5,11,8,13,13,9,10,10,10
16:21:00,13,10,7,14,7,8,8,10,10
16:22:00,9,23,10,12,18,8,5,14,12
16:23:00,6,2,11,13,5,6,9,7,7
16:24:00,20,15,11,16,8,7,5,14,12
16:25:00,6,16,14,17,9,12,8,12,12
16:26:00,9,6,11,16,10,11,3,10,9
16:27:00,18,16,8,9,8,9,7,12,11
16:28:00,4,7,6,14,15,9,8,9,9
16:29:00,17,15,19,9,17,16,8,15,14
16:30:00,17,12,11,14,16,9,11,14,13
16:31:00,10,8,8,10,8,11,8,9,9
16:32:00,10,16,12,14,9,5,3,12,10
16:33:00,5,13,8,17,17,3,11,12,11
16:34:00,18,10,17,17,9,9,10,14,13
16:35:00,14,16,8,14,13,12,6,13,12
16:36:00,0,6,13,13,11,9,9,9,9
16:37:00,19,18,12,15,10,9,6,15,13
16:38:00,22,12,8,14,15,7,6,14,12
16:39:00,8,2,12,15,12,9,8,10,9
16:40:00,15,19,10,14,12,5,17,14,13
16:41:00,14,13,12,8,11,10,3,12,10
16:42:00,8,3,10,11,13,12,7,9,9
16:43:00,14,22,11,18,16,6,11,16,14
16:44:00,3,12,12,9,19,8,11,11,11
16:45:00,15,12,17,15,11,10,9,14,13
16:46:00,13,13,15,11,9,12,16,12,13
16:47:00,1,3,15,24,18,12,6,12,11
16:48:00,13,12,8,9,17,16,6,12,12
16:49:00,17,16,11,9,11,12,12,13,13
16:50:00,11,1,11,18,20,14,7,12,12
16:51:00,18,20,7,20,19,6,10,17,14
16:52:00,3,18,17,10,15,5,9,13,11
16:53:00,16,11,13,12,9,7,7,12,11
16:54:00,18,12,16,14,12,15,10,14,14
16:55:00,6,4,15,14,14,13,4,11,10
16:56:00,17,17,14,12,14,10,4,15,13
16:57:00,7,15,9,10,12,13,11,11,11
16:58:00,12,5,8,17,14,14,14,11,12
16:59:00,14,18,17,16,17,10,5,16,14
17:00:00,4,10,13,12,16,11,8,11,11
17:01:00,24,13,12,15,13,11,9,15,14
17:02:00,15,20,11,9,15,9,10,14,13
17:03:00,0,2,12,13,13,10,16,8,9
17:04:00,23,20,13,18,15,10,10,18,16
17:05:00,10,12,11,14,15,6,15,12,12
17:06:00,9,12,5,12,16,12,7,11,10
17:07:00,22,14,17,12,13,9,13,16,14
17:08:00,6,11,8,12,14,7,12,10,10
17:09:00,18,16,13,11,13,9,11,14,13
17:10:00,11,9,8,12,12,12,7,10,10
17:11:00,8,0,14,12,21,15,4,11,11
17:12:00,13,15,10,13,12,14,9,13,12
17:13:00,7,16,13,15,7,13,9,12,11
17:14:00,12,9,16,9,19,10,11,13,12
17:15:00,10,19,18,19,9,7,16,15,14
17:16:00,0,4,6,11,7,9,10,6,7
17:17:00,17,16,11,13,7,7,10,13,12
17:18:00,10,9,12,7,15,13,6,11,10
17:19:00,2,6,16,12,12,8,14,10,10
17:20:00,20,16,13,8,13,6,5,14,12
17:21:00,15,11,15,10,11,16,10,12,13
17:22:00,11,18,9,19,15,7,4,14,12
17:23:00,20,9,12,9,19,11,8,14,13
17:24:00,9,16,14,12,9,8,2,12,10
17:25:00,8,17,14,6,12,15,7,11,11
17:26:00,22,6,13,7,9,13,7,11,11
17:27:00,11,19,10,18,16,8,4,15,12
17:28:00,15,11,10,12,17,10,12,13,12
17:29:00,15,8,13,11,11,4,14,12,11
17:30:00,0,13,11,17,19,15,11,12,12
17:31:00,11,11,11,15,12,12,11,12,12
17:32:00,11,13,12,12,12,9,5,12,11
17:33:00,9,16,9,7,20,9,4,12,11
17:34:00,11,7,4,13,14,7,4,10,9
17:35:00,3,12,15,14,12,7,11,11,11
17:36:00,14,5,14,15,12,10,3,12,10
17:37:00,14,16,17,10,20,9,6,15,13
17:38:00,2,12,11,13,10,6,2,10,8
17:39:00,14,5,16,13,10,9,8,12,11
17:40:00,6,20,10,10,16,17,11,12,13
17:41:00,10,10,9,19,10,11,6,12,11
17:42:00,16,19,10,19,13,11,8,15,14
17:43:00,1,19,17,12,11,11,7,12,11
17:44:00,11,6,13,12,15,6,8,11,10
17:45:00,21,10,15,14,13,9,12,15,13
17:46:00,8,11,10,12,11,8,8,10,10
17:47:00,18,9,14,16,10,16,4,13,12
17:48:00,15,18,15,8,15,16,6,14,13
17:49:00,7,6,15,13,13,13,10,11,11
17:50:00,21,13,11,15,10,9,7,14,12
17:51:00,10,17,16,15,16,12,3,15,13
17:52:00,12,8,9,11,11,8,9,10,10
17:53:00,14,19,10,13,15,8,3,14,12
17:54:00,2,17,19,15,9,14,6,12,12
17:55:00,21,2,15,15,22,9,7,15,13
17:56:00,15,21,13,11,14,12,4,15,13
17:57:00,2,13,10,9,12,9,7,9,9
17:58:00,17,10,13,16,12,13,5,14,12
17:59:00,13,15,14,21,12,10,13,15,14
18:00:00,12,0,11,16,8,8,4,9,8
18:01:00,12,19,9,15,10,9,5,13,11
18:02:00,4,17,11,17,17,14,6,13,12
18:03:00,18,4,10,11,17,4,9,12,10
18:04:00,13,15,11,18,9,11,7,13,12
18:05:00,11,6,5,6,8,13,4,7,8
18:06:00,14,14,9,13,14,9,7,13,11
18:07:00,5,14,11,20,13,8,6,13,11
18:08:00,9,4,17,16,16,11,9,12,12
18:09:00,19,12,9,16,12,7,9,14,12
18:10:00,9,16,6,16,18,9,6,13,11
18:11:00,20,10,11,21,11,8,3,15,12
18:12:00,3,14,10,21,12,7,10,12,11
18:13:00,21,6,9,10,11,7,12,11,11
18:14:00,9,15,11,11,11,15,6,11,11
18:15:00,11,7,15,10,11,15,5,11,11
18:16:00,15,12,11,13,7,19,8,12,12
18:17:00,0,10,12,8,11,2,4,8,7
18:18:00,15,1,9,10,6,6,6,8,8
18:19:00,7,20,9,9,15,9,5,12,11
18:20:00,8,7,8,5,12,10,3,8,8
18:21:00,10,12,8,12,12,15,7,11,11
18:22:00,8,17,12,8,11,8,6,11,10
18:23:00,10,2,10,13,9,7,7,9,8
18:24:00,3,7,8,15,12,12,9,9,9
18:25:00,12,14,13,8,5,12,14,10,11
18:26:00,10,9,16,7,11,7,9,11,10
18:27:00,15,16,5,13,15,11,7,13,12
18:28:00,10,2,7,8,6,7,10,7,7
18:29:00,0,13,12,13,7,6,7,9,8
18:30:00,19,9,12,14,17,12,8,14,13
18:31:00,8,9,13,10,7,6,13,9,9
18:32:00,12,9,14,15,11,11,15,12,12
18:33:00,17,5,13,9,13,6,8,11,10
18:34:00,3,13,11,12,9,8,10,10,9
18:35:00,11,7,11,7,13,15,5,10,10
18:36:00,15,13,13,17,11,10,8,14,12
18:37:00,7,11,12,12,13,7,6,11,10
18:38:00,8,3,6,6,7,9,5,6,6
18:39:00,2,14,17,9,9,10,5,10,9
18:40:00,19,9,17,10,14,7,9,14,12
18:41:00,11,9,10,10,13,6,11,11,10
18:42:00,11,19,14,14,11,9,0,14,11
18:43:00,17,4,8,11,11,4,5,10,9
18:44:00,1,17,12,11,11,12,4,10,10
18:45:00,13,11,8,11,11,6,11,11,10
18:46:00,17,7,14,7,9,8,12,11,11
18:47:00,6,11,11,12,10,9,3,10,9
18:48:00,10,7,9,10,11,11,2,9,9
18:49:00,1,13,7,9,6,5,9,7,7
18:50:00,16,14,19,13,11,6,10,15,13
18:51:00,12,4,11,13,11,12,9,10,10
18:52:00,13,16,18,8,10,7,10,13,12
18:53:00,9,17,14,8,11,13,6,12,11
18:54:00,2,8,7,10,9,6,7,7,7
18:55:00,16,13,13,16,10,12,9,14,13
18:56:00,20,5,12,13,12,9,3,12,11
18:57:00,5,12,7,11,10,10,10,9,9
18:58:00,13,6,10,10,6,12,5,9,9
18:59:00,4,9,9,9,9,8,9,8,8
19:00:00,15,16,8,11,12,14,8,12,12
19:01:00,11,4,15,4,15,10,7,10,9
19:02:00,10,12,11,6,13,7,6,10,9
19:03:00,9,15,6,13,8,9,8,10,10
19:04:00,10,8,8,13,13,9,8,10,10
19:05:00,15,17,17,16,9,7,5,15,12
19:06:00,8,3,17,14,8,16,8,10,11
19:07:00,7,13,21,16,13,9,9,14,13
19:08:00,10,13,11,12,16,15,6,12,12
19:09:00,8,6,12,12,6,4,7,9,8
19:10:00,10,15,12,19,10,5,7,13,11
19:11:00,8,11,9,13,14,3,3,11,9
19:12:00,9,13,8,8,10,8,6,10,9
19:13:00,15,3,4,14,14,5,8,10,9
19:14:00,8,12,9,11,13,8,4,11,9
19:15:00,16,6,8,10,12,8,8,10,10
19:16:00,12,18,10,13,14,4,9,13,11
19:17:00,3,9,14,9,12,9,7,9,9
19:18:00,7,10,10,9,6,7,5,8,8
19:19:00,11,12,6,10,7,10,9,9,9
19:20:00,11,3,11,16,11,7,7,10,9
19:21:00,9,11,9,9,4,10,3,8,8
19:22:00,2,9,10,7,9,11,7,7,8
19:23:00,12,5,7,9,10,5,3,9,7
19:24:00,8,14,8,6,9,8,9,9,9
19:25:00,7,5,13,11,11,7,7,9,9
19:26:00,8,6,7,7,11,5,2,8,7
19:27:00,9,5,11,8,10,7,13,9,9
19:28:00,7,19,8,10,12,9,8,11,10
19:29:00,5,6,10,13,19,10,10,11,10
19:30:00,11,7,9,11,7,5,2,9,7
19:31:00,3,10,10,7,12,5,13,8,9
19:32:00,10,2,12,8,9,12,6,8,8
19:33:00,1,14,11,13,9,11,7,10,9
19:34:00,11,6,13,11,7,11,9,10,10
19:35:00,11,19,13,11,10,9,5,13,11
19:36:00,7,5,11,12,5,7,5,8,7
19:37:00,4,9,10,12,15,5,6,10,9
19:38:00,12,4,10,12,7,9,3,9,8
19:39:00,10,8,8,9,9,8,7,9,8
19:40:00,2,2,10,5,15,10,6,7,7
19:41:00,11,16,4,5,8,5,4,9,8
19:42:00,2,14,13,10,12,8,5,10,9
19:43:00,13,3,8,16,13,8,6,11,10
19:44:00,8,8,9,10,10,2,11,9,8
19:45:00,9,13,10,7,11,7,5,10,9
19:46:00,7,7,10,4,12,7,8,8,8
19:47:00,8,6,9,9,12,8,8,9,9
19:48:00,6,1,10,10,6,4,5,7,6
19:49:00,2,14,9,3,8,7,6,7,7
19:50:00,12,8,10,7,8,7,5,9,8
19:51:00,4,11,13,7,7,8,6,8,8
19:52:00,10,10,12,8,2,6,4,8,7
19:53:00,16,1,11,12,10,9,5,10,9
19:54:00,1,13,6,12,12,4,10,9,8
19:55:00,10,5,11,9,6,8,9,8,8
19:56:00,7,8,7,8,7,6,7,7,7
19:57:00,8,8,12,9,14,9,4,10,9
19:58:00,6,12,5,9,6,10,9,8,8
19:59:00,5,11,9,3,8,7,4,7,7
20:00:00,8,4,5,5,11,5,4,7,6
20:01:00,7,9,6,10,5,5,5,7,7
20:02:00,9,10,11,7,7,1,6,9,7
20:03:00,5,13,7,3,8,4,5,7,6
20:04:00,13,7,5,3,10,3,7,8,7
20:05:00,3,0,9,6,6,9,7,5,6
20:06:00,14,9,4,1,8,3,7,7,7
20:07:00,8,12,12,8,7,6,8,9,9
20:08:00,11,6,13,8,7,3,4,9,7
20:09:00,5,9,10,8,11,3,6,9,7
20:10:00,11,10,8,13,7,3,0,10,7
20:11:00,7,10,8,5,8,7,5,8,7
20:12:00,12,7,12,7,7,3,4,9,7
20:13:00,4,13,8,6,6,7,4,7,7
20:14:00,7,11,5,5,7,7,5,7,7
20:15:00,3,13,8,12,7,5,10,9,8
20:16:00,4,8,7,6,5,2,2,6,5
20:17:00,6,4,6,11,7,4,4,7,6
20:18:00,2,10,7,8,6,5,3,7,6
20:19:00,13,4,4,4,3,9,8,6,6
20:20:00,4,5,6,6,10,7,2,6,6
20:21:00,10,4,3,10,3,5,4,6,6
20:22:00,8,10,3,6,10,9,5,7,7
20:23:00,4,3,6,3,5,5,4,4,4
20:24:00,6,8,8,3,11,2,2,7,6
20:25:00,7,7,5,5,6,3,6,6,6
20:26:00,4,7,6,4,9,10,2,6,6
20:27:00,7,7,7,3,5,6,3,6,5
20:28:00,4,3,4,7,4,4,3,4,4
20:29:00,8,9,7,3,8,3,6,7,6
20:30:00,3,1,8,6,3,5,1,4,4
20:31:00,2,6,5,4,5,4,3,4,4
20:32:00,5,7,5,7,5,5,2,6,5
20:33:00,1,5,4,5,3,2,8,4,4
20:34:00,2,3,3,6,8,6,3,4,4
20:35:00,9,6,7,5,2,6,2,6,5
20:36:00,2,6,6,5,7,7,5,5,5
20:37:00,9,5,7,6,5,9,3,6,6
20:38:00,2,5,5,8,4,3,3,5,4
20:39:00,4,9,2,5,4,4,3,5,4
20:40:00,3,6,5,7,4,6,1,5,5
20:41:00,2,5,2,7,5,6,2,4,4
20:42:00,4,3,5,2,8,2,3,4,4
20:43:00,3,6,4,5,5,2,2,5,4
20:44:00,4,13,4,4,5,4,4,6,5
20:45:00,5,3,0,6,1,3,4,3,3
20:46:00,3,7,3,8,8,3,4,6,5
20:47:00,9,1,9,2,5,7,2,5,5
20:48:00,3,7,8,4,9,7,6,6,6
20:49:00,4,2,9,4,6,4,3,5,5
20:50:00,2,5,5,3,7,1,3,4,4
20:51:00,6,0,6,4,3,6,5,4,4
20:52:00,5,9,3,4,6,6,6,5,6
20:53:00,8,3,5,2,8,4,3,5,5
20:54:00,3,9,2,3,6,5,5,5,5
20:55:00,8,2,7,3,3,2,3,5,4
20:56:00,4,8,7,4,7,6,4,6,6
20:57:00,3,3,9,5,7,5,1,5,5
20:58:00,5,5,6,3,4,2,5,5,4
20:59:00,2,4,3,8,3,8,5,4,5
21:00:00,6,4,4,2,4,7,5,4,5
21:01:00,1,1,9,3,4,3,1,4,3
21:02:00,8,3,6,2,3,3,2,4,4
21:03:00,2,5,3,3,5,1,2,4,3
21:04:00,4,2,5,2,3,7,1,3,3
21:05:00,3,4,3,4,4,4,4,4,4
21:06:00,2,6,6,8,1,4,1,5,4
21:07:00,5,3,2,8,2,1,1,4,3
21:08:00,6,8,8,3,1,5,6,5,5
21:09:00,8,6,13,6,4,6,2,7,6
21:10:00,7,6,3,3,6,5,4,5,5
21:11:00,6,4,8,5,3,5,5,5,5
21:12:00,2,6,11,1,4,3,2,5,4
21:13:00,6,4,4,7,1,3,4,4,4
21:14:00,1,5,6,4,8,3,1,5,4
21:15:00,1,11,2,4,2,1,3,4,3
21:16:00,8,11,2,4,5,7,4,6,6
21:17:00,1,1,7,8,4,3,5,4,4
21:18:00,7,7,9,6,6,6,4,7,6
21:19:00,4,0,5,7,3,7,6,4,5
21:20:00,8,3,2,5,4,2,2,4,4
21:21:00,1,7,2,2,4,3,3,3,3
21:22:00,3,2,7,5,1,1,2,4,3
21:23:00,3,4,1,4,8,6,2,4,4
21:24:00,1,3,5,1,8,2,2,4,3
21:25:00,4,4,4,2,7,2,3,4,4
21:26:00,2,4,4,5,2,5,4,3,4
21:27:00,6,4,5,3,1,1,2,4,3
21:28:00,3,6,3,6,6,8,2,5,5
21:29:00,4,5,2,3,6,5,1,4,4
21:30:00,4,7,8,1,4,3,1,5,4
21:31:00,2,0,5,8,6,3,4,4,4
21:32:00,3,4,1,4,3,4,2,3,3
21:33:00,3,5,3,6,2,5,4,4,4
21:34:00,5,3,4,3,0,4,3,3,3
21:35:00,1,1,2,3,2,6,2,2,2
21:36:00,6,12,3,4,1,2,0,5,4
21:37:00,0,2,0,5,1,3,1,2,2
21:38:00,1,0,4,4,2,1,4,2,2
21:39:00,2,5,3,7,8,3,0,5,4
21:40:00,4,3,0,5,4,2,1,3,3
21:41:00,1,3,2,5,1,3,5,2,3
21:42:00,4,2,1,3,3,4,2,3,3
21:43:00,4,6,0,2,6,10,1,4,4
21:44:00,3,2,6,4,2,3,3,3,3
21:45:00,1,6,5,2,1,3,5,3,3
21:46:00,7,2,5,7,3,5,0,5,4
21:47:00,2,2,6,3,4,2,2,3,3
21:48:00,3,1,5,2,1,3,0,2,2
21:49:00,4,2,5,0,2,1,3,3,2
21:50:00,2,4,5,3,5,4,1,4,3
21:51:00,2,2,4,4,3,5,1,3,3
21:52:00,4,1,1,7,5,4,3,4,4
21:53:00,2,0,5,3,5,4,3,3,3
21:54:00,2,7,4,4,4,3,3,4,4
21:55:00,7,4,7,4,5,4,1,5,5
21:56:00,2,4,1,2,2,3,1,2,2
21:57:00,3,3,3,4,2,3,3,3,3
21:58:00,1,4,6,0,5,2,1,3,3
21:59:00,6,1,1,1,5,1,0,3,2
22:00:00,4,2,2,1,3,5,1,2,3
22:01:00,2,4,1,5,5,4,1,3,3
22:02:00,2,1,4,5,3,5,1,3,3
22:03:00,4,7,0,5,7,5,2,5,4
22:04:00,3,1,6,2,3,1,3,3,3
22:05:00,8,7,3,5,1,2,1,5,4
22:06:00,0,2,3,5,4,6,3,3,3
22:07:00,4,5,3,3,3,0,2,4,3
22:08:00,0,4,5,3,6,3,1,4,3
22:09:00,2,3,8,4,4,4,1,4,4
22:10:00,2,4,5,3,3,6,2,3,4
22:11:00,1,1,7,4,5,4,1,4,3
22:12:00,6,7,5,3,1,5,1,4,4
22:13:00,3,5,4,3,3,2,1,4,3
22:14:00,6,3,3,2,5,0,1,4,3
22:15:00,2,7,4,3,1,4,3,3,3
22:16:00,2,1,1,5,5,3,2,3,3
22:17:00,4,2,2,3,2,2,3,3,3
22:18:00,13,1,2,2,6,4,2,5,4
22:19:00,4,8,7,5,0,1,1,5,4
22:20:00,4,1,4,4,1,4,2,3,3
22:21:00,3,0,2,6,5,1,0,3,2
22:22:00,1,1,1,1,0,2,1,1,1
22:23:00,0,2,1,6,5,2,4,3,3
22:24:00,3,4,3,4,3,0,2,3,3
22:25:00,3,3,2,3,3,2,0,3,2
22:26:00,2,3,3,1,2,2,1,2,2
22:27:00,2,5,2,0,1,2,2,2,2
22:28:00,1,3,0,4,1,1,4,2,2
22:29:00,3,2,2,1,2,4,3,2,2
22:30:00,1,4,4,2,5,1,2,3,3
22:31:00,0,0,1,2,0,2,1,1,1
22:32:00,1,1,0,2,1,4,3,1,2
22:33:00,0,0,3,1,3,2,1,1,1
22:34:00,0,4,8,3,2,1,1,3,3
22:35:00,2,2,4,2,4,1,1,3,2
22:36:00,1,4,0,0,2,1,1,1,1
22:37:00,3,2,2,2,3,3,1,2,2
22:38:00,0,2,5,1,4,2,1,2,2
22:39:00,0,2,0,2,1,2,1,1,1
22:40:00,1,0,2,1,5,1,0,2,1
22:41:00,1,1,6,4,4,5,3,3,3
22:42:00,0,1,4,0,1,5,1,1,2
22:43:00,1,2,1,0,2,4,1,1,2
22:44:00,0,1,1,3,2,2,1,1,1
22:45:00,2,1,2,0,1,3,1,1,1
22:46:00,2,3,1,4,4,3,2,3,3
22:47:00,1,3,4,2,1,4,0,2,2
22:48:00,1,0,3,4,1,6,0,2,2
22:49:00,0,0,0,2,4,2,1,1,1
22:50:00,0,2,1,2,4,1,0,2,1
22:51:00,1,3,1,2,1,2,5,2,2
22:52:00,1,4,3,3,0,4,1,2,2
22:53:00,1,2,1,3,3,2,2,2,2
22:54:00,1,0,2,2,2,2,3,1,2
22:55:00,2,1,2,2,3,4,0,2,2
22:56:00,1,1,3,5,1,4,1,2,2
22:57:00,1,3,1,3,3,5,1,2,2
22:58:00,1,1,0,2,2,1,1,1,1
22:59:00,3,1,2,2,0,2,2,2,2
23:00:00,1,0,2,2,2,1,0,1,1
23:01:00,0,3,1,3,0,6,1,1,2
23:02:00,1,1,1,3,2,3,2,2,2
23:03:00,2,1,2,6,3,3,0,3,2
23:04:00,2,1,2,4,3,6,0,2,3
23:05:00,1,0,0,1,3,3,2,1,1
23:06:00,0,0,2,3,2,1,2,1,1
23:07:00,0,0,3,0,3,3,1,1,1
23:08:00,1,0,2,1,4,1,0,2,1
23:09:00,1,2,2,2,3,2,0,2,2
23:10:00,1,1,1,2,1,4,0,1,1
23:11:00,3,2,0,5,2,2,0,2,2
23:12:00,5,2,0,2,2,1,0,2,2
23:13:00,1,0,4,2,5,1,2,2,2
23:14:00,3,1,2,1,3,2,3,2,2
23:15:00,1,1,2,5,4,1,1,3,2
23:16:00,2,0,0,1,1,0,1,1,1
23:17:00,2,2,3,5,1,1,1,3,2
23:18:00,0,2,1,1,2,1,1,1,1
23:19:00,0,0,1,1,0,1,1,0,1
23:20:00,2,1,1,1,2,1,0,1,1
23:21:00,1,1,0,1,3,4,2,1,2
23:22:00,0,0,3,1,3,1,0,1,1
23:23:00,1,1,1,0,2,2,2,1,1
23:24:00,1,1,2,0,2,0,3,1,1
23:25:00,0,0,4,1,3,1,2,2,2
23:26:00,1,1,0,2,1,4,0,1,1
23:27:00,4,2,1,2,3,1,1,2,2
23:28:00,1,1,3,0,2,0,1,1,1
23:29:00,1,0,0,0,4,1,0,1,1
23:30:00,1,1,3,2,4,2,0,2,2
23:31:00,0,1,1,1,0,1,1,1,1
23:32:00,2,0,0,1,1,1,0,1,1
23:33:00,1,5,2,4,1,1,1,3,2
23:34:00,2,1,0,5,2,2,0,2,2
23:35:00,1,1,0,0,4,3,0,1,1
23:36:00,1,1,0,2,3,1,1,1,1
23:37:00,3,2,1,0,3,4,0,2,2
23:38:00,1,1,1,0,1,4,0,1,1
23:39:00,0,2,0,3,2,3,1,1,2
23:40:00,1,0,1,0,0,1,0,0,0
23:41:00,1,0,0,1,5,4,1,1,2
23:42:00,0,0,0,2,0,4,1,0,1
23:43:00,0,0,2,0,3,1,1,1,1
23:44:00,0,0,1,2,1,4,0,1,1
23:45:00,0,0,0,1,2,5,2,1,1
23:46:00,0,1,0,0,2,3,1,1,1
23:47:00,0,1,0,0,2,3,1,1,1
23:48:00,1,0,1,0,2,3,0,1,1
23:49:00,0,2,0,1,0,0,1,1,1
23:50:00,1,0,0,2,2,3,0,1,1
23:51:00,1,1,2,1,0,3,0,1,1
23:52:00,0,0,1,2,3,5,1,1,2
23:53:00,0,0,3,1,3,5,1,1,2
23:54:00,0,0,0,0,3,2,0,1,1
23:55:00,4,0,0,1,2,0,0,1,1
23:56:00,2,1,0,1,3,5,0,1,2
23:57:00,0,0,0,2,2,1,2,1,1
23:58:00,2,0,1,0,0,0,0,1,0
23:59:00,1,0,1,2,1,2,1,1,1
,,,,,,,,,
Totals,,,,,,,,,
12H(7-19),7225,7198,7312,7789,8113,7323,5856,7527,7259
16H(6-22),8524,8624,8773,9216,9517,8447,6753,8931,8551
18H(6-24),8712,8822,9002,9475,9807,8748,6890,9164,8779
24H(0-24),8853,8963,9173,9626,9972,8965,7083,9317,8948
,,,,,,,,,
AM Peak,07:43:00,08:15:00,08:25:00,08:13:00,08:14:00,10:02:00,09:44:00,08:14:00,08:20:00
,694,705,656,776,749,748,615,711,611
,,,,,,,,,
PM Peak,16:29:00,16:59:00,16:52:00,16:02:00,16:38:00,12:44:00,12:01:00,16:29:00,16:29:00
,727,740,746,819,827,780,695,752,700
,,,,,,,,,
,,,,,,,,,
CA Traffic,,,,,,,,,VDA-net R2 14/12/2020
