Site Number,00008019,Unnamed: 2,Site Reference,00008019.1,Unnamed: 5,Unnamed: 6,Lat/Lng.,"52.05179,1.19564",Unnamed: 9
Radar 8019 Foxhall Road Ipswich,,,,,,,,,
Vehicle Count Report,,,,Week Begin: 26 October 2020,,,Channel:,Total Flow,
,,,,,,,,,
,,,,,,,,,
,2020-10-26,2020-10-27,2020-10-28,2020-10-29 00:00:00,2020-10-30,2020-10-31,2020-11-01 00:00:00,"5-Day
Ave.","7-Day
Ave."
00:00:00,,,,,,,1,,
00:01:00,,,,,,,1,,
00:02:00,,,,,,,4,,
00:03:00,,,,,,,3,,
00:04:00,,,,,,,2,,
00:05:00,,,,,,,0,,
00:06:00,,,,,,,0,,
00:07:00,,,,,,,2,,
00:08:00,,,,,,,2,,
00:09:00,,,,,,,2,,
00:10:00,,,,,,,2,,
00:11:00,,,,,,,1,,
00:12:00,,,,,,,1,,
00:13:00,,,,,,,1,,
00:14:00,,,,,,,0,,
00:15:00,,,,,,,0,,
00:16:00,,,,,,,1,,
00:17:00,,,,,,,1,,
00:18:00,,,,,,,0,,
00:19:00,,,,,,,1,,
00:20:00,,,,,,,0,,
00:21:00,,,,,,,1,,
00:22:00,,,,,,,3,,
00:23:00,,,,,,,0,,
00:24:00,,,,,,,0,,
00:25:00,,,,,,,2,,
00:26:00,,,,,,,2,,
00:27:00,,,,,,,0,,
00:28:00,,,,,,,3,,
00:29:00,,,,,,,2,,
00:30:00,,,,,,,1,,
00:31:00,,,,,,,2,,
00:32:00,,,,,,,0,,
00:33:00,,,,,,,2,,
00:34:00,,,,,,,1,,
00:35:00,,,,,,,1,,
00:36:00,,,,,,,2,,
00:37:00,,,,,,,0,,
00:38:00,,,,,,,3,,
00:39:00,,,,,,,1,,
00:40:00,,,,,,,0,,
00:41:00,,,,,,,2,,
00:42:00,,,,,,,1,,
00:43:00,,,,,,,1,,
00:44:00,,,,,,,0,,
00:45:00,,,,,,,2,,
00:46:00,,,,,,,0,,
00:47:00,,,,,,,0,,
00:48:00,,,,,,,1,,
00:49:00,,,,,,,0,,
00:50:00,,,,,,,2,,
00:51:00,,,,,,,0,,
00:52:00,,,,,,,1,,
00:53:00,,,,,,,1,,
00:54:00,,,,,,,1,,
00:55:00,,,,,,,0,,
00:56:00,,,,,,,1,,
00:57:00,,,,,,,2,,
00:58:00,,,,,,,2,,
00:59:00,,,,,,,0,,
01:00:00,,,,,,,1,,
01:01:00,,,,,,,2,,
01:02:00,,,,,,,0,,
01:03:00,,,,,,,1,,
01:04:00,,,,,,,0,,
01:05:00,,,,,,,2,,
01:06:00,,,,,,,1,,
01:07:00,,,,,,,2,,
01:08:00,,,,,,,1,,
01:09:00,,,,,,,3,,
01:10:00,,,,,,,2,,
01:11:00,,,,,,,0,,
01:12:00,,,,,,,1,,
01:13:00,,,,,,,0,,
01:14:00,,,,,,,3,,
01:15:00,,,,,,,1,,
01:16:00,,,,,,,0,,
01:17:00,,,,,,,1,,
01:18:00,,,,,,,0,,
01:19:00,,,,,,,3,,
01:20:00,,,,,,,0,,
01:21:00,,,,,,,0,,
01:22:00,,,,,,,1,,
01:23:00,,,,,,,0,,
01:24:00,,,,,,,1,,
01:25:00,,,,,,,1,,
01:26:00,,,,,,,2,,
01:27:00,,,,,,,0,,
01:28:00,,,,,,,0,,
01:29:00,,,,,,,0,,
01:30:00,,,,,,,1,,
01:31:00,,,,,,,1,,
01:32:00,,,,,,,1,,
01:33:00,,,,,,,0,,
01:34:00,,,,,,,0,,
01:35:00,,,,,,,0,,
01:36:00,,,,,,,0,,
01:37:00,,,,,,,0,,
01:38:00,,,,,,,0,,
01:39:00,,,,,,,0,,
01:40:00,,,,,,,0,,
01:41:00,,,,,,,1,,
01:42:00,,,,,,,0,,
01:43:00,,,,,,,0,,
01:44:00,,,,,,,1,,
01:45:00,,,,,,,0,,
01:46:00,,,,,,,1,,
01:47:00,,,,,,,0,,
01:48:00,,,,,,,0,,
01:49:00,,,,,,,1,,
01:50:00,,,,,,,1,,
01:51:00,,,,,,,0,,
01:52:00,,,,,,,0,,
01:53:00,,,,,,,0,,
01:54:00,,,,,,,0,,
01:55:00,,,,,,,0,,
01:56:00,,,,,,,3,,
01:57:00,,,,,,,1,,
01:58:00,,,,,,,0,,
01:59:00,,,,,,,1,,
02:00:00,,,,,,,0,,
02:01:00,,,,,,,1,,
02:02:00,,,,,,,2,,
02:03:00,,,,,,,2,,
02:04:00,,,,,,,1,,
02:05:00,,,,,,,0,,
02:06:00,,,,,,,0,,
02:07:00,,,,,,,0,,
02:08:00,,,,,,,0,,
02:09:00,,,,,,,0,,
02:10:00,,,,,,,2,,
02:11:00,,,,,,,0,,
02:12:00,,,,,,,0,,
02:13:00,,,,,,,0,,
02:14:00,,,,,,,0,,
02:15:00,,,,,,,1,,
02:16:00,,,,,,,0,,
02:17:00,,,,,,,0,,
02:18:00,,,,,,,0,,
02:19:00,,,,,,,3,,
02:20:00,,,,,,,0,,
02:21:00,,,,,,,0,,
02:22:00,,,,,,,0,,
02:23:00,,,,,,,0,,
02:24:00,,,,,,,0,,
02:25:00,,,,,,,0,,
02:26:00,,,,,,,0,,
02:27:00,,,,,,,2,,
02:28:00,,,,,,,0,,
02:29:00,,,,,,,0,,
02:30:00,,,,,,,0,,
02:31:00,,,,,,,0,,
02:32:00,,,,,,,0,,
02:33:00,,,,,,,1,,
02:34:00,,,,,,,0,,
02:35:00,,,,,,,0,,
02:36:00,,,,,,,0,,
02:37:00,,,,,,,1,,
02:38:00,,,,,,,0,,
02:39:00,,,,,,,0,,
02:40:00,,,,,,,0,,
02:41:00,,,,,,,0,,
02:42:00,,,,,,,0,,
02:43:00,,,,,,,0,,
02:44:00,,,,,,,0,,
02:45:00,,,,,,,0,,
02:46:00,,,,,,,0,,
02:47:00,,,,,,,0,,
02:48:00,,,,,,,1,,
02:49:00,,,,,,,0,,
02:50:00,,,,,,,0,,
02:51:00,,,,,,,1,,
02:52:00,,,,,,,0,,
02:53:00,,,,,,,1,,
02:54:00,,,,,,,0,,
02:55:00,,,,,,,0,,
02:56:00,,,,,,,0,,
02:57:00,,,,,,,0,,
02:58:00,,,,,,,0,,
02:59:00,,,,,,,0,,
03:00:00,,,,,,,0,,
03:01:00,,,,,,,0,,
03:02:00,,,,,,,0,,
03:03:00,,,,,,,0,,
03:04:00,,,,,,,0,,
03:05:00,,,,,,,0,,
03:06:00,,,,,,,0,,
03:07:00,,,,,,,0,,
03:08:00,,,,,,,0,,
03:09:00,,,,,,,2,,
03:10:00,,,,,,,0,,
03:11:00,,,,,,,0,,
03:12:00,,,,,,,1,,
03:13:00,,,,,,,0,,
03:14:00,,,,,,,0,,
03:15:00,,,,,,,0,,
03:16:00,,,,,,,1,,
03:17:00,,,,,,,1,,
03:18:00,,,,,,,0,,
03:19:00,,,,,,,1,,
03:20:00,,,,,,,0,,
03:21:00,,,,,,,0,,
03:22:00,,,,,,,0,,
03:23:00,,,,,,,1,,
03:24:00,,,,,,,0,,
03:25:00,,,,,,,0,,
03:26:00,,,,,,,1,,
03:27:00,,,,,,,0,,
03:28:00,,,,,,,0,,
03:29:00,,,,,,,0,,
03:30:00,,,,,,,0,,
03:31:00,,,,,,,0,,
03:32:00,,,,,,,0,,
03:33:00,,,,,,,0,,
03:34:00,,,,,,,0,,
03:35:00,,,,,,,1,,
03:36:00,,,,,,,0,,
03:37:00,,,,,,,0,,
03:38:00,,,,,,,0,,
03:39:00,,,,,,,0,,
03:40:00,,,,,,,0,,
03:41:00,,,,,,,1,,
03:42:00,,,,,,,0,,
03:43:00,,,,,,,1,,
03:44:00,,,,,,,0,,
03:45:00,,,,,,,0,,
03:46:00,,,,,,,0,,
03:47:00,,,,,,,0,,
03:48:00,,,,,,,1,,
03:49:00,,,,,,,0,,
03:50:00,,,,,,,1,,
03:51:00,,,,,,,0,,
03:52:00,,,,,,,1,,
03:53:00,,,,,,,1,,
03:54:00,,,,,,,0,,
03:55:00,,,,,,,0,,
03:56:00,,,,,,,0,,
03:57:00,,,,,,,0,,
03:58:00,,,,,,,0,,
03:59:00,,,,,,,0,,
04:00:00,,,,,,,1,,
04:01:00,,,,,,,0,,
04:02:00,,,,,,,0,,
04:03:00,,,,,,,1,,
04:04:00,,,,,,,0,,
04:05:00,,,,,,,0,,
04:06:00,,,,,,,0,,
04:07:00,,,,,,,0,,
04:08:00,,,,,,,0,,
04:09:00,,,,,,,0,,
04:10:00,,,,,,,0,,
04:11:00,,,,,,,1,,
04:12:00,,,,,,,0,,
04:13:00,,,,,,,0,,
04:14:00,,,,,,,0,,
04:15:00,,,,,,,1,,
04:16:00,,,,,,,0,,
04:17:00,,,,,,,0,,
04:18:00,,,,,,,0,,
04:19:00,,,,,,,0,,
04:20:00,,,,,,,0,,
04:21:00,,,,,,,0,,
04:22:00,,,,,,,1,,
04:23:00,,,,,,,0,,
04:24:00,,,,,,,0,,
04:25:00,,,,,,,0,,
04:26:00,,,,,,,0,,
04:27:00,,,,,,,0,,
04:28:00,,,,,,,0,,
04:29:00,,,,,,,0,,
04:30:00,,,,,,,0,,
04:31:00,,,,,,,0,,
04:32:00,,,,,,,1,,
04:33:00,,,,,,,0,,
04:34:00,,,,,,,0,,
04:35:00,,,,,,,0,,
04:36:00,,,,,,,0,,
04:37:00,,,,,,,0,,
04:38:00,,,,,,,0,,
04:39:00,,,,,,,0,,
04:40:00,,,,,,,0,,
04:41:00,,,,,,,0,,
04:42:00,,,,,,,0,,
04:43:00,,,,,,,0,,
04:44:00,,,,,,,1,,
04:45:00,,,,,,,0,,
04:46:00,,,,,,,0,,
04:47:00,,,,,,,0,,
04:48:00,,,,,,,0,,
04:49:00,,,,,,,0,,
04:50:00,,,,,,,0,,
04:51:00,,,,,,,0,,
04:52:00,,,,,,,0,,
04:53:00,,,,,,,0,,
04:54:00,,,,,,,1,,
04:55:00,,,,,,,0,,
04:56:00,,,,,,,0,,
04:57:00,,,,,,,1,,
04:58:00,,,,,,,0,,
04:59:00,,,,,,,1,,
05:00:00,,,,,,,0,,
05:01:00,,,,,,,0,,
05:02:00,,,,,,,0,,
05:03:00,,,,,,,0,,
05:04:00,,,,,,,1,,
05:05:00,,,,,,,0,,
05:06:00,,,,,,,0,,
05:07:00,,,,,,,0,,
05:08:00,,,,,,,0,,
05:09:00,,,,,,,1,,
05:10:00,,,,,,,1,,
05:11:00,,,,,,,0,,
05:12:00,,,,,,,0,,
05:13:00,,,,,,,2,,
05:14:00,,,,,,,0,,
05:15:00,,,,,,,0,,
05:16:00,,,,,,,0,,
05:17:00,,,,,,,0,,
05:18:00,,,,,,,0,,
05:19:00,,,,,,,0,,
05:20:00,,,,,,,0,,
05:21:00,,,,,,,0,,
05:22:00,,,,,,,0,,
05:23:00,,,,,,,0,,
05:24:00,,,,,,,1,,
05:25:00,,,,,,,0,,
05:26:00,,,,,,,0,,
05:27:00,,,,,,,0,,
05:28:00,,,,,,,0,,
05:29:00,,,,,,,0,,
05:30:00,,,,,,,0,,
05:31:00,,,,,,,0,,
05:32:00,,,,,,,1,,
05:33:00,,,,,,,0,,
05:34:00,,,,,,,0,,
05:35:00,,,,,,,0,,
05:36:00,,,,,,,0,,
05:37:00,,,,,,,0,,
05:38:00,,,,,,,0,,
05:39:00,,,,,,,0,,
05:40:00,,,,,,,0,,
05:41:00,,,,,,,0,,
05:42:00,,,,,,,1,,
05:43:00,,,,,,,0,,
05:44:00,,,,,,,2,,
05:45:00,,,,,,,1,,
05:46:00,,,,,,,0,,
05:47:00,,,,,,,0,,
05:48:00,,,,,,,1,,
05:49:00,,,,,,,0,,
05:50:00,,,,,,,1,,
05:51:00,,,,,,,1,,
05:52:00,,,,,,,0,,
05:53:00,,,,,,,0,,
05:54:00,,,,,,,0,,
05:55:00,,,,,,,0,,
05:56:00,,,,,,,0,,
05:57:00,,,,,,,1,,
05:58:00,,,,,,,2,,
05:59:00,,,,,,,0,,
06:00:00,,,,,,,1,,
06:01:00,,,,,,,1,,
06:02:00,,,,,,,3,,
06:03:00,,,,,,,2,,
06:04:00,,,,,,,1,,
06:05:00,,,,,,,1,,
06:06:00,,,,,,,0,,
06:07:00,,,,,,,1,,
06:08:00,,,,,,,3,,
06:09:00,,,,,,,0,,
06:10:00,,,,,,,1,,
06:11:00,,,,,,,1,,
06:12:00,,,,,,,2,,
06:13:00,,,,,,,1,,
06:14:00,,,,,,,1,,
06:15:00,,,,,,,3,,
06:16:00,,,,,,,1,,
06:17:00,,,,,,,0,,
06:18:00,,,,,,,1,,
06:19:00,,,,,,,1,,
06:20:00,,,,,,,0,,
06:21:00,,,,,,,0,,
06:22:00,,,,,,,0,,
06:23:00,,,,,,,1,,
06:24:00,,,,,,,1,,
06:25:00,,,,,,,0,,
06:26:00,,,,,,,2,,
06:27:00,,,,,,,2,,
06:28:00,,,,,,,1,,
06:29:00,,,,,,,0,,
06:30:00,,,,,,,3,,
06:31:00,,,,,,,0,,
06:32:00,,,,,,,1,,
06:33:00,,,,,,,5,,
06:34:00,,,,,,,1,,
06:35:00,,,,,,,0,,
06:36:00,,,,,,,0,,
06:37:00,,,,,,,2,,
06:38:00,,,,,,,6,,
06:39:00,,,,,,,4,,
06:40:00,,,,,,,0,,
06:41:00,,,,,,,3,,
06:42:00,,,,,,,1,,
06:43:00,,,,,,,4,,
06:44:00,,,,,,,1,,
06:45:00,,,,,,,3,,
06:46:00,,,,,,,2,,
06:47:00,,,,,,,0,,
06:48:00,,,,,,,2,,
06:49:00,,,,,,,2,,
06:50:00,,,,,,,2,,
06:51:00,,,,,,,1,,
06:52:00,,,,,,,1,,
06:53:00,,,,,,,5,,
06:54:00,,,,,,,2,,
06:55:00,,,,,,,3,,
06:56:00,,,,,,,2,,
06:57:00,,,,,,,2,,
06:58:00,,,,,,,2,,
06:59:00,,,,,,,1,,
07:00:00,,,,,,,2,,
07:01:00,,,,,,,2,,
07:02:00,,,,,,,3,,
07:03:00,,,,,,,2,,
07:04:00,,,,,,,2,,
07:05:00,,,,,,,6,,
07:06:00,,,,,,,1,,
07:07:00,,,,,,,5,,
07:08:00,,,,,,,8,,
07:09:00,,,,,,,1,,
07:10:00,,,,,,,4,,
07:11:00,,,,,,,3,,
07:12:00,,,,,,,3,,
07:13:00,,,,,,,2,,
07:14:00,,,,,,,4,,
07:15:00,,,,,,,5,,
07:16:00,,,,,,,4,,
07:17:00,,,,,,,4,,
07:18:00,,,,,,,2,,
07:19:00,,,,,,,1,,
07:20:00,,,,,,,1,,
07:21:00,,,,,,,3,,
07:22:00,,,,,,,1,,
07:23:00,,,,,,,5,,
07:24:00,,,,,,,3,,
07:25:00,,,,,,,1,,
07:26:00,,,,,,,1,,
07:27:00,,,,,,,2,,
07:28:00,,,,,,,2,,
07:29:00,,,,,,,1,,
07:30:00,,,,,,,2,,
07:31:00,,,,,,,3,,
07:32:00,,,,,,,1,,
07:33:00,,,,,,,6,,
07:34:00,,,,,,,3,,
07:35:00,,,,,,,4,,
07:36:00,,,,,,,5,,
07:37:00,,,,,,,2,,
07:38:00,,,,,,,3,,
07:39:00,,,,,,,1,,
07:40:00,,,,,,,4,,
07:41:00,,,,,,,5,,
07:42:00,,,,,,,3,,
07:43:00,,,,,,,2,,
07:44:00,,,,,,,4,,
07:45:00,,,,,,,2,,
07:46:00,,,,,,,4,,
07:47:00,,,,,,,3,,
07:48:00,,,,,,,6,,
07:49:00,,,,,,,4,,
07:50:00,,,,,,,5,,
07:51:00,,,,,,,1,,
07:52:00,,,,,,,3,,
07:53:00,,,,,,,3,,
07:54:00,,,,,,,3,,
07:55:00,,,,,,,3,,
07:56:00,,,,,,,1,,
07:57:00,,,,,,,3,,
07:58:00,,,,,,,4,,
07:59:00,,,,,,,5,,
08:00:00,,,,,,,3,,
08:01:00,,,,,,,2,,
08:02:00,,,,,,,4,,
08:03:00,,,,,,,1,,
08:04:00,,,,,,,2,,
08:05:00,,,,,,,2,,
08:06:00,,,,,,,1,,
08:07:00,,,,,,,4,,
08:08:00,,,,,,,4,,
08:09:00,,,,,,,2,,
08:10:00,,,,,,,1,,
08:11:00,,,,,,,1,,
08:12:00,,,,,,,0,,
08:13:00,,,,,,,0,,
08:14:00,,,,,,,2,,
08:15:00,,,,,,,2,,
08:16:00,,,,,,,2,,
08:17:00,,,,,,,3,,
08:18:00,,,,,,,2,,
08:19:00,,,,,,,3,,
08:20:00,,,,,,,3,,
08:21:00,,,,,,,3,,
08:22:00,,,,,,,1,,
08:23:00,,,,,,,2,,
08:24:00,,,,,,,1,,
08:25:00,,,,,,,3,,
08:26:00,,,,,,,2,,
08:27:00,,,,,,,2,,
08:28:00,,,,,,,2,,
08:29:00,,,,,,,2,,
08:30:00,,,,,,,2,,
08:31:00,,,,,,,1,,
08:32:00,,,,,,,1,,
08:33:00,,,,,,,3,,
08:34:00,,,,,,,5,,
08:35:00,,,,,,,5,,
08:36:00,,,,,,,5,,
08:37:00,,,,,,,6,,
08:38:00,,,,,,,4,,
08:39:00,,,,,,,4,,
08:40:00,,,,,,,3,,
08:41:00,,,,,,,1,,
08:42:00,,,,,,,4,,
08:43:00,,,,,,,5,,
08:44:00,,,,,,,3,,
08:45:00,,,,,,,5,,
08:46:00,,,,,,,5,,
08:47:00,,,,,,,6,,
08:48:00,,,,,,,5,,
08:49:00,,,,,,,3,,
08:50:00,,,,,,,5,,
08:51:00,,,,,,,1,,
08:52:00,,,,,,,3,,
08:53:00,,,,,,,5,,
08:54:00,,,,,,,5,,
08:55:00,,,,,,,0,,
08:56:00,,,,,,,1,,
08:57:00,,,,,,,4,,
08:58:00,,,,,,,3,,
08:59:00,,,,,,,6,,
09:00:00,,,,,,,7,,
09:01:00,,,,,,,1,,
09:02:00,,,,,,,5,,
09:03:00,,,,,,,4,,
09:04:00,,,,,,,7,,
09:05:00,,,,,,,1,,
09:06:00,,,,,,,4,,
09:07:00,,,,,,,2,,
09:08:00,,,,,,,7,,
09:09:00,,,,,,,5,,
09:10:00,,,,,,,6,,
09:11:00,,,,,,,6,,
09:12:00,,,,,,,1,,
09:13:00,,,,,,,9,,
09:14:00,,,,,,,4,,
09:15:00,,,,,,,5,,
09:16:00,,,,,,,7,,
09:17:00,,,,,,,7,,
09:18:00,,,,,,,5,,
09:19:00,,,,,,,6,,
09:20:00,,,,,,,3,,
09:21:00,,,,,,,3,,
09:22:00,,,,,,,6,,
09:23:00,,,,,,,8,,
09:24:00,,,,,,,6,,
09:25:00,,,,,,,1,,
09:26:00,,,,,,,4,,
09:27:00,,,,,,,7,,
09:28:00,,,,,,,4,,
09:29:00,,,,,,,6,,
09:30:00,,,,,,,5,,
09:31:00,,,,,,,5,,
09:32:00,,,,,,,7,,
09:33:00,,,,,,,6,,
09:34:00,,,,,,,7,,
09:35:00,,,,,,,7,,
09:36:00,,,,,,,7,,
09:37:00,,,,,,,8,,
09:38:00,,,,,,,3,,
09:39:00,,,,,,,7,,
09:40:00,,,,,,,2,,
09:41:00,,,,,,,7,,
09:42:00,,,,,,,4,,
09:43:00,,,,,,,7,,
09:44:00,,,,,,,6,,
09:45:00,,,,,,,8,,
09:46:00,,,,,,,7,,
09:47:00,,,,,,,5,,
09:48:00,,,,,,,12,,
09:49:00,,,,,,,7,,
09:50:00,,,,,,,9,,
09:51:00,,,,,,,6,,
09:52:00,,,,,,,6,,
09:53:00,,,,,,,8,,
09:54:00,,,,,,,7,,
09:55:00,,,,,,,7,,
09:56:00,,,,,,,6,,
09:57:00,,,,,,,4,,
09:58:00,,,,,,,6,,
09:59:00,,,,,,,13,,
10:00:00,,,,,,,10,,
10:01:00,,,,,,,4,,
10:02:00,,,,,,,5,,
10:03:00,,,,,,,7,,
10:04:00,,,,,,,10,,
10:05:00,,,,,,,10,,
10:06:00,,,,,,,6,,
10:07:00,,,,,,,8,,
10:08:00,,,,,,,7,,
10:09:00,,,,,,,13,,
10:10:00,,,,,,,7,,
10:11:00,,,,,,,15,,
10:12:00,,,,,,,13,,
10:13:00,,,,,,,10,,
10:14:00,,,,,,,8,,
10:15:00,,,,,,,10,,
10:16:00,,,,,,,13,,
10:17:00,,,,,,,10,,
10:18:00,,,,,,,14,,
10:19:00,,,,,,,11,,
10:20:00,,,,,,,11,,
10:21:00,,,,,,,16,,
10:22:00,,,,,,,9,,
10:23:00,,,,,,,7,,
10:24:00,,,,,,,13,,
10:25:00,,,,,,,11,,
10:26:00,,,,,,,10,,
10:27:00,,,,,,,3,,
10:28:00,,,,,,,7,,
10:29:00,,,,,,,6,,
10:30:00,,,,,,,10,,
10:31:00,,,,,,,9,,
10:32:00,,,,,,,9,,
10:33:00,,,,,,,17,,
10:34:00,,,,,,,11,,
10:35:00,,,,,,,5,,
10:36:00,,,,,,,7,,
10:37:00,,,,,,,10,,
10:38:00,,,,,,,11,,
10:39:00,,,,,,,9,,
10:40:00,,,,,,,7,,
10:41:00,,,,,,,10,,
10:42:00,,,,,,,7,,
10:43:00,,,,,,,7,,
10:44:00,,,,,,,9,,
10:45:00,,,,,,,12,,
10:46:00,,,,,,,9,,
10:47:00,,,,,,,13,,
10:48:00,,,,,,,8,,
10:49:00,,,,,,,9,,
10:50:00,,,,,,,7,,
10:51:00,,,,,,,9,,
10:52:00,,,,,,,17,,
10:53:00,,,,,,,12,,
10:54:00,,,,,,,11,,
10:55:00,,,,,,,8,,
10:56:00,,,,,,,15,,
10:57:00,,,,,,,8,,
10:58:00,,,,,,,6,,
10:59:00,,,,,,,8,,
11:00:00,,,,,,,10,,
11:01:00,,,,,,,16,,
11:02:00,,,,,,,10,,
11:03:00,,,,,,,10,,
11:04:00,,,,,,,9,,
11:05:00,,,,,,,6,,
11:06:00,,,,,,,10,,
11:07:00,,,,,,,11,,
11:08:00,,,,,,,18,,
11:09:00,,,,,,,3,,
11:10:00,,,,,,,7,,
11:11:00,,,,,,,12,,
11:12:00,,,,,,,12,,
11:13:00,,,,,,,12,,
11:14:00,,,,,,,7,,
11:15:00,,,,,,,7,,
11:16:00,,,,,,,15,,
11:17:00,,,,,,,8,,
11:18:00,,,,,,,9,,
11:19:00,,,,,,,12,,
11:20:00,,,,,,,7,,
11:21:00,,,,,,,10,,
11:22:00,,,,,,,6,,
11:23:00,,,,,,,11,,
11:24:00,,,,,,,11,,
11:25:00,,,,,,,15,,
11:26:00,,,,,,,8,,
11:27:00,,,,,,,10,,
11:28:00,,,,,,,8,,
11:29:00,,,,,,,9,,
11:30:00,,,,,,,8,,
11:31:00,,,,,,,11,,
11:32:00,,,,,,,13,,
11:33:00,,,,,,,19,,
11:34:00,,,,,,,11,,
11:35:00,,,,,,,12,,
11:36:00,,,,,,,9,,
11:37:00,,,,,,,6,,
11:38:00,,,,,,,10,,
11:39:00,,,,,,,11,,
11:40:00,,,,,,,14,,
11:41:00,,,,,,,9,,
11:42:00,,,,,,,9,,
11:43:00,,,,,,,10,,
11:44:00,,,,,,,10,,
11:45:00,,,,,,,10,,
11:46:00,,,,,,,9,,
11:47:00,,,,,,,6,,
11:48:00,,,,,,,6,,
11:49:00,,,,,,,13,,
11:50:00,,,,,,,10,,
11:51:00,,,,,,,10,,
11:52:00,,,,,,,10,,
11:53:00,,,,,,,12,,
11:54:00,,,,,,,14,,
11:55:00,,,,,,,12,,
11:56:00,,,,,,,8,,
11:57:00,,,,,,,12,,
11:58:00,,,,,,,12,,
11:59:00,,,,,,,11,,
12:00:00,,,,,,,20,,
12:01:00,,,,,,,10,,
12:02:00,,,,,,,18,,
12:03:00,,,,,,,13,,
12:04:00,,,,,,,8,,
12:05:00,,,,,,,9,,
12:06:00,,,,,,,11,,
12:07:00,,,,,,,10,,
12:08:00,,,,,,,9,,
12:09:00,,,,,,,9,,
12:10:00,,,,,,,7,,
12:11:00,,,,,,,9,,
12:12:00,,,,,,,9,,
12:13:00,,,,,,,13,,
12:14:00,,,,,,,14,,
12:15:00,,,,,,,16,,
12:16:00,,,,,,,10,,
12:17:00,,,,,,,10,,
12:18:00,,,,,,,13,,
12:19:00,,,,,,,8,,
12:20:00,,,,,,,10,,
12:21:00,,,,,,,14,,
12:22:00,,,,,,,12,,
12:23:00,,,,,,,8,,
12:24:00,,,,,,,10,,
12:25:00,,,,,,,11,,
12:26:00,,,,,,,7,,
12:27:00,,,,,,,14,,
12:28:00,,,,,,,11,,
12:29:00,,,,,,,10,,
12:30:00,,,,,,,13,,
12:31:00,,,,,,,14,,
12:32:00,,,,,,,9,,
12:33:00,,,,,,,8,,
12:34:00,,,,,,,8,,
12:35:00,,,,,,,11,,
12:36:00,,,,,,,15,,
12:37:00,,,,,,,12,,
12:38:00,,,,,,,12,,
12:39:00,,,,,,,4,,
12:40:00,,,,,,,10,,
12:41:00,,,,,,,12,,
12:42:00,,,,,,,10,,
12:43:00,,,,,,,9,,
12:44:00,,,,,,,14,,
12:45:00,,,,,,,13,,
12:46:00,,,,,,,9,,
12:47:00,,,,,,,11,,
12:48:00,,,,,,,11,,
12:49:00,,,,,,,13,,
12:50:00,,,,,,,14,,
12:51:00,,,,,,,13,,
12:52:00,,,,,,,8,,
12:53:00,,,,,,,8,,
12:54:00,,,,,,,14,,
12:55:00,,,,,,,9,,
12:56:00,,,,,,,17,,
12:57:00,,,,,,,10,,
12:58:00,,,,,,,12,,
12:59:00,,,,,,,9,,
13:00:00,,,,,,,17,,
13:01:00,,,,,,,12,,
13:02:00,,,,,,,14,,
13:03:00,,,,,,,14,,
13:04:00,,,,,,,15,,
13:05:00,,,,,,,10,,
13:06:00,,,,,,,12,,
13:07:00,,,,,,,12,,
13:08:00,,,,,,,5,,
13:09:00,,,,,,,13,,
13:10:00,,,,,,,10,,
13:11:00,,,,,,,15,,
13:12:00,,,,,,,12,,
13:13:00,,,,,,,11,,
13:14:00,,,,,,,15,,
13:15:00,,,,,,,13,,
13:16:00,,,,,,,13,,
13:17:00,,,,,,,13,,
13:18:00,,,,,,,10,,
13:19:00,,,,,,,6,,
13:20:00,,,,,,,10,,
13:21:00,,,,,,,16,,
13:22:00,,,,,,,9,,
13:23:00,,,,,,,8,,
13:24:00,,,,,,,17,,
13:25:00,,,,,,,11,,
13:26:00,,,,,,,12,,
13:27:00,,,,,,,18,,
13:28:00,,,,,,,12,,
13:29:00,,,,,,,12,,
13:30:00,,,,,,,6,,
13:31:00,,,,,,,7,,
13:32:00,,,,,,,14,,
13:33:00,,,,,,,8,,
13:34:00,,,,,,,12,,
13:35:00,,,,,,,7,,
13:36:00,,,,,,,10,,
13:37:00,,,,,,,12,,
13:38:00,,,,,,,10,,
13:39:00,,,,,,,9,,
13:40:00,,,,,,,5,,
13:41:00,,,,,,,13,,
13:42:00,,,,,,,13,,
13:43:00,,,,,,,12,,
13:44:00,,,,,,,13,,
13:45:00,,,,,,,3,,
13:46:00,,,,,,,12,,
13:47:00,,,,,,,12,,
13:48:00,,,,,,,7,,
13:49:00,,,,,,,5,,
13:50:00,,,,,,,12,,
13:51:00,,,,,,,15,,
13:52:00,,,,,,,11,,
13:53:00,,,,,,,10,,
13:54:00,,,,,,,9,,
13:55:00,,,,,,,11,,
13:56:00,,,,,,,15,,
13:57:00,,,,,,,14,,
13:58:00,,,,,,,9,,
13:59:00,,,,,,,11,,
14:00:00,,,,,,,11,,
14:01:00,,,,,,,12,,
14:02:00,,,,,,,15,,
14:03:00,,,,,,,14,,
14:04:00,,,,,,,9,,
14:05:00,,,,,,,15,,
14:06:00,,,,,,,11,,
14:07:00,,,,,,,9,,
14:08:00,,,,,,,11,,
14:09:00,,,,,,,13,,
14:10:00,,,,,,,14,,
14:11:00,,,,,,,10,,
14:12:00,,,,,,,11,,
14:13:00,,,,,,,9,,
14:14:00,,,,,,,15,,
14:15:00,,,,,,,11,,
14:16:00,,,,,,,10,,
14:17:00,,,,,,,9,,
14:18:00,,,,,,,6,,
14:19:00,,,,,,,13,,
14:20:00,,,,,,,10,,
14:21:00,,,,,,,7,,
14:22:00,,,,,,,2,,
14:23:00,,,,,,,8,,
14:24:00,,,,,,,14,,
14:25:00,,,,,,,12,,
14:26:00,,,,,,,7,,
14:27:00,,,,,,,13,,
14:28:00,,,,,,,9,,
14:29:00,,,,,,,12,,
14:30:00,,,,,,,5,,
14:31:00,,,,,,,14,,
14:32:00,,,,,,,11,,
14:33:00,,,,,,,10,,
14:34:00,,,,,,,7,,
14:35:00,,,,,,,9,,
14:36:00,,,,,,,10,,
14:37:00,,,,,,,4,,
14:38:00,,,,,,,12,,
14:39:00,,,,,,,7,,
14:40:00,,,,,,,9,,
14:41:00,,,,,,,6,,
14:42:00,,,,,,,7,,
14:43:00,,,,,,,10,,
14:44:00,,,,,,,12,,
14:45:00,,,,,,,9,,
14:46:00,,,,,,,12,,
14:47:00,,,,,,,5,,
14:48:00,,,,,,,8,,
14:49:00,,,,,,,6,,
14:50:00,,,,,,,9,,
14:51:00,,,,,,,12,,
14:52:00,,,,,,,6,,
14:53:00,,,,,,,7,,
14:54:00,,,,,,,4,,
14:55:00,,,,,,,11,,
14:56:00,,,,,,,8,,
14:57:00,,,,,,,8,,
14:58:00,,,,,,,12,,
14:59:00,,,,,,,12,,
15:00:00,,,,,,,6,,
15:01:00,,,,,,,13,,
15:02:00,,,,,,,8,,
15:03:00,,,,,,,14,,
15:04:00,,,,,,,12,,
15:05:00,,,,,,,7,,
15:06:00,,,,,,,9,,
15:07:00,,,,,,,13,,
15:08:00,,,,,,,12,,
15:09:00,,,,,,,13,,
15:10:00,,,,,,,8,,
15:11:00,,,,,,,6,,
15:12:00,,,,,,,16,,
15:13:00,,,,,,,9,,
15:14:00,,,,,,,5,,
15:15:00,,,,,,,13,,
15:16:00,,,,,,,12,,
15:17:00,,,,,,,14,,
15:18:00,,,,,,,7,,
15:19:00,,,,,,,10,,
15:20:00,,,,,,,9,,
15:21:00,,,,,,,11,,
15:22:00,,,,,,,9,,
15:23:00,,,,,,,9,,
15:24:00,,,,,,,9,,
15:25:00,,,,,,,10,,
15:26:00,,,,,,,11,,
15:27:00,,,,,,,13,,
15:28:00,,,,,,,8,,
15:29:00,,,,,,,6,,
15:30:00,,,,,,,14,,
15:31:00,,,,,,,6,,
15:32:00,,,,,,,5,,
15:33:00,,,,,,,9,,
15:34:00,,,,,,,11,,
15:35:00,,,,,,,11,,
15:36:00,,,,,,,12,,
15:37:00,,,,,,,8,,
15:38:00,,,,,,,10,,
15:39:00,,,,,,,13,,
15:40:00,,,,,,,8,,
15:41:00,,,,,,,12,,
15:42:00,,,,,,,6,,
15:43:00,,,,,,,10,,
15:44:00,,,,,,,7,,
15:45:00,,,,,,,12,,
15:46:00,,,,,,,9,,
15:47:00,,,,,,,8,,
15:48:00,,,,,,,8,,
15:49:00,,,,,,,14,,
15:50:00,,,,,,,12,,
15:51:00,,,,,,,8,,
15:52:00,,,,,,,12,,
15:53:00,,,,,,,5,,
15:54:00,,,,,,,10,,
15:55:00,,,,,,,7,,
15:56:00,,,,,,,9,,
15:57:00,,,,,,,10,,
15:58:00,,,,,,,10,,
15:59:00,,,,,,,12,,
16:00:00,,,,,,,7,,
16:01:00,,,,,,,11,,
16:02:00,,,,,,,8,,
16:03:00,,,,,,,15,,
16:04:00,,,,,,,13,,
16:05:00,,,,,,,12,,
16:06:00,,,,,,,9,,
16:07:00,,,,,,,7,,
16:08:00,,,,,,,10,,
16:09:00,,,,,,,11,,
16:10:00,,,,,,,6,,
16:11:00,,,,,,,11,,
16:12:00,,,,,,,3,,
16:13:00,,,,,,,7,,
16:14:00,,,,,,,12,,
16:15:00,,,,,,,10,,
16:16:00,,,,,,,12,,
16:17:00,,,,,,,9,,
16:18:00,,,,,,,13,,
16:19:00,,,,,,,17,,
16:20:00,,,,,,,7,,
16:21:00,,,,,,,10,,
16:22:00,,,,,,,9,,
16:23:00,,,,,,,15,,
16:24:00,,,,,,,11,,
16:25:00,,,,,,,9,,
16:26:00,,,,,,,4,,
16:27:00,,,,,,,4,,
16:28:00,,,,,,,5,,
16:29:00,,,,,,,8,,
16:30:00,,,,,,,3,,
16:31:00,,,,,,,5,,
16:32:00,,,,,,,13,,
16:33:00,,,,,,,12,,
16:34:00,,,,,,,7,,
16:35:00,,,,,,,18,,
16:36:00,,,,,,,14,,
16:37:00,,,,,,,7,,
16:38:00,,,,,,,9,,
16:39:00,,,,,,,10,,
16:40:00,,,,,,,8,,
16:41:00,,,,,,,8,,
16:42:00,,,,,,,11,,
16:43:00,,,,,,,9,,
16:44:00,,,,,,,9,,
16:45:00,,,,,,,12,,
16:46:00,,,,,,,7,,
16:47:00,,,,,,,9,,
16:48:00,,,,,,,7,,
16:49:00,,,,,,,6,,
16:50:00,,,,,,,11,,
16:51:00,,,,,,,6,,
16:52:00,,,,,,,8,,
16:53:00,,,,,,,8,,
16:54:00,,,,,,,10,,
16:55:00,,,,,,,7,,
16:56:00,,,,,,,11,,
16:57:00,,,,,,,9,,
16:58:00,,,,,,,7,,
16:59:00,,,,,,,6,,
17:00:00,,,,,,,8,,
17:01:00,,,,,,,5,,
17:02:00,,,,,,,7,,
17:03:00,,,,,,,7,,
17:04:00,,,,,,,4,,
17:05:00,,,,,,,8,,
17:06:00,,,,,,,4,,
17:07:00,,,,,,,4,,
17:08:00,,,,,,,13,,
17:09:00,,,,,,,12,,
17:10:00,,,,,,,3,,
17:11:00,,,,,,,11,,
17:12:00,,,,,,,7,,
17:13:00,,,,,,,10,,
17:14:00,,,,,,,6,,
17:15:00,,,,,,,3,,
17:16:00,,,,,,,6,,
17:17:00,,,,,,,7,,
17:18:00,,,,,,,6,,
17:19:00,,,,,,,3,,
17:20:00,,,,,,,7,,
17:21:00,,,,,,,5,,
17:22:00,,,,,,,6,,
17:23:00,,,,,,,10,,
17:24:00,,,,,,,3,,
17:25:00,,,,,,,7,,
17:26:00,,,,,,,6,,
17:27:00,,,,,,,10,,
17:28:00,,,,,,,6,,
17:29:00,,,,,,,6,,
17:30:00,,,,,,,5,,
17:31:00,,,,,,,6,,
17:32:00,,,,,,,9,,
17:33:00,,,,,,,9,,
17:34:00,,,,,,,4,,
17:35:00,,,,,,,6,,
17:36:00,,,,,,,9,,
17:37:00,,,,,,,9,,
17:38:00,,,,,,,5,,
17:39:00,,,,,,,4,,
17:40:00,,,,,,,9,,
17:41:00,,,,,,,7,,
17:42:00,,,,,,,10,,
17:43:00,,,,,,,7,,
17:44:00,,,,,,,6,,
17:45:00,,,,,,,6,,
17:46:00,,,,,,,4,,
17:47:00,,,,,,,8,,
17:48:00,,,,,,,5,,
17:49:00,,,,,,,3,,
17:50:00,,,,,,,8,,
17:51:00,,,,,,,8,,
17:52:00,,,,,,,2,,
17:53:00,,,,,,,5,,
17:54:00,,,,,,,4,,
17:55:00,,,,,,,9,,
17:56:00,,,,,,,6,,
17:57:00,,,,,,,6,,
17:58:00,,,,,,,7,,
17:59:00,,,,,,,5,,
18:00:00,,,,,,,6,,
18:01:00,,,,,,,3,,
18:02:00,,,,,,,5,,
18:03:00,,,,,,,3,,
18:04:00,,,,,,,5,,
18:05:00,,,,,,,5,,
18:06:00,,,,,,,5,,
18:07:00,,,,,,,11,,
18:08:00,,,,,,,6,,
18:09:00,,,,,,,4,,
18:10:00,,,,,,,0,,
18:11:00,,,,,,,9,,
18:12:00,,,,,,,2,,
18:13:00,,,,,,,7,,
18:14:00,,,,,,,3,,
18:15:00,,,,,,,2,,
18:16:00,,,,,,,7,,
18:17:00,,,,,,,8,,
18:18:00,,,,,,,5,,
18:19:00,,,,,,,6,,
18:20:00,,,,,,,7,,
18:21:00,,,,,,,6,,
18:22:00,,,,,,,6,,
18:23:00,,,,,,,4,,
18:24:00,,,,,,,3,,
18:25:00,,,,,,,3,,
18:26:00,,,,,,,5,,
18:27:00,,,,,,,5,,
18:28:00,,,,,,,7,,
18:29:00,,,,,,,5,,
18:30:00,,,,,,,4,,
18:31:00,,,,,,,3,,
18:32:00,,,,,,,4,,
18:33:00,,,,,,,6,,
18:34:00,,,,,,,2,,
18:35:00,,,,,,,6,,
18:36:00,,,,,,,3,,
18:37:00,,,,,,,5,,
18:38:00,,,,,,,3,,
18:39:00,,,,,,,14,,
18:40:00,,,,,,,5,,
18:41:00,,,,,,,8,,
18:42:00,,,,,,,8,,
18:43:00,,,,,,,3,,
18:44:00,,,,,,,6,,
18:45:00,,,,,,,5,,
18:46:00,,,,,,,5,,
18:47:00,,,,,,,7,,
18:48:00,,,,,,,8,,
18:49:00,,,,,,,5,,
18:50:00,,,,,,,1,,
18:51:00,,,,,,,5,,
18:52:00,,,,,,,6,,
18:53:00,,,,,,,5,,
18:54:00,,,,,,,2,,
18:55:00,,,,,,,2,,
18:56:00,,,,,,,9,,
18:57:00,,,,,,,6,,
18:58:00,,,,,,,5,,
18:59:00,,,,,,,6,,
19:00:00,,,,,,,2,,
19:01:00,,,,,,,4,,
19:02:00,,,,,,,0,,
19:03:00,,,,,,,8,,
19:04:00,,,,,,,3,,
19:05:00,,,,,,,5,,
19:06:00,,,,,,,4,,
19:07:00,,,,,,,7,,
19:08:00,,,,,,,4,,
19:09:00,,,,,,,11,,
19:10:00,,,,,,,5,,
19:11:00,,,,,,,2,,
19:12:00,,,,,,,5,,
19:13:00,,,,,,,6,,
19:14:00,,,,,,,5,,
19:15:00,,,,,,,7,,
19:16:00,,,,,,,6,,
19:17:00,,,,,,,6,,
19:18:00,,,,,,,3,,
19:19:00,,,,,,,6,,
19:20:00,,,,,,,9,,
19:21:00,,,,,,,3,,
19:22:00,,,,,,,4,,
19:23:00,,,,,,,4,,
19:24:00,,,,,,,13,,
19:25:00,,,,,,,5,,
19:26:00,,,,,,,11,,
19:27:00,,,,,,,3,,
19:28:00,,,,,,,10,,
19:29:00,,,,,,,3,,
19:30:00,,,,,,,4,,
19:31:00,,,,,,,5,,
19:32:00,,,,,,,4,,
19:33:00,,,,,,,7,,
19:34:00,,,,,,,3,,
19:35:00,,,,,,,6,,
19:36:00,,,,,,,3,,
19:37:00,,,,,,,6,,
19:38:00,,,,,,,3,,
19:39:00,,,,,,,6,,
19:40:00,,,,,,,6,,
19:41:00,,,,,,,3,,
19:42:00,,,,,,,6,,
19:43:00,,,,,,,2,,
19:44:00,,,,,,,8,,
19:45:00,,,,,,,5,,
19:46:00,,,,,,,6,,
19:47:00,,,,,,,4,,
19:48:00,,,,,,,8,,
19:49:00,,,,,,,1,,
19:50:00,,,,,,,4,,
19:51:00,,,,,,,2,,
19:52:00,,,,,,,4,,
19:53:00,,,,,,,1,,
19:54:00,,,,,,,4,,
19:55:00,,,,,,,3,,
19:56:00,,,,,,,9,,
19:57:00,,,,,,,3,,
19:58:00,,,,,,,5,,
19:59:00,,,,,,,5,,
20:00:00,,,,,,,6,,
20:01:00,,,,,,,8,,
20:02:00,,,,,,,5,,
20:03:00,,,,,,,5,,
20:04:00,,,,,,,2,,
20:05:00,,,,,,,7,,
20:06:00,,,,,,,3,,
20:07:00,,,,,,,7,,
20:08:00,,,,,,,5,,
20:09:00,,,,,,,6,,
20:10:00,,,,,,,9,,
20:11:00,,,,,,,3,,
20:12:00,,,,,,,1,,
20:13:00,,,,,,,4,,
20:14:00,,,,,,,2,,
20:15:00,,,,,,,2,,
20:16:00,,,,,,,8,,
20:17:00,,,,,,,4,,
20:18:00,,,,,,,2,,
20:19:00,,,,,,,5,,
20:20:00,,,,,,,3,,
20:21:00,,,,,,,10,,
20:22:00,,,,,,,8,,
20:23:00,,,,,,,4,,
20:24:00,,,,,,,3,,
20:25:00,,,,,,,5,,
20:26:00,,,,,,,3,,
20:27:00,,,,,,,3,,
20:28:00,,,,,,,5,,
20:29:00,,,,,,,2,,
20:30:00,,,,,,,3,,
20:31:00,,,,,,,4,,
20:32:00,,,,,,,3,,
20:33:00,,,,,,,9,,
20:34:00,,,,,,,3,,
20:35:00,,,,,,,3,,
20:36:00,,,,,,,4,,
20:37:00,,,,,,,6,,
20:38:00,,,,,,,2,,
20:39:00,,,,,,,2,,
20:40:00,,,,,,,3,,
20:41:00,,,,,,,4,,
20:42:00,,,,,,,4,,
20:43:00,,,,,,,3,,
20:44:00,,,,,,,3,,
20:45:00,,,,,,,5,,
20:46:00,,,,,,,1,,
20:47:00,,,,,,,4,,
20:48:00,,,,,,,3,,
20:49:00,,,,,,,2,,
20:50:00,,,,,,,2,,
20:51:00,,,,,,,0,,
20:52:00,,,,,,,7,,
20:53:00,,,,,,,7,,
20:54:00,,,,,,,5,,
20:55:00,,,,,,,1,,
20:56:00,,,,,,,0,,
20:57:00,,,,,,,2,,
20:58:00,,,,,,,4,,
20:59:00,,,,,,,1,,
21:00:00,,,,,,,2,,
21:01:00,,,,,,,3,,
21:02:00,,,,,,,5,,
21:03:00,,,,,,,0,,
21:04:00,,,,,,,4,,
21:05:00,,,,,,,2,,
21:06:00,,,,,,,3,,
21:07:00,,,,,,,2,,
21:08:00,,,,,,,4,,
21:09:00,,,,,,,3,,
21:10:00,,,,,,,4,,
21:11:00,,,,,,,9,,
21:12:00,,,,,,,5,,
21:13:00,,,,,,,6,,
21:14:00,,,,,,,5,,
21:15:00,,,,,,,6,,
21:16:00,,,,,,,1,,
21:17:00,,,,,,,2,,
21:18:00,,,,,,,4,,
21:19:00,,,,,,,2,,
21:20:00,,,,,,,4,,
21:21:00,,,,,,,1,,
21:22:00,,,,,,,2,,
21:23:00,,,,,,,4,,
21:24:00,,,,,,,3,,
21:25:00,,,,,,,1,,
21:26:00,,,,,,,3,,
21:27:00,,,,,,,4,,
21:28:00,,,,,,,4,,
21:29:00,,,,,,,5,,
21:30:00,,,,,,,0,,
21:31:00,,,,,,,0,,
21:32:00,,,,,,,3,,
21:33:00,,,,,,,4,,
21:34:00,,,,,,,3,,
21:35:00,,,,,,,7,,
21:36:00,,,,,,,3,,
21:37:00,,,,,,,3,,
21:38:00,,,,,,,1,,
21:39:00,,,,,,,2,,
21:40:00,,,,,,,1,,
21:41:00,,,,,,,1,,
21:42:00,,,,,,,4,,
21:43:00,,,,,,,0,,
21:44:00,,,,,,,2,,
21:45:00,,,,,,,3,,
21:46:00,,,,,,,5,,
21:47:00,,,,,,,1,,
21:48:00,,,,,,,3,,
21:49:00,,,,,,,0,,
21:50:00,,,,,,,2,,
21:51:00,,,,,,,1,,
21:52:00,,,,,,,3,,
21:53:00,,,,,,,3,,
21:54:00,,,,,,,3,,
21:55:00,,,,,,,0,,
21:56:00,,,,,,,0,,
21:57:00,,,,,,,0,,
21:58:00,,,,,,,3,,
21:59:00,,,,,,,6,,
22:00:00,,,,,,,3,,
22:01:00,,,,,,,4,,
22:02:00,,,,,,,2,,
22:03:00,,,,,,,1,,
22:04:00,,,,,,,4,,
22:05:00,,,,,,,1,,
22:06:00,,,,,,,1,,
22:07:00,,,,,,,2,,
22:08:00,,,,,,,5,,
22:09:00,,,,,,,3,,
22:10:00,,,,,,,2,,
22:11:00,,,,,,,2,,
22:12:00,,,,,,,0,,
22:13:00,,,,,,,6,,
22:14:00,,,,,,,2,,
22:15:00,,,,,,,3,,
22:16:00,,,,,,,2,,
22:17:00,,,,,,,0,,
22:18:00,,,,,,,4,,
22:19:00,,,,,,,4,,
22:20:00,,,,,,,1,,
22:21:00,,,,,,,2,,
22:22:00,,,,,,,2,,
22:23:00,,,,,,,1,,
22:24:00,,,,,,,0,,
22:25:00,,,,,,,0,,
22:26:00,,,,,,,1,,
22:27:00,,,,,,,1,,
22:28:00,,,,,,,2,,
22:29:00,,,,,,,1,,
22:30:00,,,,,,,0,,
22:31:00,,,,,,,2,,
22:32:00,,,,,,,4,,
22:33:00,,,,,,,0,,
22:34:00,,,,,,,0,,
22:35:00,,,,,,,2,,
22:36:00,,,,,,,1,,
22:37:00,,,,,,,1,,
22:38:00,,,,,,,2,,
22:39:00,,,,,,,0,,
22:40:00,,,,,,,2,,
22:41:00,,,,,,,0,,
22:42:00,,,,,,,0,,
22:43:00,,,,,,,0,,
22:44:00,,,,,,,1,,
22:45:00,,,,,,,0,,
22:46:00,,,,,,,1,,
22:47:00,,,,,,,0,,
22:48:00,,,,,,,2,,
22:49:00,,,,,,,1,,
22:50:00,,,,,,,3,,
22:51:00,,,,,,,2,,
22:52:00,,,,,,,0,,
22:53:00,,,,,,,0,,
22:54:00,,,,,,,0,,
22:55:00,,,,,,,1,,
22:56:00,,,,,,,1,,
22:57:00,,,,,,,0,,
22:58:00,,,,,,,1,,
22:59:00,,,,,,,0,,
23:00:00,,,,,,,2,,
23:01:00,,,,,,,3,,
23:02:00,,,,,,,0,,
23:03:00,,,,,,,1,,
23:04:00,,,,,,,0,,
23:05:00,,,,,,,1,,
23:06:00,,,,,,,0,,
23:07:00,,,,,,,2,,
23:08:00,,,,,,,1,,
23:09:00,,,,,,,1,,
23:10:00,,,,,,,0,,
23:11:00,,,,,,,3,,
23:12:00,,,,,,,1,,
23:13:00,,,,,,,1,,
23:14:00,,,,,,,0,,
23:15:00,,,,,,,1,,
23:16:00,,,,,,,0,,
23:17:00,,,,,,,0,,
23:18:00,,,,,,,1,,
23:19:00,,,,,,,0,,
23:20:00,,,,,,,1,,
23:21:00,,,,,,,0,,
23:22:00,,,,,,,1,,
23:23:00,,,,,,,0,,
23:24:00,,,,,,,1,,
23:25:00,,,,,,,0,,
23:26:00,,,,,,,0,,
23:27:00,,,,,,,2,,
23:28:00,,,,,,,1,,
23:29:00,,,,,,,0,,
23:30:00,,,,,,,1,,
23:31:00,,,,,,,1,,
23:32:00,,,,,,,0,,
23:33:00,,,,,,,1,,
23:34:00,,,,,,,0,,
23:35:00,,,,,,,0,,
23:36:00,,,,,,,0,,
23:37:00,,,,,,,1,,
23:38:00,,,,,,,1,,
23:39:00,,,,,,,0,,
23:40:00,,,,,,,0,,
23:41:00,,,,,,,1,,
23:42:00,,,,,,,0,,
23:43:00,,,,,,,0,,
23:44:00,,,,,,,0,,
23:45:00,,,,,,,0,,
23:46:00,,,,,,,1,,
23:47:00,,,,,,,0,,
23:48:00,,,,,,,0,,
23:49:00,,,,,,,1,,
23:50:00,,,,,,,0,,
23:51:00,,,,,,,0,,
23:52:00,,,,,,,0,,
23:53:00,,,,,,,0,,
23:54:00,,,,,,,1,,
23:55:00,,,,,,,0,,
23:56:00,,,,,,,0,,
23:57:00,,,,,,,2,,
23:58:00,,,,,,,0,,
23:59:00,,,,,,,1,,
,,,,,,,,,
Totals,,,,,,,,,
12H(7-19),,,,,,,5655,,
16H(6-22),,,,,,,6458,,
18H(6-24),,,,,,,6583,,
24H(0-24),,,,,,,6754,,
,,,,,,,,,
AM Peak,,,,,,,11:00:00,,
,,,,,,,616,,
,,,,,,,,,
PM Peak,,,,,,,12:30:00,,
,,,,,,,699,,
,,,,,,,,,
,,,,,,,,,
CA Traffic,,,,,,,,,VDA-net R2 14/12/2020
