Site Number,00008005,Unnamed: 2,Site Reference,00008005.1,Unnamed: 5,Unnamed: 6,Lat/Lng.,"52.02776,1.20445",Unnamed: 9
Nacton Road Link,,,,,,,,,
Vehicle Count Report,,,,Week Begin: 13 January 2020,,,Channel:,Total Flow,
,,,,,,,,,
,,,,,,,,,
,2020-01-13 00:00:00,2020-01-14 00:00:00,2020-01-15 00:00:00,2020-01-16 00:00:00,2020-01-17 00:00:00,2020-01-18 00:00:00,2020-01-19 00:00:00,"5-Day
Ave.","7-Day
Ave."
00:00:00,1,1,3,4,2,2,4,2,2
00:01:00,1,1,3,3,0,4,4,2,2
00:02:00,2,2,2,3,2,4,1,2,2
00:03:00,0,0,1,3,1,1,4,1,1
00:04:00,3,2,1,1,0,3,6,1,2
00:05:00,3,4,2,1,5,4,2,3,3
00:06:00,0,4,1,3,1,4,2,2,2
00:07:00,3,1,2,3,7,5,2,3,3
00:08:00,4,4,3,3,2,2,2,3,3
00:09:00,2,1,5,1,0,4,6,2,3
00:10:00,3,1,3,2,1,4,4,2,3
00:11:00,0,2,0,4,2,2,2,2,2
00:12:00,1,2,3,2,4,4,4,2,3
00:13:00,2,5,1,3,2,2,4,3,3
00:14:00,3,1,1,0,0,6,5,1,2
00:15:00,2,3,0,2,0,3,2,1,2
00:16:00,0,3,3,4,1,1,2,2,2
00:17:00,0,2,1,1,2,4,3,1,2
00:18:00,2,0,0,2,1,5,1,1,2
00:19:00,0,2,0,0,1,4,2,1,1
00:20:00,1,1,3,0,3,1,2,2,2
00:21:00,0,1,4,1,1,1,4,1,2
00:22:00,3,6,1,1,2,5,3,3,3
00:23:00,3,1,1,2,1,5,4,2,2
00:24:00,1,0,0,0,1,2,5,0,1
00:25:00,2,0,4,1,0,2,3,1,2
00:26:00,3,2,6,3,1,1,4,3,3
00:27:00,1,4,0,0,1,5,3,1,2
00:28:00,2,1,1,2,3,0,2,2,2
00:29:00,2,2,0,0,2,2,2,1,1
00:30:00,0,1,0,0,4,3,3,1,2
00:31:00,0,1,0,2,3,3,2,1,2
00:32:00,2,3,0,0,0,1,0,1,1
00:33:00,1,0,0,1,1,5,4,1,2
00:34:00,0,1,2,0,2,0,5,1,1
00:35:00,3,3,5,0,3,5,4,3,3
00:36:00,1,1,0,2,0,2,3,1,1
00:37:00,1,0,2,0,2,2,2,1,1
00:38:00,1,1,0,0,2,1,0,1,1
00:39:00,0,3,0,1,1,1,1,1,1
00:40:00,3,3,3,0,1,2,0,2,2
00:41:00,2,0,4,2,1,6,0,2,2
00:42:00,0,2,3,1,2,0,3,2,2
00:43:00,0,0,1,1,1,2,3,1,1
00:44:00,1,0,0,2,1,2,1,1,1
00:45:00,1,1,1,2,1,1,2,1,1
00:46:00,1,2,3,0,0,3,2,1,2
00:47:00,1,1,1,1,0,1,2,1,1
00:48:00,0,0,0,1,2,1,0,1,1
00:49:00,2,0,1,1,0,1,3,1,1
00:50:00,1,0,0,3,1,1,0,1,1
00:51:00,1,2,2,0,0,1,5,1,2
00:52:00,1,1,1,2,1,1,2,1,1
00:53:00,0,1,2,1,0,2,3,1,1
00:54:00,2,0,1,4,3,1,3,2,2
00:55:00,0,1,0,5,1,1,4,1,2
00:56:00,0,1,0,2,1,1,8,1,2
00:57:00,1,1,1,1,3,1,2,1,1
00:58:00,0,0,0,2,0,0,3,0,1
00:59:00,1,2,3,0,2,2,1,2,2
01:00:00,0,0,1,0,0,0,1,0,0
01:01:00,0,1,0,1,3,1,2,1,1
01:02:00,1,1,1,1,2,4,1,1,2
01:03:00,0,1,2,1,1,0,0,1,1
01:04:00,1,0,2,1,0,0,1,1,1
01:05:00,0,1,1,1,4,3,2,1,2
01:06:00,0,2,0,2,1,2,2,1,1
01:07:00,0,2,0,0,2,1,3,1,1
01:08:00,0,0,3,0,1,1,1,1,1
01:09:00,1,1,0,0,0,1,1,0,1
01:10:00,2,0,0,4,2,4,0,2,2
01:11:00,0,3,1,2,0,1,1,1,1
01:12:00,2,1,2,2,0,3,1,1,2
01:13:00,0,0,1,1,0,3,3,0,1
01:14:00,0,1,4,1,2,3,0,2,2
01:15:00,0,2,2,1,2,3,2,1,2
01:16:00,0,0,4,0,1,1,0,1,1
01:17:00,0,1,0,2,0,0,1,1,1
01:18:00,1,2,0,1,0,2,1,1,1
01:19:00,1,3,0,2,0,1,1,1,1
01:20:00,1,0,1,2,0,0,0,1,1
01:21:00,2,1,1,0,2,2,0,1,1
01:22:00,0,0,2,0,1,2,0,1,1
01:23:00,3,2,0,0,1,3,2,1,2
01:24:00,2,1,0,1,0,3,1,1,1
01:25:00,0,2,2,1,0,0,1,1,1
01:26:00,2,0,0,0,0,0,2,0,1
01:27:00,3,0,0,0,0,1,2,1,1
01:28:00,1,0,1,2,0,0,2,1,1
01:29:00,0,0,1,1,0,0,2,0,1
01:30:00,0,1,1,0,4,0,1,1,1
01:31:00,0,1,1,2,1,0,1,1,1
01:32:00,1,1,0,1,1,1,2,1,1
01:33:00,1,1,1,0,0,2,2,1,1
01:34:00,0,1,0,1,1,0,2,1,1
01:35:00,0,0,2,0,2,2,0,1,1
01:36:00,0,2,0,0,1,3,1,1,1
01:37:00,3,0,2,0,1,3,2,1,2
01:38:00,1,2,1,0,0,1,1,1,1
01:39:00,0,1,1,2,0,2,1,1,1
01:40:00,0,0,0,1,1,0,1,0,0
01:41:00,1,1,0,0,1,3,2,1,1
01:42:00,0,1,0,1,2,1,4,1,1
01:43:00,0,1,4,1,1,1,0,1,1
01:44:00,3,2,2,2,0,2,2,2,2
01:45:00,0,0,0,0,1,0,1,0,0
01:46:00,0,0,1,0,2,1,0,1,1
01:47:00,0,2,0,2,0,0,1,1,1
01:48:00,0,0,1,2,0,0,0,1,0
01:49:00,2,0,1,2,0,0,0,1,1
01:50:00,0,0,0,0,0,1,0,0,0
01:51:00,0,2,1,4,0,1,0,1,1
01:52:00,0,0,0,1,1,1,2,0,1
01:53:00,1,1,0,0,1,2,0,1,1
01:54:00,0,0,1,3,1,2,0,1,1
01:55:00,0,2,1,0,0,0,0,1,0
01:56:00,0,2,0,2,2,3,2,1,2
01:57:00,2,1,0,0,0,1,1,1,1
01:58:00,0,0,0,0,0,0,0,0,0
01:59:00,0,2,3,0,3,2,0,2,1
02:00:00,0,0,2,0,0,0,1,0,0
02:01:00,0,1,2,0,0,0,0,1,0
02:02:00,1,1,0,0,0,0,2,0,1
02:03:00,0,2,0,0,1,1,0,1,1
02:04:00,0,0,1,1,0,0,3,0,1
02:05:00,0,0,1,1,1,0,2,1,1
02:06:00,2,1,1,1,5,1,1,2,2
02:07:00,0,0,1,1,1,4,3,1,1
02:08:00,1,0,0,1,0,1,3,0,1
02:09:00,0,5,4,0,1,0,0,2,1
02:10:00,0,1,3,0,1,5,2,1,2
02:11:00,0,1,1,1,1,1,0,1,1
02:12:00,2,0,1,0,0,0,2,1,1
02:13:00,0,0,5,0,1,3,1,1,1
02:14:00,2,0,1,3,0,0,0,1,1
02:15:00,1,0,1,0,0,0,2,0,1
02:16:00,0,1,0,1,2,1,2,1,1
02:17:00,1,0,1,3,1,1,0,1,1
02:18:00,0,2,1,0,2,0,1,1,1
02:19:00,1,0,1,1,1,3,0,1,1
02:20:00,0,0,3,0,1,0,0,1,1
02:21:00,1,0,2,3,0,0,0,1,1
02:22:00,1,0,0,2,2,0,1,1,1
02:23:00,2,1,0,1,2,1,0,1,1
02:24:00,0,1,1,1,2,1,2,1,1
02:25:00,1,0,2,1,0,1,0,1,1
02:26:00,0,0,0,2,3,1,3,1,1
02:27:00,0,0,0,1,0,1,1,0,0
02:28:00,1,2,0,2,0,1,1,1,1
02:29:00,0,0,3,3,4,2,1,2,2
02:30:00,1,0,0,0,1,0,0,0,0
02:31:00,0,0,0,2,0,4,0,0,1
02:32:00,3,1,2,0,0,3,0,1,1
02:33:00,0,4,0,1,1,2,1,1,1
02:34:00,1,0,1,0,0,3,0,0,1
02:35:00,0,3,0,0,1,1,1,1,1
02:36:00,0,0,0,0,2,1,0,0,0
02:37:00,1,0,5,0,0,1,1,1,1
02:38:00,1,1,0,0,1,0,0,1,0
02:39:00,0,0,0,0,1,0,0,0,0
02:40:00,1,2,0,2,2,0,1,1,1
02:41:00,0,0,2,0,1,0,0,1,0
02:42:00,0,0,0,0,0,2,0,0,0
02:43:00,2,0,2,1,2,3,0,1,1
02:44:00,0,1,1,2,2,3,2,1,2
02:45:00,2,0,0,0,0,1,1,0,1
02:46:00,0,2,0,0,1,0,1,1,1
02:47:00,2,4,0,2,1,2,0,2,2
02:48:00,0,0,0,1,0,1,1,0,0
02:49:00,1,0,1,1,2,0,1,1,1
02:50:00,2,0,0,0,0,2,0,0,1
02:51:00,2,2,1,3,2,1,0,2,2
02:52:00,0,3,0,3,2,1,0,2,1
02:53:00,1,0,1,1,0,0,1,1,1
02:54:00,1,1,2,0,0,0,0,1,1
02:55:00,1,3,1,2,2,0,0,2,1
02:56:00,1,1,0,2,0,0,2,1,1
02:57:00,0,0,4,1,0,1,0,1,1
02:58:00,1,0,0,2,4,2,0,1,1
02:59:00,1,1,1,2,3,0,1,2,1
03:00:00,0,1,0,0,1,2,2,0,1
03:01:00,2,1,0,0,1,1,1,1,1
03:02:00,2,0,0,1,0,2,1,1,1
03:03:00,0,1,0,1,0,3,0,0,1
03:04:00,1,0,1,0,0,1,0,0,0
03:05:00,0,2,1,1,2,2,0,1,1
03:06:00,1,1,0,1,1,1,2,1,1
03:07:00,0,0,0,1,0,3,0,0,1
03:08:00,0,1,0,2,2,0,0,1,1
03:09:00,1,2,1,1,1,3,1,1,1
03:10:00,1,1,0,0,0,1,1,0,1
03:11:00,0,0,0,0,1,2,0,0,0
03:12:00,4,0,0,0,1,1,1,1,1
03:13:00,1,0,2,1,0,0,0,1,1
03:14:00,3,2,0,0,0,1,0,1,1
03:15:00,1,1,0,1,0,0,1,1,1
03:16:00,1,2,0,0,0,1,0,1,1
03:17:00,1,0,3,0,1,2,1,1,1
03:18:00,5,0,1,1,0,1,1,1,1
03:19:00,0,0,0,4,1,1,0,1,1
03:20:00,1,0,2,1,1,1,0,1,1
03:21:00,0,1,2,0,1,0,0,1,1
03:22:00,2,1,1,1,1,1,1,1,1
03:23:00,1,1,0,1,0,0,0,1,0
03:24:00,3,3,2,2,1,0,0,2,2
03:25:00,2,0,1,3,1,1,1,1,1
03:26:00,2,3,1,1,0,1,0,1,1
03:27:00,1,0,0,1,0,0,2,0,1
03:28:00,2,3,0,2,3,1,1,2,2
03:29:00,2,1,2,3,3,3,1,2,2
03:30:00,1,2,1,2,3,2,0,2,2
03:31:00,0,0,1,0,3,1,0,1,1
03:32:00,1,0,2,3,3,1,0,2,1
03:33:00,2,2,1,1,1,1,2,1,1
03:34:00,2,2,1,3,3,1,0,2,2
03:35:00,2,0,3,1,2,1,1,2,1
03:36:00,0,1,0,4,1,0,0,1,1
03:37:00,1,1,0,3,1,1,1,1,1
03:38:00,2,3,1,4,2,0,0,2,2
03:39:00,1,2,3,2,0,1,0,2,1
03:40:00,2,2,2,0,2,0,1,2,1
03:41:00,0,2,0,2,0,1,0,1,1
03:42:00,2,0,3,2,1,1,3,2,2
03:43:00,1,3,1,2,2,0,0,2,1
03:44:00,1,2,0,1,2,0,0,1,1
03:45:00,2,0,0,1,2,1,1,1,1
03:46:00,2,1,1,0,2,3,0,1,1
03:47:00,2,1,1,2,0,1,0,1,1
03:48:00,1,1,2,3,2,1,0,2,1
03:49:00,1,0,3,2,5,0,0,2,2
03:50:00,3,1,2,2,0,0,1,2,1
03:51:00,1,2,0,0,0,1,0,1,1
03:52:00,3,0,0,0,1,1,0,1,1
03:53:00,2,0,1,2,1,1,0,1,1
03:54:00,2,3,1,3,1,1,0,2,2
03:55:00,0,6,0,3,2,0,0,2,2
03:56:00,1,1,0,2,3,3,0,1,1
03:57:00,2,0,2,2,2,2,0,2,1
03:58:00,2,1,4,4,3,1,0,3,2
03:59:00,1,3,0,1,3,0,0,2,1
04:00:00,3,1,1,1,1,1,1,1,1
04:01:00,2,1,0,0,2,4,2,1,2
04:02:00,3,2,0,0,1,1,1,1,1
04:03:00,0,1,2,0,4,2,0,1,1
04:04:00,1,4,0,1,1,0,0,1,1
04:05:00,3,4,0,1,0,1,2,2,2
04:06:00,2,1,0,1,3,0,0,1,1
04:07:00,2,0,0,2,1,1,0,1,1
04:08:00,0,1,1,1,1,1,0,1,1
04:09:00,2,1,0,3,2,1,1,2,1
04:10:00,2,3,0,4,2,3,2,2,2
04:11:00,3,1,3,1,0,0,1,2,1
04:12:00,1,1,1,1,3,0,2,1,1
04:13:00,1,0,3,3,1,0,1,2,1
04:14:00,1,1,2,0,2,0,4,1,1
04:15:00,3,2,3,2,0,0,1,2,2
04:16:00,5,1,2,0,1,1,1,2,2
04:17:00,3,3,2,0,1,4,4,2,2
04:18:00,1,4,3,0,1,1,1,2,2
04:19:00,0,3,5,1,3,1,1,2,2
04:20:00,2,1,1,1,2,1,4,1,2
04:21:00,2,5,4,2,2,0,1,3,2
04:22:00,2,1,1,1,0,1,0,1,1
04:23:00,1,1,0,4,0,1,1,1,1
04:24:00,2,3,4,1,1,1,1,2,2
04:25:00,2,3,0,2,5,1,2,2,2
04:26:00,2,1,0,5,1,2,2,2,2
04:27:00,2,1,1,3,3,0,1,2,2
04:28:00,3,2,3,2,1,0,0,2,2
04:29:00,1,3,4,3,0,1,3,2,2
04:30:00,1,3,0,2,2,1,2,2,2
04:31:00,2,1,3,4,1,0,4,2,2
04:32:00,4,0,0,2,3,2,0,2,2
04:33:00,0,3,3,5,3,1,1,3,2
04:34:00,3,3,2,0,2,0,1,2,2
04:35:00,2,0,1,3,4,1,1,2,2
04:36:00,0,2,0,3,1,1,0,1,1
04:37:00,2,2,4,0,2,2,3,2,2
04:38:00,4,1,5,2,0,1,0,2,2
04:39:00,4,0,1,8,2,1,2,3,3
04:40:00,3,1,2,4,6,1,0,3,2
04:41:00,7,3,1,0,4,1,2,3,3
04:42:00,5,0,2,3,2,1,0,2,2
04:43:00,4,2,0,1,1,2,1,2,2
04:44:00,4,0,2,2,1,1,0,2,1
04:45:00,1,1,3,3,3,2,2,2,2
04:46:00,6,4,1,3,2,0,2,3,3
04:47:00,5,2,5,4,5,1,0,4,3
04:48:00,4,7,3,2,2,4,1,4,3
04:49:00,0,1,2,1,2,0,1,1,1
04:50:00,2,5,4,8,5,2,0,5,4
04:51:00,4,7,4,3,5,3,2,5,4
04:52:00,1,3,1,3,5,2,3,3,3
04:53:00,5,1,2,6,2,2,1,3,3
04:54:00,4,3,2,4,3,1,2,3,3
04:55:00,2,6,1,4,3,0,2,3,3
04:56:00,2,7,2,3,3,1,1,3,3
04:57:00,2,4,2,2,3,1,2,3,2
04:58:00,6,3,5,1,0,3,0,3,3
04:59:00,5,4,2,5,1,1,2,3,3
05:00:00,5,5,5,3,0,2,1,4,3
05:01:00,3,2,5,2,2,1,1,3,2
05:02:00,4,8,4,6,8,3,1,6,5
05:03:00,2,2,4,2,4,2,0,3,2
05:04:00,7,2,1,4,4,2,3,4,3
05:05:00,4,5,4,6,3,2,0,4,3
05:06:00,2,3,5,6,6,2,0,4,3
05:07:00,5,2,2,5,5,0,0,4,3
05:08:00,4,2,2,4,2,0,0,3,2
05:09:00,4,5,5,5,5,2,0,5,4
05:10:00,3,2,1,1,7,3,0,3,2
05:11:00,3,4,1,6,3,2,1,3,3
05:12:00,3,8,3,3,3,2,1,4,3
05:13:00,6,4,5,3,5,2,2,5,4
05:14:00,2,0,4,6,8,1,2,4,3
05:15:00,2,4,4,6,2,1,1,4,3
05:16:00,5,0,3,2,2,0,0,2,2
05:17:00,2,6,5,6,8,1,1,5,4
05:18:00,9,9,5,2,3,1,0,6,4
05:19:00,0,4,6,8,5,2,1,5,4
05:20:00,6,8,3,5,4,1,0,5,4
05:21:00,3,0,2,3,3,1,0,2,2
05:22:00,2,7,6,8,5,0,1,6,4
05:23:00,2,0,4,7,3,2,0,3,3
05:24:00,4,6,7,2,7,4,3,5,5
05:25:00,4,5,1,4,4,3,1,4,3
05:26:00,0,6,1,3,3,3,4,3,3
05:27:00,9,3,5,5,5,0,1,5,4
05:28:00,9,4,4,5,7,0,2,6,4
05:29:00,5,4,1,8,5,1,3,5,4
05:30:00,6,3,7,4,8,1,1,6,4
05:31:00,4,6,5,3,8,1,0,5,4
05:32:00,5,4,8,7,6,2,3,6,5
05:33:00,7,3,8,7,6,1,2,6,5
05:34:00,7,7,6,7,5,3,0,6,5
05:35:00,11,10,5,7,5,1,3,8,6
05:36:00,6,5,12,7,10,6,1,8,7
05:37:00,6,13,8,5,5,2,3,7,6
05:38:00,9,8,4,10,9,5,1,8,7
05:39:00,11,4,8,8,9,3,3,8,7
05:40:00,8,8,8,11,5,2,0,8,6
05:41:00,8,4,11,18,4,4,1,9,7
05:42:00,9,10,7,8,7,5,1,8,7
05:43:00,10,5,11,6,8,5,5,8,7
05:44:00,9,12,8,11,10,4,0,10,8
05:45:00,9,6,3,11,9,3,2,8,6
05:46:00,9,14,12,6,8,3,3,10,8
05:47:00,11,8,6,8,8,4,2,8,7
05:48:00,7,12,12,6,5,2,1,8,6
05:49:00,8,10,11,14,10,4,2,11,8
05:50:00,8,14,9,15,14,3,3,12,9
05:51:00,7,10,10,13,15,5,2,11,9
05:52:00,10,10,9,6,11,5,2,9,8
05:53:00,9,8,7,11,14,4,1,10,8
05:54:00,16,8,7,6,14,5,2,10,8
05:55:00,16,12,13,8,11,3,2,12,9
05:56:00,7,12,7,13,9,3,1,10,7
05:57:00,10,12,12,12,9,4,2,11,9
05:58:00,12,9,17,13,10,4,3,12,10
05:59:00,14,15,11,11,10,2,4,12,10
06:00:00,11,5,13,7,14,4,3,10,8
06:01:00,14,8,6,5,12,4,2,9,7
06:02:00,7,4,10,16,16,3,1,11,8
06:03:00,13,8,11,16,9,3,1,11,9
06:04:00,12,7,13,9,13,5,1,11,9
06:05:00,7,15,13,14,4,4,3,11,9
06:06:00,11,13,15,11,10,4,0,12,9
06:07:00,8,11,8,9,11,6,3,9,8
06:08:00,11,11,9,12,15,4,3,12,9
06:09:00,8,11,6,12,12,4,1,10,8
06:10:00,9,9,9,5,15,2,2,9,7
06:11:00,9,14,6,5,11,5,0,9,7
06:12:00,13,7,17,13,11,5,4,12,10
06:13:00,5,7,9,13,18,6,5,10,9
06:14:00,10,13,12,12,8,4,2,11,9
06:15:00,10,9,11,10,8,4,6,10,8
06:16:00,11,17,4,9,7,5,3,10,8
06:17:00,11,11,12,15,13,4,3,12,10
06:18:00,15,4,13,6,10,6,2,10,8
06:19:00,7,15,10,9,12,4,5,11,9
06:20:00,13,10,9,15,13,4,5,12,10
06:21:00,10,13,14,18,11,11,6,13,12
06:22:00,13,11,10,8,9,8,3,10,9
06:23:00,15,13,7,13,18,5,4,13,11
06:24:00,12,11,11,8,12,3,1,11,8
06:25:00,12,19,17,14,12,7,5,15,12
06:26:00,14,11,10,20,15,5,7,14,12
06:27:00,19,12,7,21,14,6,3,15,12
06:28:00,11,14,19,9,13,3,1,13,10
06:29:00,12,13,11,23,22,1,0,16,12
06:30:00,12,13,8,11,15,3,4,12,9
06:31:00,19,16,15,14,21,0,3,17,13
06:32:00,14,12,23,21,14,9,2,17,14
06:33:00,12,15,16,19,12,3,3,15,11
06:34:00,14,22,17,17,15,7,2,17,13
06:35:00,11,18,12,12,19,4,4,14,11
06:36:00,23,20,30,20,32,10,5,25,20
06:37:00,15,13,26,15,14,8,2,17,13
06:38:00,14,20,19,15,20,5,5,18,14
06:39:00,20,17,18,20,19,7,7,19,15
06:40:00,20,19,10,18,18,10,4,17,14
06:41:00,22,20,21,30,20,11,5,23,18
06:42:00,30,15,28,22,24,7,1,24,18
06:43:00,21,32,33,25,20,5,4,26,20
06:44:00,31,19,16,26,24,13,3,23,19
06:45:00,33,26,16,23,22,11,5,24,19
06:46:00,24,17,16,31,27,10,2,23,18
06:47:00,31,24,27,28,31,6,7,28,22
06:48:00,31,21,30,17,30,6,5,26,20
06:49:00,34,26,23,34,33,9,4,30,23
06:50:00,35,29,27,18,17,10,4,25,20
06:51:00,28,20,23,26,31,9,5,26,20
06:52:00,36,30,25,29,30,6,4,30,23
06:53:00,33,24,24,26,16,14,3,25,20
06:54:00,27,26,27,26,32,8,4,28,21
06:55:00,27,24,28,29,26,10,5,27,21
06:56:00,35,31,26,27,31,9,5,30,23
06:57:00,27,27,22,23,26,8,1,25,19
06:58:00,50,24,32,21,29,5,6,31,24
06:59:00,28,20,24,30,25,7,2,25,19
07:00:00,18,27,25,27,36,7,8,27,21
07:01:00,31,33,21,23,26,6,7,27,21
07:02:00,27,21,19,28,22,8,6,23,19
07:03:00,33,31,28,30,31,12,3,31,24
07:04:00,38,28,32,27,30,9,6,31,24
07:05:00,44,31,28,25,31,10,5,32,25
07:06:00,40,41,32,33,24,8,4,34,26
07:07:00,34,30,35,35,20,7,4,31,24
07:08:00,29,28,26,33,29,7,9,29,23
07:09:00,34,33,29,26,34,11,5,31,25
07:10:00,34,41,21,39,21,8,5,31,24
07:11:00,27,37,31,29,38,12,9,32,26
07:12:00,39,35,39,31,31,10,9,35,28
07:13:00,35,32,36,30,35,9,6,34,26
07:14:00,38,33,34,39,26,8,4,34,26
07:15:00,47,33,38,37,24,9,6,36,28
07:16:00,42,28,34,31,31,10,11,33,27
07:17:00,26,40,39,32,36,10,8,35,27
07:18:00,40,31,19,34,39,10,3,33,25
07:19:00,35,40,37,33,25,10,6,34,27
07:20:00,42,37,34,31,23,8,8,33,26
07:21:00,35,31,55,32,41,14,7,39,31
07:22:00,35,28,34,32,36,14,7,33,27
07:23:00,38,33,29,21,28,13,8,30,24
07:24:00,32,31,22,33,33,6,8,30,24
07:25:00,39,35,33,37,38,9,2,36,28
07:26:00,33,22,32,37,31,12,1,31,24
07:27:00,45,31,28,27,31,14,4,32,26
07:28:00,37,43,26,28,27,10,3,32,25
07:29:00,37,29,34,36,35,4,5,34,26
07:30:00,39,40,35,33,42,12,8,38,30
07:31:00,28,37,34,40,41,11,3,36,28
07:32:00,42,42,43,25,38,10,2,38,29
07:33:00,35,41,41,58,46,12,8,44,34
07:34:00,37,29,30,36,34,10,4,33,26
07:35:00,40,44,45,39,51,9,8,44,34
07:36:00,30,35,32,38,44,7,8,36,28
07:37:00,39,32,34,29,38,19,5,34,28
07:38:00,40,42,44,45,38,12,7,42,33
07:39:00,41,36,38,43,42,8,5,40,30
07:40:00,39,42,43,30,38,13,10,38,31
07:41:00,40,40,34,38,28,22,3,36,29
07:42:00,32,38,40,38,46,17,7,39,31
07:43:00,33,46,34,50,39,16,7,40,32
07:44:00,36,37,26,37,30,13,7,33,27
07:45:00,38,36,27,34,25,16,10,32,27
07:46:00,38,38,37,32,36,21,5,36,30
07:47:00,39,46,35,25,36,19,10,36,30
07:48:00,29,36,38,36,33,15,6,34,28
07:49:00,40,30,41,25,31,13,5,33,26
07:50:00,27,48,40,35,33,14,7,37,29
07:51:00,28,46,40,34,28,12,8,35,28
07:52:00,36,42,33,41,30,19,11,36,30
07:53:00,31,38,38,36,27,19,4,34,28
07:54:00,34,40,33,36,41,13,8,37,29
07:55:00,35,42,33,33,33,14,9,35,28
07:56:00,33,33,33,38,25,15,7,32,26
07:57:00,29,31,36,22,28,17,8,29,24
07:58:00,28,50,29,32,31,17,6,34,28
07:59:00,23,29,45,41,36,18,3,35,28
08:00:00,36,43,37,26,42,19,5,37,30
08:01:00,32,46,25,50,38,17,5,38,30
08:02:00,29,44,39,38,28,15,10,36,29
08:03:00,35,41,28,42,40,15,10,37,30
08:04:00,26,18,42,31,43,14,4,32,25
08:05:00,42,23,31,24,44,15,5,33,26
08:06:00,37,54,30,43,27,28,8,38,32
08:07:00,37,40,28,26,38,18,5,34,27
08:08:00,25,51,31,25,27,10,7,32,25
08:09:00,33,32,36,35,33,17,9,34,28
08:10:00,33,27,34,60,27,18,12,36,30
08:11:00,35,35,27,52,34,14,8,37,29
08:12:00,32,42,36,36,32,12,7,36,28
08:13:00,33,44,29,37,32,20,4,35,28
08:14:00,38,39,27,29,33,17,8,33,27
08:15:00,38,36,23,37,32,14,10,33,27
08:16:00,39,29,39,42,41,13,8,38,30
08:17:00,30,35,39,31,31,13,4,33,26
08:18:00,32,39,24,37,26,18,14,32,27
08:19:00,39,41,20,35,31,17,7,33,27
08:20:00,31,47,39,48,32,29,7,39,33
08:21:00,44,35,31,49,35,20,5,39,31
08:22:00,34,31,34,37,25,16,7,32,26
08:23:00,41,31,39,45,43,21,7,40,32
08:24:00,49,35,37,36,30,23,7,37,31
08:25:00,37,29,31,32,32,19,7,32,27
08:26:00,37,37,30,35,42,21,8,36,30
08:27:00,29,33,29,31,34,18,2,31,25
08:28:00,26,35,31,42,42,37,8,35,32
08:29:00,36,30,24,39,36,21,8,33,28
08:30:00,30,33,26,42,33,15,5,33,26
08:31:00,33,32,31,40,35,14,14,34,28
08:32:00,27,32,39,28,37,28,6,33,28
08:33:00,33,21,34,37,43,20,5,34,28
08:34:00,37,45,38,36,36,19,6,38,31
08:35:00,24,32,25,43,44,18,10,34,28
08:36:00,38,38,34,34,39,16,11,37,30
08:37:00,43,43,32,34,37,25,10,38,32
08:38:00,45,41,38,34,39,16,6,39,31
08:39:00,40,37,34,40,27,20,14,36,30
08:40:00,26,34,32,23,43,17,11,32,27
08:41:00,30,32,35,38,30,24,11,33,29
08:42:00,33,25,29,45,35,21,15,33,29
08:43:00,38,36,33,29,39,31,14,35,31
08:44:00,33,45,25,37,44,26,5,37,31
08:45:00,39,43,45,42,47,20,13,43,36
08:46:00,37,39,47,41,33,20,7,39,32
08:47:00,43,36,32,28,37,26,8,35,30
08:48:00,35,37,33,30,37,18,13,34,29
08:49:00,42,39,29,27,31,28,14,34,30
08:50:00,36,39,31,27,28,27,9,32,28
08:51:00,26,34,31,42,18,44,9,30,29
08:52:00,29,23,33,34,47,21,11,33,28
08:53:00,39,38,34,19,47,14,9,35,29
08:54:00,34,25,38,24,47,35,6,34,30
08:55:00,45,41,31,36,36,26,7,38,32
08:56:00,33,35,31,37,39,24,16,35,31
08:57:00,39,33,45,33,31,25,13,36,31
08:58:00,27,39,34,35,36,31,10,34,30
08:59:00,23,31,38,39,35,29,10,33,29
09:00:00,48,43,35,34,46,17,17,41,34
09:01:00,46,49,30,39,38,25,12,40,34
09:02:00,33,52,32,40,35,30,5,38,32
09:03:00,40,34,33,35,38,25,10,36,31
09:04:00,40,37,44,40,28,28,15,38,33
09:05:00,34,47,38,40,43,35,12,40,36
09:06:00,41,37,38,51,25,24,9,38,32
09:07:00,29,33,43,39,37,19,8,36,30
09:08:00,29,28,40,32,34,25,9,33,28
09:09:00,33,38,40,39,37,24,15,37,32
09:10:00,38,41,42,42,31,17,4,39,31
09:11:00,31,41,46,42,35,22,9,39,32
09:12:00,38,32,32,29,32,25,14,33,29
09:13:00,33,40,37,35,24,25,15,34,30
09:14:00,38,39,37,35,38,28,14,37,33
09:15:00,38,33,21,43,48,25,18,37,32
09:16:00,36,30,34,37,29,19,13,33,28
09:17:00,27,40,43,29,32,23,20,34,31
09:18:00,42,23,27,41,30,22,15,33,29
09:19:00,39,33,38,40,29,33,15,36,32
09:20:00,31,37,35,41,39,23,15,37,32
09:21:00,39,41,40,34,37,28,9,38,33
09:22:00,38,27,30,32,30,32,24,31,30
09:23:00,22,37,27,42,31,28,13,32,29
09:24:00,25,39,34,35,31,32,18,33,31
09:25:00,35,38,39,45,31,30,16,38,33
09:26:00,27,43,37,39,40,30,16,37,33
09:27:00,34,36,29,30,43,19,18,34,30
09:28:00,23,40,34,33,27,23,19,31,28
09:29:00,40,28,40,35,34,25,18,35,31
09:30:00,32,25,38,23,23,38,13,28,27
09:31:00,25,24,40,37,31,30,22,31,30
09:32:00,40,37,33,32,28,27,24,34,32
09:33:00,29,23,34,22,30,29,18,28,26
09:34:00,33,23,45,34,26,22,20,32,29
09:35:00,37,38,32,42,37,18,13,37,31
09:36:00,24,27,38,40,35,29,28,33,32
09:37:00,41,28,26,36,25,34,27,31,31
09:38:00,36,35,34,31,34,33,19,34,32
09:39:00,35,28,25,25,32,36,22,29,29
09:40:00,30,32,37,39,28,32,26,33,32
09:41:00,28,29,27,27,36,26,29,29,29
09:42:00,35,27,34,26,31,34,11,31,28
09:43:00,39,24,26,33,23,26,26,29,28
09:44:00,27,33,33,40,31,38,28,33,33
09:45:00,37,30,37,29,33,42,17,33,32
09:46:00,28,32,40,30,34,35,29,33,33
09:47:00,22,24,33,24,32,26,25,27,27
09:48:00,28,24,32,33,39,46,30,31,33
09:49:00,27,27,34,29,28,27,27,29,28
09:50:00,30,25,27,34,42,29,30,32,31
09:51:00,31,40,23,30,22,42,29,29,31
09:52:00,35,23,38,18,46,33,27,32,31
09:53:00,30,34,36,30,29,30,21,32,30
09:54:00,31,23,32,32,18,33,26,27,28
09:55:00,30,34,32,28,38,32,29,32,32
09:56:00,35,29,33,36,32,36,21,33,32
09:57:00,27,34,24,30,33,33,20,30,29
09:58:00,25,29,22,23,18,41,19,23,25
09:59:00,34,34,25,25,36,28,25,31,30
10:00:00,39,27,24,32,32,36,18,31,30
10:01:00,23,26,23,42,37,36,18,30,29
10:02:00,26,24,28,40,21,28,23,28,27
10:03:00,24,28,19,33,29,37,21,27,27
10:04:00,28,34,32,25,36,25,27,31,30
10:05:00,18,22,38,14,33,42,25,25,27
10:06:00,25,33,40,27,29,33,23,31,30
10:07:00,33,33,27,26,37,39,28,31,32
10:08:00,25,27,24,20,30,31,25,25,26
10:09:00,31,33,27,30,27,32,14,30,28
10:10:00,38,30,32,23,39,25,22,32,30
10:11:00,22,18,28,31,29,30,28,26,27
10:12:00,27,30,21,23,25,27,19,25,25
10:13:00,24,24,34,21,24,32,28,25,27
10:14:00,17,23,39,25,22,34,20,25,26
10:15:00,25,28,25,26,30,35,32,27,29
10:16:00,28,37,23,28,42,38,39,32,34
10:17:00,29,32,29,18,34,38,30,28,30
10:18:00,30,27,20,20,20,39,29,23,26
10:19:00,36,27,28,26,22,28,42,28,30
10:20:00,28,28,26,27,20,34,20,26,26
10:21:00,32,18,26,36,25,37,27,27,29
10:22:00,23,37,25,24,35,32,22,29,28
10:23:00,36,28,21,25,38,39,28,30,31
10:24:00,27,30,29,31,32,26,26,30,29
10:25:00,23,30,20,26,34,33,29,27,28
10:26:00,35,44,38,26,21,28,25,33,31
10:27:00,36,29,34,21,25,27,24,29,28
10:28:00,38,27,30,33,35,44,27,33,33
10:29:00,35,24,21,25,38,34,39,29,31
10:30:00,33,25,42,18,35,25,28,31,29
10:31:00,25,30,27,30,32,29,17,29,27
10:32:00,27,31,24,27,31,25,31,28,28
10:33:00,26,25,41,28,22,41,37,28,31
10:34:00,35,28,41,31,29,40,26,33,33
10:35:00,21,34,24,33,28,31,25,28,28
10:36:00,34,29,34,22,38,32,37,31,32
10:37:00,23,32,28,28,34,38,30,29,30
10:38:00,40,39,26,27,34,33,27,33,32
10:39:00,26,31,38,36,39,27,31,34,33
10:40:00,38,28,24,30,33,39,37,31,33
10:41:00,32,32,30,38,33,34,35,33,33
10:42:00,26,23,30,31,26,36,25,27,28
10:43:00,33,28,32,26,37,43,32,31,33
10:44:00,29,21,28,38,41,32,33,31,32
10:45:00,30,38,35,34,31,32,26,34,32
10:46:00,26,27,26,28,27,48,31,27,30
10:47:00,31,35,28,31,42,29,41,33,34
10:48:00,39,25,36,31,34,35,31,33,33
10:49:00,31,19,26,22,34,26,32,26,27
10:50:00,34,35,24,26,29,27,35,30,30
10:51:00,33,30,27,28,32,31,34,30,31
10:52:00,30,33,31,37,38,43,25,34,34
10:53:00,35,36,43,28,32,32,26,35,33
10:54:00,27,27,32,30,32,39,32,30,31
10:55:00,22,30,25,23,30,44,28,26,29
10:56:00,31,36,40,26,26,29,38,32,32
10:57:00,25,26,26,24,33,31,29,27,28
10:58:00,29,37,32,17,16,29,35,26,28
10:59:00,29,20,33,19,34,47,30,27,30
11:00:00,31,22,35,27,30,28,29,29,29
11:01:00,18,24,25,24,34,36,33,25,28
11:02:00,31,31,30,29,30,52,28,30,33
11:03:00,26,33,29,25,27,33,23,28,28
11:04:00,23,17,19,17,35,23,35,22,24
11:05:00,29,36,24,22,35,35,30,29,30
11:06:00,34,26,26,32,38,40,36,31,33
11:07:00,27,35,26,33,29,45,32,30,32
11:08:00,27,25,28,27,28,41,45,27,32
11:09:00,35,25,34,20,23,35,18,27,27
11:10:00,30,36,32,23,34,42,41,31,34
11:11:00,27,22,33,27,31,38,30,28,30
11:12:00,32,31,24,38,40,33,27,33,32
11:13:00,32,22,27,30,39,34,31,30,31
11:14:00,29,32,36,33,27,33,33,31,32
11:15:00,30,33,35,34,38,16,31,34,31
11:16:00,23,28,28,22,34,27,30,27,27
11:17:00,28,29,32,33,36,27,31,32,31
11:18:00,31,26,31,31,30,30,38,30,31
11:19:00,26,31,43,28,35,27,32,33,32
11:20:00,30,24,28,28,29,27,23,28,27
11:21:00,27,29,43,26,34,34,35,32,33
11:22:00,21,31,34,29,29,48,33,29,32
11:23:00,39,26,28,39,41,35,31,35,34
11:24:00,35,34,30,27,28,46,42,31,35
11:25:00,32,33,36,28,35,50,32,33,35
11:26:00,33,24,26,34,39,52,35,31,35
11:27:00,31,22,25,22,21,36,42,24,28
11:28:00,31,29,28,26,38,35,24,30,30
11:29:00,25,31,25,35,38,48,27,31,33
11:30:00,34,26,18,19,34,36,35,26,29
11:31:00,27,30,25,22,38,45,42,28,33
11:32:00,19,27,23,35,30,33,28,27,28
11:33:00,20,28,28,33,35,37,28,29,30
11:34:00,28,34,27,20,38,39,37,29,32
11:35:00,28,23,30,31,37,42,38,30,33
11:36:00,30,28,40,27,26,33,27,30,30
11:37:00,25,20,32,35,30,35,26,28,29
11:38:00,30,31,38,29,25,35,34,31,32
11:39:00,35,27,26,30,40,35,38,32,33
11:40:00,37,27,28,49,30,39,38,34,35
11:41:00,32,25,28,31,35,25,42,30,31
11:42:00,32,26,43,25,36,52,36,32,36
11:43:00,42,28,26,40,37,40,35,35,35
11:44:00,26,30,29,35,39,30,39,32,33
11:45:00,29,34,22,23,31,46,38,28,32
11:46:00,32,35,31,34,34,43,41,33,36
11:47:00,32,34,19,32,38,40,34,31,33
11:48:00,42,25,27,27,23,37,32,29,30
11:49:00,26,35,27,25,46,37,36,32,33
11:50:00,29,28,40,32,37,34,33,33,33
11:51:00,27,33,30,30,24,41,33,29,31
11:52:00,25,25,36,22,43,53,32,30,34
11:53:00,32,38,41,38,35,25,42,37,36
11:54:00,36,30,18,31,37,46,40,30,34
11:55:00,32,23,28,26,32,47,34,28,32
11:56:00,21,36,26,29,40,46,37,30,34
11:57:00,38,34,28,38,39,43,38,35,37
11:58:00,29,19,32,41,30,37,41,30,33
11:59:00,35,31,37,27,38,45,36,34,36
12:00:00,35,40,30,26,35,46,38,33,36
12:01:00,28,30,30,36,34,46,40,32,35
12:02:00,25,30,32,40,40,46,38,33,36
12:03:00,34,35,38,40,41,45,35,38,38
12:04:00,28,30,37,30,36,40,34,32,34
12:05:00,40,47,43,37,40,46,45,41,43
12:06:00,31,39,37,32,44,49,39,37,39
12:07:00,29,32,33,29,32,44,38,31,34
12:08:00,29,35,36,40,29,45,40,34,36
12:09:00,42,37,19,28,47,59,38,35,39
12:10:00,36,40,41,33,37,33,37,37,37
12:11:00,31,35,36,36,45,46,34,37,38
12:12:00,28,32,36,32,33,46,30,32,34
12:13:00,37,41,40,37,42,44,26,39,38
12:14:00,23,26,27,35,48,46,47,32,36
12:15:00,37,34,43,37,41,45,47,38,41
12:16:00,25,31,35,28,37,44,36,31,34
12:17:00,34,29,40,38,40,39,35,36,36
12:18:00,32,27,31,23,41,38,47,31,34
12:19:00,29,39,29,35,35,40,38,33,35
12:20:00,37,36,45,20,36,53,37,35,38
12:21:00,28,43,27,32,36,38,48,33,36
12:22:00,16,30,32,41,35,45,38,31,34
12:23:00,16,26,32,33,33,34,33,28,30
12:24:00,21,34,38,33,36,45,35,32,35
12:25:00,24,38,36,36,29,51,35,33,36
12:26:00,47,30,28,26,36,43,41,33,36
12:27:00,38,28,28,42,33,37,31,34,34
12:28:00,38,26,41,34,36,28,33,35,34
12:29:00,48,42,36,23,39,53,34,38,39
12:30:00,48,37,38,31,33,42,28,37,37
12:31:00,26,29,42,34,34,44,32,33,34
12:32:00,34,29,40,29,38,48,38,34,37
12:33:00,30,32,25,51,36,38,36,35,35
12:34:00,44,31,49,33,43,47,33,40,40
12:35:00,43,30,35,37,31,46,47,35,38
12:36:00,31,40,35,41,32,40,40,36,37
12:37:00,29,37,31,51,30,50,37,36,38
12:38:00,28,26,31,31,35,52,33,30,34
12:39:00,41,33,25,35,36,45,42,34,37
12:40:00,26,38,35,40,27,38,42,33,35
12:41:00,35,37,27,33,28,37,46,32,35
12:42:00,20,31,39,35,43,39,33,34,34
12:43:00,40,27,26,51,35,41,41,36,37
12:44:00,33,28,31,47,45,33,44,37,37
12:45:00,36,31,35,37,33,58,43,34,39
12:46:00,32,27,28,31,39,47,43,31,35
12:47:00,36,31,37,44,33,45,38,36,38
12:48:00,37,27,26,36,29,52,35,31,35
12:49:00,35,26,33,39,37,36,37,34,35
12:50:00,32,43,50,38,38,32,33,40,38
12:51:00,34,34,36,39,38,42,45,36,38
12:52:00,48,30,29,30,36,49,32,35,36
12:53:00,32,41,33,39,30,40,45,35,37
12:54:00,40,31,29,39,31,48,45,34,38
12:55:00,31,43,34,36,27,45,37,34,36
12:56:00,38,25,24,24,37,40,50,30,34
12:57:00,33,29,42,26,38,48,42,34,37
12:58:00,40,27,37,40,35,53,42,36,39
12:59:00,33,36,42,33,32,49,32,35,37
13:00:00,35,39,26,31,27,51,32,32,34
13:01:00,27,33,33,37,35,44,51,33,37
13:02:00,32,46,37,36,46,45,43,39,41
13:03:00,42,32,32,24,43,40,39,35,36
13:04:00,43,39,40,31,37,51,31,38,39
13:05:00,34,39,32,46,40,45,26,38,37
13:06:00,40,25,31,44,39,44,36,36,37
13:07:00,32,29,32,32,44,53,43,34,38
13:08:00,32,26,38,34,45,46,37,35,37
13:09:00,30,49,24,35,27,41,47,33,36
13:10:00,33,31,38,23,31,42,38,31,34
13:11:00,33,39,29,36,42,33,39,36,36
13:12:00,24,35,32,28,28,46,43,29,34
13:13:00,31,24,25,25,37,37,39,28,31
13:14:00,29,34,35,42,32,37,37,34,35
13:15:00,27,33,30,31,40,48,45,32,36
13:16:00,36,36,36,39,33,40,47,36,38
13:17:00,33,23,30,33,42,45,29,32,34
13:18:00,45,33,40,29,30,39,49,35,38
13:19:00,27,39,43,26,51,34,33,37,36
13:20:00,37,29,26,30,46,45,43,34,37
13:21:00,31,41,35,37,42,43,41,37,39
13:22:00,38,31,36,30,34,39,48,34,37
13:23:00,36,30,32,23,32,43,32,31,33
13:24:00,35,30,37,34,38,37,36,35,35
13:25:00,31,30,29,28,33,47,24,30,32
13:26:00,34,29,27,30,37,47,47,31,36
13:27:00,32,38,32,26,37,31,30,33,32
13:28:00,49,28,39,38,32,37,34,37,37
13:29:00,18,35,44,31,32,39,36,32,34
13:30:00,26,17,21,31,32,40,33,25,29
13:31:00,35,28,38,30,36,37,39,33,35
13:32:00,29,32,33,35,42,39,43,34,36
13:33:00,27,30,33,37,24,42,39,30,33
13:34:00,24,29,39,24,33,39,45,30,33
13:35:00,31,23,28,26,43,38,32,30,32
13:36:00,28,38,39,45,31,34,34,36,36
13:37:00,33,30,29,34,41,40,42,33,36
13:38:00,25,31,38,43,37,39,34,35,35
13:39:00,41,38,31,50,31,35,43,38,38
13:40:00,40,36,29,27,32,43,20,33,32
13:41:00,48,33,23,28,44,35,29,35,34
13:42:00,27,36,32,33,35,56,45,33,38
13:43:00,48,41,35,39,37,43,37,40,40
13:44:00,34,24,34,38,39,48,42,34,37
13:45:00,23,37,39,30,31,49,47,32,37
13:46:00,33,26,28,31,33,30,37,30,31
13:47:00,30,37,24,33,39,36,37,33,34
13:48:00,41,28,40,34,39,51,41,36,39
13:49:00,36,19,33,17,38,51,42,29,34
13:50:00,26,32,42,45,38,41,35,37,37
13:51:00,33,31,41,35,34,48,36,35,37
13:52:00,32,35,37,38,34,37,36,35,36
13:53:00,36,21,25,29,33,40,39,29,32
13:54:00,36,36,29,33,37,47,39,34,37
13:55:00,24,29,27,28,36,33,51,29,33
13:56:00,39,35,37,26,37,44,35,35,36
13:57:00,29,22,32,31,30,39,47,29,33
13:58:00,36,36,32,29,34,34,39,33,34
13:59:00,38,19,35,35,55,47,38,36,38
14:00:00,24,27,37,29,28,47,37,29,33
14:01:00,39,30,34,24,40,48,43,33,37
14:02:00,43,25,24,35,36,29,40,33,33
14:03:00,43,30,44,44,41,31,34,40,38
14:04:00,37,40,44,30,44,34,26,39,36
14:05:00,35,30,45,31,38,46,42,36,38
14:06:00,39,32,33,36,45,47,30,37,37
14:07:00,44,34,28,37,38,39,48,36,38
14:08:00,33,26,32,52,44,43,38,37,38
14:09:00,40,37,27,30,29,48,37,33,35
14:10:00,29,33,32,32,30,48,47,31,36
14:11:00,26,39,28,35,45,41,41,35,36
14:12:00,27,35,29,26,29,50,37,29,33
14:13:00,31,30,33,35,38,41,41,33,36
14:14:00,47,26,33,21,32,47,33,32,34
14:15:00,37,29,27,41,38,46,40,34,37
14:16:00,36,32,28,37,41,39,33,35,35
14:17:00,22,37,46,37,27,43,45,34,37
14:18:00,29,27,32,33,30,39,36,30,32
14:19:00,36,38,41,36,41,47,37,38,39
14:20:00,32,32,32,24,41,43,44,32,35
14:21:00,28,25,33,45,23,34,35,31,32
14:22:00,29,43,54,34,24,36,34,37,36
14:23:00,20,40,37,29,41,40,30,33,34
14:24:00,26,33,41,29,40,41,33,34,35
14:25:00,23,30,28,30,38,41,33,30,32
14:26:00,24,24,36,32,36,32,32,30,31
14:27:00,34,31,28,41,48,45,25,36,36
14:28:00,30,30,32,22,35,43,28,30,31
14:29:00,32,35,24,44,48,37,32,37,36
14:30:00,32,30,35,34,42,40,30,35,35
14:31:00,32,28,26,31,24,38,38,28,31
14:32:00,29,25,25,34,39,44,34,30,33
14:33:00,25,29,33,31,37,46,39,31,34
14:34:00,33,35,41,26,41,32,36,35,35
14:35:00,23,35,26,30,34,35,27,30,30
14:36:00,31,22,33,34,41,31,48,32,34
14:37:00,26,36,25,34,41,44,38,32,35
14:38:00,38,27,45,49,39,28,39,40,38
14:39:00,30,36,36,41,42,46,33,37,38
14:40:00,38,28,39,39,33,42,28,35,35
14:41:00,29,35,42,32,45,39,35,37,37
14:42:00,43,30,29,37,41,36,37,36,36
14:43:00,37,32,39,29,23,39,34,32,33
14:44:00,29,43,39,34,41,42,40,37,38
14:45:00,34,34,30,17,41,24,31,31,30
14:46:00,30,27,25,40,33,33,33,31,32
14:47:00,24,31,34,37,42,45,28,34,34
14:48:00,38,35,32,31,49,38,33,37,37
14:49:00,30,27,33,27,43,34,33,32,32
14:50:00,36,28,43,29,37,36,19,35,33
14:51:00,34,26,25,26,41,35,36,30,32
14:52:00,41,31,38,35,39,38,40,37,37
14:53:00,38,33,43,33,37,46,37,37,38
14:54:00,33,37,25,46,36,45,26,35,35
14:55:00,36,37,36,34,42,33,35,37,36
14:56:00,35,32,44,29,38,33,35,36,35
14:57:00,34,26,40,36,44,44,32,36,37
14:58:00,37,25,27,38,29,41,37,31,33
14:59:00,29,38,39,35,31,39,30,34,34
15:00:00,45,30,22,29,39,46,31,33,35
15:01:00,33,31,31,32,29,35,36,31,32
15:02:00,27,35,38,34,38,38,31,34,34
15:03:00,45,42,37,35,31,33,36,38,37
15:04:00,36,33,36,35,38,37,26,36,34
15:05:00,29,23,41,36,35,38,39,33,34
15:06:00,32,43,28,39,38,32,38,36,36
15:07:00,36,20,36,34,36,37,25,32,32
15:08:00,32,29,52,36,45,35,40,39,38
15:09:00,35,31,33,25,34,36,19,32,30
15:10:00,39,27,40,40,44,29,22,38,34
15:11:00,34,42,30,41,47,39,34,39,38
15:12:00,36,36,34,37,40,33,31,37,35
15:13:00,29,32,33,35,40,31,39,34,34
15:14:00,36,29,25,31,25,38,32,29,31
15:15:00,44,31,33,40,35,35,34,37,36
15:16:00,35,22,42,38,39,42,30,35,35
15:17:00,44,38,25,29,31,38,28,33,33
15:18:00,36,44,35,50,37,41,35,40,40
15:19:00,41,31,38,36,40,30,36,37,36
15:20:00,42,28,25,30,35,42,40,32,35
15:21:00,33,22,28,25,35,41,37,29,32
15:22:00,35,35,30,29,32,35,38,32,33
15:23:00,30,38,34,33,40,28,22,35,32
15:24:00,36,33,29,39,41,41,42,36,37
15:25:00,38,36,45,33,47,45,25,40,38
15:26:00,31,37,30,41,34,41,33,35,35
15:27:00,27,37,32,31,38,31,33,33,33
15:28:00,31,30,41,37,38,43,29,35,36
15:29:00,42,32,38,39,39,39,27,38,37
15:30:00,39,33,37,39,38,35,29,37,36
15:31:00,35,39,35,34,42,32,22,37,34
15:32:00,37,35,34,21,39,37,30,33,33
15:33:00,30,45,32,34,44,43,26,37,36
15:34:00,37,42,44,40,33,41,29,39,38
15:35:00,38,40,28,29,43,41,28,36,35
15:36:00,29,32,43,38,37,30,25,36,33
15:37:00,35,36,34,43,47,54,22,39,39
15:38:00,53,47,38,39,41,37,26,44,40
15:39:00,43,31,37,33,41,24,31,37,34
15:40:00,39,28,35,34,36,38,27,34,34
15:41:00,36,39,32,25,42,48,35,35,37
15:42:00,38,34,38,21,36,32,33,33,33
15:43:00,44,34,32,43,31,39,37,37,37
15:44:00,40,47,42,35,30,43,46,39,40
15:45:00,35,40,28,45,34,33,19,36,33
15:46:00,41,30,44,40,43,33,27,40,37
15:47:00,48,28,32,43,46,53,29,39,40
15:48:00,30,38,44,30,35,35,25,35,34
15:49:00,38,35,37,46,46,36,28,40,38
15:50:00,39,41,39,42,40,33,23,40,37
15:51:00,54,39,35,43,40,49,34,42,42
15:52:00,32,31,40,33,42,43,23,36,35
15:53:00,39,38,35,27,41,40,31,36,36
15:54:00,23,31,36,42,32,43,27,33,33
15:55:00,35,33,37,35,45,32,25,37,35
15:56:00,43,27,35,28,42,32,31,35,34
15:57:00,31,38,34,52,40,38,25,39,37
15:58:00,37,43,41,40,32,35,35,39,38
15:59:00,36,39,31,37,40,38,29,37,36
16:00:00,47,43,36,36,26,31,37,38,37
16:01:00,42,41,38,41,45,35,25,41,38
16:02:00,38,44,41,37,49,37,31,42,40
16:03:00,42,46,38,40,55,39,20,44,40
16:04:00,36,50,29,40,49,31,23,41,37
16:05:00,51,36,40,38,41,43,25,41,39
16:06:00,28,48,35,40,46,50,44,39,42
16:07:00,43,40,33,36,45,45,26,39,38
16:08:00,38,44,35,44,50,32,37,42,40
16:09:00,42,36,34,38,36,49,29,37,38
16:10:00,28,45,43,44,51,48,28,42,41
16:11:00,48,43,51,42,47,43,34,46,44
16:12:00,49,45,44,53,38,29,28,46,41
16:13:00,39,34,39,34,28,43,32,35,36
16:14:00,38,49,40,40,49,41,22,43,40
16:15:00,39,50,47,58,40,34,20,47,41
16:16:00,43,43,37,41,54,39,35,44,42
16:17:00,47,50,49,32,46,49,25,45,43
16:18:00,35,55,33,45,52,42,26,44,41
16:19:00,41,46,33,33,37,40,28,38,37
16:20:00,37,36,50,38,39,19,25,40,35
16:21:00,40,39,39,43,47,53,31,42,42
16:22:00,47,42,43,41,40,30,28,43,39
16:23:00,44,36,39,33,37,44,24,38,37
16:24:00,41,34,37,49,29,31,32,38,36
16:25:00,40,32,31,41,41,44,21,37,36
16:26:00,38,45,36,49,48,35,36,43,41
16:27:00,34,42,27,33,32,38,20,34,32
16:28:00,40,39,42,36,40,35,23,39,36
16:29:00,33,53,42,45,42,20,23,43,37
16:30:00,39,42,54,40,52,35,14,45,39
16:31:00,34,41,43,44,40,36,27,40,38
16:32:00,45,36,36,32,50,29,16,40,35
16:33:00,37,43,51,40,36,41,23,41,39
16:34:00,43,38,35,47,42,29,31,41,38
16:35:00,32,35,46,38,33,31,17,37,33
16:36:00,41,37,48,42,51,33,20,44,39
16:37:00,33,39,34,38,53,36,31,39,38
16:38:00,38,35,42,40,36,22,22,38,34
16:39:00,40,40,47,47,41,28,23,43,38
16:40:00,38,44,43,41,43,30,20,42,37
16:41:00,34,38,34,46,39,36,29,38,37
16:42:00,48,40,32,51,39,35,31,42,39
16:43:00,46,38,43,47,55,34,12,46,39
16:44:00,40,38,39,44,44,39,20,41,38
16:45:00,45,42,48,40,52,34,21,45,40
16:46:00,34,45,45,45,47,38,13,43,38
16:47:00,56,35,44,44,44,30,20,45,39
16:48:00,47,40,34,42,44,36,30,41,39
16:49:00,30,29,38,35,45,34,27,35,34
16:50:00,47,43,49,50,47,42,16,47,42
16:51:00,43,40,40,43,30,35,10,39,34
16:52:00,46,27,35,43,46,24,13,39,33
16:53:00,46,35,47,47,48,33,21,45,40
16:54:00,39,22,50,42,50,25,25,41,36
16:55:00,45,33,42,49,37,40,26,41,39
16:56:00,49,27,45,54,28,22,27,41,36
16:57:00,37,22,50,51,46,46,16,41,38
16:58:00,35,23,38,36,57,25,13,38,32
16:59:00,51,16,44,44,41,20,19,39,34
17:00:00,28,12,40,43,41,34,21,33,31
17:01:00,45,19,45,44,39,21,18,38,33
17:02:00,28,13,49,46,37,31,17,35,32
17:03:00,33,18,31,37,54,35,19,35,32
17:04:00,43,19,49,48,48,32,24,41,38
17:05:00,52,30,37,32,45,33,22,39,36
17:06:00,38,15,49,40,41,22,16,37,32
17:07:00,45,21,44,49,48,32,13,41,36
17:08:00,50,8,49,47,49,23,19,41,35
17:09:00,46,21,42,38,37,23,21,37,33
17:10:00,42,16,41,48,29,37,31,35,35
17:11:00,50,6,44,49,20,38,21,34,33
17:12:00,42,17,51,31,33,24,19,35,31
17:13:00,43,28,39,28,55,29,26,39,35
17:14:00,45,14,47,38,35,38,35,36,36
17:15:00,49,25,27,47,29,45,21,35,35
17:16:00,40,22,44,48,39,24,15,39,33
17:17:00,43,21,35,39,22,25,28,32,30
17:18:00,41,19,44,46,42,27,15,38,33
17:19:00,45,14,46,30,51,28,14,37,33
17:20:00,43,20,51,45,34,31,23,39,35
17:21:00,46,18,55,43,43,31,14,41,36
17:22:00,36,18,35,40,51,33,19,36,33
17:23:00,39,23,37,44,41,33,15,37,33
17:24:00,40,24,53,59,40,28,19,43,38
17:25:00,49,19,40,39,50,31,16,39,35
17:26:00,47,29,50,34,42,28,21,40,36
17:27:00,40,24,37,45,37,33,14,37,33
17:28:00,45,24,43,41,28,28,17,36,32
17:29:00,47,25,40,44,30,27,15,37,33
17:30:00,49,16,47,46,42,40,18,40,37
17:31:00,44,18,38,46,47,36,17,39,35
17:32:00,34,26,40,48,42,25,16,38,33
17:33:00,38,24,49,38,49,28,19,40,35
17:34:00,36,21,47,36,36,28,21,35,32
17:35:00,48,20,32,30,32,28,14,32,29
17:36:00,47,24,40,45,40,28,16,39,34
17:37:00,52,25,47,47,36,19,12,41,34
17:38:00,41,21,48,56,44,31,19,42,37
17:39:00,38,24,43,38,38,27,23,36,33
17:40:00,45,27,40,39,37,33,16,38,34
17:41:00,40,18,46,49,35,24,19,38,33
17:42:00,43,19,45,41,30,28,17,36,32
17:43:00,47,18,37,44,39,26,15,37,32
17:44:00,39,21,39,44,28,27,14,34,30
17:45:00,41,25,41,45,43,24,17,39,34
17:46:00,33,21,37,33,39,25,18,33,29
17:47:00,30,26,39,34,38,29,10,33,29
17:48:00,46,16,46,36,29,16,17,35,29
17:49:00,45,21,42,28,28,33,13,33,30
17:50:00,44,18,53,28,36,15,12,36,29
17:51:00,57,15,34,24,33,18,15,33,28
17:52:00,32,19,43,44,26,27,15,33,29
17:53:00,34,18,49,54,37,21,18,38,33
17:54:00,42,21,37,44,35,16,16,36,30
17:55:00,31,12,37,38,31,22,18,30,27
17:56:00,24,18,36,35,39,19,14,30,26
17:57:00,23,12,37,25,37,19,10,27,23
17:58:00,33,10,28,32,47,19,5,30,25
17:59:00,28,16,31,47,21,32,12,29,27
18:00:00,32,10,39,36,44,17,18,32,28
18:01:00,30,10,37,33,33,19,13,29,25
18:02:00,35,15,23,38,38,27,17,30,28
18:03:00,41,15,45,35,43,29,12,36,31
18:04:00,26,9,37,44,51,22,10,33,28
18:05:00,30,9,41,44,33,23,13,31,28
18:06:00,37,13,35,36,43,27,13,33,29
18:07:00,27,13,35,35,38,22,21,30,27
18:08:00,39,11,26,58,47,27,18,36,32
18:09:00,45,11,38,38,44,25,17,35,31
18:10:00,38,8,37,42,36,30,19,32,30
18:11:00,29,16,42,42,38,25,15,33,30
18:12:00,35,16,45,35,39,21,17,34,30
18:13:00,24,11,36,50,44,18,15,33,28
18:14:00,31,11,35,33,41,21,11,30,26
18:15:00,33,20,30,22,36,28,16,28,26
18:16:00,27,12,41,32,36,24,18,30,27
18:17:00,35,17,37,30,38,20,15,31,27
18:18:00,20,10,26,36,31,26,18,25,24
18:19:00,29,11,34,33,37,27,10,29,26
18:20:00,26,7,42,27,32,26,11,27,24
18:21:00,32,9,32,23,39,29,17,27,26
18:22:00,27,7,31,30,20,16,11,23,20
18:23:00,25,10,29,36,38,18,13,28,24
18:24:00,34,13,32,31,37,25,19,29,27
18:25:00,20,17,25,36,32,21,14,26,24
18:26:00,25,13,23,22,39,27,17,24,24
18:27:00,28,12,24,21,35,23,16,24,23
18:28:00,30,8,16,33,33,14,23,24,22
18:29:00,20,11,30,25,44,15,18,26,23
18:30:00,24,16,30,33,16,25,19,24,23
18:31:00,23,6,23,28,22,20,9,20,19
18:32:00,28,18,17,29,27,18,19,24,22
18:33:00,20,10,30,27,29,24,14,23,22
18:34:00,26,13,37,20,42,16,12,28,24
18:35:00,18,20,22,31,28,15,15,24,21
18:36:00,25,7,30,38,29,26,18,26,25
18:37:00,33,9,34,24,26,15,15,25,22
18:38:00,22,4,37,23,31,23,11,23,22
18:39:00,27,11,29,25,24,21,10,23,21
18:40:00,31,12,34,22,24,21,10,25,22
18:41:00,18,12,44,23,26,18,15,25,22
18:42:00,33,10,27,21,18,21,9,22,20
18:43:00,19,13,40,35,24,16,14,26,23
18:44:00,23,15,36,20,22,20,15,23,22
18:45:00,16,16,28,23,25,15,22,22,21
18:46:00,25,8,39,22,18,16,14,22,20
18:47:00,16,16,42,25,19,13,15,24,21
18:48:00,22,8,32,42,30,25,6,27,24
18:49:00,25,12,35,22,22,17,16,23,21
18:50:00,25,10,28,35,31,19,17,26,24
18:51:00,24,14,37,20,14,16,24,22,21
18:52:00,23,7,33,24,21,18,11,22,20
18:53:00,13,11,28,19,14,17,17,17,17
18:54:00,20,6,28,24,18,12,12,19,17
18:55:00,16,17,31,27,21,17,16,22,21
18:56:00,22,9,21,30,21,19,14,21,19
18:57:00,22,10,17,25,32,26,17,21,21
18:58:00,14,8,19,10,25,14,11,15,14
18:59:00,11,15,35,28,29,18,11,24,21
19:00:00,8,3,36,27,17,15,13,18,17
19:01:00,9,6,26,21,16,19,14,16,16
19:02:00,18,12,34,23,27,14,14,23,20
19:03:00,18,10,35,31,24,19,17,24,22
19:04:00,16,14,27,22,24,13,17,21,19
19:05:00,16,20,31,18,31,19,18,23,22
19:06:00,15,11,27,22,20,24,17,19,19
19:07:00,11,9,26,23,17,19,15,17,17
19:08:00,11,13,34,29,26,15,14,23,20
19:09:00,15,13,31,23,19,19,18,20,20
19:10:00,12,24,34,31,29,14,21,26,24
19:11:00,27,13,22,20,26,12,17,22,20
19:12:00,17,19,29,24,25,22,8,23,21
19:13:00,18,12,29,30,28,13,28,23,23
19:14:00,22,9,30,32,15,18,12,22,20
19:15:00,23,10,39,23,26,14,15,24,21
19:16:00,11,9,29,17,24,11,6,18,15
19:17:00,10,8,23,20,20,11,13,16,15
19:18:00,11,14,30,12,24,17,18,18,18
19:19:00,12,9,30,27,28,12,8,21,18
19:20:00,16,6,27,22,21,23,18,18,19
19:21:00,22,10,24,23,26,7,6,21,17
19:22:00,24,15,18,24,21,16,9,20,18
19:23:00,26,6,29,25,24,19,20,22,21
19:24:00,20,12,22,21,18,19,14,19,18
19:25:00,25,7,23,13,22,18,16,18,18
19:26:00,22,11,25,25,9,14,11,18,17
19:27:00,21,7,27,15,22,10,11,18,16
19:28:00,30,16,16,17,20,12,13,20,18
19:29:00,20,6,22,19,17,13,12,17,16
19:30:00,25,10,20,17,21,8,7,19,15
19:31:00,19,11,16,18,15,15,9,16,15
19:32:00,24,15,29,17,19,11,10,21,18
19:33:00,27,13,14,11,22,13,11,17,16
19:34:00,17,8,25,14,22,24,7,17,17
19:35:00,24,11,17,16,15,5,13,17,14
19:36:00,24,7,22,21,21,10,16,19,17
19:37:00,21,8,26,13,17,15,17,17,17
19:38:00,22,17,23,23,17,16,12,20,19
19:39:00,28,9,11,16,21,10,16,17,16
19:40:00,19,16,25,23,22,13,7,21,18
19:41:00,19,7,18,22,15,15,8,16,15
19:42:00,22,6,15,25,15,15,7,17,15
19:43:00,16,9,18,22,23,12,17,18,17
19:44:00,13,14,20,37,13,5,10,19,16
19:45:00,19,8,18,13,12,14,6,14,13
19:46:00,8,16,17,16,18,6,6,15,12
19:47:00,13,13,23,16,20,14,8,17,15
19:48:00,15,8,15,17,17,14,10,14,14
19:49:00,7,14,23,15,16,12,4,15,13
19:50:00,15,7,19,12,18,16,12,14,14
19:51:00,15,12,25,17,16,8,8,17,14
19:52:00,11,6,24,12,14,7,8,13,12
19:53:00,10,3,23,14,12,11,11,12,12
19:54:00,8,13,23,12,16,12,19,14,15
19:55:00,5,6,12,17,22,13,9,12,12
19:56:00,8,6,16,14,16,7,8,12,11
19:57:00,5,4,21,9,16,6,9,11,10
19:58:00,11,7,20,17,32,15,9,17,16
19:59:00,10,5,25,16,11,17,5,13,13
20:00:00,12,8,19,18,15,11,10,14,13
20:01:00,7,10,25,12,18,9,11,14,13
20:02:00,19,10,19,21,16,11,5,17,14
20:03:00,7,17,20,15,8,9,15,13,13
20:04:00,16,14,28,14,14,12,12,17,16
20:05:00,13,10,24,19,18,6,8,17,14
20:06:00,21,6,17,20,13,12,7,15,14
20:07:00,11,10,24,14,15,18,4,15,14
20:08:00,16,9,27,22,7,13,11,16,15
20:09:00,7,13,23,18,16,10,11,15,14
20:10:00,13,8,23,18,20,12,7,16,14
20:11:00,16,13,19,10,22,3,9,16,13
20:12:00,16,10,22,20,7,8,9,15,13
20:13:00,10,8,18,14,15,7,16,13,13
20:14:00,13,10,23,17,26,10,8,18,15
20:15:00,7,11,21,12,13,12,9,13,12
20:16:00,7,7,16,21,11,17,7,12,12
20:17:00,11,9,15,17,13,11,6,13,12
20:18:00,17,9,10,18,16,18,3,14,13
20:19:00,12,8,11,19,22,13,10,14,14
20:20:00,6,4,16,16,11,5,9,11,10
20:21:00,10,8,13,8,9,5,10,10,9
20:22:00,10,10,13,13,21,12,2,13,12
20:23:00,7,5,10,12,14,8,11,10,10
20:24:00,7,5,15,10,18,8,10,11,10
20:25:00,7,6,16,14,12,5,5,11,9
20:26:00,12,8,7,13,13,6,8,11,10
20:27:00,5,10,11,9,15,5,6,10,9
20:28:00,9,5,10,9,10,12,6,9,9
20:29:00,13,6,12,9,11,8,13,10,10
20:30:00,11,5,15,9,13,4,6,11,9
20:31:00,11,7,15,11,11,15,8,11,11
20:32:00,11,9,10,8,12,16,5,10,10
20:33:00,4,4,15,14,14,9,6,10,9
20:34:00,17,4,11,15,10,6,10,11,10
20:35:00,6,6,14,7,9,6,6,8,8
20:36:00,8,10,11,9,12,10,6,10,9
20:37:00,13,1,5,10,10,11,10,8,9
20:38:00,9,9,7,18,18,9,9,12,11
20:39:00,6,4,11,10,11,14,16,8,10
20:40:00,14,3,14,11,10,4,5,10,9
20:41:00,11,9,16,12,9,3,4,11,9
20:42:00,14,8,18,15,13,8,3,14,11
20:43:00,9,10,12,2,11,12,11,9,10
20:44:00,7,11,7,10,10,6,7,9,8
20:45:00,16,8,4,7,13,11,5,10,9
20:46:00,10,6,10,13,9,8,0,10,8
20:47:00,6,3,2,6,5,8,3,4,5
20:48:00,6,5,8,10,3,5,6,6,6
20:49:00,14,3,10,14,13,7,3,11,9
20:50:00,6,7,6,7,6,6,4,6,6
20:51:00,4,5,4,8,8,7,12,6,7
20:52:00,14,7,12,10,13,4,2,11,9
20:53:00,9,5,10,12,8,5,9,9,8
20:54:00,8,7,8,8,6,6,4,7,7
20:55:00,10,9,15,8,8,7,8,10,9
20:56:00,6,9,7,9,14,8,5,9,8
20:57:00,10,5,6,6,7,11,5,7,7
20:58:00,10,5,10,5,8,6,2,8,7
20:59:00,7,7,6,12,4,8,2,7,7
21:00:00,9,6,8,11,6,5,5,8,7
21:01:00,4,13,11,9,13,10,12,10,10
21:02:00,3,7,9,10,11,9,6,8,8
21:03:00,6,4,8,15,7,8,7,8,8
21:04:00,9,5,17,9,12,10,4,10,9
21:05:00,10,5,13,10,8,8,9,9,9
21:06:00,11,7,6,7,13,2,3,9,7
21:07:00,8,4,12,14,7,11,1,9,8
21:08:00,10,5,12,7,13,8,7,9,9
21:09:00,9,10,12,11,9,8,4,10,9
21:10:00,12,9,10,26,11,5,5,14,11
21:11:00,9,7,11,18,12,5,5,11,10
21:12:00,9,2,15,9,17,7,6,10,9
21:13:00,5,5,14,15,6,6,4,9,8
21:14:00,2,7,13,17,7,8,11,9,9
21:15:00,7,8,14,8,12,10,8,10,10
21:16:00,10,6,4,20,5,5,7,9,8
21:17:00,7,5,8,15,17,5,6,10,9
21:18:00,4,3,7,11,6,5,6,6,6
21:19:00,8,5,11,9,4,12,7,7,8
21:20:00,7,10,12,10,10,5,6,10,9
21:21:00,4,7,7,11,6,4,3,7,6
21:22:00,9,8,9,14,11,6,6,10,9
21:23:00,8,3,8,9,8,7,6,7,7
21:24:00,7,4,10,6,9,5,8,7,7
21:25:00,8,7,10,13,7,5,3,9,8
21:26:00,4,7,9,8,8,8,6,7,7
21:27:00,1,5,3,11,7,1,8,5,5
21:28:00,4,5,5,11,9,6,3,7,6
21:29:00,5,1,8,12,10,9,8,7,8
21:30:00,12,3,9,6,4,6,7,7,7
21:31:00,6,4,9,13,10,7,5,8,8
21:32:00,13,4,7,15,8,6,2,9,8
21:33:00,7,5,13,4,7,10,4,7,7
21:34:00,6,5,5,14,7,4,8,7,7
21:35:00,6,4,11,9,3,5,11,7,7
21:36:00,14,5,7,13,11,4,6,10,9
21:37:00,6,6,6,9,10,9,5,7,7
21:38:00,6,5,4,7,10,10,7,6,7
21:39:00,11,7,7,12,10,9,6,9,9
21:40:00,3,10,11,11,6,8,2,8,7
21:41:00,8,3,7,7,7,6,7,6,6
21:42:00,3,5,8,9,7,6,7,6,6
21:43:00,9,4,4,18,5,6,5,8,7
21:44:00,6,7,8,6,9,5,4,7,6
21:45:00,2,6,2,11,7,7,3,6,5
21:46:00,8,5,6,5,9,6,4,7,6
21:47:00,7,10,6,7,6,10,3,7,7
21:48:00,9,3,9,9,6,7,3,7,7
21:49:00,10,2,8,6,8,6,3,7,6
21:50:00,9,4,8,5,6,8,1,6,6
21:51:00,7,3,7,10,7,6,4,7,6
21:52:00,5,3,7,10,5,13,6,6,7
21:53:00,3,2,8,6,7,6,3,5,5
21:54:00,2,1,8,5,7,7,2,5,5
21:55:00,7,4,4,8,7,9,4,6,6
21:56:00,7,3,9,10,12,2,6,8,7
21:57:00,5,2,6,9,7,6,2,6,5
21:58:00,7,3,5,5,3,6,3,5,5
21:59:00,5,3,7,9,9,2,8,7,6
22:00:00,6,6,4,6,3,5,2,5,5
22:01:00,6,3,7,11,10,6,3,7,7
22:02:00,5,11,14,12,7,5,1,10,8
22:03:00,9,6,16,16,10,7,6,11,10
22:04:00,11,6,8,7,7,5,3,8,7
22:05:00,7,4,4,6,9,8,4,6,6
22:06:00,9,5,4,6,5,6,6,6,6
22:07:00,0,8,6,7,14,7,2,7,6
22:08:00,2,7,4,9,9,9,4,6,6
22:09:00,5,1,10,10,10,11,9,7,8
22:10:00,7,9,2,11,7,2,1,7,6
22:11:00,6,7,9,4,11,7,4,7,7
22:12:00,8,1,8,8,8,4,3,7,6
22:13:00,10,2,11,7,5,4,2,7,6
22:14:00,6,6,9,11,3,6,4,7,6
22:15:00,5,3,4,4,11,12,8,5,7
22:16:00,5,5,2,9,10,6,5,6,6
22:17:00,8,9,5,5,3,8,9,6,7
22:18:00,7,2,7,13,8,7,6,7,7
22:19:00,4,6,8,8,5,5,3,6,6
22:20:00,6,5,12,9,11,9,4,9,8
22:21:00,4,4,2,5,8,8,4,5,5
22:22:00,4,3,6,6,3,5,3,4,4
22:23:00,2,2,8,6,11,6,2,6,5
22:24:00,3,6,7,5,8,5,6,6,6
22:25:00,3,2,7,4,4,6,2,4,4
22:26:00,6,2,4,8,11,5,5,6,6
22:27:00,6,4,2,6,10,4,1,6,5
22:28:00,3,4,5,9,7,7,5,6,6
22:29:00,4,5,9,6,7,5,3,6,6
22:30:00,5,5,2,5,7,5,2,5,4
22:31:00,5,4,6,4,4,5,2,5,4
22:32:00,12,3,5,2,2,8,2,5,5
22:33:00,5,5,4,6,8,8,2,6,5
22:34:00,5,4,8,4,5,9,6,5,6
22:35:00,4,2,4,3,8,9,6,4,5
22:36:00,3,3,3,1,11,6,9,4,5
22:37:00,6,4,6,6,7,12,1,6,6
22:38:00,5,4,8,2,6,6,6,5,5
22:39:00,6,2,5,4,8,7,2,5,5
22:40:00,2,4,7,2,4,10,3,4,5
22:41:00,1,1,3,2,7,5,2,3,3
22:42:00,6,7,1,7,7,5,5,6,5
22:43:00,4,2,6,8,5,5,1,5,4
22:44:00,7,4,6,6,4,3,1,5,4
22:45:00,4,2,2,5,8,1,3,4,4
22:46:00,6,7,6,3,4,4,2,5,5
22:47:00,3,4,2,4,6,6,4,4,4
22:48:00,2,4,6,2,5,4,4,4,4
22:49:00,5,0,2,3,2,5,3,2,3
22:50:00,2,6,4,2,6,7,3,4,4
22:51:00,3,5,2,0,7,8,1,3,4
22:52:00,4,2,6,2,5,2,3,4,3
22:53:00,4,1,5,3,6,4,4,4,4
22:54:00,2,3,3,3,7,3,5,4,4
22:55:00,4,1,3,5,3,4,2,3,3
22:56:00,4,3,2,6,4,2,4,4,4
22:57:00,1,2,2,1,1,6,1,1,2
22:58:00,4,6,4,8,5,2,5,5,5
22:59:00,1,0,1,2,3,5,2,1,2
23:00:00,2,4,2,1,5,5,2,3,3
23:01:00,4,5,3,3,6,7,3,4,4
23:02:00,3,1,6,3,3,11,1,3,4
23:03:00,4,4,4,7,2,4,4,4,4
23:04:00,5,1,4,6,4,6,2,4,4
23:05:00,3,2,5,2,1,3,5,3,3
23:06:00,12,3,4,6,1,4,2,5,5
23:07:00,3,3,3,1,5,3,2,3,3
23:08:00,5,3,2,5,1,3,3,3,3
23:09:00,6,4,3,3,8,3,2,5,4
23:10:00,6,2,7,2,6,5,3,5,4
23:11:00,2,1,5,2,5,6,4,3,4
23:12:00,2,3,5,2,4,5,3,3,3
23:13:00,6,2,3,0,3,2,1,3,2
23:14:00,3,2,2,2,2,7,3,2,3
23:15:00,0,2,5,0,2,5,2,2,2
23:16:00,4,3,3,6,1,7,3,3,4
23:17:00,3,3,2,4,5,5,6,3,4
23:18:00,2,7,1,4,5,3,1,4,3
23:19:00,5,0,2,5,6,2,4,4,3
23:20:00,0,3,2,5,5,6,2,3,3
23:21:00,2,1,1,2,2,3,0,2,2
23:22:00,1,2,1,1,5,8,2,2,3
23:23:00,3,1,1,0,3,6,1,2,2
23:24:00,4,0,2,3,7,3,5,3,3
23:25:00,0,6,0,2,5,5,0,3,3
23:26:00,1,3,2,5,3,2,3,3,3
23:27:00,0,5,2,1,6,1,3,3,3
23:28:00,1,0,2,0,1,5,2,1,2
23:29:00,3,0,3,2,2,2,2,2,2
23:30:00,1,3,3,1,5,2,1,3,2
23:31:00,1,2,0,3,4,1,3,2,2
23:32:00,5,4,3,3,3,3,2,4,3
23:33:00,1,2,3,3,5,2,0,3,2
23:34:00,3,3,2,2,5,1,4,3,3
23:35:00,1,1,1,1,3,5,1,1,2
23:36:00,0,3,1,0,2,4,2,1,2
23:37:00,1,2,3,1,4,5,2,2,3
23:38:00,5,3,2,0,1,8,1,2,3
23:39:00,1,1,3,3,1,4,3,2,2
23:40:00,3,3,5,0,3,3,1,3,3
23:41:00,0,3,1,6,2,5,5,2,3
23:42:00,5,6,3,3,0,6,2,3,4
23:43:00,6,5,1,2,3,3,3,3,3
23:44:00,4,2,0,4,5,4,2,3,3
23:45:00,1,1,3,4,3,6,3,2,3
23:46:00,0,1,2,0,2,5,1,1,2
23:47:00,1,1,3,0,4,2,1,2,2
23:48:00,1,5,4,4,2,4,1,3,3
23:49:00,1,0,2,3,8,2,1,3,2
23:50:00,3,0,4,3,1,5,3,2,3
23:51:00,3,1,1,0,4,5,2,2,2
23:52:00,1,1,2,6,0,6,2,2,3
23:53:00,3,3,3,2,3,3,4,3,3
23:54:00,0,0,2,2,6,5,3,2,3
23:55:00,3,0,2,2,2,4,0,2,2
23:56:00,2,3,0,0,1,1,1,1,1
23:57:00,3,1,4,1,4,0,1,3,2
23:58:00,3,2,2,1,2,4,6,2,3
23:59:00,1,0,1,0,3,5,1,1,2
,,,,,,,,,
Totals,,,,,,,,,
12H(7-19),24348,21844,24667,24654,25626,22815,17699,24228,23093
16H(6-22),27486,24202,28427,28247,29125,24955,19393,27497,25976
18H(6-24),27936,24584,28908,28737,29730,25561,19747,27979,26458
24H(0-24),28715,25365,29654,29576,30525,26126,20217,28767,27168
,,,,,,,,,
AM Peak,08:21:00,07:28:00,08:37:00,07:33:00,08:23:00,10:59:00,11:00:00,07:29:00,08:54:00
,2134,2275,2125,2221,2164,2264,2027,2141,1847
,,,,,,,,,
PM Peak,16:42:00,15:49:00,16:43:00,16:39:00,16:01:00,12:09:00,12:35:00,16:00:00,15:58:00
,2576,2427,2587,2595,2610,2650,2358,2470,2285
,,,,,,,,,
,,,,,,,,,
CA Traffic,,,,,,,,,VDA-net R2 13/02/2020
