Site Number,00008025,Unnamed: 2,Site Reference,00008025.1,Unnamed: 5,Unnamed: 6,Lat/Lng.,"52.07114,1.16683",Unnamed: 9
Radar 8025 Valley Road Ipswich,,,,,,,,,
Vehicle Count Report,,,,Week Begin: 10 February 2020,,,Channel:,Total Flow,
,,,,,,,,,
,,,,,,,,,
,2020-02-10 00:00:00,2020-02-11 00:00:00,2020-02-12 00:00:00,2020-02-13 00:00:00,2020-02-14 00:00:00,2020-02-15 00:00:00,2020-02-16 00:00:00,"5-Day
Ave.","7-Day
Ave."
00:00:00,0,1,3,2,1,4,6,1,2
00:01:00,5,1,1,2,3,1,3,2,2
00:02:00,2,1,2,1,2,2,4,2,2
00:03:00,2,1,2,5,2,5,10,2,4
00:04:00,5,1,1,2,2,2,3,2,2
00:05:00,3,2,2,0,0,1,6,1,2
00:06:00,2,1,3,2,3,0,5,2,2
00:07:00,2,1,3,1,2,2,5,2,2
00:08:00,0,1,1,1,4,4,3,1,2
00:09:00,2,0,0,2,5,0,4,2,2
00:10:00,3,1,4,0,2,4,1,2,2
00:11:00,1,1,0,4,0,0,5,1,2
00:12:00,0,1,3,3,1,1,7,2,2
00:13:00,0,3,4,0,1,2,1,2,2
00:14:00,3,0,1,1,1,1,6,1,2
00:15:00,1,0,1,3,2,4,10,1,3
00:16:00,0,3,2,0,2,5,7,1,3
00:17:00,1,1,0,3,3,4,5,2,2
00:18:00,2,1,0,2,1,1,7,1,2
00:19:00,1,1,0,1,0,4,6,1,2
00:20:00,2,1,1,1,1,5,2,1,2
00:21:00,2,3,1,1,2,0,4,2,2
00:22:00,1,2,0,1,1,4,3,1,2
00:23:00,1,2,2,2,0,1,1,1,1
00:24:00,1,0,0,0,2,1,2,1,1
00:25:00,1,2,0,3,4,1,4,2,2
00:26:00,2,1,2,1,2,0,3,2,2
00:27:00,0,4,2,0,3,2,5,2,2
00:28:00,0,2,1,0,4,1,4,1,2
00:29:00,2,3,0,1,1,1,1,1,1
00:30:00,1,0,2,2,1,5,7,1,3
00:31:00,2,1,2,1,0,2,0,1,1
00:32:00,1,1,1,2,0,3,0,1,1
00:33:00,1,1,0,2,0,1,1,1,1
00:34:00,1,1,0,3,6,3,3,2,2
00:35:00,0,0,0,0,1,2,4,0,1
00:36:00,0,1,3,0,2,3,2,1,2
00:37:00,1,0,0,1,0,4,1,0,1
00:38:00,1,1,1,1,0,0,3,1,1
00:39:00,0,0,0,1,1,4,3,0,1
00:40:00,0,1,0,0,3,2,3,1,1
00:41:00,0,1,1,2,1,4,5,1,2
00:42:00,2,0,1,0,3,1,4,1,2
00:43:00,2,0,0,2,0,0,5,1,1
00:44:00,2,0,0,6,1,2,3,2,2
00:45:00,0,1,1,1,1,3,1,1,1
00:46:00,1,0,3,2,2,2,3,2,2
00:47:00,3,0,1,1,0,2,1,1,1
00:48:00,1,0,1,0,0,0,3,0,1
00:49:00,0,0,2,1,4,1,1,1,1
00:50:00,0,0,0,0,1,1,3,0,1
00:51:00,0,2,0,2,4,2,2,2,2
00:52:00,0,1,0,1,1,1,4,1,1
00:53:00,0,2,0,2,2,1,2,1,1
00:54:00,3,0,1,1,1,1,5,1,2
00:55:00,0,2,0,0,1,3,1,1,1
00:56:00,0,0,1,1,0,0,3,0,1
00:57:00,1,0,2,0,0,1,0,1,1
00:58:00,0,0,1,0,2,0,1,1,1
00:59:00,1,1,0,1,0,0,3,1,1
01:00:00,0,0,1,0,0,3,2,0,1
01:01:00,0,0,3,1,0,0,3,1,1
01:02:00,1,3,0,1,2,1,4,1,2
01:03:00,0,1,0,0,0,2,1,0,1
01:04:00,0,0,0,0,1,2,3,0,1
01:05:00,0,1,0,0,1,1,5,0,1
01:06:00,0,1,1,1,1,0,3,1,1
01:07:00,1,0,1,0,0,0,2,0,1
01:08:00,0,0,1,0,1,0,2,0,1
01:09:00,2,1,1,1,0,2,3,1,1
01:10:00,0,0,1,0,0,1,2,0,1
01:11:00,1,1,0,0,0,0,2,0,1
01:12:00,0,1,1,2,0,3,2,1,1
01:13:00,1,0,3,1,1,0,2,1,1
01:14:00,1,0,1,1,2,1,1,1,1
01:15:00,0,0,2,0,2,1,1,1,1
01:16:00,0,4,1,1,2,1,2,2,2
01:17:00,0,0,0,3,1,0,3,1,1
01:18:00,1,0,1,1,0,1,7,1,2
01:19:00,2,0,0,0,2,1,0,1,1
01:20:00,0,1,1,0,1,0,1,1,1
01:21:00,1,1,2,1,5,1,4,2,2
01:22:00,1,0,0,1,0,0,1,0,0
01:23:00,1,0,0,1,0,0,3,0,1
01:24:00,2,2,0,0,0,1,4,1,1
01:25:00,0,1,1,2,0,1,3,1,1
01:26:00,0,2,0,0,2,0,4,1,1
01:27:00,0,0,1,0,1,0,2,0,1
01:28:00,0,0,1,4,0,0,3,1,1
01:29:00,0,0,2,1,1,1,6,1,2
01:30:00,1,1,2,1,0,2,3,1,1
01:31:00,1,2,0,1,0,0,3,1,1
01:32:00,0,1,1,1,0,0,5,1,1
01:33:00,0,0,1,0,1,0,4,0,1
01:34:00,1,0,2,0,0,1,2,1,1
01:35:00,0,0,0,0,1,3,0,0,1
01:36:00,1,2,1,2,1,0,2,1,1
01:37:00,0,1,0,2,1,2,0,1,1
01:38:00,2,0,2,0,0,2,1,1,1
01:39:00,0,1,1,1,0,0,1,1,1
01:40:00,0,1,1,0,0,1,3,0,1
01:41:00,2,1,0,1,3,0,1,1,1
01:42:00,0,1,0,0,0,2,1,0,1
01:43:00,0,0,1,3,0,2,1,1,1
01:44:00,0,0,2,1,1,0,1,1,1
01:45:00,0,0,0,1,0,1,1,0,0
01:46:00,0,1,0,2,0,0,5,1,1
01:47:00,0,1,2,0,0,0,1,1,1
01:48:00,0,0,1,0,0,0,1,0,0
01:49:00,0,0,0,0,2,1,1,0,1
01:50:00,1,0,1,1,0,0,0,1,0
01:51:00,1,3,0,0,0,1,0,1,1
01:52:00,0,1,1,1,0,0,1,1,1
01:53:00,0,0,0,0,0,1,1,0,0
01:54:00,0,0,0,0,2,0,1,0,0
01:55:00,0,1,0,0,1,2,2,0,1
01:56:00,0,1,1,1,1,0,3,1,1
01:57:00,0,1,0,0,0,4,1,0,1
01:58:00,0,0,0,0,0,0,2,0,0
01:59:00,2,0,0,0,0,1,1,0,1
02:00:00,0,0,0,0,1,2,2,0,1
02:01:00,2,0,1,0,0,0,4,1,1
02:02:00,1,1,0,1,0,0,0,1,0
02:03:00,0,1,0,0,0,1,1,0,0
02:04:00,0,0,0,0,1,0,3,0,1
02:05:00,0,0,0,0,0,1,2,0,0
02:06:00,1,0,2,0,1,2,0,1,1
02:07:00,1,1,0,1,1,0,2,1,1
02:08:00,2,0,0,0,0,0,3,0,1
02:09:00,0,0,0,0,0,1,0,0,0
02:10:00,0,0,0,0,0,0,1,0,0
02:11:00,0,1,1,0,1,0,2,1,1
02:12:00,1,1,0,0,1,1,1,1,1
02:13:00,0,0,2,1,0,0,3,1,1
02:14:00,0,0,0,0,2,1,1,0,1
02:15:00,1,1,0,0,0,1,2,0,1
02:16:00,0,0,0,1,0,0,0,0,0
02:17:00,0,1,0,0,0,0,2,0,0
02:18:00,0,1,0,1,0,1,1,0,1
02:19:00,1,1,1,0,0,0,2,1,1
02:20:00,0,0,0,0,0,0,2,0,0
02:21:00,1,0,0,0,1,0,2,0,1
02:22:00,1,0,1,1,1,0,1,1,1
02:23:00,1,0,0,1,2,1,0,1,1
02:24:00,1,0,0,1,0,0,1,0,0
02:25:00,0,3,1,0,0,0,3,1,1
02:26:00,1,1,0,2,1,0,0,1,1
02:27:00,0,0,0,0,0,0,0,0,0
02:28:00,0,0,0,0,0,0,2,0,0
02:29:00,1,0,0,0,2,0,0,1,0
02:30:00,1,1,0,0,2,0,1,1,1
02:31:00,1,0,0,2,0,0,0,1,0
02:32:00,0,0,0,1,0,0,0,0,0
02:33:00,2,2,0,0,0,1,3,1,1
02:34:00,1,0,0,0,0,2,3,0,1
02:35:00,0,1,1,1,0,0,0,1,0
02:36:00,0,0,2,0,1,1,0,1,1
02:37:00,0,0,1,1,1,0,0,1,0
02:38:00,0,2,0,0,2,0,3,1,1
02:39:00,0,0,0,1,0,1,0,0,0
02:40:00,1,1,1,0,0,0,0,1,0
02:41:00,2,1,0,0,0,2,1,1,1
02:42:00,0,0,0,0,0,1,3,0,1
02:43:00,1,0,0,0,0,1,1,0,0
02:44:00,0,1,0,2,0,0,2,1,1
02:45:00,0,1,2,0,3,1,0,1,1
02:46:00,0,0,0,0,2,0,1,0,0
02:47:00,1,1,2,1,1,1,2,1,1
02:48:00,1,0,1,1,1,1,2,1,1
02:49:00,1,0,3,1,1,2,2,1,1
02:50:00,0,0,0,3,0,1,1,1,1
02:51:00,0,1,0,1,0,0,0,0,0
02:52:00,1,0,0,0,0,0,1,0,0
02:53:00,0,1,1,1,0,2,0,1,1
02:54:00,0,1,1,1,2,0,0,1,1
02:55:00,0,0,0,0,0,1,2,0,0
02:56:00,0,0,0,0,0,1,1,0,0
02:57:00,0,0,0,0,0,0,2,0,0
02:58:00,0,1,0,0,0,1,2,0,1
02:59:00,2,0,0,0,2,0,0,1,1
03:00:00,2,1,0,0,3,0,3,1,1
03:01:00,0,0,1,0,0,1,0,0,0
03:02:00,0,1,1,0,2,1,1,1,1
03:03:00,0,1,0,1,1,1,1,1,1
03:04:00,0,2,1,1,0,1,1,1,1
03:05:00,0,1,1,2,0,0,5,1,1
03:06:00,0,0,1,0,0,1,1,0,0
03:07:00,0,0,0,0,2,0,1,0,0
03:08:00,1,0,1,2,0,1,2,1,1
03:09:00,0,1,0,0,0,0,2,0,0
03:10:00,1,3,0,0,0,1,0,1,1
03:11:00,1,0,1,0,1,0,3,1,1
03:12:00,0,0,0,0,0,0,1,0,0
03:13:00,0,0,0,0,0,1,0,0,0
03:14:00,2,0,0,1,2,0,1,1,1
03:15:00,1,1,0,2,1,0,1,1,1
03:16:00,0,3,2,0,1,0,0,1,1
03:17:00,0,0,0,0,2,0,2,0,1
03:18:00,0,0,1,1,0,0,2,0,1
03:19:00,0,1,1,1,1,2,3,1,1
03:20:00,2,1,2,0,0,3,1,1,1
03:21:00,0,2,0,0,1,0,0,1,0
03:22:00,0,0,0,2,2,0,1,1,1
03:23:00,1,0,1,1,1,0,1,1,1
03:24:00,0,0,1,1,2,0,0,1,1
03:25:00,1,0,0,2,0,0,2,1,1
03:26:00,2,0,1,0,0,1,3,1,1
03:27:00,1,2,0,1,2,1,3,1,1
03:28:00,0,1,3,1,0,1,2,1,1
03:29:00,1,0,0,2,1,1,2,1,1
03:30:00,0,0,1,0,0,2,0,0,0
03:31:00,0,0,1,3,0,1,0,1,1
03:32:00,3,0,1,1,1,0,1,1,1
03:33:00,0,2,0,2,0,1,1,1,1
03:34:00,1,0,0,0,2,0,3,1,1
03:35:00,2,1,0,0,0,1,0,1,1
03:36:00,0,0,2,0,0,0,0,0,0
03:37:00,2,0,0,0,1,0,3,1,1
03:38:00,0,0,0,0,2,0,1,0,0
03:39:00,0,0,1,0,0,0,0,0,0
03:40:00,0,0,0,0,2,1,1,0,1
03:41:00,3,1,0,1,2,3,1,1,2
03:42:00,2,1,1,0,0,2,0,1,1
03:43:00,0,0,0,1,2,1,0,1,1
03:44:00,0,1,1,1,1,1,1,1,1
03:45:00,2,0,0,0,0,1,1,0,1
03:46:00,0,1,1,1,0,0,0,1,0
03:47:00,2,0,0,0,1,2,1,1,1
03:48:00,0,1,0,1,0,0,0,0,0
03:49:00,0,2,0,1,0,1,0,1,1
03:50:00,0,0,0,1,0,1,3,0,1
03:51:00,1,0,2,0,2,0,0,1,1
03:52:00,1,2,0,1,0,0,2,1,1
03:53:00,0,0,1,0,1,1,2,0,1
03:54:00,1,1,0,0,0,1,0,0,0
03:55:00,2,0,0,0,0,1,1,0,1
03:56:00,0,0,0,2,0,0,2,0,1
03:57:00,1,0,1,1,0,1,0,1,1
03:58:00,1,0,0,3,2,0,0,1,1
03:59:00,0,0,0,0,0,0,3,0,0
04:00:00,0,1,0,0,0,0,4,0,1
04:01:00,2,1,0,3,1,1,0,1,1
04:02:00,3,0,0,0,2,2,0,1,1
04:03:00,2,2,1,0,1,0,2,1,1
04:04:00,2,0,1,0,0,1,1,1,1
04:05:00,1,0,1,2,0,1,0,1,1
04:06:00,0,1,1,1,2,0,4,1,1
04:07:00,1,0,0,1,2,1,0,1,1
04:08:00,1,1,0,0,0,2,1,0,1
04:09:00,2,1,0,0,2,0,1,1,1
04:10:00,1,1,0,0,0,1,1,0,1
04:11:00,1,0,0,1,1,0,1,1,1
04:12:00,2,3,2,0,1,0,1,2,1
04:13:00,0,0,0,0,1,2,0,0,0
04:14:00,1,0,0,2,0,1,0,1,1
04:15:00,1,0,0,0,0,1,0,0,0
04:16:00,0,0,1,0,1,0,3,0,1
04:17:00,1,5,1,1,1,0,1,2,1
04:18:00,2,0,1,0,0,0,0,1,0
04:19:00,4,0,0,1,0,3,0,1,1
04:20:00,0,0,1,2,0,1,0,1,1
04:21:00,3,0,0,0,0,0,2,1,1
04:22:00,0,1,0,1,1,2,0,1,1
04:23:00,2,1,0,2,0,0,0,1,1
04:24:00,1,4,0,2,0,1,1,1,1
04:25:00,1,1,1,0,1,0,2,1,1
04:26:00,0,1,1,1,0,2,0,1,1
04:27:00,1,3,2,1,1,1,0,2,1
04:28:00,1,2,1,3,1,1,0,2,1
04:29:00,3,0,1,0,1,0,1,1,1
04:30:00,1,2,0,0,3,0,1,1,1
04:31:00,2,2,2,1,1,2,0,2,1
04:32:00,2,2,1,2,1,1,2,2,2
04:33:00,2,1,5,1,2,1,2,2,2
04:34:00,3,2,2,0,0,1,2,1,1
04:35:00,3,2,2,2,1,0,1,2,2
04:36:00,4,2,2,3,2,3,2,3,3
04:37:00,4,2,0,3,0,1,0,2,1
04:38:00,4,3,4,4,4,0,2,4,3
04:39:00,6,3,1,1,1,2,1,2,2
04:40:00,4,1,1,1,1,0,2,2,1
04:41:00,5,3,0,1,0,2,1,2,2
04:42:00,3,2,2,1,1,2,0,2,2
04:43:00,2,2,0,2,2,1,0,2,1
04:44:00,1,1,4,0,4,2,2,2,2
04:45:00,3,1,1,2,1,1,0,2,1
04:46:00,1,0,0,4,1,1,3,1,1
04:47:00,1,1,8,1,2,3,3,3,3
04:48:00,3,2,1,2,2,2,3,2,2
04:49:00,1,1,3,4,3,2,2,2,2
04:50:00,2,6,5,2,2,0,1,3,3
04:51:00,4,1,5,3,3,1,1,3,3
04:52:00,4,1,3,1,1,0,0,2,1
04:53:00,4,4,0,1,3,2,0,2,2
04:54:00,1,1,2,3,1,2,2,2,2
04:55:00,3,1,2,2,1,6,2,2,2
04:56:00,2,5,1,3,1,2,1,2,2
04:57:00,0,1,2,1,2,1,3,1,1
04:58:00,1,2,1,1,2,0,0,1,1
04:59:00,3,1,2,2,1,3,1,2,2
05:00:00,4,1,3,2,2,2,4,2,3
05:01:00,5,3,5,1,2,0,0,3,2
05:02:00,5,3,2,3,2,1,3,3,3
05:03:00,4,4,2,4,3,1,3,3,3
05:04:00,1,6,3,3,0,0,0,3,2
05:05:00,2,2,3,6,3,1,2,3,3
05:06:00,5,5,2,1,9,3,3,4,4
05:07:00,3,5,3,3,1,3,0,3,3
05:08:00,0,2,4,2,2,2,1,2,2
05:09:00,6,3,1,1,4,2,2,3,3
05:10:00,1,3,1,1,4,3,3,2,2
05:11:00,2,1,3,2,2,1,1,2,2
05:12:00,4,6,3,3,5,2,1,4,3
05:13:00,3,5,2,4,5,1,4,4,3
05:14:00,2,3,1,1,5,2,0,2,2
05:15:00,2,3,4,4,1,0,2,3,2
05:16:00,2,2,6,4,3,3,2,3,3
05:17:00,2,4,4,4,2,2,0,3,3
05:18:00,5,3,4,1,3,1,0,3,2
05:19:00,6,6,2,4,5,1,1,5,4
05:20:00,7,1,3,5,3,1,3,4,3
05:21:00,3,3,2,4,1,0,3,3,2
05:22:00,4,5,9,2,6,3,2,5,4
05:23:00,6,5,6,6,5,0,0,6,4
05:24:00,4,6,4,5,3,2,2,4,4
05:25:00,7,2,4,4,4,2,1,4,3
05:26:00,4,4,2,5,3,2,0,4,3
05:27:00,5,3,6,3,5,0,1,4,3
05:28:00,4,2,5,2,3,4,0,3,3
05:29:00,5,3,3,5,4,0,2,4,3
05:30:00,2,6,3,2,6,3,2,4,3
05:31:00,7,12,4,7,5,5,3,7,6
05:32:00,4,3,6,4,2,0,3,4,3
05:33:00,12,8,8,3,5,4,6,7,7
05:34:00,8,5,0,5,7,2,1,5,4
05:35:00,6,10,8,6,2,0,1,6,5
05:36:00,2,5,5,4,2,2,0,4,3
05:37:00,6,7,9,4,7,0,0,7,5
05:38:00,4,5,7,3,8,1,3,5,4
05:39:00,5,3,8,6,7,0,1,6,4
05:40:00,8,6,5,5,3,4,1,5,5
05:41:00,8,4,5,2,4,0,5,5,4
05:42:00,4,4,5,2,3,3,3,4,3
05:43:00,4,6,10,2,8,1,2,6,5
05:44:00,5,7,3,7,2,3,3,5,4
05:45:00,10,7,5,1,3,3,4,5,5
05:46:00,8,8,8,7,3,3,3,7,6
05:47:00,4,2,7,5,8,0,1,5,4
05:48:00,7,5,6,6,3,3,1,5,4
05:49:00,8,7,3,3,4,3,3,5,4
05:50:00,6,8,5,5,3,0,3,5,4
05:51:00,5,7,3,6,10,5,7,6,6
05:52:00,6,10,6,7,8,2,2,7,6
05:53:00,12,7,6,3,5,2,0,7,5
05:54:00,5,4,3,6,4,2,6,4,4
05:55:00,10,12,2,6,3,3,3,7,6
05:56:00,5,6,9,6,8,4,0,7,5
05:57:00,9,8,5,3,8,0,3,7,5
05:58:00,4,11,6,5,3,1,3,6,5
05:59:00,4,6,6,9,8,0,4,7,5
06:00:00,12,7,5,3,3,1,3,6,5
06:01:00,4,8,4,5,5,5,1,5,5
06:02:00,4,8,3,7,4,3,4,5,5
06:03:00,9,11,7,3,6,0,5,7,6
06:04:00,8,10,6,10,5,2,3,8,6
06:05:00,14,4,4,3,5,2,3,6,5
06:06:00,7,5,11,4,11,2,6,8,7
06:07:00,10,8,7,5,5,1,1,7,5
06:08:00,6,7,11,7,14,2,4,9,7
06:09:00,6,10,9,6,11,3,4,8,7
06:10:00,9,15,4,8,6,5,5,8,7
06:11:00,14,11,9,8,9,3,3,10,8
06:12:00,10,8,5,9,6,3,5,8,7
06:13:00,8,15,12,12,7,2,5,11,9
06:14:00,3,11,8,5,7,5,3,7,6
06:15:00,9,14,13,10,16,3,4,12,10
06:16:00,12,10,12,8,11,6,1,11,9
06:17:00,12,10,8,5,8,1,2,9,7
06:18:00,9,7,11,10,8,5,1,9,7
06:19:00,16,10,3,16,9,3,0,11,8
06:20:00,8,11,10,3,8,0,7,8,7
06:21:00,17,11,10,12,13,5,1,13,10
06:22:00,13,12,8,15,9,3,5,11,9
06:23:00,10,14,11,10,9,2,7,11,9
06:24:00,10,9,12,14,8,2,4,11,8
06:25:00,22,13,11,12,8,4,3,13,10
06:26:00,19,7,8,8,10,2,1,10,8
06:27:00,9,7,7,14,10,5,6,9,8
06:28:00,10,11,11,9,15,10,7,11,10
06:29:00,14,11,10,8,14,5,3,11,9
06:30:00,9,14,9,13,10,4,5,11,9
06:31:00,14,11,8,11,9,2,5,11,9
06:32:00,12,17,15,9,12,3,2,13,10
06:33:00,18,12,12,10,11,2,4,13,10
06:34:00,20,11,9,8,18,3,6,13,11
06:35:00,14,11,17,17,14,5,3,15,12
06:36:00,9,18,16,13,12,6,9,14,12
06:37:00,13,12,15,14,14,3,5,14,11
06:38:00,14,18,17,11,6,0,4,13,10
06:39:00,11,8,8,11,15,8,8,11,10
06:40:00,13,16,12,20,12,5,3,15,12
06:41:00,15,13,16,16,10,11,2,14,12
06:42:00,19,11,13,10,9,8,7,12,11
06:43:00,20,17,11,11,10,4,5,14,11
06:44:00,20,11,16,13,14,9,8,15,13
06:45:00,20,14,15,10,17,3,5,15,12
06:46:00,17,17,14,14,14,7,4,15,12
06:47:00,22,13,18,9,18,4,4,16,13
06:48:00,16,21,21,9,13,3,6,16,13
06:49:00,12,15,18,13,19,4,11,15,13
06:50:00,15,18,16,8,13,6,2,14,11
06:51:00,19,16,13,13,18,4,6,16,13
06:52:00,17,14,16,12,20,7,2,16,13
06:53:00,17,9,19,6,22,3,5,15,12
06:54:00,17,18,14,12,12,6,7,15,12
06:55:00,11,16,19,6,12,5,3,13,10
06:56:00,11,9,15,17,16,7,2,14,11
06:57:00,15,25,16,19,14,5,4,18,14
06:58:00,20,17,20,16,12,7,2,17,13
06:59:00,14,29,21,14,13,5,3,18,14
07:00:00,19,15,9,14,12,6,9,14,12
07:01:00,23,11,20,8,16,6,11,16,14
07:02:00,13,19,12,16,13,5,3,15,12
07:03:00,18,24,21,20,17,6,7,20,16
07:04:00,16,20,22,16,13,2,2,17,13
07:05:00,25,19,23,21,16,11,5,21,17
07:06:00,27,15,21,16,13,7,5,18,15
07:07:00,17,26,23,26,13,5,8,21,17
07:08:00,18,24,19,16,28,4,9,21,17
07:09:00,43,19,22,16,21,7,7,24,19
07:10:00,21,15,15,14,22,2,3,17,13
07:11:00,20,27,15,22,14,8,4,20,16
07:12:00,20,15,14,14,21,10,11,17,15
07:13:00,18,14,27,20,23,15,4,20,17
07:14:00,23,33,23,25,22,11,3,25,20
07:15:00,35,23,15,22,18,8,11,23,19
07:16:00,21,26,22,18,18,5,5,21,16
07:17:00,27,23,21,22,15,15,4,22,18
07:18:00,17,21,41,29,33,4,10,28,22
07:19:00,34,18,20,16,20,10,10,22,18
07:20:00,15,28,15,18,18,4,4,19,15
07:21:00,28,30,22,16,25,2,11,24,19
07:22:00,30,18,22,23,22,6,6,23,18
07:23:00,25,27,23,26,19,8,7,24,19
07:24:00,14,12,20,22,24,3,8,18,15
07:25:00,26,19,18,23,23,10,7,22,18
07:26:00,26,13,22,19,22,10,4,20,17
07:27:00,25,24,24,20,21,8,14,23,19
07:28:00,15,21,32,21,25,9,7,23,19
07:29:00,19,29,10,15,31,8,4,21,17
07:30:00,19,20,27,17,21,9,6,21,17
07:31:00,28,34,25,28,18,6,9,27,21
07:32:00,16,29,26,21,21,12,10,23,19
07:33:00,21,27,35,21,19,10,8,25,20
07:34:00,18,25,18,17,32,13,7,22,19
07:35:00,26,17,22,25,21,10,10,22,19
07:36:00,30,33,21,24,32,10,12,28,23
07:37:00,28,19,27,17,27,11,7,24,19
07:38:00,30,21,22,27,20,7,7,24,19
07:39:00,31,15,28,18,34,10,6,25,20
07:40:00,20,23,16,17,17,9,10,19,16
07:41:00,23,16,25,23,22,11,6,22,18
07:42:00,20,23,18,19,24,7,7,21,17
07:43:00,17,13,20,31,20,7,7,20,16
07:44:00,10,16,32,23,17,12,6,20,17
07:45:00,31,17,20,8,21,9,5,19,16
07:46:00,24,19,19,24,21,15,5,21,18
07:47:00,12,17,16,28,16,10,9,18,15
07:48:00,22,27,28,25,28,14,9,26,22
07:49:00,29,21,19,22,15,14,7,21,18
07:50:00,23,22,23,20,31,8,10,24,20
07:51:00,21,27,13,25,19,7,9,21,17
07:52:00,17,27,23,33,24,5,8,25,20
07:53:00,13,21,31,13,21,12,7,20,17
07:54:00,15,22,24,27,19,12,7,21,18
07:55:00,21,15,29,23,23,11,5,22,18
07:56:00,25,11,17,25,29,8,11,21,18
07:57:00,13,20,13,17,28,9,5,18,15
07:58:00,19,22,17,12,22,10,6,18,15
07:59:00,23,6,22,21,16,15,4,18,15
08:00:00,10,17,19,20,25,9,10,18,16
08:01:00,26,15,28,20,23,10,8,22,19
08:02:00,10,31,31,14,18,6,3,21,16
08:03:00,19,21,17,18,14,11,8,18,15
08:04:00,18,18,23,35,28,12,8,24,20
08:05:00,31,22,18,21,12,8,7,21,17
08:06:00,23,20,16,27,16,5,4,20,16
08:07:00,23,20,17,14,27,10,5,20,17
08:08:00,22,28,21,23,18,8,3,22,18
08:09:00,26,22,20,29,22,15,14,24,21
08:10:00,33,10,24,13,13,10,8,19,16
08:11:00,21,15,15,18,19,12,9,18,16
08:12:00,18,22,11,11,17,6,8,16,13
08:13:00,23,15,22,19,17,9,2,19,15
08:14:00,15,13,18,14,22,8,2,16,13
08:15:00,12,20,20,15,20,13,5,17,15
08:16:00,19,7,11,13,7,12,7,11,11
08:17:00,17,10,18,21,19,11,6,17,15
08:18:00,9,24,21,15,10,6,6,16,13
08:19:00,9,10,29,22,19,11,5,18,15
08:20:00,13,16,21,17,19,13,10,17,16
08:21:00,14,21,11,20,29,12,6,19,16
08:22:00,16,26,17,10,22,13,4,18,15
08:23:00,14,16,17,27,17,8,7,18,15
08:24:00,15,10,22,10,8,10,9,13,12
08:25:00,11,16,18,9,13,12,5,13,12
08:26:00,7,9,16,13,13,10,13,12,12
08:27:00,8,20,16,19,27,12,9,18,16
08:28:00,15,22,21,15,29,16,8,20,18
08:29:00,9,27,17,15,19,11,12,17,16
08:30:00,14,16,8,13,26,11,13,15,14
08:31:00,12,5,4,22,17,11,8,12,11
08:32:00,15,11,9,10,21,7,3,13,11
08:33:00,14,4,12,19,29,8,7,16,13
08:34:00,5,16,12,21,20,14,8,15,14
08:35:00,9,11,26,12,20,13,15,16,15
08:36:00,15,12,10,17,24,13,6,16,14
08:37:00,10,12,21,6,19,16,13,14,14
08:38:00,17,10,14,10,15,19,6,13,13
08:39:00,5,7,18,10,20,10,13,12,12
08:40:00,10,10,16,8,22,21,15,13,15
08:41:00,14,9,17,12,12,15,11,13,13
08:42:00,10,11,22,7,12,17,15,12,13
08:43:00,10,13,19,14,18,13,10,15,14
08:44:00,18,12,22,16,19,19,7,17,16
08:45:00,20,9,23,16,22,17,18,18,18
08:46:00,23,13,21,18,23,14,10,20,17
08:47:00,19,22,26,14,13,11,9,19,16
08:48:00,14,20,22,18,22,25,7,19,18
08:49:00,24,21,21,19,14,20,12,20,19
08:50:00,24,15,33,22,22,15,7,23,20
08:51:00,22,18,20,17,10,14,15,17,17
08:52:00,16,19,11,23,14,23,6,17,16
08:53:00,18,29,22,14,24,15,12,21,19
08:54:00,18,15,19,18,16,11,15,17,16
08:55:00,19,17,30,22,22,17,8,22,19
08:56:00,22,23,28,27,23,16,10,25,21
08:57:00,27,21,22,26,24,15,8,24,20
08:58:00,21,19,20,16,30,15,6,21,18
08:59:00,29,25,16,19,22,21,9,22,20
09:00:00,28,16,12,10,15,14,10,16,15
09:01:00,14,18,20,22,21,18,8,19,17
09:02:00,19,19,22,30,15,12,12,21,18
09:03:00,12,18,31,25,20,10,9,21,18
09:04:00,17,27,24,21,25,8,7,23,18
09:05:00,18,21,30,21,22,9,10,22,19
09:06:00,14,10,25,18,18,13,7,17,15
09:07:00,21,25,19,21,30,22,5,23,20
09:08:00,27,28,16,26,23,19,9,24,21
09:09:00,32,31,22,18,28,9,11,26,22
09:10:00,13,15,22,23,23,15,17,19,18
09:11:00,18,10,16,25,26,15,9,19,17
09:12:00,25,20,20,14,26,21,8,21,19
09:13:00,14,18,17,23,26,16,10,20,18
09:14:00,11,13,22,13,17,22,7,15,15
09:15:00,20,25,18,25,28,12,5,23,19
09:16:00,28,16,21,24,35,23,12,25,23
09:17:00,18,21,21,29,20,10,11,22,19
09:18:00,18,24,16,27,17,22,10,20,19
09:19:00,19,18,27,25,22,10,14,22,19
09:20:00,25,24,22,27,21,24,13,24,22
09:21:00,17,15,32,20,23,25,14,21,21
09:22:00,20,10,15,22,17,17,11,17,16
09:23:00,22,17,13,18,20,26,17,18,19
09:24:00,19,20,26,18,10,20,6,19,17
09:25:00,26,19,35,19,23,17,17,24,22
09:26:00,19,20,17,19,17,11,13,18,17
09:27:00,16,19,23,18,19,29,17,19,20
09:28:00,25,20,17,21,17,21,14,20,19
09:29:00,18,22,21,18,34,17,15,23,21
09:30:00,25,19,23,18,13,18,10,20,18
09:31:00,20,8,16,26,12,19,15,16,17
09:32:00,21,22,21,25,17,12,13,21,19
09:33:00,18,22,24,17,21,20,9,20,19
09:34:00,17,16,19,16,9,18,16,15,16
09:35:00,19,19,14,22,16,18,9,18,17
09:36:00,21,27,38,24,22,20,15,26,24
09:37:00,13,21,15,20,21,21,14,18,18
09:38:00,18,26,16,23,15,18,8,20,18
09:39:00,18,13,28,31,29,35,12,24,24
09:40:00,20,17,19,24,26,18,12,21,19
09:41:00,24,23,22,30,20,21,10,24,21
09:42:00,17,23,14,18,22,24,12,19,19
09:43:00,18,18,30,26,21,22,18,23,22
09:44:00,22,14,18,17,24,23,13,19,19
09:45:00,20,25,6,23,13,16,17,17,17
09:46:00,24,21,18,16,12,21,11,18,18
09:47:00,31,19,20,17,10,14,14,19,18
09:48:00,17,22,22,17,27,28,24,21,22
09:49:00,20,21,16,23,23,17,21,21,20
09:50:00,25,18,26,23,17,15,16,22,20
09:51:00,21,18,15,22,18,21,12,19,18
09:52:00,16,26,18,25,28,16,18,23,21
09:53:00,21,17,14,17,22,30,19,18,20
09:54:00,27,18,29,15,27,19,17,23,22
09:55:00,14,21,16,17,17,25,17,17,18
09:56:00,15,18,15,18,15,23,17,16,17
09:57:00,26,15,23,27,18,21,15,22,21
09:58:00,17,21,15,24,17,20,16,19,19
09:59:00,24,14,17,24,32,11,14,22,19
10:00:00,20,19,19,15,15,15,11,18,16
10:01:00,26,23,23,17,18,23,14,21,21
10:02:00,26,15,25,17,20,22,17,21,20
10:03:00,17,26,17,18,11,20,20,18,18
10:04:00,18,15,15,24,14,17,19,17,17
10:05:00,11,17,18,19,17,28,19,16,18
10:06:00,15,20,21,25,25,23,13,21,20
10:07:00,21,15,19,17,22,16,17,19,18
10:08:00,17,31,21,20,14,22,16,21,20
10:09:00,21,27,20,24,16,17,24,22,21
10:10:00,17,24,19,18,18,26,13,19,19
10:11:00,20,19,24,25,10,30,19,20,21
10:12:00,21,11,22,19,11,12,16,17,16
10:13:00,22,24,12,12,22,32,15,18,20
10:14:00,18,16,27,33,18,16,17,22,21
10:15:00,15,20,18,22,23,15,25,20,20
10:16:00,25,15,29,13,19,18,11,20,19
10:17:00,18,19,22,20,33,16,23,22,22
10:18:00,17,21,19,17,23,24,21,19,20
10:19:00,20,19,21,21,9,24,21,18,19
10:20:00,25,26,16,16,8,16,21,18,18
10:21:00,21,23,24,18,17,17,22,21,20
10:22:00,16,27,19,25,26,16,9,23,20
10:23:00,20,21,19,21,28,23,18,22,21
10:24:00,15,24,25,15,34,18,20,23,22
10:25:00,19,18,12,29,28,11,18,21,19
10:26:00,21,22,18,22,23,23,21,21,21
10:27:00,19,20,19,27,14,19,13,20,19
10:28:00,22,16,13,22,12,15,13,17,16
10:29:00,22,22,26,23,22,30,14,23,23
10:30:00,20,19,13,23,25,17,18,20,19
10:31:00,16,19,18,16,20,19,17,18,18
10:32:00,13,23,20,26,24,15,12,21,19
10:33:00,10,16,29,19,18,26,16,18,19
10:34:00,23,24,17,23,25,20,13,22,21
10:35:00,14,24,16,14,26,16,18,19,18
10:36:00,18,18,20,16,16,11,18,18,17
10:37:00,18,13,9,24,10,12,16,15,15
10:38:00,26,22,21,16,22,26,25,21,23
10:39:00,15,18,18,23,23,16,17,19,19
10:40:00,17,13,16,23,21,20,9,18,17
10:41:00,15,18,24,27,17,27,20,20,21
10:42:00,21,22,23,18,29,20,15,23,21
10:43:00,17,23,17,21,26,14,20,21,20
10:44:00,19,16,19,27,27,14,19,22,20
10:45:00,19,26,25,24,24,28,8,24,22
10:46:00,22,18,19,22,19,15,23,20,20
10:47:00,27,20,10,15,28,18,15,20,19
10:48:00,12,25,22,16,16,21,12,18,18
10:49:00,21,14,25,22,23,26,17,21,21
10:50:00,18,18,18,23,12,20,17,18,18
10:51:00,23,23,25,17,24,27,19,22,23
10:52:00,20,34,15,22,26,24,16,23,22
10:53:00,18,22,25,16,25,27,21,21,22
10:54:00,19,15,17,17,12,24,20,16,18
10:55:00,24,23,10,18,32,30,25,21,23
10:56:00,22,15,22,31,20,17,15,22,20
10:57:00,24,21,15,18,28,21,13,21,20
10:58:00,21,21,18,21,26,25,16,21,21
10:59:00,24,21,18,10,23,21,23,19,20
11:00:00,17,20,14,21,25,20,10,19,18
11:01:00,22,15,17,17,18,22,16,18,18
11:02:00,23,15,25,29,28,30,22,24,25
11:03:00,30,21,14,23,19,18,12,21,20
11:04:00,18,21,25,13,20,21,14,19,19
11:05:00,27,25,13,18,22,19,18,21,20
11:06:00,12,12,21,25,19,20,15,18,18
11:07:00,23,21,26,18,18,23,14,21,20
11:08:00,13,15,21,12,14,16,19,15,16
11:09:00,17,19,16,15,20,23,13,17,18
11:10:00,19,20,16,13,29,22,23,19,20
11:11:00,20,21,18,16,29,23,21,21,21
11:12:00,23,23,24,19,26,25,19,23,23
11:13:00,20,29,23,18,17,15,11,21,19
11:14:00,27,24,37,22,27,27,18,27,26
11:15:00,15,19,17,15,19,27,22,17,19
11:16:00,19,32,17,23,21,20,19,22,22
11:17:00,14,13,25,24,20,14,22,19,19
11:18:00,21,25,20,26,13,23,19,21,21
11:19:00,16,18,15,18,17,17,17,17,17
11:20:00,23,16,17,17,18,16,13,18,17
11:21:00,23,15,20,19,23,14,22,20,19
11:22:00,21,21,10,22,28,17,10,20,18
11:23:00,25,20,17,19,19,29,16,20,21
11:24:00,22,13,24,23,28,17,25,22,22
11:25:00,25,17,17,22,20,27,16,20,21
11:26:00,17,24,20,17,17,14,21,19,19
11:27:00,16,16,21,15,21,26,18,18,19
11:28:00,18,13,15,16,14,20,9,15,15
11:29:00,12,26,16,20,27,25,14,20,20
11:30:00,24,14,27,24,24,20,13,23,21
11:31:00,26,21,22,11,29,25,24,22,23
11:32:00,23,29,13,11,21,24,21,19,20
11:33:00,19,17,16,15,21,16,17,18,17
11:34:00,13,22,17,13,19,28,16,17,18
11:35:00,16,15,28,21,18,26,13,20,20
11:36:00,20,19,12,20,21,35,17,18,21
11:37:00,19,33,29,19,20,22,10,24,22
11:38:00,23,19,14,24,16,19,12,19,18
11:39:00,22,22,27,20,25,12,21,23,21
11:40:00,24,14,24,14,21,23,19,19,20
11:41:00,19,21,26,26,18,18,15,22,20
11:42:00,19,25,21,25,24,21,6,23,20
11:43:00,18,23,21,20,17,16,17,20,19
11:44:00,21,17,12,11,22,14,15,17,16
11:45:00,12,22,19,34,22,13,18,22,20
11:46:00,14,22,27,19,25,23,9,21,20
11:47:00,26,20,29,19,12,24,18,21,21
11:48:00,24,17,26,16,20,18,21,21,20
11:49:00,18,21,17,21,23,36,17,20,22
11:50:00,24,21,11,18,26,22,13,20,19
11:51:00,19,14,26,24,27,13,19,22,20
11:52:00,23,21,22,24,13,23,17,21,20
11:53:00,20,23,22,26,25,19,24,23,23
11:54:00,23,22,18,18,10,21,26,18,20
11:55:00,23,19,25,28,25,16,19,24,22
11:56:00,23,17,18,26,20,23,23,21,21
11:57:00,25,11,11,20,20,29,21,17,20
11:58:00,17,21,13,17,22,19,19,18,18
11:59:00,15,15,16,25,17,18,18,18,18
12:00:00,12,30,18,20,23,16,15,21,19
12:01:00,24,13,24,16,22,25,16,20,20
12:02:00,23,14,15,9,27,24,17,18,18
12:03:00,19,15,27,20,27,17,14,22,20
12:04:00,22,29,9,16,15,24,15,18,19
12:05:00,15,27,23,19,20,14,14,21,19
12:06:00,19,20,31,21,22,26,13,23,22
12:07:00,14,14,20,19,18,20,17,17,17
12:08:00,20,26,19,20,19,16,14,21,19
12:09:00,22,19,16,15,27,14,19,20,19
12:10:00,26,31,23,16,23,22,23,24,23
12:11:00,22,28,20,29,20,22,22,24,23
12:12:00,23,15,17,15,25,29,24,19,21
12:13:00,21,21,26,23,22,31,14,23,23
12:14:00,20,18,20,20,22,27,19,20,21
12:15:00,14,21,11,27,20,16,20,19,18
12:16:00,25,22,12,22,25,20,21,21,21
12:17:00,17,16,22,25,23,19,20,21,20
12:18:00,19,23,32,24,31,28,14,26,24
12:19:00,20,21,28,17,21,25,13,21,21
12:20:00,29,28,21,24,25,15,21,25,23
12:21:00,26,26,13,20,17,27,12,20,20
12:22:00,23,31,23,21,27,23,17,25,24
12:23:00,20,17,17,15,26,18,20,19,19
12:24:00,22,17,20,29,20,24,16,22,21
12:25:00,19,19,16,13,17,22,9,17,16
12:26:00,16,18,18,18,15,17,24,17,18
12:27:00,17,19,18,26,25,25,13,21,20
12:28:00,24,17,22,17,24,23,23,21,21
12:29:00,21,25,16,18,30,12,12,22,19
12:30:00,32,20,23,23,26,20,22,25,24
12:31:00,14,20,15,17,16,17,13,16,16
12:32:00,26,18,19,18,19,21,14,20,19
12:33:00,20,19,13,13,21,18,11,17,16
12:34:00,13,19,19,13,18,32,15,16,18
12:35:00,23,23,21,13,16,16,17,19,18
12:36:00,26,19,23,16,23,16,17,21,20
12:37:00,14,18,16,23,21,17,16,18,18
12:38:00,17,20,34,19,30,14,16,24,21
12:39:00,19,22,15,21,19,20,16,19,19
12:40:00,26,20,16,16,21,14,15,20,18
12:41:00,18,33,19,17,21,25,21,22,22
12:42:00,17,33,21,29,22,20,21,24,23
12:43:00,19,16,18,24,21,18,20,20,19
12:44:00,22,19,20,12,30,26,29,21,23
12:45:00,15,19,23,19,22,26,25,20,21
12:46:00,13,22,18,29,26,25,19,22,22
12:47:00,15,23,29,23,16,17,13,21,19
12:48:00,24,24,17,16,15,29,16,19,20
12:49:00,25,13,19,23,32,19,14,22,21
12:50:00,23,20,16,17,15,15,15,18,17
12:51:00,16,21,29,24,17,17,18,21,20
12:52:00,25,20,17,16,16,17,11,19,17
12:53:00,17,22,23,16,23,29,9,20,20
12:54:00,28,19,20,15,18,22,16,20,20
12:55:00,21,23,12,13,27,37,19,19,22
12:56:00,28,20,25,18,16,17,23,21,21
12:57:00,20,11,24,21,29,20,17,21,20
12:58:00,19,19,24,13,22,27,18,19,20
12:59:00,20,22,25,16,23,27,17,21,21
13:00:00,21,10,24,17,14,35,13,17,19
13:01:00,12,21,24,21,14,39,14,18,21
13:02:00,24,17,22,19,22,23,15,21,20
13:03:00,21,16,17,23,16,15,19,19,18
13:04:00,20,20,26,22,24,22,18,22,22
13:05:00,22,22,20,21,26,20,18,22,21
13:06:00,25,24,20,15,23,30,19,21,22
13:07:00,23,11,21,23,14,16,16,18,18
13:08:00,25,24,15,22,21,27,18,21,22
13:09:00,29,19,29,21,20,22,20,24,23
13:10:00,17,25,25,21,22,16,12,22,20
13:11:00,25,28,26,17,26,24,18,24,23
13:12:00,16,19,24,17,20,17,17,19,19
13:13:00,18,24,23,10,30,21,16,21,20
13:14:00,17,22,14,23,19,19,10,19,18
13:15:00,22,29,29,15,17,20,26,22,23
13:16:00,17,27,18,14,24,20,13,20,19
13:17:00,24,25,19,22,15,32,15,21,22
13:18:00,22,24,14,31,15,25,12,21,20
13:19:00,22,25,15,15,43,23,13,24,22
13:20:00,36,18,15,19,24,25,13,22,21
13:21:00,28,13,14,18,24,21,16,19,19
13:22:00,25,32,18,31,17,24,13,25,23
13:23:00,10,17,26,19,26,20,20,20,20
13:24:00,14,16,8,17,26,26,15,16,17
13:25:00,14,20,26,23,21,12,17,21,19
13:26:00,14,28,14,17,24,20,11,19,18
13:27:00,23,18,28,27,16,21,15,22,21
13:28:00,20,26,15,18,16,25,15,19,19
13:29:00,14,21,24,25,14,29,11,20,20
13:30:00,23,23,21,31,9,23,11,21,20
13:31:00,21,19,27,14,17,19,14,20,19
13:32:00,21,10,10,15,10,15,15,13,14
13:33:00,20,19,23,19,17,21,12,20,19
13:34:00,15,19,21,18,22,20,12,19,18
13:35:00,16,18,24,14,25,29,13,19,20
13:36:00,13,20,21,16,18,18,23,18,18
13:37:00,15,21,17,19,14,21,13,17,17
13:38:00,24,26,20,19,30,23,13,24,22
13:39:00,17,23,15,26,28,23,12,22,21
13:40:00,10,27,28,21,19,13,12,21,19
13:41:00,23,20,21,20,25,11,19,22,20
13:42:00,21,19,17,18,26,17,17,20,19
13:43:00,24,27,23,21,23,17,11,24,21
13:44:00,26,16,20,18,20,16,16,20,19
13:45:00,23,16,19,23,27,14,19,22,20
13:46:00,16,24,24,16,26,16,16,21,20
13:47:00,16,22,15,23,16,21,11,18,18
13:48:00,14,19,20,14,23,12,15,18,17
13:49:00,24,25,11,21,30,22,20,22,22
13:50:00,15,23,19,21,19,13,18,19,18
13:51:00,15,18,19,20,13,18,19,17,17
13:52:00,26,22,18,20,21,13,17,21,20
13:53:00,28,15,20,14,22,12,12,20,18
13:54:00,20,28,14,28,29,16,11,24,21
13:55:00,18,22,13,11,30,24,20,19,20
13:56:00,17,24,24,12,13,18,17,18,18
13:57:00,16,17,16,15,14,21,11,16,16
13:58:00,23,12,24,24,14,15,13,19,18
13:59:00,21,19,22,19,16,10,15,19,17
14:00:00,18,14,28,21,19,15,11,20,18
14:01:00,16,20,20,21,20,24,14,19,19
14:02:00,14,24,22,20,14,19,13,19,18
14:03:00,24,12,22,22,6,19,16,17,17
14:04:00,21,20,24,16,27,23,12,22,20
14:05:00,18,24,17,21,22,13,12,20,18
14:06:00,16,15,19,23,21,9,15,19,17
14:07:00,16,22,18,24,20,26,10,20,19
14:08:00,13,14,15,24,23,29,13,18,19
14:09:00,15,24,31,13,27,14,8,22,19
14:10:00,15,21,18,14,26,19,14,19,18
14:11:00,11,24,15,17,23,23,9,18,17
14:12:00,13,15,26,25,25,14,20,21,20
14:13:00,16,29,15,20,16,20,9,19,18
14:14:00,15,13,28,23,15,15,9,19,17
14:15:00,17,21,14,23,30,19,12,21,19
14:16:00,15,12,17,21,25,17,12,18,17
14:17:00,18,16,18,17,20,13,19,18,17
14:18:00,18,17,15,18,25,16,4,19,16
14:19:00,16,23,33,22,20,17,18,23,21
14:20:00,23,14,16,27,19,10,13,20,17
14:21:00,18,20,23,24,26,13,11,22,19
14:22:00,24,19,19,13,25,23,6,20,18
14:23:00,21,24,23,24,26,20,13,24,22
14:24:00,19,15,24,22,24,20,12,21,19
14:25:00,18,34,24,22,21,22,8,24,21
14:26:00,18,17,19,24,15,19,8,19,17
14:27:00,19,21,27,22,22,15,7,22,19
14:28:00,15,18,20,20,22,21,7,19,18
14:29:00,21,30,28,32,11,24,11,24,22
14:30:00,20,16,18,31,25,23,13,22,21
14:31:00,15,26,16,13,15,22,6,17,16
14:32:00,20,31,11,22,8,13,13,18,17
14:33:00,22,21,14,28,16,20,19,20,20
14:34:00,22,14,14,30,20,23,15,20,20
14:35:00,27,22,23,26,12,25,13,22,21
14:36:00,28,21,20,27,23,19,11,24,21
14:37:00,20,17,25,25,15,18,9,20,18
14:38:00,31,30,15,24,19,18,20,24,22
14:39:00,28,20,28,18,21,20,12,23,21
14:40:00,17,28,17,19,23,16,15,21,19
14:41:00,19,22,28,16,19,22,15,21,20
14:42:00,19,25,31,21,28,13,15,25,22
14:43:00,19,21,29,18,21,23,16,22,21
14:44:00,19,14,11,21,25,17,18,18,18
14:45:00,21,22,27,25,31,23,15,25,23
14:46:00,32,24,21,26,19,29,23,24,25
14:47:00,22,20,20,15,28,18,14,21,20
14:48:00,17,25,32,18,13,14,21,21,20
14:49:00,19,21,23,20,19,19,13,20,19
14:50:00,19,19,17,25,17,22,12,19,19
14:51:00,16,27,13,27,29,16,16,22,21
14:52:00,33,21,12,20,29,24,22,23,23
14:53:00,18,19,15,24,22,23,15,20,19
14:54:00,20,16,13,21,15,22,14,17,17
14:55:00,15,18,15,17,20,17,18,17,17
14:56:00,23,22,16,20,20,17,16,20,19
14:57:00,22,17,24,26,23,18,19,22,21
14:58:00,16,25,17,22,21,21,20,20,20
14:59:00,16,25,13,14,25,25,17,19,19
15:00:00,20,15,17,28,28,16,12,22,19
15:01:00,18,24,14,14,20,14,14,18,17
15:02:00,17,18,24,18,21,22,17,20,20
15:03:00,22,33,20,31,21,16,21,25,23
15:04:00,26,17,19,25,25,23,18,22,22
15:05:00,25,26,24,26,25,16,13,25,22
15:06:00,16,24,28,12,21,24,13,20,20
15:07:00,17,20,12,31,23,23,15,21,20
15:08:00,20,24,18,16,22,19,13,20,19
15:09:00,18,13,11,26,22,22,13,18,18
15:10:00,22,16,16,24,19,16,13,19,18
15:11:00,18,26,23,33,26,18,10,25,22
15:12:00,18,13,24,29,27,22,13,22,21
15:13:00,20,22,25,22,17,22,13,21,20
15:14:00,21,24,32,15,25,21,15,23,22
15:15:00,24,19,28,20,30,18,14,24,22
15:16:00,19,24,21,27,25,16,10,23,20
15:17:00,25,17,27,17,24,20,19,22,21
15:18:00,19,11,21,19,17,17,15,17,17
15:19:00,25,17,21,23,16,18,19,20,20
15:20:00,21,14,22,23,27,22,12,21,20
15:21:00,20,21,13,26,26,21,15,21,20
15:22:00,21,16,18,20,14,25,12,18,18
15:23:00,16,22,22,22,13,17,15,19,18
15:24:00,25,19,18,17,6,18,15,17,17
15:25:00,20,21,14,15,17,20,17,17,18
15:26:00,20,25,19,13,21,19,11,20,18
15:27:00,31,19,13,21,24,12,18,22,20
15:28:00,12,18,9,22,23,18,15,17,17
15:29:00,25,18,13,20,18,26,14,19,19
15:30:00,12,24,13,19,19,18,8,17,16
15:31:00,22,18,15,25,18,18,17,20,19
15:32:00,21,14,15,25,16,17,18,18,18
15:33:00,18,17,9,19,22,24,15,17,18
15:34:00,12,20,10,11,23,14,16,15,15
15:35:00,9,20,16,22,26,18,9,19,17
15:36:00,16,24,14,15,22,16,22,18,18
15:37:00,10,12,18,20,27,12,13,17,16
15:38:00,19,23,20,17,17,17,12,19,18
15:39:00,20,20,9,12,29,22,6,18,17
15:40:00,21,19,13,20,21,17,14,19,18
15:41:00,18,27,17,20,21,25,10,21,20
15:42:00,28,23,20,14,27,16,14,22,20
15:43:00,33,19,27,23,20,16,20,24,23
15:44:00,21,20,28,17,23,21,18,22,21
15:45:00,25,20,24,20,14,20,13,21,19
15:46:00,18,21,24,28,17,23,9,22,20
15:47:00,28,21,19,28,17,21,13,23,21
15:48:00,25,15,24,16,10,14,15,18,17
15:49:00,32,20,13,22,25,23,14,22,21
15:50:00,21,20,13,17,22,20,16,19,18
15:51:00,14,26,22,21,15,26,21,20,21
15:52:00,19,27,17,13,23,19,18,20,19
15:53:00,29,24,13,23,17,15,18,21,20
15:54:00,17,23,12,14,28,20,13,19,18
15:55:00,19,23,24,13,18,23,18,19,20
15:56:00,18,18,26,9,19,17,13,18,17
15:57:00,16,19,23,11,12,21,16,16,17
15:58:00,18,30,17,14,19,19,16,20,19
15:59:00,19,16,21,12,19,16,11,17,16
16:00:00,17,17,21,27,15,16,18,19,19
16:01:00,15,16,32,16,22,25,10,20,19
16:02:00,31,20,22,18,30,14,14,24,21
16:03:00,25,22,31,20,12,13,14,22,20
16:04:00,22,22,28,21,22,15,16,23,21
16:05:00,29,18,23,23,27,19,17,24,22
16:06:00,27,18,33,14,25,19,16,23,22
16:07:00,16,21,27,21,21,13,27,21,21
16:08:00,16,32,13,18,18,26,19,19,20
16:09:00,21,27,26,18,23,24,19,23,23
16:10:00,27,24,20,14,18,21,20,21,21
16:11:00,21,23,28,22,21,17,16,23,21
16:12:00,21,20,22,21,28,10,26,22,21
16:13:00,33,23,25,24,17,24,11,24,22
16:14:00,18,26,23,20,25,15,13,22,20
16:15:00,31,21,22,15,27,28,10,23,22
16:16:00,20,15,23,14,17,26,13,18,18
16:17:00,20,31,34,19,18,23,17,24,23
16:18:00,14,15,18,26,25,23,14,20,19
16:19:00,23,23,17,16,25,25,15,21,21
16:20:00,25,23,16,19,16,22,15,20,19
16:21:00,15,19,19,25,21,24,19,20,20
16:22:00,21,24,16,19,21,22,9,20,19
16:23:00,29,17,26,25,23,16,16,24,22
16:24:00,23,17,32,8,28,18,13,22,20
16:25:00,26,19,17,20,22,26,8,21,20
16:26:00,29,22,16,22,22,28,19,22,23
16:27:00,28,17,23,23,34,23,20,25,24
16:28:00,18,20,20,19,14,23,19,18,19
16:29:00,20,19,15,16,18,23,22,18,19
16:30:00,25,23,22,18,19,19,12,21,20
16:31:00,23,22,36,21,20,17,12,24,22
16:32:00,22,19,18,12,11,19,19,16,17
16:33:00,24,8,31,8,33,21,8,21,19
16:34:00,32,17,21,12,15,19,10,19,18
16:35:00,18,18,19,23,25,22,20,21,21
16:36:00,30,29,10,21,20,22,20,22,22
16:37:00,28,26,19,22,17,23,16,22,22
16:38:00,24,31,28,20,21,19,15,25,23
16:39:00,6,27,33,9,17,19,13,18,18
16:40:00,21,27,19,16,21,20,20,21,21
16:41:00,10,19,18,9,15,20,14,14,15
16:42:00,14,10,25,5,14,20,14,14,15
16:43:00,10,21,30,14,13,16,11,18,16
16:44:00,18,26,32,23,14,19,19,23,22
16:45:00,19,26,9,32,16,11,14,20,18
16:46:00,17,21,28,31,11,22,20,22,21
16:47:00,10,25,21,28,19,22,16,21,20
16:48:00,8,24,21,28,16,27,13,19,20
16:49:00,13,18,16,27,6,23,17,16,17
16:50:00,13,18,13,9,21,23,11,15,15
16:51:00,18,22,21,8,25,24,17,19,19
16:52:00,20,23,28,11,20,18,13,20,19
16:53:00,22,19,25,15,13,27,12,19,19
16:54:00,15,28,19,9,17,23,19,18,19
16:55:00,14,24,21,17,18,30,13,19,20
16:56:00,20,29,5,23,15,24,14,18,19
16:57:00,18,15,22,23,14,17,13,18,17
16:58:00,15,27,9,28,25,23,13,21,20
16:59:00,24,27,17,21,12,25,7,20,19
17:00:00,29,21,15,16,17,15,12,20,18
17:01:00,25,17,26,14,28,13,20,22,20
17:02:00,23,19,12,14,12,26,15,16,17
17:03:00,22,25,15,22,22,19,17,21,20
17:04:00,25,16,20,18,22,12,14,20,18
17:05:00,22,24,25,27,19,19,15,23,22
17:06:00,32,8,24,19,19,29,15,20,21
17:07:00,33,21,18,21,24,23,22,23,23
17:08:00,23,19,15,28,27,21,13,22,21
17:09:00,21,11,11,18,19,19,15,16,16
17:10:00,20,23,10,33,27,21,10,23,21
17:11:00,18,21,29,27,22,26,24,23,24
17:12:00,6,15,25,24,22,17,20,18,18
17:13:00,17,21,22,12,22,18,13,19,18
17:14:00,20,26,26,18,23,19,13,23,21
17:15:00,13,17,21,5,6,6,17,12,12
17:16:00,11,13,15,8,8,9,10,11,11
17:17:00,6,13,28,18,8,15,15,15,15
17:18:00,17,9,12,20,16,10,7,15,13
17:19:00,15,13,17,19,6,13,12,14,14
17:20:00,12,28,20,6,10,11,19,15,15
17:21:00,7,14,23,12,13,13,27,14,16
17:22:00,14,8,23,8,12,12,12,13,13
17:23:00,10,7,16,11,17,12,12,12,12
17:24:00,18,9,17,11,16,10,19,14,14
17:25:00,13,28,18,8,12,8,12,16,14
17:26:00,14,6,30,13,10,12,11,15,14
17:27:00,19,14,15,17,23,22,11,18,17
17:28:00,21,20,10,9,9,11,6,14,12
17:29:00,22,4,22,8,9,8,19,13,13
17:30:00,18,13,29,6,16,8,13,16,15
17:31:00,38,9,19,10,14,21,18,18,18
17:32:00,22,11,13,19,9,9,14,15,14
17:33:00,21,10,11,20,20,11,17,16,16
17:34:00,21,16,17,8,13,13,16,15,15
17:35:00,26,11,23,11,12,7,11,17,14
17:36:00,21,12,18,8,13,14,13,14,14
17:37:00,20,9,20,9,13,15,16,14,15
17:38:00,21,13,14,17,7,15,18,14,15
17:39:00,20,14,15,9,11,14,11,14,13
17:40:00,29,13,19,15,11,21,21,17,18
17:41:00,25,10,21,16,18,16,12,18,17
17:42:00,27,14,24,12,21,19,14,20,19
17:43:00,23,10,21,14,18,18,7,17,16
17:44:00,29,18,10,24,18,4,17,20,17
17:45:00,25,16,12,14,26,15,14,19,17
17:46:00,22,13,18,16,27,18,10,19,18
17:47:00,22,21,16,31,13,16,9,21,18
17:48:00,14,16,17,19,25,16,12,18,17
17:49:00,22,16,18,21,17,12,20,19,18
17:50:00,26,25,23,18,23,16,16,23,21
17:51:00,29,16,20,21,25,22,12,22,21
17:52:00,21,20,7,16,20,21,12,17,17
17:53:00,21,13,8,19,22,19,11,17,16
17:54:00,14,16,27,25,26,18,8,22,19
17:55:00,18,18,21,31,24,19,19,22,21
17:56:00,27,17,16,23,22,21,11,21,20
17:57:00,20,16,20,29,15,23,10,20,19
17:58:00,22,19,27,27,22,20,15,23,22
17:59:00,24,23,22,22,26,15,20,23,22
18:00:00,21,23,15,25,20,24,12,21,20
18:01:00,18,14,18,16,32,21,7,20,18
18:02:00,21,20,22,14,16,19,14,19,18
18:03:00,10,7,16,30,11,24,12,15,16
18:04:00,25,16,21,16,26,16,9,21,18
18:05:00,15,19,22,18,20,16,16,19,18
18:06:00,22,20,19,22,14,17,11,19,18
18:07:00,17,26,34,23,18,21,14,24,22
18:08:00,27,20,27,22,24,30,13,24,23
18:09:00,15,17,23,29,24,13,10,22,19
18:10:00,15,30,23,21,24,13,14,23,20
18:11:00,23,31,21,23,24,22,12,24,22
18:12:00,20,21,20,17,15,29,15,19,20
18:13:00,27,26,17,18,20,19,12,22,20
18:14:00,20,28,26,13,22,16,8,22,19
18:15:00,26,25,15,30,22,21,11,24,21
18:16:00,17,17,24,25,25,23,14,22,21
18:17:00,17,24,28,22,23,25,13,23,22
18:18:00,20,21,26,28,28,19,10,25,22
18:19:00,21,27,16,22,25,20,17,22,21
18:20:00,23,24,16,25,18,26,9,21,20
18:21:00,31,17,21,27,21,17,10,23,21
18:22:00,20,17,22,27,17,15,10,21,18
18:23:00,19,23,25,26,23,18,16,23,21
18:24:00,21,21,16,22,21,17,10,20,18
18:25:00,20,22,19,13,21,22,12,19,18
18:26:00,20,21,13,19,15,7,7,18,15
18:27:00,14,19,22,31,20,9,13,21,18
18:28:00,13,16,26,22,19,8,11,19,16
18:29:00,21,13,25,30,17,13,9,21,18
18:30:00,21,14,24,29,16,13,14,21,19
18:31:00,14,16,15,26,24,6,8,19,16
18:32:00,20,19,22,25,15,18,8,20,18
18:33:00,25,21,22,27,22,19,15,23,22
18:34:00,15,19,20,21,20,19,11,19,18
18:35:00,20,22,18,24,17,12,9,20,17
18:36:00,17,22,18,21,20,23,11,20,19
18:37:00,22,15,26,18,9,17,14,18,17
18:38:00,23,15,12,18,18,30,11,17,18
18:39:00,19,21,19,21,24,21,13,21,20
18:40:00,13,17,18,16,19,14,15,17,16
18:41:00,21,13,16,18,18,17,10,17,16
18:42:00,18,26,21,21,25,21,12,22,21
18:43:00,17,22,20,25,16,22,5,20,18
18:44:00,19,17,17,17,17,24,13,17,18
18:45:00,20,18,16,28,12,20,9,19,18
18:46:00,13,16,22,26,17,17,17,19,18
18:47:00,25,18,17,17,12,20,18,18,18
18:48:00,18,14,21,21,17,14,7,18,16
18:49:00,15,16,28,18,13,19,8,18,17
18:50:00,23,19,18,25,21,13,8,21,18
18:51:00,18,18,25,17,18,14,10,19,17
18:52:00,18,22,16,27,13,24,11,19,19
18:53:00,12,18,28,14,18,14,11,18,16
18:54:00,20,19,11,28,19,13,13,19,18
18:55:00,16,24,14,22,15,19,12,18,17
18:56:00,17,17,21,20,25,14,13,20,18
18:57:00,21,20,25,27,16,22,9,22,20
18:58:00,15,15,14,27,14,21,18,17,18
18:59:00,18,14,14,15,22,26,5,17,16
19:00:00,18,15,21,19,16,27,13,18,18
19:01:00,18,17,14,12,15,20,10,15,15
19:02:00,23,18,28,17,12,17,6,20,17
19:03:00,16,15,16,16,14,24,13,15,16
19:04:00,12,24,21,22,24,19,20,21,20
19:05:00,11,12,25,19,22,19,9,18,17
19:06:00,15,24,19,22,10,13,19,18,17
19:07:00,23,25,18,14,10,11,12,18,16
19:08:00,18,24,14,13,17,12,13,17,16
19:09:00,16,15,20,28,17,20,14,19,19
19:10:00,21,23,17,21,20,15,8,20,18
19:11:00,12,11,21,20,23,19,12,17,17
19:12:00,18,24,18,20,10,20,8,18,17
19:13:00,19,17,15,24,24,11,9,20,17
19:14:00,9,23,18,17,12,19,16,16,16
19:15:00,23,16,21,19,11,12,12,18,16
19:16:00,21,19,19,22,23,17,12,21,19
19:17:00,22,13,16,19,15,12,11,17,15
19:18:00,14,27,32,19,22,9,11,23,19
19:19:00,16,27,20,14,17,12,13,19,17
19:20:00,19,12,24,24,19,15,10,20,18
19:21:00,25,30,20,21,12,16,9,22,19
19:22:00,18,17,15,15,18,13,6,17,15
19:23:00,12,24,28,18,16,5,13,20,17
19:24:00,11,13,21,26,17,23,7,18,17
19:25:00,13,21,14,13,11,20,9,14,14
19:26:00,19,14,16,14,13,20,6,15,15
19:27:00,9,14,18,17,14,15,7,14,13
19:28:00,18,13,17,18,13,11,14,16,15
19:29:00,12,10,13,19,11,23,11,13,14
19:30:00,17,13,15,20,15,12,12,16,15
19:31:00,11,17,9,13,11,9,14,12,12
19:32:00,9,14,16,14,19,6,8,14,12
19:33:00,16,13,19,15,10,13,7,15,13
19:34:00,15,17,12,16,10,6,12,14,13
19:35:00,12,14,16,14,16,21,14,14,15
19:36:00,19,10,12,17,10,22,7,14,14
19:37:00,15,10,12,15,16,11,15,14,13
19:38:00,14,21,22,15,12,14,12,17,16
19:39:00,10,17,13,17,9,14,10,13,13
19:40:00,12,11,14,10,9,12,8,11,11
19:41:00,13,16,21,17,16,8,8,17,14
19:42:00,9,18,16,13,15,14,10,14,14
19:43:00,12,19,17,18,20,8,8,17,15
19:44:00,16,15,12,12,9,18,14,13,14
19:45:00,12,23,16,20,17,12,10,18,16
19:46:00,12,13,23,22,16,11,7,17,15
19:47:00,15,12,16,11,9,3,12,13,11
19:48:00,15,18,11,20,16,8,6,16,13
19:49:00,9,9,13,14,9,10,12,11,11
19:50:00,14,21,16,16,14,11,17,16,16
19:51:00,15,12,15,12,7,8,9,12,11
19:52:00,11,14,12,15,15,7,11,13,12
19:53:00,13,18,14,14,8,12,7,13,12
19:54:00,12,21,11,13,11,6,11,14,12
19:55:00,13,9,11,9,14,7,13,11,11
19:56:00,5,14,10,11,10,13,9,10,10
19:57:00,9,9,21,18,5,11,9,12,12
19:58:00,11,15,14,19,8,15,9,13,13
19:59:00,12,9,10,15,9,3,11,11,10
20:00:00,8,16,17,10,9,8,12,12,11
20:01:00,6,12,20,12,17,15,9,13,13
20:02:00,12,13,12,11,13,5,5,12,10
20:03:00,10,7,15,15,13,11,8,12,11
20:04:00,8,15,13,15,8,7,13,12,11
20:05:00,15,14,17,13,13,9,8,14,13
20:06:00,24,16,11,16,8,16,12,15,15
20:07:00,20,11,14,15,12,12,8,14,13
20:08:00,13,13,10,17,14,4,11,13,12
20:09:00,9,12,16,18,20,10,8,15,13
20:10:00,16,22,14,18,11,11,7,16,14
20:11:00,18,12,21,15,6,12,13,14,14
20:12:00,20,19,20,23,20,3,10,20,16
20:13:00,17,14,15,11,12,17,12,14,14
20:14:00,20,17,15,16,17,14,8,17,15
20:15:00,11,20,11,15,15,10,6,14,13
20:16:00,11,14,22,15,6,12,5,14,12
20:17:00,12,7,21,19,14,12,9,15,13
20:18:00,13,17,18,17,11,13,12,15,14
20:19:00,8,6,10,9,11,9,7,9,9
20:20:00,9,14,15,9,9,4,5,11,9
20:21:00,7,11,13,10,11,11,11,10,11
20:22:00,19,14,17,11,8,7,13,14,13
20:23:00,14,5,13,15,14,14,9,12,12
20:24:00,12,8,11,12,9,7,5,10,9
20:25:00,3,10,13,11,9,9,5,9,9
20:26:00,13,8,10,11,11,6,7,11,9
20:27:00,6,10,13,8,11,5,15,10,10
20:28:00,10,13,15,14,8,8,8,12,11
20:29:00,5,10,9,7,8,11,7,8,8
20:30:00,8,12,12,10,9,6,13,10,10
20:31:00,10,9,10,8,10,11,8,9,9
20:32:00,4,16,7,8,9,8,4,9,8
20:33:00,5,10,16,6,7,11,9,9,9
20:34:00,7,18,16,13,7,11,3,12,11
20:35:00,16,9,12,8,7,9,8,10,10
20:36:00,12,12,12,15,5,16,3,11,11
20:37:00,10,19,16,13,11,10,12,14,13
20:38:00,11,6,14,8,9,11,9,10,10
20:39:00,4,11,11,9,10,11,5,9,9
20:40:00,8,7,10,10,9,6,8,9,8
20:41:00,13,15,16,19,10,8,5,15,12
20:42:00,13,14,7,9,6,7,8,10,9
20:43:00,5,13,11,15,5,13,11,10,10
20:44:00,8,7,11,8,5,6,6,8,7
20:45:00,13,13,9,5,7,13,5,9,9
20:46:00,6,9,8,11,10,10,5,9,8
20:47:00,13,9,9,15,11,5,6,11,10
20:48:00,11,7,11,11,8,9,4,10,9
20:49:00,7,8,10,9,6,10,5,8,8
20:50:00,6,9,15,10,10,6,6,10,9
20:51:00,8,8,9,11,8,10,5,9,8
20:52:00,7,13,8,7,7,9,8,8,8
20:53:00,8,15,9,13,5,7,10,10,10
20:54:00,10,11,10,11,7,9,11,10,10
20:55:00,10,5,7,9,7,6,7,8,7
20:56:00,2,9,12,6,10,12,5,8,8
20:57:00,10,8,10,17,4,11,4,10,9
20:58:00,4,8,8,11,11,4,5,8,7
20:59:00,6,8,10,5,8,10,4,7,7
21:00:00,10,3,12,14,4,4,10,9,8
21:01:00,11,7,7,11,10,14,4,9,9
21:02:00,6,10,11,9,8,10,4,9,8
21:03:00,10,4,9,5,8,9,5,7,7
21:04:00,7,4,7,9,9,11,4,7,7
21:05:00,7,16,4,9,8,6,9,9,8
21:06:00,10,6,14,8,13,13,7,10,10
21:07:00,5,8,8,4,7,8,12,6,7
21:08:00,6,15,10,13,7,6,7,10,9
21:09:00,16,8,11,7,8,10,12,10,10
21:10:00,13,6,8,14,14,7,7,11,10
21:11:00,6,9,16,12,19,6,4,12,10
21:12:00,13,18,9,17,10,7,8,13,12
21:13:00,9,5,9,7,9,11,8,8,8
21:14:00,14,10,9,11,3,10,10,9,10
21:15:00,12,13,12,13,6,17,9,11,12
21:16:00,11,8,13,7,5,8,4,9,8
21:17:00,12,9,10,7,9,9,7,9,9
21:18:00,8,12,11,10,6,11,5,9,9
21:19:00,5,13,13,8,9,7,12,10,10
21:20:00,5,13,9,18,3,3,7,10,8
21:21:00,11,7,10,8,11,4,6,9,8
21:22:00,10,6,12,8,2,6,7,8,7
21:23:00,10,6,6,13,4,11,3,8,8
21:24:00,10,10,14,12,10,4,10,11,10
21:25:00,7,5,10,16,3,6,5,8,7
21:26:00,6,7,10,6,7,3,4,7,6
21:27:00,5,12,14,16,11,9,3,12,10
21:28:00,10,10,11,8,3,7,1,8,7
21:29:00,14,3,7,5,9,6,6,8,7
21:30:00,9,12,9,7,7,10,6,9,9
21:31:00,9,12,14,13,9,9,7,11,10
21:32:00,7,8,17,8,8,16,9,10,10
21:33:00,6,10,11,13,13,8,11,11,10
21:34:00,3,7,15,7,4,8,6,7,7
21:35:00,6,6,4,8,11,13,6,7,8
21:36:00,7,8,7,11,4,9,1,7,7
21:37:00,5,7,10,9,6,7,5,7,7
21:38:00,5,7,10,14,13,11,6,10,9
21:39:00,9,11,9,6,9,4,4,9,7
21:40:00,13,8,5,8,13,4,3,9,8
21:41:00,4,8,11,10,9,10,5,8,8
21:42:00,10,7,9,14,11,7,4,10,9
21:43:00,7,8,9,9,11,4,8,9,8
21:44:00,6,6,9,16,9,11,2,9,8
21:45:00,7,5,5,11,5,10,4,7,7
21:46:00,1,11,11,10,7,4,7,8,7
21:47:00,4,9,10,9,6,11,9,8,8
21:48:00,3,14,8,3,10,7,3,8,7
21:49:00,7,14,8,6,12,9,4,9,9
21:50:00,6,11,9,7,9,8,3,8,8
21:51:00,7,9,9,4,6,10,5,7,7
21:52:00,5,7,11,10,8,7,4,8,7
21:53:00,9,7,6,5,10,12,4,7,8
21:54:00,6,8,4,9,5,4,6,6,6
21:55:00,4,11,11,10,9,9,5,9,8
21:56:00,1,10,8,5,5,9,4,6,6
21:57:00,5,7,7,9,11,6,5,8,7
21:58:00,4,8,9,3,8,6,4,6,6
21:59:00,9,5,7,5,9,12,3,7,7
22:00:00,8,10,6,10,6,10,3,8,8
22:01:00,10,9,5,10,6,10,9,8,8
22:02:00,9,5,10,6,4,11,5,7,7
22:03:00,2,5,3,9,7,7,7,5,6
22:04:00,5,13,10,6,6,3,7,8,7
22:05:00,5,7,12,11,8,8,3,9,8
22:06:00,7,5,3,4,6,9,8,5,6
22:07:00,3,8,6,10,7,10,5,7,7
22:08:00,5,15,3,8,13,8,6,9,8
22:09:00,3,8,6,9,3,7,4,6,6
22:10:00,11,7,9,11,6,8,4,9,8
22:11:00,5,6,9,8,3,10,5,6,7
22:12:00,11,9,12,9,10,6,4,10,9
22:13:00,9,6,7,8,12,10,1,8,8
22:14:00,14,3,9,4,6,5,4,7,6
22:15:00,6,10,4,11,7,7,1,8,7
22:16:00,6,8,7,8,3,7,6,6,6
22:17:00,2,9,7,11,3,11,10,6,8
22:18:00,12,6,6,5,10,6,5,8,7
22:19:00,7,6,10,13,10,4,3,9,8
22:20:00,3,6,5,7,7,6,8,6,6
22:21:00,7,8,3,6,6,7,3,6,6
22:22:00,3,8,8,6,5,3,2,6,5
22:23:00,6,5,9,10,4,5,2,7,6
22:24:00,4,7,9,8,4,8,8,6,7
22:25:00,7,11,8,7,8,8,4,8,8
22:26:00,3,2,7,2,8,9,4,4,5
22:27:00,6,3,8,9,4,7,4,6,6
22:28:00,8,5,7,7,8,5,5,7,6
22:29:00,5,6,4,5,7,9,3,5,6
22:30:00,4,6,3,8,2,6,5,5,5
22:31:00,9,9,3,9,2,8,4,6,6
22:32:00,6,8,5,6,4,8,1,6,5
22:33:00,7,9,3,7,6,13,3,6,7
22:34:00,5,4,9,5,5,7,2,6,5
22:35:00,4,9,5,2,9,9,7,6,6
22:36:00,7,10,7,7,3,8,1,7,6
22:37:00,6,5,7,10,11,9,6,8,8
22:38:00,4,5,7,4,6,9,4,5,6
22:39:00,4,8,4,5,6,6,3,5,5
22:40:00,3,6,10,1,4,8,3,5,5
22:41:00,3,5,2,1,6,9,6,3,5
22:42:00,4,8,7,7,4,8,3,6,6
22:43:00,4,5,8,12,11,9,0,8,7
22:44:00,6,5,8,11,8,9,1,8,7
22:45:00,3,4,6,5,3,5,3,4,4
22:46:00,3,7,5,5,6,8,5,5,6
22:47:00,4,4,1,5,10,2,3,5,4
22:48:00,6,5,4,7,9,8,1,6,6
22:49:00,2,7,5,5,4,9,3,5,5
22:50:00,6,4,1,6,12,7,2,6,5
22:51:00,3,9,3,4,6,5,3,5,5
22:52:00,1,7,6,4,7,3,4,5,5
22:53:00,2,5,2,5,4,8,4,4,4
22:54:00,3,2,3,4,1,6,3,3,3
22:55:00,6,2,4,8,9,2,3,6,5
22:56:00,3,5,3,4,10,3,3,5,4
22:57:00,5,8,5,9,3,12,3,6,6
22:58:00,5,3,6,6,6,5,1,5,5
22:59:00,4,4,7,4,3,3,2,4,4
23:00:00,4,1,3,4,7,15,5,4,6
23:01:00,1,1,4,2,3,8,3,2,3
23:02:00,2,7,4,7,3,7,2,5,5
23:03:00,0,3,0,8,1,2,1,2,2
23:04:00,3,4,8,3,5,3,6,5,5
23:05:00,2,3,3,2,3,5,1,3,3
23:06:00,4,3,3,3,4,5,1,3,3
23:07:00,9,3,3,2,4,4,1,4,4
23:08:00,3,2,2,4,6,4,4,3,4
23:09:00,2,2,2,6,3,8,4,3,4
23:10:00,3,5,4,6,7,6,2,5,5
23:11:00,1,3,3,8,5,2,4,4,4
23:12:00,4,4,5,2,3,5,2,4,4
23:13:00,3,4,2,4,2,5,5,3,4
23:14:00,3,3,3,3,0,5,4,2,3
23:15:00,6,2,3,8,10,7,2,6,5
23:16:00,1,4,2,4,9,7,1,4,4
23:17:00,3,3,2,4,4,10,2,3,4
23:18:00,2,0,5,5,10,5,1,4,4
23:19:00,5,5,5,1,2,8,2,4,4
23:20:00,3,3,1,9,4,5,2,4,4
23:21:00,5,2,4,5,9,3,4,5,5
23:22:00,0,0,2,3,9,5,4,3,3
23:23:00,2,6,0,5,1,8,4,3,4
23:24:00,1,2,6,4,5,4,2,4,3
23:25:00,5,6,1,10,2,6,2,5,5
23:26:00,3,0,2,4,10,7,3,4,4
23:27:00,0,2,2,2,1,8,2,1,2
23:28:00,4,3,1,2,2,7,2,2,3
23:29:00,4,8,3,3,5,5,2,5,4
23:30:00,1,2,3,3,2,9,0,2,3
23:31:00,4,2,1,6,5,4,3,4,4
23:32:00,3,3,1,4,1,2,3,2,2
23:33:00,2,2,4,0,5,10,1,3,3
23:34:00,4,3,0,5,1,10,3,3,4
23:35:00,3,1,3,8,4,5,1,4,4
23:36:00,3,1,2,2,3,5,0,2,2
23:37:00,2,2,2,5,0,6,1,2,3
23:38:00,2,0,5,4,4,12,3,3,4
23:39:00,0,3,4,3,1,10,0,2,3
23:40:00,2,3,3,1,5,4,0,3,3
23:41:00,1,4,1,2,4,6,0,2,3
23:42:00,1,1,2,1,4,8,1,2,3
23:43:00,0,1,4,1,2,5,1,2,2
23:44:00,0,2,3,2,1,7,5,2,3
23:45:00,3,4,3,4,4,5,0,4,3
23:46:00,2,2,1,1,3,5,1,2,2
23:47:00,1,1,0,3,0,6,3,1,2
23:48:00,3,2,2,1,5,4,0,3,2
23:49:00,2,1,2,2,2,5,3,2,2
23:50:00,3,2,3,2,5,10,2,3,4
23:51:00,0,2,3,3,0,6,1,2,2
23:52:00,1,2,0,0,3,4,2,1,2
23:53:00,2,1,1,2,4,7,3,2,3
23:54:00,0,2,0,2,4,3,1,2,2
23:55:00,0,0,1,1,3,5,2,1,2
23:56:00,3,3,0,1,5,8,1,2,3
23:57:00,0,0,5,1,1,7,2,1,2
23:58:00,1,1,2,4,4,6,0,2,3
23:59:00,4,2,0,2,3,6,1,2,3
,,,,,,,,,
Totals,,,,,,,,,
12H(7-19),14321,14188,14426,14223,14626,12986,9855,14357,13518
16H(6-22),17065,17155,17488,17136,17216,15109,11572,17212,16106
18H(6-24),17530,17698,17998,17759,17820,15914,11931,17761,16664
24H(0-24),18118,18249,18512,18263,18353,16324,12608,18299,17204
,,,,,,,,,
AM Peak,07:09:00,06:59:00,07:03:00,09:01:00,07:08:00,10:38:00,10:03:00,07:11:00,10:01:00
,1329,1276,1326,1290,1326,1307,1039,1299,1182
,,,,,,,,,
PM Peak,15:39:00,16:06:00,15:55:00,17:47:00,12:00:00,12:40:00,12:10:00,14:18:00,12:10:00
,1366,1307,1361,1359,1319,1348,1040,1276,1223
,,,,,,,,,
,,,,,,,,,
CA Traffic,,,,,,,,,VDA-net R2 26/05/2020
