Site Number,00008011,Unnamed: 2,Site Reference,00008011.1,Unnamed: 5,Unnamed: 6,Lat/Lng.,"52.06968,1.13457",Unnamed: 9
Radar 8011 Norwich Road Ipswich,,,,,,,,,
Vehicle Count Report,,,,Week Begin: 16 December 2019,,,Channel:,Total Flow,
,,,,,,,,,
,,,,,,,,,
,2019-12-16 00:00:00,2019-12-17 00:00:00,2019-12-18 00:00:00,2019-12-19 00:00:00,2019-12-20 00:00:00,2019-12-21 00:00:00,2019-12-22 00:00:00,"5-Day
Ave.","7-Day
Ave."
00:00:00,6,1,4,6,7,5,11,5,6
00:01:00,4,4,2,5,6,5,15,4,6
00:02:00,0,7,3,5,3,9,10,4,5
00:03:00,2,1,2,4,0,7,10,2,4
00:04:00,2,4,1,2,4,12,8,3,5
00:05:00,8,5,4,3,4,4,7,5,5
00:06:00,1,3,4,6,3,8,5,3,4
00:07:00,6,3,2,4,1,14,4,3,5
00:08:00,2,4,0,4,5,4,18,3,5
00:09:00,3,2,3,3,3,10,13,3,5
00:10:00,1,2,4,3,9,8,9,4,5
00:11:00,0,0,1,3,5,11,9,2,4
00:12:00,3,3,5,2,5,6,8,4,5
00:13:00,4,1,4,3,2,10,13,3,5
00:14:00,2,6,1,2,3,6,3,3,3
00:15:00,4,2,0,8,2,6,8,3,4
00:16:00,1,1,6,1,3,12,13,2,5
00:17:00,2,0,1,2,6,7,13,2,4
00:18:00,1,4,1,1,7,3,7,3,3
00:19:00,5,1,4,0,2,9,9,2,4
00:20:00,4,1,2,4,3,9,7,3,4
00:21:00,3,3,3,3,4,12,10,3,5
00:22:00,5,2,3,3,3,4,9,3,4
00:23:00,3,5,3,2,8,7,6,4,5
00:24:00,1,0,5,2,6,6,3,3,3
00:25:00,0,4,4,3,2,8,8,3,4
00:26:00,2,3,3,2,2,8,9,2,4
00:27:00,0,2,3,1,3,11,6,2,4
00:28:00,1,0,3,3,7,4,7,3,4
00:29:00,3,1,1,1,4,5,6,2,3
00:30:00,3,2,1,4,5,5,5,3,4
00:31:00,2,3,1,1,3,2,10,2,3
00:32:00,2,0,3,0,1,5,3,1,2
00:33:00,3,2,1,2,6,5,9,3,4
00:34:00,0,3,1,2,4,2,5,2,2
00:35:00,5,1,2,4,4,5,11,3,5
00:36:00,1,2,3,1,8,4,11,3,4
00:37:00,1,0,4,2,1,8,8,2,3
00:38:00,0,2,2,2,5,9,7,2,4
00:39:00,2,1,3,3,5,11,6,3,4
00:40:00,2,2,1,0,3,10,6,2,3
00:41:00,3,0,2,1,2,5,8,2,3
00:42:00,2,2,3,2,0,3,7,2,3
00:43:00,1,1,1,1,5,6,3,2,3
00:44:00,0,0,4,3,5,6,4,2,3
00:45:00,1,0,3,2,5,3,9,2,3
00:46:00,1,1,1,3,5,8,5,2,3
00:47:00,5,2,2,3,8,5,6,4,4
00:48:00,4,3,2,2,2,8,8,3,4
00:49:00,1,0,3,2,3,12,7,2,4
00:50:00,2,2,2,2,2,5,13,2,4
00:51:00,0,1,2,4,4,5,6,2,3
00:52:00,1,2,0,1,1,10,6,1,3
00:53:00,2,2,2,4,4,10,5,3,4
00:54:00,3,0,1,1,0,7,8,1,3
00:55:00,0,1,5,1,5,9,9,2,4
00:56:00,5,0,1,2,2,6,5,2,3
00:57:00,4,0,2,1,2,6,2,2,2
00:58:00,3,3,4,3,2,4,4,3,3
00:59:00,2,4,2,0,2,10,6,2,4
01:00:00,1,2,1,5,11,7,6,4,5
01:01:00,1,1,2,3,6,3,5,3,3
01:02:00,0,2,0,1,1,2,3,1,1
01:03:00,1,0,1,1,1,6,6,1,2
01:04:00,1,3,2,0,6,3,3,2,3
01:05:00,0,3,2,3,7,9,7,3,4
01:06:00,0,3,1,1,2,7,9,1,3
01:07:00,2,1,0,1,1,10,9,1,3
01:08:00,1,0,3,1,1,3,7,1,2
01:09:00,1,1,4,0,2,3,3,2,2
01:10:00,0,2,1,0,5,8,4,2,3
01:11:00,1,0,1,1,3,7,2,1,2
01:12:00,1,5,1,1,6,4,7,3,4
01:13:00,1,1,2,2,5,6,9,2,4
01:14:00,0,2,2,0,3,5,8,1,3
01:15:00,4,2,1,0,4,5,6,2,3
01:16:00,0,0,0,2,2,5,4,1,2
01:17:00,0,0,3,2,1,4,5,1,2
01:18:00,2,0,2,1,2,7,2,1,2
01:19:00,0,0,1,0,1,2,6,0,1
01:20:00,1,0,0,2,3,5,4,1,2
01:21:00,0,3,2,0,1,5,7,1,3
01:22:00,1,4,1,1,0,3,5,1,2
01:23:00,0,1,0,1,1,6,4,1,2
01:24:00,2,0,1,1,1,2,3,1,1
01:25:00,1,3,0,1,2,6,6,1,3
01:26:00,0,3,0,0,5,3,6,2,2
01:27:00,2,0,2,1,2,3,7,1,2
01:28:00,1,0,0,2,4,5,2,1,2
01:29:00,0,1,0,1,2,4,4,1,2
01:30:00,1,4,1,2,1,2,6,2,2
01:31:00,2,0,2,3,4,9,3,2,3
01:32:00,0,0,0,1,1,6,3,0,2
01:33:00,4,2,0,2,1,5,8,2,3
01:34:00,1,0,1,0,0,2,10,0,2
01:35:00,1,2,1,2,6,1,7,2,3
01:36:00,2,0,1,2,2,4,4,1,2
01:37:00,0,1,2,1,2,7,5,1,3
01:38:00,0,0,0,3,2,6,3,1,2
01:39:00,2,2,1,1,3,7,3,2,3
01:40:00,2,1,1,1,1,3,5,1,2
01:41:00,1,2,2,1,5,8,7,2,4
01:42:00,2,0,0,2,1,6,8,1,3
01:43:00,2,0,1,1,2,3,5,1,2
01:44:00,0,3,0,1,0,4,7,1,2
01:45:00,1,0,1,0,2,3,3,1,1
01:46:00,1,1,0,1,0,3,3,1,1
01:47:00,0,0,0,0,2,5,6,0,2
01:48:00,0,2,1,0,2,5,2,1,2
01:49:00,1,4,3,2,5,4,4,3,3
01:50:00,0,0,1,0,1,2,3,0,1
01:51:00,0,1,2,1,2,3,3,1,2
01:52:00,2,3,0,2,1,1,7,2,2
01:53:00,1,0,1,1,3,3,5,1,2
01:54:00,0,1,0,1,1,6,9,1,3
01:55:00,1,1,1,0,4,2,10,1,3
01:56:00,1,0,3,0,1,7,1,1,2
01:57:00,3,0,0,2,1,3,4,1,2
01:58:00,0,1,1,0,1,1,4,1,1
01:59:00,2,0,0,1,1,10,0,1,2
02:00:00,1,1,0,1,1,5,2,1,2
02:01:00,2,0,1,0,3,7,2,1,2
02:02:00,0,1,0,1,1,5,6,1,2
02:03:00,0,1,1,0,1,4,8,1,2
02:04:00,0,1,0,1,2,1,2,1,1
02:05:00,1,3,0,1,0,4,2,1,2
02:06:00,3,1,1,3,1,4,4,2,2
02:07:00,1,1,1,2,1,4,5,1,2
02:08:00,2,2,4,1,1,8,4,2,3
02:09:00,0,1,0,0,2,9,3,1,2
02:10:00,1,2,1,1,3,1,7,2,2
02:11:00,1,1,3,3,3,5,6,2,3
02:12:00,0,2,1,3,1,6,0,1,2
02:13:00,0,2,0,0,2,2,5,1,2
02:14:00,1,2,2,1,0,5,11,1,3
02:15:00,0,0,1,1,1,5,2,1,1
02:16:00,1,2,2,1,2,6,5,2,3
02:17:00,0,2,0,4,2,3,3,2,2
02:18:00,0,0,2,1,1,3,3,1,1
02:19:00,2,1,1,1,1,5,8,1,3
02:20:00,1,1,1,1,1,1,1,1,1
02:21:00,1,3,2,3,3,3,6,2,3
02:22:00,2,2,0,1,2,3,9,1,3
02:23:00,2,0,1,0,2,2,8,1,2
02:24:00,1,0,2,1,0,3,1,1,1
02:25:00,1,0,3,1,3,5,4,2,2
02:26:00,0,1,0,1,2,3,1,1,1
02:27:00,1,1,0,3,0,7,1,1,2
02:28:00,0,0,1,6,2,3,9,2,3
02:29:00,0,0,0,0,3,6,6,1,2
02:30:00,0,3,2,3,0,6,4,2,3
02:31:00,2,3,1,2,1,4,5,2,3
02:32:00,1,0,1,0,1,6,4,1,2
02:33:00,1,1,0,9,1,1,2,2,2
02:34:00,2,1,1,5,1,5,7,2,3
02:35:00,0,1,0,6,0,3,8,1,3
02:36:00,1,0,0,2,3,2,4,1,2
02:37:00,1,1,3,1,4,5,2,2,2
02:38:00,1,1,1,1,0,5,6,1,2
02:39:00,1,0,1,2,3,6,4,1,2
02:40:00,2,3,1,4,1,5,1,2,2
02:41:00,1,0,0,1,0,5,7,0,2
02:42:00,0,0,0,1,2,1,2,1,1
02:43:00,0,1,1,1,4,4,5,1,2
02:44:00,1,0,0,4,0,5,2,1,2
02:45:00,1,2,1,1,3,7,4,2,3
02:46:00,2,0,1,1,1,3,5,1,2
02:47:00,0,0,1,4,2,6,2,1,2
02:48:00,3,0,2,2,1,5,5,2,3
02:49:00,0,0,1,7,2,4,4,2,3
02:50:00,1,1,0,3,2,2,4,1,2
02:51:00,0,1,0,8,0,1,2,2,2
02:52:00,1,1,2,6,0,0,4,2,2
02:53:00,1,1,3,8,3,5,4,3,4
02:54:00,0,3,0,0,1,0,7,1,2
02:55:00,1,1,1,7,2,5,3,2,3
02:56:00,0,2,0,5,1,5,3,2,2
02:57:00,1,0,1,0,1,1,3,1,1
02:58:00,1,2,4,3,1,2,5,2,3
02:59:00,0,2,1,3,1,4,3,1,2
03:00:00,1,0,3,2,0,4,2,1,2
03:01:00,0,4,1,3,0,5,3,2,2
03:02:00,2,3,1,0,0,4,2,1,2
03:03:00,1,0,2,3,1,4,2,1,2
03:04:00,1,2,3,1,1,1,2,2,2
03:05:00,1,2,1,1,3,5,3,2,2
03:06:00,2,0,0,1,1,4,3,1,2
03:07:00,0,0,1,3,2,1,4,1,2
03:08:00,0,0,0,0,0,2,4,0,1
03:09:00,0,2,0,2,1,5,5,1,2
03:10:00,1,1,1,4,1,2,5,2,2
03:11:00,0,1,0,2,2,3,1,1,1
03:12:00,4,0,1,0,1,2,5,1,2
03:13:00,3,2,1,1,0,6,3,1,2
03:14:00,0,1,3,2,2,0,2,2,1
03:15:00,0,1,1,2,1,9,2,1,2
03:16:00,0,0,1,2,2,2,5,1,2
03:17:00,0,1,0,1,0,4,3,0,1
03:18:00,1,1,2,1,1,2,4,1,2
03:19:00,1,0,2,4,0,2,4,1,2
03:20:00,3,0,1,2,0,4,2,1,2
03:21:00,0,4,1,2,2,3,4,2,2
03:22:00,0,2,2,3,3,2,2,2,2
03:23:00,0,1,1,4,0,5,2,1,2
03:24:00,1,0,1,1,1,3,3,1,1
03:25:00,0,2,2,2,1,1,2,1,1
03:26:00,0,3,0,0,2,6,2,1,2
03:27:00,0,1,6,1,2,5,3,2,3
03:28:00,2,0,1,1,3,3,1,1,2
03:29:00,2,2,5,1,2,0,2,2,2
03:30:00,0,1,0,2,2,2,3,1,1
03:31:00,0,1,1,3,2,4,1,1,2
03:32:00,0,3,0,3,3,1,4,2,2
03:33:00,0,2,3,2,1,2,1,2,2
03:34:00,0,2,1,0,1,4,3,1,2
03:35:00,0,1,0,3,3,3,6,1,2
03:36:00,1,3,3,0,1,0,2,2,1
03:37:00,1,1,2,1,1,2,1,1,1
03:38:00,2,3,3,1,1,0,4,2,2
03:39:00,2,0,0,1,2,5,3,1,2
03:40:00,1,0,0,3,0,4,3,1,2
03:41:00,1,1,0,2,1,4,7,1,2
03:42:00,0,1,1,1,0,7,5,1,2
03:43:00,1,1,1,4,0,1,7,1,2
03:44:00,1,1,1,2,2,2,4,1,2
03:45:00,3,1,1,2,1,3,1,2,2
03:46:00,2,0,0,0,1,2,2,1,1
03:47:00,0,2,1,2,2,0,6,1,2
03:48:00,1,1,3,0,2,9,1,1,2
03:49:00,1,0,2,1,2,3,2,1,2
03:50:00,2,2,1,2,0,0,1,1,1
03:51:00,1,4,2,3,3,4,2,3,3
03:52:00,2,5,1,2,3,3,1,3,2
03:53:00,3,1,1,2,2,4,7,2,3
03:54:00,0,1,1,1,2,1,4,1,1
03:55:00,1,0,1,1,4,2,2,1,2
03:56:00,1,2,6,1,1,2,3,2,2
03:57:00,0,0,0,2,3,1,1,1,1
03:58:00,2,1,1,0,2,4,4,1,2
03:59:00,2,1,4,0,2,3,3,2,2
04:00:00,2,1,0,0,2,4,5,1,2
04:01:00,1,4,0,2,2,2,3,2,2
04:02:00,0,1,2,1,2,7,1,1,2
04:03:00,1,1,3,1,1,3,2,1,2
04:04:00,1,1,3,1,4,1,4,2,2
04:05:00,3,3,4,1,4,0,1,3,2
04:06:00,2,1,1,3,3,1,1,2,2
04:07:00,0,5,1,0,2,1,2,2,2
04:08:00,1,2,2,2,0,2,2,1,2
04:09:00,2,4,1,0,1,2,0,2,1
04:10:00,2,3,1,4,0,1,4,2,2
04:11:00,2,0,4,2,2,0,2,2,2
04:12:00,2,1,0,2,2,8,2,1,2
04:13:00,1,1,3,2,0,3,3,1,2
04:14:00,3,2,0,0,2,4,4,1,2
04:15:00,0,4,2,1,1,1,4,2,2
04:16:00,1,0,1,1,3,5,3,1,2
04:17:00,1,3,1,1,3,4,4,2,2
04:18:00,2,0,2,3,0,3,1,1,2
04:19:00,0,1,1,2,2,3,4,1,2
04:20:00,5,0,5,3,2,4,0,3,3
04:21:00,2,2,2,2,1,2,3,2,2
04:22:00,3,0,3,4,2,6,2,2,3
04:23:00,2,2,2,2,2,4,4,2,3
04:24:00,2,1,6,0,0,1,3,2,2
04:25:00,1,1,3,4,2,1,2,2,2
04:26:00,2,6,3,1,2,3,1,3,3
04:27:00,3,3,6,2,1,1,2,3,3
04:28:00,6,1,4,3,2,2,3,3,3
04:29:00,3,1,4,5,4,4,2,3,3
04:30:00,0,6,2,1,2,5,2,2,3
04:31:00,5,6,3,0,3,1,3,3,3
04:32:00,0,3,4,2,5,1,4,3,3
04:33:00,3,2,2,2,3,1,4,2,2
04:34:00,6,1,3,2,2,1,2,3,2
04:35:00,2,3,5,4,2,4,1,3,3
04:36:00,0,3,1,3,4,2,0,2,2
04:37:00,5,4,3,2,4,4,1,4,3
04:38:00,3,2,2,5,0,2,1,2,2
04:39:00,5,6,2,2,3,3,0,4,3
04:40:00,2,6,3,0,1,3,5,2,3
04:41:00,1,3,4,5,5,3,0,4,3
04:42:00,5,4,8,5,5,3,2,5,5
04:43:00,4,4,3,5,4,2,2,4,3
04:44:00,4,5,6,1,4,1,5,4,4
04:45:00,2,7,2,2,5,3,4,4,4
04:46:00,3,2,5,5,2,2,3,3,3
04:47:00,2,6,3,0,4,1,3,3,3
04:48:00,5,4,3,7,5,2,0,5,4
04:49:00,6,2,4,7,5,3,5,5,5
04:50:00,7,2,1,3,3,2,3,3,3
04:51:00,8,3,7,6,5,2,1,6,5
04:52:00,1,2,2,3,4,3,1,2,2
04:53:00,6,5,7,6,2,4,2,5,5
04:54:00,6,6,4,5,7,2,0,6,4
04:55:00,3,3,7,5,6,1,3,5,4
04:56:00,5,10,3,6,9,3,5,7,6
04:57:00,3,8,6,5,3,2,1,5,4
04:58:00,3,8,10,6,5,2,2,6,5
04:59:00,4,6,4,1,7,2,3,4,4
05:00:00,3,7,9,5,2,4,2,5,5
05:01:00,4,5,11,4,4,6,0,6,5
05:02:00,3,5,6,2,5,3,1,4,4
05:03:00,9,7,4,4,5,4,2,6,5
05:04:00,4,8,3,10,4,3,3,6,5
05:05:00,2,6,5,4,3,9,5,4,5
05:06:00,3,10,7,7,4,2,7,6,6
05:07:00,3,6,12,11,8,0,4,8,6
05:08:00,10,7,3,6,7,4,4,7,6
05:09:00,7,11,8,5,8,4,1,8,6
05:10:00,6,8,5,6,8,1,4,7,5
05:11:00,11,6,2,9,4,2,3,6,5
05:12:00,9,6,6,3,3,8,4,5,6
05:13:00,5,3,6,7,5,4,1,5,4
05:14:00,8,10,10,4,8,1,6,8,7
05:15:00,8,8,5,6,7,2,3,7,6
05:16:00,6,8,3,11,10,6,1,8,6
05:17:00,6,9,4,8,5,2,3,6,5
05:18:00,9,10,10,10,7,4,1,9,7
05:19:00,13,6,7,6,4,4,2,7,6
05:20:00,8,8,15,6,14,5,4,10,9
05:21:00,5,6,6,12,10,3,2,8,6
05:22:00,10,4,6,4,9,2,3,7,5
05:23:00,7,12,5,7,10,2,1,8,6
05:24:00,4,2,12,7,9,7,1,7,6
05:25:00,8,13,6,11,6,6,1,9,7
05:26:00,6,5,7,12,10,6,1,8,7
05:27:00,8,6,10,10,10,7,2,9,8
05:28:00,9,6,10,11,11,4,3,9,8
05:29:00,7,16,8,7,6,4,3,9,7
05:30:00,7,9,8,7,9,2,4,8,7
05:31:00,7,4,12,1,8,2,1,6,5
05:32:00,6,9,16,3,3,6,4,7,7
05:33:00,9,12,7,11,8,7,3,9,8
05:34:00,15,8,7,7,9,2,5,9,8
05:35:00,11,10,11,8,14,3,3,11,9
05:36:00,9,20,12,12,6,9,5,12,10
05:37:00,10,10,3,7,10,2,1,8,6
05:38:00,8,12,7,3,16,2,3,9,7
05:39:00,11,5,8,8,14,3,4,9,8
05:40:00,10,7,9,9,5,4,6,8,7
05:41:00,16,13,4,13,11,5,4,11,9
05:42:00,12,12,16,10,8,2,2,12,9
05:43:00,11,13,10,13,6,2,9,11,9
05:44:00,7,15,8,9,9,4,5,10,8
05:45:00,8,10,10,9,4,9,3,8,8
05:46:00,12,3,11,9,9,4,5,9,8
05:47:00,7,5,15,8,6,9,3,8,8
05:48:00,14,12,9,10,13,7,2,12,10
05:49:00,8,10,5,5,7,2,3,7,6
05:50:00,4,11,14,15,3,6,5,9,8
05:51:00,7,10,13,9,6,3,2,9,7
05:52:00,15,11,4,10,16,8,1,11,9
05:53:00,11,12,13,11,9,3,3,11,9
05:54:00,9,13,12,8,10,5,0,10,8
05:55:00,8,12,14,19,9,6,5,12,10
05:56:00,8,9,12,13,7,9,1,10,8
05:57:00,17,10,8,16,14,2,5,13,10
05:58:00,5,10,14,16,11,6,1,11,9
05:59:00,14,7,12,15,10,4,2,12,9
06:00:00,9,16,18,5,9,3,3,11,9
06:01:00,5,6,7,9,5,4,2,6,5
06:02:00,13,8,11,9,10,5,1,10,8
06:03:00,13,11,11,15,11,4,4,12,10
06:04:00,12,12,8,12,6,6,5,10,9
06:05:00,11,7,11,7,10,1,2,9,7
06:06:00,19,4,10,9,5,4,3,9,8
06:07:00,7,17,6,19,10,3,2,12,9
06:08:00,9,17,13,14,11,7,8,13,11
06:09:00,11,12,8,10,11,3,2,10,8
06:10:00,20,15,11,12,14,11,4,14,12
06:11:00,11,10,12,11,6,5,5,10,9
06:12:00,17,6,10,10,6,3,0,10,7
06:13:00,12,11,13,9,8,1,2,11,8
06:14:00,9,13,7,12,10,3,5,10,8
06:15:00,15,19,18,10,13,6,4,15,12
06:16:00,14,12,15,19,9,12,4,14,12
06:17:00,15,11,18,7,7,9,3,12,10
06:18:00,16,20,11,16,13,8,3,15,12
06:19:00,9,11,14,25,7,5,3,13,11
06:20:00,10,18,10,5,14,7,2,11,9
06:21:00,17,17,7,14,9,6,5,13,11
06:22:00,14,15,16,13,13,4,1,14,11
06:23:00,10,14,13,11,16,5,5,13,11
06:24:00,11,18,14,14,11,6,3,14,11
06:25:00,9,16,21,17,8,7,2,14,11
06:26:00,22,10,22,9,10,4,6,15,12
06:27:00,16,17,12,12,16,9,8,15,13
06:28:00,17,6,17,19,19,4,3,16,12
06:29:00,10,13,15,18,14,5,5,14,11
06:30:00,14,12,12,19,12,5,4,14,11
06:31:00,11,11,21,13,6,6,2,12,10
06:32:00,21,13,22,20,17,5,6,19,15
06:33:00,15,18,14,11,20,6,1,16,12
06:34:00,23,11,15,22,17,3,8,18,14
06:35:00,23,20,16,15,19,11,6,19,16
06:36:00,10,16,20,22,22,2,1,18,13
06:37:00,22,24,18,16,12,6,7,18,15
06:38:00,22,12,12,8,17,8,5,14,12
06:39:00,13,20,16,17,15,15,3,16,14
06:40:00,18,25,16,21,16,8,3,19,15
06:41:00,14,17,13,19,19,6,3,16,13
06:42:00,11,17,25,16,20,5,2,18,14
06:43:00,21,21,12,17,16,11,7,17,15
06:44:00,15,14,25,25,14,3,8,19,15
06:45:00,17,23,16,20,17,5,5,19,15
06:46:00,17,23,16,21,10,9,4,17,14
06:47:00,21,20,15,13,16,5,6,17,14
06:48:00,27,18,14,23,22,9,2,21,16
06:49:00,20,26,25,19,22,5,6,22,18
06:50:00,26,22,22,21,17,7,4,22,17
06:51:00,17,20,25,28,20,16,6,22,19
06:52:00,16,16,23,20,16,7,4,18,15
06:53:00,21,33,27,17,15,7,4,23,18
06:54:00,19,20,27,20,14,6,5,20,16
06:55:00,26,19,23,23,22,5,5,23,18
06:56:00,18,14,37,31,11,8,4,22,18
06:57:00,29,23,23,21,31,9,5,25,20
06:58:00,24,27,15,15,24,8,1,21,16
06:59:00,21,15,21,20,18,2,2,19,14
07:00:00,30,15,23,18,14,12,3,20,16
07:01:00,19,36,31,23,19,3,2,26,19
07:02:00,17,23,18,24,21,6,2,21,16
07:03:00,17,34,18,14,14,6,7,19,16
07:04:00,32,9,25,18,17,14,3,20,17
07:05:00,22,30,29,19,21,6,6,24,19
07:06:00,21,22,17,26,24,6,4,22,17
07:07:00,24,34,25,26,17,5,2,25,19
07:08:00,24,26,24,15,27,5,5,23,18
07:09:00,25,17,21,19,19,8,6,20,16
07:10:00,19,16,26,16,24,7,3,20,16
07:11:00,24,34,15,28,22,7,4,25,19
07:12:00,31,28,23,18,19,5,3,24,18
07:13:00,26,16,27,25,15,7,3,22,17
07:14:00,31,25,29,24,26,10,5,27,21
07:15:00,25,21,36,19,12,7,3,23,18
07:16:00,25,31,29,33,26,10,5,29,23
07:17:00,18,30,25,20,18,6,2,22,17
07:18:00,23,27,26,31,25,4,5,26,20
07:19:00,30,37,31,22,13,15,3,27,22
07:20:00,25,26,29,24,23,6,6,25,20
07:21:00,28,21,29,20,17,6,3,23,18
07:22:00,33,24,21,34,25,11,6,27,22
07:23:00,22,22,28,35,20,10,6,25,20
07:24:00,30,22,27,24,23,5,3,25,19
07:25:00,25,22,25,22,29,11,2,25,19
07:26:00,18,32,19,26,35,6,1,26,20
07:27:00,30,33,28,38,12,19,3,28,23
07:28:00,37,27,21,27,21,10,6,27,21
07:29:00,32,26,25,25,34,10,6,28,23
07:30:00,17,31,20,16,37,8,8,24,20
07:31:00,24,28,27,26,34,7,4,28,21
07:32:00,21,14,27,38,19,16,5,24,20
07:33:00,26,35,31,19,28,6,3,28,21
07:34:00,29,25,20,26,18,12,5,24,19
07:35:00,29,31,26,19,23,11,8,26,21
07:36:00,33,24,29,24,28,11,4,28,22
07:37:00,31,32,23,40,22,13,4,30,24
07:38:00,12,23,31,28,30,6,5,25,19
07:39:00,21,24,39,23,23,15,6,26,22
07:40:00,20,26,24,25,36,10,5,26,21
07:41:00,31,39,26,25,21,11,10,28,23
07:42:00,41,26,30,35,29,10,8,32,26
07:43:00,31,26,21,30,33,9,10,28,23
07:44:00,31,36,26,29,25,12,6,29,24
07:45:00,30,28,37,31,30,10,9,31,25
07:46:00,25,23,25,33,21,14,9,25,21
07:47:00,25,33,22,38,30,14,9,30,24
07:48:00,40,29,30,27,41,10,7,33,26
07:49:00,36,29,28,31,26,9,13,30,25
07:50:00,27,23,21,26,31,16,4,26,21
07:51:00,27,24,33,33,33,11,7,30,24
07:52:00,35,22,23,24,28,5,4,26,20
07:53:00,26,38,31,17,28,11,6,28,22
07:54:00,40,22,31,27,41,11,5,32,25
07:55:00,24,31,38,30,27,9,6,30,24
07:56:00,36,27,33,29,32,14,8,31,26
07:57:00,25,26,37,31,33,13,8,30,25
07:58:00,23,26,35,28,25,8,2,27,21
07:59:00,34,27,32,35,31,15,9,32,26
08:00:00,34,18,23,16,21,16,5,22,19
08:01:00,32,21,31,32,29,15,4,29,23
08:02:00,24,16,28,33,25,16,4,25,21
08:03:00,24,37,27,25,22,8,4,27,21
08:04:00,30,33,33,22,23,14,7,28,23
08:05:00,34,34,27,25,30,14,3,30,24
08:06:00,28,31,23,32,32,13,3,29,23
08:07:00,33,40,30,23,22,7,3,30,23
08:08:00,30,26,29,24,32,11,4,28,22
08:09:00,38,33,34,24,35,9,6,33,26
08:10:00,34,35,22,36,31,9,5,32,25
08:11:00,25,25,13,30,24,20,6,23,20
08:12:00,28,29,32,36,26,8,1,30,23
08:13:00,31,30,32,33,33,13,6,32,25
08:14:00,31,32,32,36,29,22,9,32,27
08:15:00,41,31,31,23,28,9,10,31,25
08:16:00,31,33,29,25,25,18,5,29,24
08:17:00,42,29,25,22,28,19,9,29,25
08:18:00,27,29,25,37,24,16,8,28,24
08:19:00,27,29,32,36,32,15,7,31,25
08:20:00,28,23,34,41,27,12,6,31,24
08:21:00,29,26,30,31,25,14,7,28,23
08:22:00,31,31,33,28,20,14,5,29,23
08:23:00,32,31,29,27,24,9,5,29,22
08:24:00,22,26,30,23,25,19,9,25,22
08:25:00,34,32,32,25,27,14,4,30,24
08:26:00,33,21,27,34,27,12,11,28,24
08:27:00,30,12,28,21,20,14,8,22,19
08:28:00,29,20,42,30,29,19,6,30,25
08:29:00,29,26,33,29,24,19,3,28,23
08:30:00,22,36,27,26,35,11,18,29,25
08:31:00,28,30,36,32,31,26,10,31,28
08:32:00,20,31,26,29,26,19,3,26,22
08:33:00,32,22,22,37,22,15,6,27,22
08:34:00,24,34,33,25,26,19,10,28,24
08:35:00,31,29,25,30,27,18,12,28,25
08:36:00,30,30,25,34,29,20,8,30,25
08:37:00,29,33,24,28,30,14,8,29,24
08:38:00,35,37,30,28,34,17,5,33,27
08:39:00,24,22,26,23,28,13,12,25,21
08:40:00,23,28,30,40,17,19,6,28,23
08:41:00,24,27,21,18,24,30,12,23,22
08:42:00,40,34,39,30,25,19,8,34,28
08:43:00,26,16,32,29,29,14,8,26,22
08:44:00,29,13,21,32,29,12,13,25,21
08:45:00,31,29,29,32,33,22,10,31,27
08:46:00,28,28,31,29,27,21,6,29,24
08:47:00,22,28,30,30,34,20,8,29,25
08:48:00,23,27,35,33,24,19,9,28,24
08:49:00,31,34,36,28,32,19,13,32,28
08:50:00,30,25,35,29,29,19,4,30,24
08:51:00,36,15,23,20,37,20,11,26,23
08:52:00,23,20,36,32,36,12,13,29,25
08:53:00,30,25,28,28,28,25,16,28,26
08:54:00,22,22,27,27,34,25,9,26,24
08:55:00,15,30,33,36,33,17,12,29,25
08:56:00,41,19,22,19,19,23,8,24,22
08:57:00,29,34,25,34,28,21,8,30,26
08:58:00,31,25,19,25,21,14,8,24,20
08:59:00,19,29,33,16,40,26,5,27,24
09:00:00,41,30,37,35,30,14,5,35,27
09:01:00,27,28,38,30,29,24,8,30,26
09:02:00,27,36,36,39,26,15,19,33,28
09:03:00,22,26,21,34,28,23,16,26,24
09:04:00,24,22,28,28,17,17,8,24,21
09:05:00,18,20,22,25,33,18,3,24,20
09:06:00,31,24,27,29,25,19,14,27,24
09:07:00,21,28,26,22,27,16,13,25,22
09:08:00,27,17,24,29,21,25,15,24,23
09:09:00,22,20,30,19,25,21,11,23,21
09:10:00,27,27,16,22,28,17,9,24,21
09:11:00,21,23,28,22,19,10,11,23,19
09:12:00,22,12,25,21,25,23,16,21,21
09:13:00,25,32,33,31,19,24,11,28,25
09:14:00,21,10,21,23,35,26,10,22,21
09:15:00,19,21,33,29,22,27,9,25,23
09:16:00,26,26,16,22,21,27,15,22,22
09:17:00,26,21,27,31,18,21,9,25,22
09:18:00,25,21,24,21,20,23,4,22,20
09:19:00,23,34,22,29,25,27,8,27,24
09:20:00,33,24,28,33,25,22,19,29,26
09:21:00,23,32,26,25,34,16,12,28,24
09:22:00,20,20,30,31,19,16,16,24,22
09:23:00,25,34,30,22,28,27,16,28,26
09:24:00,33,36,34,21,26,17,9,30,25
09:25:00,20,27,16,23,21,25,14,21,21
09:26:00,20,22,20,23,26,17,15,22,20
09:27:00,20,28,13,20,34,17,20,23,22
09:28:00,27,36,34,30,26,19,18,31,27
09:29:00,23,33,21,34,41,21,11,30,26
09:30:00,29,31,25,28,30,23,18,29,26
09:31:00,16,22,25,20,19,15,12,20,18
09:32:00,21,28,27,29,27,23,6,26,23
09:33:00,33,31,29,23,29,21,14,29,26
09:34:00,26,24,38,32,30,26,14,30,27
09:35:00,29,24,26,23,30,22,20,26,25
09:36:00,24,32,22,27,26,24,21,26,25
09:37:00,30,38,32,17,25,27,12,28,26
09:38:00,13,27,33,32,20,13,18,25,22
09:39:00,25,33,30,33,17,23,23,28,26
09:40:00,29,26,42,22,30,21,8,30,25
09:41:00,21,23,28,9,12,21,14,19,18
09:42:00,21,23,22,28,27,32,13,24,24
09:43:00,21,31,23,26,32,28,19,27,26
09:44:00,24,24,40,31,19,30,18,28,27
09:45:00,31,26,21,15,35,30,22,26,26
09:46:00,32,16,34,28,26,18,20,27,25
09:47:00,25,26,23,28,24,27,20,25,25
09:48:00,25,29,39,24,27,23,34,29,29
09:49:00,33,14,30,34,21,21,27,26,26
09:50:00,22,26,24,31,24,22,21,25,24
09:51:00,37,30,21,25,27,29,24,28,28
09:52:00,20,32,30,25,28,30,29,27,28
09:53:00,13,15,23,15,29,23,25,19,20
09:54:00,14,15,27,27,20,19,20,21,20
09:55:00,28,31,29,23,32,22,22,29,27
09:56:00,24,15,22,27,18,14,22,21,20
09:57:00,28,20,25,28,20,25,25,24,24
09:58:00,27,21,26,23,29,17,18,25,23
09:59:00,36,29,20,35,33,29,23,31,29
10:00:00,31,28,34,26,20,30,12,28,26
10:01:00,29,27,18,29,24,12,22,25,23
10:02:00,23,21,35,28,25,22,13,26,24
10:03:00,29,27,40,33,19,37,22,30,30
10:04:00,28,24,28,31,29,25,28,28,28
10:05:00,25,21,24,20,30,24,27,24,24
10:06:00,31,33,24,38,30,31,24,31,30
10:07:00,21,33,36,30,23,37,24,29,29
10:08:00,29,22,22,24,27,35,14,25,25
10:09:00,17,28,30,17,20,31,16,22,23
10:10:00,24,25,24,31,29,22,22,27,25
10:11:00,39,40,30,25,26,24,24,32,30
10:12:00,22,23,34,31,23,24,31,27,27
10:13:00,20,24,15,30,26,17,35,23,24
10:14:00,28,28,31,28,27,29,17,28,27
10:15:00,35,27,29,17,24,32,22,26,27
10:16:00,27,26,14,23,27,14,26,23,22
10:17:00,31,20,32,25,28,31,27,27,28
10:18:00,22,36,25,25,32,17,32,28,27
10:19:00,28,21,35,19,27,20,20,26,24
10:20:00,29,18,25,27,42,28,19,28,27
10:21:00,22,28,20,29,28,24,18,25,24
10:22:00,30,14,27,26,44,23,28,28,27
10:23:00,24,20,32,19,29,26,16,25,24
10:24:00,19,31,16,28,31,30,27,25,26
10:25:00,25,20,14,31,29,22,25,24,24
10:26:00,23,26,28,21,27,27,30,25,26
10:27:00,27,26,33,26,8,27,23,24,24
10:28:00,37,23,20,32,33,22,25,29,27
10:29:00,20,37,25,23,17,33,25,24,26
10:30:00,24,34,22,18,32,23,26,26,26
10:31:00,23,24,35,31,26,24,15,28,25
10:32:00,23,30,31,25,31,29,23,28,27
10:33:00,34,24,29,23,18,17,20,26,24
10:34:00,28,29,21,36,33,31,31,29,30
10:35:00,33,25,36,32,31,32,39,31,33
10:36:00,32,28,30,23,38,23,35,30,30
10:37:00,20,27,21,32,28,23,27,26,25
10:38:00,23,13,34,24,25,30,23,24,25
10:39:00,19,29,25,31,30,37,21,27,27
10:40:00,28,22,29,16,25,22,21,24,23
10:41:00,38,27,30,29,24,27,37,30,30
10:42:00,30,24,34,24,35,28,31,29,29
10:43:00,30,30,37,15,28,27,25,28,27
10:44:00,30,38,25,25,25,36,21,29,29
10:45:00,17,27,30,23,26,32,19,25,25
10:46:00,29,24,24,31,36,29,31,29,29
10:47:00,29,37,29,26,21,20,27,28,27
10:48:00,31,31,22,25,26,24,24,27,26
10:49:00,20,27,21,26,26,28,23,24,24
10:50:00,30,27,21,31,21,27,24,26,26
10:51:00,21,25,35,28,28,23,24,27,26
10:52:00,35,28,26,18,34,39,25,28,29
10:53:00,15,27,26,25,24,22,28,23,24
10:54:00,21,19,27,26,23,24,30,23,24
10:55:00,32,28,25,40,19,27,31,29,29
10:56:00,28,28,36,31,24,25,35,29,30
10:57:00,27,15,15,25,20,26,24,20,22
10:58:00,20,33,23,31,31,29,22,28,27
10:59:00,25,27,25,27,24,27,22,26,25
11:00:00,23,32,33,21,26,27,18,27,26
11:01:00,29,21,19,32,24,30,21,25,25
11:02:00,16,28,24,27,32,16,23,25,24
11:03:00,24,30,20,30,20,25,27,25,25
11:04:00,37,32,36,24,28,25,27,31,30
11:05:00,31,24,23,22,25,22,22,25,24
11:06:00,30,21,19,26,32,22,23,26,25
11:07:00,32,31,25,41,28,24,25,31,29
11:08:00,25,22,32,24,33,26,19,27,26
11:09:00,20,28,20,21,29,29,29,24,25
11:10:00,33,32,53,25,30,22,33,35,33
11:11:00,36,29,17,21,25,30,19,26,25
11:12:00,36,28,31,40,24,18,23,32,29
11:13:00,14,22,20,25,25,25,27,21,23
11:14:00,36,27,18,23,36,28,30,28,28
11:15:00,25,24,32,24,20,26,12,25,23
11:16:00,26,30,26,27,27,34,29,27,28
11:17:00,24,27,32,39,22,27,30,29,29
11:18:00,22,30,42,39,14,27,22,29,28
11:19:00,24,27,22,24,33,18,22,26,24
11:20:00,37,29,33,27,30,21,31,31,30
11:21:00,28,29,16,33,23,28,27,26,26
11:22:00,16,29,33,26,30,27,21,27,26
11:23:00,18,22,26,22,26,26,19,23,23
11:24:00,28,30,27,34,29,31,27,30,29
11:25:00,22,27,34,28,27,27,22,28,27
11:26:00,28,27,28,26,29,25,19,28,26
11:27:00,33,30,21,25,26,26,23,27,26
11:28:00,29,30,27,36,40,11,26,32,28
11:29:00,28,32,34,20,19,31,21,27,26
11:30:00,17,25,33,29,26,32,27,26,27
11:31:00,28,26,22,22,29,30,28,25,26
11:32:00,17,34,29,27,21,26,26,26,26
11:33:00,32,24,26,25,33,30,22,28,27
11:34:00,28,34,30,17,27,17,27,27,26
11:35:00,23,29,22,21,25,27,23,24,24
11:36:00,22,30,31,34,25,21,22,28,26
11:37:00,31,28,27,32,17,32,20,27,27
11:38:00,31,33,33,32,36,28,26,33,31
11:39:00,32,20,39,32,30,21,17,31,27
11:40:00,25,30,23,24,29,35,26,26,27
11:41:00,20,18,24,30,38,21,30,26,26
11:42:00,21,26,34,24,24,26,28,26,26
11:43:00,31,26,24,33,27,24,24,28,27
11:44:00,32,23,28,23,25,20,26,26,25
11:45:00,31,30,26,36,32,29,29,31,30
11:46:00,28,34,34,16,21,34,32,27,28
11:47:00,31,30,23,27,34,22,19,29,27
11:48:00,22,29,38,25,30,33,30,29,30
11:49:00,24,34,28,28,30,20,17,29,26
11:50:00,24,23,30,35,25,36,31,27,29
11:51:00,32,32,23,28,38,20,24,31,28
11:52:00,15,17,29,29,19,24,27,22,23
11:53:00,34,27,29,26,34,27,20,30,28
11:54:00,32,27,15,22,33,28,28,26,26
11:55:00,35,26,21,28,17,20,27,25,25
11:56:00,24,32,32,20,25,28,17,27,25
11:57:00,26,19,17,35,37,26,34,27,28
11:58:00,28,28,33,32,32,20,16,31,27
11:59:00,29,27,20,27,24,27,24,25,25
12:00:00,27,30,31,26,31,22,25,29,27
12:01:00,33,28,8,32,27,30,26,26,26
12:02:00,17,29,34,26,26,26,23,26,26
12:03:00,29,26,37,35,30,25,19,31,29
12:04:00,18,22,32,21,26,28,27,24,25
12:05:00,34,35,27,35,28,27,27,32,30
12:06:00,23,24,35,24,31,20,27,27,26
12:07:00,26,23,39,22,29,17,28,28,26
12:08:00,18,21,34,34,26,34,26,27,28
12:09:00,31,18,37,30,37,32,26,31,30
12:10:00,19,22,34,23,15,26,32,23,24
12:11:00,30,32,33,24,28,25,20,29,27
12:12:00,31,24,24,27,25,25,24,26,26
12:13:00,33,34,35,16,27,25,22,29,27
12:14:00,26,26,25,28,31,23,26,27,26
12:15:00,40,27,35,33,22,37,27,31,32
12:16:00,30,30,24,36,30,16,23,30,27
12:17:00,23,29,22,29,31,26,29,27,27
12:18:00,24,37,26,25,32,28,30,29,29
12:19:00,34,32,27,35,36,19,30,33,30
12:20:00,25,22,29,24,27,26,21,25,25
12:21:00,30,35,24,33,37,23,25,32,30
12:22:00,31,32,21,32,28,32,26,29,29
12:23:00,30,25,21,42,35,30,29,31,30
12:24:00,24,29,30,29,32,13,20,29,25
12:25:00,33,35,27,21,31,22,17,29,27
12:26:00,24,23,29,30,41,30,25,29,29
12:27:00,20,23,26,38,17,25,20,25,24
12:28:00,23,20,28,16,26,25,24,23,23
12:29:00,34,24,34,29,27,26,24,30,28
12:30:00,32,33,35,18,29,25,21,29,28
12:31:00,30,22,28,19,26,28,30,25,26
12:32:00,29,32,19,33,25,26,22,28,27
12:33:00,20,34,28,26,33,25,25,28,27
12:34:00,30,21,17,32,37,29,16,27,26
12:35:00,30,20,28,24,21,24,28,25,25
12:36:00,27,31,28,31,35,22,20,30,28
12:37:00,29,19,22,24,27,26,22,24,24
12:38:00,27,30,41,26,23,27,23,29,28
12:39:00,32,27,21,22,24,25,20,25,24
12:40:00,25,29,28,24,31,30,26,27,28
12:41:00,29,33,24,26,27,19,20,28,25
12:42:00,23,17,33,24,32,24,19,26,25
12:43:00,24,25,37,18,26,29,24,26,26
12:44:00,36,31,20,20,22,17,25,26,24
12:45:00,22,30,33,27,23,0,27,27,23
12:46:00,25,34,24,22,26,25,31,26,27
12:47:00,33,28,34,28,26,36,24,30,30
12:48:00,21,34,30,26,20,28,24,26,26
12:49:00,28,23,30,15,35,32,16,26,26
12:50:00,31,29,26,29,26,19,24,28,26
12:51:00,29,32,26,17,24,29,31,26,27
12:52:00,23,25,39,20,34,24,26,28,27
12:53:00,35,29,28,26,21,30,18,28,27
12:54:00,34,24,22,25,30,16,22,27,25
12:55:00,17,27,19,28,24,27,28,23,24
12:56:00,35,24,21,19,27,21,21,25,24
12:57:00,29,31,32,20,24,22,24,27,26
12:58:00,22,22,28,28,27,19,24,25,24
12:59:00,16,28,35,33,27,26,26,28,27
13:00:00,27,28,29,34,28,27,24,29,28
13:01:00,25,27,24,25,24,24,30,25,26
13:02:00,26,42,32,24,30,24,25,31,29
13:03:00,25,31,26,25,16,27,31,25,26
13:04:00,26,32,26,32,26,33,24,28,28
13:05:00,24,21,28,26,26,28,29,25,26
13:06:00,24,42,38,31,24,19,22,32,29
13:07:00,31,26,20,18,23,25,31,24,25
13:08:00,21,32,35,33,23,26,29,29,28
13:09:00,26,30,27,23,29,22,28,27,26
13:10:00,23,36,42,34,25,32,21,32,30
13:11:00,22,19,26,27,20,23,30,23,24
13:12:00,31,37,26,19,39,24,24,30,29
13:13:00,22,20,28,26,29,27,28,25,26
13:14:00,22,27,25,27,37,18,22,28,25
13:15:00,28,29,18,27,13,24,25,23,23
13:16:00,20,27,27,25,37,16,26,27,25
13:17:00,24,38,36,32,31,32,23,32,31
13:18:00,27,24,18,40,26,33,21,27,27
13:19:00,22,31,33,25,15,21,27,25,25
13:20:00,28,29,31,24,31,28,25,29,28
13:21:00,23,31,21,25,22,30,20,24,25
13:22:00,26,34,25,23,27,31,24,27,27
13:23:00,29,19,19,28,33,20,27,26,25
13:24:00,26,25,29,28,19,23,29,25,26
13:25:00,35,28,35,23,14,34,28,27,28
13:26:00,23,21,30,29,18,29,28,24,25
13:27:00,27,20,22,18,21,28,26,22,23
13:28:00,23,33,26,30,20,25,32,26,27
13:29:00,32,18,21,18,27,26,29,23,24
13:30:00,34,22,30,36,14,30,28,27,28
13:31:00,32,30,25,30,29,25,29,29,29
13:32:00,27,33,24,27,23,39,33,27,29
13:33:00,26,24,25,27,26,36,20,26,26
13:34:00,31,33,22,25,22,25,23,27,26
13:35:00,32,24,24,31,23,33,28,27,28
13:36:00,11,33,33,25,39,31,25,28,28
13:37:00,34,25,23,32,23,23,25,27,26
13:38:00,24,23,34,19,24,30,27,25,26
13:39:00,26,24,25,28,20,27,26,25,25
13:40:00,20,21,38,18,18,25,26,23,24
13:41:00,33,40,24,26,23,23,25,29,28
13:42:00,27,28,36,32,33,27,22,31,29
13:43:00,32,32,25,19,18,22,29,25,25
13:44:00,30,27,38,23,22,31,29,28,29
13:45:00,23,21,13,37,24,14,29,24,23
13:46:00,33,27,28,20,21,30,33,26,27
13:47:00,35,28,32,40,29,24,17,33,29
13:48:00,31,36,31,17,13,24,28,26,26
13:49:00,28,24,16,34,20,38,25,24,26
13:50:00,27,25,40,19,17,26,20,26,25
13:51:00,23,29,17,24,31,28,28,25,26
13:52:00,32,29,27,24,32,25,26,29,28
13:53:00,28,32,39,26,38,23,24,33,30
13:54:00,16,29,32,24,21,34,28,24,26
13:55:00,34,24,32,31,34,32,20,31,30
13:56:00,22,30,24,21,24,18,23,24,23
13:57:00,34,22,29,23,34,29,19,28,27
13:58:00,28,30,25,29,25,26,29,27,27
13:59:00,23,26,30,34,26,21,27,28,27
14:00:00,21,31,22,19,33,28,34,25,27
14:01:00,21,27,36,37,22,32,30,29,29
14:02:00,26,27,24,20,37,21,27,27,26
14:03:00,29,22,27,33,30,24,29,28,28
14:04:00,28,23,21,24,23,34,23,24,25
14:05:00,27,28,25,24,28,18,24,26,25
14:06:00,17,22,35,28,34,37,21,27,28
14:07:00,30,28,29,20,31,31,25,28,28
14:08:00,29,27,18,32,23,28,25,26,26
14:09:00,25,31,19,18,19,24,19,22,22
14:10:00,23,35,24,24,33,15,28,28,26
14:11:00,31,19,15,31,20,28,25,23,24
14:12:00,35,34,33,20,22,22,23,29,27
14:13:00,13,29,23,27,28,30,22,24,25
14:14:00,36,13,39,34,22,28,24,29,28
14:15:00,26,22,26,28,21,27,30,25,26
14:16:00,28,14,21,19,37,27,30,24,25
14:17:00,23,34,28,31,31,22,19,29,27
14:18:00,31,19,32,26,32,30,21,28,27
14:19:00,20,22,14,29,27,36,29,22,25
14:20:00,24,20,34,27,24,23,27,26,26
14:21:00,30,42,22,23,23,30,28,28,28
14:22:00,18,23,36,21,31,25,24,26,25
14:23:00,24,23,24,26,28,25,28,25,25
14:24:00,30,23,35,29,24,20,30,28,27
14:25:00,32,32,26,27,29,25,25,29,28
14:26:00,37,33,26,29,19,36,30,29,30
14:27:00,20,28,19,24,28,26,19,24,23
14:28:00,34,17,29,18,25,29,23,25,25
14:29:00,34,35,25,26,27,24,25,29,28
14:30:00,26,22,25,26,18,11,26,23,22
14:31:00,27,27,27,30,35,37,28,29,30
14:32:00,22,35,29,28,25,27,22,28,27
14:33:00,29,36,39,34,24,21,16,32,28
14:34:00,26,20,24,32,28,27,21,26,25
14:35:00,28,35,26,32,20,23,25,28,27
14:36:00,26,16,25,16,25,25,31,22,23
14:37:00,24,29,25,24,37,14,21,28,25
14:38:00,27,20,22,31,17,26,26,23,24
14:39:00,29,26,16,30,27,19,32,26,26
14:40:00,19,25,29,35,19,28,22,25,25
14:41:00,34,33,24,27,26,26,20,29,27
14:42:00,36,31,30,33,23,31,22,31,29
14:43:00,24,36,21,24,26,23,27,26,26
14:44:00,18,16,24,31,11,33,28,20,23
14:45:00,28,20,29,23,19,26,17,24,23
14:46:00,27,28,30,32,29,22,30,29,28
14:47:00,30,27,25,33,32,19,20,29,27
14:48:00,22,30,32,29,22,31,28,27,28
14:49:00,34,32,33,26,25,24,22,30,28
14:50:00,29,24,28,19,29,23,23,26,25
14:51:00,29,28,32,27,22,30,20,28,27
14:52:00,22,26,23,32,10,27,31,23,24
14:53:00,30,30,23,13,11,20,18,21,21
14:54:00,26,38,24,32,30,19,29,30,28
14:55:00,35,22,32,24,28,22,15,28,25
14:56:00,26,31,39,30,15,32,25,28,28
14:57:00,28,26,24,19,17,21,26,23,23
14:58:00,35,36,28,22,20,25,23,28,27
14:59:00,25,25,22,26,26,25,17,25,24
15:00:00,18,26,28,29,30,30,20,26,26
15:01:00,29,24,36,29,29,27,25,29,28
15:02:00,22,29,31,19,25,23,30,25,26
15:03:00,25,26,34,20,24,27,32,26,27
15:04:00,23,32,22,31,26,29,24,27,27
15:05:00,39,27,19,23,29,23,25,27,26
15:06:00,32,24,31,28,39,24,33,31,30
15:07:00,20,26,31,35,27,24,28,28,27
15:08:00,17,26,22,20,24,35,26,22,24
15:09:00,17,17,27,27,24,26,31,22,24
15:10:00,32,27,27,29,27,27,28,28,28
15:11:00,29,20,33,23,13,23,20,24,23
15:12:00,25,24,14,27,37,25,33,25,26
15:13:00,34,27,35,22,23,20,32,28,28
15:14:00,19,30,26,35,26,24,22,27,26
15:15:00,29,21,22,28,32,26,31,26,27
15:16:00,22,18,27,30,27,28,28,25,26
15:17:00,29,29,27,24,24,23,29,27,26
15:18:00,22,29,24,22,40,27,22,27,27
15:19:00,21,23,25,20,26,23,27,23,24
15:20:00,25,28,34,21,25,0,22,27,22
15:21:00,25,25,26,29,31,0,25,27,23
15:22:00,23,24,25,16,26,0,27,23,20
15:23:00,25,28,32,27,22,0,19,27,22
15:24:00,30,25,20,32,27,0,35,27,24
15:25:00,28,29,26,28,26,0,29,27,24
15:26:00,23,23,37,28,32,0,18,29,23
15:27:00,30,20,35,25,29,0,24,28,23
15:28:00,23,33,28,31,30,0,30,29,25
15:29:00,31,32,22,25,25,0,23,27,23
15:30:00,31,30,30,28,31,0,30,30,26
15:31:00,33,31,24,28,26,0,27,28,24
15:32:00,12,30,28,24,33,0,31,25,23
15:33:00,27,14,19,32,29,0,23,24,21
15:34:00,29,34,23,29,27,0,35,28,25
15:35:00,25,28,25,31,28,0,21,27,23
15:36:00,25,20,26,24,30,0,25,25,21
15:37:00,37,28,29,26,28,0,30,30,25
15:38:00,33,34,23,32,25,0,24,29,24
15:39:00,26,25,24,27,29,0,18,26,21
15:40:00,31,31,28,26,25,0,28,28,24
15:41:00,22,18,22,30,23,0,20,23,19
15:42:00,18,31,17,26,26,0,16,24,19
15:43:00,27,15,27,26,21,0,24,23,20
15:44:00,13,24,25,25,31,0,29,24,21
15:45:00,27,33,31,18,25,0,22,27,22
15:46:00,22,37,22,31,28,0,21,28,23
15:47:00,27,30,33,29,27,0,19,29,24
15:48:00,25,27,22,30,26,0,20,26,21
15:49:00,30,36,34,24,27,0,25,30,25
15:50:00,20,14,24,25,31,8,27,23,21
15:51:00,24,32,27,24,23,25,17,26,25
15:52:00,27,16,14,26,28,24,20,22,22
15:53:00,27,31,29,19,25,30,22,26,26
15:54:00,24,30,33,27,35,24,20,30,28
15:55:00,29,24,22,20,27,28,23,24,25
15:56:00,27,32,16,33,28,21,24,27,26
15:57:00,24,34,33,25,28,25,23,29,27
15:58:00,26,37,23,29,27,25,19,28,27
15:59:00,25,16,24,22,26,24,32,23,24
16:00:00,29,22,35,30,27,24,28,29,28
16:01:00,18,15,24,18,35,24,28,22,23
16:02:00,26,31,19,33,23,25,30,26,27
16:03:00,19,25,24,21,18,25,26,21,23
16:04:00,29,25,30,33,27,21,20,29,26
16:05:00,24,23,23,28,23,23,20,24,23
16:06:00,28,35,31,36,23,32,23,31,30
16:07:00,28,32,26,35,25,29,28,29,29
16:08:00,21,32,32,28,28,21,19,28,26
16:09:00,30,32,34,31,25,26,27,30,29
16:10:00,27,31,30,28,9,26,24,25,25
16:11:00,32,22,21,31,12,33,23,24,25
16:12:00,21,25,30,19,20,25,23,23,23
16:13:00,27,20,19,21,20,28,27,21,23
16:14:00,26,21,39,15,20,24,23,24,24
16:15:00,24,33,32,38,22,27,17,30,28
16:16:00,26,26,14,31,26,23,26,25,25
16:17:00,26,31,29,20,30,20,26,27,26
16:18:00,32,26,26,32,36,37,30,30,31
16:19:00,28,30,22,39,21,17,23,28,26
16:20:00,27,22,25,23,34,33,28,26,27
16:21:00,25,24,35,27,25,28,22,27,27
16:22:00,22,22,15,22,30,29,20,22,23
16:23:00,19,20,32,27,26,15,27,25,24
16:24:00,29,34,24,31,30,25,14,30,27
16:25:00,25,19,34,24,24,33,25,25,26
16:26:00,13,19,25,27,35,19,23,24,23
16:27:00,28,26,24,40,26,32,27,29,29
16:28:00,32,25,30,20,22,17,18,26,23
16:29:00,18,19,26,22,35,31,26,24,25
16:30:00,25,31,25,32,27,18,25,28,26
16:31:00,23,16,32,27,32,26,20,26,25
16:32:00,27,27,19,24,24,28,18,24,24
16:33:00,28,23,21,23,27,23,21,24,24
16:34:00,24,23,31,24,27,22,15,26,24
16:35:00,31,21,28,27,30,28,22,27,27
16:36:00,30,39,28,19,26,21,20,28,26
16:37:00,26,26,29,19,26,26,27,25,26
16:38:00,32,30,22,27,27,19,21,28,25
16:39:00,27,21,24,31,21,27,21,25,25
16:40:00,31,30,24,25,17,27,28,25,26
16:41:00,30,32,25,26,31,23,26,29,28
16:42:00,21,28,34,25,27,26,26,27,27
16:43:00,21,22,27,33,22,28,22,25,25
16:44:00,34,34,34,21,21,26,25,29,28
16:45:00,11,24,20,29,30,19,23,23,22
16:46:00,21,32,26,29,30,23,26,28,27
16:47:00,21,27,30,28,36,26,25,28,28
16:48:00,30,31,25,26,23,25,26,27,27
16:49:00,24,24,34,24,38,33,28,29,29
16:50:00,24,26,22,22,24,19,25,24,23
16:51:00,26,37,31,30,29,28,17,31,28
16:52:00,21,21,30,37,25,18,29,27,26
16:53:00,28,32,30,27,17,18,23,27,25
16:54:00,35,28,23,31,21,21,19,28,25
16:55:00,26,14,14,22,34,20,20,22,21
16:56:00,34,17,36,24,24,25,22,27,26
16:57:00,25,28,15,29,37,30,25,27,27
16:58:00,28,25,32,28,22,15,16,27,24
16:59:00,14,22,24,18,32,28,15,22,22
17:00:00,28,18,17,24,20,22,26,21,22
17:01:00,30,27,24,25,28,18,13,27,24
17:02:00,28,31,26,27,17,35,15,26,26
17:03:00,28,24,25,19,18,16,16,23,21
17:04:00,21,32,22,36,27,24,23,28,26
17:05:00,9,22,26,21,24,21,20,20,20
17:06:00,9,20,34,18,25,33,22,21,23
17:07:00,25,14,17,34,34,22,21,25,24
17:08:00,23,26,33,20,20,22,18,24,23
17:09:00,30,28,26,22,26,28,16,26,25
17:10:00,17,25,23,32,22,26,21,24,24
17:11:00,23,30,28,30,26,29,16,27,26
17:12:00,29,20,26,24,25,21,16,25,23
17:13:00,23,28,17,27,29,25,21,25,24
17:14:00,32,24,30,25,42,22,25,31,29
17:15:00,24,22,21,21,19,24,16,21,21
17:16:00,22,34,27,25,23,13,24,26,24
17:17:00,21,29,20,30,33,28,27,27,27
17:18:00,28,24,30,24,30,29,11,27,25
17:19:00,23,24,14,26,23,16,23,22,21
17:20:00,20,18,25,24,19,20,23,21,21
17:21:00,23,23,21,32,25,20,27,25,24
17:22:00,20,27,31,26,23,26,20,25,25
17:23:00,23,21,29,32,28,21,19,27,25
17:24:00,21,20,27,27,25,17,29,24,24
17:25:00,27,24,20,31,24,33,23,25,26
17:26:00,23,26,37,26,20,26,20,26,25
17:27:00,26,30,21,28,24,17,19,26,24
17:28:00,32,21,24,32,25,32,20,27,27
17:29:00,21,23,27,22,34,26,24,25,25
17:30:00,36,17,20,22,20,18,24,23,22
17:31:00,25,26,22,38,36,33,17,29,28
17:32:00,20,27,17,28,17,18,17,22,21
17:33:00,28,23,19,30,30,23,25,26,25
17:34:00,34,30,32,29,28,20,20,31,28
17:35:00,27,32,30,27,28,30,22,29,28
17:36:00,30,20,24,16,22,18,21,22,22
17:37:00,28,27,26,29,27,23,15,27,25
17:38:00,23,17,20,21,24,21,23,21,21
17:39:00,22,34,27,30,32,24,14,29,26
17:40:00,20,23,24,24,26,19,21,23,22
17:41:00,31,32,20,21,35,35,23,28,28
17:42:00,18,21,35,23,20,19,25,23,23
17:43:00,26,29,25,29,24,21,19,27,25
17:44:00,27,24,23,23,35,28,16,26,25
17:45:00,23,23,34,30,23,19,19,27,24
17:46:00,30,24,26,23,27,17,29,26,25
17:47:00,23,24,19,33,36,21,11,27,24
17:48:00,18,27,26,20,28,19,23,24,23
17:49:00,20,26,38,32,25,21,21,28,26
17:50:00,34,32,34,35,35,21,19,34,30
17:51:00,21,23,28,31,27,22,26,26,25
17:52:00,23,28,30,30,17,23,20,26,24
17:53:00,16,27,25,25,37,24,18,26,25
17:54:00,30,30,33,31,24,18,19,30,26
17:55:00,36,22,38,25,23,24,15,29,26
17:56:00,18,20,28,29,28,29,16,25,24
17:57:00,34,37,26,35,34,27,18,33,30
17:58:00,25,24,29,28,21,16,20,25,23
17:59:00,29,21,29,40,32,30,13,30,28
18:00:00,18,33,31,30,23,21,16,27,25
18:01:00,23,32,29,31,30,18,19,29,26
18:02:00,25,19,31,20,32,18,15,25,23
18:03:00,28,19,27,23,21,18,16,24,22
18:04:00,15,18,32,28,27,21,16,24,22
18:05:00,39,15,25,29,30,28,14,28,26
18:06:00,31,28,38,23,22,30,19,28,27
18:07:00,19,20,26,29,36,23,20,26,25
18:08:00,22,27,28,25,31,18,18,27,24
18:09:00,25,20,28,30,26,23,19,26,24
18:10:00,20,32,25,24,28,11,16,26,22
18:11:00,19,24,21,26,22,29,19,22,23
18:12:00,23,17,28,27,28,22,14,25,23
18:13:00,30,31,14,27,28,20,16,26,24
18:14:00,25,27,19,29,25,27,10,25,23
18:15:00,24,24,29,25,29,22,19,26,25
18:16:00,25,22,25,18,23,21,29,23,23
18:17:00,28,31,25,36,25,27,22,29,28
18:18:00,28,28,26,27,22,25,15,26,24
18:19:00,34,24,31,37,27,24,20,31,28
18:20:00,33,25,28,16,22,22,21,25,24
18:21:00,24,25,20,35,28,21,12,26,24
18:22:00,29,26,32,31,21,22,16,28,25
18:23:00,21,34,22,18,27,20,27,24,24
18:24:00,30,27,25,25,21,26,17,26,24
18:25:00,16,36,20,40,32,25,23,29,27
18:26:00,27,21,28,29,25,17,19,26,24
18:27:00,16,22,26,23,23,23,16,22,21
18:28:00,13,25,16,27,27,27,20,22,22
18:29:00,21,20,21,28,21,23,11,22,21
18:30:00,22,21,34,14,31,20,11,24,22
18:31:00,27,9,25,20,21,13,21,20,19
18:32:00,29,14,23,29,34,27,24,26,26
18:33:00,27,24,17,26,16,12,17,22,20
18:34:00,18,27,28,25,35,23,13,27,24
18:35:00,26,31,23,28,21,29,15,26,25
18:36:00,27,22,15,27,28,27,20,24,24
18:37:00,19,31,30,29,26,23,14,27,25
18:38:00,27,20,21,29,24,23,11,24,22
18:39:00,34,24,21,21,34,29,26,27,27
18:40:00,21,23,25,33,30,27,15,26,25
18:41:00,28,22,23,34,24,19,25,26,25
18:42:00,20,23,28,21,32,16,12,25,22
18:43:00,31,15,35,30,27,27,24,28,27
18:44:00,36,17,28,25,28,26,20,27,26
18:45:00,26,29,25,27,24,26,19,26,25
18:46:00,25,22,31,22,26,21,21,25,24
18:47:00,25,25,28,29,21,14,23,26,24
18:48:00,23,22,25,27,35,21,20,26,25
18:49:00,18,26,25,26,34,21,20,26,24
18:50:00,25,19,27,26,27,27,19,25,24
18:51:00,27,36,20,27,34,26,15,29,26
18:52:00,13,26,29,32,22,25,21,24,24
18:53:00,33,24,16,23,30,18,29,25,25
18:54:00,34,20,25,30,19,25,14,26,24
18:55:00,18,19,23,27,25,22,14,22,21
18:56:00,28,25,18,32,28,21,27,26,26
18:57:00,28,21,19,34,30,22,16,26,24
18:58:00,18,32,28,17,23,25,21,24,23
18:59:00,31,21,24,20,34,18,17,26,24
19:00:00,18,32,24,23,21,25,20,24,23
19:01:00,20,21,24,32,21,12,12,24,20
19:02:00,24,16,28,18,33,18,17,24,22
19:03:00,15,28,35,35,20,34,25,27,27
19:04:00,28,23,21,27,28,23,20,25,24
19:05:00,31,23,19,27,25,17,19,25,23
19:06:00,27,35,20,22,23,21,16,25,23
19:07:00,21,30,19,24,26,26,26,24,25
19:08:00,21,25,27,30,21,28,19,25,24
19:09:00,24,24,27,19,25,25,26,24,24
19:10:00,22,26,23,37,27,22,11,27,24
19:11:00,26,25,23,30,26,16,21,26,24
19:12:00,24,18,27,25,23,20,15,23,22
19:13:00,32,28,30,20,29,23,11,28,25
19:14:00,24,33,29,22,25,16,24,27,25
19:15:00,31,24,23,24,22,22,20,25,24
19:16:00,21,25,21,27,26,21,13,24,22
19:17:00,17,17,36,20,23,24,18,23,22
19:18:00,24,18,15,31,24,21,10,22,20
19:19:00,24,33,25,31,21,24,13,27,24
19:20:00,30,26,27,20,33,13,20,27,24
19:21:00,29,30,20,34,25,25,11,28,25
19:22:00,24,19,18,19,40,22,18,24,23
19:23:00,36,23,29,21,20,19,22,26,24
19:24:00,21,31,22,14,20,15,14,22,20
19:25:00,25,28,29,24,23,21,16,26,24
19:26:00,18,20,32,18,27,24,16,23,22
19:27:00,18,22,14,31,29,19,21,23,22
19:28:00,16,14,28,30,22,24,23,22,22
19:29:00,21,29,23,28,22,24,15,25,23
19:30:00,22,19,15,22,23,22,14,20,20
19:31:00,17,18,19,24,22,25,17,20,20
19:32:00,17,24,18,26,22,22,23,21,22
19:33:00,20,20,25,23,26,22,14,23,21
19:34:00,16,17,15,17,20,15,13,17,16
19:35:00,8,23,19,25,28,16,15,21,19
19:36:00,23,18,23,23,33,14,8,24,20
19:37:00,22,20,24,32,25,28,12,25,23
19:38:00,19,17,17,12,22,19,19,17,18
19:39:00,14,12,17,39,27,19,14,22,20
19:40:00,26,28,20,22,23,18,14,24,22
19:41:00,13,14,20,25,24,18,16,19,19
19:42:00,25,16,24,18,29,20,16,22,21
19:43:00,23,12,18,27,23,21,23,21,21
19:44:00,25,23,16,24,26,17,18,23,21
19:45:00,15,19,32,19,27,18,18,22,21
19:46:00,24,14,20,31,22,17,13,22,20
19:47:00,22,14,17,23,11,24,15,17,18
19:48:00,18,20,23,16,23,24,18,20,20
19:49:00,21,17,18,29,30,16,23,23,22
19:50:00,21,28,16,13,18,23,10,19,18
19:51:00,18,16,21,30,19,14,23,21,20
19:52:00,21,18,15,22,25,18,21,20,20
19:53:00,22,24,25,17,29,23,19,23,23
19:54:00,17,17,20,21,21,19,19,19,19
19:55:00,20,21,29,21,18,12,13,22,19
19:56:00,22,10,15,23,25,23,19,19,20
19:57:00,21,15,16,12,19,12,17,17,16
19:58:00,14,20,23,32,20,18,19,22,21
19:59:00,25,20,15,26,13,16,10,20,18
20:00:00,14,12,19,12,26,15,11,17,16
20:01:00,14,11,17,17,19,13,23,16,16
20:02:00,15,23,10,11,23,22,15,16,17
20:03:00,17,13,12,24,24,24,14,18,18
20:04:00,17,20,23,23,21,19,6,21,18
20:05:00,13,23,20,17,22,19,13,19,18
20:06:00,18,18,7,23,30,9,17,19,17
20:07:00,18,23,14,26,26,16,15,21,20
20:08:00,21,19,18,19,22,16,10,20,18
20:09:00,22,18,20,22,17,21,12,20,19
20:10:00,15,15,22,22,14,11,12,18,16
20:11:00,19,26,20,27,10,18,17,20,20
20:12:00,14,14,18,17,20,10,14,17,15
20:13:00,14,15,17,24,22,27,13,18,19
20:14:00,23,25,15,18,19,14,8,20,17
20:15:00,17,26,12,18,20,15,11,19,17
20:16:00,21,12,23,21,19,22,19,19,20
20:17:00,15,16,12,21,21,11,15,17,16
20:18:00,23,23,27,24,22,18,10,24,21
20:19:00,12,21,19,26,16,10,19,19,18
20:20:00,18,19,26,22,25,12,14,22,19
20:21:00,18,25,16,21,16,19,9,19,18
20:22:00,18,13,13,18,16,16,9,16,15
20:23:00,25,15,9,24,23,15,16,19,18
20:24:00,18,15,17,18,13,17,10,16,15
20:25:00,17,22,19,20,15,16,9,19,17
20:26:00,11,29,11,20,15,15,12,17,16
20:27:00,15,15,15,17,18,13,11,16,15
20:28:00,13,15,12,16,16,13,13,14,14
20:29:00,12,18,18,12,16,8,9,15,13
20:30:00,17,15,18,20,13,14,11,17,15
20:31:00,9,10,14,14,14,19,14,12,13
20:32:00,11,12,14,23,17,16,8,15,14
20:33:00,13,14,20,18,20,17,15,17,17
20:34:00,18,13,10,10,15,11,17,13,13
20:35:00,10,16,14,8,16,20,11,13,14
20:36:00,14,19,16,22,23,11,8,19,16
20:37:00,12,11,10,10,18,5,9,12,11
20:38:00,11,16,14,16,23,17,8,16,15
20:39:00,14,13,16,21,20,8,14,17,15
20:40:00,17,15,20,14,14,9,10,16,14
20:41:00,11,8,15,16,14,8,12,13,12
20:42:00,19,13,15,13,18,10,7,16,14
20:43:00,18,8,7,24,12,19,19,14,15
20:44:00,11,14,20,22,16,16,5,17,15
20:45:00,16,16,17,19,22,8,13,18,16
20:46:00,17,15,14,12,15,15,12,15,14
20:47:00,14,12,20,20,14,7,20,16,15
20:48:00,10,7,9,17,19,10,8,12,11
20:49:00,17,18,17,28,16,14,10,19,17
20:50:00,7,10,19,15,8,7,11,12,11
20:51:00,14,12,17,22,22,11,12,17,16
20:52:00,18,20,10,22,14,15,16,17,16
20:53:00,12,16,12,15,14,16,10,14,14
20:54:00,14,13,7,18,15,13,6,13,12
20:55:00,11,19,13,18,20,17,14,16,16
20:56:00,10,11,13,17,9,14,9,12,12
20:57:00,12,13,15,7,16,13,13,13,13
20:58:00,14,14,16,14,13,8,15,14,13
20:59:00,11,15,10,8,22,20,7,13,13
21:00:00,7,10,12,14,13,14,6,11,11
21:01:00,10,8,8,15,11,13,6,10,10
21:02:00,11,12,12,25,15,14,12,15,14
21:03:00,9,15,7,19,21,9,8,14,13
21:04:00,20,12,18,11,15,12,9,15,14
21:05:00,16,12,12,15,13,17,5,14,13
21:06:00,13,12,12,13,15,20,6,13,13
21:07:00,12,15,15,12,18,14,7,14,13
21:08:00,13,14,12,16,18,12,10,15,14
21:09:00,10,12,11,14,14,13,9,12,12
21:10:00,18,13,16,17,16,18,5,16,15
21:11:00,16,23,17,20,11,18,10,17,16
21:12:00,20,18,14,10,12,10,8,15,13
21:13:00,16,19,15,12,18,14,14,16,15
21:14:00,9,25,11,19,15,8,8,16,14
21:15:00,12,7,15,15,12,13,7,12,12
21:16:00,11,14,13,11,7,17,9,11,12
21:17:00,10,16,16,17,16,21,8,15,15
21:18:00,11,15,6,19,9,14,9,12,12
21:19:00,11,11,13,13,16,14,11,13,13
21:20:00,15,12,14,11,11,19,6,13,13
21:21:00,9,7,14,11,18,13,16,12,13
21:22:00,19,14,9,24,15,7,11,16,14
21:23:00,7,10,13,17,15,12,12,12,12
21:24:00,17,12,15,24,4,8,12,14,13
21:25:00,14,17,6,4,22,17,8,13,13
21:26:00,13,11,27,15,13,11,14,16,15
21:27:00,18,13,13,17,14,16,8,15,14
21:28:00,8,3,6,14,18,11,13,10,10
21:29:00,10,14,13,17,11,13,9,13,12
21:30:00,11,12,14,14,12,15,10,13,13
21:31:00,7,17,7,10,14,15,7,11,11
21:32:00,6,8,8,14,17,8,10,11,10
21:33:00,6,9,19,13,19,20,9,13,14
21:34:00,14,11,7,8,8,15,8,10,10
21:35:00,14,8,3,14,13,17,12,10,12
21:36:00,11,13,7,24,11,9,9,13,12
21:37:00,9,17,9,16,8,18,8,12,12
21:38:00,8,4,11,15,13,13,7,10,10
21:39:00,11,10,15,20,10,11,7,13,12
21:40:00,9,11,10,13,5,11,15,10,11
21:41:00,8,11,9,14,26,14,7,14,13
21:42:00,14,12,19,9,11,9,9,13,12
21:43:00,8,14,13,13,10,13,6,12,11
21:44:00,15,12,13,11,14,6,15,13,12
21:45:00,8,13,10,17,13,14,15,12,13
21:46:00,24,10,7,15,9,11,7,13,12
21:47:00,15,11,17,10,15,7,4,14,11
21:48:00,10,8,15,15,13,21,9,12,13
21:49:00,21,10,5,8,8,8,12,10,10
21:50:00,13,8,12,19,12,9,8,13,12
21:51:00,11,13,9,9,15,11,13,11,12
21:52:00,12,14,14,15,17,17,4,14,13
21:53:00,12,13,7,27,14,8,12,15,13
21:54:00,12,11,11,9,11,15,5,11,11
21:55:00,6,5,10,9,10,15,8,8,9
21:56:00,10,7,11,11,14,15,10,11,11
21:57:00,9,10,14,7,18,9,8,12,11
21:58:00,11,6,10,9,7,10,7,9,9
21:59:00,7,9,11,9,12,12,4,10,9
22:00:00,8,12,7,10,10,8,9,9,9
22:01:00,9,6,11,4,11,11,8,8,9
22:02:00,14,12,10,16,16,8,9,14,12
22:03:00,8,12,10,14,9,16,5,11,11
22:04:00,6,6,10,15,7,16,14,9,11
22:05:00,13,14,8,12,14,16,6,12,12
22:06:00,8,2,11,12,10,8,4,9,8
22:07:00,7,12,22,16,14,14,9,14,13
22:08:00,13,10,10,11,17,7,7,12,11
22:09:00,14,8,9,6,9,11,13,9,10
22:10:00,6,9,21,14,12,10,8,12,11
22:11:00,7,15,13,11,15,14,13,12,13
22:12:00,11,12,8,13,10,14,6,11,11
22:13:00,18,12,9,13,15,11,21,13,14
22:14:00,16,9,9,19,17,21,10,14,14
22:15:00,11,12,10,11,8,13,18,10,12
22:16:00,12,12,14,10,20,11,6,14,12
22:17:00,12,18,12,14,8,16,4,13,12
22:18:00,19,7,11,7,5,14,6,10,10
22:19:00,9,8,9,17,16,15,12,12,12
22:20:00,20,7,17,14,11,11,10,14,13
22:21:00,3,7,20,18,17,10,9,13,12
22:22:00,19,8,9,11,9,11,9,11,11
22:23:00,14,4,11,18,16,13,7,13,12
22:24:00,10,15,9,19,7,7,11,12,11
22:25:00,11,7,10,15,7,9,6,10,9
22:26:00,6,13,6,14,10,15,5,10,10
22:27:00,5,12,9,3,12,11,10,8,9
22:28:00,12,13,12,17,12,15,14,13,14
22:29:00,7,6,15,13,24,14,6,13,12
22:30:00,12,5,6,6,13,12,5,8,8
22:31:00,7,11,8,11,16,9,6,11,10
22:32:00,11,15,8,9,4,10,6,9,9
22:33:00,19,10,7,9,10,7,7,11,10
22:34:00,4,10,8,10,13,10,4,9,8
22:35:00,6,11,13,9,12,19,1,10,10
22:36:00,6,8,9,12,15,11,8,10,10
22:37:00,13,15,10,8,16,9,7,12,11
22:38:00,8,8,12,9,15,12,2,10,9
22:39:00,6,8,4,12,13,12,11,9,9
22:40:00,10,14,15,5,15,7,4,12,10
22:41:00,2,7,8,7,16,16,10,8,9
22:42:00,10,4,9,11,16,16,3,10,10
22:43:00,7,16,5,8,7,12,9,9,9
22:44:00,12,10,9,11,14,2,2,11,9
22:45:00,8,9,6,10,11,20,5,9,10
22:46:00,14,6,9,12,7,8,9,10,9
22:47:00,6,8,11,16,16,9,4,11,10
22:48:00,9,8,5,11,16,9,6,10,9
22:49:00,8,13,7,10,10,14,5,10,10
22:50:00,7,6,10,13,19,12,7,11,11
22:51:00,13,7,15,9,16,11,7,12,11
22:52:00,6,5,14,10,16,11,4,10,9
22:53:00,10,8,11,8,14,12,11,10,11
22:54:00,5,13,9,5,12,12,10,9,9
22:55:00,6,7,6,6,7,8,4,6,6
22:56:00,7,8,13,7,11,10,4,9,9
22:57:00,11,10,8,17,17,10,6,13,11
22:58:00,8,5,12,8,10,16,8,9,10
22:59:00,12,10,6,5,14,8,5,9,9
23:00:00,8,8,8,6,13,17,8,9,10
23:01:00,6,8,10,5,13,11,6,8,8
23:02:00,6,12,14,9,20,9,3,12,10
23:03:00,7,6,5,10,16,10,8,9,9
23:04:00,2,7,8,8,12,12,8,7,8
23:05:00,13,6,4,7,6,7,5,7,7
23:06:00,5,7,15,8,11,13,9,9,10
23:07:00,6,3,7,9,13,9,6,8,8
23:08:00,6,12,9,9,13,10,3,10,9
23:09:00,3,7,10,6,19,10,8,9,9
23:10:00,6,5,6,8,21,11,5,9,9
23:11:00,9,11,7,9,14,8,4,10,9
23:12:00,3,7,4,10,11,12,7,7,8
23:13:00,2,12,13,6,11,13,9,9,9
23:14:00,3,6,3,8,12,7,5,6,6
23:15:00,4,4,6,10,15,9,6,8,8
23:16:00,5,5,8,14,16,11,1,10,9
23:17:00,5,4,4,8,14,11,4,7,7
23:18:00,7,5,4,2,12,9,6,6,6
23:19:00,4,6,5,8,9,11,5,6,7
23:20:00,9,5,12,6,11,7,12,9,9
23:21:00,8,10,7,5,13,9,5,9,8
23:22:00,2,8,15,6,16,9,7,9,9
23:23:00,4,3,6,12,8,11,1,7,6
23:24:00,6,6,2,5,9,13,9,6,7
23:25:00,2,4,2,4,17,6,5,6,6
23:26:00,2,4,8,7,12,10,2,7,6
23:27:00,7,7,8,5,12,13,2,8,8
23:28:00,7,3,8,1,19,11,3,8,7
23:29:00,5,6,9,5,8,7,6,7,7
23:30:00,3,4,6,14,5,12,5,6,7
23:31:00,4,6,2,4,13,12,1,6,6
23:32:00,2,2,6,3,11,16,3,5,6
23:33:00,8,6,6,6,5,10,1,6,6
23:34:00,4,4,4,6,15,7,3,7,6
23:35:00,3,4,14,7,12,10,5,8,8
23:36:00,5,5,5,8,15,5,7,8,7
23:37:00,8,1,1,7,8,10,4,5,6
23:38:00,3,5,8,7,15,12,4,8,8
23:39:00,2,7,11,6,11,9,1,7,7
23:40:00,1,4,4,8,4,12,2,4,5
23:41:00,3,5,6,5,17,9,5,7,7
23:42:00,9,3,3,4,12,6,4,6,6
23:43:00,4,7,10,3,9,5,1,7,6
23:44:00,2,4,6,5,10,14,0,5,6
23:45:00,3,6,5,4,4,11,3,4,5
23:46:00,4,2,7,6,6,9,3,5,5
23:47:00,2,3,5,2,8,7,4,4,4
23:48:00,3,2,2,8,14,12,7,6,7
23:49:00,2,2,5,5,10,7,6,5,5
23:50:00,2,6,2,13,10,7,9,7,7
23:51:00,2,2,5,5,9,8,3,5,5
23:52:00,2,3,5,3,12,12,4,5,6
23:53:00,1,2,6,6,15,9,2,6,6
23:54:00,7,1,1,1,8,7,5,4,4
23:55:00,5,2,5,7,5,13,4,5,6
23:56:00,3,4,2,7,14,10,3,6,6
23:57:00,4,2,4,5,3,9,10,4,5
23:58:00,2,4,8,8,10,7,4,6,6
23:59:00,2,2,5,6,12,11,1,5,6
,,,,,,,,,
Totals,,,,,,,,,
12H(7-19),18989,19053,19456,19293,19054,15601,14358,19169,17972
16H(6-22),22873,22985,23399,23656,23208,18836,16888,23224,21692
18H(6-24),23731,23867,24400,24722,24665,20134,17625,24277,22735
24H(0-24),24699,24916,25459,25853,25863,21669,19154,25358,23945
,,,,,,,,,
AM Peak,07:41:00,07:41:00,07:53:00,08:09:00,07:40:00,10:02:00,10:22:00,07:41:00,09:59:00
,1806,1706,1785,1757,1688,1602,1522,1734,1585
,,,,,,,,,
PM Peak,12:05:00,12:13:00,12:02:00,17:23:00,12:00:00,13:20:00,13:03:00,12:03:00,13:02:00
,1648,1710,1718,1661,1681,1635,1571,1655,1604
,,,,,,,,,
,,,,,,,,,
CA Traffic,,,,,,,,,VDA-net R2 16/01/2020
