Site Number,00008005,Unnamed: 2,Site Reference,00008005.1,Unnamed: 5,Unnamed: 6,Lat/Lng.,"52.02776,1.20445",Unnamed: 9
Nacton Road Link,,,,,,,,,
Vehicle Count Report,,,,Week Begin: 02 December 2019,,,Channel:,Total Flow,
,,,,,,,,,
,,,,,,,,,
,2019-12-02 00:00:00,2019-12-03 00:00:00,2019-12-04 00:00:00,2019-12-05 00:00:00,2019-12-06 00:00:00,2019-12-07 00:00:00,2019-12-08 00:00:00,"5-Day
Ave.","7-Day
Ave."
00:00:00,2,5,3,5,2,1,5,3,3
00:01:00,1,2,4,1,3,5,5,2,3
00:02:00,0,6,1,4,5,3,9,3,4
00:03:00,2,2,3,0,3,7,8,2,4
00:04:00,1,1,3,3,3,4,2,2,2
00:05:00,2,7,4,4,4,4,0,4,4
00:06:00,1,2,2,2,3,2,2,2,2
00:07:00,5,2,5,2,1,7,5,3,4
00:08:00,3,1,5,3,1,7,9,3,4
00:09:00,4,3,2,0,5,3,1,3,3
00:10:00,0,1,1,3,4,7,5,2,3
00:11:00,0,3,0,1,5,8,4,2,3
00:12:00,1,1,1,1,4,3,9,2,3
00:13:00,3,1,1,2,1,2,3,2,2
00:14:00,2,0,1,2,4,6,6,2,3
00:15:00,1,4,1,8,3,8,4,3,4
00:16:00,2,6,4,4,6,3,5,4,4
00:17:00,1,4,4,1,0,4,10,2,3
00:18:00,3,0,1,2,0,7,5,1,3
00:19:00,5,1,1,4,0,3,4,2,3
00:20:00,3,4,0,1,5,4,9,3,4
00:21:00,1,3,3,4,4,5,2,3,3
00:22:00,0,0,1,2,4,4,5,1,2
00:23:00,2,1,1,1,3,4,2,2,2
00:24:00,1,3,2,2,3,2,3,2,2
00:25:00,0,4,2,0,2,4,3,2,2
00:26:00,1,4,3,0,2,1,7,2,3
00:27:00,0,1,0,3,2,1,10,1,2
00:28:00,2,0,1,4,2,5,4,2,3
00:29:00,2,1,4,0,0,1,2,1,1
00:30:00,4,3,2,2,1,6,5,2,3
00:31:00,1,0,2,4,4,2,9,2,3
00:32:00,1,2,2,4,7,1,1,3,3
00:33:00,1,1,2,4,1,1,6,2,2
00:34:00,3,2,2,2,2,4,3,2,3
00:35:00,2,0,1,2,0,4,0,1,1
00:36:00,1,1,2,1,1,7,6,1,3
00:37:00,3,1,1,2,2,2,2,2,2
00:38:00,3,2,2,2,1,4,4,2,3
00:39:00,0,0,0,4,1,5,5,1,2
00:40:00,2,0,0,4,0,1,4,1,2
00:41:00,3,1,0,2,1,4,7,1,3
00:42:00,1,1,3,2,1,3,9,2,3
00:43:00,4,0,2,1,2,0,3,2,2
00:44:00,0,1,1,2,2,2,5,1,2
00:45:00,0,0,2,2,1,0,5,1,1
00:46:00,1,1,1,1,1,2,3,1,1
00:47:00,0,0,3,1,1,4,6,1,2
00:48:00,3,1,2,4,1,2,2,2,2
00:49:00,0,1,1,2,3,4,4,1,2
00:50:00,0,0,0,1,2,5,4,1,2
00:51:00,0,0,0,3,1,6,1,1,2
00:52:00,1,1,0,1,1,3,1,1,1
00:53:00,4,2,2,1,1,3,4,2,2
00:54:00,0,0,1,2,1,5,6,1,2
00:55:00,2,1,0,0,2,3,3,1,2
00:56:00,0,0,0,0,0,2,3,0,1
00:57:00,0,2,2,0,5,5,2,2,2
00:58:00,2,2,1,1,0,1,4,1,2
00:59:00,2,2,4,0,1,2,2,2,2
01:00:00,2,1,3,1,2,2,0,2,2
01:01:00,2,0,3,2,1,2,3,2,2
01:02:00,0,2,1,2,3,2,3,2,2
01:03:00,3,2,0,0,0,2,4,1,2
01:04:00,1,0,0,1,1,2,3,1,1
01:05:00,1,2,1,0,1,3,5,1,2
01:06:00,2,2,2,4,3,3,3,3,3
01:07:00,2,0,1,2,1,1,1,1,1
01:08:00,1,1,1,0,2,2,6,1,2
01:09:00,1,0,0,2,0,2,3,1,1
01:10:00,1,2,2,2,5,1,3,2,2
01:11:00,1,2,3,1,0,2,1,1,1
01:12:00,0,0,0,0,1,1,4,0,1
01:13:00,0,1,1,1,0,4,1,1,1
01:14:00,1,1,1,2,2,4,4,1,2
01:15:00,2,0,1,3,0,2,4,1,2
01:16:00,3,0,3,3,1,5,2,2,2
01:17:00,1,1,2,1,1,4,1,1,2
01:18:00,1,2,2,2,0,4,4,1,2
01:19:00,1,0,0,0,1,1,2,0,1
01:20:00,1,0,2,1,0,3,6,1,2
01:21:00,0,0,1,2,1,1,1,1,1
01:22:00,1,1,0,1,4,4,0,1,2
01:23:00,0,2,0,0,0,1,5,0,1
01:24:00,1,1,0,1,1,5,4,1,2
01:25:00,0,0,1,3,0,4,2,1,1
01:26:00,1,1,0,1,0,4,2,1,1
01:27:00,4,0,1,0,4,1,1,2,2
01:28:00,0,0,0,0,1,1,2,0,1
01:29:00,0,4,0,0,3,1,0,1,1
01:30:00,1,1,0,1,3,2,1,1,1
01:31:00,1,0,1,0,1,2,1,1,1
01:32:00,1,1,0,1,1,6,2,1,2
01:33:00,0,0,0,0,1,5,1,0,1
01:34:00,3,1,2,1,0,3,3,1,2
01:35:00,1,1,1,0,0,7,0,1,1
01:36:00,0,1,1,3,1,1,1,1,1
01:37:00,1,2,3,1,0,1,3,1,2
01:38:00,2,1,0,2,0,0,2,1,1
01:39:00,1,0,0,1,1,0,1,1,1
01:40:00,0,3,1,0,1,2,1,1,1
01:41:00,0,2,0,0,0,3,3,0,1
01:42:00,2,2,1,0,0,0,1,1,1
01:43:00,0,0,0,1,1,2,1,0,1
01:44:00,1,0,0,1,1,1,0,1,1
01:45:00,0,2,0,0,0,0,2,0,1
01:46:00,1,0,1,0,2,3,1,1,1
01:47:00,0,1,0,1,0,2,1,0,1
01:48:00,0,0,1,0,1,1,0,0,0
01:49:00,2,4,1,1,1,2,2,2,2
01:50:00,1,0,1,0,0,0,2,0,1
01:51:00,0,1,1,1,2,2,2,1,1
01:52:00,2,1,0,2,0,0,1,1,1
01:53:00,1,0,1,2,0,1,3,1,1
01:54:00,2,3,0,1,0,1,0,1,1
01:55:00,0,1,0,1,0,1,2,0,1
01:56:00,0,0,0,1,1,4,0,0,1
01:57:00,0,2,0,0,0,3,1,0,1
01:58:00,0,1,0,0,0,1,3,0,1
01:59:00,0,0,1,2,1,2,2,1,1
02:00:00,1,0,0,2,0,2,0,1,1
02:01:00,3,0,1,0,0,2,1,1,1
02:02:00,1,0,0,2,2,0,0,1,1
02:03:00,1,0,1,1,2,1,1,1,1
02:04:00,1,2,0,0,1,2,0,1,1
02:05:00,1,1,0,1,1,5,3,1,2
02:06:00,1,1,1,1,0,1,2,1,1
02:07:00,5,1,0,0,2,2,1,2,2
02:08:00,0,0,1,1,0,1,1,0,1
02:09:00,0,0,2,0,0,0,0,0,0
02:10:00,2,0,0,0,0,3,2,0,1
02:11:00,2,3,1,1,1,2,0,2,1
02:12:00,2,0,3,0,1,3,1,1,1
02:13:00,0,1,2,1,0,2,1,1,1
02:14:00,1,4,1,1,0,2,0,1,1
02:15:00,0,0,0,2,0,0,1,0,0
02:16:00,3,0,0,1,0,2,2,1,1
02:17:00,2,0,1,0,1,0,2,1,1
02:18:00,0,0,1,2,2,2,0,1,1
02:19:00,1,1,0,1,1,0,1,1,1
02:20:00,0,0,0,0,0,0,0,0,0
02:21:00,0,1,0,0,1,0,0,0,0
02:22:00,1,0,0,2,0,2,1,1,1
02:23:00,0,0,1,1,1,1,3,1,1
02:24:00,2,1,0,0,4,1,0,1,1
02:25:00,1,1,1,0,1,1,1,1,1
02:26:00,0,1,2,0,0,1,1,1,1
02:27:00,2,2,0,1,2,0,1,1,1
02:28:00,2,1,0,2,2,0,1,1,1
02:29:00,3,0,0,2,0,2,2,1,1
02:30:00,1,2,2,1,0,3,0,1,1
02:31:00,1,0,1,0,0,0,0,0,0
02:32:00,1,1,0,1,2,1,1,1,1
02:33:00,4,2,0,0,1,3,0,1,1
02:34:00,1,1,0,0,1,1,1,1,1
02:35:00,2,1,0,0,0,3,3,1,1
02:36:00,0,2,1,0,0,1,0,1,1
02:37:00,0,0,0,2,1,3,0,1,1
02:38:00,1,3,1,3,0,3,0,2,2
02:39:00,2,0,1,1,0,2,1,1,1
02:40:00,1,1,2,0,2,1,2,1,1
02:41:00,3,2,2,2,0,1,2,2,2
02:42:00,1,1,2,2,0,2,0,1,1
02:43:00,0,0,1,1,2,0,0,1,1
02:44:00,0,0,0,1,2,4,1,1,1
02:45:00,0,3,1,2,0,2,0,1,1
02:46:00,3,1,3,0,1,3,1,2,2
02:47:00,0,2,5,0,1,0,0,2,1
02:48:00,1,0,1,2,0,2,0,1,1
02:49:00,0,4,0,0,0,0,1,1,1
02:50:00,4,3,0,0,1,1,0,2,1
02:51:00,1,1,0,2,1,2,2,1,1
02:52:00,0,4,0,1,0,2,1,1,1
02:53:00,0,0,1,1,0,1,2,0,1
02:54:00,1,2,0,0,1,0,1,1,1
02:55:00,1,1,4,2,2,1,1,2,2
02:56:00,2,2,2,1,1,2,1,2,2
02:57:00,2,1,1,1,0,1,0,1,1
02:58:00,2,1,1,1,1,1,0,1,1
02:59:00,0,0,2,0,0,3,3,0,1
03:00:00,1,2,0,1,4,4,1,2,2
03:01:00,1,1,0,4,0,2,2,1,1
03:02:00,2,3,2,2,0,0,0,2,1
03:03:00,2,4,3,3,1,2,0,3,2
03:04:00,0,0,0,1,1,0,1,0,0
03:05:00,1,0,1,3,3,0,1,2,1
03:06:00,0,2,1,1,1,1,2,1,1
03:07:00,0,0,3,1,0,3,1,1,1
03:08:00,1,4,0,2,1,2,2,2,2
03:09:00,3,3,1,1,1,2,0,2,2
03:10:00,1,1,2,0,0,0,1,1,1
03:11:00,1,0,1,3,0,1,1,1,1
03:12:00,0,0,1,1,1,2,2,1,1
03:13:00,0,0,1,2,0,3,0,1,1
03:14:00,1,1,1,1,2,0,0,1,1
03:15:00,0,3,3,1,1,0,0,2,1
03:16:00,0,1,0,2,0,3,0,1,1
03:17:00,1,2,1,2,0,2,2,1,1
03:18:00,2,1,0,0,0,0,3,1,1
03:19:00,1,0,1,1,0,3,2,1,1
03:20:00,1,0,2,1,2,0,0,1,1
03:21:00,1,3,2,2,1,1,0,2,1
03:22:00,1,3,3,0,1,0,2,2,1
03:23:00,0,1,1,1,2,0,3,1,1
03:24:00,0,3,1,1,0,2,0,1,1
03:25:00,0,1,3,1,0,2,2,1,1
03:26:00,1,2,0,2,0,1,0,1,1
03:27:00,1,1,0,3,1,2,1,1,1
03:28:00,0,1,0,1,0,0,0,0,0
03:29:00,2,2,1,0,2,2,0,1,1
03:30:00,2,1,0,0,4,2,2,1,2
03:31:00,0,0,0,2,0,1,1,0,1
03:32:00,0,5,2,2,0,1,0,2,1
03:33:00,3,2,1,3,1,0,0,2,1
03:34:00,1,1,0,1,2,0,0,1,1
03:35:00,0,0,1,1,0,4,0,0,1
03:36:00,1,2,1,1,2,1,1,1,1
03:37:00,1,0,4,1,0,4,0,1,1
03:38:00,0,1,1,6,2,0,0,2,1
03:39:00,0,4,1,1,2,0,0,2,1
03:40:00,2,3,0,4,3,1,1,2,2
03:41:00,0,0,1,1,1,0,0,1,0
03:42:00,2,0,1,0,2,1,0,1,1
03:43:00,5,4,2,3,2,4,0,3,3
03:44:00,0,2,0,1,0,2,0,1,1
03:45:00,0,1,0,2,0,4,0,1,1
03:46:00,0,2,2,2,2,1,1,2,1
03:47:00,1,2,1,1,2,1,2,1,1
03:48:00,1,1,1,0,2,2,1,1,1
03:49:00,5,2,1,0,3,1,0,2,2
03:50:00,3,0,1,1,2,1,2,1,1
03:51:00,2,1,2,2,3,3,2,2,2
03:52:00,1,0,0,2,1,1,2,1,1
03:53:00,1,0,1,3,1,3,1,1,1
03:54:00,0,3,0,2,0,1,0,1,1
03:55:00,4,1,2,0,0,0,1,1,1
03:56:00,0,2,1,1,0,1,0,1,1
03:57:00,3,3,3,2,3,3,0,3,2
03:58:00,3,2,4,1,3,1,2,3,2
03:59:00,0,5,2,1,0,3,0,2,2
04:00:00,2,1,1,2,2,0,4,2,2
04:01:00,1,3,3,3,2,0,0,2,2
04:02:00,1,1,1,1,1,4,1,1,1
04:03:00,2,1,5,2,0,3,0,2,2
04:04:00,3,0,1,1,1,2,1,1,1
04:05:00,2,1,1,2,5,0,2,2,2
04:06:00,1,1,2,3,3,1,3,2,2
04:07:00,0,1,0,2,1,0,0,1,1
04:08:00,2,5,2,2,2,2,1,3,2
04:09:00,0,5,1,0,2,3,0,2,2
04:10:00,2,3,1,1,2,3,1,2,2
04:11:00,1,2,4,2,2,0,0,2,2
04:12:00,1,3,1,2,1,2,1,2,2
04:13:00,0,4,3,1,0,0,0,2,1
04:14:00,0,1,2,1,2,0,1,1,1
04:15:00,0,2,0,1,1,2,1,1,1
04:16:00,0,1,1,1,1,0,0,1,1
04:17:00,5,0,2,2,4,1,0,3,2
04:18:00,2,1,1,1,1,0,2,1,1
04:19:00,0,1,0,0,2,0,1,1,1
04:20:00,0,2,2,3,0,1,0,1,1
04:21:00,0,5,0,0,2,0,0,1,1
04:22:00,2,3,0,0,1,2,0,1,1
04:23:00,1,1,1,0,4,1,2,1,1
04:24:00,3,2,2,1,0,0,2,2,1
04:25:00,4,3,2,1,2,2,2,2,2
04:26:00,3,3,4,1,1,0,1,2,2
04:27:00,2,3,2,4,3,3,0,3,2
04:28:00,0,2,2,5,6,1,1,3,2
04:29:00,0,2,3,2,3,0,1,2,2
04:30:00,5,0,1,3,4,0,0,3,2
04:31:00,0,1,0,1,0,2,0,0,1
04:32:00,2,2,3,4,3,3,2,3,3
04:33:00,1,3,2,0,2,1,0,2,1
04:34:00,5,2,4,3,3,1,0,3,3
04:35:00,5,3,3,1,3,0,1,3,2
04:36:00,2,4,5,0,6,1,1,3,3
04:37:00,2,4,1,2,3,2,0,2,2
04:38:00,4,1,3,2,1,2,0,2,2
04:39:00,3,5,3,4,2,1,3,3,3
04:40:00,1,1,3,1,4,2,1,2,2
04:41:00,2,3,4,2,3,0,2,3,2
04:42:00,1,1,2,3,5,3,2,2,2
04:43:00,2,1,4,3,4,0,1,3,2
04:44:00,2,2,3,5,4,0,2,3,3
04:45:00,10,2,3,3,6,2,5,5,4
04:46:00,2,4,2,5,5,1,0,4,3
04:47:00,3,1,2,1,6,2,1,3,2
04:48:00,8,6,5,4,3,1,1,5,4
04:49:00,0,6,4,4,6,1,1,4,3
04:50:00,6,7,0,4,2,2,1,4,3
04:51:00,6,2,4,2,4,3,0,4,3
04:52:00,7,5,7,3,2,2,1,5,4
04:53:00,2,1,2,7,3,2,1,3,3
04:54:00,5,5,4,4,4,0,2,4,3
04:55:00,3,2,3,2,4,2,1,3,2
04:56:00,4,4,3,3,2,2,0,3,3
04:57:00,3,1,3,6,8,1,1,4,3
04:58:00,1,6,2,3,4,3,2,3,3
04:59:00,4,1,2,5,7,2,0,4,3
05:00:00,2,4,3,3,2,0,0,3,2
05:01:00,3,2,2,3,2,2,1,2,2
05:02:00,3,2,4,5,6,2,3,4,4
05:03:00,4,2,3,3,3,0,3,3,3
05:04:00,4,0,5,6,3,4,2,4,3
05:05:00,2,2,2,3,4,2,0,3,2
05:06:00,6,2,4,2,0,1,1,3,2
05:07:00,2,8,3,3,4,1,1,4,3
05:08:00,6,4,1,2,2,1,1,3,2
05:09:00,2,5,5,4,3,2,0,4,3
05:10:00,2,2,1,5,6,2,1,3,3
05:11:00,3,2,4,4,8,1,1,4,3
05:12:00,3,6,6,5,5,6,0,5,4
05:13:00,7,1,7,5,4,2,3,5,4
05:14:00,4,5,4,0,4,0,2,3,3
05:15:00,2,4,2,3,3,2,1,3,2
05:16:00,4,4,2,2,7,3,3,4,4
05:17:00,7,3,4,1,7,2,1,4,4
05:18:00,1,8,2,2,1,7,1,3,3
05:19:00,2,9,1,4,7,3,1,5,4
05:20:00,3,6,8,4,4,2,2,5,4
05:21:00,10,6,5,3,8,2,2,6,5
05:22:00,5,4,6,5,4,1,1,5,4
05:23:00,5,9,4,3,3,4,1,5,4
05:24:00,4,3,3,5,7,5,1,4,4
05:25:00,4,6,1,5,4,0,0,4,3
05:26:00,4,4,8,3,3,1,1,4,3
05:27:00,6,1,4,5,2,2,2,4,3
05:28:00,3,8,4,2,5,3,2,4,4
05:29:00,5,6,7,8,4,2,1,6,5
05:30:00,3,4,3,5,7,3,1,4,4
05:31:00,10,2,11,5,4,2,0,6,5
05:32:00,4,11,4,9,8,1,3,7,6
05:33:00,6,12,5,6,5,3,2,7,6
05:34:00,5,8,5,7,3,4,4,6,5
05:35:00,9,6,12,9,10,3,2,9,7
05:36:00,12,6,13,6,9,5,0,9,7
05:37:00,3,16,6,9,7,3,1,8,6
05:38:00,13,3,8,10,7,2,0,8,6
05:39:00,6,9,6,6,9,4,3,7,6
05:40:00,6,8,10,12,6,1,3,8,7
05:41:00,9,7,4,10,11,1,2,8,6
05:42:00,7,13,10,7,6,12,1,9,8
05:43:00,8,6,8,8,10,6,1,8,7
05:44:00,8,14,8,15,10,5,2,11,9
05:45:00,11,6,8,13,8,3,1,9,7
05:46:00,5,9,5,9,17,3,1,9,7
05:47:00,9,8,8,12,11,3,1,10,7
05:48:00,17,10,11,11,5,4,2,11,9
05:49:00,5,10,11,6,9,2,4,8,7
05:50:00,10,11,9,10,12,7,3,10,9
05:51:00,11,8,11,12,11,0,4,11,8
05:52:00,11,11,12,12,9,6,2,11,9
05:53:00,12,8,14,8,10,3,2,10,8
05:54:00,12,10,10,13,12,10,6,11,10
05:55:00,13,8,13,10,5,9,2,10,9
05:56:00,7,4,12,8,20,6,3,10,9
05:57:00,11,11,16,5,7,6,1,10,8
05:58:00,6,13,9,9,17,8,1,11,9
05:59:00,14,10,13,7,10,2,2,11,8
06:00:00,6,13,10,9,11,1,3,10,8
06:01:00,12,8,8,13,13,2,0,11,8
06:02:00,10,10,9,8,7,2,4,9,7
06:03:00,10,13,10,10,13,6,5,11,10
06:04:00,9,10,5,8,13,5,2,9,7
06:05:00,9,11,8,9,14,5,4,10,9
06:06:00,13,14,11,13,11,3,2,12,10
06:07:00,20,15,11,13,8,3,4,13,11
06:08:00,12,8,18,4,13,9,2,11,9
06:09:00,10,10,11,19,15,5,1,13,10
06:10:00,4,9,9,9,13,0,1,9,6
06:11:00,6,11,12,10,15,4,1,11,8
06:12:00,8,10,13,18,8,2,4,11,9
06:13:00,10,5,11,16,7,6,5,10,9
06:14:00,10,7,13,13,11,10,2,11,9
06:15:00,10,7,9,20,10,2,5,11,9
06:16:00,12,9,10,10,15,5,5,11,9
06:17:00,11,15,14,13,9,4,3,12,10
06:18:00,13,9,11,7,15,6,2,11,9
06:19:00,9,11,8,12,11,10,3,10,9
06:20:00,13,4,12,9,7,5,5,9,8
06:21:00,11,15,11,5,14,7,2,11,9
06:22:00,7,15,6,15,12,6,4,11,9
06:23:00,13,24,7,14,6,8,8,13,11
06:24:00,16,17,16,13,8,7,4,14,12
06:25:00,11,10,15,20,15,5,6,14,12
06:26:00,14,14,10,15,14,3,3,13,10
06:27:00,18,12,17,12,17,4,5,15,12
06:28:00,15,16,14,11,8,5,2,13,10
06:29:00,10,8,17,14,17,7,6,13,11
06:30:00,9,10,9,12,15,7,3,11,9
06:31:00,15,21,10,15,17,7,3,16,13
06:32:00,15,12,15,12,10,4,4,13,10
06:33:00,15,10,13,17,12,6,1,13,11
06:34:00,19,16,18,19,17,10,4,18,15
06:35:00,14,18,20,20,22,12,5,19,16
06:36:00,22,18,13,25,25,11,2,21,17
06:37:00,13,18,14,26,13,8,8,17,14
06:38:00,27,17,13,23,23,9,9,21,17
06:39:00,14,20,31,19,18,12,3,20,17
06:40:00,20,13,18,12,20,7,6,17,14
06:41:00,19,14,23,25,20,12,9,20,17
06:42:00,24,18,24,24,18,8,6,22,17
06:43:00,17,21,25,25,20,13,6,22,18
06:44:00,18,21,23,22,21,10,6,21,17
06:45:00,29,19,25,22,31,10,4,25,20
06:46:00,8,25,20,25,19,10,7,19,16
06:47:00,19,25,31,21,27,5,3,25,19
06:48:00,23,24,27,23,23,12,7,24,20
06:49:00,20,29,26,24,23,9,5,24,19
06:50:00,21,27,30,30,28,8,4,27,21
06:51:00,26,31,27,30,25,11,5,28,22
06:52:00,24,27,23,27,27,7,4,26,20
06:53:00,28,22,31,27,23,7,3,26,20
06:54:00,28,29,20,20,20,5,3,23,18
06:55:00,19,37,23,36,32,12,2,29,23
06:56:00,28,32,27,26,32,5,5,29,22
06:57:00,28,28,32,23,12,9,0,25,19
06:58:00,20,40,29,33,25,16,4,29,24
06:59:00,26,31,29,32,26,10,3,29,22
07:00:00,32,36,26,26,26,8,3,29,22
07:01:00,19,38,26,34,20,10,1,27,21
07:02:00,27,23,30,19,26,2,3,25,19
07:03:00,23,26,28,30,23,21,3,26,22
07:04:00,20,14,28,27,28,12,3,23,19
07:05:00,31,28,21,33,20,8,1,27,20
07:06:00,27,28,20,23,35,9,8,27,21
07:07:00,32,25,32,41,29,9,9,32,25
07:08:00,32,32,28,22,31,10,5,29,23
07:09:00,40,45,40,31,33,4,4,38,28
07:10:00,22,36,29,28,30,9,6,29,23
07:11:00,25,30,40,42,24,4,6,32,24
07:12:00,28,32,29,38,39,12,6,33,26
07:13:00,36,28,41,25,36,7,6,33,26
07:14:00,29,36,32,38,39,7,7,35,27
07:15:00,37,28,44,38,26,9,9,35,27
07:16:00,32,28,33,26,40,9,4,32,25
07:17:00,40,37,25,33,36,16,10,34,28
07:18:00,43,35,21,39,30,11,5,34,26
07:19:00,27,27,32,26,41,13,5,31,24
07:20:00,39,46,26,47,22,11,8,36,28
07:21:00,40,30,42,35,37,18,8,37,30
07:22:00,30,34,31,30,31,15,10,31,26
07:23:00,44,38,39,43,42,19,7,41,33
07:24:00,26,44,37,27,29,7,9,33,26
07:25:00,43,42,43,32,45,11,6,41,32
07:26:00,36,31,26,35,36,17,11,33,27
07:27:00,36,39,24,33,25,10,7,31,25
07:28:00,44,33,27,35,36,11,3,35,27
07:29:00,37,38,32,37,28,11,6,34,27
07:30:00,41,48,44,39,38,16,4,42,33
07:31:00,40,36,37,42,35,9,6,38,29
07:32:00,38,32,30,44,31,16,7,35,28
07:33:00,28,40,39,39,31,21,5,35,29
07:34:00,36,39,39,33,38,11,7,37,29
07:35:00,38,27,39,40,40,9,5,37,28
07:36:00,29,28,37,40,32,9,7,33,26
07:37:00,40,50,42,48,44,14,2,45,34
07:38:00,39,45,34,36,39,13,4,39,30
07:39:00,43,40,41,35,41,12,11,40,32
07:40:00,39,31,52,47,45,29,6,43,36
07:41:00,34,38,40,40,36,20,9,38,31
07:42:00,37,36,37,38,33,15,7,36,29
07:43:00,36,42,32,33,38,17,9,36,30
07:44:00,34,47,29,40,40,18,4,38,30
07:45:00,37,36,47,45,46,20,10,42,34
07:46:00,40,25,36,34,27,14,7,32,26
07:47:00,37,32,30,50,38,20,10,37,31
07:48:00,31,37,43,34,34,22,12,36,30
07:49:00,23,32,32,36,29,27,10,30,27
07:50:00,31,35,27,29,35,14,8,31,26
07:51:00,32,48,36,44,30,18,6,38,31
07:52:00,43,24,35,29,37,19,7,34,28
07:53:00,40,31,39,24,29,19,6,33,27
07:54:00,33,28,46,37,31,26,7,35,30
07:55:00,41,28,38,40,31,20,3,36,29
07:56:00,39,42,27,33,31,14,7,34,28
07:57:00,36,44,39,32,40,17,5,38,30
07:58:00,39,33,39,36,45,10,6,38,30
07:59:00,30,25,39,35,33,15,6,32,26
08:00:00,28,38,45,32,33,20,6,35,29
08:01:00,24,39,36,37,33,11,4,34,26
08:02:00,38,32,27,38,38,12,6,35,27
08:03:00,39,39,32,31,23,16,4,33,26
08:04:00,31,42,33,31,37,20,11,35,29
08:05:00,32,34,36,23,41,17,7,33,27
08:06:00,41,37,46,30,27,16,7,36,29
08:07:00,29,31,35,27,45,11,9,33,27
08:08:00,36,41,38,38,26,19,14,36,30
08:09:00,40,41,39,34,37,23,7,38,32
08:10:00,45,40,34,23,38,19,1,36,29
08:11:00,36,35,35,33,24,21,5,33,27
08:12:00,35,35,48,40,33,20,8,38,31
08:13:00,40,34,36,29,35,24,4,35,29
08:14:00,39,29,45,42,34,20,6,38,31
08:15:00,30,49,37,29,35,25,4,36,30
08:16:00,26,33,45,34,27,17,6,33,27
08:17:00,37,31,30,31,41,16,9,34,28
08:18:00,33,42,29,37,34,24,11,35,30
08:19:00,30,40,35,35,26,20,6,33,27
08:20:00,39,34,38,46,31,16,8,38,30
08:21:00,34,33,40,37,27,25,5,34,29
08:22:00,45,35,21,32,32,28,6,33,28
08:23:00,28,34,40,39,47,21,6,38,31
08:24:00,37,26,41,25,36,24,12,33,29
08:25:00,34,36,38,34,33,16,5,35,28
08:26:00,26,33,35,30,37,23,8,32,27
08:27:00,35,35,31,20,31,23,9,30,26
08:28:00,31,41,38,39,39,22,7,38,31
08:29:00,39,38,32,35,40,14,7,37,29
08:30:00,49,39,34,29,35,24,9,37,31
08:31:00,35,40,26,40,45,26,7,37,31
08:32:00,33,33,18,35,38,18,7,31,26
08:33:00,31,39,34,30,28,34,12,32,30
08:34:00,33,32,36,34,30,24,7,33,28
08:35:00,32,43,42,43,45,22,11,41,34
08:36:00,44,50,12,42,45,19,9,39,32
08:37:00,33,36,28,44,41,26,9,36,31
08:38:00,25,34,46,32,42,20,13,36,30
08:39:00,26,37,38,41,37,18,12,36,30
08:40:00,34,41,43,41,33,26,10,38,33
08:41:00,44,28,39,37,37,28,8,37,32
08:42:00,38,38,41,27,30,27,10,35,30
08:43:00,37,36,30,30,32,34,18,33,31
08:44:00,26,31,29,35,35,19,13,31,27
08:45:00,29,35,39,47,39,25,11,38,32
08:46:00,34,38,27,39,44,24,16,36,32
08:47:00,37,40,24,32,37,25,12,34,30
08:48:00,38,40,32,38,32,23,8,36,30
08:49:00,37,30,50,30,28,26,10,35,30
08:50:00,42,36,29,31,45,25,7,37,31
08:51:00,39,27,34,29,37,20,13,33,28
08:52:00,33,29,30,29,37,21,14,32,28
08:53:00,38,34,27,31,39,23,12,34,29
08:54:00,31,27,34,17,45,23,13,31,27
08:55:00,33,32,27,40,29,32,15,32,30
08:56:00,23,26,30,25,46,25,4,30,26
08:57:00,39,38,30,30,46,14,13,37,30
08:58:00,30,36,27,39,32,26,16,33,29
08:59:00,35,42,28,35,34,23,10,35,30
09:00:00,28,41,40,38,33,24,11,36,31
09:01:00,36,34,36,38,32,33,18,35,32
09:02:00,36,42,45,40,41,22,13,41,34
09:03:00,37,42,39,41,39,29,12,40,34
09:04:00,34,46,36,27,32,24,17,35,31
09:05:00,39,41,40,36,36,19,15,38,32
09:06:00,43,40,34,44,36,24,18,39,34
09:07:00,42,38,48,37,36,26,10,40,34
09:08:00,42,44,32,30,35,25,16,37,32
09:09:00,44,43,44,34,32,29,10,39,34
09:10:00,32,38,35,34,41,27,16,36,32
09:11:00,29,36,33,41,33,23,22,34,31
09:12:00,34,30,39,31,33,16,11,33,28
09:13:00,43,36,47,37,34,23,20,39,34
09:14:00,39,40,40,47,33,25,21,40,35
09:15:00,42,34,41,36,22,27,16,35,31
09:16:00,40,35,39,50,23,30,15,37,33
09:17:00,38,38,33,41,38,26,18,38,33
09:18:00,35,34,46,25,42,21,7,36,30
09:19:00,43,33,30,33,32,39,10,34,31
09:20:00,30,32,41,36,43,24,16,36,32
09:21:00,43,48,32,35,29,30,21,37,34
09:22:00,37,43,44,46,29,24,13,40,34
09:23:00,37,39,33,43,40,29,19,38,34
09:24:00,40,36,20,37,24,26,22,31,29
09:25:00,40,31,42,28,38,27,25,36,33
09:26:00,31,31,29,34,36,30,22,32,30
09:27:00,42,48,33,36,23,23,12,36,31
09:28:00,32,28,22,34,38,32,23,31,30
09:29:00,37,35,43,41,30,21,20,37,32
09:30:00,34,34,20,34,36,28,17,32,29
09:31:00,29,33,52,44,26,35,19,37,34
09:32:00,37,37,39,33,29,37,17,35,33
09:33:00,22,35,35,39,29,39,23,32,32
09:34:00,33,30,32,42,30,24,22,33,30
09:35:00,51,37,34,42,35,27,18,40,35
09:36:00,41,30,44,41,31,31,10,37,33
09:37:00,34,32,25,33,38,35,16,32,30
09:38:00,30,29,34,35,29,33,20,31,30
09:39:00,29,29,31,29,34,27,26,30,29
09:40:00,35,26,36,34,42,35,25,35,33
09:41:00,25,33,33,32,27,26,24,30,29
09:42:00,31,32,36,25,39,42,31,33,34
09:43:00,28,43,27,31,37,51,23,33,34
09:44:00,40,30,29,38,28,25,30,33,31
09:45:00,30,35,32,32,32,45,21,32,32
09:46:00,30,34,35,37,27,39,21,33,32
09:47:00,33,37,31,26,36,43,27,33,33
09:48:00,41,34,35,32,30,41,23,34,34
09:49:00,34,28,27,38,32,33,19,32,30
09:50:00,37,29,33,31,30,41,20,32,32
09:51:00,22,32,39,44,39,36,28,35,34
09:52:00,29,36,33,26,44,35,19,34,32
09:53:00,27,33,35,31,35,35,36,32,33
09:54:00,34,33,25,35,30,26,30,31,30
09:55:00,31,24,34,31,21,33,21,28,28
09:56:00,30,30,28,30,36,34,27,31,31
09:57:00,33,28,35,26,28,31,18,30,28
09:58:00,27,28,34,32,27,43,24,30,31
09:59:00,28,43,30,36,34,29,25,34,32
10:00:00,31,30,26,32,24,36,26,29,29
10:01:00,27,27,33,40,26,45,27,31,32
10:02:00,41,24,33,30,27,26,24,31,29
10:03:00,22,29,19,33,18,17,21,24,23
10:04:00,29,19,29,39,28,39,23,29,29
10:05:00,27,28,25,34,31,32,18,29,28
10:06:00,18,30,20,34,27,33,23,26,26
10:07:00,22,33,34,24,22,31,30,27,28
10:08:00,28,23,26,24,45,39,28,29,30
10:09:00,26,32,26,19,33,30,20,27,27
10:10:00,35,33,28,30,37,40,32,33,34
10:11:00,25,30,33,35,35,34,28,32,31
10:12:00,23,29,30,24,29,37,41,27,30
10:13:00,39,29,25,32,26,36,29,30,31
10:14:00,32,29,36,34,39,37,19,34,32
10:15:00,31,32,26,37,34,39,33,32,33
10:16:00,29,34,26,32,42,20,23,33,29
10:17:00,31,34,23,38,32,39,23,32,31
10:18:00,37,13,8,29,27,36,28,23,25
10:19:00,31,34,31,23,31,38,23,30,30
10:20:00,34,25,29,22,45,30,33,31,31
10:21:00,27,24,41,29,22,31,33,29,30
10:22:00,30,37,29,36,38,40,27,34,34
10:23:00,32,36,30,32,27,36,29,31,32
10:24:00,31,26,28,32,43,40,26,32,32
10:25:00,32,35,30,22,32,32,31,30,31
10:26:00,28,30,37,30,31,43,36,31,34
10:27:00,28,21,37,27,18,41,43,26,31
10:28:00,28,40,35,34,39,32,35,35,35
10:29:00,28,38,22,31,44,37,39,33,34
10:30:00,29,32,37,29,28,32,21,31,30
10:31:00,36,27,28,42,31,26,34,33,32
10:32:00,29,37,39,34,22,34,21,32,31
10:33:00,29,40,28,35,32,40,27,33,33
10:34:00,22,24,36,32,32,36,30,29,30
10:35:00,33,28,29,33,36,25,38,32,32
10:36:00,40,42,33,38,26,34,34,36,35
10:37:00,40,28,22,35,30,37,36,31,33
10:38:00,35,23,24,33,29,36,20,29,29
10:39:00,29,28,20,32,42,31,29,30,30
10:40:00,32,39,31,28,30,35,25,32,31
10:41:00,30,33,32,47,46,32,25,38,35
10:42:00,44,28,33,44,27,38,37,35,36
10:43:00,35,28,32,41,39,37,25,35,34
10:44:00,32,22,24,36,38,37,35,30,32
10:45:00,32,40,27,35,28,33,29,32,32
10:46:00,29,33,20,28,30,45,39,28,32
10:47:00,25,26,33,18,41,37,23,29,29
10:48:00,30,25,25,21,35,33,28,27,28
10:49:00,36,38,37,34,29,34,22,35,33
10:50:00,34,36,38,27,36,37,36,34,35
10:51:00,30,31,34,40,41,36,22,35,33
10:52:00,34,24,31,38,33,30,34,32,32
10:53:00,30,28,45,27,39,41,47,34,37
10:54:00,27,21,33,37,32,37,27,30,31
10:55:00,27,38,31,32,30,43,33,32,33
10:56:00,26,20,24,43,34,32,32,29,30
10:57:00,28,35,26,36,37,35,29,32,32
10:58:00,27,39,36,31,36,42,32,34,35
10:59:00,20,38,18,28,28,38,29,26,28
11:00:00,30,38,33,32,27,31,34,32,32
11:01:00,18,39,31,26,30,30,26,29,29
11:02:00,32,25,28,26,36,35,29,29,30
11:03:00,27,32,29,29,36,30,40,31,32
11:04:00,34,31,27,26,24,31,24,28,28
11:05:00,39,40,31,33,38,45,20,36,35
11:06:00,33,32,29,39,33,32,40,33,34
11:07:00,27,25,30,36,38,37,35,31,33
11:08:00,32,37,32,20,26,34,29,29,30
11:09:00,28,22,37,16,38,39,35,28,31
11:10:00,34,30,42,37,22,40,42,33,35
11:11:00,35,35,34,28,40,32,40,34,35
11:12:00,27,24,23,37,32,28,32,29,29
11:13:00,35,24,39,32,39,40,32,34,34
11:14:00,33,38,28,36,28,38,32,33,33
11:15:00,38,34,40,40,33,46,39,37,39
11:16:00,30,34,36,27,40,40,24,33,33
11:17:00,43,29,34,27,40,44,32,35,36
11:18:00,24,38,30,27,44,41,38,33,35
11:19:00,39,36,29,28,44,32,34,35,35
11:20:00,34,37,38,18,42,49,39,34,37
11:21:00,34,23,32,39,37,43,35,33,35
11:22:00,33,18,34,35,32,41,35,30,33
11:23:00,39,27,25,27,40,41,35,32,33
11:24:00,31,21,45,36,37,41,41,34,36
11:25:00,32,35,29,19,31,35,35,29,31
11:26:00,37,23,26,40,23,40,26,30,31
11:27:00,25,33,30,28,41,35,38,31,33
11:28:00,38,35,36,38,36,27,32,37,35
11:29:00,36,24,34,30,29,31,38,31,32
11:30:00,27,32,15,34,33,36,38,28,31
11:31:00,32,29,31,33,34,44,35,32,34
11:32:00,43,33,36,30,40,33,30,36,35
11:33:00,41,25,35,28,33,32,33,32,32
11:34:00,35,36,28,20,34,35,30,31,31
11:35:00,37,36,36,29,33,41,41,34,36
11:36:00,46,25,42,39,37,44,43,38,39
11:37:00,34,34,18,38,32,39,43,31,34
11:38:00,37,36,31,36,33,38,41,35,36
11:39:00,40,25,35,37,23,43,46,32,36
11:40:00,31,34,33,34,40,42,40,34,36
11:41:00,34,35,37,36,38,53,39,36,39
11:42:00,29,40,28,29,28,35,45,31,33
11:43:00,36,32,34,34,36,46,36,34,36
11:44:00,44,28,33,28,28,25,40,32,32
11:45:00,40,24,30,27,42,32,42,33,34
11:46:00,37,40,21,43,34,46,41,35,37
11:47:00,38,41,23,43,40,34,39,37,37
11:48:00,25,36,36,32,29,28,29,32,31
11:49:00,36,28,31,30,29,49,33,31,34
11:50:00,25,33,31,39,28,49,35,31,34
11:51:00,35,29,20,30,42,35,29,31,31
11:52:00,29,25,32,31,33,41,38,30,33
11:53:00,30,34,26,45,24,43,33,32,34
11:54:00,38,37,30,27,49,44,32,36,37
11:55:00,33,29,36,35,43,37,46,35,37
11:56:00,33,32,20,47,35,47,43,33,37
11:57:00,41,32,30,27,51,43,39,36,38
11:58:00,37,36,33,33,29,36,36,34,34
11:59:00,35,40,23,24,34,41,31,31,33
12:00:00,31,44,32,39,38,46,40,37,39
12:01:00,32,34,23,24,35,40,39,30,32
12:02:00,38,34,41,31,27,38,47,34,37
12:03:00,33,35,43,54,36,54,39,40,42
12:04:00,36,40,33,28,41,39,33,36,36
12:05:00,43,43,53,30,30,50,42,40,42
12:06:00,38,34,30,37,37,34,31,35,34
12:07:00,35,35,34,32,43,33,40,36,36
12:08:00,44,31,32,27,45,36,40,36,36
12:09:00,28,37,29,44,34,33,38,34,35
12:10:00,50,32,34,25,43,42,47,37,39
12:11:00,42,40,28,49,29,51,43,38,40
12:12:00,28,26,41,37,36,49,41,34,37
12:13:00,29,28,31,34,48,47,45,34,37
12:14:00,52,44,31,30,31,50,40,38,40
12:15:00,44,40,41,37,25,43,37,37,38
12:16:00,38,32,41,20,32,41,35,33,34
12:17:00,36,32,29,22,35,33,37,31,32
12:18:00,37,35,27,41,30,39,51,34,37
12:19:00,34,32,34,45,43,41,46,38,39
12:20:00,28,39,34,25,42,39,41,34,35
12:21:00,42,39,36,31,27,58,56,35,41
12:22:00,35,27,47,40,27,36,33,35,35
12:23:00,24,25,40,29,31,44,31,30,32
12:24:00,40,27,30,36,40,43,39,35,36
12:25:00,46,34,39,35,40,51,41,39,41
12:26:00,32,22,33,43,43,54,39,35,38
12:27:00,42,38,34,33,36,43,46,37,39
12:28:00,26,40,24,35,26,32,50,30,33
12:29:00,29,33,34,27,44,47,39,33,36
12:30:00,36,28,29,37,32,44,41,32,35
12:31:00,42,33,29,21,43,52,34,34,36
12:32:00,36,30,47,28,47,44,44,38,39
12:33:00,45,26,24,43,33,49,34,34,36
12:34:00,50,44,37,28,33,43,45,38,40
12:35:00,28,31,34,26,47,54,31,33,36
12:36:00,39,36,48,37,37,44,39,39,40
12:37:00,28,25,27,40,34,37,39,31,33
12:38:00,38,35,33,37,33,45,48,35,38
12:39:00,34,36,32,46,31,46,40,36,38
12:40:00,34,37,39,28,43,52,36,36,38
12:41:00,24,30,33,37,41,45,28,33,34
12:42:00,29,37,41,54,36,46,38,39,40
12:43:00,41,30,37,39,40,49,35,37,39
12:44:00,38,38,27,39,40,49,49,36,40
12:45:00,37,47,38,35,41,43,43,40,41
12:46:00,32,41,36,26,30,38,42,33,35
12:47:00,41,37,28,39,35,55,37,36,39
12:48:00,33,28,39,30,37,54,38,33,37
12:49:00,26,43,32,45,26,42,45,34,37
12:50:00,36,30,31,37,51,45,31,37,37
12:51:00,32,29,42,33,39,39,42,35,37
12:52:00,28,42,40,37,30,51,30,35,37
12:53:00,41,35,29,35,39,39,27,36,35
12:54:00,30,33,33,43,28,45,42,33,36
12:55:00,28,22,33,37,49,48,40,34,37
12:56:00,31,43,41,37,39,34,38,38,38
12:57:00,26,38,35,32,32,51,37,33,36
12:58:00,33,29,38,40,34,37,32,35,35
12:59:00,37,36,38,28,38,51,51,35,40
13:00:00,28,35,28,29,36,43,33,31,33
13:01:00,40,38,42,22,35,42,37,35,37
13:02:00,34,41,38,32,39,44,19,37,35
13:03:00,40,45,35,46,43,37,38,42,41
13:04:00,30,29,31,35,41,36,39,33,34
13:05:00,33,41,42,45,37,31,36,40,38
13:06:00,43,42,38,32,45,39,43,40,40
13:07:00,28,31,36,44,38,47,50,35,39
13:08:00,34,52,27,32,46,52,37,38,40
13:09:00,31,45,33,44,41,36,34,39,38
13:10:00,25,33,32,33,35,48,40,32,35
13:11:00,47,28,45,32,32,38,28,37,36
13:12:00,39,23,35,33,39,45,41,34,36
13:13:00,42,26,43,35,44,39,46,38,39
13:14:00,40,30,38,30,39,39,45,35,37
13:15:00,39,31,45,34,45,35,38,39,38
13:16:00,42,29,29,38,40,37,32,36,35
13:17:00,35,33,39,26,22,43,47,31,35
13:18:00,36,41,27,39,34,33,34,35,35
13:19:00,37,30,32,40,29,50,29,34,35
13:20:00,40,44,32,31,37,43,35,37,37
13:21:00,47,32,32,37,43,34,39,38,38
13:22:00,39,38,18,38,38,39,36,34,35
13:23:00,37,41,35,30,41,44,38,37,38
13:24:00,37,40,28,33,38,51,36,35,38
13:25:00,26,37,29,42,39,37,32,35,35
13:26:00,35,38,32,39,32,41,39,35,37
13:27:00,33,29,32,30,34,35,40,32,33
13:28:00,35,32,37,40,27,33,36,34,34
13:29:00,33,47,26,30,38,39,44,35,37
13:30:00,38,34,31,22,45,36,48,34,36
13:31:00,37,33,32,48,29,37,43,36,37
13:32:00,32,37,30,39,45,33,38,37,36
13:33:00,38,39,35,27,33,37,47,34,37
13:34:00,32,40,37,32,34,40,39,35,36
13:35:00,20,32,30,43,44,38,39,34,35
13:36:00,32,25,30,30,29,30,33,29,30
13:37:00,37,40,37,32,33,38,35,36,36
13:38:00,45,31,34,40,36,31,36,37,36
13:39:00,28,29,25,35,49,34,40,33,34
13:40:00,36,35,41,37,38,27,34,37,35
13:41:00,51,23,32,32,38,36,43,35,36
13:42:00,38,25,33,45,39,38,43,36,37
13:43:00,31,29,38,30,32,38,40,32,34
13:44:00,41,36,37,33,35,30,29,36,34
13:45:00,38,40,44,29,31,47,38,36,38
13:46:00,26,40,42,35,38,48,43,36,39
13:47:00,28,36,25,42,37,48,38,34,36
13:48:00,49,31,34,28,44,50,41,37,40
13:49:00,35,23,44,47,41,27,48,38,38
13:50:00,31,44,35,39,28,44,35,35,37
13:51:00,40,33,29,35,36,48,45,35,38
13:52:00,35,36,53,26,30,41,43,36,38
13:53:00,35,36,38,30,37,35,47,35,37
13:54:00,24,36,32,49,35,31,35,35,35
13:55:00,45,34,35,37,37,44,30,38,37
13:56:00,44,40,25,40,34,26,26,37,34
13:57:00,32,27,34,37,40,49,37,34,37
13:58:00,41,33,43,22,39,23,42,36,35
13:59:00,43,38,27,43,33,28,32,37,35
14:00:00,35,27,30,36,37,25,38,33,33
14:01:00,37,35,34,39,45,40,44,38,39
14:02:00,34,37,36,34,38,49,41,36,38
14:03:00,36,37,37,35,30,34,41,35,36
14:04:00,47,44,41,43,34,48,37,42,42
14:05:00,39,29,36,34,29,49,40,33,37
14:06:00,30,43,43,32,32,40,46,36,38
14:07:00,46,39,36,42,23,35,25,37,35
14:08:00,37,33,45,32,25,52,51,34,39
14:09:00,38,42,25,33,33,38,38,34,35
14:10:00,30,30,26,40,31,31,42,31,33
14:11:00,38,40,42,45,35,49,39,40,41
14:12:00,32,40,33,35,31,48,40,34,37
14:13:00,46,39,27,43,37,52,43,38,41
14:14:00,35,37,34,33,51,42,33,38,38
14:15:00,32,30,41,49,38,39,45,38,39
14:16:00,39,38,20,46,33,35,31,35,35
14:17:00,32,42,36,33,45,44,41,38,39
14:18:00,38,33,33,40,50,32,36,39,37
14:19:00,39,28,36,30,39,51,38,34,37
14:20:00,46,39,41,44,33,34,35,41,39
14:21:00,24,42,38,43,30,42,42,35,37
14:22:00,27,27,35,36,44,43,30,34,35
14:23:00,43,40,38,26,33,36,40,36,37
14:24:00,35,36,36,43,40,39,30,38,37
14:25:00,47,43,26,40,35,37,32,38,37
14:26:00,33,37,42,42,35,38,31,38,37
14:27:00,37,38,37,48,49,41,38,42,41
14:28:00,45,31,38,30,41,41,16,37,35
14:29:00,49,51,42,31,36,41,38,42,41
14:30:00,39,37,36,47,30,50,27,38,38
14:31:00,33,45,36,39,25,33,34,36,35
14:32:00,35,35,37,35,34,46,35,35,37
14:33:00,39,34,41,34,33,46,32,36,37
14:34:00,43,41,40,43,39,36,36,41,40
14:35:00,35,44,39,36,31,33,30,37,35
14:36:00,32,47,31,18,52,30,32,36,35
14:37:00,49,37,40,37,33,41,25,39,37
14:38:00,32,42,34,41,37,49,31,37,38
14:39:00,36,42,33,23,43,44,43,35,38
14:40:00,27,34,37,34,27,48,36,32,35
14:41:00,37,31,32,42,46,39,34,38,37
14:42:00,49,40,31,34,32,41,32,37,37
14:43:00,27,35,34,29,40,44,38,33,35
14:44:00,29,33,44,46,34,43,53,37,40
14:45:00,38,40,38,33,39,33,24,38,35
14:46:00,42,34,41,44,32,34,33,39,37
14:47:00,26,23,38,46,37,42,37,34,36
14:48:00,34,40,35,31,47,32,39,37,37
14:49:00,30,41,50,30,23,38,33,35,35
14:50:00,36,46,34,43,35,41,37,39,39
14:51:00,40,38,36,43,42,33,42,40,39
14:52:00,35,31,29,42,41,38,34,36,36
14:53:00,33,27,41,38,39,25,41,36,35
14:54:00,38,33,36,37,47,38,31,38,37
14:55:00,35,32,38,42,30,38,34,35,36
14:56:00,42,31,37,41,36,34,35,37,37
14:57:00,39,33,49,34,39,36,25,39,36
14:58:00,36,24,35,44,43,33,38,36,36
14:59:00,36,38,28,34,31,30,31,33,33
15:00:00,37,30,41,35,52,33,38,39,38
15:01:00,37,43,48,35,45,36,35,42,40
15:02:00,43,44,46,42,34,40,28,42,40
15:03:00,30,35,34,42,37,32,26,36,34
15:04:00,30,32,42,38,42,35,43,37,37
15:05:00,28,38,39,37,46,39,37,38,38
15:06:00,41,36,56,33,36,36,37,40,39
15:07:00,42,45,35,42,33,45,38,39,40
15:08:00,44,34,40,41,43,31,27,40,37
15:09:00,37,36,38,33,44,45,31,38,38
15:10:00,45,36,39,40,29,32,39,38,37
15:11:00,33,26,37,37,31,31,29,33,32
15:12:00,38,50,44,48,39,33,36,44,41
15:13:00,35,37,40,42,39,45,38,39,39
15:14:00,45,45,49,24,38,31,23,40,36
15:15:00,27,35,40,49,36,46,29,37,37
15:16:00,39,31,32,34,45,18,21,36,31
15:17:00,41,34,38,29,33,37,34,35,35
15:18:00,48,43,46,44,35,29,36,43,40
15:19:00,18,34,33,37,28,30,32,30,30
15:20:00,37,33,25,43,45,27,25,37,34
15:21:00,37,54,36,37,23,45,38,37,39
15:22:00,26,25,40,37,41,36,38,34,35
15:23:00,35,36,32,44,41,34,41,38,38
15:24:00,38,35,40,33,22,30,34,34,33
15:25:00,31,40,38,35,39,27,34,37,35
15:26:00,38,26,35,36,45,33,23,36,34
15:27:00,40,41,41,35,33,33,38,38,37
15:28:00,39,28,33,36,37,24,29,35,32
15:29:00,30,31,31,35,43,26,33,34,33
15:30:00,33,47,48,39,36,38,26,41,38
15:31:00,42,47,50,28,35,34,37,40,39
15:32:00,35,48,36,42,29,34,39,38,38
15:33:00,38,30,44,33,38,43,28,37,36
15:34:00,41,31,37,43,39,25,27,38,35
15:35:00,36,40,38,38,35,38,30,37,36
15:36:00,34,30,44,37,52,33,36,39,38
15:37:00,37,47,42,33,43,40,21,40,38
15:38:00,36,30,38,44,34,37,34,36,36
15:39:00,42,30,36,41,48,40,33,39,39
15:40:00,50,30,32,29,47,31,26,38,35
15:41:00,39,32,27,31,27,32,22,31,30
15:42:00,32,35,34,49,37,33,27,37,35
15:43:00,39,47,50,32,49,28,22,43,38
15:44:00,42,38,40,24,55,38,28,40,38
15:45:00,32,41,44,45,48,41,40,42,42
15:46:00,24,43,42,33,35,40,30,35,35
15:47:00,42,31,38,41,46,33,34,40,38
15:48:00,29,42,47,36,29,28,25,37,34
15:49:00,45,37,37,33,41,24,36,39,36
15:50:00,38,38,38,43,37,30,32,39,37
15:51:00,38,53,42,41,32,40,39,41,41
15:52:00,36,41,43,46,39,37,26,41,38
15:53:00,42,31,53,41,39,24,27,41,37
15:54:00,34,46,46,39,43,44,32,42,41
15:55:00,49,32,37,45,41,38,29,41,39
15:56:00,28,39,40,32,42,38,33,36,36
15:57:00,43,43,35,41,41,26,20,41,36
15:58:00,33,44,34,43,39,33,31,39,37
15:59:00,33,39,35,38,46,40,33,38,38
16:00:00,28,31,36,33,39,25,25,33,31
16:01:00,38,46,38,45,38,35,20,41,37
16:02:00,53,44,44,34,32,27,32,41,38
16:03:00,40,36,43,42,41,38,26,40,38
16:04:00,37,35,45,44,30,35,34,38,37
16:05:00,44,32,41,29,38,33,34,37,36
16:06:00,43,32,40,47,40,35,22,40,37
16:07:00,36,38,42,35,40,44,33,38,38
16:08:00,35,38,38,39,43,36,22,39,36
16:09:00,24,39,44,45,36,39,30,38,37
16:10:00,45,19,45,44,44,32,33,39,37
16:11:00,41,36,40,48,33,42,28,40,38
16:12:00,44,39,44,43,40,40,29,42,40
16:13:00,53,43,42,47,42,32,29,45,41
16:14:00,49,36,39,37,34,33,21,39,36
16:15:00,50,35,42,41,45,31,22,43,38
16:16:00,42,44,41,50,42,35,19,44,39
16:17:00,37,35,42,41,43,37,17,40,36
16:18:00,48,43,33,47,46,37,30,43,41
16:19:00,46,36,41,49,43,25,13,43,36
16:20:00,44,34,40,42,36,33,25,39,36
16:21:00,45,32,38,39,44,33,33,40,38
16:22:00,46,41,44,43,40,40,23,43,40
16:23:00,41,44,49,48,33,26,23,43,38
16:24:00,52,41,38,50,41,34,19,44,39
16:25:00,35,40,39,49,33,43,20,39,37
16:26:00,27,43,41,35,37,36,23,37,35
16:27:00,42,46,37,41,39,42,15,41,37
16:28:00,43,41,39,44,33,30,30,40,37
16:29:00,37,41,45,44,27,32,20,39,35
16:30:00,36,42,37,37,26,27,22,36,32
16:31:00,40,43,44,49,41,39,25,43,40
16:32:00,41,47,39,37,43,26,17,41,36
16:33:00,46,42,37,50,42,26,21,43,38
16:34:00,51,35,38,46,32,48,24,40,39
16:35:00,41,34,40,51,44,36,18,42,38
16:36:00,52,47,46,40,38,27,34,45,41
16:37:00,37,44,36,40,47,26,26,41,37
16:38:00,43,43,43,44,45,27,21,44,38
16:39:00,27,50,51,24,41,29,23,39,35
16:40:00,40,38,50,46,45,29,12,44,37
16:41:00,49,44,42,47,42,35,24,45,40
16:42:00,40,45,41,45,39,19,21,42,36
16:43:00,37,50,38,47,37,40,18,42,38
16:44:00,52,40,33,45,51,35,14,44,39
16:45:00,37,37,52,38,45,34,14,42,37
16:46:00,38,49,46,40,38,30,25,42,38
16:47:00,43,47,43,42,44,38,17,44,39
16:48:00,42,44,48,46,33,28,22,43,38
16:49:00,43,31,40,49,39,35,19,40,37
16:50:00,54,38,38,49,34,22,17,43,36
16:51:00,35,48,50,42,45,27,14,44,37
16:52:00,48,53,50,42,46,20,22,48,40
16:53:00,36,50,31,34,35,42,22,37,36
16:54:00,36,38,44,51,55,29,16,45,38
16:55:00,42,20,45,42,41,16,22,38,33
16:56:00,44,33,51,62,40,33,14,46,40
16:57:00,46,33,46,32,46,26,15,41,35
16:58:00,40,34,35,44,35,37,22,38,35
16:59:00,41,36,49,34,41,29,21,40,36
17:00:00,42,40,41,48,44,30,21,43,38
17:01:00,33,47,41,42,43,32,26,41,38
17:02:00,49,33,42,40,36,34,23,40,37
17:03:00,42,30,37,37,47,27,22,39,35
17:04:00,33,40,48,40,44,30,20,41,36
17:05:00,36,42,42,41,29,32,21,38,35
17:06:00,50,43,41,32,51,24,18,43,37
17:07:00,44,37,41,48,40,28,25,42,38
17:08:00,33,39,37,36,36,35,19,36,34
17:09:00,47,43,40,42,51,31,15,45,38
17:10:00,47,43,41,54,39,35,16,45,39
17:11:00,39,44,40,36,44,31,11,41,35
17:12:00,42,41,52,40,41,29,17,43,37
17:13:00,49,33,47,49,39,34,19,43,39
17:14:00,42,44,45,41,39,23,11,42,35
17:15:00,36,43,46,37,34,28,14,39,34
17:16:00,43,43,37,51,50,19,21,45,38
17:17:00,42,48,43,44,37,35,24,43,39
17:18:00,46,47,44,47,31,39,16,43,39
17:19:00,41,41,37,54,44,35,16,43,38
17:20:00,46,47,44,35,36,31,19,42,37
17:21:00,36,47,44,40,45,20,17,42,36
17:22:00,40,47,38,51,30,30,22,41,37
17:23:00,49,46,46,44,24,36,23,42,38
17:24:00,51,45,32,55,34,31,19,43,38
17:25:00,40,50,58,47,47,31,18,48,42
17:26:00,34,45,49,36,42,25,20,41,36
17:27:00,44,51,34,50,37,42,23,43,40
17:28:00,49,50,49,47,46,22,18,48,40
17:29:00,41,32,47,45,34,19,19,40,34
17:30:00,48,52,48,39,37,33,15,45,39
17:31:00,37,56,48,38,31,21,19,42,36
17:32:00,41,47,47,42,32,20,12,42,34
17:33:00,41,37,43,37,39,46,20,39,38
17:34:00,46,41,44,45,37,24,20,43,37
17:35:00,37,39,39,47,38,18,16,40,33
17:36:00,42,45,49,38,24,33,16,40,35
17:37:00,42,40,48,37,32,26,22,40,35
17:38:00,35,50,51,43,45,20,9,45,36
17:39:00,33,53,48,40,45,24,16,44,37
17:40:00,28,49,39,39,34,26,20,38,34
17:41:00,38,31,39,45,34,29,17,37,33
17:42:00,48,36,50,30,41,17,14,41,34
17:43:00,33,40,33,32,45,31,8,37,32
17:44:00,43,37,51,40,29,22,25,40,35
17:45:00,42,42,44,37,26,34,15,38,34
17:46:00,38,50,38,45,30,20,17,40,34
17:47:00,37,39,32,45,52,29,14,41,35
17:48:00,47,42,47,33,30,34,13,40,35
17:49:00,43,40,35,44,35,27,12,39,34
17:50:00,41,49,27,34,36,24,19,37,33
17:51:00,43,36,34,33,20,22,23,33,30
17:52:00,35,38,39,39,25,24,15,35,31
17:53:00,30,41,33,47,30,19,11,36,30
17:54:00,51,39,48,41,46,32,15,45,39
17:55:00,35,36,44,35,41,12,22,38,32
17:56:00,41,38,45,37,43,21,11,41,34
17:57:00,41,36,43,28,29,20,19,35,31
17:58:00,40,36,39,37,34,15,11,37,30
17:59:00,22,40,29,39,33,25,21,33,30
18:00:00,30,39,29,28,42,36,19,34,32
18:01:00,38,40,33,29,31,29,11,34,30
18:02:00,42,34,34,39,33,30,17,36,33
18:03:00,33,37,30,46,31,33,15,35,32
18:04:00,35,36,46,25,39,29,16,36,32
18:05:00,44,43,27,50,29,35,15,39,35
18:06:00,42,31,40,33,35,23,17,36,32
18:07:00,35,43,33,33,37,23,14,36,31
18:08:00,46,41,31,43,43,30,19,41,36
18:09:00,35,34,37,41,36,29,17,37,33
18:10:00,42,31,38,31,42,24,22,37,33
18:11:00,39,42,53,43,47,23,10,45,37
18:12:00,31,39,35,31,34,31,14,34,31
18:13:00,37,45,38,43,38,27,15,40,35
18:14:00,40,22,43,40,31,29,11,35,31
18:15:00,24,49,33,39,31,22,16,35,31
18:16:00,31,39,34,35,33,26,18,34,31
18:17:00,40,33,49,38,38,19,7,40,32
18:18:00,44,30,27,47,36,23,11,37,31
18:19:00,25,43,38,20,17,23,20,29,27
18:20:00,36,28,32,41,28,17,18,33,29
18:21:00,32,26,28,31,23,25,11,28,25
18:22:00,28,31,31,27,32,17,15,30,26
18:23:00,39,26,26,31,42,30,18,33,30
18:24:00,26,33,32,33,31,17,23,31,28
18:25:00,33,29,24,31,34,22,9,30,26
18:26:00,26,37,33,33,29,16,14,32,27
18:27:00,31,30,35,20,28,17,20,29,26
18:28:00,30,35,43,37,38,21,19,37,32
18:29:00,37,34,33,28,30,22,14,32,28
18:30:00,22,30,32,45,34,26,11,33,29
18:31:00,30,36,26,37,30,21,10,32,27
18:32:00,36,30,32,28,30,21,14,31,27
18:33:00,19,31,31,26,21,19,17,26,23
18:34:00,35,31,27,22,27,28,15,28,26
18:35:00,40,28,31,29,28,21,11,31,27
18:36:00,23,34,28,21,29,15,11,27,23
18:37:00,24,22,41,25,31,21,17,29,26
18:38:00,31,38,37,31,20,20,11,31,27
18:39:00,19,27,28,26,24,18,10,25,22
18:40:00,34,19,34,32,44,17,12,33,27
18:41:00,34,33,32,31,42,29,20,34,32
18:42:00,30,24,25,21,28,21,18,26,24
18:43:00,25,34,32,20,34,25,9,29,26
18:44:00,35,21,28,26,26,10,13,27,23
18:45:00,30,31,44,26,28,21,23,32,29
18:46:00,21,19,28,29,21,15,10,24,20
18:47:00,20,31,30,22,27,16,14,26,23
18:48:00,28,23,29,39,26,19,16,29,26
18:49:00,27,27,20,30,22,18,10,25,22
18:50:00,33,29,27,33,35,26,19,31,29
18:51:00,31,28,37,36,37,19,11,34,28
18:52:00,23,22,28,24,39,21,19,27,25
18:53:00,27,14,36,31,25,11,10,27,22
18:54:00,34,23,23,37,26,15,11,29,24
18:55:00,20,29,18,18,24,24,16,22,21
18:56:00,29,23,30,27,30,26,5,28,24
18:57:00,20,33,28,14,28,18,14,25,22
18:58:00,18,13,19,39,23,20,12,22,21
18:59:00,23,32,29,25,27,12,16,27,23
19:00:00,11,25,27,27,27,14,15,23,21
19:01:00,28,25,24,42,20,16,11,28,24
19:02:00,29,25,26,27,27,30,10,27,25
19:03:00,25,16,27,41,25,17,13,27,23
19:04:00,32,27,40,24,30,29,16,31,28
19:05:00,32,21,27,30,38,21,18,30,27
19:06:00,29,31,26,29,35,17,16,30,26
19:07:00,29,29,27,30,31,20,19,29,26
19:08:00,25,19,27,26,30,17,16,25,23
19:09:00,33,17,33,23,29,17,9,27,23
19:10:00,32,17,30,21,31,22,16,26,24
19:11:00,16,19,29,28,28,15,13,24,21
19:12:00,25,20,38,39,24,23,14,29,26
19:13:00,30,21,26,31,31,18,7,28,23
19:14:00,18,25,21,25,37,15,14,25,22
19:15:00,26,22,25,33,20,14,9,25,21
19:16:00,24,24,19,32,41,18,13,28,24
19:17:00,25,24,25,24,30,15,8,26,22
19:18:00,20,22,24,25,28,19,9,24,21
19:19:00,15,20,24,25,30,19,20,23,22
19:20:00,24,28,20,30,25,13,19,25,23
19:21:00,17,17,20,32,30,14,13,23,20
19:22:00,23,17,25,26,28,19,18,24,22
19:23:00,30,15,25,28,31,17,8,26,22
19:24:00,19,20,22,21,20,10,6,20,17
19:25:00,16,27,14,24,20,21,11,20,19
19:26:00,13,13,23,29,24,19,20,20,20
19:27:00,21,28,23,23,22,8,13,23,20
19:28:00,15,19,21,22,33,18,11,22,20
19:29:00,21,22,15,21,18,14,9,19,17
19:30:00,13,15,12,31,12,26,6,17,16
19:31:00,23,13,13,19,26,16,11,19,17
19:32:00,21,26,13,22,23,16,9,21,19
19:33:00,16,16,21,23,10,9,12,17,15
19:34:00,15,17,18,22,18,11,1,18,15
19:35:00,15,19,17,28,20,22,11,20,19
19:36:00,13,23,25,19,23,14,14,21,19
19:37:00,14,24,21,18,19,7,17,19,17
19:38:00,17,17,28,24,18,16,14,21,19
19:39:00,16,24,20,11,24,14,14,19,18
19:40:00,12,17,19,19,26,17,7,19,17
19:41:00,17,16,22,22,21,11,9,20,17
19:42:00,8,28,18,25,22,13,7,20,17
19:43:00,16,21,17,16,19,15,9,18,16
19:44:00,21,14,14,24,18,11,6,18,15
19:45:00,15,22,14,25,22,17,4,20,17
19:46:00,18,20,17,22,16,18,9,19,17
19:47:00,18,29,14,17,21,6,5,20,16
19:48:00,14,24,19,19,12,7,13,18,15
19:49:00,17,18,14,20,14,13,11,17,15
19:50:00,9,12,18,17,19,8,8,15,13
19:51:00,12,14,20,20,19,14,3,17,15
19:52:00,9,15,15,17,17,13,9,15,14
19:53:00,20,14,14,22,24,7,6,19,15
19:54:00,12,10,19,15,24,13,6,16,14
19:55:00,17,13,13,24,23,15,9,18,16
19:56:00,10,11,14,18,15,10,8,14,12
19:57:00,13,17,14,21,14,16,10,16,15
19:58:00,14,22,13,25,21,10,16,19,17
19:59:00,18,20,12,24,14,11,9,18,15
20:00:00,14,8,20,13,4,10,18,12,12
20:01:00,11,11,18,13,14,11,9,13,12
20:02:00,17,16,19,19,12,9,12,17,15
20:03:00,16,23,24,8,16,12,11,17,16
20:04:00,17,15,14,17,14,10,14,15,14
20:05:00,14,21,25,22,17,12,10,20,17
20:06:00,19,19,21,20,13,13,7,18,16
20:07:00,14,24,18,23,17,9,10,19,16
20:08:00,12,25,25,18,15,14,11,19,17
20:09:00,19,17,22,22,16,7,11,19,16
20:10:00,16,18,23,17,15,15,9,18,16
20:11:00,10,12,17,12,14,5,9,13,11
20:12:00,25,20,13,19,13,10,8,18,15
20:13:00,16,21,16,21,15,5,6,18,14
20:14:00,22,14,16,19,16,19,14,17,17
20:15:00,24,25,22,18,11,14,6,20,17
20:16:00,15,22,19,15,21,10,5,18,15
20:17:00,13,16,17,14,14,15,9,15,14
20:18:00,14,15,14,16,17,11,12,15,14
20:19:00,16,15,19,25,11,11,11,17,15
20:20:00,15,21,22,18,10,10,7,17,15
20:21:00,22,14,17,17,14,9,13,17,15
20:22:00,13,19,16,12,12,16,9,14,14
20:23:00,13,20,6,14,11,13,11,13,13
20:24:00,14,14,8,7,25,8,10,14,12
20:25:00,13,15,18,14,19,10,5,16,13
20:26:00,17,12,10,15,15,8,7,14,12
20:27:00,11,17,14,14,10,11,6,13,12
20:28:00,16,17,9,13,15,7,14,14,13
20:29:00,14,15,15,12,14,7,4,14,12
20:30:00,10,12,12,7,16,9,9,11,11
20:31:00,13,11,7,13,15,10,6,12,11
20:32:00,13,14,12,14,17,11,8,14,13
20:33:00,9,7,6,16,16,9,6,11,10
20:34:00,8,7,11,9,16,11,10,10,10
20:35:00,9,18,8,10,11,12,7,11,11
20:36:00,7,13,16,10,13,9,12,12,11
20:37:00,2,14,12,10,13,7,5,10,9
20:38:00,10,13,7,14,9,9,9,11,10
20:39:00,12,9,10,11,13,7,8,11,10
20:40:00,17,16,17,6,11,10,7,13,12
20:41:00,12,16,12,7,14,7,4,12,10
20:42:00,17,13,13,11,10,7,14,13,12
20:43:00,13,11,17,13,6,11,6,12,11
20:44:00,16,14,16,12,8,7,8,13,12
20:45:00,8,11,18,7,12,5,11,11,10
20:46:00,6,10,13,7,9,7,13,9,9
20:47:00,6,13,14,11,10,7,4,11,9
20:48:00,14,9,9,9,9,9,10,10,10
20:49:00,15,10,10,6,13,9,3,11,9
20:50:00,7,13,8,16,5,4,7,10,9
20:51:00,5,15,7,10,6,11,5,9,8
20:52:00,10,9,10,17,13,7,7,12,10
20:53:00,14,9,11,14,4,8,1,10,9
20:54:00,8,7,15,12,8,6,6,10,9
20:55:00,11,11,11,11,10,14,6,11,11
20:56:00,10,6,6,10,7,12,5,8,8
20:57:00,12,11,9,15,8,12,8,11,11
20:58:00,8,16,11,10,11,9,5,11,10
20:59:00,9,12,13,11,6,3,0,10,8
21:00:00,14,7,13,11,11,4,9,11,10
21:01:00,10,11,10,7,9,4,6,9,8
21:02:00,14,7,11,6,7,3,9,9,8
21:03:00,9,11,11,11,9,14,11,10,11
21:04:00,11,11,9,16,14,7,7,12,11
21:05:00,10,11,12,16,16,14,6,13,12
21:06:00,12,4,18,14,11,4,8,12,10
21:07:00,9,9,13,10,18,8,14,12,12
21:08:00,18,13,15,10,12,5,7,14,11
21:09:00,10,12,12,18,16,5,8,14,12
21:10:00,13,5,17,20,10,4,6,13,11
21:11:00,9,7,21,25,20,8,3,16,13
21:12:00,14,15,15,19,8,8,5,14,12
21:13:00,9,13,11,10,12,21,11,11,12
21:14:00,5,13,8,14,6,10,7,9,9
21:15:00,14,12,11,17,5,8,9,12,11
21:16:00,11,11,8,7,17,4,8,11,9
21:17:00,11,5,10,4,8,7,5,8,7
21:18:00,2,10,5,15,14,4,7,9,8
21:19:00,5,3,15,14,10,7,5,9,8
21:20:00,6,19,6,11,8,8,4,10,9
21:21:00,10,11,15,11,7,3,3,11,9
21:22:00,3,16,7,11,9,9,8,9,9
21:23:00,10,17,8,9,15,8,8,12,11
21:24:00,8,8,10,4,10,1,5,8,7
21:25:00,10,8,10,11,11,5,3,10,8
21:26:00,9,15,8,13,19,9,3,13,11
21:27:00,4,9,13,9,7,3,4,8,7
21:28:00,9,8,10,11,3,7,3,8,7
21:29:00,2,11,9,11,8,7,2,8,7
21:30:00,9,15,10,10,4,4,3,10,8
21:31:00,7,12,9,11,7,3,6,9,8
21:32:00,7,9,8,4,11,9,7,8,8
21:33:00,9,7,3,11,11,2,4,8,7
21:34:00,8,3,6,9,13,5,3,8,7
21:35:00,11,6,8,11,9,1,5,9,7
21:36:00,5,12,7,4,8,8,4,7,7
21:37:00,8,6,5,7,9,4,5,7,6
21:38:00,6,11,7,12,11,9,5,9,9
21:39:00,6,9,8,7,6,7,8,7,7
21:40:00,5,5,10,7,5,3,8,6,6
21:41:00,7,14,10,7,17,2,4,11,9
21:42:00,4,11,9,14,9,7,4,9,8
21:43:00,7,12,6,9,8,7,6,8,8
21:44:00,3,7,13,11,8,9,3,8,8
21:45:00,6,4,8,11,5,5,2,7,6
21:46:00,10,8,11,9,7,9,6,9,9
21:47:00,6,6,5,11,7,5,5,7,6
21:48:00,4,7,7,7,8,7,6,7,7
21:49:00,4,3,7,16,3,5,2,7,6
21:50:00,9,9,11,11,10,10,9,10,10
21:51:00,6,6,10,10,11,5,4,9,7
21:52:00,5,7,6,10,4,6,2,6,6
21:53:00,8,6,5,7,9,5,6,7,7
21:54:00,4,8,9,12,8,4,7,8,7
21:55:00,7,4,5,6,11,5,3,7,6
21:56:00,7,8,9,6,6,8,4,7,7
21:57:00,6,10,7,7,7,6,9,7,7
21:58:00,6,7,11,11,9,8,4,9,8
21:59:00,12,9,4,12,6,5,7,9,8
22:00:00,8,8,9,5,6,3,6,7,6
22:01:00,5,5,5,1,9,5,10,5,6
22:02:00,11,7,10,10,4,9,8,8,8
22:03:00,8,5,4,16,12,11,9,9,9
22:04:00,8,7,10,6,10,5,6,8,7
22:05:00,15,9,9,9,7,10,7,10,9
22:06:00,9,5,6,9,11,8,6,8,8
22:07:00,14,7,10,10,10,6,10,10,10
22:08:00,9,15,15,7,6,10,3,10,9
22:09:00,12,7,7,4,14,7,6,9,8
22:10:00,9,8,10,13,9,5,4,10,8
22:11:00,16,11,10,8,10,4,2,11,9
22:12:00,9,11,10,11,6,4,2,9,8
22:13:00,8,7,11,7,10,8,5,9,8
22:14:00,12,4,10,5,9,11,6,8,8
22:15:00,3,7,6,14,8,11,4,8,8
22:16:00,7,7,13,7,8,4,7,8,8
22:17:00,2,7,7,5,7,7,6,6,6
22:18:00,4,11,11,8,4,6,3,8,7
22:19:00,9,5,5,4,10,10,3,7,7
22:20:00,10,8,11,6,7,8,5,8,8
22:21:00,7,12,6,7,9,7,4,8,7
22:22:00,5,8,8,7,5,10,5,7,7
22:23:00,9,12,5,7,7,5,4,8,7
22:24:00,3,7,1,8,6,9,4,5,5
22:25:00,9,6,12,5,9,5,2,8,7
22:26:00,6,3,6,8,9,2,2,6,5
22:27:00,6,9,5,5,6,5,3,6,6
22:28:00,4,3,10,5,7,11,5,6,6
22:29:00,2,6,6,10,15,10,7,8,8
22:30:00,5,1,0,6,8,4,6,4,4
22:31:00,8,2,5,3,6,11,3,5,5
22:32:00,4,6,3,5,6,9,3,5,5
22:33:00,3,10,5,8,6,5,0,6,5
22:34:00,3,6,4,9,13,8,3,7,7
22:35:00,8,7,1,6,7,5,5,6,6
22:36:00,6,7,3,10,6,9,5,6,7
22:37:00,6,4,3,6,5,7,4,5,5
22:38:00,5,4,6,4,6,6,2,5,5
22:39:00,6,7,4,6,8,3,4,6,5
22:40:00,6,4,7,9,5,4,4,6,6
22:41:00,5,5,4,5,4,7,3,5,5
22:42:00,7,4,6,5,3,10,0,5,5
22:43:00,0,6,4,4,4,1,5,4,3
22:44:00,1,6,5,3,7,6,4,4,5
22:45:00,3,2,3,9,9,11,0,5,5
22:46:00,3,2,3,2,8,6,5,4,4
22:47:00,4,6,6,3,6,5,2,5,5
22:48:00,1,8,7,6,4,4,6,5,5
22:49:00,5,3,3,4,9,3,3,5,4
22:50:00,4,5,9,4,8,8,4,6,6
22:51:00,6,2,2,4,4,9,1,4,4
22:52:00,5,3,1,5,6,3,1,4,3
22:53:00,4,4,5,2,5,10,5,4,5
22:54:00,5,1,1,5,1,3,3,3,3
22:55:00,4,8,4,7,6,5,7,6,6
22:56:00,2,6,1,8,9,9,5,5,6
22:57:00,4,4,3,8,9,8,2,6,5
22:58:00,2,3,2,11,6,11,2,5,5
22:59:00,1,6,2,1,12,4,4,4,4
23:00:00,7,4,2,7,13,8,3,7,6
23:01:00,3,1,5,5,6,3,6,4,4
23:02:00,2,4,4,6,8,2,2,5,4
23:03:00,3,5,2,4,8,3,2,4,4
23:04:00,3,7,2,9,12,7,3,7,6
23:05:00,3,6,2,3,4,7,2,4,4
23:06:00,5,3,4,4,3,4,5,4,4
23:07:00,6,2,4,5,5,5,4,4,4
23:08:00,2,1,5,1,7,0,3,3,3
23:09:00,3,5,5,6,8,8,3,5,5
23:10:00,2,4,4,5,5,5,6,4,4
23:11:00,5,6,5,6,12,7,2,7,6
23:12:00,4,1,5,5,9,4,4,5,5
23:13:00,5,7,3,0,6,3,5,4,4
23:14:00,6,2,3,5,2,3,2,4,3
23:15:00,1,9,5,4,7,5,3,5,5
23:16:00,3,4,7,4,4,7,4,4,5
23:17:00,11,4,4,1,5,5,4,5,5
23:18:00,2,4,2,2,9,5,3,4,4
23:19:00,3,2,5,1,1,5,3,2,3
23:20:00,2,0,2,2,7,7,4,3,3
23:21:00,2,3,4,2,9,7,1,4,4
23:22:00,4,2,1,7,5,4,3,4,4
23:23:00,3,3,2,1,9,8,2,4,4
23:24:00,0,3,2,4,7,6,0,3,3
23:25:00,2,1,4,0,3,4,5,2,3
23:26:00,3,2,2,2,6,5,2,3,3
23:27:00,2,4,4,1,4,7,1,3,3
23:28:00,0,0,4,3,2,4,3,2,2
23:29:00,3,1,3,3,2,6,2,2,3
23:30:00,5,2,3,3,7,5,4,4,4
23:31:00,1,3,7,0,3,2,3,3,3
23:32:00,3,2,10,6,4,5,2,5,5
23:33:00,3,4,1,4,3,8,1,3,3
23:34:00,2,3,3,5,5,5,4,4,4
23:35:00,3,2,2,1,2,7,2,2,3
23:36:00,0,3,2,8,3,5,2,3,3
23:37:00,3,1,3,5,4,8,1,3,4
23:38:00,4,1,1,2,4,3,3,2,3
23:39:00,1,3,3,0,5,3,2,2,2
23:40:00,1,4,5,2,5,1,4,3,3
23:41:00,2,3,3,1,3,5,2,2,3
23:42:00,4,3,3,0,8,9,2,4,4
23:43:00,5,3,6,1,5,4,0,4,3
23:44:00,2,2,1,6,6,3,5,3,4
23:45:00,4,5,2,3,3,5,1,3,3
23:46:00,1,5,8,3,7,5,2,5,4
23:47:00,3,4,2,6,5,5,1,4,4
23:48:00,1,1,1,4,7,6,0,3,3
23:49:00,2,1,5,6,3,8,6,3,4
23:50:00,1,3,3,1,6,4,1,3,3
23:51:00,0,0,2,3,6,10,2,2,3
23:52:00,4,2,2,0,7,4,3,3,3
23:53:00,1,3,1,5,6,5,4,3,4
23:54:00,0,5,1,3,6,5,1,3,3
23:55:00,5,0,3,0,6,3,2,3,3
23:56:00,4,2,0,1,5,2,1,2,2
23:57:00,1,0,4,1,4,7,2,2,3
23:58:00,1,2,3,2,3,10,4,2,4
23:59:00,1,2,2,2,4,2,3,2,2
,,,,,,,,,
Totals,,,,,,,,,
12H(7-19),25602,25433,25531,25779,25632,22705,17973,25595,24094
16H(6-22),28964,29076,29230,29764,29369,25011,19720,29281,27305
18H(6-24),29497,29619,29788,30351,30148,25729,20137,29881,27896
24H(0-24),30310,30475,30593,31196,31020,26524,20787,30719,28701
,,,,,,,,,
AM Peak,07:15:00,08:28:00,07:30:00,08:35:00,08:22:00,10:58:00,11:00:00,07:21:00,09:00:00
,2171,2219,2220,2166,2173,2302,2137,2152,1915
,,,,,,,,,
PM Peak,16:31:00,16:41:00,16:45:00,16:31:00,16:31:00,12:11:00,12:00:00,16:31:00,15:50:00
,2535,2560,2628,2606,2435,2667,2382,2536,2247
,,,,,,,,,
,,,,,,,,,
CA Traffic,,,,,,,,,VDA-net R2 16/01/2020
