Site Number,00008005,Unnamed: 2,Site Reference,00008005.1,Unnamed: 5,Unnamed: 6,Lat/Lng.,"52.02776,1.20445",Unnamed: 9
Nacton Road Link,,,,,,,,,
Vehicle Count Report,,,,Week Begin: 16 December 2019,,,Channel:,Total Flow,
,,,,,,,,,
,,,,,,,,,
,2019-12-16 00:00:00,2019-12-17 00:00:00,2019-12-18 00:00:00,2019-12-19 00:00:00,2019-12-20 00:00:00,2019-12-21 00:00:00,2019-12-22 00:00:00,"5-Day
Ave.","7-Day
Ave."
00:00:00,1,4,1,5,2,3,2,3,3
00:01:00,4,2,2,1,5,7,2,3,3
00:02:00,0,0,3,2,7,2,4,2,3
00:03:00,4,1,3,3,5,6,4,3,4
00:04:00,4,3,2,0,0,5,7,2,3
00:05:00,1,0,1,3,2,8,5,1,3
00:06:00,3,3,6,5,3,3,8,4,4
00:07:00,3,0,2,4,6,2,4,3,3
00:08:00,1,4,8,5,3,4,8,4,5
00:09:00,2,1,2,0,5,5,10,2,4
00:10:00,2,3,3,4,4,9,7,3,5
00:11:00,1,3,2,3,5,5,5,3,3
00:12:00,2,2,1,1,4,4,6,2,3
00:13:00,1,1,1,2,4,5,2,2,2
00:14:00,3,0,0,3,3,8,9,2,4
00:15:00,2,3,1,13,1,3,7,4,4
00:16:00,1,0,2,3,7,3,4,3,3
00:17:00,0,3,1,5,1,6,7,2,3
00:18:00,2,1,5,2,4,6,4,3,3
00:19:00,2,2,1,2,4,6,1,2,3
00:20:00,3,1,3,0,3,2,6,2,3
00:21:00,0,1,2,2,4,1,6,2,2
00:22:00,0,1,2,2,2,5,3,1,2
00:23:00,1,1,0,1,2,2,3,1,1
00:24:00,1,0,0,1,3,5,2,1,2
00:25:00,0,1,1,3,2,4,7,1,3
00:26:00,4,1,3,1,2,2,6,2,3
00:27:00,0,1,2,1,4,8,5,2,3
00:28:00,0,0,1,4,0,6,5,1,2
00:29:00,3,2,0,1,1,2,3,1,2
00:30:00,1,0,0,6,2,2,4,2,2
00:31:00,0,2,0,3,3,2,6,2,2
00:32:00,0,0,1,2,4,2,2,1,2
00:33:00,3,0,3,3,2,9,3,2,3
00:34:00,1,2,2,2,3,4,4,2,3
00:35:00,1,0,0,3,2,6,4,1,2
00:36:00,1,0,1,3,0,1,2,1,1
00:37:00,3,3,0,0,2,1,5,2,2
00:38:00,0,1,0,1,4,6,6,1,3
00:39:00,1,0,1,2,3,6,4,1,2
00:40:00,2,0,1,4,3,3,6,2,3
00:41:00,2,1,1,0,6,2,2,2,2
00:42:00,0,3,1,2,0,1,2,1,1
00:43:00,0,0,1,0,4,5,4,1,2
00:44:00,1,1,1,1,2,5,3,1,2
00:45:00,4,0,0,2,5,2,6,2,3
00:46:00,0,1,2,1,2,3,7,1,2
00:47:00,0,2,1,1,2,4,4,1,2
00:48:00,0,1,0,1,2,5,5,1,2
00:49:00,3,2,1,0,1,4,1,1,2
00:50:00,3,2,5,2,0,3,0,2,2
00:51:00,0,0,2,0,3,2,4,1,2
00:52:00,2,0,1,1,3,3,2,1,2
00:53:00,1,0,2,2,2,3,3,1,2
00:54:00,2,0,2,0,1,2,2,1,1
00:55:00,0,1,1,1,5,7,2,2,2
00:56:00,1,3,2,1,1,4,1,2,2
00:57:00,2,0,0,0,2,4,0,1,1
00:58:00,2,0,1,0,3,3,6,1,2
00:59:00,3,0,1,2,0,7,7,1,3
01:00:00,0,0,1,3,1,0,2,1,1
01:01:00,0,1,1,2,3,3,4,1,2
01:02:00,0,0,2,1,2,6,1,1,2
01:03:00,1,1,3,0,0,3,0,1,1
01:04:00,1,0,1,1,4,2,4,1,2
01:05:00,1,2,3,1,3,8,2,2,3
01:06:00,0,2,2,3,0,4,1,1,2
01:07:00,1,0,0,2,2,5,4,1,2
01:08:00,0,0,1,3,1,2,1,1,1
01:09:00,0,1,4,2,0,4,0,1,2
01:10:00,1,3,2,3,0,0,2,2,2
01:11:00,1,0,1,0,2,3,3,1,1
01:12:00,2,0,0,3,1,2,4,1,2
01:13:00,1,1,1,2,1,5,1,1,2
01:14:00,1,3,1,3,2,4,4,2,3
01:15:00,2,2,0,0,0,4,2,1,1
01:16:00,1,0,1,2,1,2,1,1,1
01:17:00,0,0,3,2,1,6,0,1,2
01:18:00,0,1,1,2,2,6,1,1,2
01:19:00,2,0,0,2,1,2,2,1,1
01:20:00,1,2,0,0,0,1,0,1,1
01:21:00,0,1,0,3,2,3,4,1,2
01:22:00,0,1,2,0,3,1,7,1,2
01:23:00,1,0,1,1,1,2,3,1,1
01:24:00,5,4,2,2,2,1,1,3,2
01:25:00,1,2,1,0,0,2,1,1,1
01:26:00,1,1,1,1,0,1,0,1,1
01:27:00,0,0,1,2,1,4,2,1,1
01:28:00,3,1,0,0,1,0,0,1,1
01:29:00,0,0,1,1,1,4,1,1,1
01:30:00,0,0,0,2,0,0,0,0,0
01:31:00,3,1,3,2,3,0,0,2,2
01:32:00,0,3,3,0,2,1,1,2,1
01:33:00,1,1,1,2,2,2,1,1,1
01:34:00,1,0,1,1,3,3,7,1,2
01:35:00,0,1,0,0,0,2,2,0,1
01:36:00,0,0,1,0,1,3,4,0,1
01:37:00,0,0,1,1,2,2,2,1,1
01:38:00,1,1,2,1,1,3,1,1,1
01:39:00,0,1,0,2,3,3,1,1,1
01:40:00,1,4,1,1,1,4,1,2,2
01:41:00,1,1,0,1,0,1,4,1,1
01:42:00,0,0,1,1,0,1,1,0,1
01:43:00,1,2,0,0,2,2,3,1,1
01:44:00,1,1,0,2,1,1,3,1,1
01:45:00,0,1,0,1,1,4,2,1,1
01:46:00,0,1,0,1,2,3,4,1,2
01:47:00,1,1,1,1,1,2,0,1,1
01:48:00,0,2,2,0,2,0,0,1,1
01:49:00,1,2,0,0,2,0,1,1,1
01:50:00,0,0,1,0,0,2,2,0,1
01:51:00,1,0,2,1,1,4,1,1,1
01:52:00,1,1,1,2,1,3,2,1,2
01:53:00,2,0,0,1,1,1,6,1,2
01:54:00,2,0,0,3,0,1,0,1,1
01:55:00,1,2,0,0,2,2,0,1,1
01:56:00,0,1,0,2,3,2,1,1,1
01:57:00,1,0,1,1,0,4,1,1,1
01:58:00,0,4,2,0,0,3,2,1,2
01:59:00,0,1,1,0,4,2,2,1,1
02:00:00,0,1,1,2,0,1,0,1,1
02:01:00,1,0,4,1,1,7,2,1,2
02:02:00,2,2,3,1,1,1,1,2,2
02:03:00,3,2,1,1,0,2,2,1,2
02:04:00,1,1,0,0,0,1,3,0,1
02:05:00,1,1,1,1,0,2,1,1,1
02:06:00,1,1,0,0,0,2,1,0,1
02:07:00,0,1,1,2,0,3,1,1,1
02:08:00,2,1,0,0,3,1,0,1,1
02:09:00,0,0,0,1,1,5,0,0,1
02:10:00,0,0,0,0,0,3,3,0,1
02:11:00,0,0,0,3,1,3,2,1,1
02:12:00,1,1,1,1,1,6,3,1,2
02:13:00,1,1,0,1,1,2,1,1,1
02:14:00,1,1,0,0,3,3,1,1,1
02:15:00,1,3,1,0,0,2,0,1,1
02:16:00,0,1,1,1,1,1,1,1,1
02:17:00,1,2,0,1,1,1,2,1,1
02:18:00,1,1,0,0,1,1,1,1,1
02:19:00,1,2,0,1,0,1,2,1,1
02:20:00,1,1,1,0,1,0,2,1,1
02:21:00,0,0,1,0,1,1,0,0,0
02:22:00,0,0,4,0,1,2,4,1,2
02:23:00,1,0,2,0,2,4,1,1,1
02:24:00,1,1,2,0,0,2,1,1,1
02:25:00,2,2,1,2,0,2,0,1,1
02:26:00,2,2,1,3,0,0,2,2,1
02:27:00,0,1,2,3,3,2,0,2,2
02:28:00,4,1,1,1,1,2,2,2,2
02:29:00,0,1,0,0,0,0,1,0,0
02:30:00,3,1,1,2,1,2,2,2,2
02:31:00,1,2,1,1,0,2,1,1,1
02:32:00,2,2,4,1,5,2,0,3,2
02:33:00,0,2,2,2,2,0,0,2,1
02:34:00,0,3,3,1,0,2,0,1,1
02:35:00,0,2,1,3,2,2,0,2,1
02:36:00,1,0,0,0,2,2,3,1,1
02:37:00,1,2,4,1,1,2,1,2,2
02:38:00,0,1,1,1,1,0,0,1,1
02:39:00,1,1,1,3,1,2,1,1,1
02:40:00,1,1,0,1,1,2,0,1,1
02:41:00,1,0,0,0,0,1,2,0,1
02:42:00,2,0,0,1,2,0,0,1,1
02:43:00,2,2,0,0,2,2,2,1,1
02:44:00,2,2,2,2,1,1,2,2,2
02:45:00,1,2,0,1,4,4,3,2,2
02:46:00,0,1,2,0,2,1,2,1,1
02:47:00,0,1,2,1,0,1,1,1,1
02:48:00,0,0,1,1,1,0,1,1,1
02:49:00,1,0,1,0,2,1,1,1,1
02:50:00,2,2,1,0,0,0,0,1,1
02:51:00,0,2,2,0,3,1,1,1,1
02:52:00,1,1,0,2,0,0,0,1,1
02:53:00,1,3,0,0,2,0,0,1,1
02:54:00,2,0,3,0,2,0,1,1,1
02:55:00,0,0,2,2,2,2,1,1,1
02:56:00,0,1,0,3,3,0,1,1,1
02:57:00,0,0,0,0,2,1,3,0,1
02:58:00,0,1,1,2,1,0,4,1,1
02:59:00,0,1,2,1,0,4,1,1,1
03:00:00,0,0,1,0,2,1,0,1,1
03:01:00,0,1,1,4,0,0,2,1,1
03:02:00,1,0,3,1,0,3,1,1,1
03:03:00,1,1,1,2,0,1,1,1,1
03:04:00,0,2,2,2,1,1,1,1,1
03:05:00,0,4,0,2,0,4,1,1,2
03:06:00,2,0,0,1,0,2,2,1,1
03:07:00,0,0,2,4,2,0,0,2,1
03:08:00,0,0,2,0,2,0,0,1,1
03:09:00,1,0,0,0,2,1,0,1,1
03:10:00,1,1,4,2,0,0,0,2,1
03:11:00,0,1,0,0,0,4,1,0,1
03:12:00,1,3,1,0,1,3,2,1,2
03:13:00,1,3,0,5,0,1,1,2,2
03:14:00,0,0,3,0,1,4,0,1,1
03:15:00,2,1,0,1,1,0,4,1,1
03:16:00,1,0,0,3,2,1,1,1,1
03:17:00,1,0,1,1,1,1,3,1,1
03:18:00,0,2,0,1,1,1,2,1,1
03:19:00,2,0,0,0,2,0,2,1,1
03:20:00,4,1,1,3,0,2,1,2,2
03:21:00,1,0,2,1,0,0,4,1,1
03:22:00,2,0,1,2,1,4,0,1,1
03:23:00,1,0,0,2,2,0,0,1,1
03:24:00,1,1,1,1,3,4,0,1,2
03:25:00,3,4,2,3,1,0,3,3,2
03:26:00,1,3,2,1,0,3,0,1,1
03:27:00,1,1,3,1,0,1,0,1,1
03:28:00,2,2,0,2,1,2,0,1,1
03:29:00,3,1,2,2,1,2,2,2,2
03:30:00,1,1,2,0,1,3,1,1,1
03:31:00,1,2,0,0,0,1,0,1,1
03:32:00,2,0,4,3,0,1,0,2,1
03:33:00,3,1,2,3,2,1,0,2,2
03:34:00,1,0,1,1,1,4,1,1,1
03:35:00,3,5,1,1,2,1,0,2,2
03:36:00,1,1,0,0,2,1,2,1,1
03:37:00,3,2,2,2,1,1,0,2,2
03:38:00,1,3,0,1,2,2,1,1,1
03:39:00,2,1,2,1,4,3,1,2,2
03:40:00,3,4,0,5,0,2,1,2,2
03:41:00,0,3,0,1,1,2,0,1,1
03:42:00,4,1,0,2,3,1,1,2,2
03:43:00,1,2,2,4,0,3,2,2,2
03:44:00,2,2,2,6,4,1,1,3,3
03:45:00,4,2,2,1,3,3,2,2,2
03:46:00,0,0,2,1,1,2,3,1,1
03:47:00,2,0,1,0,1,3,3,1,1
03:48:00,2,2,3,0,1,2,0,2,1
03:49:00,4,1,0,3,3,2,0,2,2
03:50:00,2,2,1,0,2,0,2,1,1
03:51:00,3,2,8,2,0,3,2,3,3
03:52:00,1,5,1,0,1,1,3,2,2
03:53:00,2,2,2,0,2,1,0,2,1
03:54:00,1,0,2,0,1,0,1,1,1
03:55:00,3,2,4,2,1,0,1,2,2
03:56:00,3,3,2,3,2,3,3,3,3
03:57:00,3,2,4,1,1,2,1,2,2
03:58:00,0,2,0,2,0,0,1,1,1
03:59:00,3,0,0,1,1,0,1,1,1
04:00:00,3,2,2,0,4,5,0,2,2
04:01:00,2,2,2,1,0,2,2,1,2
04:02:00,2,2,1,1,1,2,3,1,2
04:03:00,2,1,0,3,1,0,2,1,1
04:04:00,7,2,2,1,0,0,0,2,2
04:05:00,3,2,2,2,2,2,1,2,2
04:06:00,3,3,3,2,4,1,2,3,3
04:07:00,1,1,2,4,1,1,3,2,2
04:08:00,1,4,5,2,0,2,1,2,2
04:09:00,0,4,3,2,1,1,2,2,2
04:10:00,1,2,1,4,0,3,5,2,2
04:11:00,1,3,1,1,3,0,2,2,2
04:12:00,5,2,3,2,1,5,0,3,3
04:13:00,4,4,2,6,1,0,2,3,3
04:14:00,4,0,1,0,2,1,0,1,1
04:15:00,3,4,4,2,4,1,2,3,3
04:16:00,3,0,1,1,2,0,1,1,1
04:17:00,2,2,2,3,1,0,0,2,1
04:18:00,4,4,3,0,1,1,2,2,2
04:19:00,1,0,5,2,2,3,4,2,2
04:20:00,2,2,1,2,0,1,2,1,1
04:21:00,2,1,1,5,2,1,1,2,2
04:22:00,2,3,1,2,3,4,1,2,2
04:23:00,4,1,1,3,3,0,1,2,2
04:24:00,4,2,3,4,2,0,1,3,2
04:25:00,2,2,2,0,1,0,5,1,2
04:26:00,5,0,1,3,3,1,3,2,2
04:27:00,0,3,4,0,2,1,2,2,2
04:28:00,3,1,2,2,3,2,0,2,2
04:29:00,0,2,1,2,3,1,1,2,1
04:30:00,1,2,0,3,2,3,1,2,2
04:31:00,3,1,2,2,4,0,2,2,2
04:32:00,3,1,3,4,0,2,2,2,2
04:33:00,2,2,4,2,1,4,0,2,2
04:34:00,3,3,4,5,1,2,2,3,3
04:35:00,4,1,3,2,3,1,2,3,2
04:36:00,3,2,0,1,2,0,1,2,1
04:37:00,5,2,4,1,1,3,2,3,3
04:38:00,0,4,3,3,2,2,2,2,2
04:39:00,2,0,5,1,0,2,2,2,2
04:40:00,1,3,3,1,1,1,1,2,2
04:41:00,1,5,7,3,1,1,5,3,3
04:42:00,1,1,5,6,7,1,2,4,3
04:43:00,8,4,2,7,1,0,3,4,4
04:44:00,2,3,3,6,2,2,0,3,3
04:45:00,3,4,2,8,8,2,3,5,4
04:46:00,3,3,2,1,5,1,2,3,2
04:47:00,5,3,5,3,3,1,2,4,3
04:48:00,8,8,4,5,9,4,1,7,6
04:49:00,2,2,2,1,0,2,1,1,1
04:50:00,2,7,5,3,2,3,3,4,4
04:51:00,5,7,7,3,5,3,2,5,5
04:52:00,4,2,3,1,1,2,1,2,2
04:53:00,7,1,1,1,2,0,2,2,2
04:54:00,3,2,2,4,2,3,0,3,2
04:55:00,6,3,3,3,1,2,0,3,3
04:56:00,1,3,4,3,8,3,2,4,3
04:57:00,4,0,1,2,3,3,1,2,2
04:58:00,1,3,2,2,5,0,2,3,2
04:59:00,2,4,3,2,3,1,0,3,2
05:00:00,3,5,3,2,6,3,1,4,3
05:01:00,3,2,2,3,3,2,2,3,2
05:02:00,3,5,3,1,1,6,0,3,3
05:03:00,4,4,3,3,5,2,0,4,3
05:04:00,2,2,1,3,2,2,0,2,2
05:05:00,4,3,1,2,5,4,2,3,3
05:06:00,1,2,4,2,5,3,1,3,3
05:07:00,3,4,6,2,4,1,4,4,3
05:08:00,3,3,3,6,2,0,2,3,3
05:09:00,3,4,5,3,1,1,0,3,2
05:10:00,5,5,7,4,5,4,1,5,4
05:11:00,5,4,1,4,4,2,0,4,3
05:12:00,8,1,9,5,3,2,4,5,5
05:13:00,3,2,6,8,3,0,1,4,3
05:14:00,4,5,2,0,4,1,1,3,2
05:15:00,5,5,3,2,7,3,1,4,4
05:16:00,2,2,1,8,3,0,3,3,3
05:17:00,3,8,8,6,4,0,3,6,5
05:18:00,4,2,4,5,3,1,3,4,3
05:19:00,1,5,3,3,1,3,1,3,2
05:20:00,3,3,2,2,5,2,3,3,3
05:21:00,1,2,10,5,8,3,1,5,4
05:22:00,6,2,2,5,4,1,2,4,3
05:23:00,8,5,3,3,5,3,1,5,4
05:24:00,8,7,2,2,5,4,2,5,4
05:25:00,0,4,6,0,3,3,1,3,2
05:26:00,4,5,2,6,3,1,1,4,3
05:27:00,4,9,3,5,5,2,1,5,4
05:28:00,4,3,1,7,5,3,1,4,3
05:29:00,6,6,4,2,3,0,0,4,3
05:30:00,2,8,5,5,6,3,2,5,4
05:31:00,3,3,3,4,8,7,3,4,4
05:32:00,6,5,12,3,3,0,1,6,4
05:33:00,6,4,7,9,9,6,3,7,6
05:34:00,5,4,3,7,4,5,1,5,4
05:35:00,9,2,8,7,5,1,2,6,5
05:36:00,6,6,6,5,3,6,2,5,5
05:37:00,6,8,7,12,9,1,2,8,6
05:38:00,5,7,3,2,7,3,2,5,4
05:39:00,8,4,7,6,4,3,4,6,5
05:40:00,10,9,11,15,12,7,0,11,9
05:41:00,8,5,11,8,9,1,1,8,6
05:42:00,11,5,6,7,7,0,3,7,6
05:43:00,8,4,11,10,7,4,3,8,7
05:44:00,7,10,11,8,3,4,1,8,6
05:45:00,11,6,8,13,4,7,1,8,7
05:46:00,13,11,10,8,15,1,1,11,8
05:47:00,10,14,10,12,8,4,2,11,9
05:48:00,9,10,6,13,9,7,1,9,8
05:49:00,10,8,12,5,5,5,3,8,7
05:50:00,4,8,11,8,13,7,1,9,7
05:51:00,2,10,9,10,12,5,3,9,7
05:52:00,10,12,16,7,13,4,4,12,9
05:53:00,12,11,6,9,12,2,5,10,8
05:54:00,11,13,17,5,6,6,0,10,8
05:55:00,14,9,6,11,13,10,4,11,10
05:56:00,10,17,3,9,4,5,4,9,7
05:57:00,3,6,13,10,15,6,3,9,8
05:58:00,12,14,9,9,7,6,4,10,9
05:59:00,8,12,11,13,12,5,2,11,9
06:00:00,14,8,10,12,6,3,0,10,8
06:01:00,16,6,7,5,10,1,3,9,7
06:02:00,9,8,12,12,6,1,1,9,7
06:03:00,15,13,9,6,7,2,2,10,8
06:04:00,7,13,10,15,6,2,5,10,8
06:05:00,10,6,13,10,13,8,3,10,9
06:06:00,10,5,11,10,6,1,5,8,7
06:07:00,12,8,6,10,7,6,4,9,8
06:08:00,10,14,16,7,7,7,2,11,9
06:09:00,18,12,8,9,14,4,1,12,9
06:10:00,12,13,13,10,16,4,6,13,11
06:11:00,12,6,12,5,11,6,5,9,8
06:12:00,8,9,13,12,14,8,2,11,9
06:13:00,11,10,10,14,4,4,7,10,9
06:14:00,11,18,7,8,5,8,1,10,8
06:15:00,8,10,5,13,12,9,4,10,9
06:16:00,7,4,16,16,12,5,3,11,9
06:17:00,16,13,12,11,11,10,6,13,11
06:18:00,11,11,14,13,13,7,4,12,10
06:19:00,17,14,9,14,12,4,3,13,10
06:20:00,14,11,7,15,6,5,1,11,8
06:21:00,12,9,10,18,8,5,2,11,9
06:22:00,15,11,9,7,12,6,3,11,9
06:23:00,9,12,9,14,10,8,3,11,9
06:24:00,10,15,13,12,18,10,5,14,12
06:25:00,13,19,6,11,11,10,3,12,10
06:26:00,11,14,16,8,12,5,2,12,10
06:27:00,14,12,11,17,9,3,4,13,10
06:28:00,17,18,14,13,15,5,3,15,12
06:29:00,14,10,13,11,14,8,4,12,11
06:30:00,12,12,16,14,12,5,2,13,10
06:31:00,13,18,14,9,9,7,2,13,10
06:32:00,21,11,21,23,11,4,3,17,13
06:33:00,17,17,12,16,13,6,1,15,12
06:34:00,19,23,11,15,19,9,3,17,14
06:35:00,22,11,13,15,18,7,8,16,13
06:36:00,16,22,13,16,13,2,2,16,12
06:37:00,18,17,14,17,17,9,5,17,14
06:38:00,16,16,31,18,15,7,11,19,16
06:39:00,21,27,15,13,9,9,3,17,14
06:40:00,22,19,11,16,20,9,3,18,14
06:41:00,24,19,25,22,16,5,8,21,17
06:42:00,19,13,18,23,23,10,4,19,16
06:43:00,24,19,21,23,14,8,5,20,16
06:44:00,21,33,27,17,13,8,6,22,18
06:45:00,29,19,23,11,22,8,5,21,17
06:46:00,27,27,21,28,11,6,7,23,18
06:47:00,25,25,22,19,16,5,8,21,17
06:48:00,25,18,20,19,17,7,5,20,16
06:49:00,27,32,14,33,11,10,3,23,19
06:50:00,28,17,28,18,22,15,4,23,19
06:51:00,24,19,13,22,24,8,2,20,16
06:52:00,19,34,31,20,18,9,4,24,19
06:53:00,25,18,29,25,18,10,5,23,19
06:54:00,30,24,28,28,25,6,4,27,21
06:55:00,22,18,25,14,20,7,5,20,16
06:56:00,16,42,19,20,31,16,4,26,21
06:57:00,26,34,28,22,20,4,4,26,20
06:58:00,21,27,26,28,24,9,6,25,20
06:59:00,23,21,34,24,18,9,3,24,19
07:00:00,25,19,22,33,17,5,2,23,18
07:01:00,23,35,21,25,27,13,5,26,21
07:02:00,22,29,23,22,20,6,11,23,19
07:03:00,34,28,33,20,18,7,4,27,21
07:04:00,21,24,26,30,26,4,8,25,20
07:05:00,40,24,28,23,26,6,8,28,22
07:06:00,24,36,29,38,29,6,5,31,24
07:07:00,22,24,35,25,37,8,7,29,23
07:08:00,32,29,23,30,30,12,9,29,24
07:09:00,28,26,37,39,29,8,3,32,24
07:10:00,28,29,23,40,31,13,4,30,24
07:11:00,40,37,39,28,25,8,7,34,26
07:12:00,23,19,24,35,23,3,5,25,19
07:13:00,33,34,39,41,29,13,7,35,28
07:14:00,27,22,32,23,25,13,8,26,21
07:15:00,40,28,31,35,26,15,5,32,26
07:16:00,34,41,33,27,39,8,7,35,27
07:17:00,31,31,35,39,24,13,9,32,26
07:18:00,34,36,39,28,20,15,7,31,26
07:19:00,40,27,34,30,34,11,3,33,26
07:20:00,31,40,31,38,33,6,3,35,26
07:21:00,36,32,39,34,39,9,5,36,28
07:22:00,38,32,38,31,31,7,5,34,26
07:23:00,27,40,37,43,33,12,5,36,28
07:24:00,38,32,34,32,21,12,4,31,25
07:25:00,35,30,28,43,34,7,4,34,26
07:26:00,35,30,32,33,30,6,11,32,25
07:27:00,26,30,40,35,34,11,12,33,27
07:28:00,41,40,21,35,32,11,12,34,27
07:29:00,31,37,25,31,23,6,7,29,23
07:30:00,41,33,35,31,29,7,7,34,26
07:31:00,38,37,36,26,35,16,6,34,28
07:32:00,33,38,42,34,23,16,1,34,27
07:33:00,45,26,35,34,48,9,12,38,30
07:34:00,31,38,35,41,24,10,2,34,26
07:35:00,40,42,30,35,28,13,7,35,28
07:36:00,40,35,37,24,40,15,6,35,28
07:37:00,38,29,35,42,41,11,8,37,29
07:38:00,29,34,48,32,29,10,9,34,27
07:39:00,40,46,39,37,39,8,3,40,30
07:40:00,33,42,31,56,27,14,7,38,30
07:41:00,37,39,39,39,38,20,9,38,32
07:42:00,37,34,38,36,41,11,5,37,29
07:43:00,40,44,41,45,37,18,7,41,33
07:44:00,41,43,49,42,29,20,5,41,33
07:45:00,39,39,39,28,41,29,5,37,31
07:46:00,44,39,43,34,27,16,6,37,30
07:47:00,34,48,28,27,32,12,7,34,27
07:48:00,32,34,28,45,26,11,12,33,27
07:49:00,32,30,39,36,33,17,10,34,28
07:50:00,41,26,39,38,27,20,10,34,29
07:51:00,38,21,34,42,37,13,5,34,27
07:52:00,37,35,33,40,40,20,12,37,31
07:53:00,33,45,21,27,34,13,12,32,26
07:54:00,28,33,47,32,26,15,7,33,27
07:55:00,34,40,31,34,38,19,8,35,29
07:56:00,24,39,35,36,41,22,10,35,30
07:57:00,35,22,41,33,43,12,12,35,28
07:58:00,36,30,36,24,31,13,10,31,26
07:59:00,39,40,36,28,37,15,3,36,28
08:00:00,31,36,22,35,31,7,7,31,24
08:01:00,32,37,44,41,39,20,5,39,31
08:02:00,37,40,43,40,26,13,6,37,29
08:03:00,22,29,36,44,40,15,9,34,28
08:04:00,40,42,29,37,47,16,9,39,31
08:05:00,45,35,42,38,44,20,9,41,33
08:06:00,39,41,28,39,25,18,4,34,28
08:07:00,31,36,31,35,31,11,6,33,26
08:08:00,38,48,46,40,24,21,12,39,33
08:09:00,49,42,34,30,37,20,15,38,32
08:10:00,40,45,35,38,40,17,6,40,32
08:11:00,41,42,38,37,26,22,9,37,31
08:12:00,33,27,41,47,33,10,9,36,29
08:13:00,32,45,28,50,31,13,9,37,30
08:14:00,45,31,28,44,33,21,5,36,30
08:15:00,45,36,35,27,34,22,6,35,29
08:16:00,42,46,40,29,31,13,11,38,30
08:17:00,36,39,37,24,41,17,5,35,28
08:18:00,31,33,45,32,34,14,9,35,28
08:19:00,44,46,45,37,32,24,3,41,33
08:20:00,41,38,39,39,36,22,8,39,32
08:21:00,33,27,29,40,38,25,10,33,29
08:22:00,40,42,37,27,36,17,4,36,29
08:23:00,38,25,38,38,35,15,13,35,29
08:24:00,34,22,35,35,33,25,8,32,27
08:25:00,32,48,40,28,29,14,4,35,28
08:26:00,25,47,43,37,38,20,6,38,31
08:27:00,40,44,42,46,42,17,12,43,35
08:28:00,32,39,28,42,42,12,6,37,29
08:29:00,41,32,21,39,41,16,8,35,28
08:30:00,38,36,40,44,29,22,9,37,31
08:31:00,37,40,49,38,35,21,5,40,32
08:32:00,36,30,42,33,41,20,5,36,30
08:33:00,38,33,40,44,33,15,9,38,30
08:34:00,36,46,44,41,38,27,10,41,35
08:35:00,43,39,42,33,32,22,10,38,32
08:36:00,36,48,45,38,34,23,11,40,34
08:37:00,39,39,41,36,47,26,7,40,34
08:38:00,35,39,34,37,29,20,7,35,29
08:39:00,44,40,37,33,40,28,10,39,33
08:40:00,42,42,41,38,39,29,8,40,34
08:41:00,45,34,48,42,33,27,7,40,34
08:42:00,39,26,35,30,34,14,12,33,27
08:43:00,32,38,42,42,39,20,9,39,32
08:44:00,38,43,40,41,21,23,10,37,31
08:45:00,51,32,37,45,24,35,6,38,33
08:46:00,32,32,29,39,47,29,16,36,32
08:47:00,28,32,31,39,33,21,19,33,29
08:48:00,41,40,39,43,31,34,11,39,34
08:49:00,41,40,39,41,29,26,12,38,33
08:50:00,35,30,42,34,51,27,11,38,33
08:51:00,26,42,28,40,32,28,16,34,30
08:52:00,40,48,45,39,30,29,15,40,35
08:53:00,44,29,35,33,37,22,13,36,30
08:54:00,26,34,40,40,36,35,13,35,32
08:55:00,41,28,30,42,27,25,12,34,29
08:56:00,44,39,41,40,25,18,19,38,32
08:57:00,40,41,24,29,38,22,14,34,30
08:58:00,39,48,32,29,35,23,12,37,31
08:59:00,35,30,40,30,38,23,10,35,29
09:00:00,24,37,40,47,32,31,11,36,32
09:01:00,42,34,35,43,30,22,7,37,30
09:02:00,30,33,40,33,40,12,16,35,29
09:03:00,39,32,49,21,35,18,12,35,29
09:04:00,39,31,36,28,35,24,9,34,29
09:05:00,46,38,41,30,30,37,13,37,34
09:06:00,30,28,39,45,32,25,19,35,31
09:07:00,29,33,38,49,30,18,18,36,31
09:08:00,31,30,37,27,24,23,10,30,26
09:09:00,36,24,38,31,37,23,14,33,29
09:10:00,50,35,39,40,35,21,14,40,33
09:11:00,42,36,23,37,35,25,19,35,31
09:12:00,33,24,30,44,26,13,9,31,26
09:13:00,38,25,33,39,28,21,19,33,29
09:14:00,44,34,36,39,37,26,21,38,34
09:15:00,23,26,23,33,33,27,25,28,27
09:16:00,36,25,29,38,37,30,24,33,31
09:17:00,50,27,35,32,30,23,19,35,31
09:18:00,21,33,36,32,30,16,20,30,27
09:19:00,44,32,37,28,30,18,22,34,30
09:20:00,28,36,45,34,36,20,18,36,31
09:21:00,35,40,34,41,23,25,22,35,31
09:22:00,38,38,28,32,38,33,13,35,31
09:23:00,35,38,34,42,39,33,14,38,34
09:24:00,34,26,38,26,32,17,12,31,26
09:25:00,37,28,42,30,34,19,16,34,29
09:26:00,21,45,26,36,31,30,21,32,30
09:27:00,29,34,31,32,26,22,20,30,28
09:28:00,33,32,39,38,37,26,12,36,31
09:29:00,33,37,33,39,34,24,20,35,31
09:30:00,28,31,31,28,36,27,14,31,28
09:31:00,38,40,32,33,34,26,14,35,31
09:32:00,27,36,34,40,40,24,19,35,31
09:33:00,41,43,33,42,25,36,18,37,34
09:34:00,31,38,36,36,31,27,18,34,31
09:35:00,32,39,32,33,34,34,10,34,31
09:36:00,37,35,35,31,24,29,22,32,30
09:37:00,36,23,38,47,31,28,22,35,32
09:38:00,31,45,34,35,42,26,12,37,32
09:39:00,34,37,21,19,35,22,25,29,28
09:40:00,45,35,35,42,40,37,23,39,37
09:41:00,34,38,41,20,26,26,13,32,28
09:42:00,25,31,40,36,27,39,14,32,30
09:43:00,41,44,25,36,39,46,22,37,36
09:44:00,34,38,45,41,28,25,23,37,33
09:45:00,28,27,31,35,35,32,17,31,29
09:46:00,34,32,28,34,34,37,19,32,31
09:47:00,30,35,28,40,44,33,29,35,34
09:48:00,34,28,42,35,32,39,19,34,33
09:49:00,27,25,27,38,36,35,33,31,32
09:50:00,33,34,32,32,40,31,18,34,31
09:51:00,32,26,39,30,23,37,27,30,31
09:52:00,31,35,36,38,41,31,30,36,35
09:53:00,25,26,31,34,36,35,23,30,30
09:54:00,28,29,42,35,30,37,28,33,33
09:55:00,29,36,41,30,22,36,22,32,31
09:56:00,33,36,29,22,47,41,31,33,34
09:57:00,43,33,34,36,39,39,29,37,36
09:58:00,23,20,38,33,44,36,24,32,31
09:59:00,23,48,28,38,50,36,19,37,35
10:00:00,32,33,42,24,38,27,35,34,33
10:01:00,25,29,30,28,29,27,16,28,26
10:02:00,24,30,36,32,33,26,31,31,30
10:03:00,33,41,30,22,43,34,24,34,32
10:04:00,22,39,27,34,35,44,22,31,32
10:05:00,30,30,31,35,32,34,22,32,31
10:06:00,32,23,30,35,33,53,20,31,32
10:07:00,26,36,30,28,37,25,27,31,30
10:08:00,42,26,35,29,33,44,33,33,35
10:09:00,33,42,30,29,41,48,27,35,36
10:10:00,27,32,40,29,28,40,31,31,32
10:11:00,30,29,24,40,28,32,30,30,30
10:12:00,24,27,39,37,30,34,32,31,32
10:13:00,37,34,31,34,28,33,23,33,31
10:14:00,24,33,22,36,36,39,29,30,31
10:15:00,28,27,38,34,46,35,22,35,33
10:16:00,26,41,22,24,40,31,24,31,30
10:17:00,30,29,27,32,33,28,20,30,28
10:18:00,36,32,33,24,38,33,33,33,33
10:19:00,26,28,32,29,30,40,22,29,30
10:20:00,27,28,25,29,30,33,26,28,28
10:21:00,34,23,35,42,32,29,39,33,33
10:22:00,38,34,36,41,37,36,36,37,37
10:23:00,17,36,38,40,27,32,29,32,31
10:24:00,25,29,36,45,34,35,35,34,34
10:25:00,29,30,29,27,39,39,26,31,31
10:26:00,28,30,43,41,34,35,22,35,33
10:27:00,35,25,29,37,41,42,29,33,34
10:28:00,34,40,38,31,36,24,32,36,34
10:29:00,33,40,39,32,34,32,39,36,36
10:30:00,38,42,31,36,39,43,36,37,38
10:31:00,28,30,30,42,42,27,40,34,34
10:32:00,44,25,34,28,37,31,37,34,34
10:33:00,32,32,25,32,41,33,38,32,33
10:34:00,37,36,40,40,33,38,39,37,38
10:35:00,38,27,33,24,36,42,31,32,33
10:36:00,31,35,43,31,41,41,23,36,35
10:37:00,40,38,52,46,41,50,31,43,43
10:38:00,30,36,37,26,28,41,18,31,31
10:39:00,39,44,34,33,40,38,27,38,36
10:40:00,26,37,41,31,33,39,34,34,34
10:41:00,38,34,39,20,45,33,46,35,36
10:42:00,37,29,30,27,45,43,35,34,35
10:43:00,43,45,27,47,40,42,37,40,40
10:44:00,25,31,41,26,41,32,39,33,34
10:45:00,39,34,31,30,37,34,47,34,36
10:46:00,33,38,29,20,28,51,37,30,34
10:47:00,28,33,24,31,38,35,31,31,31
10:48:00,38,33,33,35,39,35,35,36,35
10:49:00,35,32,39,33,46,40,35,37,37
10:50:00,34,41,44,33,36,38,46,38,39
10:51:00,38,26,41,38,41,40,38,37,37
10:52:00,35,29,23,40,39,38,38,33,35
10:53:00,27,43,23,36,43,38,35,34,35
10:54:00,39,37,25,32,28,32,30,32,32
10:55:00,34,31,37,36,42,38,29,36,35
10:56:00,16,38,29,40,43,47,42,33,36
10:57:00,25,31,42,22,38,34,36,32,33
10:58:00,46,33,28,34,26,32,35,33,33
10:59:00,34,26,29,32,37,24,38,32,31
11:00:00,24,35,31,39,35,44,24,33,33
11:01:00,33,37,37,39,36,22,42,36,35
11:02:00,39,29,27,38,39,41,43,34,37
11:03:00,34,31,38,34,38,37,33,35,35
11:04:00,31,32,36,34,30,37,40,33,34
11:05:00,30,31,20,53,45,40,44,36,38
11:06:00,24,27,31,23,27,28,38,26,28
11:07:00,29,31,35,33,35,41,35,33,34
11:08:00,26,35,33,31,31,34,38,31,33
11:09:00,27,26,35,34,41,38,37,33,34
11:10:00,38,24,28,30,39,47,28,32,33
11:11:00,29,34,26,35,39,36,32,33,33
11:12:00,29,40,40,35,38,44,35,36,37
11:13:00,31,41,30,37,41,45,34,36,37
11:14:00,18,35,29,22,36,38,45,28,32
11:15:00,31,40,30,44,37,36,35,36,36
11:16:00,35,26,37,36,29,33,40,33,34
11:17:00,32,39,29,30,38,34,45,34,35
11:18:00,31,35,34,38,36,54,39,35,38
11:19:00,41,25,34,30,38,36,37,34,34
11:20:00,33,38,31,25,48,46,47,35,38
11:21:00,34,28,35,43,40,41,36,36,37
11:22:00,33,26,28,34,38,35,45,32,34
11:23:00,29,35,27,28,35,44,39,31,34
11:24:00,25,29,27,33,36,41,38,30,33
11:25:00,45,28,34,51,39,35,39,39,39
11:26:00,31,29,48,23,47,37,40,36,36
11:27:00,26,44,40,30,43,29,37,37,36
11:28:00,40,28,39,32,40,50,33,36,37
11:29:00,27,33,41,30,28,43,32,32,33
11:30:00,41,29,41,23,33,35,39,33,34
11:31:00,32,21,34,20,30,35,39,27,30
11:32:00,30,36,35,31,38,45,37,34,36
11:33:00,32,31,32,33,30,38,35,32,33
11:34:00,43,26,38,33,35,36,46,35,37
11:35:00,28,35,23,29,35,33,55,30,34
11:36:00,41,31,41,26,38,41,44,35,37
11:37:00,35,26,36,48,42,33,44,37,38
11:38:00,38,37,37,19,52,43,50,37,39
11:39:00,33,35,38,36,36,38,48,36,38
11:40:00,37,33,41,45,45,38,36,40,39
11:41:00,32,39,32,38,49,38,35,38,38
11:42:00,28,37,32,41,31,40,37,34,35
11:43:00,43,44,31,37,39,33,37,39,38
11:44:00,33,43,39,43,42,28,43,40,39
11:45:00,46,34,36,40,41,42,39,39,40
11:46:00,34,28,40,28,45,41,44,35,37
11:47:00,41,35,30,39,40,50,46,37,40
11:48:00,35,25,36,35,41,37,46,34,36
11:49:00,30,39,32,30,31,31,29,32,32
11:50:00,36,42,41,46,41,31,46,41,40
11:51:00,29,43,38,34,34,30,23,36,33
11:52:00,36,31,26,33,42,44,34,34,35
11:53:00,39,33,41,39,34,36,36,37,37
11:54:00,34,35,33,39,40,40,36,36,37
11:55:00,44,41,48,30,33,31,42,39,38
11:56:00,30,44,52,50,31,37,33,41,40
11:57:00,36,34,43,34,31,35,37,36,36
11:58:00,36,37,35,36,46,42,42,38,39
11:59:00,32,29,22,31,37,32,38,30,32
12:00:00,33,43,36,36,44,45,39,38,39
12:01:00,38,27,44,41,38,48,48,38,41
12:02:00,31,27,43,33,42,46,48,35,39
12:03:00,30,48,39,39,24,35,31,36,35
12:04:00,40,34,41,50,41,48,41,41,42
12:05:00,50,36,35,29,47,42,37,39,39
12:06:00,38,43,41,40,47,35,38,42,40
12:07:00,45,39,39,40,42,26,40,41,39
12:08:00,34,40,45,36,40,44,28,39,38
12:09:00,29,27,37,40,46,40,37,36,37
12:10:00,39,47,37,43,56,40,39,44,43
12:11:00,36,40,38,41,43,49,41,40,41
12:12:00,34,38,24,31,40,57,42,33,38
12:13:00,41,35,37,38,41,40,43,38,39
12:14:00,27,25,36,28,48,35,41,33,34
12:15:00,36,31,28,35,38,57,38,34,38
12:16:00,35,47,28,30,42,51,40,36,39
12:17:00,43,31,35,39,32,38,34,36,36
12:18:00,38,32,26,49,32,55,34,35,38
12:19:00,30,23,39,36,42,29,43,34,35
12:20:00,32,37,36,30,46,45,48,36,39
12:21:00,36,41,34,33,43,30,45,37,37
12:22:00,26,38,36,40,37,48,43,35,38
12:23:00,28,32,37,41,40,43,41,36,37
12:24:00,26,32,48,33,35,40,44,35,37
12:25:00,42,33,41,50,31,32,36,39,38
12:26:00,27,34,37,38,36,52,48,34,39
12:27:00,40,36,40,46,50,42,39,42,42
12:28:00,34,54,35,30,38,46,30,38,38
12:29:00,38,40,27,34,37,34,42,35,36
12:30:00,30,33,32,43,38,41,47,35,38
12:31:00,33,37,25,38,37,37,36,34,35
12:32:00,45,29,36,36,32,36,26,36,34
12:33:00,43,45,41,32,28,30,47,38,38
12:34:00,26,35,41,32,34,45,33,34,35
12:35:00,40,26,32,39,48,49,38,37,39
12:36:00,49,30,35,48,37,38,42,40,40
12:37:00,37,39,50,38,38,39,35,40,39
12:38:00,38,37,37,35,50,37,50,39,41
12:39:00,30,26,24,36,37,42,38,31,33
12:40:00,50,52,36,32,51,33,44,44,43
12:41:00,36,32,32,40,32,38,53,34,38
12:42:00,42,42,43,48,38,35,33,43,40
12:43:00,34,32,40,22,40,36,41,34,35
12:44:00,42,49,28,29,36,34,38,37,37
12:45:00,34,31,37,54,42,43,40,40,40
12:46:00,35,30,39,36,34,35,43,35,36
12:47:00,27,33,32,32,35,35,38,32,33
12:48:00,36,32,41,40,40,38,36,38,38
12:49:00,23,26,34,40,46,41,34,34,35
12:50:00,36,41,37,38,57,38,32,42,40
12:51:00,31,35,36,37,41,36,32,36,35
12:52:00,45,26,43,39,21,35,30,35,34
12:53:00,41,43,24,37,35,38,38,36,37
12:54:00,35,31,31,30,51,43,36,36,37
12:55:00,37,41,44,39,38,39,38,40,39
12:56:00,31,43,42,34,34,44,47,37,39
12:57:00,38,38,52,40,37,40,37,41,40
12:58:00,33,34,41,34,36,34,50,36,37
12:59:00,37,36,41,33,33,35,47,36,37
13:00:00,34,43,39,32,39,33,34,37,36
13:01:00,39,28,35,44,35,34,36,36,36
13:02:00,31,40,38,41,40,36,44,38,39
13:03:00,38,41,31,34,39,39,44,37,38
13:04:00,40,40,44,44,42,41,30,42,40
13:05:00,41,30,38,40,52,48,38,40,41
13:06:00,42,48,30,36,45,41,33,40,39
13:07:00,22,43,41,44,29,40,45,36,38
13:08:00,27,28,37,43,42,32,39,35,35
13:09:00,33,49,38,30,35,37,33,37,36
13:10:00,42,27,29,34,43,39,32,35,35
13:11:00,32,34,41,42,47,48,36,39,40
13:12:00,36,28,31,36,46,45,38,35,37
13:13:00,27,37,38,42,43,49,37,37,39
13:14:00,37,33,32,39,40,40,40,36,37
13:15:00,39,28,34,41,34,56,36,35,38
13:16:00,34,38,32,41,52,52,39,39,41
13:17:00,40,39,45,28,32,39,37,37,37
13:18:00,37,44,37,43,45,31,44,41,40
13:19:00,39,36,41,40,31,27,33,37,35
13:20:00,39,54,26,29,53,36,37,40,39
13:21:00,37,31,33,27,41,44,39,34,36
13:22:00,30,28,31,41,46,32,29,35,34
13:23:00,22,46,37,56,38,43,23,40,38
13:24:00,47,38,36,28,42,29,32,38,36
13:25:00,43,35,39,38,29,44,37,37,38
13:26:00,29,35,41,37,46,32,41,38,37
13:27:00,39,29,33,43,40,41,35,37,37
13:28:00,32,31,41,53,37,43,34,39,39
13:29:00,38,43,30,44,43,38,34,40,39
13:30:00,35,35,26,35,47,44,34,36,37
13:31:00,37,40,31,30,50,45,36,38,38
13:32:00,46,46,47,35,38,26,41,42,40
13:33:00,43,36,40,39,30,48,24,38,37
13:34:00,31,36,37,29,39,50,28,34,36
13:35:00,42,36,36,46,44,22,40,41,38
13:36:00,37,35,30,37,41,46,36,36,37
13:37:00,38,42,47,38,46,35,23,42,38
13:38:00,37,28,38,53,40,38,50,39,41
13:39:00,32,31,37,36,40,47,47,35,39
13:40:00,28,36,36,34,43,38,34,35,36
13:41:00,47,36,33,24,42,37,42,36,37
13:42:00,47,35,39,42,41,36,39,41,40
13:43:00,40,40,28,32,39,23,37,36,34
13:44:00,45,47,37,44,35,32,39,42,40
13:45:00,41,37,44,35,44,41,28,40,39
13:46:00,29,41,35,41,32,41,36,36,36
13:47:00,38,41,35,54,30,41,39,40,40
13:48:00,43,33,42,41,43,41,37,40,40
13:49:00,37,37,36,42,45,46,36,39,40
13:50:00,27,43,32,37,53,37,29,38,37
13:51:00,36,31,41,31,29,31,45,34,35
13:52:00,39,36,41,34,34,47,28,37,37
13:53:00,32,26,41,38,49,39,37,37,37
13:54:00,44,29,41,40,45,35,30,40,38
13:55:00,34,42,31,49,49,43,32,41,40
13:56:00,32,34,42,34,46,36,38,38,37
13:57:00,51,38,38,33,41,27,40,40,38
13:58:00,35,28,50,46,49,41,36,42,41
13:59:00,34,31,28,44,49,43,39,37,38
14:00:00,39,32,46,40,41,30,24,40,36
14:01:00,33,31,28,37,36,39,43,33,35
14:02:00,38,28,44,28,35,37,39,35,36
14:03:00,26,30,35,28,40,29,26,32,31
14:04:00,42,41,38,46,45,39,41,42,42
14:05:00,47,29,44,30,41,37,31,38,37
14:06:00,28,32,42,34,41,42,46,35,38
14:07:00,37,31,41,46,41,31,33,39,37
14:08:00,32,45,37,40,39,41,44,39,40
14:09:00,50,38,34,43,37,40,35,40,40
14:10:00,30,44,28,32,41,40,52,35,38
14:11:00,40,37,44,38,40,41,41,40,40
14:12:00,44,31,32,31,42,26,35,36,34
14:13:00,43,29,44,37,35,35,43,38,38
14:14:00,37,45,33,35,27,26,28,35,33
14:15:00,43,31,38,36,31,42,29,36,36
14:16:00,33,38,35,43,40,36,43,38,38
14:17:00,44,44,39,35,58,38,42,44,43
14:18:00,38,35,23,41,46,38,43,37,38
14:19:00,41,36,41,39,43,37,25,40,37
14:20:00,34,37,38,34,49,40,35,38,38
14:21:00,35,26,43,39,26,32,39,34,34
14:22:00,45,45,34,41,44,44,32,42,41
14:23:00,37,50,35,38,33,47,33,39,39
14:24:00,42,36,41,42,39,44,38,40,40
14:25:00,37,47,37,39,46,43,44,41,42
14:26:00,30,38,26,27,42,32,36,33,33
14:27:00,34,37,41,23,42,43,30,35,36
14:28:00,23,44,33,37,42,26,30,36,34
14:29:00,31,33,33,41,46,32,41,37,37
14:30:00,35,49,44,43,47,35,32,44,41
14:31:00,47,41,36,38,41,39,34,41,39
14:32:00,33,26,34,28,42,43,38,33,35
14:33:00,29,31,40,36,33,39,30,34,34
14:34:00,36,28,50,31,37,41,42,36,38
14:35:00,27,29,39,41,42,38,40,36,37
14:36:00,39,41,33,29,34,51,43,35,39
14:37:00,38,39,38,41,41,40,34,39,39
14:38:00,41,31,32,36,30,44,25,34,34
14:39:00,45,40,36,48,46,44,33,43,42
14:40:00,35,34,48,32,37,40,57,37,40
14:41:00,30,39,36,26,45,45,35,35,37
14:42:00,34,38,35,40,29,37,31,35,35
14:43:00,34,41,34,35,45,41,37,38,38
14:44:00,42,39,34,35,45,33,32,39,37
14:45:00,43,39,32,41,40,37,30,39,37
14:46:00,28,46,26,33,43,38,43,35,37
14:47:00,38,32,36,43,38,26,43,37,37
14:48:00,34,32,34,44,37,53,35,36,38
14:49:00,36,29,44,39,43,46,42,38,40
14:50:00,37,28,35,35,35,47,35,34,36
14:51:00,35,40,45,42,47,32,41,42,40
14:52:00,42,47,39,40,41,33,31,42,39
14:53:00,41,43,34,34,37,35,33,38,37
14:54:00,41,45,34,38,37,25,39,39,37
14:55:00,27,40,27,38,48,37,40,36,37
14:56:00,37,39,43,36,34,35,28,38,36
14:57:00,26,35,25,38,37,35,40,32,34
14:58:00,41,38,34,35,37,32,31,37,35
14:59:00,46,41,49,38,36,35,31,42,39
15:00:00,23,32,38,31,42,41,41,33,35
15:01:00,36,49,43,36,35,34,42,40,39
15:02:00,38,42,37,41,43,32,34,40,38
15:03:00,42,39,48,39,37,54,31,41,41
15:04:00,38,42,40,36,41,37,34,39,38
15:05:00,37,38,36,33,44,38,35,38,37
15:06:00,39,37,40,39,49,32,33,41,38
15:07:00,40,41,40,45,40,43,32,41,40
15:08:00,37,40,50,44,37,34,23,42,38
15:09:00,48,39,39,43,39,39,37,42,41
15:10:00,35,35,41,42,39,32,32,38,37
15:11:00,44,41,51,48,40,35,28,45,41
15:12:00,39,33,37,41,43,32,36,39,37
15:13:00,34,38,33,37,41,35,26,37,35
15:14:00,33,43,36,29,38,33,35,36,35
15:15:00,51,30,39,39,34,36,36,39,38
15:16:00,38,40,36,37,42,33,42,39,38
15:17:00,38,30,42,37,31,25,29,36,33
15:18:00,29,51,46,34,50,33,31,42,39
15:19:00,38,33,40,44,40,45,34,39,39
15:20:00,37,40,40,27,50,39,40,39,39
15:21:00,39,38,42,38,47,37,30,41,39
15:22:00,39,38,28,28,31,37,27,33,33
15:23:00,43,32,40,45,45,40,32,41,40
15:24:00,33,29,27,29,34,41,23,30,31
15:25:00,35,34,38,51,37,41,32,39,38
15:26:00,32,45,31,46,49,48,39,41,41
15:27:00,38,35,43,44,45,34,27,41,38
15:28:00,36,32,42,33,38,42,37,36,37
15:29:00,54,31,51,43,40,32,34,44,41
15:30:00,36,40,35,38,42,35,33,38,37
15:31:00,31,37,29,38,43,33,28,36,34
15:32:00,36,48,40,38,36,23,33,40,36
15:33:00,40,39,38,34,43,38,33,39,38
15:34:00,43,42,51,32,39,31,31,41,38
15:35:00,37,38,35,45,44,36,43,40,40
15:36:00,36,39,34,41,49,35,28,40,37
15:37:00,34,32,38,40,35,40,29,36,35
15:38:00,26,33,39,36,36,37,30,34,34
15:39:00,40,44,42,42,46,40,27,43,40
15:40:00,40,39,38,38,38,38,20,39,36
15:41:00,33,42,40,39,38,36,26,38,36
15:42:00,39,49,42,40,47,29,42,43,41
15:43:00,35,37,40,28,43,31,32,37,35
15:44:00,32,44,29,46,46,37,30,39,38
15:45:00,32,39,33,28,48,39,26,36,35
15:46:00,32,32,34,42,37,37,32,35,35
15:47:00,32,27,32,35,46,30,33,34,34
15:48:00,35,41,56,49,46,35,36,45,43
15:49:00,40,35,47,41,38,35,29,40,38
15:50:00,36,32,47,34,47,41,33,39,39
15:51:00,31,43,31,31,48,37,24,37,35
15:52:00,42,41,45,44,36,35,23,42,38
15:53:00,42,37,42,35,46,42,33,40,40
15:54:00,45,34,45,43,46,31,28,43,39
15:55:00,31,32,37,46,44,29,17,38,34
15:56:00,42,46,37,34,46,26,28,41,37
15:57:00,37,37,47,35,43,42,36,40,40
15:58:00,41,37,46,43,42,33,30,42,39
15:59:00,47,44,38,38,48,37,29,43,40
16:00:00,39,37,37,27,48,35,32,38,36
16:01:00,45,33,36,50,45,31,23,42,38
16:02:00,26,37,34,48,37,22,41,36,35
16:03:00,50,41,57,47,40,31,36,47,43
16:04:00,25,48,50,33,46,33,28,40,38
16:05:00,41,38,37,49,42,31,26,41,38
16:06:00,45,47,37,45,31,30,30,41,38
16:07:00,45,46,31,41,45,39,21,42,38
16:08:00,46,45,50,40,39,25,23,44,38
16:09:00,37,34,35,43,40,45,30,38,38
16:10:00,40,42,46,37,56,36,33,44,41
16:11:00,36,37,41,41,47,32,28,40,37
16:12:00,37,48,46,43,49,39,27,45,41
16:13:00,42,39,38,45,36,36,23,40,37
16:14:00,32,32,40,40,32,28,22,35,32
16:15:00,49,44,56,49,36,38,39,47,44
16:16:00,38,43,49,45,40,42,30,43,41
16:17:00,31,50,41,35,36,35,25,39,36
16:18:00,49,41,43,51,48,21,27,46,40
16:19:00,41,42,33,52,38,36,26,41,38
16:20:00,44,34,37,37,43,33,24,39,36
16:21:00,54,39,48,42,47,33,22,46,41
16:22:00,31,37,43,32,34,24,22,35,32
16:23:00,31,45,39,41,45,35,26,40,37
16:24:00,44,39,48,47,42,35,33,44,41
16:25:00,50,40,48,43,46,30,30,45,41
16:26:00,37,42,39,40,33,36,21,38,35
16:27:00,40,53,44,46,39,28,23,44,39
16:28:00,40,40,35,38,44,24,22,39,35
16:29:00,36,42,32,24,41,27,21,35,32
16:30:00,35,39,40,29,42,35,23,37,35
16:31:00,45,37,42,42,37,35,15,41,36
16:32:00,48,47,42,41,47,31,31,45,41
16:33:00,44,48,32,42,41,36,22,41,38
16:34:00,42,42,51,31,42,31,19,42,37
16:35:00,50,39,41,46,41,31,21,43,38
16:36:00,44,36,38,54,47,31,18,44,38
16:37:00,39,29,42,38,36,32,24,37,34
16:38:00,33,44,40,36,49,18,20,40,34
16:39:00,27,40,49,45,44,27,26,41,37
16:40:00,36,44,33,52,38,35,29,41,38
16:41:00,41,37,39,43,38,34,19,40,36
16:42:00,42,43,44,39,36,34,14,41,36
16:43:00,45,50,43,50,40,32,22,46,40
16:44:00,48,40,48,40,33,26,28,42,38
16:45:00,44,32,36,47,39,28,14,40,34
16:46:00,44,40,47,39,46,29,16,43,37
16:47:00,33,49,33,36,50,19,19,40,34
16:48:00,53,43,49,51,50,31,21,49,43
16:49:00,44,48,47,46,35,22,19,44,37
16:50:00,44,42,46,39,47,32,14,44,38
16:51:00,23,40,40,47,48,27,30,40,36
16:52:00,38,39,48,41,36,22,22,40,35
16:53:00,40,54,49,34,41,26,22,44,38
16:54:00,36,42,43,44,36,27,24,40,36
16:55:00,41,43,43,47,47,33,19,44,39
16:56:00,50,42,38,38,46,28,13,43,36
16:57:00,41,48,41,50,36,31,11,43,37
16:58:00,40,30,39,40,37,21,13,37,31
16:59:00,39,39,42,41,36,23,22,39,35
17:00:00,37,42,32,31,46,36,14,38,34
17:01:00,41,39,54,39,45,45,22,44,41
17:02:00,52,40,45,44,35,37,13,43,38
17:03:00,35,47,46,47,50,36,24,45,41
17:04:00,43,38,41,41,35,34,17,40,36
17:05:00,41,48,44,36,48,34,19,43,39
17:06:00,35,50,44,32,41,25,15,40,35
17:07:00,49,34,39,47,37,27,18,41,36
17:08:00,52,42,37,55,54,40,19,48,43
17:09:00,48,48,31,52,48,26,18,45,39
17:10:00,43,44,58,34,42,25,17,44,38
17:11:00,48,41,39,43,44,35,11,43,37
17:12:00,38,48,50,38,34,17,17,42,35
17:13:00,38,41,46,37,47,46,11,42,38
17:14:00,23,44,53,46,43,36,9,42,36
17:15:00,23,48,44,42,46,31,15,41,36
17:16:00,32,42,48,44,48,30,17,43,37
17:17:00,34,45,40,42,48,21,17,42,35
17:18:00,44,50,31,53,36,33,20,43,38
17:19:00,46,52,34,45,38,26,21,43,37
17:20:00,39,50,40,40,35,29,19,41,36
17:21:00,40,46,47,50,40,25,19,45,38
17:22:00,40,38,37,53,29,17,15,39,33
17:23:00,41,47,42,47,25,27,20,40,36
17:24:00,50,40,48,51,35,24,17,45,38
17:25:00,42,48,48,47,43,21,13,46,37
17:26:00,43,43,49,41,36,26,14,42,36
17:27:00,40,36,56,34,43,28,20,42,37
17:28:00,31,43,40,34,40,26,10,38,32
17:29:00,33,38,50,42,39,19,14,40,34
17:30:00,50,50,49,41,31,26,16,44,38
17:31:00,47,47,45,46,39,21,16,45,37
17:32:00,34,45,38,44,14,36,14,35,32
17:33:00,39,34,43,36,29,28,16,36,32
17:34:00,33,45,36,41,31,24,18,37,33
17:35:00,51,40,47,46,30,16,17,43,35
17:36:00,46,45,38,43,39,27,12,42,36
17:37:00,48,47,45,36,38,27,9,43,36
17:38:00,38,51,48,46,29,25,21,42,37
17:39:00,34,38,38,30,41,38,20,36,34
17:40:00,46,44,33,38,30,26,12,38,33
17:41:00,46,40,37,41,27,31,16,38,34
17:42:00,48,32,34,38,52,17,25,41,35
17:43:00,48,45,38,34,33,34,23,40,36
17:44:00,40,41,32,36,19,27,18,34,30
17:45:00,40,34,42,44,27,30,18,37,34
17:46:00,48,43,35,43,36,33,17,41,36
17:47:00,42,50,43,32,43,18,12,42,34
17:48:00,42,35,40,45,32,33,21,39,35
17:49:00,41,40,38,30,41,22,20,38,33
17:50:00,46,44,50,43,24,27,16,41,36
17:51:00,45,34,33,27,41,21,14,36,31
17:52:00,38,32,37,36,37,27,13,36,31
17:53:00,43,28,30,34,33,23,24,34,31
17:54:00,28,43,36,32,40,22,16,36,31
17:55:00,38,38,39,36,34,25,17,37,32
17:56:00,24,37,35,36,33,15,13,33,28
17:57:00,44,32,29,25,29,25,10,32,28
17:58:00,33,35,37,27,32,24,15,33,29
17:59:00,40,34,51,52,32,26,10,42,35
18:00:00,35,37,34,32,27,20,12,33,28
18:01:00,31,39,37,29,35,22,11,34,29
18:02:00,39,35,32,40,36,18,15,36,31
18:03:00,40,29,32,40,28,25,11,34,29
18:04:00,42,33,43,31,43,31,20,38,35
18:05:00,42,45,41,32,32,20,13,38,32
18:06:00,27,36,31,39,37,23,13,34,29
18:07:00,50,36,40,35,32,31,19,39,35
18:08:00,32,30,40,41,26,26,21,34,31
18:09:00,44,37,36,37,43,23,23,39,35
18:10:00,42,38,24,36,27,25,16,33,30
18:11:00,43,32,43,42,34,39,21,39,36
18:12:00,37,32,32,34,32,28,24,33,31
18:13:00,34,43,41,30,42,21,17,38,33
18:14:00,39,39,31,51,27,25,14,37,32
18:15:00,42,38,39,37,35,28,13,38,33
18:16:00,45,32,37,31,26,29,18,34,31
18:17:00,30,30,30,36,27,26,12,31,27
18:18:00,25,29,32,33,38,15,16,31,27
18:19:00,38,44,20,28,35,28,7,33,29
18:20:00,36,28,31,37,31,28,15,33,29
18:21:00,35,34,33,31,31,24,7,33,28
18:22:00,34,36,37,36,33,23,11,35,30
18:23:00,35,30,29,22,37,17,17,31,27
18:24:00,25,44,34,31,26,20,21,32,29
18:25:00,37,30,31,28,33,11,13,32,26
18:26:00,25,23,37,26,29,27,12,28,26
18:27:00,26,43,28,33,37,24,18,33,30
18:28:00,27,33,36,31,24,29,19,30,28
18:29:00,29,29,22,27,26,13,16,27,23
18:30:00,38,28,28,29,23,24,18,29,27
18:31:00,28,26,29,34,25,23,10,28,25
18:32:00,24,30,19,33,26,33,10,26,25
18:33:00,38,31,34,31,32,25,24,33,31
18:34:00,19,27,25,29,27,28,13,25,24
18:35:00,34,28,23,38,36,13,15,32,27
18:36:00,30,39,34,32,31,22,20,33,30
18:37:00,25,32,37,33,35,23,16,32,29
18:38:00,28,25,34,23,32,20,20,28,26
18:39:00,21,32,28,35,35,18,17,30,27
18:40:00,25,28,22,28,28,22,14,26,24
18:41:00,22,22,25,21,31,15,12,24,21
18:42:00,19,26,30,32,27,23,14,27,24
18:43:00,34,18,18,29,40,25,18,28,26
18:44:00,24,44,30,18,26,26,15,28,26
18:45:00,28,27,20,32,25,17,14,26,23
18:46:00,26,26,19,26,22,23,16,24,23
18:47:00,33,40,30,33,25,27,14,32,29
18:48:00,19,34,35,26,27,23,19,28,26
18:49:00,24,30,20,28,24,28,15,25,24
18:50:00,21,37,31,27,25,16,15,28,25
18:51:00,32,31,21,29,48,19,14,32,28
18:52:00,28,27,46,32,30,26,16,33,29
18:53:00,27,38,31,21,35,26,15,30,28
18:54:00,21,24,29,32,25,23,15,26,24
18:55:00,30,28,18,25,30,22,8,26,23
18:56:00,22,21,33,29,29,24,13,27,24
18:57:00,31,22,20,26,43,20,14,28,25
18:58:00,32,23,28,26,34,25,15,29,26
18:59:00,22,31,21,20,17,15,13,22,20
19:00:00,25,27,30,33,24,24,13,28,25
19:01:00,23,24,28,37,28,27,8,28,25
19:02:00,22,21,29,19,35,13,19,25,23
19:03:00,21,28,18,23,22,20,16,22,21
19:04:00,24,28,27,29,23,23,19,26,25
19:05:00,21,28,31,38,19,20,21,27,25
19:06:00,34,25,20,24,25,16,15,26,23
19:07:00,30,29,36,31,27,20,9,31,26
19:08:00,25,17,25,32,22,21,21,24,23
19:09:00,24,21,19,28,30,21,17,24,23
19:10:00,26,37,25,34,16,16,16,28,24
19:11:00,22,29,10,36,30,13,14,25,22
19:12:00,30,29,18,31,17,22,18,25,24
19:13:00,20,29,35,30,28,18,13,28,25
19:14:00,24,22,27,23,28,17,13,25,22
19:15:00,21,20,16,33,16,16,12,21,19
19:16:00,29,16,36,29,14,16,13,25,22
19:17:00,26,15,25,30,25,15,17,24,22
19:18:00,31,26,21,28,29,22,10,27,24
19:19:00,21,19,19,26,17,19,17,20,20
19:20:00,12,24,30,24,24,21,16,23,22
19:21:00,16,19,21,22,18,17,20,19,19
19:22:00,22,25,31,32,26,18,16,27,24
19:23:00,23,26,23,22,17,22,14,22,21
19:24:00,40,13,28,23,19,24,13,25,23
19:25:00,23,27,26,19,19,18,8,23,20
19:26:00,22,16,24,28,23,12,10,23,19
19:27:00,22,26,26,25,31,20,13,26,23
19:28:00,17,18,26,35,18,15,16,23,21
19:29:00,16,17,17,23,19,18,12,18,17
19:30:00,21,19,16,19,20,17,8,19,17
19:31:00,21,21,18,22,17,19,11,20,18
19:32:00,23,18,16,24,25,19,8,21,19
19:33:00,15,14,12,17,19,16,18,15,16
19:34:00,16,21,19,26,18,15,16,20,19
19:35:00,12,20,15,26,31,17,13,21,19
19:36:00,14,20,17,20,30,15,8,20,18
19:37:00,21,17,18,23,20,13,10,20,17
19:38:00,16,24,22,11,33,17,11,21,19
19:39:00,19,16,15,14,16,15,11,16,15
19:40:00,18,22,20,25,11,21,9,19,18
19:41:00,12,21,16,26,20,22,5,19,17
19:42:00,21,28,15,23,21,19,12,22,20
19:43:00,18,17,16,19,23,22,6,19,17
19:44:00,11,19,14,25,17,10,10,17,15
19:45:00,11,17,20,28,12,12,10,18,16
19:46:00,23,21,19,23,19,19,5,21,18
19:47:00,10,27,7,15,14,26,12,15,16
19:48:00,12,32,22,18,10,6,12,19,16
19:49:00,18,18,12,22,19,6,6,18,14
19:50:00,14,14,9,20,13,18,15,14,15
19:51:00,21,18,15,17,15,14,8,17,15
19:52:00,14,9,11,16,16,9,10,13,12
19:53:00,17,6,22,19,20,14,7,17,15
19:54:00,14,12,22,17,12,4,7,15,13
19:55:00,15,29,13,14,17,11,12,18,16
19:56:00,18,21,15,19,17,21,14,18,18
19:57:00,20,16,18,20,18,14,8,18,16
19:58:00,16,19,25,24,20,16,17,21,20
19:59:00,11,18,15,10,10,12,10,13,12
20:00:00,18,24,23,21,11,13,11,19,17
20:01:00,16,21,13,11,17,15,10,16,15
20:02:00,14,16,13,25,17,17,8,17,16
20:03:00,16,17,14,20,14,14,11,16,15
20:04:00,18,24,19,19,15,21,6,19,17
20:05:00,12,17,18,20,20,21,8,17,17
20:06:00,17,16,14,22,18,15,10,17,16
20:07:00,18,25,18,18,15,14,13,19,17
20:08:00,13,27,16,19,13,13,17,18,17
20:09:00,24,22,16,24,11,11,7,19,16
20:10:00,16,16,19,19,13,10,6,17,14
20:11:00,23,15,16,14,21,12,12,18,16
20:12:00,16,21,30,15,16,8,7,20,16
20:13:00,14,12,15,14,16,15,12,14,14
20:14:00,14,8,13,19,15,11,11,14,13
20:15:00,17,12,14,9,20,10,12,14,13
20:16:00,16,15,13,16,15,13,11,15,14
20:17:00,22,16,25,14,23,11,14,20,18
20:18:00,23,13,16,12,10,7,8,15,13
20:19:00,12,25,11,15,10,5,11,15,13
20:20:00,19,16,13,11,16,10,9,15,13
20:21:00,18,12,10,13,15,14,7,14,13
20:22:00,19,14,15,21,17,17,12,17,16
20:23:00,13,16,7,20,8,15,10,13,13
20:24:00,17,21,12,20,7,11,12,15,14
20:25:00,12,8,10,13,13,10,9,11,11
20:26:00,13,12,6,14,16,14,8,12,12
20:27:00,11,12,12,10,14,9,7,12,11
20:28:00,14,15,16,14,13,14,6,14,13
20:29:00,18,10,14,20,16,7,12,16,14
20:30:00,11,11,7,11,7,6,7,9,9
20:31:00,16,13,11,13,16,12,11,14,13
20:32:00,11,9,13,13,17,12,8,13,12
20:33:00,7,13,12,15,9,9,9,11,11
20:34:00,12,13,8,16,10,15,12,12,12
20:35:00,9,17,8,18,10,16,7,12,12
20:36:00,8,13,13,8,12,8,8,11,10
20:37:00,13,15,19,12,12,5,3,14,11
20:38:00,15,17,10,21,11,13,4,15,13
20:39:00,13,17,8,20,10,13,10,14,13
20:40:00,17,25,15,21,9,13,11,17,16
20:41:00,13,14,13,26,11,6,11,15,13
20:42:00,8,13,13,16,12,12,3,12,11
20:43:00,9,7,13,16,13,15,9,12,12
20:44:00,5,9,8,12,10,15,11,9,10
20:45:00,9,13,10,9,11,8,5,10,9
20:46:00,18,9,11,12,18,12,2,14,12
20:47:00,5,14,14,15,6,14,5,11,10
20:48:00,13,13,11,15,7,9,10,12,11
20:49:00,3,13,9,12,14,15,6,10,10
20:50:00,6,8,6,24,6,8,4,10,9
20:51:00,11,5,6,18,10,5,5,10,9
20:52:00,10,9,16,13,9,9,10,11,11
20:53:00,8,11,10,5,11,10,9,9,9
20:54:00,3,9,12,14,8,13,8,9,10
20:55:00,10,11,7,12,17,11,4,11,10
20:56:00,12,9,12,19,15,11,10,13,13
20:57:00,11,9,8,7,5,4,3,8,7
20:58:00,7,13,13,8,12,5,6,11,9
20:59:00,12,9,13,6,9,8,11,10,10
21:00:00,13,14,6,10,9,7,6,10,9
21:01:00,11,7,14,10,7,11,7,10,10
21:02:00,9,7,17,12,15,11,7,12,11
21:03:00,12,6,10,12,12,6,8,10,9
21:04:00,10,8,13,14,8,10,6,11,10
21:05:00,10,11,8,8,9,10,10,9,9
21:06:00,9,10,13,8,10,9,9,10,10
21:07:00,16,10,10,17,6,17,7,12,12
21:08:00,13,14,14,16,6,7,6,13,11
21:09:00,10,10,12,15,14,11,5,12,11
21:10:00,4,12,4,13,5,9,8,8,8
21:11:00,8,14,7,12,6,14,7,9,10
21:12:00,9,17,11,12,14,11,7,13,12
21:13:00,16,14,13,15,12,8,14,14,13
21:14:00,15,9,7,12,9,11,9,10,10
21:15:00,9,4,15,16,10,7,14,11,11
21:16:00,8,9,16,8,8,10,5,10,9
21:17:00,9,11,15,12,14,13,6,12,11
21:18:00,10,7,9,11,7,12,9,9,9
21:19:00,8,9,11,8,9,5,13,9,9
21:20:00,5,15,14,10,10,13,8,11,11
21:21:00,12,6,11,17,12,11,8,12,11
21:22:00,15,7,5,14,13,7,7,11,10
21:23:00,5,8,8,14,8,10,10,9,9
21:24:00,12,8,1,16,7,6,12,9,9
21:25:00,9,9,13,16,8,9,6,11,10
21:26:00,14,3,9,10,8,12,4,9,9
21:27:00,5,10,10,13,11,10,7,10,9
21:28:00,6,8,5,6,7,13,6,6,7
21:29:00,6,7,13,7,10,13,7,9,9
21:30:00,8,11,13,11,9,6,4,10,9
21:31:00,4,9,12,8,12,7,10,9,9
21:32:00,9,6,12,16,9,6,6,10,9
21:33:00,5,9,12,13,12,11,9,10,10
21:34:00,5,14,16,14,9,10,8,12,11
21:35:00,6,6,6,13,11,9,3,8,8
21:36:00,9,9,11,9,8,9,7,9,9
21:37:00,5,13,9,9,11,15,7,9,10
21:38:00,9,7,12,6,13,10,7,9,9
21:39:00,9,6,16,9,6,12,6,9,9
21:40:00,5,12,6,12,10,7,4,9,8
21:41:00,8,4,7,11,3,8,6,7,7
21:42:00,7,5,10,11,8,15,6,8,9
21:43:00,12,7,9,8,5,7,5,8,8
21:44:00,6,12,3,9,6,18,6,7,9
21:45:00,5,8,5,8,10,7,6,7,7
21:46:00,9,8,9,9,5,8,8,8,8
21:47:00,5,8,9,8,8,5,7,8,7
21:48:00,2,0,12,4,10,7,7,6,6
21:49:00,7,11,1,14,4,6,10,7,8
21:50:00,7,10,13,8,8,3,3,9,7
21:51:00,5,7,8,9,3,9,1,6,6
21:52:00,4,4,8,10,8,9,10,7,8
21:53:00,8,10,5,12,7,7,2,8,7
21:54:00,8,13,9,5,5,9,7,8,8
21:55:00,7,10,3,9,9,9,7,8,8
21:56:00,8,6,10,13,6,8,6,9,8
21:57:00,4,7,9,8,7,12,7,7,8
21:58:00,6,13,5,5,16,4,9,9,8
21:59:00,6,10,1,13,5,10,4,7,7
22:00:00,10,9,4,5,7,9,5,7,7
22:01:00,14,3,4,7,7,5,4,7,6
22:02:00,10,9,17,13,1,5,8,10,9
22:03:00,12,13,5,13,13,7,7,11,10
22:04:00,6,14,7,13,9,13,6,10,10
22:05:00,9,5,11,15,12,9,8,10,10
22:06:00,10,6,10,8,8,7,8,8,8
22:07:00,9,14,8,16,19,10,6,13,12
22:08:00,9,15,20,9,8,12,8,12,12
22:09:00,5,11,4,9,15,6,4,9,8
22:10:00,8,10,13,14,9,8,5,11,10
22:11:00,6,5,6,5,13,7,5,7,7
22:12:00,9,7,11,12,13,6,5,10,9
22:13:00,4,6,9,12,11,8,5,8,8
22:14:00,7,7,6,8,7,4,5,7,6
22:15:00,11,6,3,4,11,6,2,7,6
22:16:00,6,11,13,10,4,6,4,9,8
22:17:00,6,7,6,11,7,6,5,7,7
22:18:00,3,4,10,11,12,5,7,8,7
22:19:00,8,6,7,21,6,11,7,10,9
22:20:00,11,5,4,8,10,7,6,8,7
22:21:00,3,4,9,13,17,4,5,9,8
22:22:00,5,6,6,8,8,6,7,7,7
22:23:00,2,6,5,6,15,6,3,7,6
22:24:00,5,8,9,10,7,4,1,8,6
22:25:00,7,3,9,7,5,5,4,6,6
22:26:00,3,5,4,7,9,8,6,6,6
22:27:00,4,7,6,13,2,4,6,6,6
22:28:00,2,4,3,12,10,5,3,6,6
22:29:00,6,5,4,3,6,4,9,5,5
22:30:00,1,5,6,7,5,7,4,5,5
22:31:00,2,5,7,4,9,7,5,5,6
22:32:00,2,4,5,11,10,3,6,6,6
22:33:00,4,5,5,4,4,5,3,4,4
22:34:00,4,3,5,6,4,7,7,4,5
22:35:00,3,10,11,12,8,7,8,9,8
22:36:00,5,6,6,9,4,3,5,6,5
22:37:00,2,3,5,9,7,5,6,5,5
22:38:00,5,5,4,6,7,7,0,5,5
22:39:00,6,6,6,7,7,4,3,6,6
22:40:00,2,8,4,7,8,6,2,6,5
22:41:00,5,8,9,5,4,10,3,6,6
22:42:00,6,10,1,8,12,5,7,7,7
22:43:00,3,5,3,6,6,7,6,5,5
22:44:00,6,3,8,7,5,10,3,6,6
22:45:00,3,4,3,4,7,10,4,4,5
22:46:00,5,6,2,3,7,4,2,5,4
22:47:00,4,6,4,5,6,1,2,5,4
22:48:00,5,2,4,4,6,7,3,4,4
22:49:00,5,6,5,5,6,6,6,5,6
22:50:00,8,4,2,4,6,11,5,5,6
22:51:00,5,1,3,5,6,6,1,4,4
22:52:00,6,2,7,6,7,3,1,6,5
22:53:00,2,5,2,2,9,11,2,4,5
22:54:00,4,7,4,4,7,10,6,5,6
22:55:00,6,2,5,6,6,7,5,5,5
22:56:00,4,2,5,7,6,5,7,5,5
22:57:00,4,0,2,2,8,9,1,3,4
22:58:00,7,5,6,6,6,5,4,6,6
22:59:00,3,4,2,8,7,5,3,5,5
23:00:00,4,3,5,6,7,9,4,5,5
23:01:00,2,5,3,2,8,12,2,4,5
23:02:00,8,1,8,5,4,7,0,5,5
23:03:00,0,4,4,3,5,9,1,3,4
23:04:00,4,2,5,6,7,5,4,5,5
23:05:00,7,7,2,6,7,6,4,6,6
23:06:00,3,4,7,10,7,6,5,6,6
23:07:00,5,2,2,4,9,5,4,4,4
23:08:00,6,1,3,7,9,12,4,5,6
23:09:00,2,3,9,5,7,7,6,5,6
23:10:00,4,5,6,6,12,3,4,7,6
23:11:00,3,1,4,6,6,5,2,4,4
23:12:00,4,3,3,3,6,6,3,4,4
23:13:00,4,1,2,2,10,4,6,4,4
23:14:00,2,4,6,5,10,2,4,5,5
23:15:00,3,3,1,9,5,5,5,4,4
23:16:00,4,2,2,6,9,7,2,5,5
23:17:00,4,4,5,4,4,5,3,4,4
23:18:00,4,7,6,5,7,6,3,6,5
23:19:00,2,1,4,5,3,7,3,3,4
23:20:00,3,1,1,8,8,4,1,4,4
23:21:00,2,5,2,5,5,6,4,4,4
23:22:00,2,2,2,1,8,7,3,3,4
23:23:00,3,3,3,2,5,8,7,3,4
23:24:00,3,3,0,3,9,2,5,4,4
23:25:00,5,2,0,4,6,11,6,3,5
23:26:00,3,3,5,1,4,7,3,3,4
23:27:00,4,10,3,6,3,3,3,5,5
23:28:00,2,1,2,6,4,4,2,3,3
23:29:00,1,5,3,6,3,8,3,4,4
23:30:00,0,4,0,5,2,5,2,2,3
23:31:00,2,7,7,7,5,3,3,6,5
23:32:00,1,3,1,4,6,1,5,3,3
23:33:00,2,5,4,5,10,2,1,5,4
23:34:00,2,3,4,2,9,4,1,4,4
23:35:00,2,4,1,3,6,9,3,3,4
23:36:00,1,3,3,4,4,3,5,3,3
23:37:00,1,2,3,5,8,6,2,4,4
23:38:00,1,5,1,3,4,7,8,3,4
23:39:00,0,1,3,3,5,7,3,2,3
23:40:00,1,5,4,5,6,2,2,4,4
23:41:00,5,3,4,1,3,6,1,3,3
23:42:00,2,3,4,5,9,10,3,5,5
23:43:00,3,6,4,8,5,3,6,5,5
23:44:00,3,3,5,1,2,4,3,3,3
23:45:00,0,1,4,5,5,7,1,3,3
23:46:00,2,2,3,2,6,5,4,3,3
23:47:00,2,3,5,3,6,6,2,4,4
23:48:00,3,5,2,4,7,4,1,4,4
23:49:00,3,1,2,1,10,3,3,3,3
23:50:00,5,1,3,5,6,14,3,4,5
23:51:00,2,1,4,5,6,7,1,4,4
23:52:00,0,3,2,4,3,5,2,2,3
23:53:00,1,0,2,2,7,8,5,2,4
23:54:00,0,1,4,6,6,9,1,3,4
23:55:00,0,2,4,5,5,5,5,3,4
23:56:00,0,2,1,3,6,4,3,2,3
23:57:00,2,1,4,2,5,3,6,3,3
23:58:00,1,2,2,4,6,7,4,3,4
23:59:00,1,2,1,2,6,6,3,2,3
,,,,,,,,,
Totals,,,,,,,,,
12H(7-19),25759,26006,26239,26303,26741,22183,18278,26210,24501
16H(6-22),29272,29663,29779,30265,30108,24860,20203,29817,27736
18H(6-24),29760,30208,30352,31008,30960,25609,20685,30458,28369
24H(0-24),30568,31002,31184,31873,31847,26491,21410,31295,29196
,,,,,,,,,
AM Peak,08:06:00,07:59:00,08:08:00,08:02:00,10:49:00,10:34:00,10:49:00,08:01:00,09:57:00
,2263,2268,2274,2262,2283,2314,2332,2220,2018
,,,,,,,,,
PM Peak,16:54:00,16:42:00,16:39:00,16:36:00,15:39:00,12:00:00,12:00:00,16:32:00,15:26:00
,2481,2602,2599,2578,2546,2416,2377,2530,2274
,,,,,,,,,
,,,,,,,,,
CA Traffic,,,,,,,,,VDA-net R2 16/01/2020
